fastdiffamp/data-noise-set/old-str-wk/str-wk-balanced/NewFile1.csv

X,CH1,Start,Increment,
Sequence,Volt,-1.148000e+01,2.000000e-02
0,-1.60e-03,
1,3.20e-03,
2,2.40e-03,
3,-1.60e-03,
4,-1.60e-03,
5,3.20e-03,
6,-2.40e-03,
7,2.00e-03,
8,-2.40e-03,
9,2.40e-03,
10,3.20e-03,
11,-2.40e-03,
12,2.40e-03,
13,-1.60e-03,
14,2.80e-03,
15,-2.00e-03,
16,-2.40e-03,
17,2.40e-03,
18,-1.60e-03,
19,2.40e-03,
20,-1.60e-03,
21,2.40e-03,
22,2.40e-03,
23,-1.60e-03,
24,2.80e-03,
25,-2.40e-03,
26,-2.40e-03,
27,2.00e-03,
28,-2.40e-03,
29,2.40e-03,
30,1.60e-03,
31,-2.40e-03,
32,2.40e-03,
33,-1.60e-03,
34,2.40e-03,
35,-1.60e-03,
36,-2.40e-03,
37,2.40e-03,
38,-1.60e-03,
39,2.80e-03,
40,-1.60e-03,
41,2.40e-03,
42,-2.40e-03,
43,4.00e-03,
44,-1.60e-03,
45,2.40e-03,
46,-8.00e-04,
47,3.20e-03,
48,2.40e-03,
49,-1.60e-03,
50,2.40e-03,
51,-1.60e-03,
52,2.40e-03,
53,-1.60e-03,
54,2.40e-03,
55,-2.40e-03,
56,2.80e-03,
57,-1.60e-03,
58,-1.60e-03,
59,2.40e-03,
60,-1.60e-03,
61,2.40e-03,
62,2.40e-03,
63,-1.60e-03,
64,-1.60e-03,
65,2.40e-03,
66,-1.60e-03,
67,2.40e-03,
68,2.40e-03,
69,-1.60e-03,
70,-1.60e-03,
71,4.00e-03,
72,2.40e-03,
73,-1.60e-03,
74,-2.40e-03,
75,2.40e-03,
76,-2.40e-03,
77,3.20e-03,
78,2.40e-03,
79,-2.40e-03,
80,2.00e-03,
81,-2.40e-03,
82,-1.60e-03,
83,3.20e-03,
84,-1.60e-03,
85,3.20e-03,
86,-1.60e-03,
87,2.40e-03,
88,-1.60e-03,
89,2.40e-03,
90,-1.60e-03,
91,2.40e-03,
92,-2.40e-03,
93,3.20e-03,
94,2.80e-03,
95,-2.40e-03,
96,-2.40e-03,
97,3.20e-03,
98,-1.60e-03,
99,2.40e-03,
100,2.80e-03,
101,-1.60e-03,
102,2.40e-03,
103,-2.40e-03,
104,3.20e-03,
105,-1.60e-03,
106,-1.60e-03,
107,2.80e-03,
108,2.40e-03,
109,-1.60e-03,
110,-1.60e-03,
111,2.40e-03,
112,-1.60e-03,
113,3.20e-03,
114,2.40e-03,
115,-3.20e-03,
116,-1.60e-03,
117,2.40e-03,
118,2.40e-03,
119,-1.60e-03,
120,2.40e-03,
121,-2.40e-03,
122,-2.40e-03,
123,3.20e-03,
124,-1.60e-03,
125,2.40e-03,
126,3.20e-03,
127,-1.60e-03,
128,2.40e-03,
129,-2.40e-03,
130,-1.60e-03,
131,2.40e-03,
132,2.40e-03,
133,-2.40e-03,
134,2.40e-03,
135,-1.60e-03,
136,-2.40e-03,
137,2.40e-03,
138,2.40e-03,
139,-2.40e-03,
140,2.40e-03,
141,-2.40e-03,
142,-2.40e-03,
143,2.40e-03,
144,2.40e-03,
145,-2.40e-03,
146,2.40e-03,
147,-2.40e-03,
148,2.40e-03,
149,-1.60e-03,
150,-1.60e-03,
151,3.20e-03,
152,-2.40e-03,
153,2.40e-03,
154,-1.60e-03,
155,3.20e-03,
156,2.40e-03,
157,-1.60e-03,
158,2.40e-03,
159,-1.60e-03,
160,-2.40e-03,
161,1.60e-03,
162,2.40e-03,
163,-2.40e-03,
164,-2.40e-03,
165,3.20e-03,
166,-1.60e-03,
167,3.20e-03,
168,2.40e-03,
169,-2.40e-03,
170,2.40e-03,
171,-2.40e-03,
172,-2.40e-03,
173,2.40e-03,
174,2.40e-03,
175,-2.40e-03,
176,-2.40e-03,
177,2.80e-03,
178,2.40e-03,
179,-2.40e-03,
180,2.40e-03,
181,-2.40e-03,
182,-1.60e-03,
183,3.20e-03,
184,2.40e-03,
185,-1.60e-03,
186,2.40e-03,
187,-1.60e-03,
188,2.40e-03,
189,-1.60e-03,
190,3.20e-03,
191,-1.60e-03,
192,2.40e-03,
193,-2.40e-03,
194,3.20e-03,
195,-1.60e-03,
196,-1.60e-03,
197,3.20e-03,
198,2.40e-03,
199,-2.40e-03,
200,3.20e-03,
201,-1.60e-03,
202,2.40e-03,
203,-1.60e-03,
204,2.40e-03,
205,-2.40e-03,
206,-1.60e-03,
207,2.40e-03,
208,2.40e-03,
209,-1.60e-03,
210,2.40e-03,
211,-1.60e-03,
212,1.60e-03,
213,-2.40e-03,
214,-1.60e-03,
215,2.40e-03,
216,-1.60e-03,
217,3.20e-03,
218,-1.60e-03,
219,2.40e-03,
220,2.40e-03,
221,-1.60e-03,
222,3.20e-03,
223,-1.60e-03,
224,2.40e-03,
225,-2.40e-03,
226,-1.60e-03,
227,3.20e-03,
228,2.80e-03,
229,-1.60e-03,
230,2.40e-03,
231,-1.60e-03,
232,-1.60e-03,
233,2.80e-03,
234,2.40e-03,
235,-1.60e-03,
236,2.40e-03,
237,-2.40e-03,
238,3.20e-03,
239,-1.60e-03,
240,2.40e-03,
241,-2.00e-03,
242,2.40e-03,
243,-1.60e-03,
244,-2.40e-03,
245,2.40e-03,
246,1.60e-03,
247,-2.40e-03,
248,2.40e-03,
249,-1.60e-03,
250,-2.40e-03,
251,3.20e-03,
252,2.80e-03,
253,-1.60e-03,
254,2.40e-03,
255,-2.40e-03,
256,-2.40e-03,
257,2.40e-03,
258,-2.40e-03,
259,3.20e-03,
260,2.40e-03,
261,-1.60e-03,
262,3.20e-03,
263,-2.40e-03,
264,2.40e-03,
265,-2.40e-03,
266,2.40e-03,
267,-2.40e-03,
268,-2.40e-03,
269,3.20e-03,
270,-1.60e-03,
271,2.40e-03,
272,2.40e-03,
273,-1.60e-03,
274,3.20e-03,
275,-1.60e-03,
276,3.20e-03,
277,-2.40e-03,
278,2.00e-03,
279,-2.40e-03,
280,2.40e-03,
281,-1.60e-03,
282,2.40e-03,
283,-1.60e-03,
284,-1.60e-03,
285,2.40e-03,
286,-8.00e-04,
287,2.80e-03,
288,-1.60e-03,
289,2.40e-03,
290,-2.40e-03,
291,2.40e-03,
292,2.40e-03,
293,-2.40e-03,
294,2.40e-03,
295,-2.40e-03,
296,-1.60e-03,
297,2.40e-03,
298,2.40e-03,
299,-1.60e-03,
300,3.20e-03,
301,-2.40e-03,
302,-1.60e-03,
303,2.80e-03,
304,-1.60e-03,
305,3.20e-03,
306,-1.60e-03,
307,3.20e-03,
308,-1.60e-03,
309,3.20e-03,
310,3.20e-03,
311,-1.60e-03,
312,3.20e-03,
313,-1.60e-03,
314,3.20e-03,
315,-2.40e-03,
316,-1.60e-03,
317,3.20e-03,
318,3.20e-03,
319,-2.40e-03,
320,3.20e-03,
321,-1.60e-03,
322,-1.60e-03,
323,2.40e-03,
324,2.40e-03,
325,-2.40e-03,
326,-1.60e-03,
327,2.40e-03,
328,2.40e-03,
329,-1.60e-03,
330,2.40e-03,
331,-2.40e-03,
332,-1.60e-03,
333,3.20e-03,
334,-1.60e-03,
335,2.40e-03,
336,2.40e-03,
337,-1.60e-03,
338,2.80e-03,
339,-1.60e-03,
340,3.20e-03,
341,-2.40e-03,
342,2.40e-03,
343,-1.60e-03,
344,3.20e-03,
345,-1.60e-03,
346,-2.40e-03,
347,3.20e-03,
348,3.20e-03,
349,-1.60e-03,
350,-1.60e-03,
351,2.40e-03,
352,2.40e-03,
353,-1.60e-03,
354,-2.40e-03,
355,2.40e-03,
356,-1.60e-03,
357,2.40e-03,
358,2.40e-03,
359,-1.60e-03,
360,2.40e-03,
361,-1.60e-03,
362,3.20e-03,
363,-2.40e-03,
364,2.40e-03,
365,-2.40e-03,
366,2.40e-03,
367,-1.60e-03,
368,-1.60e-03,
369,2.40e-03,
370,-1.60e-03,
371,3.20e-03,
372,2.40e-03,
373,-1.60e-03,
374,-1.60e-03,
375,3.20e-03,
376,2.40e-03,
377,-1.60e-03,
378,2.40e-03,
379,-2.40e-03,
380,-1.60e-03,
381,2.40e-03,
382,3.20e-03,
383,-2.40e-03,
384,-8.00e-04,
385,3.20e-03,
386,3.20e-03,
387,-2.40e-03,
388,2.40e-03,
389,-1.60e-03,
390,-1.60e-03,
391,2.80e-03,
392,2.40e-03,
393,-2.40e-03,
394,-1.60e-03,
395,3.20e-03,
396,-1.60e-03,
397,2.40e-03,
398,-1.60e-03,
399,2.40e-03,
400,-1.60e-03,
401,2.80e-03,
402,3.20e-03,
403,-2.40e-03,
404,2.40e-03,
405,-2.40e-03,
406,-1.60e-03,
407,2.40e-03,
408,-8.00e-04,
409,2.40e-03,
410,2.40e-03,
411,-2.40e-03,
412,3.20e-03,
413,-1.60e-03,
414,-1.60e-03,
415,3.20e-03,
416,2.40e-03,
417,-2.40e-03,
418,-1.60e-03,
419,3.20e-03,
420,-1.60e-03,
421,2.40e-03,
422,3.20e-03,
423,-1.60e-03,
424,-1.60e-03,
425,2.40e-03,
426,2.40e-03,
427,-2.40e-03,
428,2.40e-03,
429,-1.60e-03,
430,3.20e-03,
431,-1.60e-03,
432,-1.60e-03,
433,3.20e-03,
434,-1.60e-03,
435,2.40e-03,
436,2.00e-03,
437,-2.40e-03,
438,2.40e-03,
439,-2.40e-03,
440,-2.40e-03,
441,2.40e-03,
442,2.40e-03,
443,-1.60e-03,
444,2.40e-03,
445,-1.60e-03,
446,-1.60e-03,
447,2.40e-03,
448,-1.60e-03,
449,2.00e-03,
450,-1.60e-03,
451,2.80e-03,
452,2.40e-03,
453,-1.60e-03,
454,2.40e-03,
455,-2.40e-03,
456,2.40e-03,
457,-1.60e-03,
458,2.40e-03,
459,-2.40e-03,
460,-8.00e-04,
461,3.20e-03,
462,-1.60e-03,
463,2.40e-03,
464,2.40e-03,
465,-2.40e-03,
466,-1.60e-03,
467,3.20e-03,
468,-2.40e-03,
469,3.20e-03,
470,-8.00e-04,
471,2.40e-03,
472,2.40e-03,
473,-2.40e-03,
474,2.40e-03,
475,-2.40e-03,
476,-2.40e-03,
477,2.80e-03,
478,1.60e-03,
479,-2.00e-03,
480,-3.20e-03,
481,3.20e-03,
482,-1.60e-03,
483,2.40e-03,
484,-1.60e-03,
485,2.40e-03,
486,2.40e-03,
487,-2.00e-03,
488,2.40e-03,
489,-1.60e-03,
490,2.40e-03,
491,-1.60e-03,
492,2.40e-03,
493,-1.60e-03,
494,2.40e-03,
495,-2.40e-03,
496,2.40e-03,
497,-1.60e-03,
498,2.40e-03,
499,-1.60e-03,
500,2.40e-03,
501,-2.40e-03,
502,-1.60e-03,
503,3.20e-03,
504,-1.60e-03,
505,2.40e-03,
506,1.60e-03,
507,-1.60e-03,
508,2.40e-03,
509,-2.40e-03,
510,-2.40e-03,
511,2.40e-03,
512,-2.40e-03,
513,2.40e-03,
514,2.00e-03,
515,-1.60e-03,
516,-1.60e-03,
517,3.20e-03,
518,-2.40e-03,
519,2.40e-03,
520,-2.40e-03,
521,2.80e-03,
522,-1.60e-03,
523,2.40e-03,
524,-1.60e-03,
525,3.20e-03,
526,-2.40e-03,
527,2.40e-03,
528,2.80e-03,
529,-1.60e-03,
530,2.40e-03,
531,-2.40e-03,
532,-2.00e-03,
533,2.80e-03,
534,-2.40e-03,
535,3.20e-03,
536,-1.60e-03,
537,2.40e-03,
538,-2.40e-03,
539,3.20e-03,
540,1.60e-03,
541,-2.40e-03,
542,-1.60e-03,
543,2.40e-03,
544,-1.60e-03,
545,2.80e-03,
546,-1.60e-03,
547,2.80e-03,
548,-1.60e-03,
549,2.40e-03,
550,2.40e-03,
551,-2.40e-03,
552,-2.40e-03,
553,2.00e-03,
554,-2.40e-03,
555,2.40e-03,
556,-1.60e-03,
557,2.40e-03,
558,-1.60e-03,
559,2.40e-03,
560,2.40e-03,
561,-1.60e-03,
562,2.40e-03,
563,-3.20e-03,
564,2.40e-03,
565,-2.40e-03,
566,2.40e-03,
567,-1.60e-03,
568,-1.60e-03,
569,2.40e-03,
570,-2.40e-03,
571,2.00e-03,
572,-8.00e-04,
573,2.40e-03,
574,-1.60e-03,
575,2.80e-03,
576,-1.60e-03,
577,2.00e-03,
578,2.40e-03,
579,-2.40e-03,
580,2.40e-03,
581,-2.40e-03,
582,-1.60e-03,
583,2.40e-03,
584,2.40e-03,
585,-2.40e-03,
586,-1.60e-03,
587,3.20e-03,
588,3.20e-03,
589,-1.60e-03,
590,2.40e-03,
591,-1.60e-03,
592,2.40e-03,
593,-2.40e-03,
594,2.40e-03,
595,-1.60e-03,
596,-2.40e-03,
597,2.80e-03,
598,-1.60e-03,
599,3.20e-03,
600,2.40e-03,
601,-2.40e-03,
602,2.40e-03,
603,-2.40e-03,
604,-1.60e-03,
605,2.40e-03,
606,2.80e-03,
607,-1.60e-03,
608,2.40e-03,
609,-1.60e-03,
610,2.40e-03,
611,-2.40e-03,
612,-2.40e-03,
613,3.20e-03,
614,2.40e-03,
615,-2.40e-03,
616,-2.40e-03,
617,3.20e-03,
618,4.00e-03,
619,-3.20e-03,
620,-1.60e-03,
621,3.20e-03,
622,3.20e-03,
623,-1.60e-03,
624,-1.60e-03,
625,2.80e-03,
626,-1.60e-03,
627,2.40e-03,
628,-1.60e-03,
629,3.20e-03,
630,2.40e-03,
631,-2.40e-03,
632,-1.60e-03,
633,3.20e-03,
634,2.40e-03,
635,-1.60e-03,
636,-1.60e-03,
637,2.40e-03,
638,3.20e-03,
639,-1.60e-03,
640,2.40e-03,
641,-2.40e-03,
642,-2.40e-03,
643,2.80e-03,
644,-1.60e-03,
645,2.40e-03,
646,-2.40e-03,
647,2.80e-03,
648,-1.60e-03,
649,3.20e-03,
650,-1.60e-03,
651,2.40e-03,
652,2.80e-03,
653,-1.60e-03,
654,-1.60e-03,
655,2.40e-03,
656,2.40e-03,
657,-2.00e-03,
658,3.20e-03,
659,-1.60e-03,
660,-1.20e-03,
661,3.20e-03,
662,-1.60e-03,
663,2.40e-03,
664,-1.60e-03,
665,2.80e-03,
666,-1.60e-03,
667,2.40e-03,
668,-1.60e-03,
669,2.40e-03,
670,-1.60e-03,
671,2.40e-03,
672,-2.40e-03,
673,2.40e-03,
674,-2.40e-03,
675,2.80e-03,
676,-1.60e-03,
677,3.20e-03,
678,-1.60e-03,
679,3.20e-03,
680,-1.60e-03,
681,3.20e-03,
682,-1.60e-03,
683,4.00e-03,
684,2.40e-03,
685,-2.40e-03,
686,-1.60e-03,
687,2.40e-03,
688,-1.60e-03,
689,3.20e-03,
690,3.20e-03,
691,-1.60e-03,
692,-2.40e-03,
693,2.40e-03,
694,-1.60e-03,
695,2.40e-03,
696,-1.60e-03,
697,2.80e-03,
698,3.20e-03,
699,-2.40e-03,
700,4.00e-03,
701,-2.40e-03,
702,2.40e-03,
703,-1.60e-03,
704,3.60e-03,
705,-1.60e-03,
706,-1.60e-03,
707,3.20e-03,
708,2.40e-03,
709,-1.60e-03,
710,2.40e-03,
711,-1.60e-03,
712,3.20e-03,
713,-1.60e-03,
714,-1.60e-03,
715,2.40e-03,
716,-1.60e-03,
717,3.20e-03,
718,3.20e-03,
719,-1.60e-03,
720,-1.60e-03,
721,3.20e-03,
722,2.80e-03,
723,-2.40e-03,
724,-1.60e-03,
725,3.20e-03,
726,-1.60e-03,
727,3.20e-03,
728,2.80e-03,
729,-2.40e-03,
730,-1.60e-03,
731,2.00e-03,
732,-2.40e-03,
733,2.80e-03,
734,-1.60e-03,
735,2.00e-03,
736,-1.60e-03,
737,2.40e-03,
738,2.40e-03,
739,-2.40e-03,
740,2.40e-03,
741,-2.40e-03,
742,4.00e-03,
743,-1.60e-03,
744,3.20e-03,
745,-1.60e-03,
746,-2.40e-03,
747,3.20e-03,
748,3.20e-03,
749,-2.40e-03,
750,3.20e-03,
751,-1.60e-03,
752,2.40e-03,
753,-1.60e-03,
754,-1.60e-03,
755,2.40e-03,
756,2.40e-03,
757,-2.40e-03,
758,3.60e-03,
759,-1.60e-03,
760,-2.40e-03,
761,2.40e-03,
762,3.20e-03,
763,-1.60e-03,
764,-2.40e-03,
765,3.20e-03,
766,-1.60e-03,
767,2.40e-03,
768,-2.40e-03,
769,2.00e-03,
770,-1.60e-03,
771,2.40e-03,
772,-1.60e-03,
773,2.40e-03,
774,-2.40e-03,
775,2.40e-03,
776,2.40e-03,
777,-2.40e-03,
778,-2.40e-03,
779,2.40e-03,
780,-1.60e-03,
781,3.20e-03,
782,-1.60e-03,
783,2.40e-03,
784,-1.60e-03,
785,3.20e-03,
786,-1.60e-03,
787,2.40e-03,
788,-1.60e-03,
789,3.20e-03,
790,3.20e-03,
791,-1.60e-03,
792,3.20e-03,
793,-1.60e-03,
794,2.40e-03,
795,-1.60e-03,
796,-1.60e-03,
797,3.20e-03,
798,-1.60e-03,
799,3.20e-03,
800,-2.40e-03,
801,4.00e-03,
802,3.60e-03,
803,-8.00e-04,
804,2.40e-03,
805,-1.60e-03,
806,3.20e-03,
807,-1.60e-03,
808,-8.00e-04,
809,3.20e-03,
810,-1.60e-03,
811,2.40e-03,
812,2.40e-03,
813,-1.60e-03,
814,2.40e-03,
815,-1.60e-03,
816,-8.00e-04,
817,3.20e-03,
818,3.20e-03,
819,-2.40e-03,
820,3.20e-03,
821,-1.60e-03,
822,2.40e-03,
823,-1.60e-03,
824,-1.60e-03,
825,3.20e-03,
826,2.40e-03,
827,-1.60e-03,
828,3.20e-03,
829,-2.40e-03,
830,-1.60e-03,
831,3.20e-03,
832,3.20e-03,
833,-2.40e-03,
834,2.40e-03,
835,-2.40e-03,
836,-1.60e-03,
837,3.20e-03,
838,2.40e-03,
839,-1.60e-03,
840,-1.60e-03,
841,2.40e-03,
842,-1.60e-03,
843,3.20e-03,
844,-1.60e-03,
845,3.20e-03,
846,-1.60e-03,
847,2.40e-03,
848,2.40e-03,
849,-2.40e-03,
850,3.20e-03,
851,-2.40e-03,
852,-1.60e-03,
853,2.80e-03,
854,2.40e-03,
855,-3.20e-03,
856,-2.40e-03,
857,3.20e-03,
858,2.40e-03,
859,-1.60e-03,
860,-1.60e-03,
861,2.80e-03,
862,-1.60e-03,
863,3.20e-03,
864,-1.60e-03,
865,3.20e-03,
866,2.40e-03,
867,-1.60e-03,
868,2.40e-03,
869,-2.40e-03,
870,-2.00e-03,
871,2.40e-03,
872,-1.60e-03,
873,2.40e-03,
874,2.40e-03,
875,-2.40e-03,
876,-1.60e-03,
877,2.40e-03,
878,2.80e-03,
879,-1.60e-03,
880,2.40e-03,
881,-1.60e-03,
882,-2.00e-03,
883,2.40e-03,
884,-1.60e-03,
885,2.40e-03,
886,-1.60e-03,
887,3.20e-03,
888,3.20e-03,
889,-2.40e-03,
890,-2.40e-03,
891,2.40e-03,
892,2.00e-03,
893,-1.60e-03,
894,2.40e-03,
895,-1.60e-03,
896,-1.60e-03,
897,2.40e-03,
898,-2.40e-03,
899,2.40e-03,
900,2.40e-03,
901,-2.40e-03,
902,-1.60e-03,
903,2.40e-03,
904,-2.40e-03,
905,2.40e-03,
906,-2.40e-03,
907,2.00e-03,
908,-2.40e-03,
909,2.80e-03,
910,-2.40e-03,
911,3.20e-03,
912,-2.40e-03,
913,2.40e-03,
914,-2.40e-03,
915,2.40e-03,
916,-1.60e-03,
917,3.20e-03,
918,2.40e-03,
919,-1.60e-03,
920,-1.60e-03,
921,2.80e-03,
922,2.40e-03,
923,-1.60e-03,
924,2.40e-03,
925,-2.40e-03,
926,1.60e-03,
927,-1.60e-03,
928,2.40e-03,
929,-2.40e-03,
930,-2.40e-03,
931,2.40e-03,
932,2.40e-03,
933,-2.40e-03,
934,-3.20e-03,
935,2.40e-03,
936,-1.60e-03,
937,2.40e-03,
938,-2.40e-03,
939,2.40e-03,
940,2.80e-03,
941,-3.20e-03,
942,-1.60e-03,
943,2.80e-03,
944,2.40e-03,
945,-2.00e-03,
946,2.40e-03,
947,-3.20e-03,
948,1.60e-03,
949,-2.40e-03,
950,-2.40e-03,
951,1.60e-03,
952,-2.40e-03,
953,3.20e-03,
954,1.60e-03,
955,-2.40e-03,
956,2.40e-03,
957,-2.40e-03,
958,2.40e-03,
959,-2.40e-03,
960,-1.60e-03,
961,2.40e-03,
962,-1.60e-03,
963,2.40e-03,
964,-1.60e-03,
965,2.40e-03,
966,2.40e-03,
967,-2.40e-03,
968,2.40e-03,
969,-2.40e-03,
970,2.40e-03,
971,-2.40e-03,
972,2.40e-03,
973,-2.40e-03,
974,-1.60e-03,
975,2.40e-03,
976,2.40e-03,
977,-2.40e-03,
978,-2.40e-03,
979,3.20e-03,
980,-2.40e-03,
981,2.40e-03,
982,2.40e-03,
983,-2.40e-03,
984,-1.60e-03,
985,2.40e-03,
986,-2.40e-03,
987,2.00e-03,
988,2.40e-03,
989,-1.60e-03,
990,2.40e-03,
991,-1.60e-03,
992,-2.40e-03,
993,2.40e-03,
994,-1.60e-03,
995,2.40e-03,
996,-2.40e-03,
997,2.40e-03,
998,-4.00e-03,
999,2.40e-03,
1000,-1.60e-03,
1001,2.40e-03,
1002,-2.40e-03,
1003,2.40e-03,
1004,2.40e-03,
1005,-2.40e-03,
1006,2.40e-03,
1007,-2.40e-03,
1008,2.00e-03,
1009,-1.60e-03,
1010,2.40e-03,
1011,-1.60e-03,
1012,2.40e-03,
1013,-1.60e-03,
1014,-3.20e-03,
1015,2.80e-03,
1016,-2.40e-03,
1017,2.40e-03,
1018,-2.40e-03,
1019,2.40e-03,
1020,-1.60e-03,
1021,2.40e-03,
1022,2.40e-03,
1023,-2.40e-03,
1024,1.60e-03,
1025,-2.40e-03,
1026,-2.40e-03,
1027,2.40e-03,
1028,-2.40e-03,
1029,2.80e-03,
1030,2.40e-03,
1031,-1.60e-03,
1032,-2.40e-03,
1033,3.20e-03,
1034,-3.20e-03,
1035,3.20e-03,
1036,-2.40e-03,
1037,2.40e-03,
1038,2.40e-03,
1039,-2.40e-03,
1040,-2.40e-03,
1041,2.40e-03,
1042,-2.40e-03,
1043,2.00e-03,
1044,1.60e-03,
1045,-3.20e-03,
1046,-1.60e-03,
1047,2.00e-03,
1048,2.40e-03,
1049,-2.40e-03,
1050,2.00e-03,
1051,-2.40e-03,
1052,-2.40e-03,
1053,2.40e-03,
1054,-3.20e-03,
1055,2.40e-03,
1056,-2.40e-03,
1057,2.00e-03,
1058,-1.60e-03,
1059,2.40e-03,
1060,-1.60e-03,
1061,2.40e-03,
1062,3.20e-03,
1063,-2.40e-03,
1064,2.40e-03,
1065,-2.40e-03,
1066,-2.40e-03,
1067,2.40e-03,
1068,-2.40e-03,
1069,1.60e-03,
1070,2.40e-03,
1071,-1.60e-03,
1072,-2.40e-03,
1073,2.80e-03,
1074,2.40e-03,
1075,-3.20e-03,
1076,2.40e-03,
1077,-2.80e-03,
1078,-1.60e-03,
1079,2.00e-03,
1080,2.40e-03,
1081,-2.40e-03,
1082,2.40e-03,
1083,-1.60e-03,
1084,2.40e-03,
1085,-2.40e-03,
1086,-2.40e-03,
1087,2.40e-03,
1088,2.40e-03,
1089,-2.40e-03,
1090,-1.60e-03,
1091,2.00e-03,
1092,2.40e-03,
1093,-2.40e-03,
1094,2.40e-03,
1095,-2.40e-03,
1096,2.40e-03,
1097,-2.40e-03,
1098,2.40e-03,
1099,-2.40e-03,
1100,2.40e-03,
1101,-2.40e-03,
1102,-1.60e-03,
1103,2.40e-03,
1104,2.40e-03,
1105,-2.40e-03,
1106,-2.40e-03,
1107,2.80e-03,
1108,2.40e-03,
1109,-3.20e-03,
1110,-1.60e-03,
1111,2.40e-03,
1112,-2.40e-03,
1113,2.40e-03,
1114,-2.40e-03,
1115,3.20e-03,
1116,-2.40e-03,
1117,3.20e-03,
1118,-2.40e-03,
1119,3.20e-03,
1120,2.40e-03,
1121,-2.40e-03,
1122,2.40e-03,
1123,-2.40e-03,
1124,2.40e-03,
1125,-2.40e-03,
1126,2.40e-03,
1127,-2.40e-03,
1128,2.40e-03,
1129,-2.40e-03,
1130,2.00e-03,
1131,-2.40e-03,
1132,-2.40e-03,
1133,2.40e-03,
1134,1.60e-03,
1135,-2.40e-03,
1136,2.40e-03,
1137,-2.40e-03,
1138,2.40e-03,
1139,-1.60e-03,
1140,-1.60e-03,
1141,3.20e-03,
1142,2.40e-03,
1143,-2.40e-03,
1144,2.40e-03,
1145,-2.40e-03,
1146,-1.60e-03,
1147,2.40e-03,
1148,-1.60e-03,
1149,2.80e-03,
1150,-1.60e-03,
1151,2.40e-03,
1152,-2.40e-03,
1153,2.40e-03,
1154,-1.60e-03,
1155,2.40e-03,
1156,-1.60e-03,
1157,2.80e-03,
1158,-2.40e-03,
1159,2.40e-03,
1160,-1.60e-03,
1161,2.00e-03,
1162,3.20e-03,
1163,-2.40e-03,
1164,2.40e-03,
1165,-1.60e-03,
1166,2.40e-03,
1167,-1.60e-03,
1168,-2.40e-03,
1169,2.40e-03,
1170,2.40e-03,
1171,-2.40e-03,
1172,-1.60e-03,
1173,3.20e-03,
1174,2.40e-03,
1175,-2.40e-03,
1176,3.20e-03,
1177,-2.40e-03,
1178,-1.60e-03,
1179,2.40e-03,
1180,2.40e-03,
1181,-1.60e-03,
1182,-1.60e-03,
1183,3.20e-03,
1184,-2.40e-03,
1185,2.40e-03,
1186,2.40e-03,
1187,-2.40e-03,
1188,-2.40e-03,
1189,3.20e-03,
1190,2.40e-03,
1191,-2.40e-03,
1192,-1.60e-03,
1193,2.00e-03,
1194,-1.60e-03,
1195,3.20e-03,
1196,-2.40e-03,
1197,2.40e-03,
1198,-1.60e-03,
1199,2.40e-03,
