fastdiffamp/data-noise-set/old-str-wk/str-wk-balanced/NewFile7.csv

X,CH1,Start,Increment,
Sequence,Volt,-1.148000e+01,2.000000e-02
0,-8.00e-04,
1,2.00e-03,
2,1.60e-03,
3,-1.60e-03,
4,1.60e-03,
5,-2.40e-03,
6,2.40e-03,
7,-1.60e-03,
8,2.00e-03,
9,-2.40e-03,
10,-2.40e-03,
11,2.40e-03,
12,-2.40e-03,
13,2.40e-03,
14,2.40e-03,
15,-2.40e-03,
16,1.60e-03,
17,-2.40e-03,
18,-1.60e-03,
19,2.40e-03,
20,2.00e-03,
21,-1.60e-03,
22,-1.60e-03,
23,2.40e-03,
24,-1.60e-03,
25,2.40e-03,
26,-1.60e-03,
27,2.80e-03,
28,2.00e-03,
29,-2.40e-03,
30,-1.60e-03,
31,2.40e-03,
32,-1.60e-03,
33,1.60e-03,
34,1.60e-03,
35,-2.40e-03,
36,-1.60e-03,
37,2.80e-03,
38,-1.60e-03,
39,3.20e-03,
40,2.40e-03,
41,-2.40e-03,
42,-1.60e-03,
43,2.40e-03,
44,2.40e-03,
45,-1.60e-03,
46,2.40e-03,
47,-2.40e-03,
48,-1.60e-03,
49,2.40e-03,
50,1.60e-03,
51,-1.60e-03,
52,2.80e-03,
53,-1.60e-03,
54,2.00e-03,
55,-2.40e-03,
56,2.40e-03,
57,-2.40e-03,
58,2.40e-03,
59,-1.60e-03,
60,1.60e-03,
61,-1.60e-03,
62,-1.60e-03,
63,2.00e-03,
64,-1.60e-03,
65,2.00e-03,
66,-1.60e-03,
67,1.60e-03,
68,1.60e-03,
69,-1.60e-03,
70,2.40e-03,
71,-2.40e-03,
72,2.40e-03,
73,-2.40e-03,
74,2.00e-03,
75,-2.40e-03,
76,-1.60e-03,
77,2.40e-03,
78,2.40e-03,
79,-1.60e-03,
80,-1.60e-03,
81,2.40e-03,
82,2.40e-03,
83,-1.60e-03,
84,1.60e-03,
85,-1.60e-03,
86,2.40e-03,
87,-1.60e-03,
88,-1.60e-03,
89,2.40e-03,
90,2.40e-03,
91,-1.60e-03,
92,-1.60e-03,
93,2.40e-03,
94,-2.40e-03,
95,2.40e-03,
96,2.40e-03,
97,-2.40e-03,
98,-1.60e-03,
99,2.40e-03,
100,-1.60e-03,
101,2.40e-03,
102,-1.60e-03,
103,2.00e-03,
104,-1.60e-03,
105,2.00e-03,
106,1.60e-03,
107,-1.60e-03,
108,2.40e-03,
109,-1.60e-03,
110,-1.60e-03,
111,2.40e-03,
112,-1.60e-03,
113,2.40e-03,
114,-1.60e-03,
115,2.80e-03,
116,-1.60e-03,
117,2.80e-03,
118,1.60e-03,
119,-1.60e-03,
120,1.60e-03,
121,-1.60e-03,
122,-1.60e-03,
123,2.40e-03,
124,1.60e-03,
125,-1.60e-03,
126,-1.60e-03,
127,3.20e-03,
128,-1.60e-03,
129,2.40e-03,
130,2.40e-03,
131,-8.00e-04,
132,-1.60e-03,
133,3.20e-03,
134,2.80e-03,
135,-1.60e-03,
136,-1.60e-03,
137,2.40e-03,
138,2.40e-03,
139,-1.60e-03,
140,2.40e-03,
141,-1.60e-03,
142,2.40e-03,
143,-1.60e-03,
144,-8.00e-04,
145,2.40e-03,
146,-1.60e-03,
147,2.40e-03,
148,2.40e-03,
149,-1.60e-03,
150,-1.60e-03,
151,2.40e-03,
152,2.40e-03,
153,-1.60e-03,
154,-8.00e-04,
155,3.20e-03,
156,-1.60e-03,
157,3.20e-03,
158,2.40e-03,
159,-1.60e-03,
160,-8.00e-04,
161,2.40e-03,
162,-8.00e-04,
163,2.80e-03,
164,2.80e-03,
165,-1.60e-03,
166,2.40e-03,
167,-1.60e-03,
168,2.40e-03,
169,-2.40e-03,
170,2.40e-03,
171,-1.60e-03,
172,-1.60e-03,
173,3.20e-03,
174,2.80e-03,
175,-1.60e-03,
176,2.40e-03,
177,-1.60e-03,
178,2.40e-03,
179,-1.60e-03,
180,-2.40e-03,
181,2.40e-03,
182,-8.00e-04,
183,2.40e-03,
184,3.20e-03,
185,-1.60e-03,
186,2.40e-03,
187,-1.60e-03,
188,2.40e-03,
189,-1.60e-03,
190,2.40e-03,
191,-1.60e-03,
192,2.80e-03,
193,-8.00e-04,
194,2.40e-03,
195,-1.60e-03,
196,-8.00e-04,
197,3.20e-03,
198,2.40e-03,
199,-2.40e-03,
200,2.40e-03,
201,-1.60e-03,
202,-1.60e-03,
203,2.40e-03,
204,-1.60e-03,
205,2.40e-03,
206,-1.60e-03,
207,2.40e-03,
208,2.40e-03,
209,-2.40e-03,
210,-1.60e-03,
211,2.80e-03,
212,2.40e-03,
213,-1.60e-03,
214,-1.60e-03,
215,2.40e-03,
216,2.40e-03,
217,-1.60e-03,
218,-8.00e-04,
219,2.00e-03,
220,2.80e-03,
221,-1.60e-03,
222,2.40e-03,
223,-1.60e-03,
224,2.40e-03,
225,-2.40e-03,
226,2.40e-03,
227,-1.60e-03,
228,2.40e-03,
229,-1.60e-03,
230,-8.00e-04,
231,2.40e-03,
232,2.40e-03,
233,-1.60e-03,
234,2.40e-03,
235,-1.60e-03,
236,-1.60e-03,
237,2.40e-03,
238,-8.00e-04,
239,2.40e-03,
240,3.20e-03,
241,-1.60e-03,
242,-1.60e-03,
243,2.00e-03,
244,1.60e-03,
245,-1.60e-03,
246,-1.60e-03,
247,2.40e-03,
248,-1.60e-03,
249,2.40e-03,
250,-1.60e-03,
251,2.40e-03,
252,-1.60e-03,
253,2.00e-03,
254,-8.00e-04,
255,2.40e-03,
256,2.40e-03,
257,-1.60e-03,
258,-1.60e-03,
259,2.40e-03,
260,-1.60e-03,
261,2.80e-03,
262,-1.60e-03,
263,2.40e-03,
264,2.40e-03,
265,-2.40e-03,
266,2.40e-03,
267,-2.40e-03,
268,2.40e-03,
269,-1.60e-03,
270,-1.60e-03,
271,2.40e-03,
272,2.00e-03,
273,-1.60e-03,
274,-1.60e-03,
275,2.00e-03,
276,2.40e-03,
277,-1.60e-03,
278,-1.60e-03,
279,2.40e-03,
280,-1.60e-03,
281,2.40e-03,
282,2.00e-03,
283,-1.60e-03,
284,-1.60e-03,
285,2.40e-03,
286,2.80e-03,
287,-1.60e-03,
288,2.00e-03,
289,-1.60e-03,
290,-2.40e-03,
291,2.40e-03,
292,2.40e-03,
293,-1.60e-03,
294,2.40e-03,
295,-1.60e-03,
296,-1.60e-03,
297,2.80e-03,
298,2.40e-03,
299,-1.60e-03,
300,-1.60e-03,
301,2.40e-03,
302,2.40e-03,
303,-2.40e-03,
304,1.60e-03,
305,-2.40e-03,
306,2.80e-03,
307,-2.40e-03,
308,-1.60e-03,
309,2.80e-03,
310,-1.60e-03,
311,2.40e-03,
312,2.00e-03,
313,-2.40e-03,
314,2.40e-03,
315,-2.40e-03,
316,-2.40e-03,
317,2.40e-03,
318,2.00e-03,
319,-1.60e-03,
320,2.40e-03,
321,-2.40e-03,
322,-1.60e-03,
323,2.40e-03,
324,-1.60e-03,
325,1.60e-03,
326,2.40e-03,
327,-8.00e-04,
328,2.00e-03,
329,-1.60e-03,
330,2.40e-03,
331,-1.60e-03,
332,2.40e-03,
333,-2.40e-03,
334,-1.60e-03,
335,2.40e-03,
336,-1.60e-03,
337,3.20e-03,
338,2.40e-03,
339,-1.60e-03,
340,2.00e-03,
341,-1.60e-03,
342,-1.60e-03,
343,2.40e-03,
344,2.40e-03,
345,-1.60e-03,
346,2.40e-03,
347,-1.60e-03,
348,-8.00e-04,
349,3.20e-03,
350,2.80e-03,
351,-1.60e-03,
352,-1.60e-03,
353,2.40e-03,
354,-1.60e-03,
355,2.40e-03,
356,-2.40e-03,
357,3.20e-03,
358,2.00e-03,
359,-1.60e-03,
360,-1.60e-03,
361,2.40e-03,
362,-1.60e-03,
363,2.80e-03,
364,2.40e-03,
365,-2.40e-03,
366,2.40e-03,
367,-1.60e-03,
368,-8.00e-04,
369,2.80e-03,
370,2.40e-03,
371,-1.60e-03,
372,-8.00e-04,
373,2.40e-03,
374,-1.60e-03,
375,2.40e-03,
376,2.40e-03,
377,-1.60e-03,
378,2.40e-03,
379,-1.60e-03,
380,2.40e-03,
381,-2.40e-03,
382,2.40e-03,
383,-2.40e-03,
384,2.40e-03,
385,-1.60e-03,
386,1.60e-03,
387,-1.60e-03,
388,2.00e-03,
389,-1.60e-03,
390,-1.60e-03,
391,2.00e-03,
392,1.60e-03,
393,-1.60e-03,
394,2.40e-03,
395,-1.60e-03,
396,2.40e-03,
397,-1.60e-03,
398,2.40e-03,
399,-2.40e-03,
400,-8.00e-04,
401,2.40e-03,
402,2.40e-03,
403,-2.00e-03,
404,-1.60e-03,
405,2.00e-03,
406,-1.60e-03,
407,2.00e-03,
408,2.40e-03,
409,-1.60e-03,
410,-2.40e-03,
411,2.00e-03,
412,1.60e-03,
413,-2.40e-03,
414,2.00e-03,
415,-1.60e-03,
416,-1.60e-03,
417,2.40e-03,
418,2.00e-03,
419,-1.60e-03,
420,-1.60e-03,
421,2.00e-03,
422,2.00e-03,
423,-1.60e-03,
424,-1.60e-03,
425,2.40e-03,
426,2.40e-03,
427,-1.60e-03,
428,-1.60e-03,
429,2.80e-03,
430,-1.60e-03,
431,2.40e-03,
432,1.60e-03,
433,-2.40e-03,
434,2.40e-03,
435,-1.60e-03,
436,-1.60e-03,
437,2.40e-03,
438,-1.60e-03,
439,2.40e-03,
440,2.40e-03,
441,-1.60e-03,
442,-1.60e-03,
443,2.40e-03,
444,-1.60e-03,
445,2.40e-03,
446,-1.60e-03,
447,2.40e-03,
448,2.40e-03,
449,-1.60e-03,
450,2.40e-03,
451,-2.40e-03,
452,-1.60e-03,
453,2.40e-03,
454,-1.60e-03,
455,2.40e-03,
456,1.60e-03,
457,-1.60e-03,
458,-2.40e-03,
459,2.40e-03,
460,2.40e-03,
461,-1.60e-03,
462,2.00e-03,
463,-2.40e-03,
464,2.40e-03,
465,-1.60e-03,
466,-1.60e-03,
467,2.00e-03,
468,2.40e-03,
469,-2.40e-03,
470,-1.60e-03,
471,2.00e-03,
472,2.40e-03,
473,-1.60e-03,
474,2.40e-03,
475,-1.60e-03,
476,-1.60e-03,
477,2.00e-03,
478,-1.60e-03,
479,2.00e-03,
480,-1.60e-03,
481,2.00e-03,
482,2.40e-03,
483,-2.40e-03,
484,2.40e-03,
485,-1.60e-03,
486,-1.60e-03,
487,2.40e-03,
488,-2.40e-03,
489,2.00e-03,
490,-1.60e-03,
491,2.40e-03,
492,2.40e-03,
493,-1.60e-03,
494,2.40e-03,
495,-2.40e-03,
496,2.40e-03,
497,-2.40e-03,
498,-1.60e-03,
499,2.00e-03,
500,-1.60e-03,
501,2.40e-03,
502,1.60e-03,
503,-1.60e-03,
504,-1.60e-03,
505,2.40e-03,
506,-1.60e-03,
507,2.00e-03,
508,1.60e-03,
509,-2.40e-03,
510,-1.60e-03,
511,2.40e-03,
512,2.40e-03,
513,-2.40e-03,
514,2.40e-03,
515,-2.40e-03,
516,1.60e-03,
517,-1.60e-03,
518,1.60e-03,
519,-1.60e-03,
520,2.40e-03,
521,-2.40e-03,
522,2.40e-03,
523,-1.60e-03,
524,3.20e-03,
525,-1.60e-03,
526,2.40e-03,
527,-2.40e-03,
528,2.80e-03,
529,-2.40e-03,
530,-1.60e-03,
531,2.00e-03,
532,1.60e-03,
533,-1.60e-03,
534,-1.60e-03,
535,2.40e-03,
536,-2.40e-03,
537,2.00e-03,
538,2.40e-03,
539,-1.60e-03,
540,2.00e-03,
541,-2.40e-03,
542,1.60e-03,
543,-1.60e-03,
544,2.40e-03,
545,-1.60e-03,
546,2.00e-03,
547,-1.60e-03,
548,2.00e-03,
549,-2.40e-03,
550,-1.60e-03,
551,2.40e-03,
552,2.00e-03,
553,-1.60e-03,
554,-1.60e-03,
555,2.40e-03,
556,-2.40e-03,
557,1.60e-03,
558,1.60e-03,
559,-2.40e-03,
560,-2.40e-03,
561,2.00e-03,
562,-1.60e-03,
563,2.40e-03,
564,2.40e-03,
565,-1.60e-03,
566,-2.40e-03,
567,2.00e-03,
568,2.40e-03,
569,-1.60e-03,
570,-1.60e-03,
571,2.40e-03,
572,-1.60e-03,
573,1.60e-03,
574,-1.60e-03,
575,2.00e-03,
576,-1.60e-03,
577,2.40e-03,
578,2.40e-03,
579,-2.40e-03,
580,2.40e-03,
581,-1.60e-03,
582,-1.60e-03,
583,2.40e-03,
584,-8.00e-04,
585,2.40e-03,
586,-1.60e-03,
587,2.40e-03,
588,2.40e-03,
589,-2.40e-03,
590,-2.40e-03,
591,2.40e-03,
592,2.40e-03,
593,-1.60e-03,
594,2.40e-03,
595,-1.60e-03,
596,1.60e-03,
597,-1.60e-03,
598,2.00e-03,
599,-2.40e-03,
600,-2.80e-03,
601,2.40e-03,
602,-1.60e-03,
603,2.40e-03,
604,2.40e-03,
605,-2.40e-03,
606,2.00e-03,
607,-1.60e-03,
608,-2.40e-03,
609,2.40e-03,
610,1.60e-03,
611,-1.60e-03,
612,2.00e-03,
613,-1.60e-03,
614,-1.60e-03,
615,2.40e-03,
616,-2.00e-03,
617,1.60e-03,
618,-1.60e-03,
619,2.80e-03,
620,2.40e-03,
621,-1.60e-03,
622,2.40e-03,
623,-1.60e-03,
624,-1.60e-03,
625,2.40e-03,
626,-2.40e-03,
627,2.00e-03,
628,2.40e-03,
629,-2.40e-03,
630,2.40e-03,
631,-1.60e-03,
632,1.60e-03,
633,-1.60e-03,
634,-2.40e-03,
635,3.20e-03,
636,1.60e-03,
637,-2.40e-03,
638,3.20e-03,
639,-1.60e-03,
640,2.00e-03,
641,-1.60e-03,
642,2.40e-03,
643,-1.60e-03,
644,-2.40e-03,
645,2.40e-03,
646,1.60e-03,
647,-2.40e-03,
648,1.60e-03,
649,-1.60e-03,
650,1.60e-03,
651,-1.60e-03,
652,2.40e-03,
653,-1.60e-03,
654,2.40e-03,
655,-1.60e-03,
656,2.00e-03,
657,-2.40e-03,
658,2.00e-03,
659,-2.40e-03,
660,2.80e-03,
661,-2.40e-03,
662,-1.60e-03,
663,1.60e-03,
664,-1.60e-03,
665,1.60e-03,
666,-1.60e-03,
667,1.60e-03,
668,1.60e-03,
669,-2.40e-03,
670,-1.60e-03,
671,2.00e-03,
672,-1.60e-03,
673,2.00e-03,
674,1.60e-03,
675,-1.60e-03,
676,2.40e-03,
677,-2.40e-03,
678,2.40e-03,
679,-2.40e-03,
680,1.60e-03,
681,-1.60e-03,
682,2.40e-03,
683,-2.40e-03,
684,2.80e-03,
685,-2.40e-03,
686,2.40e-03,
687,-2.40e-03,
688,1.60e-03,
689,-2.40e-03,
690,-1.60e-03,
691,2.40e-03,
692,-2.40e-03,
693,2.40e-03,
694,2.00e-03,
695,-2.40e-03,
696,2.40e-03,
697,-2.40e-03,
698,1.60e-03,
699,-1.60e-03,
700,-1.60e-03,
701,2.00e-03,
702,-1.60e-03,
703,2.00e-03,
704,1.60e-03,
705,-1.60e-03,
706,2.80e-03,
707,-1.60e-03,
708,2.40e-03,
709,-2.40e-03,
710,2.40e-03,
711,-1.60e-03,
712,2.40e-03,
713,-3.20e-03,
714,-1.60e-03,
715,2.40e-03,
716,2.40e-03,
717,-2.40e-03,
718,-1.60e-03,
719,2.40e-03,
720,-1.60e-03,
721,2.40e-03,
722,1.60e-03,
723,-2.40e-03,
724,-1.60e-03,
725,2.40e-03,
726,2.40e-03,
727,-2.40e-03,
728,-2.40e-03,
729,2.40e-03,
730,1.60e-03,
731,-2.40e-03,
732,2.40e-03,
733,-2.40e-03,
734,2.40e-03,
735,-2.40e-03,
736,2.40e-03,
737,-2.40e-03,
738,-1.60e-03,
739,2.00e-03,
740,2.40e-03,
741,-2.40e-03,
742,2.80e-03,
743,-1.60e-03,
744,-2.40e-03,
745,1.60e-03,
746,-1.60e-03,
747,2.40e-03,
748,2.40e-03,
749,-2.40e-03,
750,1.60e-03,
751,-2.40e-03,
752,-1.60e-03,
753,2.40e-03,
754,-1.60e-03,
755,2.00e-03,
756,-1.60e-03,
757,2.40e-03,
758,-1.60e-03,
759,3.20e-03,
760,1.60e-03,
761,-1.60e-03,
762,-2.00e-03,
763,2.40e-03,
764,2.40e-03,
765,-1.60e-03,
766,2.40e-03,
767,-1.60e-03,
768,-2.40e-03,
769,2.40e-03,
770,-1.60e-03,
771,1.60e-03,
772,1.60e-03,
773,-2.40e-03,
774,-2.40e-03,
775,1.60e-03,
776,2.00e-03,
777,-2.40e-03,
778,-1.60e-03,
779,2.00e-03,
780,-2.40e-03,
781,1.60e-03,
782,2.40e-03,
783,-1.60e-03,
784,1.60e-03,
785,-1.60e-03,
786,1.60e-03,
787,-2.40e-03,
788,-1.60e-03,
789,1.60e-03,
790,2.40e-03,
791,-2.40e-03,
792,1.60e-03,
793,-2.40e-03,
794,1.60e-03,
795,-2.40e-03,
796,1.60e-03,
797,-1.60e-03,
798,-1.60e-03,
799,2.40e-03,
800,3.20e-03,
801,-2.40e-03,
802,1.60e-03,
803,-2.40e-03,
804,1.60e-03,
805,-2.40e-03,
806,1.60e-03,
807,-2.40e-03,
808,1.60e-03,
809,-2.40e-03,
810,-1.60e-03,
811,2.40e-03,
812,2.00e-03,
813,-2.40e-03,
814,-2.40e-03,
815,1.60e-03,
816,2.00e-03,
817,-1.60e-03,
818,1.60e-03,
819,-1.60e-03,
820,-1.60e-03,
821,2.40e-03,
822,2.00e-03,
823,-2.40e-03,
824,-1.60e-03,
825,2.40e-03,
826,-1.60e-03,
827,2.40e-03,
828,-1.60e-03,
829,2.00e-03,
830,-1.60e-03,
831,2.80e-03,
832,1.60e-03,
833,-1.60e-03,
834,-1.60e-03,
835,2.00e-03,
836,1.60e-03,
837,-2.40e-03,
838,-1.60e-03,
839,2.00e-03,
840,-1.60e-03,
841,2.40e-03,
842,-1.60e-03,
843,2.00e-03,
844,-1.60e-03,
845,2.40e-03,
846,-1.60e-03,
847,2.00e-03,
848,-2.40e-03,
849,2.40e-03,
850,2.00e-03,
851,-1.60e-03,
852,2.80e-03,
853,-1.60e-03,
854,-1.60e-03,
855,2.40e-03,
856,-1.60e-03,
857,2.00e-03,
858,-2.40e-03,
859,2.00e-03,
860,2.40e-03,
861,-2.40e-03,
862,-2.40e-03,
863,1.60e-03,
864,-1.60e-03,
865,2.40e-03,
866,-1.60e-03,
867,2.40e-03,
868,1.60e-03,
869,-2.40e-03,
870,-2.40e-03,
871,1.60e-03,
872,-2.40e-03,
873,2.00e-03,
874,-1.60e-03,
875,2.80e-03,
876,1.60e-03,
877,-2.40e-03,
878,-1.60e-03,
879,1.60e-03,
880,-1.60e-03,
881,2.40e-03,
882,2.00e-03,
883,-1.60e-03,
884,-2.40e-03,
885,2.40e-03,
886,-1.60e-03,
887,2.40e-03,
888,2.40e-03,
889,-1.60e-03,
890,-2.40e-03,
891,2.40e-03,
892,-2.40e-03,
893,2.80e-03,
894,1.60e-03,
895,-1.60e-03,
896,2.00e-03,
897,-2.40e-03,
898,-1.60e-03,
899,2.00e-03,
900,-1.60e-03,
901,1.60e-03,
902,-1.60e-03,
903,1.60e-03,
904,-2.40e-03,
905,2.40e-03,
906,2.40e-03,
907,-2.40e-03,
908,1.60e-03,
909,-2.40e-03,
910,2.00e-03,
911,-1.60e-03,
912,-1.60e-03,
913,2.40e-03,
914,2.40e-03,
915,-1.60e-03,
916,-2.40e-03,
917,1.60e-03,
918,1.60e-03,
919,-3.60e-03,
920,1.60e-03,
921,-2.40e-03,
922,-1.60e-03,
923,1.60e-03,
924,-1.60e-03,
925,1.60e-03,
926,1.60e-03,
927,-1.60e-03,
928,1.60e-03,
929,-2.40e-03,
930,-2.40e-03,
931,2.40e-03,
932,1.60e-03,
933,-1.60e-03,
934,-1.60e-03,
935,2.80e-03,
936,2.40e-03,
937,-2.40e-03,
938,2.40e-03,
939,-1.60e-03,
940,-2.40e-03,
941,2.00e-03,
942,-2.40e-03,
943,2.40e-03,
944,1.60e-03,
945,-3.20e-03,
946,2.40e-03,
947,-1.60e-03,
948,2.40e-03,
949,-2.40e-03,
950,-1.60e-03,
951,1.60e-03,
952,-1.60e-03,
953,2.00e-03,
954,2.00e-03,
955,-1.60e-03,
956,2.40e-03,
957,-3.20e-03,
958,-2.40e-03,
959,2.40e-03,
960,1.60e-03,
961,-2.40e-03,
962,-1.60e-03,
963,1.60e-03,
964,1.60e-03,
965,-1.60e-03,
966,1.60e-03,
967,-2.40e-03,
968,1.20e-03,
969,-2.40e-03,
970,-2.40e-03,
971,1.60e-03,
972,-1.60e-03,
973,1.60e-03,
974,-2.40e-03,
975,2.40e-03,
976,-1.60e-03,
977,3.20e-03,
978,-1.60e-03,
979,1.60e-03,
980,-2.40e-03,
981,2.00e-03,
982,1.60e-03,
983,-1.60e-03,
984,2.00e-03,
985,-2.40e-03,
986,2.40e-03,
987,-2.40e-03,
988,1.60e-03,
989,-1.60e-03,
990,1.60e-03,
991,-2.40e-03,
992,-1.60e-03,
993,2.40e-03,
994,-1.60e-03,
995,1.60e-03,
996,-1.60e-03,
997,1.60e-03,
998,1.60e-03,
999,-2.40e-03,
1000,1.60e-03,
1001,-2.80e-03,
1002,1.60e-03,
1003,-2.40e-03,
1004,-1.60e-03,
1005,2.00e-03,
1006,-1.60e-03,
1007,1.60e-03,
1008,2.80e-03,
1009,-2.40e-03,
1010,1.60e-03,
1011,-1.60e-03,
1012,1.60e-03,
1013,-3.20e-03,
1014,-1.60e-03,
1015,8.00e-04,
1016,-2.40e-03,
1017,2.40e-03,
1018,2.40e-03,
1019,-2.40e-03,
1020,2.00e-03,
1021,-1.60e-03,
1022,1.60e-03,
1023,-2.40e-03,
1024,-2.40e-03,
1025,2.40e-03,
1026,2.40e-03,
1027,-2.40e-03,
1028,1.60e-03,
1029,-2.40e-03,
1030,1.60e-03,
1031,-2.40e-03,
1032,2.00e-03,
1033,-2.40e-03,
1034,3.20e-03,
1035,-1.60e-03,
1036,2.00e-03,
1037,-1.60e-03,
1038,-1.60e-03,
1039,2.40e-03,
1040,-1.60e-03,
1041,2.40e-03,
1042,-2.40e-03,
1043,2.40e-03,
1044,1.60e-03,
1045,-2.40e-03,
1046,-2.40e-03,
1047,2.40e-03,
1048,-2.40e-03,
1049,2.40e-03,
1050,-1.60e-03,
1051,2.00e-03,
1052,1.60e-03,
1053,-2.40e-03,
1054,-2.40e-03,
1055,1.60e-03,
1056,-2.40e-03,
1057,2.40e-03,
1058,1.60e-03,
1059,-2.40e-03,
1060,2.00e-03,
1061,-2.40e-03,
1062,1.60e-03,
1063,-1.60e-03,
1064,-1.60e-03,
1065,2.40e-03,
1066,-1.60e-03,
1067,1.60e-03,
1068,1.60e-03,
1069,-2.40e-03,
1070,2.40e-03,
1071,-2.40e-03,
1072,1.60e-03,
1073,-1.60e-03,
1074,2.00e-03,
1075,-1.60e-03,
1076,-2.40e-03,
1077,1.60e-03,
1078,2.00e-03,
1079,-1.60e-03,
1080,1.60e-03,
1081,-2.40e-03,
1082,-1.60e-03,
1083,2.00e-03,
1084,-1.60e-03,
1085,2.00e-03,
1086,1.60e-03,
1087,-2.40e-03,
1088,2.40e-03,
1089,-1.60e-03,
1090,1.60e-03,
1091,-1.60e-03,
1092,1.60e-03,
1093,-1.60e-03,
1094,-1.60e-03,
1095,1.60e-03,
1096,2.00e-03,
1097,-2.40e-03,
1098,-1.60e-03,
1099,2.40e-03,
1100,1.60e-03,
1101,-1.60e-03,
1102,2.40e-03,
1103,-2.00e-03,
1104,-1.60e-03,
1105,2.40e-03,
1106,2.00e-03,
1107,-1.60e-03,
1108,1.60e-03,
1109,-2.40e-03,
1110,-1.60e-03,
1111,2.00e-03,
1112,-1.60e-03,
1113,2.40e-03,
1114,2.40e-03,
1115,-1.60e-03,
1116,2.40e-03,
1117,-2.40e-03,
1118,-1.60e-03,
1119,2.00e-03,
1120,-1.60e-03,
1121,2.00e-03,
1122,2.40e-03,
1123,-1.60e-03,
1124,2.40e-03,
1125,-2.40e-03,
1126,-1.60e-03,
1127,2.40e-03,
1128,2.80e-03,
1129,-2.40e-03,
1130,2.00e-03,
1131,-2.40e-03,
1132,-1.60e-03,
1133,3.20e-03,
1134,2.40e-03,
1135,-1.60e-03,
1136,1.60e-03,
1137,-2.40e-03,
1138,-1.60e-03,
1139,2.40e-03,
1140,2.80e-03,
1141,-1.60e-03,
1142,2.00e-03,
1143,-2.40e-03,
1144,1.60e-03,
1145,-1.60e-03,
1146,2.00e-03,
1147,-1.60e-03,
1148,-1.60e-03,
1149,2.40e-03,
1150,2.00e-03,
1151,-1.60e-03,
1152,1.60e-03,
1153,-2.40e-03,
1154,3.20e-03,
1155,-2.00e-03,
1156,2.40e-03,
1157,-2.40e-03,
1158,-1.60e-03,
1159,2.40e-03,
1160,2.40e-03,
1161,-8.00e-04,
1162,2.40e-03,
1163,-1.60e-03,
1164,-1.60e-03,
1165,2.40e-03,
1166,2.40e-03,
1167,-1.60e-03,
1168,-1.60e-03,
1169,2.40e-03,
1170,1.60e-03,
1171,-2.40e-03,
1172,-1.60e-03,
1173,1.60e-03,
1174,-1.60e-03,
1175,1.60e-03,
1176,1.60e-03,
1177,-1.60e-03,
1178,-2.40e-03,
1179,2.40e-03,
1180,1.60e-03,
1181,-1.60e-03,
1182,2.40e-03,
1183,-1.60e-03,
1184,2.40e-03,
1185,-1.60e-03,
1186,1.60e-03,
1187,-1.60e-03,
1188,1.60e-03,
1189,-2.40e-03,
1190,-1.60e-03,
1191,2.40e-03,
1192,2.40e-03,
1193,-1.60e-03,
1194,2.00e-03,
1195,-1.60e-03,
1196,1.60e-03,
1197,-2.40e-03,
1198,-1.60e-03,
1199,1.60e-03,
