fastdiffamp/data-noise-set/bal-demod/NewFile13.csv

X,CH1,Start,Increment,
Sequence,Volt,-5.490000e+00,1.000000e-02
0,2.40e-04,
1,-8.00e-05,
2,2.40e-04,
3,-1.60e-04,
4,2.40e-04,
5,-8.00e-05,
6,-8.00e-05,
7,2.00e-04,
8,-1.60e-04,
9,2.00e-04,
10,-8.00e-05,
11,3.20e-04,
12,-8.00e-05,
13,2.80e-04,
14,-1.60e-04,
15,2.00e-04,
16,-8.00e-05,
17,2.40e-04,
18,-1.60e-04,
19,3.20e-04,
20,2.40e-04,
21,-8.00e-05,
22,2.40e-04,
23,-8.00e-05,
24,-8.00e-05,
25,2.40e-04,
26,1.60e-04,
27,-1.60e-04,
28,1.60e-04,
29,-1.60e-04,
30,-8.00e-05,
31,2.00e-04,
32,-1.60e-04,
33,2.40e-04,
34,-8.00e-05,
35,2.40e-04,
36,-8.00e-05,
37,2.40e-04,
38,1.60e-04,
39,-8.00e-05,
40,-8.00e-05,
41,1.60e-04,
42,-1.60e-04,
43,2.00e-04,
44,-1.60e-04,
45,1.60e-04,
46,-1.60e-04,
47,2.00e-04,
48,-1.60e-04,
49,2.40e-04,
50,-1.60e-04,
51,1.60e-04,
52,-2.40e-04,
53,3.20e-04,
54,-1.60e-04,
55,3.20e-04,
56,-8.00e-05,
57,2.40e-04,
58,-8.00e-05,
59,2.40e-04,
60,1.60e-04,
61,-1.60e-04,
62,-8.00e-05,
63,2.40e-04,
64,-8.00e-05,
65,2.40e-04,
66,1.60e-04,
67,-8.00e-05,
68,-8.00e-05,
69,2.40e-04,
70,2.40e-04,
71,-1.60e-04,
72,-8.00e-05,
73,2.40e-04,
74,-1.60e-04,
75,2.40e-04,
76,-8.00e-05,
77,3.20e-04,
78,2.40e-04,
79,-1.60e-04,
80,-1.60e-04,
81,2.40e-04,
82,-8.00e-05,
83,2.40e-04,
84,-8.00e-05,
85,2.40e-04,
86,2.40e-04,
87,-2.40e-04,
88,-1.60e-04,
89,2.40e-04,
90,2.40e-04,
91,-1.60e-04,
92,-1.60e-04,
93,2.40e-04,
94,2.40e-04,
95,-8.00e-05,
96,2.40e-04,
97,-8.00e-05,
98,-8.00e-05,
99,2.80e-04,
100,2.40e-04,
101,-1.60e-04,
102,2.00e-04,
103,-1.60e-04,
104,-1.60e-04,
105,2.40e-04,
106,2.40e-04,
107,-8.00e-05,
108,-8.00e-05,
109,3.20e-04,
110,-8.00e-05,
111,2.40e-04,
112,-8.00e-05,
113,2.40e-04,
114,-8.00e-05,
115,2.40e-04,
116,-8.00e-05,
117,2.40e-04,
118,-8.00e-05,
119,2.40e-04,
120,-8.00e-05,
121,2.80e-04,
122,1.60e-04,
123,-8.00e-05,
124,-8.00e-05,
125,3.20e-04,
126,3.20e-04,
127,-8.00e-05,
128,-8.00e-05,
129,2.40e-04,
130,-8.00e-05,
131,2.40e-04,
132,-1.60e-04,
133,2.40e-04,
134,2.40e-04,
135,-1.60e-04,
136,-8.00e-05,
137,3.20e-04,
138,2.40e-04,
139,-8.00e-05,
140,1.60e-04,
141,-2.40e-04,
142,-1.60e-04,
143,2.40e-04,
144,-1.60e-04,
145,2.00e-04,
146,0.00e+00,
147,2.40e-04,
148,2.40e-04,
149,-8.00e-05,
150,2.40e-04,
151,-8.00e-05,
152,2.40e-04,
153,-1.60e-04,
154,-8.00e-05,
155,2.00e-04,
156,1.60e-04,
157,-1.60e-04,
158,1.60e-04,
159,-8.00e-05,
160,2.40e-04,
161,-1.60e-04,
162,-8.00e-05,
163,2.00e-04,
164,-1.60e-04,
165,2.00e-04,
166,-8.00e-05,
167,2.40e-04,
168,2.00e-04,
169,-1.60e-04,
170,2.80e-04,
171,-8.00e-05,
172,-8.00e-05,
173,2.40e-04,
174,1.60e-04,
175,-1.60e-04,
176,-1.60e-04,
177,1.60e-04,
178,1.60e-04,
179,-1.60e-04,
180,-8.00e-05,
181,2.40e-04,
182,-8.00e-05,
183,2.40e-04,
184,0.00e+00,
185,2.80e-04,
186,2.40e-04,
187,-8.00e-05,
188,2.40e-04,
189,-8.00e-05,
190,-8.00e-05,
191,2.40e-04,
192,-1.60e-04,
193,3.20e-04,
194,2.40e-04,
195,-8.00e-05,
196,-8.00e-05,
197,2.80e-04,
198,2.40e-04,
199,-8.00e-05,
200,1.60e-04,
201,-1.60e-04,
202,2.40e-04,
203,-1.60e-04,
204,-8.00e-05,
205,2.40e-04,
206,2.40e-04,
207,-8.00e-05,
208,-1.60e-04,
209,2.00e-04,
210,1.60e-04,
211,-8.00e-05,
212,-1.60e-04,
213,1.60e-04,
214,-8.00e-05,
215,2.80e-04,
216,1.60e-04,
217,-1.60e-04,
218,2.40e-04,
219,-8.00e-05,
220,-8.00e-05,
221,2.80e-04,
222,2.40e-04,
223,-1.60e-04,
224,-8.00e-05,
225,2.40e-04,
226,-8.00e-05,
227,2.40e-04,
228,2.40e-04,
229,-8.00e-05,
230,-8.00e-05,
231,2.40e-04,
232,2.40e-04,
233,-1.60e-04,
234,-8.00e-05,
235,2.40e-04,
236,-1.60e-04,
237,2.40e-04,
238,2.80e-04,
239,-1.60e-04,
240,-8.00e-05,
241,2.40e-04,
242,-8.00e-05,
243,2.40e-04,
244,-1.60e-04,
245,1.60e-04,
246,-1.60e-04,
247,1.60e-04,
248,-1.60e-04,
249,2.40e-04,
250,-1.60e-04,
251,2.40e-04,
252,2.40e-04,
253,-1.60e-04,
254,-1.60e-04,
255,2.40e-04,
256,1.60e-04,
257,-1.60e-04,
258,-1.60e-04,
259,2.00e-04,
260,-1.60e-04,
261,2.00e-04,
262,-8.00e-05,
263,2.40e-04,
264,2.40e-04,
265,-2.40e-04,
266,2.40e-04,
267,-8.00e-05,
268,-1.60e-04,
269,1.60e-04,
270,-1.60e-04,
271,2.80e-04,
272,1.60e-04,
273,-8.00e-05,
274,-8.00e-05,
275,1.60e-04,
276,-1.60e-04,
277,2.80e-04,
278,-8.00e-05,
279,2.40e-04,
280,-8.00e-05,
281,2.40e-04,
282,-8.00e-05,
283,2.40e-04,
284,1.60e-04,
285,-1.60e-04,
286,1.60e-04,
287,-8.00e-05,
288,-8.00e-05,
289,2.40e-04,
290,-1.60e-04,
291,2.40e-04,
292,-1.60e-04,
293,2.80e-04,
294,-1.60e-04,
295,1.60e-04,
296,-8.00e-05,
297,2.00e-04,
298,2.00e-04,
299,-8.00e-05,
300,-8.00e-05,
301,3.20e-04,
302,2.40e-04,
303,-8.00e-05,
304,2.00e-04,
305,-1.60e-04,
306,2.00e-04,
307,-1.60e-04,
308,-8.00e-05,
309,2.40e-04,
310,-1.60e-04,
311,2.40e-04,
312,2.40e-04,
313,-1.60e-04,
314,-8.00e-05,
315,2.00e-04,
316,-1.60e-04,
317,3.20e-04,
318,-1.60e-04,
319,1.60e-04,
320,-1.60e-04,
321,2.40e-04,
322,-8.00e-05,
323,2.40e-04,
324,2.40e-04,
325,-8.00e-05,
326,-1.60e-04,
327,1.60e-04,
328,2.00e-04,
329,-1.60e-04,
330,-8.00e-05,
331,2.40e-04,
332,-8.00e-05,
333,2.40e-04,
334,-8.00e-05,
335,2.40e-04,
336,-8.00e-05,
337,2.40e-04,
338,-1.60e-04,
339,2.40e-04,
340,-8.00e-05,
341,2.40e-04,
342,-8.00e-05,
343,3.20e-04,
344,-8.00e-05,
345,2.40e-04,
346,2.40e-04,
347,-1.60e-04,
348,1.60e-04,
349,-8.00e-05,
350,-8.00e-05,
351,2.40e-04,
352,-8.00e-05,
353,2.40e-04,
354,-8.00e-05,
355,2.40e-04,
356,-8.00e-05,
357,3.20e-04,
358,-1.60e-04,
359,2.40e-04,
360,-1.60e-04,
361,2.40e-04,
362,-8.00e-05,
363,2.40e-04,
364,-8.00e-05,
365,2.40e-04,
366,2.40e-04,
367,-8.00e-05,
368,-1.60e-04,
369,2.40e-04,
370,1.60e-04,
371,-1.60e-04,
372,2.00e-04,
373,-8.00e-05,
374,-1.60e-04,
375,2.40e-04,
376,2.40e-04,
377,-1.60e-04,
378,2.40e-04,
379,-8.00e-05,
380,3.20e-04,
381,-8.00e-05,
382,-1.60e-04,
383,2.40e-04,
384,2.40e-04,
385,-8.00e-05,
386,-8.00e-05,
387,2.80e-04,
388,-8.00e-05,
389,2.80e-04,
390,-1.60e-04,
391,1.60e-04,
392,-1.60e-04,
393,2.00e-04,
394,-8.00e-05,
395,2.80e-04,
396,2.40e-04,
397,-8.00e-05,
398,2.40e-04,
399,-1.60e-04,
400,2.40e-04,
401,-8.00e-05,
402,2.40e-04,
403,-8.00e-05,
404,-8.00e-05,
405,2.80e-04,
406,-8.00e-05,
407,2.00e-04,
408,2.40e-04,
409,-1.60e-04,
410,-1.60e-04,
411,2.40e-04,
412,0.00e+00,
413,3.20e-04,
414,3.20e-04,
415,-1.60e-04,
416,-8.00e-05,
417,2.80e-04,
418,-8.00e-05,
419,2.80e-04,
420,-8.00e-05,
421,2.40e-04,
422,2.40e-04,
423,0.00e+00,
424,2.40e-04,
425,-8.00e-05,
426,0.00e+00,
427,2.40e-04,
428,-8.00e-05,
429,2.80e-04,
430,2.40e-04,
431,-8.00e-05,
432,-8.00e-05,
433,2.80e-04,
434,2.40e-04,
435,-1.60e-04,
436,-8.00e-05,
437,1.60e-04,
438,-8.00e-05,
439,2.80e-04,
440,-1.60e-04,
441,2.00e-04,
442,-8.00e-05,
443,2.40e-04,
444,2.40e-04,
445,-1.60e-04,
446,-8.00e-05,
447,2.40e-04,
448,-8.00e-05,
449,2.40e-04,
450,-8.00e-05,
451,2.80e-04,
452,-8.00e-05,
453,2.40e-04,
454,-1.60e-04,
455,2.40e-04,
456,1.60e-04,
457,-2.40e-04,
458,-8.00e-05,
459,2.40e-04,
460,2.40e-04,
461,-8.00e-05,
462,2.40e-04,
463,-8.00e-05,
464,2.40e-04,
465,-2.40e-04,
466,-1.60e-04,
467,2.40e-04,
468,2.40e-04,
469,-8.00e-05,
470,-8.00e-05,
471,3.20e-04,
472,-8.00e-05,
473,2.40e-04,
474,-8.00e-05,
475,2.40e-04,
476,2.40e-04,
477,-1.60e-04,
478,3.20e-04,
479,-1.60e-04,
480,-8.00e-05,
481,2.40e-04,
482,3.20e-04,
483,-8.00e-05,
484,2.40e-04,
485,-8.00e-05,
486,1.60e-04,
487,-1.60e-04,
488,-1.60e-04,
489,2.40e-04,
490,-8.00e-05,
491,2.40e-04,
492,2.00e-04,
493,-8.00e-05,
494,3.20e-04,
495,-1.60e-04,
496,1.60e-04,
497,-1.60e-04,
498,-8.00e-05,
499,2.40e-04,
500,-8.00e-05,
501,2.00e-04,
502,-8.00e-05,
503,2.80e-04,
504,-1.60e-04,
505,2.80e-04,
506,-8.00e-05,
507,2.40e-04,
508,1.60e-04,
509,-1.60e-04,
510,-1.60e-04,
511,1.60e-04,
512,3.20e-04,
513,-8.00e-05,
514,1.60e-04,
515,-8.00e-05,
516,-8.00e-05,
517,2.40e-04,
518,-8.00e-05,
519,2.40e-04,
520,2.40e-04,
521,-1.60e-04,
522,-8.00e-05,
523,2.00e-04,
524,-1.60e-04,
525,2.40e-04,
526,-8.00e-05,
527,2.40e-04,
528,-8.00e-05,
529,2.00e-04,
530,-8.00e-05,
531,2.00e-04,
532,1.60e-04,
533,-2.40e-04,
534,1.60e-04,
535,-1.60e-04,
536,4.00e-04,
537,-1.60e-04,
538,2.40e-04,
539,-8.00e-05,
540,2.00e-04,
541,-8.00e-05,
542,-8.00e-05,
543,2.40e-04,
544,-1.60e-04,
545,3.20e-04,
546,-1.60e-04,
547,2.00e-04,
548,-8.00e-05,
549,2.40e-04,
550,-2.40e-04,
551,2.40e-04,
552,-1.60e-04,
553,2.40e-04,
554,1.60e-04,
555,-1.60e-04,
556,-1.60e-04,
557,2.40e-04,
558,2.40e-04,
559,-8.00e-05,
560,-8.00e-05,
561,1.60e-04,
562,1.60e-04,
563,-1.60e-04,
564,2.40e-04,
565,-8.00e-05,
566,-8.00e-05,
567,2.40e-04,
568,3.20e-04,
569,-1.60e-04,
570,1.60e-04,
571,-8.00e-05,
572,-8.00e-05,
573,1.60e-04,
574,1.60e-04,
575,-1.60e-04,
576,-1.60e-04,
577,2.40e-04,
578,3.20e-04,
579,-1.60e-04,
580,-1.60e-04,
581,1.60e-04,
582,2.00e-04,
583,-1.60e-04,
584,-8.00e-05,
585,2.40e-04,
586,1.60e-04,
587,-1.60e-04,
588,2.40e-04,
589,-1.60e-04,
590,-8.00e-05,
591,2.00e-04,
592,-8.00e-05,
593,2.80e-04,
594,-8.00e-05,
595,2.80e-04,
596,-8.00e-05,
597,2.40e-04,
598,2.40e-04,
599,-1.60e-04,
600,2.40e-04,
601,-1.60e-04,
602,-1.60e-04,
603,2.80e-04,
604,1.60e-04,
605,-2.40e-04,
606,-8.00e-05,
607,2.40e-04,
608,2.40e-04,
609,-8.00e-05,
610,-8.00e-05,
611,3.20e-04,
612,-8.00e-05,
613,2.40e-04,
614,-8.00e-05,
615,2.40e-04,
616,2.40e-04,
617,-1.60e-04,
618,1.60e-04,
619,-1.60e-04,
620,1.60e-04,
621,-1.60e-04,
622,-8.00e-05,
623,2.40e-04,
624,-8.00e-05,
625,2.40e-04,
626,-1.60e-04,
627,2.80e-04,
628,-8.00e-05,
629,2.00e-04,
630,-8.00e-05,
631,2.40e-04,
632,2.40e-04,
633,-1.60e-04,
634,2.40e-04,
635,-1.60e-04,
636,-8.00e-05,
637,2.80e-04,
638,-8.00e-05,
639,2.80e-04,
640,2.40e-04,
641,-8.00e-05,
642,2.40e-04,
643,-1.60e-04,
644,3.20e-04,
645,-8.00e-05,
646,-8.00e-05,
647,2.80e-04,
648,-8.00e-05,
649,2.40e-04,
650,-8.00e-05,
651,2.40e-04,
652,2.40e-04,
653,-1.60e-04,
654,-1.60e-04,
655,2.80e-04,
656,-8.00e-05,
657,2.40e-04,
658,2.00e-04,
659,-8.00e-05,
660,2.80e-04,
661,-1.60e-04,
662,2.40e-04,
663,-1.60e-04,
664,2.40e-04,
665,-8.00e-05,
666,-8.00e-05,
667,2.40e-04,
668,2.80e-04,
669,-8.00e-05,
670,2.00e-04,
671,-1.60e-04,
672,2.00e-04,
673,-8.00e-05,
674,-8.00e-05,
675,2.40e-04,
676,1.60e-04,
677,-1.60e-04,
678,-8.00e-05,
679,2.40e-04,
680,-1.60e-04,
681,3.20e-04,
682,-8.00e-05,
683,3.20e-04,
684,-8.00e-05,
685,2.40e-04,
686,2.40e-04,
687,-1.60e-04,
688,3.20e-04,
689,-1.60e-04,
690,2.40e-04,
691,-8.00e-05,
692,1.20e-04,
693,-8.00e-05,
694,-1.60e-04,
695,2.40e-04,
696,-8.00e-05,
697,2.40e-04,
698,2.40e-04,
699,-1.60e-04,
700,3.20e-04,
701,-1.60e-04,
702,1.60e-04,
703,-1.60e-04,
704,2.40e-04,
705,-1.60e-04,
706,1.60e-04,
707,-1.60e-04,
708,-1.60e-04,
709,2.40e-04,
710,2.40e-04,
711,-8.00e-05,
712,2.40e-04,
713,-8.00e-05,
714,-8.00e-05,
715,2.40e-04,
716,2.40e-04,
717,-1.60e-04,
718,-8.00e-05,
719,1.60e-04,
720,2.40e-04,
721,-1.60e-04,
722,0.00e+00,
723,3.20e-04,
724,2.40e-04,
725,-8.00e-05,
726,1.60e-04,
727,-8.00e-05,
728,2.40e-04,
729,-1.60e-04,
730,-8.00e-05,
731,2.40e-04,
732,2.40e-04,
733,-8.00e-05,
734,2.40e-04,
735,-8.00e-05,
736,-8.00e-05,
737,2.00e-04,
738,1.60e-04,
739,-1.60e-04,
740,-1.60e-04,
741,2.80e-04,
742,2.40e-04,
743,-8.00e-05,
744,2.40e-04,
745,-8.00e-05,
746,0.00e+00,
747,2.40e-04,
748,-8.00e-05,
749,2.40e-04,
750,2.40e-04,
751,-8.00e-05,
752,2.40e-04,
753,-1.60e-04,
754,3.20e-04,
755,-8.00e-05,
756,-8.00e-05,
757,2.40e-04,
758,-8.00e-05,
759,2.40e-04,
760,-8.00e-05,
761,2.40e-04,
762,-8.00e-05,
763,2.40e-04,
764,1.60e-04,
765,-1.60e-04,
766,2.40e-04,
767,-1.60e-04,
768,-8.00e-05,
769,2.40e-04,
770,2.40e-04,
771,-1.60e-04,
772,3.60e-04,
773,0.00e+00,
774,0.00e+00,
775,3.20e-04,
776,-8.00e-05,
777,2.80e-04,
778,2.40e-04,
779,-2.40e-04,
780,-8.00e-05,
781,2.40e-04,
782,3.20e-04,
783,-8.00e-05,
784,-8.00e-05,
785,2.40e-04,
786,1.60e-04,
787,-8.00e-05,
788,-8.00e-05,
789,2.80e-04,
790,2.40e-04,
791,-8.00e-05,
792,1.60e-04,
793,-8.00e-05,
794,3.20e-04,
795,-8.00e-05,
796,-1.60e-04,
797,2.40e-04,
798,2.40e-04,
799,0.00e+00,
800,2.40e-04,
801,-1.60e-04,
802,2.40e-04,
803,-8.00e-05,
804,-1.60e-04,
805,2.00e-04,
806,-1.60e-04,
807,2.40e-04,
808,2.40e-04,
809,-8.00e-05,
810,2.40e-04,
811,-8.00e-05,
812,2.40e-04,
813,-8.00e-05,
814,-8.00e-05,
815,2.40e-04,
816,-8.00e-05,
817,2.40e-04,
818,2.40e-04,
819,-8.00e-05,
820,2.40e-04,
821,-8.00e-05,
822,-8.00e-05,
823,2.80e-04,
824,3.20e-04,
825,-8.00e-05,
826,2.00e-04,
827,-8.00e-05,
828,2.40e-04,
829,-1.60e-04,
830,3.20e-04,
831,-8.00e-05,
832,-8.00e-05,
833,2.40e-04,
834,0.00e+00,
835,2.40e-04,
836,-8.00e-05,
837,2.40e-04,
838,-8.00e-05,
839,3.20e-04,
840,3.20e-04,
841,-8.00e-05,
842,-1.60e-04,
843,2.40e-04,
844,-8.00e-05,
845,2.40e-04,
846,-1.60e-04,
847,2.40e-04,
848,2.40e-04,
849,-8.00e-05,
850,2.40e-04,
851,-8.00e-05,
852,-8.00e-05,
853,3.20e-04,
854,2.40e-04,
855,-8.00e-05,
856,2.40e-04,
857,-8.00e-05,
858,-1.60e-04,
859,2.40e-04,
860,-8.00e-05,
861,2.80e-04,
862,2.80e-04,
863,-8.00e-05,
864,-8.00e-05,
865,2.00e-04,
866,-8.00e-05,
867,2.80e-04,
868,-1.60e-04,
869,2.00e-04,
870,2.40e-04,
871,-1.60e-04,
872,2.40e-04,
873,-8.00e-05,
874,-1.60e-04,
875,1.60e-04,
876,-8.00e-05,
877,2.40e-04,
878,2.40e-04,
879,-8.00e-05,
880,-8.00e-05,
881,2.00e-04,
882,2.40e-04,
883,-1.60e-04,
884,2.40e-04,
885,-8.00e-05,
886,-8.00e-05,
887,2.40e-04,
888,1.60e-04,
889,-1.60e-04,
890,3.20e-04,
891,-1.60e-04,
892,-8.00e-05,
893,2.40e-04,
894,3.20e-04,
895,-1.60e-04,
896,-8.00e-05,
897,2.40e-04,
898,2.40e-04,
899,-8.00e-05,
900,2.80e-04,
901,-8.00e-05,
902,1.60e-04,
903,-1.60e-04,
904,-8.00e-05,
905,2.00e-04,
906,2.40e-04,
907,-8.00e-05,
908,2.40e-04,
909,-8.00e-05,
910,2.80e-04,
911,-8.00e-05,
912,2.40e-04,
913,-1.60e-04,
914,4.00e-04,
915,-1.60e-04,
916,-8.00e-05,
917,2.40e-04,
918,2.40e-04,
919,-8.00e-05,
920,2.00e-04,
921,-1.60e-04,
922,-1.60e-04,
923,2.00e-04,
924,-8.00e-05,
925,2.40e-04,
926,2.40e-04,
927,-1.60e-04,
928,2.40e-04,
929,-1.60e-04,
930,2.80e-04,
931,-8.00e-05,
932,-1.60e-04,
933,1.60e-04,
934,1.60e-04,
935,-8.00e-05,
936,-8.00e-05,
937,2.40e-04,
938,-8.00e-05,
939,2.40e-04,
940,2.00e-04,
941,-8.00e-05,
942,-1.60e-04,
943,1.60e-04,
944,2.40e-04,
945,-1.60e-04,
946,-8.00e-05,
947,2.40e-04,
948,-8.00e-05,
949,2.40e-04,
950,2.00e-04,
951,-1.60e-04,
952,3.20e-04,
953,-1.60e-04,
954,2.00e-04,
955,-1.60e-04,
956,-8.00e-05,
957,2.40e-04,
958,4.00e-04,
959,-8.00e-05,
960,2.40e-04,
961,-8.00e-05,
962,2.40e-04,
963,-8.00e-05,
964,2.40e-04,
965,-1.60e-04,
966,1.60e-04,
967,-1.60e-04,
968,2.80e-04,
969,-1.60e-04,
970,1.60e-04,
971,-8.00e-05,
972,3.20e-04,
973,-1.60e-04,
974,-8.00e-05,
975,2.40e-04,
976,2.80e-04,
977,-1.60e-04,
978,2.40e-04,
979,-4.00e-05,
980,2.80e-04,
981,-1.60e-04,
982,2.40e-04,
983,-1.60e-04,
984,2.40e-04,
985,-8.00e-05,
986,2.40e-04,
987,-8.00e-05,
988,-1.60e-04,
989,3.20e-04,
990,-8.00e-05,
991,2.80e-04,
992,2.40e-04,
993,-8.00e-05,
994,-8.00e-05,
995,3.20e-04,
996,2.40e-04,
997,-1.60e-04,
998,-1.60e-04,
999,2.40e-04,
1000,-8.00e-05,
1001,2.40e-04,
1002,2.40e-04,
1003,-8.00e-05,
1004,-8.00e-05,
1005,2.40e-04,
1006,2.40e-04,
1007,-8.00e-05,
1008,-8.00e-05,
1009,2.40e-04,
1010,2.40e-04,
1011,-1.60e-04,
1012,4.00e-04,
1013,-1.60e-04,
1014,2.40e-04,
1015,-8.00e-05,
1016,-8.00e-05,
1017,2.40e-04,
1018,2.40e-04,
1019,-8.00e-05,
1020,-8.00e-05,
1021,2.00e-04,
1022,2.40e-04,
1023,-8.00e-05,
1024,3.20e-04,
1025,-8.00e-05,
1026,-8.00e-05,
1027,2.00e-04,
1028,-8.00e-05,
1029,2.40e-04,
1030,-8.00e-05,
1031,2.00e-04,
1032,-8.00e-05,
1033,2.80e-04,
1034,-8.00e-05,
1035,2.00e-04,
1036,2.80e-04,
1037,-8.00e-05,
1038,2.00e-04,
1039,-8.00e-05,
1040,2.40e-04,
1041,-8.00e-05,
1042,-8.00e-05,
1043,2.40e-04,
1044,3.20e-04,
1045,0.00e+00,
1046,-1.60e-04,
1047,2.40e-04,
1048,2.40e-04,
1049,-8.00e-05,
1050,-8.00e-05,
1051,2.40e-04,
1052,-8.00e-05,
1053,2.40e-04,
1054,-8.00e-05,
1055,2.40e-04,
1056,4.80e-04,
1057,-8.00e-05,
1058,2.40e-04,
1059,0.00e+00,
1060,2.40e-04,
1061,-1.60e-04,
1062,3.20e-04,
1063,-1.60e-04,
1064,-8.00e-05,
1065,2.80e-04,
1066,2.40e-04,
1067,-8.00e-05,
1068,-8.00e-05,
1069,2.40e-04,
1070,2.00e-04,
1071,-1.60e-04,
1072,-8.00e-05,
1073,2.40e-04,
1074,-1.60e-04,
1075,2.40e-04,
1076,2.40e-04,
1077,-1.60e-04,
1078,2.40e-04,
1079,-8.00e-05,
1080,2.40e-04,
1081,-1.60e-04,
1082,-1.60e-04,
1083,2.40e-04,
1084,2.80e-04,
1085,-8.00e-05,
1086,2.40e-04,
1087,-1.60e-04,
1088,-8.00e-05,
1089,2.80e-04,
1090,-8.00e-05,
1091,3.20e-04,
1092,2.40e-04,
1093,-8.00e-05,
1094,-8.00e-05,
1095,3.20e-04,
1096,2.40e-04,
1097,-1.60e-04,
1098,2.40e-04,
1099,-1.60e-04,
1100,-1.60e-04,
1101,2.40e-04,
1102,-8.00e-05,
1103,2.40e-04,
1104,-1.60e-04,
1105,2.00e-04,
1106,1.60e-04,
1107,-1.20e-04,
1108,-8.00e-05,
1109,2.40e-04,
1110,-8.00e-05,
1111,3.20e-04,
1112,2.40e-04,
1113,-1.60e-04,
1114,-8.00e-05,
1115,2.40e-04,
1116,-8.00e-05,
1117,2.40e-04,
1118,-8.00e-05,
1119,3.20e-04,
1120,3.20e-04,
1121,-8.00e-05,
1122,2.40e-04,
1123,-1.60e-04,
1124,0.00e+00,
1125,2.40e-04,
1126,-8.00e-05,
1127,2.80e-04,
1128,-1.60e-04,
1129,3.20e-04,
1130,2.40e-04,
1131,-8.00e-05,
1132,2.40e-04,
1133,-8.00e-05,
1134,-8.00e-05,
1135,2.40e-04,
1136,2.80e-04,
1137,-1.60e-04,
1138,-1.60e-04,
1139,2.40e-04,
1140,0.00e+00,
1141,2.40e-04,
1142,2.40e-04,
1143,-8.00e-05,
1144,-8.00e-05,
1145,1.60e-04,
1146,-2.40e-04,
1147,2.40e-04,
1148,2.40e-04,
1149,-1.60e-04,
1150,-8.00e-05,
1151,2.40e-04,
1152,1.60e-04,
1153,-1.60e-04,
1154,2.40e-04,
1155,-1.60e-04,
1156,-8.00e-05,
1157,2.40e-04,
1158,2.40e-04,
1159,-8.00e-05,
1160,-1.60e-04,
1161,2.40e-04,
1162,2.40e-04,
1163,-1.60e-04,
1164,-1.60e-04,
1165,2.40e-04,
1166,2.40e-04,
1167,-8.00e-05,
1168,1.60e-04,
1169,-8.00e-05,
1170,1.60e-04,
1171,-1.60e-04,
1172,-8.00e-05,
1173,2.80e-04,
1174,2.40e-04,
1175,-8.00e-05,
1176,2.00e-04,
1177,-8.00e-05,
1178,-1.60e-04,
1179,1.60e-04,
1180,-1.60e-04,
1181,2.00e-04,
1182,2.40e-04,
1183,-8.00e-05,
1184,2.40e-04,
1185,-8.00e-05,
1186,-1.60e-04,
1187,2.40e-04,
1188,3.20e-04,
1189,-2.40e-04,
1190,1.60e-04,
1191,-1.60e-04,
1192,2.40e-04,
1193,-2.40e-04,
1194,2.40e-04,
1195,-1.60e-04,
1196,-8.00e-05,
1197,1.60e-04,
1198,-1.60e-04,
1199,2.40e-04,
