fastdiffamp/data-noise-set/bal-demod/NewFile8.csv

X,CH1,Start,Increment,
Sequence,Volt,-5.490000e+00,1.000000e-02
0,-2.40e-04,
1,1.60e-04,
2,-2.40e-04,
3,3.20e-04,
4,3.20e-04,
5,-4.00e-04,
6,-2.40e-04,
7,3.20e-04,
8,3.20e-04,
9,-2.40e-04,
10,-2.40e-04,
11,1.60e-04,
12,-2.40e-04,
13,1.60e-04,
14,-2.40e-04,
15,1.60e-04,
16,1.60e-04,
17,-2.40e-04,
18,1.60e-04,
19,-2.40e-04,
20,-2.40e-04,
21,3.20e-04,
22,-2.40e-04,
23,1.60e-04,
24,-2.40e-04,
25,3.20e-04,
26,-2.40e-04,
27,1.60e-04,
28,3.20e-04,
29,-2.40e-04,
30,1.60e-04,
31,-1.60e-04,
32,3.20e-04,
33,-2.40e-04,
34,1.60e-04,
35,-2.40e-04,
36,-2.40e-04,
37,3.20e-04,
38,2.40e-04,
39,-2.40e-04,
40,-2.40e-04,
41,1.60e-04,
42,-2.40e-04,
43,1.60e-04,
44,-3.20e-04,
45,1.60e-04,
46,1.60e-04,
47,-4.00e-04,
48,2.40e-04,
49,-2.40e-04,
50,-2.40e-04,
51,3.20e-04,
52,1.60e-04,
53,-2.40e-04,
54,-2.40e-04,
55,3.20e-04,
56,1.60e-04,
57,-2.40e-04,
58,-2.40e-04,
59,1.60e-04,
60,-2.40e-04,
61,1.60e-04,
62,-2.40e-04,
63,3.20e-04,
64,1.60e-04,
65,-2.40e-04,
66,1.60e-04,
67,-2.40e-04,
68,-2.40e-04,
69,1.60e-04,
70,-2.40e-04,
71,3.20e-04,
72,8.00e-05,
73,-2.40e-04,
74,-2.40e-04,
75,2.40e-04,
76,-2.40e-04,
77,1.60e-04,
78,1.60e-04,
79,-2.40e-04,
80,-4.00e-04,
81,3.20e-04,
82,1.60e-04,
83,-4.00e-04,
84,-2.40e-04,
85,2.40e-04,
86,-4.00e-04,
87,3.20e-04,
88,1.60e-04,
89,-4.00e-04,
90,2.40e-04,
91,-2.40e-04,
92,-2.40e-04,
93,1.60e-04,
94,-2.40e-04,
95,3.20e-04,
96,-2.40e-04,
97,2.40e-04,
98,1.60e-04,
99,-2.40e-04,
100,-2.40e-04,
101,4.00e-04,
102,3.20e-04,
103,-2.40e-04,
104,-2.40e-04,
105,1.60e-04,
106,-2.40e-04,
107,8.00e-05,
108,-2.40e-04,
109,1.60e-04,
110,-2.40e-04,
111,1.60e-04,
112,1.60e-04,
113,-2.40e-04,
114,-2.40e-04,
115,1.60e-04,
116,1.60e-04,
117,-2.40e-04,
118,-2.40e-04,
119,1.60e-04,
120,1.60e-04,
121,-2.40e-04,
122,-2.40e-04,
123,3.20e-04,
124,-2.40e-04,
125,3.20e-04,
126,-2.40e-04,
127,1.60e-04,
128,1.60e-04,
129,-2.40e-04,
130,-2.40e-04,
131,1.60e-04,
132,-4.00e-04,
133,1.60e-04,
134,1.60e-04,
135,-2.40e-04,
136,3.20e-04,
137,-4.00e-04,
138,-2.40e-04,
139,1.60e-04,
140,1.60e-04,
141,-2.40e-04,
142,-2.40e-04,
143,3.20e-04,
144,1.60e-04,
145,-2.40e-04,
146,1.60e-04,
147,-4.00e-04,
148,-2.40e-04,
149,3.20e-04,
150,-2.40e-04,
151,1.60e-04,
152,1.60e-04,
153,-4.00e-04,
154,-2.40e-04,
155,1.60e-04,
156,3.20e-04,
157,-2.40e-04,
158,-2.40e-04,
159,1.60e-04,
160,8.00e-05,
161,-4.00e-04,
162,1.60e-04,
163,-2.40e-04,
164,1.60e-04,
165,-2.40e-04,
166,1.60e-04,
167,-4.00e-04,
168,-2.40e-04,
169,1.60e-04,
170,1.60e-04,
171,-2.40e-04,
172,-2.40e-04,
173,3.20e-04,
174,-2.40e-04,
175,3.20e-04,
176,8.00e-05,
177,-4.00e-04,
178,-2.40e-04,
179,2.40e-04,
180,-2.40e-04,
181,1.60e-04,
182,8.00e-05,
183,-4.00e-04,
184,-2.40e-04,
185,1.60e-04,
186,-2.40e-04,
187,1.60e-04,
188,-2.40e-04,
189,1.60e-04,
190,1.60e-04,
191,-2.40e-04,
192,-2.40e-04,
193,1.60e-04,
194,-2.40e-04,
195,3.20e-04,
196,1.60e-04,
197,-2.40e-04,
198,-2.40e-04,
199,2.40e-04,
200,-2.40e-04,
201,1.60e-04,
202,1.60e-04,
203,-2.40e-04,
204,1.60e-04,
205,-2.40e-04,
206,-2.40e-04,
207,1.60e-04,
208,3.20e-04,
209,-4.00e-04,
210,-2.40e-04,
211,1.60e-04,
212,-2.40e-04,
213,8.00e-05,
214,-2.40e-04,
215,3.20e-04,
216,-2.40e-04,
217,1.60e-04,
218,-2.40e-04,
219,1.60e-04,
220,1.60e-04,
221,-2.40e-04,
222,-2.40e-04,
223,1.60e-04,
224,3.20e-04,
225,-2.40e-04,
226,1.60e-04,
227,-2.40e-04,
228,2.40e-04,
229,-4.00e-04,
230,-1.60e-04,
231,2.40e-04,
232,1.60e-04,
233,-2.40e-04,
234,1.60e-04,
235,-2.40e-04,
236,1.60e-04,
237,-4.00e-04,
238,1.60e-04,
239,-2.40e-04,
240,-2.40e-04,
241,1.60e-04,
242,1.60e-04,
243,-2.40e-04,
244,1.60e-04,
245,-2.40e-04,
246,-2.40e-04,
247,1.60e-04,
248,1.60e-04,
249,-2.40e-04,
250,1.60e-04,
251,-2.40e-04,
252,-2.40e-04,
253,1.60e-04,
254,2.40e-04,
255,-2.40e-04,
256,-1.60e-04,
257,3.20e-04,
258,1.60e-04,
259,-2.40e-04,
260,1.60e-04,
261,-2.40e-04,
262,-2.40e-04,
263,3.20e-04,
264,4.00e-04,
265,-2.40e-04,
266,1.60e-04,
267,-2.40e-04,
268,3.20e-04,
269,-1.60e-04,
270,1.60e-04,
271,-2.40e-04,
272,8.00e-05,
273,-2.40e-04,
274,-2.40e-04,
275,2.40e-04,
276,-2.40e-04,
277,3.20e-04,
278,1.60e-04,
279,-2.40e-04,
280,1.60e-04,
281,-2.40e-04,
282,-2.40e-04,
283,1.60e-04,
284,-2.40e-04,
285,8.00e-05,
286,-2.40e-04,
287,1.60e-04,
288,2.40e-04,
289,-2.40e-04,
290,1.60e-04,
291,-4.00e-04,
292,1.60e-04,
293,-2.40e-04,
294,3.20e-04,
295,-2.40e-04,
296,-2.40e-04,
297,1.60e-04,
298,1.60e-04,
299,-4.00e-04,
300,-2.40e-04,
301,2.40e-04,
302,-2.40e-04,
303,1.60e-04,
304,-2.40e-04,
305,1.60e-04,
306,1.60e-04,
307,-4.00e-04,
308,1.60e-04,
309,-4.00e-04,
310,2.40e-04,
311,-2.40e-04,
312,8.00e-05,
313,-4.00e-04,
314,-4.00e-04,
315,8.00e-05,
316,-2.40e-04,
317,2.40e-04,
318,-2.40e-04,
319,3.20e-04,
320,-2.40e-04,
321,1.60e-04,
322,-2.40e-04,
323,2.40e-04,
324,-2.40e-04,
325,1.60e-04,
326,1.60e-04,
327,-2.40e-04,
328,1.60e-04,
329,-2.40e-04,
330,-2.40e-04,
331,1.60e-04,
332,1.60e-04,
333,-2.40e-04,
334,1.60e-04,
335,-4.00e-04,
336,1.60e-04,
337,-2.40e-04,
338,-2.40e-04,
339,3.20e-04,
340,-2.40e-04,
341,1.60e-04,
342,8.00e-05,
343,-2.40e-04,
344,-2.40e-04,
345,1.60e-04,
346,-2.40e-04,
347,1.60e-04,
348,-2.40e-04,
349,1.60e-04,
350,-2.40e-04,
351,1.60e-04,
352,1.60e-04,
353,-2.40e-04,
354,1.60e-04,
355,-4.00e-04,
356,-3.20e-04,
357,3.20e-04,
358,1.60e-04,
359,-2.40e-04,
360,1.60e-04,
361,-2.40e-04,
362,-2.40e-04,
363,3.20e-04,
364,-2.40e-04,
365,1.60e-04,
366,-2.40e-04,
367,1.60e-04,
368,1.60e-04,
369,-2.40e-04,
370,1.60e-04,
371,-2.40e-04,
372,-2.40e-04,
373,3.20e-04,
374,1.60e-04,
375,-2.40e-04,
376,8.00e-05,
377,-2.40e-04,
378,-2.40e-04,
379,1.60e-04,
380,-2.40e-04,
381,1.60e-04,
382,-2.40e-04,
383,1.60e-04,
384,1.60e-04,
385,-2.40e-04,
386,1.60e-04,
387,-2.40e-04,
388,-2.40e-04,
389,1.60e-04,
390,2.40e-04,
391,-2.40e-04,
392,-3.20e-04,
393,3.20e-04,
394,1.60e-04,
395,-2.40e-04,
396,3.20e-04,
397,-2.40e-04,
398,-2.40e-04,
399,2.40e-04,
400,3.20e-04,
401,-2.40e-04,
402,-2.40e-04,
403,1.60e-04,
404,-2.40e-04,
405,1.60e-04,
406,-2.40e-04,
407,3.20e-04,
408,-2.40e-04,
409,1.60e-04,
410,-2.40e-04,
411,1.60e-04,
412,1.60e-04,
413,-2.40e-04,
414,-2.40e-04,
415,3.20e-04,
416,3.20e-04,
417,-2.40e-04,
418,-2.40e-04,
419,2.40e-04,
420,-2.40e-04,
421,2.40e-04,
422,-2.40e-04,
423,1.60e-04,
424,-2.40e-04,
425,1.60e-04,
426,-2.40e-04,
427,2.40e-04,
428,1.60e-04,
429,-2.40e-04,
430,-2.40e-04,
431,3.20e-04,
432,1.60e-04,
433,-2.40e-04,
434,-2.40e-04,
435,3.20e-04,
436,-1.60e-04,
437,3.20e-04,
438,3.20e-04,
439,-1.60e-04,
440,-2.40e-04,
441,3.20e-04,
442,-2.40e-04,
443,1.60e-04,
444,3.20e-04,
445,-2.40e-04,
446,8.00e-05,
447,-3.20e-04,
448,-2.40e-04,
449,2.40e-04,
450,1.60e-04,
451,-2.40e-04,
452,8.00e-05,
453,-2.40e-04,
454,-2.40e-04,
455,3.20e-04,
456,2.40e-04,
457,-4.00e-04,
458,1.60e-04,
459,-2.40e-04,
460,-2.40e-04,
461,1.60e-04,
462,1.60e-04,
463,-2.40e-04,
464,-2.40e-04,
465,1.60e-04,
466,-2.40e-04,
467,2.40e-04,
468,1.60e-04,
469,-2.40e-04,
470,-2.40e-04,
471,1.60e-04,
472,-2.40e-04,
473,1.60e-04,
474,-3.20e-04,
475,1.60e-04,
476,1.60e-04,
477,-2.40e-04,
478,-2.40e-04,
479,3.20e-04,
480,1.60e-04,
481,-2.40e-04,
482,-2.40e-04,
483,1.60e-04,
484,1.60e-04,
485,-2.40e-04,
486,-2.40e-04,
487,3.20e-04,
488,1.60e-04,
489,-2.40e-04,
490,-4.00e-04,
491,8.00e-05,
492,-2.40e-04,
493,1.60e-04,
494,-2.40e-04,
495,3.20e-04,
496,-1.60e-04,
497,3.20e-04,
498,-2.40e-04,
499,1.60e-04,
500,-2.40e-04,
501,2.40e-04,
502,-2.40e-04,
503,3.20e-04,
504,-2.40e-04,
505,1.60e-04,
506,-2.40e-04,
507,3.20e-04,
508,1.60e-04,
509,-2.40e-04,
510,3.20e-04,
511,-2.40e-04,
512,-2.40e-04,
513,1.60e-04,
514,-2.40e-04,
515,1.60e-04,
516,-2.40e-04,
517,3.20e-04,
518,-4.00e-04,
519,4.00e-04,
520,1.60e-04,
521,-2.40e-04,
522,-2.40e-04,
523,1.60e-04,
524,2.40e-04,
525,-2.40e-04,
526,1.60e-04,
527,-2.40e-04,
528,1.60e-04,
529,-2.40e-04,
530,-2.40e-04,
531,3.20e-04,
532,1.60e-04,
533,-2.40e-04,
534,-2.40e-04,
535,3.20e-04,
536,1.60e-04,
537,-2.40e-04,
538,-2.40e-04,
539,1.60e-04,
540,1.60e-04,
541,-2.40e-04,
542,1.60e-04,
543,-2.40e-04,
544,1.60e-04,
545,-4.00e-04,
546,-4.00e-04,
547,1.60e-04,
548,1.60e-04,
549,-3.20e-04,
550,-2.40e-04,
551,1.60e-04,
552,-2.40e-04,
553,1.60e-04,
554,-2.40e-04,
555,1.60e-04,
556,-2.40e-04,
557,3.20e-04,
558,-4.00e-04,
559,1.60e-04,
560,-2.40e-04,
561,1.60e-04,
562,1.60e-04,
563,-2.40e-04,
564,-2.40e-04,
565,1.60e-04,
566,-2.40e-04,
567,1.60e-04,
568,1.60e-04,
569,-4.00e-04,
570,1.60e-04,
571,-2.40e-04,
572,8.00e-05,
573,-4.00e-04,
574,-3.20e-04,
575,2.40e-04,
576,-2.40e-04,
577,1.60e-04,
578,1.60e-04,
579,-4.00e-04,
580,1.60e-04,
581,-2.40e-04,
582,-2.40e-04,
583,2.40e-04,
584,1.60e-04,
585,-2.40e-04,
586,-2.40e-04,
587,1.60e-04,
588,3.20e-04,
589,-2.40e-04,
590,-2.40e-04,
591,8.00e-05,
592,-2.40e-04,
593,1.60e-04,
594,-2.40e-04,
595,1.60e-04,
596,-2.40e-04,
597,8.00e-05,
598,-2.40e-04,
599,8.00e-05,
600,-2.40e-04,
601,1.60e-04,
602,-2.40e-04,
603,1.60e-04,
604,-2.40e-04,
605,1.60e-04,
606,1.60e-04,
607,-2.40e-04,
608,-2.40e-04,
609,1.60e-04,
610,-2.40e-04,
611,1.60e-04,
612,-2.40e-04,
613,1.60e-04,
614,1.60e-04,
615,-2.40e-04,
616,1.60e-04,
617,-1.60e-04,
618,1.60e-04,
619,-2.40e-04,
620,1.60e-04,
621,-2.40e-04,
622,1.60e-04,
623,-3.20e-04,
624,-2.40e-04,
625,1.60e-04,
626,1.60e-04,
627,-2.40e-04,
628,1.60e-04,
629,-2.40e-04,
630,-4.00e-04,
631,1.60e-04,
632,-2.40e-04,
633,1.60e-04,
634,1.60e-04,
635,-2.40e-04,
636,1.60e-04,
637,-2.40e-04,
638,-2.40e-04,
639,1.60e-04,
640,8.00e-05,
641,-2.40e-04,
642,-2.40e-04,
643,1.60e-04,
644,-2.40e-04,
645,1.60e-04,
646,1.60e-04,
647,-2.40e-04,
648,-2.40e-04,
649,1.60e-04,
650,1.60e-04,
651,-2.40e-04,
652,-2.40e-04,
653,1.60e-04,
654,-2.40e-04,
655,1.60e-04,
656,-4.00e-04,
657,1.60e-04,
658,8.00e-05,
659,-2.40e-04,
660,8.00e-05,
661,-2.40e-04,
662,-2.40e-04,
663,1.60e-04,
664,1.60e-04,
665,-2.40e-04,
666,-2.40e-04,
667,1.60e-04,
668,-2.40e-04,
669,1.60e-04,
670,-2.40e-04,
671,1.60e-04,
672,1.60e-04,
673,-2.40e-04,
674,1.60e-04,
675,-2.40e-04,
676,1.60e-04,
677,-2.40e-04,
678,1.60e-04,
679,-2.40e-04,
680,-2.40e-04,
681,1.60e-04,
682,8.00e-05,
683,-4.00e-04,
684,1.60e-04,
685,-1.60e-04,
686,1.60e-04,
687,-2.40e-04,
688,-2.40e-04,
689,1.60e-04,
690,1.60e-04,
691,-2.40e-04,
692,-2.40e-04,
693,1.60e-04,
694,1.60e-04,
695,-2.40e-04,
696,1.60e-04,
697,-4.00e-04,
698,8.00e-05,
699,-2.40e-04,
700,-2.40e-04,
701,1.60e-04,
702,-2.40e-04,
703,1.60e-04,
704,-2.40e-04,
705,1.60e-04,
706,1.60e-04,
707,-2.40e-04,
708,8.00e-05,
709,-2.40e-04,
710,-2.40e-04,
711,1.60e-04,
712,-2.40e-04,
713,1.60e-04,
714,-4.00e-04,
715,1.60e-04,
716,1.60e-04,
717,-2.40e-04,
718,-2.40e-04,
719,1.60e-04,
720,-4.00e-04,
721,1.60e-04,
722,-2.40e-04,
723,1.60e-04,
724,-2.40e-04,
725,1.60e-04,
726,-2.40e-04,
727,1.60e-04,
728,1.60e-04,
729,-2.40e-04,
730,1.60e-04,
731,-2.40e-04,
732,-2.40e-04,
733,1.60e-04,
734,-2.40e-04,
735,1.60e-04,
736,1.60e-04,
737,-2.40e-04,
738,1.60e-04,
739,-2.40e-04,
740,-1.60e-04,
741,1.60e-04,
742,1.60e-04,
743,-2.40e-04,
744,-2.40e-04,
745,1.60e-04,
746,1.60e-04,
747,-2.40e-04,
748,1.60e-04,
749,-2.40e-04,
750,-2.40e-04,
751,1.60e-04,
752,-2.40e-04,
753,1.60e-04,
754,-2.40e-04,
755,1.60e-04,
756,-2.40e-04,
757,1.60e-04,
758,-2.40e-04,
759,1.60e-04,
760,8.00e-05,
761,-2.40e-04,
762,-2.40e-04,
763,8.00e-05,
764,-2.40e-04,
765,1.60e-04,
766,-2.40e-04,
767,1.60e-04,
768,-2.40e-04,
769,1.60e-04,
770,1.60e-04,
771,-2.40e-04,
772,-2.40e-04,
773,1.60e-04,
774,1.60e-04,
775,-2.40e-04,
776,-2.40e-04,
777,3.20e-04,
778,1.60e-04,
779,-2.40e-04,
780,-2.40e-04,
781,1.60e-04,
782,8.00e-05,
783,-2.40e-04,
784,-2.40e-04,
785,1.60e-04,
786,1.60e-04,
787,-4.00e-04,
788,-2.40e-04,
789,1.60e-04,
790,8.00e-05,
791,-2.40e-04,
792,-2.40e-04,
793,1.60e-04,
794,1.60e-04,
795,-2.40e-04,
796,-2.40e-04,
797,1.60e-04,
798,-2.40e-04,
799,1.60e-04,
800,1.60e-04,
801,-4.00e-04,
802,-2.40e-04,
803,1.60e-04,
804,-2.40e-04,
805,1.60e-04,
806,8.00e-05,
807,-3.20e-04,
808,8.00e-05,
809,-2.40e-04,
810,-2.40e-04,
811,8.00e-05,
812,1.60e-04,
813,-2.40e-04,
814,1.60e-04,
815,-2.40e-04,
816,-2.40e-04,
817,1.60e-04,
818,1.60e-04,
819,-2.40e-04,
820,-2.40e-04,
821,1.60e-04,
822,-2.40e-04,
823,1.60e-04,
824,-2.40e-04,
825,1.60e-04,
826,-1.60e-04,
827,1.60e-04,
828,-2.40e-04,
829,1.60e-04,
830,-2.40e-04,
831,1.60e-04,
832,-2.40e-04,
833,1.60e-04,
834,-2.40e-04,
835,1.60e-04,
836,-2.40e-04,
837,1.60e-04,
838,-2.40e-04,
839,1.60e-04,
840,1.60e-04,
841,-2.40e-04,
842,1.60e-04,
843,-2.40e-04,
844,-1.60e-04,
845,1.60e-04,
846,1.60e-04,
847,-2.40e-04,
848,1.60e-04,
849,-2.40e-04,
850,1.60e-04,
851,-2.40e-04,
852,-1.60e-04,
853,2.40e-04,
854,1.60e-04,
855,-2.40e-04,
856,1.60e-04,
857,-4.00e-04,
858,-2.40e-04,
859,3.20e-04,
860,1.60e-04,
861,-2.40e-04,
862,-2.40e-04,
863,1.60e-04,
864,1.60e-04,
865,-2.40e-04,
866,1.60e-04,
867,-2.40e-04,
868,1.60e-04,
869,-2.40e-04,
870,1.60e-04,
871,-2.40e-04,
872,1.60e-04,
873,-2.40e-04,
874,1.60e-04,
875,-1.60e-04,
876,-2.40e-04,
877,3.20e-04,
878,1.60e-04,
879,-2.40e-04,
880,-2.40e-04,
881,1.60e-04,
882,-2.40e-04,
883,1.60e-04,
884,-2.40e-04,
885,1.60e-04,
886,1.60e-04,
887,-2.40e-04,
888,1.60e-04,
889,-2.40e-04,
890,1.60e-04,
891,-1.60e-04,
892,-1.60e-04,
893,2.40e-04,
894,1.60e-04,
895,-2.40e-04,
896,3.20e-04,
897,-2.40e-04,
898,-2.40e-04,
899,2.40e-04,
900,1.60e-04,
901,-2.40e-04,
902,2.40e-04,
903,-2.40e-04,
904,1.60e-04,
905,-2.40e-04,
906,1.60e-04,
907,-2.40e-04,
908,1.60e-04,
909,-2.40e-04,
910,-2.40e-04,
911,1.60e-04,
912,1.60e-04,
913,-1.60e-04,
914,-1.60e-04,
915,8.00e-05,
916,1.60e-04,
917,-1.60e-04,
918,-2.40e-04,
919,1.60e-04,
920,-2.40e-04,
921,1.60e-04,
922,1.60e-04,
923,-2.40e-04,
924,-2.40e-04,
925,1.60e-04,
926,-2.40e-04,
927,1.60e-04,
928,3.20e-04,
929,-1.60e-04,
930,1.60e-04,
931,-1.60e-04,
932,-2.40e-04,
933,1.60e-04,
934,-1.60e-04,
935,1.60e-04,
936,1.60e-04,
937,-2.40e-04,
938,-2.40e-04,
939,1.60e-04,
940,1.60e-04,
941,-2.40e-04,
942,-2.40e-04,
943,1.60e-04,
944,-1.60e-04,
945,1.60e-04,
946,1.60e-04,
947,-2.40e-04,
948,1.60e-04,
949,-2.40e-04,
950,-2.40e-04,
951,1.60e-04,
952,1.60e-04,
953,-2.40e-04,
954,1.60e-04,
955,-4.00e-04,
956,-2.40e-04,
957,1.60e-04,
958,1.60e-04,
959,-2.40e-04,
960,1.60e-04,
961,-1.60e-04,
962,1.60e-04,
963,-2.40e-04,
964,-2.40e-04,
965,1.60e-04,
966,-2.40e-04,
967,1.60e-04,
968,1.60e-04,
969,-2.40e-04,
970,8.00e-05,
971,-2.40e-04,
972,-2.40e-04,
973,1.60e-04,
974,3.20e-04,
975,-2.40e-04,
976,-2.40e-04,
977,1.60e-04,
978,8.00e-05,
979,-2.40e-04,
980,-2.40e-04,
981,1.60e-04,
982,1.60e-04,
983,-4.00e-04,
984,-4.00e-04,
985,1.60e-04,
986,1.60e-04,
987,-2.40e-04,
988,1.60e-04,
989,-2.40e-04,
990,-2.40e-04,
991,1.60e-04,
992,-2.40e-04,
993,1.60e-04,
994,1.60e-04,
995,-2.40e-04,
996,1.60e-04,
997,-2.40e-04,
998,-2.40e-04,
999,1.60e-04,
1000,-2.40e-04,
1001,3.20e-04,
1002,2.40e-04,
1003,-2.40e-04,
1004,1.60e-04,
1005,-1.60e-04,
1006,1.60e-04,
1007,-2.40e-04,
1008,1.60e-04,
1009,-2.40e-04,
1010,-1.60e-04,
1011,1.60e-04,
1012,-2.40e-04,
1013,1.60e-04,
1014,1.60e-04,
1015,-2.40e-04,
1016,-2.40e-04,
1017,1.60e-04,
1018,1.60e-04,
1019,-1.60e-04,
1020,1.60e-04,
1021,-2.40e-04,
1022,1.60e-04,
1023,-2.40e-04,
1024,1.60e-04,
1025,-2.40e-04,
1026,-2.40e-04,
1027,1.60e-04,
1028,1.60e-04,
1029,-2.40e-04,
1030,-2.40e-04,
1031,1.60e-04,
1032,1.60e-04,
1033,-2.40e-04,
1034,1.60e-04,
1035,-2.40e-04,
1036,-2.40e-04,
1037,1.60e-04,
1038,1.60e-04,
1039,-2.40e-04,
1040,1.60e-04,
1041,-2.40e-04,
1042,1.60e-04,
1043,-2.40e-04,
1044,-2.40e-04,
1045,1.60e-04,
1046,-2.40e-04,
1047,1.60e-04,
1048,-2.40e-04,
1049,1.60e-04,
1050,1.60e-04,
1051,-2.40e-04,
1052,-2.40e-04,
1053,1.60e-04,
1054,1.60e-04,
1055,-2.40e-04,
1056,1.60e-04,
1057,-2.40e-04,
1058,-2.40e-04,
1059,1.60e-04,
1060,-2.40e-04,
1061,1.60e-04,
1062,-2.40e-04,
1063,1.60e-04,
1064,-2.40e-04,
1065,2.40e-04,
1066,-2.40e-04,
1067,1.60e-04,
1068,-1.60e-04,
1069,1.60e-04,
1070,1.60e-04,
1071,-1.60e-04,
1072,1.60e-04,
1073,-2.40e-04,
1074,1.60e-04,
1075,-2.40e-04,
1076,-2.40e-04,
1077,1.60e-04,
1078,1.60e-04,
1079,-2.40e-04,
1080,1.60e-04,
1081,-2.40e-04,
1082,-2.40e-04,
1083,1.60e-04,
1084,1.60e-04,
1085,-2.40e-04,
1086,-2.40e-04,
1087,1.60e-04,
1088,1.60e-04,
1089,-2.40e-04,
1090,-4.00e-04,
1091,1.60e-04,
1092,-2.40e-04,
1093,3.20e-04,
1094,-2.40e-04,
1095,1.60e-04,
1096,1.60e-04,
1097,-2.40e-04,
1098,1.60e-04,
1099,-2.40e-04,
1100,-2.40e-04,
1101,1.60e-04,
1102,1.60e-04,
1103,-2.40e-04,
1104,-2.40e-04,
1105,1.60e-04,
1106,-2.40e-04,
1107,2.40e-04,
1108,1.60e-04,
1109,-2.40e-04,
1110,-2.40e-04,
1111,1.60e-04,
1112,-2.40e-04,
1113,1.60e-04,
1114,1.60e-04,
1115,-2.40e-04,
1116,-4.00e-04,
1117,1.60e-04,
1118,-2.40e-04,
1119,2.40e-04,
1120,8.00e-05,
1121,-2.40e-04,
1122,-2.40e-04,
1123,1.60e-04,
1124,-2.40e-04,
1125,1.60e-04,
1126,2.40e-04,
1127,-2.40e-04,
1128,1.60e-04,
1129,-2.40e-04,
1130,1.60e-04,
1131,-2.40e-04,
1132,1.60e-04,
1133,-2.40e-04,
1134,-2.40e-04,
1135,1.60e-04,
1136,1.60e-04,
1137,-2.40e-04,
1138,-2.40e-04,
1139,1.60e-04,
1140,-2.40e-04,
1141,1.60e-04,
1142,1.60e-04,
1143,-2.40e-04,
1144,1.60e-04,
1145,-2.40e-04,
1146,-2.40e-04,
1147,1.60e-04,
1148,1.60e-04,
1149,-2.40e-04,
1150,1.60e-04,
1151,-2.40e-04,
1152,-1.60e-04,
1153,1.60e-04,
1154,1.60e-04,
1155,-2.40e-04,
1156,1.60e-04,
1157,-2.40e-04,
1158,1.60e-04,
1159,-2.40e-04,
1160,1.60e-04,
1161,-2.40e-04,
1162,1.60e-04,
1163,-2.40e-04,
1164,1.60e-04,
1165,-1.60e-04,
1166,1.60e-04,
1167,-3.20e-04,
1168,-2.40e-04,
1169,1.60e-04,
1170,1.60e-04,
1171,-2.40e-04,
1172,1.60e-04,
1173,-2.40e-04,
1174,1.60e-04,
1175,-2.40e-04,
1176,1.60e-04,
1177,-2.40e-04,
1178,1.60e-04,
1179,-2.40e-04,
1180,2.40e-04,
1181,-2.40e-04,
1182,1.60e-04,
1183,-2.40e-04,
1184,1.60e-04,
1185,-2.40e-04,
1186,2.40e-04,
1187,-2.40e-04,
1188,-2.40e-04,
1189,1.60e-04,
1190,1.60e-04,
1191,-2.40e-04,
1192,1.60e-04,
1193,-2.40e-04,
1194,-1.60e-04,
1195,2.40e-04,
1196,1.60e-04,
1197,-2.40e-04,
1198,3.20e-04,
1199,-2.40e-04,
