fastdiffamp/data-noise-set/bal-demod/NewFile6.csv

X,CH1,Start,Increment,
Sequence,Volt,-5.490000e+00,1.000000e-02
0,-2.40e-04,
1,1.60e-04,
2,1.60e-04,
3,-2.40e-04,
4,-2.40e-04,
5,3.20e-04,
6,3.20e-04,
7,-2.40e-04,
8,-2.40e-04,
9,2.40e-04,
10,-1.60e-04,
11,4.00e-04,
12,-1.60e-04,
13,3.20e-04,
14,2.40e-04,
15,-4.00e-04,
16,-2.40e-04,
17,3.20e-04,
18,-2.40e-04,
19,1.60e-04,
20,-4.00e-04,
21,2.40e-04,
22,4.00e-04,
23,-2.40e-04,
24,-2.40e-04,
25,3.20e-04,
26,-2.40e-04,
27,3.20e-04,
28,1.60e-04,
29,-2.40e-04,
30,1.60e-04,
31,-2.40e-04,
32,-2.40e-04,
33,1.60e-04,
34,1.60e-04,
35,-2.40e-04,
36,1.60e-04,
37,-2.40e-04,
38,-1.60e-04,
39,3.20e-04,
40,3.20e-04,
41,-2.40e-04,
42,2.40e-04,
43,-4.00e-04,
44,-2.40e-04,
45,3.20e-04,
46,-2.40e-04,
47,2.40e-04,
48,1.60e-04,
49,-4.00e-04,
50,1.60e-04,
51,-2.40e-04,
52,-2.40e-04,
53,3.20e-04,
54,1.60e-04,
55,-4.00e-04,
56,8.00e-05,
57,-4.00e-04,
58,1.60e-04,
59,-2.40e-04,
60,-2.40e-04,
61,3.20e-04,
62,-2.40e-04,
63,2.40e-04,
64,1.60e-04,
65,-2.40e-04,
66,-2.40e-04,
67,3.20e-04,
68,-2.40e-04,
69,2.40e-04,
70,1.60e-04,
71,-2.40e-04,
72,2.40e-04,
73,-2.40e-04,
74,-2.40e-04,
75,1.60e-04,
76,4.00e-04,
77,-4.00e-04,
78,1.60e-04,
79,-2.40e-04,
80,-4.00e-04,
81,1.60e-04,
82,2.40e-04,
83,-2.40e-04,
84,-2.40e-04,
85,1.60e-04,
86,1.60e-04,
87,-2.40e-04,
88,-2.40e-04,
89,3.20e-04,
90,-2.40e-04,
91,2.40e-04,
92,2.40e-04,
93,-2.40e-04,
94,1.60e-04,
95,-2.40e-04,
96,2.40e-04,
97,-2.40e-04,
98,-2.40e-04,
99,8.00e-05,
100,1.60e-04,
101,-2.40e-04,
102,2.40e-04,
103,-2.40e-04,
104,2.40e-04,
105,-2.40e-04,
106,-4.00e-04,
107,2.40e-04,
108,3.20e-04,
109,-2.40e-04,
110,1.60e-04,
111,-2.40e-04,
112,1.60e-04,
113,-2.40e-04,
114,-2.40e-04,
115,1.60e-04,
116,3.20e-04,
117,-2.40e-04,
118,-2.40e-04,
119,3.20e-04,
120,2.40e-04,
121,-2.40e-04,
122,-2.40e-04,
123,2.40e-04,
124,2.40e-04,
125,-2.40e-04,
126,-2.40e-04,
127,3.20e-04,
128,-2.40e-04,
129,3.20e-04,
130,-2.40e-04,
131,1.60e-04,
132,1.60e-04,
133,-2.40e-04,
134,3.20e-04,
135,-1.60e-04,
136,1.60e-04,
137,-2.40e-04,
138,-2.40e-04,
139,3.20e-04,
140,1.60e-04,
141,-2.40e-04,
142,-1.60e-04,
143,3.20e-04,
144,1.60e-04,
145,-2.40e-04,
146,1.60e-04,
147,-2.40e-04,
148,-2.40e-04,
149,1.60e-04,
150,3.20e-04,
151,-2.40e-04,
152,-2.40e-04,
153,1.60e-04,
154,-2.40e-04,
155,1.60e-04,
156,1.60e-04,
157,-2.40e-04,
158,-2.40e-04,
159,1.60e-04,
160,1.60e-04,
161,-2.40e-04,
162,-2.40e-04,
163,1.60e-04,
164,1.60e-04,
165,-2.40e-04,
166,-2.40e-04,
167,4.00e-04,
168,4.00e-04,
169,-2.40e-04,
170,1.60e-04,
171,-1.60e-04,
172,3.20e-04,
173,-2.40e-04,
174,-2.40e-04,
175,1.60e-04,
176,-2.40e-04,
177,1.60e-04,
178,2.40e-04,
179,-2.40e-04,
180,-2.40e-04,
181,3.20e-04,
182,-2.40e-04,
183,1.60e-04,
184,3.20e-04,
185,-4.00e-04,
186,3.20e-04,
187,-2.40e-04,
188,1.60e-04,
189,-2.40e-04,
190,1.60e-04,
191,-2.40e-04,
192,1.60e-04,
193,-2.40e-04,
194,3.20e-04,
195,-1.60e-04,
196,1.60e-04,
197,-3.20e-04,
198,3.20e-04,
199,-2.40e-04,
200,-2.40e-04,
201,1.60e-04,
202,-2.40e-04,
203,4.00e-04,
204,1.60e-04,
205,-2.40e-04,
206,-2.40e-04,
207,3.20e-04,
208,1.60e-04,
209,-2.40e-04,
210,2.40e-04,
211,-2.40e-04,
212,-4.00e-04,
213,1.60e-04,
214,-2.40e-04,
215,2.40e-04,
216,-2.40e-04,
217,1.60e-04,
218,3.20e-04,
219,-4.00e-04,
220,-2.40e-04,
221,2.40e-04,
222,2.40e-04,
223,-2.40e-04,
224,1.60e-04,
225,-4.00e-04,
226,-3.20e-04,
227,1.60e-04,
228,-2.40e-04,
229,1.60e-04,
230,-2.40e-04,
231,3.20e-04,
232,-2.40e-04,
233,4.00e-04,
234,3.20e-04,
235,-2.40e-04,
236,1.60e-04,
237,-2.40e-04,
238,-2.40e-04,
239,3.20e-04,
240,1.60e-04,
241,-2.40e-04,
242,-4.00e-04,
243,2.40e-04,
244,1.60e-04,
245,-4.00e-04,
246,-1.60e-04,
247,3.20e-04,
248,3.20e-04,
249,-2.40e-04,
250,1.60e-04,
251,-2.40e-04,
252,-2.40e-04,
253,2.40e-04,
254,-2.40e-04,
255,1.60e-04,
256,-2.40e-04,
257,1.60e-04,
258,1.60e-04,
259,-2.40e-04,
260,1.60e-04,
261,-4.00e-04,
262,-2.40e-04,
263,3.20e-04,
264,5.60e-04,
265,-2.40e-04,
266,-2.40e-04,
267,3.20e-04,
268,-1.60e-04,
269,4.00e-04,
270,3.20e-04,
271,-1.60e-04,
272,3.20e-04,
273,-2.40e-04,
274,1.60e-04,
275,-1.60e-04,
276,3.20e-04,
277,-2.40e-04,
278,-4.00e-04,
279,1.60e-04,
280,1.60e-04,
281,-2.40e-04,
282,-1.60e-04,
283,3.20e-04,
284,3.20e-04,
285,-2.40e-04,
286,-2.40e-04,
287,3.20e-04,
288,-1.60e-04,
289,3.20e-04,
290,3.20e-04,
291,-2.40e-04,
292,1.60e-04,
293,-2.40e-04,
294,1.60e-04,
295,-2.40e-04,
296,2.40e-04,
297,-2.40e-04,
298,-1.60e-04,
299,3.20e-04,
300,1.60e-04,
301,-4.00e-04,
302,1.60e-04,
303,-2.40e-04,
304,1.60e-04,
305,-2.40e-04,
306,2.40e-04,
307,-2.40e-04,
308,2.40e-04,
309,-3.20e-04,
310,-1.60e-04,
311,3.20e-04,
312,-2.40e-04,
313,3.20e-04,
314,-1.60e-04,
315,3.20e-04,
316,-2.40e-04,
317,3.20e-04,
318,3.20e-04,
319,-1.60e-04,
320,3.20e-04,
321,-2.40e-04,
322,1.60e-04,
323,-2.40e-04,
324,1.60e-04,
325,-2.40e-04,
326,-2.40e-04,
327,3.20e-04,
328,3.20e-04,
329,-2.40e-04,
330,-1.60e-04,
331,3.20e-04,
332,-1.60e-04,
333,3.20e-04,
334,3.20e-04,
335,-2.40e-04,
336,-2.40e-04,
337,1.60e-04,
338,1.60e-04,
339,-2.40e-04,
340,8.00e-05,
341,-4.00e-04,
342,-2.40e-04,
343,1.60e-04,
344,1.60e-04,
345,-1.60e-04,
346,-2.40e-04,
347,1.60e-04,
348,1.60e-04,
349,-2.40e-04,
350,3.20e-04,
351,-2.40e-04,
352,3.20e-04,
353,-2.40e-04,
354,-2.40e-04,
355,3.20e-04,
356,-2.40e-04,
357,1.60e-04,
358,3.20e-04,
359,-1.60e-04,
360,-2.40e-04,
361,1.60e-04,
362,3.20e-04,
363,-2.40e-04,
364,-1.60e-04,
365,3.20e-04,
366,2.40e-04,
367,-2.40e-04,
368,1.60e-04,
369,-4.00e-04,
370,-2.40e-04,
371,3.20e-04,
372,1.60e-04,
373,-4.00e-04,
374,-2.40e-04,
375,3.20e-04,
376,4.00e-04,
377,-1.60e-04,
378,-2.40e-04,
379,2.40e-04,
380,-2.40e-04,
381,3.20e-04,
382,3.20e-04,
383,-2.40e-04,
384,-2.40e-04,
385,3.20e-04,
386,1.60e-04,
387,-2.40e-04,
388,1.60e-04,
389,-2.40e-04,
390,-2.40e-04,
391,1.60e-04,
392,1.60e-04,
393,-2.40e-04,
394,1.60e-04,
395,-2.40e-04,
396,-2.40e-04,
397,2.40e-04,
398,1.60e-04,
399,-2.40e-04,
400,-1.60e-04,
401,1.60e-04,
402,-2.40e-04,
403,3.20e-04,
404,4.00e-04,
405,-2.40e-04,
406,1.60e-04,
407,-2.40e-04,
408,1.60e-04,
409,-2.40e-04,
410,1.60e-04,
411,-2.40e-04,
412,-2.40e-04,
413,3.20e-04,
414,3.20e-04,
415,-2.40e-04,
416,-2.40e-04,
417,1.60e-04,
418,-1.60e-04,
419,3.20e-04,
420,3.20e-04,
421,-2.40e-04,
422,-1.60e-04,
423,3.20e-04,
424,3.20e-04,
425,-2.40e-04,
426,1.60e-04,
427,-4.00e-04,
428,-1.60e-04,
429,3.20e-04,
430,-2.40e-04,
431,4.00e-04,
432,1.60e-04,
433,-2.40e-04,
434,1.60e-04,
435,-2.40e-04,
436,1.60e-04,
437,-2.40e-04,
438,1.60e-04,
439,-2.40e-04,
440,-2.40e-04,
441,1.60e-04,
442,-4.00e-04,
443,2.40e-04,
444,-2.40e-04,
445,3.20e-04,
446,2.40e-04,
447,-2.40e-04,
448,-2.40e-04,
449,2.40e-04,
450,-2.40e-04,
451,4.00e-04,
452,3.20e-04,
453,-2.40e-04,
454,-2.40e-04,
455,3.20e-04,
456,3.20e-04,
457,-2.40e-04,
458,-2.40e-04,
459,1.60e-04,
460,-1.60e-04,
461,4.80e-04,
462,3.20e-04,
463,-2.40e-04,
464,1.60e-04,
465,-3.20e-04,
466,-2.40e-04,
467,3.20e-04,
468,1.60e-04,
469,-2.40e-04,
470,1.60e-04,
471,-2.40e-04,
472,3.20e-04,
473,-2.40e-04,
474,-2.40e-04,
475,3.20e-04,
476,-2.40e-04,
477,3.20e-04,
478,-1.60e-04,
479,3.20e-04,
480,1.60e-04,
481,-2.40e-04,
482,-1.60e-04,
483,3.20e-04,
484,-2.40e-04,
485,3.20e-04,
486,2.40e-04,
487,-2.40e-04,
488,1.60e-04,
489,-4.00e-04,
490,-1.60e-04,
491,1.60e-04,
492,2.40e-04,
493,-3.20e-04,
494,1.60e-04,
495,-4.00e-04,
496,-2.40e-04,
497,1.60e-04,
498,-2.40e-04,
499,2.40e-04,
500,1.60e-04,
501,-2.40e-04,
502,-2.40e-04,
503,4.00e-04,
504,3.20e-04,
505,-2.40e-04,
506,-2.40e-04,
507,2.40e-04,
508,3.20e-04,
509,-1.60e-04,
510,3.20e-04,
511,-2.40e-04,
512,1.60e-04,
513,-2.40e-04,
514,-1.60e-04,
515,3.20e-04,
516,4.00e-04,
517,-2.40e-04,
518,-2.40e-04,
519,1.60e-04,
520,3.20e-04,
521,-2.40e-04,
522,-2.40e-04,
523,3.20e-04,
524,-2.40e-04,
525,3.20e-04,
526,1.60e-04,
527,-2.40e-04,
528,-1.60e-04,
529,4.00e-04,
530,-2.40e-04,
531,3.20e-04,
532,-2.40e-04,
533,1.60e-04,
534,-4.00e-04,
535,1.60e-04,
536,-2.40e-04,
537,1.60e-04,
538,1.60e-04,
539,-4.00e-04,
540,3.20e-04,
541,-2.40e-04,
542,3.20e-04,
543,-2.40e-04,
544,-4.00e-04,
545,1.60e-04,
546,1.60e-04,
547,-2.40e-04,
548,-2.40e-04,
549,1.60e-04,
550,1.60e-04,
551,-2.40e-04,
552,3.20e-04,
553,-4.00e-04,
554,1.60e-04,
555,-4.00e-04,
556,-2.40e-04,
557,3.20e-04,
558,4.00e-04,
559,-2.40e-04,
560,-1.60e-04,
561,3.20e-04,
562,-1.60e-04,
563,3.20e-04,
564,-2.40e-04,
565,3.20e-04,
566,-1.60e-04,
567,3.20e-04,
568,1.60e-04,
569,-4.00e-04,
570,3.20e-04,
571,-4.00e-04,
572,-2.40e-04,
573,1.60e-04,
574,1.60e-04,
575,-2.40e-04,
576,2.40e-04,
577,-2.40e-04,
578,-2.40e-04,
579,1.60e-04,
580,3.20e-04,
581,-2.40e-04,
582,-2.40e-04,
583,2.40e-04,
584,3.20e-04,
585,-2.40e-04,
586,1.60e-04,
587,-2.40e-04,
588,-4.00e-04,
589,1.60e-04,
590,1.60e-04,
591,-2.40e-04,
592,-2.40e-04,
593,1.60e-04,
594,-2.40e-04,
595,1.60e-04,
596,-2.40e-04,
597,1.60e-04,
598,2.40e-04,
599,-2.40e-04,
600,1.60e-04,
601,-2.40e-04,
602,-4.00e-04,
603,1.60e-04,
604,-2.40e-04,
605,1.60e-04,
606,1.60e-04,
607,-2.40e-04,
608,1.60e-04,
609,-2.40e-04,
610,3.20e-04,
611,-2.40e-04,
612,-2.40e-04,
613,1.60e-04,
614,-2.40e-04,
615,1.60e-04,
616,-4.00e-04,
617,1.60e-04,
618,1.60e-04,
619,-2.40e-04,
620,-2.40e-04,
621,3.20e-04,
622,3.20e-04,
623,-2.40e-04,
624,-2.40e-04,
625,1.60e-04,
626,1.60e-04,
627,-2.40e-04,
628,3.20e-04,
629,-4.00e-04,
630,8.00e-05,
631,-2.40e-04,
632,-2.40e-04,
633,1.60e-04,
634,1.60e-04,
635,-2.40e-04,
636,-2.40e-04,
637,1.60e-04,
638,1.60e-04,
639,-3.20e-04,
640,-2.40e-04,
641,1.60e-04,
642,-2.40e-04,
643,1.60e-04,
644,-2.40e-04,
645,1.60e-04,
646,-2.40e-04,
647,2.40e-04,
648,8.00e-05,
649,-4.00e-04,
650,-2.40e-04,
651,3.20e-04,
652,1.60e-04,
653,-2.40e-04,
654,1.60e-04,
655,-4.00e-04,
656,3.20e-04,
657,-2.40e-04,
658,1.60e-04,
659,-2.40e-04,
660,2.40e-04,
661,-4.00e-04,
662,-2.40e-04,
663,3.20e-04,
664,1.60e-04,
665,-2.40e-04,
666,-2.40e-04,
667,1.60e-04,
668,1.60e-04,
669,-4.00e-04,
670,8.00e-05,
671,-4.00e-04,
672,1.60e-04,
673,-2.40e-04,
674,1.60e-04,
675,-2.40e-04,
676,1.60e-04,
677,-2.40e-04,
678,-2.40e-04,
679,1.60e-04,
680,-2.40e-04,
681,1.60e-04,
682,1.60e-04,
683,-2.40e-04,
684,-4.00e-04,
685,1.60e-04,
686,1.60e-04,
687,-4.00e-04,
688,3.20e-04,
689,-2.40e-04,
690,1.60e-04,
691,-4.00e-04,
692,-2.40e-04,
693,1.60e-04,
694,-2.40e-04,
695,1.60e-04,
696,1.60e-04,
697,-2.40e-04,
698,-2.40e-04,
699,1.60e-04,
700,1.60e-04,
701,-4.00e-04,
702,-2.40e-04,
703,1.60e-04,
704,-2.40e-04,
705,1.60e-04,
706,2.40e-04,
707,-4.00e-04,
708,1.60e-04,
709,-4.00e-04,
710,1.60e-04,
711,-2.40e-04,
712,3.20e-04,
713,-2.40e-04,
714,1.60e-04,
715,-2.40e-04,
716,1.60e-04,
717,-2.40e-04,
718,-2.40e-04,
719,1.60e-04,
720,-3.20e-04,
721,1.60e-04,
722,1.60e-04,
723,-2.40e-04,
724,-4.00e-04,
725,1.60e-04,
726,2.40e-04,
727,-2.40e-04,
728,1.60e-04,
729,-4.00e-04,
730,2.40e-04,
731,-2.40e-04,
732,1.60e-04,
733,-2.40e-04,
734,1.60e-04,
735,-4.00e-04,
736,-2.40e-04,
737,1.60e-04,
738,-2.40e-04,
739,2.40e-04,
740,1.60e-04,
741,-2.40e-04,
742,-2.40e-04,
743,1.60e-04,
744,-4.00e-04,
745,1.60e-04,
746,8.00e-05,
747,-2.40e-04,
748,-2.40e-04,
749,1.60e-04,
750,1.60e-04,
751,-2.40e-04,
752,-2.40e-04,
753,1.60e-04,
754,-4.00e-04,
755,2.40e-04,
756,1.60e-04,
757,-2.40e-04,
758,1.60e-04,
759,-2.40e-04,
760,1.60e-04,
761,-2.40e-04,
762,-4.00e-04,
763,1.60e-04,
764,-2.40e-04,
765,1.60e-04,
766,1.60e-04,
767,-2.40e-04,
768,-2.40e-04,
769,1.60e-04,
770,8.00e-05,
771,-4.00e-04,
772,-2.40e-04,
773,1.60e-04,
774,-2.40e-04,
775,1.60e-04,
776,-2.40e-04,
777,1.60e-04,
778,1.60e-04,
779,-2.40e-04,
780,-2.40e-04,
781,3.20e-04,
782,1.60e-04,
783,-4.00e-04,
784,-2.40e-04,
785,1.60e-04,
786,2.40e-04,
787,-2.40e-04,
788,-2.40e-04,
789,1.60e-04,
790,1.60e-04,
791,-2.40e-04,
792,1.60e-04,
793,-1.60e-04,
794,-2.40e-04,
795,2.40e-04,
796,-4.00e-04,
797,1.60e-04,
798,1.60e-04,
799,-2.40e-04,
800,-2.40e-04,
801,1.60e-04,
802,1.60e-04,
803,-2.40e-04,
804,1.60e-04,
805,-2.40e-04,
806,1.60e-04,
807,-2.40e-04,
808,3.20e-04,
809,-4.00e-04,
810,-2.40e-04,
811,1.60e-04,
812,1.60e-04,
813,-4.00e-04,
814,-2.40e-04,
815,1.60e-04,
816,1.60e-04,
817,-2.40e-04,
818,1.60e-04,
819,-4.00e-04,
820,1.60e-04,
821,-2.40e-04,
822,-2.40e-04,
823,8.00e-05,
824,1.60e-04,
825,-2.40e-04,
826,-2.40e-04,
827,1.60e-04,
828,-3.20e-04,
829,3.20e-04,
830,1.60e-04,
831,-2.40e-04,
832,-2.40e-04,
833,1.60e-04,
834,-2.40e-04,
835,3.20e-04,
836,1.60e-04,
837,-2.40e-04,
838,-2.40e-04,
839,1.60e-04,
840,-2.40e-04,
841,1.60e-04,
842,1.60e-04,
843,-4.00e-04,
844,-2.40e-04,
845,1.60e-04,
846,1.60e-04,
847,-2.40e-04,
848,-2.40e-04,
849,1.60e-04,
850,1.60e-04,
851,-4.00e-04,
852,-2.40e-04,
853,1.60e-04,
854,1.60e-04,
855,-2.40e-04,
856,1.60e-04,
857,-2.40e-04,
858,-2.40e-04,
859,1.60e-04,
860,1.60e-04,
861,-2.40e-04,
862,1.60e-04,
863,-2.40e-04,
864,1.60e-04,
865,-2.40e-04,
866,-2.40e-04,
867,1.60e-04,
868,1.60e-04,
869,-2.40e-04,
870,1.60e-04,
871,-4.00e-04,
872,-2.40e-04,
873,2.40e-04,
874,-2.40e-04,
875,1.60e-04,
876,1.60e-04,
877,-2.40e-04,
878,1.60e-04,
879,-4.00e-04,
880,1.60e-04,
881,-2.40e-04,
882,1.60e-04,
883,-4.00e-04,
884,-2.40e-04,
885,1.60e-04,
886,1.60e-04,
887,-2.40e-04,
888,-2.40e-04,
889,1.60e-04,
890,-2.40e-04,
891,2.40e-04,
892,-4.00e-04,
893,1.60e-04,
894,1.60e-04,
895,-2.40e-04,
896,2.40e-04,
897,-2.40e-04,
898,-2.40e-04,
899,3.20e-04,
900,1.60e-04,
901,-2.40e-04,
902,3.20e-04,
903,-2.40e-04,
904,-2.40e-04,
905,3.20e-04,
906,-2.40e-04,
907,1.60e-04,
908,-4.00e-04,
909,1.60e-04,
910,-2.40e-04,
911,2.40e-04,
912,-2.40e-04,
913,1.60e-04,
914,1.60e-04,
915,-4.00e-04,
916,-2.40e-04,
917,2.40e-04,
918,1.60e-04,
919,-3.20e-04,
920,-2.40e-04,
921,1.60e-04,
922,-2.40e-04,
923,1.60e-04,
924,1.60e-04,
925,-2.40e-04,
926,-3.20e-04,
927,1.60e-04,
928,-2.40e-04,
929,1.60e-04,
930,1.60e-04,
931,-2.40e-04,
932,-2.40e-04,
933,1.60e-04,
934,1.60e-04,
935,-2.40e-04,
936,1.60e-04,
937,-4.00e-04,
938,-2.40e-04,
939,1.60e-04,
940,-2.40e-04,
941,3.20e-04,
942,1.60e-04,
943,-2.40e-04,
944,-2.40e-04,
945,2.40e-04,
946,-2.40e-04,
947,1.60e-04,
948,-4.00e-04,
949,1.60e-04,
950,1.60e-04,
951,-4.00e-04,
952,1.60e-04,
953,-2.40e-04,
954,1.60e-04,
955,-2.40e-04,
956,2.40e-04,
957,-1.60e-04,
958,1.60e-04,
959,-4.00e-04,
960,-4.00e-04,
961,1.60e-04,
962,-2.40e-04,
963,1.60e-04,
964,1.60e-04,
965,-2.40e-04,
966,1.60e-04,
967,-2.40e-04,
968,-2.40e-04,
969,2.40e-04,
970,1.60e-04,
971,-2.40e-04,
972,-2.40e-04,
973,1.60e-04,
974,1.60e-04,
975,-2.40e-04,
976,1.60e-04,
977,-2.40e-04,
978,1.60e-04,
979,-1.60e-04,
980,-2.40e-04,
981,2.40e-04,
982,-2.40e-04,
983,1.60e-04,
984,-4.00e-04,
985,1.60e-04,
986,-2.40e-04,
987,1.60e-04,
988,-2.40e-04,
989,2.40e-04,
990,1.60e-04,
991,-2.40e-04,
992,-2.40e-04,
993,3.20e-04,
994,-2.40e-04,
995,3.20e-04,
996,3.20e-04,
997,-2.40e-04,
998,-2.40e-04,
999,3.20e-04,
1000,1.60e-04,
1001,-2.40e-04,
1002,1.60e-04,
1003,-2.40e-04,
1004,1.60e-04,
1005,-2.40e-04,
1006,-2.40e-04,
1007,1.60e-04,
1008,1.60e-04,
1009,-4.80e-04,
1010,-2.40e-04,
1011,1.60e-04,
1012,1.60e-04,
1013,-2.40e-04,
1014,-2.40e-04,
1015,1.60e-04,
1016,1.60e-04,
1017,-2.40e-04,
1018,1.60e-04,
1019,-2.40e-04,
1020,-1.60e-04,
1021,1.60e-04,
1022,1.60e-04,
1023,-2.40e-04,
1024,1.60e-04,
1025,-2.40e-04,
1026,-2.40e-04,
1027,1.60e-04,
1028,1.60e-04,
1029,-2.40e-04,
1030,-2.40e-04,
1031,1.60e-04,
1032,3.20e-04,
1033,-2.40e-04,
1034,-2.40e-04,
1035,1.60e-04,
1036,1.60e-04,
1037,-4.00e-04,
1038,1.60e-04,
1039,-2.40e-04,
1040,1.60e-04,
1041,-2.40e-04,
1042,1.60e-04,
1043,-4.00e-04,
1044,-2.40e-04,
1045,1.60e-04,
1046,1.60e-04,
1047,-2.40e-04,
1048,1.60e-04,
1049,-4.00e-04,
1050,1.60e-04,
1051,-2.40e-04,
1052,-2.40e-04,
1053,3.20e-04,
1054,-2.40e-04,
1055,1.60e-04,
1056,-2.40e-04,
1057,3.20e-04,
1058,-2.40e-04,
1059,3.20e-04,
1060,-2.40e-04,
1061,2.40e-04,
1062,-1.60e-04,
1063,3.20e-04,
1064,3.20e-04,
1065,-2.40e-04,
1066,-2.40e-04,
1067,3.20e-04,
1068,3.20e-04,
1069,-2.40e-04,
1070,1.60e-04,
1071,-2.40e-04,
1072,1.60e-04,
1073,-2.40e-04,
1074,-4.00e-04,
1075,1.60e-04,
1076,-2.40e-04,
1077,1.60e-04,
1078,-4.00e-04,
1079,2.40e-04,
1080,-2.40e-04,
1081,1.60e-04,
1082,-2.40e-04,
1083,2.40e-04,
1084,1.60e-04,
1085,-2.40e-04,
1086,-3.20e-04,
1087,2.40e-04,
1088,-2.40e-04,
1089,2.40e-04,
1090,-2.40e-04,
1091,1.60e-04,
1092,1.60e-04,
1093,-2.40e-04,
1094,-2.40e-04,
1095,1.60e-04,
1096,1.60e-04,
1097,-2.40e-04,
1098,1.60e-04,
1099,-2.40e-04,
1100,2.40e-04,
1101,-2.40e-04,
1102,1.60e-04,
1103,-1.60e-04,
1104,-2.40e-04,
1105,3.20e-04,
1106,-2.40e-04,
1107,2.40e-04,
1108,-2.40e-04,
1109,1.60e-04,
1110,-2.40e-04,
1111,1.60e-04,
1112,1.60e-04,
1113,-2.40e-04,
1114,2.40e-04,
1115,-2.40e-04,
1116,-2.40e-04,
1117,3.20e-04,
1118,-2.40e-04,
1119,1.60e-04,
1120,-1.60e-04,
1121,3.20e-04,
1122,-2.40e-04,
1123,2.40e-04,
1124,3.20e-04,
1125,-2.40e-04,
1126,1.60e-04,
1127,-2.40e-04,
1128,1.60e-04,
1129,-2.40e-04,
1130,2.40e-04,
1131,-2.40e-04,
1132,1.60e-04,
1133,-4.00e-04,
1134,-1.60e-04,
1135,1.60e-04,
1136,1.60e-04,
1137,-2.40e-04,
1138,2.40e-04,
1139,-2.40e-04,
1140,-2.40e-04,
1141,3.20e-04,
1142,-4.00e-04,
1143,1.60e-04,
1144,1.60e-04,
1145,-2.40e-04,
1146,1.60e-04,
1147,-2.40e-04,
1148,-2.40e-04,
1149,2.40e-04,
1150,1.60e-04,
1151,-2.40e-04,
1152,-2.40e-04,
1153,2.40e-04,
1154,1.60e-04,
1155,-2.40e-04,
1156,-4.00e-04,
1157,1.60e-04,
1158,-3.20e-04,
1159,1.60e-04,
1160,1.60e-04,
1161,-2.40e-04,
1162,1.60e-04,
1163,-2.40e-04,
1164,1.60e-04,
1165,-2.40e-04,
1166,1.60e-04,
1167,-4.00e-04,
1168,-2.40e-04,
1169,1.60e-04,
1170,1.60e-04,
1171,-2.40e-04,
1172,-2.40e-04,
1173,3.20e-04,
1174,-4.00e-04,
1175,1.60e-04,
1176,1.60e-04,
1177,-2.40e-04,
1178,1.60e-04,
1179,-2.40e-04,
1180,-2.40e-04,
1181,2.40e-04,
1182,-3.20e-04,
1183,2.40e-04,
1184,-4.00e-04,
1185,1.60e-04,
1186,1.60e-04,
1187,-2.40e-04,
1188,-2.40e-04,
1189,3.20e-04,
1190,-2.40e-04,
1191,3.20e-04,
1192,-2.40e-04,
1193,1.60e-04,
1194,-2.40e-04,
1195,1.60e-04,
1196,-2.40e-04,
1197,3.20e-04,
1198,-2.40e-04,
1199,2.40e-04,
