fastdiffamp/data-noise-set/bal-demod/NewFile12.csv

X,CH1,Start,Increment,
Sequence,Volt,-5.490000e+00,1.000000e-02
0,2.40e-04,
1,-2.40e-04,
2,-1.60e-04,
3,1.60e-04,
4,2.00e-04,
5,-1.60e-04,
6,2.40e-04,
7,-8.00e-05,
8,-8.00e-05,
9,2.40e-04,
10,-1.20e-04,
11,2.40e-04,
12,3.20e-04,
13,-1.60e-04,
14,-1.60e-04,
15,2.00e-04,
16,1.60e-04,
17,-1.60e-04,
18,1.60e-04,
19,-8.00e-05,
20,2.40e-04,
21,-8.00e-05,
22,-8.00e-05,
23,2.40e-04,
24,2.40e-04,
25,-1.60e-04,
26,2.40e-04,
27,-2.40e-04,
28,-2.40e-04,
29,2.40e-04,
30,-1.60e-04,
31,2.00e-04,
32,-8.00e-05,
33,2.00e-04,
34,-1.60e-04,
35,3.20e-04,
36,0.00e+00,
37,3.20e-04,
38,1.60e-04,
39,-8.00e-05,
40,-8.00e-05,
41,2.40e-04,
42,2.00e-04,
43,-1.60e-04,
44,-8.00e-05,
45,3.20e-04,
46,3.20e-04,
47,-8.00e-05,
48,2.80e-04,
49,-1.60e-04,
50,2.40e-04,
51,-1.60e-04,
52,2.00e-04,
53,-1.60e-04,
54,1.60e-04,
55,-8.00e-05,
56,2.40e-04,
57,-1.60e-04,
58,-8.00e-05,
59,2.40e-04,
60,-8.00e-05,
61,2.40e-04,
62,2.40e-04,
63,-1.60e-04,
64,-1.60e-04,
65,2.40e-04,
66,-8.00e-05,
67,2.80e-04,
68,2.40e-04,
69,-1.60e-04,
70,2.40e-04,
71,-1.60e-04,
72,2.40e-04,
73,-1.60e-04,
74,-8.00e-05,
75,2.00e-04,
76,2.40e-04,
77,-8.00e-05,
78,-8.00e-05,
79,2.40e-04,
80,-8.00e-05,
81,2.80e-04,
82,-1.60e-04,
83,2.40e-04,
84,2.40e-04,
85,0.00e+00,
86,-8.00e-05,
87,3.20e-04,
88,-1.60e-04,
89,2.00e-04,
90,-8.00e-05,
91,1.60e-04,
92,2.40e-04,
93,-1.60e-04,
94,2.40e-04,
95,-8.00e-05,
96,-1.60e-04,
97,2.40e-04,
98,-8.00e-05,
99,2.80e-04,
100,-2.40e-04,
101,2.40e-04,
102,2.40e-04,
103,-1.60e-04,
104,-8.00e-05,
105,2.00e-04,
106,3.20e-04,
107,-1.60e-04,
108,-8.00e-05,
109,3.20e-04,
110,0.00e+00,
111,2.80e-04,
112,2.80e-04,
113,0.00e+00,
114,2.40e-04,
115,-8.00e-05,
116,2.40e-04,
117,-1.60e-04,
118,-8.00e-05,
119,2.80e-04,
120,-1.60e-04,
121,2.40e-04,
122,2.40e-04,
123,-8.00e-05,
124,-8.00e-05,
125,2.80e-04,
126,2.40e-04,
127,-1.20e-04,
128,-8.00e-05,
129,2.40e-04,
130,2.40e-04,
131,-8.00e-05,
132,2.00e-04,
133,-1.20e-04,
134,-1.60e-04,
135,2.40e-04,
136,-8.00e-05,
137,2.40e-04,
138,2.40e-04,
139,-1.60e-04,
140,0.00e+00,
141,2.80e-04,
142,-8.00e-05,
143,3.20e-04,
144,2.40e-04,
145,-8.00e-05,
146,2.80e-04,
147,-8.00e-05,
148,-1.60e-04,
149,1.60e-04,
150,2.40e-04,
151,-1.60e-04,
152,2.80e-04,
153,-1.60e-04,
154,-1.60e-04,
155,1.60e-04,
156,-1.60e-04,
157,3.20e-04,
158,1.60e-04,
159,-1.60e-04,
160,2.40e-04,
161,-8.00e-05,
162,-2.40e-04,
163,2.40e-04,
164,-8.00e-05,
165,2.80e-04,
166,-8.00e-05,
167,3.20e-04,
168,2.40e-04,
169,-8.00e-05,
170,2.40e-04,
171,-1.60e-04,
172,2.40e-04,
173,-8.00e-05,
174,-8.00e-05,
175,3.20e-04,
176,2.40e-04,
177,-1.60e-04,
178,2.40e-04,
179,-1.60e-04,
180,-1.60e-04,
181,2.40e-04,
182,2.80e-04,
183,-1.20e-04,
184,-1.60e-04,
185,2.40e-04,
186,-1.60e-04,
187,2.40e-04,
188,-2.40e-04,
189,3.20e-04,
190,2.80e-04,
191,-8.00e-05,
192,-2.40e-04,
193,2.40e-04,
194,1.60e-04,
195,-1.60e-04,
196,2.40e-04,
197,-1.60e-04,
198,1.60e-04,
199,-1.60e-04,
200,1.60e-04,
201,-1.60e-04,
202,-1.60e-04,
203,1.60e-04,
204,-8.00e-05,
205,2.40e-04,
206,-1.60e-04,
207,2.40e-04,
208,2.40e-04,
209,-8.00e-05,
210,-2.40e-04,
211,2.40e-04,
212,-1.60e-04,
213,3.20e-04,
214,2.80e-04,
215,-8.00e-05,
216,-8.00e-05,
217,3.20e-04,
218,2.80e-04,
219,-8.00e-05,
220,-8.00e-05,
221,2.40e-04,
222,2.40e-04,
223,-1.60e-04,
224,2.40e-04,
225,-1.60e-04,
226,2.40e-04,
227,-1.60e-04,
228,-1.60e-04,
229,2.40e-04,
230,-8.00e-05,
231,2.40e-04,
232,2.80e-04,
233,-8.00e-05,
234,-8.00e-05,
235,2.80e-04,
236,-8.00e-05,
237,2.40e-04,
238,1.60e-04,
239,-1.60e-04,
240,-1.60e-04,
241,3.20e-04,
242,-2.40e-04,
243,2.40e-04,
244,-1.60e-04,
245,2.40e-04,
246,1.60e-04,
247,-1.60e-04,
248,2.40e-04,
249,-1.60e-04,
250,2.80e-04,
251,-8.00e-05,
252,-8.00e-05,
253,2.40e-04,
254,2.40e-04,
255,-1.60e-04,
256,-8.00e-05,
257,1.60e-04,
258,-2.40e-04,
259,2.40e-04,
260,2.40e-04,
261,-1.60e-04,
262,2.40e-04,
263,-1.60e-04,
264,-1.60e-04,
265,2.40e-04,
266,-8.00e-05,
267,1.60e-04,
268,-8.00e-05,
269,2.00e-04,
270,-1.60e-04,
271,2.00e-04,
272,-1.60e-04,
273,2.40e-04,
274,1.60e-04,
275,-1.60e-04,
276,2.80e-04,
277,-8.00e-05,
278,2.40e-04,
279,-1.60e-04,
280,-2.40e-04,
281,2.00e-04,
282,-1.60e-04,
283,2.00e-04,
284,-8.00e-05,
285,3.20e-04,
286,-1.60e-04,
287,2.00e-04,
288,3.20e-04,
289,-1.60e-04,
290,-8.00e-05,
291,1.60e-04,
292,1.60e-04,
293,-1.60e-04,
294,2.40e-04,
295,-1.60e-04,
296,-8.00e-05,
297,3.20e-04,
298,-1.60e-04,
299,2.40e-04,
300,2.40e-04,
301,-1.60e-04,
302,-8.00e-05,
303,2.00e-04,
304,-1.60e-04,
305,2.40e-04,
306,1.60e-04,
307,-1.60e-04,
308,2.40e-04,
309,-1.60e-04,
310,-1.60e-04,
311,2.80e-04,
312,-8.00e-05,
313,2.40e-04,
314,2.40e-04,
315,-1.60e-04,
316,-1.60e-04,
317,1.60e-04,
318,-1.60e-04,
319,1.60e-04,
320,2.40e-04,
321,-1.60e-04,
322,-1.60e-04,
323,2.40e-04,
324,2.40e-04,
325,-1.60e-04,
326,-8.00e-05,
327,2.00e-04,
328,-1.60e-04,
329,2.00e-04,
330,-8.00e-05,
331,1.60e-04,
332,2.00e-04,
333,-8.00e-05,
334,-8.00e-05,
335,2.40e-04,
336,1.60e-04,
337,-1.60e-04,
338,1.60e-04,
339,-1.60e-04,
340,-8.00e-05,
341,2.40e-04,
342,-1.60e-04,
343,3.20e-04,
344,-1.60e-04,
345,2.40e-04,
346,2.40e-04,
347,-1.60e-04,
348,-8.00e-05,
349,2.80e-04,
350,-8.00e-05,
351,2.00e-04,
352,-1.60e-04,
353,2.00e-04,
354,1.60e-04,
355,-1.60e-04,
356,-8.00e-05,
357,2.40e-04,
358,1.60e-04,
359,-8.00e-05,
360,1.60e-04,
361,-1.60e-04,
362,2.40e-04,
363,-8.00e-05,
364,2.00e-04,
365,-1.60e-04,
366,3.20e-04,
367,-1.60e-04,
368,1.60e-04,
369,-1.60e-04,
370,-2.40e-04,
371,2.40e-04,
372,-1.60e-04,
373,2.40e-04,
374,-1.60e-04,
375,2.40e-04,
376,2.40e-04,
377,-8.00e-05,
378,-8.00e-05,
379,2.40e-04,
380,2.40e-04,
381,-1.60e-04,
382,-1.60e-04,
383,2.80e-04,
384,-8.00e-05,
385,2.40e-04,
386,-1.60e-04,
387,2.40e-04,
388,1.60e-04,
389,-1.60e-04,
390,-1.60e-04,
391,1.60e-04,
392,-2.40e-04,
393,2.00e-04,
394,2.00e-04,
395,-1.60e-04,
396,-1.60e-04,
397,2.40e-04,
398,-1.60e-04,
399,2.80e-04,
400,-8.00e-05,
401,2.40e-04,
402,2.40e-04,
403,-1.60e-04,
404,1.60e-04,
405,-1.60e-04,
406,2.00e-04,
407,-2.40e-04,
408,-2.40e-04,
409,2.00e-04,
410,-8.00e-05,
411,2.40e-04,
412,2.40e-04,
413,-1.60e-04,
414,2.40e-04,
415,-8.00e-05,
416,-1.60e-04,
417,2.40e-04,
418,1.60e-04,
419,-1.60e-04,
420,-1.60e-04,
421,2.40e-04,
422,-8.00e-05,
423,2.40e-04,
424,-8.00e-05,
425,2.40e-04,
426,-8.00e-05,
427,3.20e-04,
428,2.40e-04,
429,-8.00e-05,
430,-8.00e-05,
431,2.40e-04,
432,2.40e-04,
433,-1.60e-04,
434,-2.00e-04,
435,2.40e-04,
436,2.00e-04,
437,-1.60e-04,
438,-8.00e-05,
439,2.40e-04,
440,-1.60e-04,
441,2.00e-04,
442,-8.00e-05,
443,2.40e-04,
444,-8.00e-05,
445,3.20e-04,
446,2.40e-04,
447,-8.00e-05,
448,2.40e-04,
449,-1.60e-04,
450,-8.00e-05,
451,2.40e-04,
452,2.40e-04,
453,-1.60e-04,
454,1.60e-04,
455,-1.60e-04,
456,-1.60e-04,
457,2.40e-04,
458,-1.60e-04,
459,2.40e-04,
460,2.80e-04,
461,-1.60e-04,
462,-2.40e-04,
463,1.20e-04,
464,-1.60e-04,
465,2.00e-04,
466,-1.60e-04,
467,2.40e-04,
468,2.40e-04,
469,-8.00e-05,
470,2.40e-04,
471,-1.60e-04,
472,-1.60e-04,
473,2.40e-04,
474,-1.60e-04,
475,2.00e-04,
476,2.40e-04,
477,-1.60e-04,
478,-1.60e-04,
479,2.40e-04,
480,-8.00e-05,
481,2.40e-04,
482,2.40e-04,
483,-8.00e-05,
484,2.40e-04,
485,-1.60e-04,
486,2.40e-04,
487,-1.60e-04,
488,-1.60e-04,
489,2.40e-04,
490,2.40e-04,
491,-1.60e-04,
492,-1.60e-04,
493,1.60e-04,
494,-8.00e-05,
495,2.40e-04,
496,-1.60e-04,
497,1.60e-04,
498,-1.60e-04,
499,2.00e-04,
500,-1.60e-04,
501,2.40e-04,
502,-1.60e-04,
503,2.00e-04,
504,2.00e-04,
505,-8.00e-05,
506,-1.60e-04,
507,2.00e-04,
508,2.00e-04,
509,-1.60e-04,
510,-1.60e-04,
511,2.00e-04,
512,-1.60e-04,
513,2.00e-04,
514,-1.60e-04,
515,1.60e-04,
516,-1.60e-04,
517,2.40e-04,
518,1.60e-04,
519,-1.60e-04,
520,-1.60e-04,
521,2.00e-04,
522,2.40e-04,
523,-8.00e-05,
524,2.00e-04,
525,-2.40e-04,
526,-1.60e-04,
527,2.40e-04,
528,-1.60e-04,
529,2.40e-04,
530,2.00e-04,
531,-1.60e-04,
532,2.40e-04,
533,-1.60e-04,
534,2.40e-04,
535,-1.60e-04,
536,1.60e-04,
537,-1.60e-04,
538,-8.00e-05,
539,2.40e-04,
540,-1.60e-04,
541,2.40e-04,
542,1.60e-04,
543,-1.60e-04,
544,2.00e-04,
545,-1.60e-04,
546,-1.60e-04,
547,1.60e-04,
548,1.60e-04,
549,-2.40e-04,
550,-8.00e-05,
551,1.60e-04,
552,-1.60e-04,
553,2.00e-04,
554,-1.60e-04,
555,2.40e-04,
556,3.20e-04,
557,-1.60e-04,
558,2.40e-04,
559,-1.60e-04,
560,-1.60e-04,
561,2.40e-04,
562,-2.40e-04,
563,1.60e-04,
564,3.20e-04,
565,-1.60e-04,
566,-1.60e-04,
567,2.00e-04,
568,-1.60e-04,
569,1.60e-04,
570,-1.60e-04,
571,2.00e-04,
572,-1.60e-04,
573,1.60e-04,
574,-2.40e-04,
575,2.00e-04,
576,1.60e-04,
577,-1.60e-04,
578,-8.00e-05,
579,2.40e-04,
580,-1.60e-04,
581,2.00e-04,
582,1.60e-04,
583,-1.60e-04,
584,2.40e-04,
585,-8.00e-05,
586,1.60e-04,
587,-8.00e-05,
588,2.80e-04,
589,-8.00e-05,
590,2.40e-04,
591,-2.40e-04,
592,2.40e-04,
593,-2.40e-04,
594,-1.60e-04,
595,2.40e-04,
596,-1.60e-04,
597,1.60e-04,
598,-8.00e-05,
599,2.00e-04,
600,-8.00e-05,
601,2.40e-04,
602,-8.00e-05,
603,2.40e-04,
604,1.60e-04,
605,-1.60e-04,
606,-8.00e-05,
607,2.40e-04,
608,-8.00e-05,
609,1.60e-04,
610,-1.60e-04,
611,3.20e-04,
612,2.40e-04,
613,-8.00e-05,
614,2.40e-04,
615,-8.00e-05,
616,2.00e-04,
617,-2.40e-04,
618,-8.00e-05,
619,2.40e-04,
620,-8.00e-05,
621,2.40e-04,
622,-1.60e-04,
623,2.00e-04,
624,-1.60e-04,
625,2.00e-04,
626,-1.60e-04,
627,2.40e-04,
628,2.40e-04,
629,-8.00e-05,
630,-1.60e-04,
631,2.40e-04,
632,-1.60e-04,
633,2.40e-04,
634,-8.00e-05,
635,2.40e-04,
636,2.40e-04,
637,-8.00e-05,
638,-1.60e-04,
639,2.40e-04,
640,-1.60e-04,
641,1.60e-04,
642,1.60e-04,
643,-1.60e-04,
644,2.00e-04,
645,-1.60e-04,
646,2.80e-04,
647,-8.00e-05,
648,-1.60e-04,
649,1.60e-04,
650,-2.40e-04,
651,1.60e-04,
652,-1.60e-04,
653,1.60e-04,
654,-1.60e-04,
655,2.40e-04,
656,-8.00e-05,
657,2.40e-04,
658,2.00e-04,
659,-8.00e-05,
660,-1.60e-04,
661,2.40e-04,
662,1.60e-04,
663,-1.60e-04,
664,2.40e-04,
665,-8.00e-05,
666,-1.60e-04,
667,2.40e-04,
668,-1.60e-04,
669,2.40e-04,
670,-8.00e-05,
671,2.40e-04,
672,-1.60e-04,
673,1.60e-04,
674,2.40e-04,
675,-1.60e-04,
676,-8.00e-05,
677,1.60e-04,
678,2.80e-04,
679,-8.00e-05,
680,-1.60e-04,
681,1.60e-04,
682,1.60e-04,
683,-1.60e-04,
684,2.00e-04,
685,-1.60e-04,
686,-8.00e-05,
687,2.80e-04,
688,2.40e-04,
689,-8.00e-05,
690,-8.00e-05,
691,2.00e-04,
692,-8.00e-05,
693,2.40e-04,
694,2.40e-04,
695,-8.00e-05,
696,1.60e-04,
697,-2.40e-04,
698,2.40e-04,
699,-2.40e-04,
700,2.40e-04,
701,-2.40e-04,
702,2.40e-04,
703,-1.60e-04,
704,-1.60e-04,
705,2.40e-04,
706,-8.00e-05,
707,2.80e-04,
708,2.00e-04,
709,-1.60e-04,
710,3.20e-04,
711,-8.00e-05,
712,-1.60e-04,
713,2.40e-04,
714,-8.00e-05,
715,2.80e-04,
716,-1.60e-04,
717,2.40e-04,
718,2.40e-04,
719,-1.60e-04,
720,-1.60e-04,
721,2.40e-04,
722,-1.60e-04,
723,2.40e-04,
724,-1.60e-04,
725,2.40e-04,
726,1.60e-04,
727,-1.60e-04,
728,1.60e-04,
729,-1.60e-04,
730,-8.00e-05,
731,2.00e-04,
732,1.60e-04,
733,-1.60e-04,
734,-8.00e-05,
735,2.40e-04,
736,2.40e-04,
737,-1.60e-04,
738,2.40e-04,
739,-1.60e-04,
740,2.40e-04,
741,-8.00e-05,
742,2.40e-04,
743,-1.60e-04,
744,-2.40e-04,
745,1.60e-04,
746,-1.60e-04,
747,2.40e-04,
748,2.40e-04,
749,-8.00e-05,
750,-1.60e-04,
751,2.40e-04,
752,2.40e-04,
753,-1.60e-04,
754,-8.00e-05,
755,2.40e-04,
756,1.60e-04,
757,-1.60e-04,
758,2.40e-04,
759,-1.60e-04,
760,-1.60e-04,
761,2.00e-04,
762,-1.60e-04,
763,2.00e-04,
764,-1.60e-04,
765,1.60e-04,
766,-1.60e-04,
767,1.60e-04,
768,-1.60e-04,
769,2.40e-04,
770,2.40e-04,
771,-2.40e-04,
772,-8.00e-05,
773,2.40e-04,
774,1.60e-04,
775,-1.60e-04,
776,1.60e-04,
777,-1.60e-04,
778,2.00e-04,
779,-8.00e-05,
780,1.60e-04,
781,-2.40e-04,
782,-1.60e-04,
783,1.60e-04,
784,-1.60e-04,
785,3.20e-04,
786,-8.00e-05,
787,2.00e-04,
788,-8.00e-05,
789,1.60e-04,
790,2.40e-04,
791,-8.00e-05,
792,2.40e-04,
793,-8.00e-05,
794,2.00e-04,
795,-1.60e-04,
796,-1.60e-04,
797,2.40e-04,
798,2.00e-04,
799,-1.60e-04,
800,1.60e-04,
801,-1.60e-04,
802,-1.60e-04,
803,2.40e-04,
804,2.40e-04,
805,-8.00e-05,
806,-1.60e-04,
807,1.60e-04,
808,-8.00e-05,
809,2.40e-04,
810,1.60e-04,
811,-1.60e-04,
812,-8.00e-05,
813,1.60e-04,
814,-1.60e-04,
815,2.40e-04,
816,2.40e-04,
817,-1.60e-04,
818,-1.60e-04,
819,2.40e-04,
820,1.60e-04,
821,-1.60e-04,
822,-8.00e-05,
823,2.40e-04,
824,2.40e-04,
825,-1.60e-04,
826,-8.00e-05,
827,2.40e-04,
828,2.40e-04,
829,-1.60e-04,
830,-8.00e-05,
831,2.00e-04,
832,-2.40e-04,
833,2.40e-04,
834,2.80e-04,
835,-1.60e-04,
836,-1.60e-04,
837,2.40e-04,
838,-8.00e-05,
839,2.00e-04,
840,2.00e-04,
841,-2.40e-04,
842,-8.00e-05,
843,2.40e-04,
844,2.40e-04,
845,-8.00e-05,
846,2.40e-04,
847,-1.60e-04,
848,-8.00e-05,
849,2.40e-04,
850,-1.60e-04,
851,1.60e-04,
852,-8.00e-05,
853,1.60e-04,
854,1.60e-04,
855,-1.60e-04,
856,2.80e-04,
857,-1.60e-04,
858,-1.60e-04,
859,2.00e-04,
860,2.40e-04,
861,-8.00e-05,
862,2.40e-04,
863,-1.60e-04,
864,-8.00e-05,
865,2.40e-04,
866,1.60e-04,
867,-8.00e-05,
868,3.20e-04,
869,-8.00e-05,
870,-8.00e-05,
871,3.20e-04,
872,-8.00e-05,
873,2.40e-04,
874,-1.60e-04,
875,2.40e-04,
876,2.00e-04,
877,-1.60e-04,
878,-1.60e-04,
879,2.00e-04,
880,-2.40e-04,
881,2.00e-04,
882,1.60e-04,
883,-8.00e-05,
884,2.40e-04,
885,-2.40e-04,
886,-1.60e-04,
887,2.00e-04,
888,-1.60e-04,
889,2.80e-04,
890,-8.00e-05,
891,2.80e-04,
892,3.20e-04,
893,-1.60e-04,
894,-8.00e-05,
895,3.20e-04,
896,-8.00e-05,
897,2.80e-04,
898,-1.60e-04,
899,1.60e-04,
900,2.00e-04,
901,-1.60e-04,
902,-8.00e-05,
903,2.40e-04,
904,2.40e-04,
905,-1.60e-04,
906,2.00e-04,
907,-1.60e-04,
908,-1.60e-04,
909,2.40e-04,
910,-8.00e-05,
911,3.20e-04,
912,-8.00e-05,
913,2.40e-04,
914,1.60e-04,
915,-1.60e-04,
916,-8.00e-05,
917,2.40e-04,
918,2.00e-04,
919,-8.00e-05,
920,2.00e-04,
921,-8.00e-05,
922,-1.60e-04,
923,2.40e-04,
924,2.40e-04,
925,-8.00e-05,
926,-1.60e-04,
927,2.40e-04,
928,2.40e-04,
929,-8.00e-05,
930,2.40e-04,
931,-8.00e-05,
932,2.40e-04,
933,-1.60e-04,
934,-8.00e-05,
935,3.20e-04,
936,-8.00e-05,
937,1.60e-04,
938,-8.00e-05,
939,2.40e-04,
940,2.80e-04,
941,-8.00e-05,
942,-8.00e-05,
943,3.20e-04,
944,-1.60e-04,
945,2.80e-04,
946,2.40e-04,
947,-8.00e-05,
948,1.60e-04,
949,-1.60e-04,
950,-8.00e-05,
951,2.40e-04,
952,0.00e+00,
953,2.40e-04,
954,1.60e-04,
955,-8.00e-05,
956,-8.00e-05,
957,2.80e-04,
958,1.60e-04,
959,-8.00e-05,
960,0.00e+00,
961,2.80e-04,
962,2.40e-04,
963,-8.00e-05,
964,-8.00e-05,
965,2.40e-04,
966,-1.60e-04,
967,2.40e-04,
968,2.40e-04,
969,-8.00e-05,
970,-8.00e-05,
971,2.40e-04,
972,1.60e-04,
973,-1.60e-04,
974,1.60e-04,
975,-1.60e-04,
976,2.40e-04,
977,-8.00e-05,
978,2.40e-04,
979,-1.60e-04,
980,-1.60e-04,
981,3.20e-04,
982,-2.40e-04,
983,2.40e-04,
984,-8.00e-05,
985,2.40e-04,
986,-1.60e-04,
987,1.60e-04,
988,2.40e-04,
989,-1.60e-04,
990,2.40e-04,
991,-1.60e-04,
992,-8.00e-05,
993,2.00e-04,
994,2.40e-04,
995,-1.60e-04,
996,2.00e-04,
997,-1.60e-04,
998,-8.00e-05,
999,2.40e-04,
1000,2.40e-04,
1001,-8.00e-05,
1002,2.40e-04,
1003,-1.60e-04,
1004,2.40e-04,
1005,-1.60e-04,
1006,-8.00e-05,
1007,1.60e-04,
1008,2.40e-04,
1009,-1.60e-04,
1010,-8.00e-05,
1011,1.60e-04,
1012,-1.60e-04,
1013,2.40e-04,
1014,2.40e-04,
1015,-2.40e-04,
1016,-8.00e-05,
1017,2.40e-04,
1018,-8.00e-05,
1019,2.00e-04,
1020,1.60e-04,
1021,-2.40e-04,
1022,-8.00e-05,
1023,2.40e-04,
1024,-1.60e-04,
1025,1.60e-04,
1026,2.40e-04,
1027,-8.00e-05,
1028,-8.00e-05,
1029,2.40e-04,
1030,1.60e-04,
1031,-1.60e-04,
1032,-2.40e-04,
1033,2.40e-04,
1034,2.00e-04,
1035,-8.00e-05,
1036,-1.60e-04,
1037,2.40e-04,
1038,-8.00e-05,
1039,2.00e-04,
1040,-1.60e-04,
1041,2.00e-04,
1042,2.40e-04,
1043,-1.60e-04,
1044,-2.40e-04,
1045,2.00e-04,
1046,-1.60e-04,
1047,3.20e-04,
1048,2.40e-04,
1049,-1.60e-04,
1050,2.40e-04,
1051,-8.00e-05,
1052,-8.00e-05,
1053,1.60e-04,
1054,2.00e-04,
1055,-2.40e-04,
1056,-8.00e-05,
1057,2.40e-04,
1058,-8.00e-05,
1059,2.40e-04,
1060,2.00e-04,
1061,-1.60e-04,
1062,-8.00e-05,
1063,3.20e-04,
1064,2.40e-04,
1065,-1.60e-04,
1066,-1.60e-04,
1067,2.40e-04,
1068,2.40e-04,
1069,-1.60e-04,
1070,-1.60e-04,
1071,2.40e-04,
1072,-2.40e-04,
1073,2.40e-04,
1074,-1.60e-04,
1075,2.40e-04,
1076,2.40e-04,
1077,-2.40e-04,
1078,2.00e-04,
1079,-1.60e-04,
1080,2.00e-04,
1081,-2.40e-04,
1082,-1.60e-04,
1083,2.40e-04,
1084,2.40e-04,
1085,-1.60e-04,
1086,-8.00e-05,
1087,2.40e-04,
1088,2.40e-04,
1089,-1.60e-04,
1090,1.60e-04,
1091,-1.60e-04,
1092,-1.60e-04,
1093,2.00e-04,
1094,-8.00e-05,
1095,2.80e-04,
1096,2.80e-04,
1097,-8.00e-05,
1098,2.40e-04,
1099,-8.00e-05,
1100,-8.00e-05,
1101,2.40e-04,
1102,-1.60e-04,
1103,2.40e-04,
1104,3.20e-04,
1105,-1.60e-04,
1106,-1.60e-04,
1107,1.60e-04,
1108,-8.00e-05,
1109,2.80e-04,
1110,1.60e-04,
1111,-1.60e-04,
1112,-8.00e-05,
1113,2.40e-04,
1114,2.40e-04,
1115,-8.00e-05,
1116,1.60e-04,
1117,-1.60e-04,
1118,2.40e-04,
1119,-8.00e-05,
1120,-1.60e-04,
1121,2.40e-04,
1122,1.60e-04,
1123,-1.60e-04,
1124,3.20e-04,
1125,-1.60e-04,
1126,2.40e-04,
1127,-8.00e-05,
1128,1.60e-04,
1129,-8.00e-05,
1130,-8.00e-05,
1131,2.00e-04,
1132,-8.00e-05,
1133,2.80e-04,
1134,2.40e-04,
1135,-8.00e-05,
1136,-1.60e-04,
1137,2.40e-04,
1138,-8.00e-05,
1139,2.00e-04,
1140,2.80e-04,
1141,-1.60e-04,
1142,-1.60e-04,
1143,3.20e-04,
1144,-8.00e-05,
1145,3.20e-04,
1146,-1.60e-04,
1147,2.40e-04,
1148,-1.60e-04,
1149,2.40e-04,
1150,2.80e-04,
1151,-8.00e-05,
1152,1.60e-04,
1153,-1.60e-04,
1154,-8.00e-05,
1155,2.40e-04,
1156,1.60e-04,
1157,-1.60e-04,
1158,-8.00e-05,
1159,1.60e-04,
1160,-1.60e-04,
1161,2.00e-04,
1162,1.20e-04,
1163,-1.60e-04,
1164,-8.00e-05,
1165,2.00e-04,
1166,-1.60e-04,
1167,2.40e-04,
1168,-1.60e-04,
1169,2.00e-04,
1170,-1.60e-04,
1171,2.00e-04,
1172,-1.60e-04,
1173,1.60e-04,
1174,2.00e-04,
1175,-1.60e-04,
1176,2.00e-04,
1177,-1.60e-04,
1178,3.20e-04,
1179,-1.60e-04,
1180,2.00e-04,
1181,-1.60e-04,
1182,-1.60e-04,
1183,2.40e-04,
1184,2.40e-04,
1185,-1.60e-04,
1186,2.40e-04,
1187,-1.60e-04,
1188,-1.60e-04,
1189,2.00e-04,
1190,2.40e-04,
1191,-1.60e-04,
1192,-8.00e-05,
1193,1.60e-04,
1194,1.60e-04,
1195,-1.60e-04,
1196,2.40e-04,
1197,-1.60e-04,
1198,2.40e-04,
1199,-8.00e-05,
