fastdiffamp/data-noise-set/bal-demod/NewFile11.csv

X,CH1,Start,Increment,
Sequence,Volt,-5.490000e+00,1.000000e-02
0,2.40e-04,
1,-8.00e-05,
2,2.00e-04,
3,-8.00e-05,
4,2.40e-04,
5,-1.60e-04,
6,-8.00e-05,
7,3.20e-04,
8,3.20e-04,
9,-8.00e-05,
10,-1.60e-04,
11,3.20e-04,
12,1.60e-04,
13,-1.60e-04,
14,-8.00e-05,
15,2.40e-04,
16,-8.00e-05,
17,2.40e-04,
18,2.40e-04,
19,-8.00e-05,
20,3.20e-04,
21,-1.60e-04,
22,-8.00e-05,
23,3.20e-04,
24,2.80e-04,
25,-8.00e-05,
26,-2.40e-04,
27,2.40e-04,
28,0.00e+00,
29,3.20e-04,
30,-1.60e-04,
31,3.20e-04,
32,0.00e+00,
33,2.80e-04,
34,2.40e-04,
35,-1.60e-04,
36,2.40e-04,
37,-8.00e-05,
38,2.40e-04,
39,-8.00e-05,
40,-8.00e-05,
41,2.80e-04,
42,-1.60e-04,
43,2.40e-04,
44,3.20e-04,
45,-8.00e-05,
46,2.40e-04,
47,-8.00e-05,
48,-8.00e-05,
49,3.20e-04,
50,2.40e-04,
51,-8.00e-05,
52,-8.00e-05,
53,2.40e-04,
54,2.40e-04,
55,-8.00e-05,
56,2.40e-04,
57,-8.00e-05,
58,-1.60e-04,
59,2.40e-04,
60,-8.00e-05,
61,2.40e-04,
62,3.20e-04,
63,-8.00e-05,
64,2.80e-04,
65,0.00e+00,
66,-1.60e-04,
67,3.20e-04,
68,0.00e+00,
69,3.20e-04,
70,-1.60e-04,
71,2.40e-04,
72,-8.00e-05,
73,2.80e-04,
74,2.40e-04,
75,-8.00e-05,
76,2.40e-04,
77,-1.60e-04,
78,2.00e-04,
79,-1.60e-04,
80,-8.00e-05,
81,2.80e-04,
82,-1.60e-04,
83,2.80e-04,
84,-8.00e-05,
85,2.00e-04,
86,2.80e-04,
87,-8.00e-05,
88,-8.00e-05,
89,3.20e-04,
90,2.40e-04,
91,-8.00e-05,
92,2.40e-04,
93,-8.00e-05,
94,3.20e-04,
95,-8.00e-05,
96,2.40e-04,
97,-8.00e-05,
98,-8.00e-05,
99,3.20e-04,
100,2.40e-04,
101,-1.60e-04,
102,-8.00e-05,
103,2.40e-04,
104,-8.00e-05,
105,2.40e-04,
106,-1.60e-04,
107,2.40e-04,
108,2.40e-04,
109,0.00e+00,
110,-8.00e-05,
111,2.40e-04,
112,1.60e-04,
113,-1.60e-04,
114,2.00e-04,
115,-8.00e-05,
116,-1.60e-04,
117,2.40e-04,
118,-1.60e-04,
119,2.40e-04,
120,-8.00e-05,
121,2.00e-04,
122,3.20e-04,
123,-8.00e-05,
124,-8.00e-05,
125,3.20e-04,
126,2.40e-04,
127,-8.00e-05,
128,2.40e-04,
129,-1.60e-04,
130,2.40e-04,
131,-1.60e-04,
132,-8.00e-05,
133,3.20e-04,
134,-8.00e-05,
135,2.40e-04,
136,-8.00e-05,
137,2.40e-04,
138,2.40e-04,
139,-8.00e-05,
140,2.00e-04,
141,-1.60e-04,
142,-8.00e-05,
143,3.60e-04,
144,1.60e-04,
145,-8.00e-05,
146,2.40e-04,
147,-1.60e-04,
148,-8.00e-05,
149,2.00e-04,
150,-1.60e-04,
151,3.20e-04,
152,-8.00e-05,
153,2.40e-04,
154,2.40e-04,
155,-1.60e-04,
156,-8.00e-05,
157,2.80e-04,
158,0.00e+00,
159,2.40e-04,
160,-1.60e-04,
161,2.40e-04,
162,2.40e-04,
163,-4.00e-05,
164,-8.00e-05,
165,2.40e-04,
166,-8.00e-05,
167,2.40e-04,
168,-8.00e-05,
169,2.40e-04,
170,3.20e-04,
171,-8.00e-05,
172,-1.60e-04,
173,2.40e-04,
174,1.60e-04,
175,-1.60e-04,
176,-8.00e-05,
177,2.40e-04,
178,-8.00e-05,
179,2.00e-04,
180,-1.60e-04,
181,3.20e-04,
182,2.40e-04,
183,-8.00e-05,
184,-8.00e-05,
185,2.40e-04,
186,1.60e-04,
187,-8.00e-05,
188,-8.00e-05,
189,2.80e-04,
190,-1.60e-04,
191,2.80e-04,
192,3.20e-04,
193,-8.00e-05,
194,-8.00e-05,
195,2.40e-04,
196,-8.00e-05,
197,3.20e-04,
198,3.20e-04,
199,-8.00e-05,
200,-1.60e-04,
201,2.40e-04,
202,2.40e-04,
203,-8.00e-05,
204,-8.00e-05,
205,2.40e-04,
206,3.20e-04,
207,-1.60e-04,
208,2.40e-04,
209,-8.00e-05,
210,-8.00e-05,
211,3.20e-04,
212,2.40e-04,
213,-8.00e-05,
214,2.80e-04,
215,-8.00e-05,
216,2.40e-04,
217,-8.00e-05,
218,-8.00e-05,
219,2.40e-04,
220,-1.60e-04,
221,2.40e-04,
222,2.80e-04,
223,-8.00e-05,
224,-8.00e-05,
225,2.40e-04,
226,-8.00e-05,
227,3.20e-04,
228,-8.00e-05,
229,2.80e-04,
230,0.00e+00,
231,2.40e-04,
232,2.40e-04,
233,-1.60e-04,
234,-8.00e-05,
235,2.40e-04,
236,-8.00e-05,
237,2.40e-04,
238,2.00e-04,
239,-8.00e-05,
240,-8.00e-05,
241,3.20e-04,
242,-8.00e-05,
243,2.40e-04,
244,2.40e-04,
245,-1.60e-04,
246,3.20e-04,
247,-8.00e-05,
248,3.20e-04,
249,-8.00e-05,
250,1.60e-04,
251,-1.60e-04,
252,-8.00e-05,
253,2.00e-04,
254,2.40e-04,
255,-1.60e-04,
256,2.40e-04,
257,-8.00e-05,
258,2.80e-04,
259,-8.00e-05,
260,-8.00e-05,
261,2.40e-04,
262,-8.00e-05,
263,2.40e-04,
264,3.20e-04,
265,-8.00e-05,
266,-1.60e-04,
267,2.40e-04,
268,3.20e-04,
269,-8.00e-05,
270,0.00e+00,
271,2.40e-04,
272,3.20e-04,
273,-1.60e-04,
274,2.40e-04,
275,-1.60e-04,
276,1.60e-04,
277,-1.60e-04,
278,-8.00e-05,
279,3.20e-04,
280,2.00e-04,
281,-1.60e-04,
282,-8.00e-05,
283,3.20e-04,
284,2.40e-04,
285,-8.00e-05,
286,2.80e-04,
287,-8.00e-05,
288,0.00e+00,
289,2.80e-04,
290,3.20e-04,
291,-8.00e-05,
292,-8.00e-05,
293,2.40e-04,
294,-1.60e-04,
295,2.40e-04,
296,-8.00e-05,
297,2.40e-04,
298,-8.00e-05,
299,2.40e-04,
300,2.40e-04,
301,-1.60e-04,
302,1.60e-04,
303,-1.60e-04,
304,-8.00e-05,
305,2.40e-04,
306,-8.00e-05,
307,3.20e-04,
308,-8.00e-05,
309,1.60e-04,
310,-8.00e-05,
311,2.40e-04,
312,1.60e-04,
313,-1.60e-04,
314,2.40e-04,
315,-8.00e-05,
316,-8.00e-05,
317,2.40e-04,
318,2.00e-04,
319,-1.60e-04,
320,2.80e-04,
321,-8.00e-05,
322,-8.00e-05,
323,1.60e-04,
324,-8.00e-05,
325,2.80e-04,
326,-8.00e-05,
327,2.40e-04,
328,-8.00e-05,
329,2.00e-04,
330,-8.00e-05,
331,2.00e-04,
332,-8.00e-05,
333,2.40e-04,
334,2.40e-04,
335,-8.00e-05,
336,2.40e-04,
337,-1.60e-04,
338,1.60e-04,
339,-1.60e-04,
340,-8.00e-05,
341,2.40e-04,
342,2.40e-04,
343,-8.00e-05,
344,-8.00e-05,
345,2.80e-04,
346,-1.60e-04,
347,3.20e-04,
348,2.40e-04,
349,-8.00e-05,
350,2.00e-04,
351,-1.60e-04,
352,-8.00e-05,
353,2.40e-04,
354,2.40e-04,
355,-8.00e-05,
356,-8.00e-05,
357,2.00e-04,
358,2.40e-04,
359,-1.60e-04,
360,1.60e-04,
361,-1.60e-04,
362,-1.60e-04,
363,1.60e-04,
364,-1.60e-04,
365,2.40e-04,
366,-1.60e-04,
367,2.40e-04,
368,2.80e-04,
369,-8.00e-05,
370,2.40e-04,
371,-8.00e-05,
372,-1.60e-04,
373,2.00e-04,
374,-8.00e-05,
375,2.40e-04,
376,2.40e-04,
377,-1.60e-04,
378,-8.00e-05,
379,2.40e-04,
380,-8.00e-05,
381,1.60e-04,
382,2.40e-04,
383,-1.60e-04,
384,-8.00e-05,
385,2.80e-04,
386,2.40e-04,
387,-8.00e-05,
388,3.20e-04,
389,-8.00e-05,
390,4.00e-04,
391,-8.00e-05,
392,2.40e-04,
393,0.00e+00,
394,2.40e-04,
395,-8.00e-05,
396,2.40e-04,
397,-8.00e-05,
398,2.40e-04,
399,-8.00e-05,
400,2.80e-04,
401,-8.00e-05,
402,2.40e-04,
403,-8.00e-05,
404,-1.60e-04,
405,3.20e-04,
406,-8.00e-05,
407,2.40e-04,
408,-8.00e-05,
409,2.40e-04,
410,3.20e-04,
411,-1.60e-04,
412,1.60e-04,
413,-1.60e-04,
414,-2.40e-04,
415,2.40e-04,
416,-8.00e-05,
417,2.40e-04,
418,-8.00e-05,
419,2.40e-04,
420,2.40e-04,
421,-1.60e-04,
422,-8.00e-05,
423,2.40e-04,
424,2.40e-04,
425,-1.60e-04,
426,2.40e-04,
427,-1.60e-04,
428,-8.00e-05,
429,2.40e-04,
430,2.40e-04,
431,-8.00e-05,
432,-1.60e-04,
433,2.40e-04,
434,-8.00e-05,
435,2.00e-04,
436,-1.60e-04,
437,2.40e-04,
438,-8.00e-05,
439,2.00e-04,
440,2.40e-04,
441,-8.00e-05,
442,-8.00e-05,
443,1.60e-04,
444,-1.20e-04,
445,2.00e-04,
446,-8.00e-05,
447,2.40e-04,
448,2.40e-04,
449,-1.60e-04,
450,3.20e-04,
451,-8.00e-05,
452,-8.00e-05,
453,2.40e-04,
454,-2.00e-04,
455,3.20e-04,
456,-1.60e-04,
457,2.40e-04,
458,2.00e-04,
459,-1.60e-04,
460,-8.00e-05,
461,3.20e-04,
462,2.40e-04,
463,-1.60e-04,
464,-8.00e-05,
465,2.40e-04,
466,2.40e-04,
467,-1.60e-04,
468,2.40e-04,
469,-8.00e-05,
470,-8.00e-05,
471,2.40e-04,
472,2.40e-04,
473,-8.00e-05,
474,-8.00e-05,
475,2.40e-04,
476,-1.60e-04,
477,2.40e-04,
478,-8.00e-05,
479,1.60e-04,
480,2.00e-04,
481,-8.00e-05,
482,2.40e-04,
483,-1.60e-04,
484,-8.00e-05,
485,2.80e-04,
486,-1.60e-04,
487,2.40e-04,
488,-1.60e-04,
489,2.00e-04,
490,2.40e-04,
491,-1.60e-04,
492,-8.00e-05,
493,1.60e-04,
494,2.40e-04,
495,-8.00e-05,
496,2.40e-04,
497,-8.00e-05,
498,-8.00e-05,
499,2.40e-04,
500,2.40e-04,
501,-1.60e-04,
502,3.20e-04,
503,-4.00e-05,
504,-8.00e-05,
505,1.60e-04,
506,2.40e-04,
507,-1.60e-04,
508,2.40e-04,
509,-8.00e-05,
510,3.20e-04,
511,0.00e+00,
512,2.40e-04,
513,-8.00e-05,
514,-8.00e-05,
515,3.20e-04,
516,-1.60e-04,
517,3.20e-04,
518,2.40e-04,
519,-8.00e-05,
520,2.40e-04,
521,-8.00e-05,
522,-8.00e-05,
523,2.40e-04,
524,2.40e-04,
525,-8.00e-05,
526,3.20e-04,
527,-8.00e-05,
528,2.40e-04,
529,-8.00e-05,
530,-8.00e-05,
531,3.20e-04,
532,-8.00e-05,
533,2.40e-04,
534,3.20e-04,
535,-1.60e-04,
536,-8.00e-05,
537,3.20e-04,
538,3.20e-04,
539,-8.00e-05,
540,2.40e-04,
541,-8.00e-05,
542,2.80e-04,
543,-8.00e-05,
544,-8.00e-05,
545,2.40e-04,
546,1.60e-04,
547,-1.60e-04,
548,-8.00e-05,
549,2.00e-04,
550,-1.60e-04,
551,2.00e-04,
552,2.40e-04,
553,-1.60e-04,
554,2.40e-04,
555,-8.00e-05,
556,2.80e-04,
557,-8.00e-05,
558,-8.00e-05,
559,2.80e-04,
560,2.40e-04,
561,-1.60e-04,
562,2.80e-04,
563,-8.00e-05,
564,2.40e-04,
565,-8.00e-05,
566,-8.00e-05,
567,2.40e-04,
568,1.60e-04,
569,-1.60e-04,
570,2.00e-04,
571,-1.60e-04,
572,-8.00e-05,
573,2.40e-04,
574,-1.60e-04,
575,3.20e-04,
576,-8.00e-05,
577,2.40e-04,
578,-8.00e-05,
579,2.40e-04,
580,-8.00e-05,
581,3.20e-04,
582,2.40e-04,
583,-8.00e-05,
584,-1.60e-04,
585,2.40e-04,
586,2.40e-04,
587,-1.60e-04,
588,2.40e-04,
589,-1.60e-04,
590,2.40e-04,
591,-1.60e-04,
592,1.60e-04,
593,-8.00e-05,
594,2.40e-04,
595,-1.60e-04,
596,-8.00e-05,
597,2.00e-04,
598,-8.00e-05,
599,2.40e-04,
600,1.60e-04,
601,-1.60e-04,
602,3.20e-04,
603,-2.40e-04,
604,-1.60e-04,
605,1.60e-04,
606,2.40e-04,
607,-8.00e-05,
608,-8.00e-05,
609,2.40e-04,
610,-1.60e-04,
611,2.40e-04,
612,3.20e-04,
613,-8.00e-05,
614,-8.00e-05,
615,2.40e-04,
616,2.40e-04,
617,-8.00e-05,
618,-8.00e-05,
619,2.40e-04,
620,-8.00e-05,
621,2.40e-04,
622,-8.00e-05,
623,2.40e-04,
624,3.20e-04,
625,-8.00e-05,
626,2.40e-04,
627,-1.60e-04,
628,-2.40e-04,
629,2.40e-04,
630,-8.00e-05,
631,2.40e-04,
632,2.40e-04,
633,-1.60e-04,
634,2.40e-04,
635,-1.60e-04,
636,2.40e-04,
637,-8.00e-05,
638,-8.00e-05,
639,2.40e-04,
640,-8.00e-05,
641,2.40e-04,
642,-8.00e-05,
643,3.20e-04,
644,2.40e-04,
645,-8.00e-05,
646,-1.60e-04,
647,2.40e-04,
648,-8.00e-05,
649,2.40e-04,
650,-8.00e-05,
651,3.20e-04,
652,2.40e-04,
653,-8.00e-05,
654,2.40e-04,
655,-8.00e-05,
656,2.40e-04,
657,-8.00e-05,
658,-8.00e-05,
659,2.80e-04,
660,-8.00e-05,
661,2.40e-04,
662,2.80e-04,
663,-8.00e-05,
664,-1.60e-04,
665,2.00e-04,
666,2.40e-04,
667,-8.00e-05,
668,3.20e-04,
669,-8.00e-05,
670,-8.00e-05,
671,2.40e-04,
672,-8.00e-05,
673,2.40e-04,
674,2.00e-04,
675,-8.00e-05,
676,-8.00e-05,
677,2.80e-04,
678,-1.60e-04,
679,2.40e-04,
680,1.60e-04,
681,-8.00e-05,
682,2.40e-04,
683,-8.00e-05,
684,2.40e-04,
685,-8.00e-05,
686,-8.00e-05,
687,3.20e-04,
688,3.20e-04,
689,-8.00e-05,
690,2.40e-04,
691,-8.00e-05,
692,-8.00e-05,
693,3.20e-04,
694,-8.00e-05,
695,2.40e-04,
696,-8.00e-05,
697,3.20e-04,
698,-2.40e-04,
699,2.40e-04,
700,-8.00e-05,
701,2.40e-04,
702,3.20e-04,
703,-8.00e-05,
704,2.40e-04,
705,-8.00e-05,
706,3.20e-04,
707,-8.00e-05,
708,3.20e-04,
709,-8.00e-05,
710,-8.00e-05,
711,2.40e-04,
712,-8.00e-05,
713,4.00e-04,
714,-8.00e-05,
715,2.80e-04,
716,-1.60e-04,
717,3.20e-04,
718,2.40e-04,
719,-8.00e-05,
720,-8.00e-05,
721,3.20e-04,
722,-1.60e-04,
723,2.40e-04,
724,2.40e-04,
725,-8.00e-05,
726,3.20e-04,
727,-8.00e-05,
728,2.40e-04,
729,-8.00e-05,
730,-8.00e-05,
731,3.20e-04,
732,0.00e+00,
733,3.20e-04,
734,3.20e-04,
735,-1.60e-04,
736,3.60e-04,
737,-1.60e-04,
738,-8.00e-05,
739,3.20e-04,
740,3.20e-04,
741,-8.00e-05,
742,0.00e+00,
743,2.40e-04,
744,-8.00e-05,
745,2.40e-04,
746,1.60e-04,
747,-1.60e-04,
748,-8.00e-05,
749,2.00e-04,
750,-8.00e-05,
751,2.40e-04,
752,-8.00e-05,
753,2.40e-04,
754,-1.60e-04,
755,3.20e-04,
756,2.40e-04,
757,-8.00e-05,
758,-1.60e-04,
759,2.40e-04,
760,-8.00e-05,
761,2.40e-04,
762,2.00e-04,
763,-1.60e-04,
764,-8.00e-05,
765,2.40e-04,
766,2.80e-04,
767,-1.60e-04,
768,2.40e-04,
769,-2.40e-04,
770,-8.00e-05,
771,2.40e-04,
772,2.40e-04,
773,-1.60e-04,
774,2.40e-04,
775,-8.00e-05,
776,-1.60e-04,
777,2.40e-04,
778,1.60e-04,
779,-1.60e-04,
780,-8.00e-05,
781,2.40e-04,
782,3.20e-04,
783,-1.60e-04,
784,-1.60e-04,
785,1.60e-04,
786,-1.60e-04,
787,2.40e-04,
788,-8.00e-05,
789,2.80e-04,
790,-8.00e-05,
791,2.40e-04,
792,2.40e-04,
793,-8.00e-05,
794,-1.60e-04,
795,3.20e-04,
796,2.80e-04,
797,-8.00e-05,
798,-1.60e-04,
799,2.40e-04,
800,3.20e-04,
801,-1.60e-04,
802,2.40e-04,
803,-1.60e-04,
804,2.80e-04,
805,-8.00e-05,
806,-1.60e-04,
807,2.40e-04,
808,2.00e-04,
809,-1.60e-04,
810,-8.00e-05,
811,2.40e-04,
812,-8.00e-05,
813,2.80e-04,
814,-1.60e-04,
815,2.40e-04,
816,2.00e-04,
817,-8.00e-05,
818,-1.60e-04,
819,3.20e-04,
820,-8.00e-05,
821,2.40e-04,
822,1.60e-04,
823,-8.00e-05,
824,2.40e-04,
825,-8.00e-05,
826,-1.60e-04,
827,3.20e-04,
828,-8.00e-05,
829,2.40e-04,
830,2.40e-04,
831,-1.60e-04,
832,-8.00e-05,
833,2.80e-04,
834,-8.00e-05,
835,2.00e-04,
836,-1.60e-04,
837,2.40e-04,
838,-8.00e-05,
839,2.40e-04,
840,2.80e-04,
841,-1.60e-04,
842,2.40e-04,
843,-8.00e-05,
844,2.80e-04,
845,-8.00e-05,
846,-1.60e-04,
847,3.20e-04,
848,2.40e-04,
849,-8.00e-05,
850,-8.00e-05,
851,2.40e-04,
852,2.40e-04,
853,-1.60e-04,
854,-8.00e-05,
855,2.40e-04,
856,2.40e-04,
857,-8.00e-05,
858,-1.60e-04,
859,2.40e-04,
860,2.40e-04,
861,-8.00e-05,
862,-1.60e-04,
863,2.80e-04,
864,2.40e-04,
865,-8.00e-05,
866,0.00e+00,
867,3.20e-04,
868,3.20e-04,
869,-1.60e-04,
870,-8.00e-05,
871,2.40e-04,
872,2.40e-04,
873,-8.00e-05,
874,2.40e-04,
875,-1.20e-04,
876,-8.00e-05,
877,2.40e-04,
878,-8.00e-05,
879,2.80e-04,
880,2.40e-04,
881,-8.00e-05,
882,2.40e-04,
883,-8.00e-05,
884,-1.60e-04,
885,2.40e-04,
886,-8.00e-05,
887,2.40e-04,
888,2.00e-04,
889,-1.60e-04,
890,-8.00e-05,
891,2.40e-04,
892,-8.00e-05,
893,2.40e-04,
894,-8.00e-05,
895,2.40e-04,
896,-8.00e-05,
897,3.20e-04,
898,-8.00e-05,
899,2.40e-04,
900,-8.00e-05,
901,2.80e-04,
902,-1.60e-04,
903,2.40e-04,
904,-1.60e-04,
905,2.40e-04,
906,-1.60e-04,
907,2.40e-04,
908,2.40e-04,
909,-1.20e-04,
910,-8.00e-05,
911,2.00e-04,
912,2.80e-04,
913,-8.00e-05,
914,2.40e-04,
915,-1.60e-04,
916,2.40e-04,
917,-8.00e-05,
918,-8.00e-05,
919,2.40e-04,
920,-8.00e-05,
921,1.60e-04,
922,2.40e-04,
923,-1.60e-04,
924,-8.00e-05,
925,2.40e-04,
926,2.40e-04,
927,-1.60e-04,
928,2.40e-04,
929,-8.00e-05,
930,2.80e-04,
931,-8.00e-05,
932,2.40e-04,
933,-1.60e-04,
934,-8.00e-05,
935,3.20e-04,
936,-1.60e-04,
937,3.20e-04,
938,-1.20e-04,
939,2.80e-04,
940,2.40e-04,
941,-1.60e-04,
942,3.20e-04,
943,-8.00e-05,
944,2.40e-04,
945,-8.00e-05,
946,-8.00e-05,
947,2.40e-04,
948,1.60e-04,
949,-1.60e-04,
950,-1.60e-04,
951,2.40e-04,
952,2.40e-04,
953,-1.60e-04,
954,-1.60e-04,
955,2.40e-04,
956,1.60e-04,
957,-1.60e-04,
958,-8.00e-05,
959,2.40e-04,
960,2.80e-04,
961,-1.60e-04,
962,-1.60e-04,
963,3.20e-04,
964,2.80e-04,
965,-8.00e-05,
966,-8.00e-05,
967,2.40e-04,
968,2.40e-04,
969,-8.00e-05,
970,2.00e-04,
971,-1.60e-04,
972,-8.00e-05,
973,2.40e-04,
974,2.40e-04,
975,-1.60e-04,
976,-1.60e-04,
977,3.20e-04,
978,2.40e-04,
979,-1.60e-04,
980,2.40e-04,
981,-1.60e-04,
982,2.80e-04,
983,-1.60e-04,
984,2.40e-04,
985,-8.00e-05,
986,1.60e-04,
987,-1.60e-04,
988,2.40e-04,
989,-1.60e-04,
990,-8.00e-05,
991,1.60e-04,
992,3.20e-04,
993,-1.60e-04,
994,-8.00e-05,
995,2.40e-04,
996,-1.60e-04,
997,2.00e-04,
998,-8.00e-05,
999,2.40e-04,
1000,-8.00e-05,
1001,3.20e-04,
1002,2.40e-04,
1003,-1.60e-04,
1004,1.60e-04,
1005,-1.60e-04,
1006,-8.00e-05,
1007,2.40e-04,
1008,-1.60e-04,
1009,2.40e-04,
1010,2.40e-04,
1011,-1.60e-04,
1012,2.40e-04,
1013,-1.60e-04,
1014,3.20e-04,
1015,-1.60e-04,
1016,-8.00e-05,
1017,3.20e-04,
1018,2.00e-04,
1019,-1.60e-04,
1020,2.40e-04,
1021,-1.20e-04,
1022,4.00e-04,
1023,-1.60e-04,
1024,-1.60e-04,
1025,2.40e-04,
1026,1.60e-04,
1027,-1.60e-04,
1028,2.00e-04,
1029,-1.60e-04,
1030,2.40e-04,
1031,-8.00e-05,
1032,-8.00e-05,
1033,2.40e-04,
1034,-8.00e-05,
1035,2.40e-04,
1036,2.40e-04,
1037,-8.00e-05,
1038,2.40e-04,
1039,-8.00e-05,
1040,1.60e-04,
1041,-1.60e-04,
1042,-8.00e-05,
1043,2.40e-04,
1044,2.40e-04,
1045,-8.00e-05,
1046,-1.60e-04,
1047,2.40e-04,
1048,2.40e-04,
1049,-1.60e-04,
1050,2.40e-04,
1051,-2.40e-04,
1052,-1.60e-04,
1053,2.40e-04,
1054,-8.00e-05,
1055,3.20e-04,
1056,3.20e-04,
1057,-8.00e-05,
1058,2.40e-04,
1059,-8.00e-05,
1060,-1.60e-04,
1061,2.00e-04,
1062,3.20e-04,
1063,-1.20e-04,
1064,1.60e-04,
1065,-1.60e-04,
1066,-8.00e-05,
1067,3.20e-04,
1068,-2.40e-04,
1069,2.40e-04,
1070,2.40e-04,
1071,-1.60e-04,
1072,-1.60e-04,
1073,2.40e-04,
1074,1.60e-04,
1075,-8.00e-05,
1076,-8.00e-05,
1077,2.80e-04,
1078,-1.60e-04,
1079,2.80e-04,
1080,1.60e-04,
1081,-2.40e-04,
1082,2.00e-04,
1083,-1.60e-04,
1084,-1.60e-04,
1085,1.60e-04,
1086,-8.00e-05,
1087,2.40e-04,
1088,1.60e-04,
1089,-1.60e-04,
1090,-1.60e-04,
1091,2.40e-04,
1092,-1.60e-04,
1093,3.20e-04,
1094,-1.60e-04,
1095,2.40e-04,
1096,2.80e-04,
1097,-8.00e-05,
1098,-1.60e-04,
1099,2.40e-04,
1100,2.40e-04,
1101,-1.60e-04,
1102,1.60e-04,
1103,-1.60e-04,
1104,-1.60e-04,
1105,2.00e-04,
1106,2.40e-04,
1107,-1.60e-04,
1108,-8.00e-05,
1109,2.40e-04,
1110,-1.60e-04,
1111,2.40e-04,
1112,2.80e-04,
1113,-1.60e-04,
1114,2.80e-04,
1115,-8.00e-05,
1116,2.40e-04,
1117,-2.40e-04,
1118,-8.00e-05,
1119,2.40e-04,
1120,2.40e-04,
1121,-1.20e-04,
1122,3.20e-04,
1123,-1.60e-04,
1124,-1.60e-04,
1125,2.40e-04,
1126,-1.60e-04,
1127,2.40e-04,
1128,-2.40e-04,
1129,2.40e-04,
1130,-8.00e-05,
1131,3.20e-04,
1132,3.20e-04,
1133,-1.60e-04,
1134,-1.60e-04,
1135,2.40e-04,
1136,2.00e-04,
1137,-4.00e-05,
1138,2.40e-04,
1139,-8.00e-05,
1140,-8.00e-05,
1141,2.00e-04,
1142,2.40e-04,
1143,-8.00e-05,
1144,-8.00e-05,
1145,2.40e-04,
1146,-8.00e-05,
1147,2.80e-04,
1148,-1.60e-04,
1149,1.60e-04,
1150,2.40e-04,
1151,-8.00e-05,
1152,-1.60e-04,
1153,2.40e-04,
1154,-8.00e-05,
1155,1.60e-04,
1156,-8.00e-05,
1157,2.40e-04,
1158,2.00e-04,
1159,-1.60e-04,
1160,-8.00e-05,
1161,2.40e-04,
1162,2.40e-04,
1163,-8.00e-05,
1164,2.40e-04,
1165,-1.60e-04,
1166,-2.40e-04,
1167,2.00e-04,
1168,-1.60e-04,
1169,2.00e-04,
1170,-8.00e-05,
1171,2.40e-04,
1172,-8.00e-05,
1173,2.00e-04,
1174,-1.60e-04,
1175,1.60e-04,
1176,-1.60e-04,
1177,1.60e-04,
1178,3.20e-04,
1179,-1.60e-04,
1180,3.20e-04,
1181,-1.20e-04,
1182,2.40e-04,
1183,-1.60e-04,
1184,-1.60e-04,
1185,2.40e-04,
1186,2.00e-04,
1187,-8.00e-05,
1188,2.40e-04,
1189,-8.00e-05,
1190,-2.40e-04,
1191,2.00e-04,
1192,-1.60e-04,
1193,2.40e-04,
1194,-8.00e-05,
1195,2.40e-04,
1196,-8.00e-05,
1197,2.40e-04,
1198,-1.60e-04,
1199,1.60e-04,
