fastdiffamp/data-noise-set/bal-demod/NewFile10.csv

X,CH1,Start,Increment,
Sequence,Volt,-5.490000e+00,1.000000e-02
0,1.60e-04,
1,-2.40e-04,
2,1.60e-04,
3,-2.40e-04,
4,-2.40e-04,
5,2.40e-04,
6,-2.40e-04,
7,1.60e-04,
8,-2.40e-04,
9,1.60e-04,
10,-2.40e-04,
11,1.60e-04,
12,3.20e-04,
13,-2.40e-04,
14,-2.40e-04,
15,2.40e-04,
16,1.60e-04,
17,-2.40e-04,
18,-2.40e-04,
19,2.40e-04,
20,-2.40e-04,
21,1.60e-04,
22,-2.40e-04,
23,1.60e-04,
24,1.60e-04,
25,-2.40e-04,
26,-1.60e-04,
27,1.60e-04,
28,1.60e-04,
29,-2.40e-04,
30,-2.40e-04,
31,2.40e-04,
32,2.40e-04,
33,-1.60e-04,
34,1.60e-04,
35,-2.40e-04,
36,1.60e-04,
37,-2.40e-04,
38,-1.60e-04,
39,3.20e-04,
40,-2.40e-04,
41,3.20e-04,
42,-1.60e-04,
43,3.20e-04,
44,1.60e-04,
45,-2.40e-04,
46,-1.60e-04,
47,3.20e-04,
48,2.40e-04,
49,-2.40e-04,
50,1.60e-04,
51,-2.40e-04,
52,1.60e-04,
53,-2.40e-04,
54,-1.60e-04,
55,3.20e-04,
56,1.60e-04,
57,-2.40e-04,
58,2.40e-04,
59,-2.40e-04,
60,2.40e-04,
61,-2.40e-04,
62,-2.40e-04,
63,1.60e-04,
64,-2.40e-04,
65,3.20e-04,
66,2.40e-04,
67,-2.40e-04,
68,1.60e-04,
69,-2.40e-04,
70,-2.40e-04,
71,3.20e-04,
72,-1.60e-04,
73,3.20e-04,
74,-2.40e-04,
75,1.60e-04,
76,3.20e-04,
77,-2.40e-04,
78,-2.40e-04,
79,3.20e-04,
80,-2.40e-04,
81,1.60e-04,
82,-1.60e-04,
83,1.60e-04,
84,2.40e-04,
85,-2.40e-04,
86,-2.40e-04,
87,1.60e-04,
88,1.60e-04,
89,-2.40e-04,
90,1.60e-04,
91,-2.40e-04,
92,3.20e-04,
93,-2.40e-04,
94,-2.40e-04,
95,1.60e-04,
96,3.20e-04,
97,-1.60e-04,
98,-2.40e-04,
99,1.60e-04,
100,-1.60e-04,
101,3.20e-04,
102,-2.40e-04,
103,1.60e-04,
104,-2.40e-04,
105,8.00e-05,
106,1.60e-04,
107,-2.40e-04,
108,-2.40e-04,
109,1.60e-04,
110,-2.40e-04,
111,3.20e-04,
112,1.60e-04,
113,-2.40e-04,
114,-2.40e-04,
115,2.40e-04,
116,1.60e-04,
117,-2.40e-04,
118,-2.40e-04,
119,3.20e-04,
120,-1.60e-04,
121,1.60e-04,
122,1.60e-04,
123,-1.60e-04,
124,-2.40e-04,
125,1.60e-04,
126,-2.40e-04,
127,1.60e-04,
128,8.00e-05,
129,-2.40e-04,
130,1.60e-04,
131,-2.40e-04,
132,-1.60e-04,
133,1.60e-04,
134,1.60e-04,
135,-2.40e-04,
136,-2.40e-04,
137,1.60e-04,
138,2.40e-04,
139,-2.40e-04,
140,1.60e-04,
141,-2.40e-04,
142,-2.40e-04,
143,3.20e-04,
144,-2.40e-04,
145,1.60e-04,
146,-2.40e-04,
147,1.60e-04,
148,1.60e-04,
149,-2.40e-04,
150,1.60e-04,
151,-2.40e-04,
152,1.60e-04,
153,-2.40e-04,
154,-2.40e-04,
155,1.60e-04,
156,1.60e-04,
157,-2.40e-04,
158,-2.40e-04,
159,3.20e-04,
160,-2.40e-04,
161,1.60e-04,
162,-1.60e-04,
163,2.40e-04,
164,-2.40e-04,
165,1.60e-04,
166,-2.40e-04,
167,1.60e-04,
168,-2.40e-04,
169,1.60e-04,
170,-1.60e-04,
171,3.20e-04,
172,1.60e-04,
173,-2.40e-04,
174,1.60e-04,
175,-1.60e-04,
176,3.20e-04,
177,-2.40e-04,
178,-1.60e-04,
179,2.40e-04,
180,4.00e-04,
181,-2.40e-04,
182,-1.60e-04,
183,1.60e-04,
184,-1.60e-04,
185,3.20e-04,
186,2.40e-04,
187,-2.40e-04,
188,3.20e-04,
189,-2.40e-04,
190,-1.60e-04,
191,1.60e-04,
192,-2.40e-04,
193,2.40e-04,
194,-3.20e-04,
195,1.60e-04,
196,-2.40e-04,
197,1.60e-04,
198,3.20e-04,
199,-2.40e-04,
200,1.60e-04,
201,-2.40e-04,
202,3.20e-04,
203,-2.40e-04,
204,3.20e-04,
205,-2.40e-04,
206,3.20e-04,
207,-2.40e-04,
208,-2.40e-04,
209,1.60e-04,
210,-2.40e-04,
211,1.60e-04,
212,1.60e-04,
213,-1.60e-04,
214,3.20e-04,
215,-2.40e-04,
216,1.60e-04,
217,-2.40e-04,
218,-1.60e-04,
219,1.60e-04,
220,1.60e-04,
221,-2.40e-04,
222,-1.60e-04,
223,1.60e-04,
224,-2.40e-04,
225,1.60e-04,
226,-1.60e-04,
227,3.20e-04,
228,-2.40e-04,
229,1.60e-04,
230,-1.60e-04,
231,1.60e-04,
232,1.60e-04,
233,-2.40e-04,
234,1.60e-04,
235,-2.40e-04,
236,1.60e-04,
237,-2.40e-04,
238,-2.40e-04,
239,1.60e-04,
240,-2.40e-04,
241,1.60e-04,
242,1.60e-04,
243,-2.40e-04,
244,-2.40e-04,
245,1.60e-04,
246,2.40e-04,
247,-2.40e-04,
248,1.60e-04,
249,-2.40e-04,
250,1.60e-04,
251,-2.40e-04,
252,-2.40e-04,
253,3.20e-04,
254,1.60e-04,
255,-2.40e-04,
256,-1.60e-04,
257,3.20e-04,
258,3.20e-04,
259,-2.40e-04,
260,-2.40e-04,
261,3.20e-04,
262,-1.60e-04,
263,1.60e-04,
264,3.20e-04,
265,-2.40e-04,
266,1.60e-04,
267,-2.40e-04,
268,1.60e-04,
269,-4.00e-04,
270,8.00e-05,
271,-2.40e-04,
272,3.20e-04,
273,-2.40e-04,
274,-1.60e-04,
275,3.20e-04,
276,-2.40e-04,
277,1.60e-04,
278,1.60e-04,
279,-2.40e-04,
280,3.20e-04,
281,-2.40e-04,
282,-1.60e-04,
283,3.20e-04,
284,-2.40e-04,
285,4.00e-04,
286,3.20e-04,
287,-2.40e-04,
288,2.40e-04,
289,-2.40e-04,
290,-2.40e-04,
291,3.20e-04,
292,-2.40e-04,
293,2.40e-04,
294,-2.40e-04,
295,1.60e-04,
296,3.20e-04,
297,-1.60e-04,
298,1.60e-04,
299,-2.40e-04,
300,1.60e-04,
301,-2.40e-04,
302,1.60e-04,
303,-2.40e-04,
304,-2.40e-04,
305,1.60e-04,
306,1.60e-04,
307,-2.40e-04,
308,1.60e-04,
309,-1.60e-04,
310,1.60e-04,
311,-2.40e-04,
312,1.60e-04,
313,-2.40e-04,
314,-1.60e-04,
315,2.40e-04,
316,-2.40e-04,
317,2.40e-04,
318,-3.20e-04,
319,1.60e-04,
320,3.20e-04,
321,-2.40e-04,
322,2.40e-04,
323,-2.40e-04,
324,1.60e-04,
325,-1.60e-04,
326,1.60e-04,
327,-2.40e-04,
328,2.40e-04,
329,-2.40e-04,
330,-1.60e-04,
331,1.60e-04,
332,3.20e-04,
333,-2.40e-04,
334,-2.40e-04,
335,1.60e-04,
336,3.20e-04,
337,-2.40e-04,
338,1.60e-04,
339,-2.40e-04,
340,1.60e-04,
341,-2.40e-04,
342,1.60e-04,
343,-2.40e-04,
344,-2.40e-04,
345,1.60e-04,
346,-1.60e-04,
347,2.40e-04,
348,-1.60e-04,
349,3.20e-04,
350,-2.40e-04,
351,1.60e-04,
352,1.60e-04,
353,-2.40e-04,
354,3.20e-04,
355,-1.60e-04,
356,2.40e-04,
357,-1.60e-04,
358,-1.60e-04,
359,2.40e-04,
360,-1.60e-04,
361,3.20e-04,
362,4.00e-04,
363,-2.40e-04,
364,2.40e-04,
365,-2.40e-04,
366,1.60e-04,
367,-2.40e-04,
368,3.20e-04,
369,-1.60e-04,
370,3.20e-04,
371,-2.40e-04,
372,3.20e-04,
373,-2.40e-04,
374,1.60e-04,
375,-2.40e-04,
376,2.40e-04,
377,-2.40e-04,
378,-1.60e-04,
379,3.20e-04,
380,-1.60e-04,
381,1.60e-04,
382,1.60e-04,
383,-2.40e-04,
384,1.60e-04,
385,-1.60e-04,
386,-1.60e-04,
387,1.60e-04,
388,1.60e-04,
389,-2.40e-04,
390,-1.60e-04,
391,2.40e-04,
392,-1.60e-04,
393,2.40e-04,
394,-1.60e-04,
395,1.60e-04,
396,3.20e-04,
397,-2.40e-04,
398,-1.60e-04,
399,3.20e-04,
400,1.60e-04,
401,-1.60e-04,
402,3.20e-04,
403,-2.40e-04,
404,-2.40e-04,
405,1.60e-04,
406,-1.60e-04,
407,2.40e-04,
408,-1.60e-04,
409,1.60e-04,
410,1.60e-04,
411,-2.40e-04,
412,1.60e-04,
413,-2.40e-04,
414,1.60e-04,
415,-2.40e-04,
416,-1.60e-04,
417,4.00e-04,
418,1.60e-04,
419,-2.40e-04,
420,1.60e-04,
421,-2.40e-04,
422,-1.60e-04,
423,2.40e-04,
424,3.20e-04,
425,-2.40e-04,
426,-1.60e-04,
427,1.60e-04,
428,-2.40e-04,
429,1.60e-04,
430,-2.40e-04,
431,1.60e-04,
432,-1.60e-04,
433,1.60e-04,
434,-1.60e-04,
435,2.40e-04,
436,-1.60e-04,
437,1.60e-04,
438,-2.40e-04,
439,1.60e-04,
440,8.00e-05,
441,-2.40e-04,
442,8.00e-05,
443,-2.40e-04,
444,1.60e-04,
445,-2.40e-04,
446,2.40e-04,
447,-1.60e-04,
448,-2.40e-04,
449,1.60e-04,
450,1.60e-04,
451,-2.40e-04,
452,-4.00e-04,
453,1.60e-04,
454,1.60e-04,
455,-2.40e-04,
456,-1.60e-04,
457,1.60e-04,
458,-2.40e-04,
459,3.20e-04,
460,1.60e-04,
461,-2.40e-04,
462,8.00e-05,
463,-2.40e-04,
464,1.60e-04,
465,-2.40e-04,
466,1.60e-04,
467,-2.40e-04,
468,8.00e-05,
469,-2.40e-04,
470,-2.40e-04,
471,2.40e-04,
472,1.60e-04,
473,-2.40e-04,
474,1.60e-04,
475,-2.40e-04,
476,1.60e-04,
477,-1.60e-04,
478,1.60e-04,
479,-2.40e-04,
480,-2.40e-04,
481,2.40e-04,
482,2.40e-04,
483,-2.40e-04,
484,1.60e-04,
485,-2.40e-04,
486,2.40e-04,
487,-2.40e-04,
488,-2.40e-04,
489,3.20e-04,
490,1.60e-04,
491,-2.40e-04,
492,1.60e-04,
493,-2.40e-04,
494,3.20e-04,
495,-2.40e-04,
496,-2.40e-04,
497,2.40e-04,
498,-2.40e-04,
499,8.00e-05,
500,1.60e-04,
501,-1.60e-04,
502,1.60e-04,
503,-2.40e-04,
504,-1.60e-04,
505,3.20e-04,
506,-2.40e-04,
507,1.60e-04,
508,-2.40e-04,
509,1.60e-04,
510,-1.60e-04,
511,1.60e-04,
512,1.60e-04,
513,-2.40e-04,
514,-2.40e-04,
515,3.20e-04,
516,-1.60e-04,
517,2.40e-04,
518,-2.40e-04,
519,3.20e-04,
520,1.60e-04,
521,-2.40e-04,
522,1.60e-04,
523,-2.40e-04,
524,1.60e-04,
525,-1.60e-04,
526,-1.60e-04,
527,2.40e-04,
528,1.60e-04,
529,-2.40e-04,
530,-2.40e-04,
531,1.60e-04,
532,-1.60e-04,
533,3.20e-04,
534,2.40e-04,
535,-2.40e-04,
536,-2.40e-04,
537,1.60e-04,
538,2.40e-04,
539,-2.40e-04,
540,2.40e-04,
541,-2.40e-04,
542,3.20e-04,
543,-1.60e-04,
544,3.20e-04,
545,-2.40e-04,
546,1.60e-04,
547,-2.40e-04,
548,-2.40e-04,
549,1.60e-04,
550,2.40e-04,
551,-2.40e-04,
552,-2.40e-04,
553,1.60e-04,
554,3.20e-04,
555,-1.60e-04,
556,1.60e-04,
557,-2.40e-04,
558,-2.40e-04,
559,1.60e-04,
560,-2.40e-04,
561,2.40e-04,
562,-2.40e-04,
563,1.60e-04,
564,-2.40e-04,
565,1.60e-04,
566,-2.40e-04,
567,1.60e-04,
568,-1.60e-04,
569,3.20e-04,
570,1.60e-04,
571,-2.40e-04,
572,-1.60e-04,
573,1.60e-04,
574,-2.40e-04,
575,1.60e-04,
576,-2.40e-04,
577,1.60e-04,
578,-2.40e-04,
579,3.20e-04,
580,2.40e-04,
581,-1.60e-04,
582,-1.60e-04,
583,3.20e-04,
584,3.20e-04,
585,-2.40e-04,
586,-1.60e-04,
587,1.60e-04,
588,3.20e-04,
589,-2.40e-04,
590,2.40e-04,
591,-2.40e-04,
592,-2.40e-04,
593,1.60e-04,
594,1.60e-04,
595,-2.40e-04,
596,-2.40e-04,
597,1.60e-04,
598,-2.40e-04,
599,1.60e-04,
600,1.60e-04,
601,-2.40e-04,
602,-2.40e-04,
603,1.60e-04,
604,-2.40e-04,
605,1.60e-04,
606,-2.40e-04,
607,1.60e-04,
608,1.60e-04,
609,-1.60e-04,
610,1.60e-04,
611,-2.40e-04,
612,1.60e-04,
613,-2.40e-04,
614,1.60e-04,
615,-2.40e-04,
616,1.60e-04,
617,-2.40e-04,
618,-1.60e-04,
619,1.60e-04,
620,1.60e-04,
621,-2.40e-04,
622,1.60e-04,
623,-2.40e-04,
624,-2.40e-04,
625,1.60e-04,
626,1.60e-04,
627,-1.60e-04,
628,-2.40e-04,
629,1.60e-04,
630,3.20e-04,
631,-1.60e-04,
632,1.60e-04,
633,-2.40e-04,
634,1.60e-04,
635,-2.40e-04,
636,-2.40e-04,
637,1.60e-04,
638,1.60e-04,
639,-3.20e-04,
640,1.60e-04,
641,-2.40e-04,
642,1.60e-04,
643,-2.40e-04,
644,1.60e-04,
645,-2.40e-04,
646,1.60e-04,
647,-4.00e-04,
648,1.60e-04,
649,-2.40e-04,
650,1.60e-04,
651,-2.40e-04,
652,-2.40e-04,
653,1.60e-04,
654,-2.40e-04,
655,1.60e-04,
656,1.60e-04,
657,-2.40e-04,
658,1.60e-04,
659,-1.60e-04,
660,-2.40e-04,
661,1.60e-04,
662,1.60e-04,
663,-1.60e-04,
664,1.60e-04,
665,-2.40e-04,
666,1.60e-04,
667,-1.60e-04,
668,-2.40e-04,
669,1.60e-04,
670,-1.60e-04,
671,1.60e-04,
672,1.60e-04,
673,-2.40e-04,
674,-1.60e-04,
675,1.60e-04,
676,-1.60e-04,
677,1.60e-04,
678,1.60e-04,
679,-2.40e-04,
680,-1.60e-04,
681,1.60e-04,
682,-2.40e-04,
683,1.60e-04,
684,-1.60e-04,
685,1.60e-04,
686,1.60e-04,
687,-2.40e-04,
688,1.60e-04,
689,-2.40e-04,
690,2.40e-04,
691,-2.40e-04,
692,-2.40e-04,
693,1.60e-04,
694,1.60e-04,
695,-2.40e-04,
696,-1.60e-04,
697,2.40e-04,
698,1.60e-04,
699,-1.60e-04,
700,1.60e-04,
701,-1.60e-04,
702,1.60e-04,
703,-2.40e-04,
704,1.60e-04,
705,-2.40e-04,
706,-2.40e-04,
707,1.60e-04,
708,1.60e-04,
709,-2.40e-04,
710,1.60e-04,
711,-1.60e-04,
712,1.60e-04,
713,-1.60e-04,
714,1.60e-04,
715,-1.60e-04,
716,-2.40e-04,
717,1.60e-04,
718,1.60e-04,
719,-2.40e-04,
720,-2.40e-04,
721,2.40e-04,
722,1.60e-04,
723,-2.40e-04,
724,3.20e-04,
725,-1.60e-04,
726,-1.60e-04,
727,1.60e-04,
728,1.60e-04,
729,-1.60e-04,
730,1.60e-04,
731,-1.60e-04,
732,1.60e-04,
733,-2.40e-04,
734,3.20e-04,
735,-2.40e-04,
736,-1.60e-04,
737,1.60e-04,
738,1.60e-04,
739,-1.60e-04,
740,2.40e-04,
741,-1.60e-04,
742,-1.60e-04,
743,1.60e-04,
744,1.60e-04,
745,-2.40e-04,
746,-1.60e-04,
747,3.20e-04,
748,1.60e-04,
749,-2.40e-04,
750,1.60e-04,
751,-1.60e-04,
752,-1.60e-04,
753,2.40e-04,
754,-1.60e-04,
755,2.40e-04,
756,-1.60e-04,
757,1.60e-04,
758,3.20e-04,
759,-2.40e-04,
760,3.20e-04,
761,-2.40e-04,
762,-1.60e-04,
763,1.60e-04,
764,-2.40e-04,
765,1.60e-04,
766,1.60e-04,
767,-1.60e-04,
768,1.60e-04,
769,-1.60e-04,
770,1.60e-04,
771,-2.40e-04,
772,1.60e-04,
773,-2.40e-04,
774,-1.60e-04,
775,1.60e-04,
776,1.60e-04,
777,-1.60e-04,
778,1.60e-04,
779,-1.60e-04,
780,1.60e-04,
781,-2.40e-04,
782,1.60e-04,
783,-2.40e-04,
784,1.60e-04,
785,-1.60e-04,
786,1.60e-04,
787,-2.40e-04,
788,-1.60e-04,
789,1.60e-04,
790,1.60e-04,
791,-2.40e-04,
792,-1.60e-04,
793,1.60e-04,
794,-2.40e-04,
795,2.40e-04,
796,-2.40e-04,
797,1.60e-04,
798,-1.60e-04,
799,1.60e-04,
800,1.60e-04,
801,-1.60e-04,
802,-1.60e-04,
803,3.20e-04,
804,3.20e-04,
805,-2.40e-04,
806,-1.60e-04,
807,1.60e-04,
808,-2.40e-04,
809,3.20e-04,
810,1.60e-04,
811,-1.60e-04,
812,-1.60e-04,
813,1.60e-04,
814,-1.60e-04,
815,1.60e-04,
816,1.60e-04,
817,-2.40e-04,
818,-2.40e-04,
819,1.60e-04,
820,1.60e-04,
821,-1.60e-04,
822,1.60e-04,
823,-2.40e-04,
824,-1.60e-04,
825,1.60e-04,
826,1.60e-04,
827,-2.40e-04,
828,-1.60e-04,
829,1.60e-04,
830,1.60e-04,
831,-2.40e-04,
832,1.60e-04,
833,-2.40e-04,
834,-4.00e-04,
835,1.60e-04,
836,8.00e-05,
837,-2.40e-04,
838,-1.60e-04,
839,2.40e-04,
840,-2.40e-04,
841,1.60e-04,
842,-1.60e-04,
843,1.60e-04,
844,1.60e-04,
845,-1.60e-04,
846,-2.40e-04,
847,1.60e-04,
848,1.60e-04,
849,-2.40e-04,
850,1.60e-04,
851,-2.40e-04,
852,-2.40e-04,
853,1.60e-04,
854,1.60e-04,
855,-2.40e-04,
856,-2.40e-04,
857,2.40e-04,
858,1.60e-04,
859,-4.00e-04,
860,1.60e-04,
861,-2.40e-04,
862,-2.40e-04,
863,1.60e-04,
864,-2.40e-04,
865,1.60e-04,
866,1.60e-04,
867,-2.40e-04,
868,-1.60e-04,
869,1.60e-04,
870,-2.40e-04,
871,1.60e-04,
872,1.60e-04,
873,-2.40e-04,
874,1.60e-04,
875,-2.40e-04,
876,-1.60e-04,
877,1.60e-04,
878,1.60e-04,
879,-2.40e-04,
880,1.60e-04,
881,-2.40e-04,
882,-1.60e-04,
883,1.60e-04,
884,1.60e-04,
885,-2.40e-04,
886,1.60e-04,
887,-2.40e-04,
888,1.60e-04,
889,-2.40e-04,
890,1.60e-04,
891,-1.60e-04,
892,1.60e-04,
893,-2.40e-04,
894,-1.60e-04,
895,1.60e-04,
896,-2.40e-04,
897,1.60e-04,
898,-1.60e-04,
899,1.60e-04,
900,1.60e-04,
901,-2.40e-04,
902,1.60e-04,
903,-2.40e-04,
904,-1.60e-04,
905,1.60e-04,
906,1.60e-04,
907,-2.40e-04,
908,1.60e-04,
909,-2.40e-04,
910,1.60e-04,
911,-2.40e-04,
912,8.00e-05,
913,-2.40e-04,
914,-2.40e-04,
915,1.60e-04,
916,1.60e-04,
917,-1.60e-04,
918,1.60e-04,
919,-2.40e-04,
920,-2.40e-04,
921,1.60e-04,
922,-2.40e-04,
923,1.60e-04,
924,1.60e-04,
925,-2.40e-04,
926,1.60e-04,
927,-1.60e-04,
928,-2.40e-04,
929,1.60e-04,
930,-1.60e-04,
931,1.60e-04,
932,1.60e-04,
933,-1.60e-04,
934,1.60e-04,
935,-2.40e-04,
936,1.60e-04,
937,-2.40e-04,
938,-1.60e-04,
939,1.60e-04,
940,1.60e-04,
941,-2.40e-04,
942,1.60e-04,
943,-2.40e-04,
944,-2.40e-04,
945,1.60e-04,
946,-2.40e-04,
947,1.60e-04,
948,1.60e-04,
949,-2.40e-04,
950,3.20e-04,
951,-2.40e-04,
952,-2.40e-04,
953,1.60e-04,
954,-2.40e-04,
955,1.60e-04,
956,1.60e-04,
957,-1.60e-04,
958,-2.40e-04,
959,1.60e-04,
960,-2.40e-04,
961,1.60e-04,
962,1.60e-04,
963,-2.40e-04,
964,-1.60e-04,
965,1.60e-04,
966,1.60e-04,
967,-2.40e-04,
968,-2.40e-04,
969,1.60e-04,
970,1.60e-04,
971,-2.40e-04,
972,1.60e-04,
973,-2.40e-04,
974,-2.40e-04,
975,1.60e-04,
976,-1.60e-04,
977,1.60e-04,
978,1.60e-04,
979,-2.40e-04,
980,1.60e-04,
981,-2.40e-04,
982,-2.40e-04,
983,1.60e-04,
984,1.60e-04,
985,-2.40e-04,
986,-1.60e-04,
987,1.60e-04,
988,1.60e-04,
989,-2.40e-04,
990,-1.60e-04,
991,1.60e-04,
992,-2.40e-04,
993,1.60e-04,
994,1.60e-04,
995,-2.40e-04,
996,1.60e-04,
997,-2.40e-04,
998,1.60e-04,
999,-1.60e-04,
1000,2.40e-04,
1001,-2.40e-04,
1002,-1.60e-04,
1003,1.60e-04,
1004,1.60e-04,
1005,-2.40e-04,
1006,2.40e-04,
1007,-2.40e-04,
1008,2.40e-04,
1009,-2.40e-04,
1010,1.60e-04,
1011,-2.40e-04,
1012,1.60e-04,
1013,-1.60e-04,
1014,1.60e-04,
1015,-2.40e-04,
1016,1.60e-04,
1017,-2.40e-04,
1018,1.60e-04,
1019,-2.40e-04,
1020,1.60e-04,
1021,-4.00e-04,
1022,-2.40e-04,
1023,1.60e-04,
1024,1.60e-04,
1025,-1.60e-04,
1026,1.60e-04,
1027,-2.40e-04,
1028,1.60e-04,
1029,-2.40e-04,
1030,-2.40e-04,
1031,1.60e-04,
1032,-2.40e-04,
1033,1.60e-04,
1034,1.60e-04,
1035,-2.40e-04,
1036,-2.40e-04,
1037,1.60e-04,
1038,1.60e-04,
1039,-2.40e-04,
1040,3.20e-04,
1041,-1.60e-04,
1042,1.60e-04,
1043,-2.40e-04,
1044,1.60e-04,
1045,-2.40e-04,
1046,2.40e-04,
1047,-1.60e-04,
1048,-1.60e-04,
1049,1.60e-04,
1050,1.60e-04,
1051,-2.40e-04,
1052,-1.60e-04,
1053,1.60e-04,
1054,1.60e-04,
1055,-1.60e-04,
1056,-1.60e-04,
1057,2.40e-04,
1058,-1.60e-04,
1059,1.60e-04,
1060,3.20e-04,
1061,-1.60e-04,
1062,-1.60e-04,
1063,1.60e-04,
1064,1.60e-04,
1065,-2.40e-04,
1066,-1.60e-04,
1067,1.60e-04,
1068,1.60e-04,
1069,-1.60e-04,
1070,-1.60e-04,
1071,1.60e-04,
1072,-1.60e-04,
1073,3.20e-04,
1074,-1.60e-04,
1075,3.20e-04,
1076,1.60e-04,
1077,-2.40e-04,
1078,1.60e-04,
1079,-2.40e-04,
1080,1.60e-04,
1081,-1.60e-04,
1082,-1.60e-04,
1083,1.60e-04,
1084,1.60e-04,
1085,-2.40e-04,
1086,-2.40e-04,
1087,1.60e-04,
1088,1.60e-04,
1089,-2.40e-04,
1090,-1.60e-04,
1091,1.60e-04,
1092,-2.40e-04,
1093,3.20e-04,
1094,1.60e-04,
1095,-2.40e-04,
1096,1.60e-04,
1097,-1.60e-04,
1098,2.40e-04,
1099,-2.40e-04,
1100,2.40e-04,
1101,-2.40e-04,
1102,1.60e-04,
1103,-2.40e-04,
1104,1.60e-04,
1105,-1.60e-04,
1106,-1.60e-04,
1107,2.40e-04,
1108,2.40e-04,
1109,-1.60e-04,
1110,1.60e-04,
1111,-2.40e-04,
1112,1.60e-04,
1113,-1.60e-04,
1114,2.40e-04,
1115,-1.60e-04,
1116,1.60e-04,
1117,-2.40e-04,
1118,-2.40e-04,
1119,1.60e-04,
1120,1.60e-04,
1121,-2.40e-04,
1122,1.60e-04,
1123,-1.60e-04,
1124,2.40e-04,
1125,-2.40e-04,
1126,-1.60e-04,
1127,1.60e-04,
1128,-1.60e-04,
1129,1.60e-04,
1130,1.60e-04,
1131,-1.60e-04,
1132,1.60e-04,
1133,-1.60e-04,
1134,1.60e-04,
1135,-2.40e-04,
1136,2.40e-04,
1137,-2.40e-04,
1138,1.60e-04,
1139,-2.40e-04,
1140,-1.60e-04,
1141,1.60e-04,
1142,3.20e-04,
1143,-1.60e-04,
1144,-1.60e-04,
1145,1.60e-04,
1146,-1.60e-04,
1147,1.60e-04,
1148,1.60e-04,
1149,-2.40e-04,
1150,-1.60e-04,
1151,1.60e-04,
1152,-2.40e-04,
1153,1.60e-04,
1154,1.60e-04,
1155,-2.40e-04,
1156,-1.60e-04,
1157,1.60e-04,
1158,-1.60e-04,
1159,1.60e-04,
1160,1.60e-04,
1161,-2.40e-04,
1162,1.60e-04,
1163,-2.40e-04,
1164,1.60e-04,
1165,-1.60e-04,
1166,-1.60e-04,
1167,1.60e-04,
1168,-2.40e-04,
1169,1.60e-04,
1170,1.60e-04,
1171,-2.40e-04,
1172,-2.40e-04,
1173,1.60e-04,
1174,1.60e-04,
1175,-4.00e-04,
1176,1.60e-04,
1177,-2.40e-04,
1178,-1.60e-04,
1179,1.60e-04,
1180,1.60e-04,
1181,-2.40e-04,
1182,-1.60e-04,
1183,1.60e-04,
1184,-1.60e-04,
1185,1.60e-04,
1186,3.20e-04,
1187,-1.60e-04,
1188,1.60e-04,
1189,-2.40e-04,
1190,1.60e-04,
1191,-2.40e-04,
1192,1.60e-04,
1193,-2.40e-04,
1194,-2.40e-04,
1195,1.60e-04,
1196,-2.40e-04,
1197,1.60e-04,
1198,1.60e-04,
1199,-2.40e-04,
