fastdiffamp/data-noise-set/bal-demod/NewFile2.csv

X,CH1,Start,Increment,
Sequence,Volt,-5.490000e+00,1.000000e-02
0,2.40e-04,
1,-2.40e-04,
2,-2.40e-04,
3,4.00e-04,
4,3.20e-04,
5,-2.40e-04,
6,3.20e-04,
7,-2.40e-04,
8,-2.40e-04,
9,4.00e-04,
10,4.00e-04,
11,-2.40e-04,
12,1.60e-04,
13,-2.40e-04,
14,1.60e-04,
15,-4.00e-04,
16,3.20e-04,
17,-2.40e-04,
18,3.20e-04,
19,-2.40e-04,
20,-2.40e-04,
21,3.20e-04,
22,3.20e-04,
23,-2.40e-04,
24,3.20e-04,
25,-2.40e-04,
26,4.00e-04,
27,-4.00e-04,
28,4.00e-04,
29,-8.00e-05,
30,-2.40e-04,
31,3.20e-04,
32,3.20e-04,
33,-2.40e-04,
34,3.20e-04,
35,-2.40e-04,
36,-2.40e-04,
37,4.00e-04,
38,3.20e-04,
39,-2.40e-04,
40,-2.40e-04,
41,3.20e-04,
42,-2.40e-04,
43,3.20e-04,
44,1.60e-04,
45,-4.00e-04,
46,-4.00e-04,
47,3.20e-04,
48,-2.40e-04,
49,3.20e-04,
50,-1.60e-04,
51,4.00e-04,
52,3.20e-04,
53,-2.40e-04,
54,-2.40e-04,
55,3.20e-04,
56,-2.40e-04,
57,2.40e-04,
58,-4.00e-04,
59,4.00e-04,
60,3.20e-04,
61,-2.40e-04,
62,3.20e-04,
63,-2.40e-04,
64,-2.40e-04,
65,3.20e-04,
66,4.00e-04,
67,-2.40e-04,
68,1.60e-04,
69,-4.00e-04,
70,3.20e-04,
71,-2.40e-04,
72,3.20e-04,
73,-4.00e-04,
74,1.60e-04,
75,-3.20e-04,
76,-4.00e-04,
77,2.40e-04,
78,-2.40e-04,
79,3.20e-04,
80,4.00e-04,
81,-1.60e-04,
82,4.00e-04,
83,-2.40e-04,
84,1.60e-04,
85,-2.40e-04,
86,-2.40e-04,
87,2.40e-04,
88,-2.40e-04,
89,3.20e-04,
90,3.20e-04,
91,-2.40e-04,
92,-2.40e-04,
93,2.40e-04,
94,3.20e-04,
95,-2.40e-04,
96,-2.40e-04,
97,4.00e-04,
98,3.20e-04,
99,-4.00e-04,
100,4.00e-04,
101,-1.60e-04,
102,3.20e-04,
103,-2.40e-04,
104,-4.00e-04,
105,2.40e-04,
106,-2.40e-04,
107,4.00e-04,
108,-2.40e-04,
109,1.60e-04,
110,3.20e-04,
111,-3.20e-04,
112,-2.40e-04,
113,1.60e-04,
114,-2.40e-04,
115,3.20e-04,
116,-4.00e-04,
117,1.60e-04,
118,-2.40e-04,
119,2.40e-04,
120,1.60e-04,
121,-2.40e-04,
122,-2.40e-04,
123,3.20e-04,
124,2.40e-04,
125,-2.40e-04,
126,1.60e-04,
127,-2.40e-04,
128,-2.40e-04,
129,3.20e-04,
130,-2.40e-04,
131,3.20e-04,
132,-2.40e-04,
133,1.60e-04,
134,-1.60e-04,
135,3.20e-04,
136,0.00e+00,
137,4.00e-04,
138,3.20e-04,
139,-1.60e-04,
140,2.40e-04,
141,-2.40e-04,
142,-1.60e-04,
143,3.20e-04,
144,-2.40e-04,
145,3.20e-04,
146,-2.40e-04,
147,1.60e-04,
148,-2.40e-04,
149,3.20e-04,
150,3.20e-04,
151,-2.40e-04,
152,3.20e-04,
153,-1.60e-04,
154,3.20e-04,
155,-1.60e-04,
156,-2.40e-04,
157,1.60e-04,
158,3.20e-04,
159,-2.40e-04,
160,-2.40e-04,
161,2.40e-04,
162,-4.00e-04,
163,3.20e-04,
164,3.20e-04,
165,-2.40e-04,
166,-2.40e-04,
167,3.20e-04,
168,-1.60e-04,
169,4.00e-04,
170,3.20e-04,
171,-8.00e-05,
172,4.00e-04,
173,-2.40e-04,
174,3.20e-04,
175,-2.40e-04,
176,-2.40e-04,
177,3.20e-04,
178,4.00e-04,
179,-2.40e-04,
180,-2.40e-04,
181,2.40e-04,
182,-2.40e-04,
183,3.20e-04,
184,-2.40e-04,
185,2.40e-04,
186,-1.60e-04,
187,3.20e-04,
188,-2.40e-04,
189,3.20e-04,
190,1.60e-04,
191,-2.40e-04,
192,-2.40e-04,
193,3.20e-04,
194,2.40e-04,
195,-2.40e-04,
196,-2.40e-04,
197,3.20e-04,
198,3.20e-04,
199,-2.40e-04,
200,-4.00e-04,
201,1.60e-04,
202,-2.40e-04,
203,2.40e-04,
204,-2.40e-04,
205,3.20e-04,
206,3.20e-04,
207,-2.40e-04,
208,-2.40e-04,
209,1.60e-04,
210,-4.80e-04,
211,1.60e-04,
212,-2.40e-04,
213,1.60e-04,
214,1.60e-04,
215,-2.40e-04,
216,-2.40e-04,
217,4.00e-04,
218,-2.40e-04,
219,3.20e-04,
220,-2.40e-04,
221,3.20e-04,
222,-1.60e-04,
223,3.20e-04,
224,4.00e-04,
225,-1.60e-04,
226,3.20e-04,
227,-2.40e-04,
228,-2.40e-04,
229,4.80e-04,
230,-2.40e-04,
231,3.20e-04,
232,-2.40e-04,
233,4.00e-04,
234,-1.60e-04,
235,4.00e-04,
236,3.20e-04,
237,-2.40e-04,
238,2.40e-04,
239,-2.40e-04,
240,-2.40e-04,
241,2.40e-04,
242,2.40e-04,
243,-2.40e-04,
244,-2.40e-04,
245,2.40e-04,
246,-2.40e-04,
247,5.60e-04,
248,4.00e-04,
249,-1.60e-04,
250,3.20e-04,
251,-2.40e-04,
252,1.60e-04,
253,-2.40e-04,
254,-2.40e-04,
255,4.00e-04,
256,-1.60e-04,
257,4.00e-04,
258,3.20e-04,
259,-2.40e-04,
260,-2.40e-04,
261,2.40e-04,
262,-2.40e-04,
263,2.40e-04,
264,3.20e-04,
265,-2.40e-04,
266,3.20e-04,
267,-2.40e-04,
268,1.60e-04,
269,-2.40e-04,
270,-2.40e-04,
271,3.20e-04,
272,-2.40e-04,
273,4.00e-04,
274,3.20e-04,
275,-2.40e-04,
276,3.20e-04,
277,-2.40e-04,
278,-1.60e-04,
279,4.00e-04,
280,4.00e-04,
281,-2.40e-04,
282,-2.40e-04,
283,4.00e-04,
284,3.20e-04,
285,-3.20e-04,
286,1.60e-04,
287,-4.00e-04,
288,-2.40e-04,
289,1.60e-04,
290,-4.00e-04,
291,2.40e-04,
292,4.00e-04,
293,-2.40e-04,
294,-2.40e-04,
295,4.00e-04,
296,-2.40e-04,
297,2.40e-04,
298,-4.00e-04,
299,1.60e-04,
300,-4.00e-04,
301,4.00e-04,
302,3.20e-04,
303,-1.60e-04,
304,0.00e+00,
305,4.00e-04,
306,-2.40e-04,
307,4.00e-04,
308,-2.40e-04,
309,3.20e-04,
310,3.20e-04,
311,-2.40e-04,
312,-2.40e-04,
313,4.00e-04,
314,3.20e-04,
315,-2.40e-04,
316,-2.40e-04,
317,3.20e-04,
318,-2.40e-04,
319,2.40e-04,
320,3.20e-04,
321,-2.40e-04,
322,3.20e-04,
323,-4.00e-04,
324,1.60e-04,
325,-4.00e-04,
326,-2.40e-04,
327,1.60e-04,
328,-2.40e-04,
329,3.20e-04,
330,-1.60e-04,
331,3.20e-04,
332,-2.40e-04,
333,3.20e-04,
334,4.00e-04,
335,-2.40e-04,
336,3.20e-04,
337,-4.00e-04,
338,-3.20e-04,
339,2.40e-04,
340,-2.40e-04,
341,3.20e-04,
342,-2.40e-04,
343,1.60e-04,
344,1.60e-04,
345,-4.00e-04,
346,-2.40e-04,
347,1.60e-04,
348,-2.40e-04,
349,2.40e-04,
350,-2.40e-04,
351,3.20e-04,
352,3.20e-04,
353,-4.00e-04,
354,4.00e-04,
355,-2.40e-04,
356,2.40e-04,
357,-2.40e-04,
358,2.40e-04,
359,-2.40e-04,
360,-2.40e-04,
361,1.60e-04,
362,-4.00e-04,
363,2.40e-04,
364,4.00e-04,
365,-2.40e-04,
366,1.60e-04,
367,-4.00e-04,
368,-4.00e-04,
369,1.60e-04,
370,-2.40e-04,
371,3.20e-04,
372,-2.40e-04,
373,1.60e-04,
374,-2.40e-04,
375,3.20e-04,
376,-4.00e-04,
377,2.40e-04,
378,-2.40e-04,
379,2.40e-04,
380,-2.40e-04,
381,3.20e-04,
382,-2.40e-04,
383,3.20e-04,
384,-1.60e-04,
385,3.20e-04,
386,-2.40e-04,
387,3.20e-04,
388,-1.60e-04,
389,4.80e-04,
390,-1.60e-04,
391,4.00e-04,
392,4.00e-04,
393,-2.40e-04,
394,2.40e-04,
395,-4.00e-04,
396,1.60e-04,
397,-4.00e-04,
398,-1.60e-04,
399,3.20e-04,
400,-2.40e-04,
401,3.20e-04,
402,-2.40e-04,
403,2.40e-04,
404,-2.40e-04,
405,3.20e-04,
406,-2.40e-04,
407,2.40e-04,
408,-2.40e-04,
409,3.20e-04,
410,1.60e-04,
411,-2.40e-04,
412,1.60e-04,
413,-4.00e-04,
414,-2.40e-04,
415,1.60e-04,
416,-2.40e-04,
417,2.40e-04,
418,3.20e-04,
419,-2.40e-04,
420,4.00e-04,
421,-2.40e-04,
422,3.20e-04,
423,-2.40e-04,
424,1.60e-04,
425,-2.40e-04,
426,-2.40e-04,
427,4.00e-04,
428,4.00e-04,
429,-2.40e-04,
430,3.20e-04,
431,-2.40e-04,
432,-2.40e-04,
433,3.20e-04,
434,-2.40e-04,
435,3.20e-04,
436,-4.00e-04,
437,1.60e-04,
438,1.60e-04,
439,-2.40e-04,
440,-2.40e-04,
441,3.20e-04,
442,-2.40e-04,
443,3.20e-04,
444,2.40e-04,
445,-4.00e-04,
446,-2.40e-04,
447,4.00e-04,
448,3.20e-04,
449,-2.40e-04,
450,-2.40e-04,
451,4.00e-04,
452,-1.60e-04,
453,3.20e-04,
454,-2.40e-04,
455,3.20e-04,
456,3.20e-04,
457,-2.40e-04,
458,1.60e-04,
459,-4.00e-04,
460,-2.40e-04,
461,3.20e-04,
462,1.60e-04,
463,-2.40e-04,
464,-4.00e-04,
465,1.60e-04,
466,-2.40e-04,
467,3.20e-04,
468,-2.40e-04,
469,3.20e-04,
470,1.60e-04,
471,-4.00e-04,
472,-2.40e-04,
473,3.20e-04,
474,-2.40e-04,
475,1.60e-04,
476,-2.40e-04,
477,4.00e-04,
478,-2.40e-04,
479,3.20e-04,
480,4.00e-04,
481,-1.60e-04,
482,2.40e-04,
483,-2.40e-04,
484,-4.00e-04,
485,3.20e-04,
486,1.60e-04,
487,-2.40e-04,
488,-2.40e-04,
489,3.20e-04,
490,2.40e-04,
491,-3.20e-04,
492,1.60e-04,
493,-4.00e-04,
494,3.20e-04,
495,-2.40e-04,
496,3.20e-04,
497,-2.40e-04,
498,2.40e-04,
499,-4.00e-04,
500,2.40e-04,
501,-3.20e-04,
502,2.40e-04,
503,-2.40e-04,
504,1.60e-04,
505,-2.40e-04,
506,2.40e-04,
507,-4.00e-04,
508,1.60e-04,
509,-4.00e-04,
510,-2.40e-04,
511,2.40e-04,
512,2.40e-04,
513,-2.40e-04,
514,3.20e-04,
515,-2.40e-04,
516,1.60e-04,
517,-2.40e-04,
518,-2.40e-04,
519,2.40e-04,
520,-2.40e-04,
521,4.00e-04,
522,2.40e-04,
523,-2.40e-04,
524,-2.40e-04,
525,1.60e-04,
526,-2.40e-04,
527,1.60e-04,
528,3.20e-04,
529,-2.40e-04,
530,3.20e-04,
531,-2.40e-04,
532,-2.40e-04,
533,3.20e-04,
534,-2.40e-04,
535,3.20e-04,
536,-2.40e-04,
537,3.20e-04,
538,-2.40e-04,
539,4.00e-04,
540,-4.00e-04,
541,2.40e-04,
542,3.20e-04,
543,-4.00e-04,
544,3.20e-04,
545,-2.40e-04,
546,-1.60e-04,
547,4.00e-04,
548,-2.40e-04,
549,3.20e-04,
550,3.20e-04,
551,-2.40e-04,
552,3.20e-04,
553,-4.00e-04,
554,-2.40e-04,
555,1.60e-04,
556,-2.40e-04,
557,1.60e-04,
558,-2.40e-04,
559,3.20e-04,
560,4.00e-04,
561,-1.60e-04,
562,3.20e-04,
563,-2.40e-04,
564,4.00e-04,
565,-2.40e-04,
566,-2.40e-04,
567,3.20e-04,
568,3.20e-04,
569,-2.40e-04,
570,4.00e-04,
571,-1.60e-04,
572,1.60e-04,
573,-2.40e-04,
574,-2.40e-04,
575,4.00e-04,
576,-2.40e-04,
577,3.20e-04,
578,-2.40e-04,
579,3.20e-04,
580,-2.40e-04,
581,1.60e-04,
582,-2.40e-04,
583,3.20e-04,
584,3.20e-04,
585,-2.40e-04,
586,-1.60e-04,
587,4.00e-04,
588,3.20e-04,
589,-1.60e-04,
590,4.00e-04,
591,-2.40e-04,
592,-2.40e-04,
593,4.00e-04,
594,3.20e-04,
595,-2.40e-04,
596,-2.40e-04,
597,3.20e-04,
598,3.20e-04,
599,-2.40e-04,
600,3.20e-04,
601,-8.00e-05,
602,1.60e-04,
603,-2.40e-04,
604,-2.40e-04,
605,2.40e-04,
606,-2.40e-04,
607,3.20e-04,
608,-4.00e-04,
609,3.20e-04,
610,3.20e-04,
611,-2.40e-04,
612,-2.40e-04,
613,1.60e-04,
614,-4.00e-04,
615,3.20e-04,
616,-2.40e-04,
617,3.20e-04,
618,-2.40e-04,
619,2.40e-04,
620,2.40e-04,
621,-2.40e-04,
622,-2.40e-04,
623,3.20e-04,
624,-1.60e-04,
625,3.20e-04,
626,-1.60e-04,
627,3.20e-04,
628,-2.40e-04,
629,4.00e-04,
630,-3.20e-04,
631,3.20e-04,
632,1.60e-04,
633,-2.40e-04,
634,1.60e-04,
635,-2.40e-04,
636,1.60e-04,
637,-2.40e-04,
638,3.20e-04,
639,-2.40e-04,
640,2.40e-04,
641,-2.40e-04,
642,2.40e-04,
643,-2.40e-04,
644,-2.40e-04,
645,3.20e-04,
646,-2.40e-04,
647,2.40e-04,
648,-2.40e-04,
649,1.60e-04,
650,-1.60e-04,
651,2.40e-04,
652,1.60e-04,
653,-1.60e-04,
654,-2.40e-04,
655,2.40e-04,
656,-2.40e-04,
657,3.20e-04,
658,-2.40e-04,
659,1.60e-04,
660,-2.40e-04,
661,3.20e-04,
662,-4.00e-04,
663,2.40e-04,
664,-2.40e-04,
665,3.20e-04,
666,3.20e-04,
667,-2.40e-04,
668,-4.00e-04,
669,3.20e-04,
670,3.20e-04,
671,-2.40e-04,
672,1.60e-04,
673,-4.00e-04,
674,1.60e-04,
675,-2.40e-04,
676,-2.40e-04,
677,3.20e-04,
678,-2.40e-04,
679,3.20e-04,
680,-2.40e-04,
681,1.60e-04,
682,-2.40e-04,
683,3.20e-04,
684,-2.40e-04,
685,3.20e-04,
686,-2.40e-04,
687,3.20e-04,
688,3.20e-04,
689,-2.40e-04,
690,-2.40e-04,
691,2.40e-04,
692,1.60e-04,
693,-2.40e-04,
694,-2.40e-04,
695,4.00e-04,
696,-1.60e-04,
697,3.20e-04,
698,-1.60e-04,
699,2.40e-04,
700,-1.60e-04,
701,3.20e-04,
702,1.60e-04,
703,-2.40e-04,
704,1.60e-04,
705,-2.40e-04,
706,1.60e-04,
707,-2.40e-04,
708,-2.40e-04,
709,2.40e-04,
710,-2.40e-04,
711,3.20e-04,
712,-2.40e-04,
713,2.40e-04,
714,-2.40e-04,
715,1.60e-04,
716,3.20e-04,
717,-2.40e-04,
718,-2.40e-04,
719,3.20e-04,
720,1.60e-04,
721,-2.40e-04,
722,3.20e-04,
723,-4.00e-04,
724,-2.40e-04,
725,3.20e-04,
726,1.60e-04,
727,-2.40e-04,
728,2.40e-04,
729,-2.40e-04,
730,-2.40e-04,
731,2.40e-04,
732,-2.40e-04,
733,2.40e-04,
734,-2.40e-04,
735,3.20e-04,
736,-2.40e-04,
737,1.60e-04,
738,-2.40e-04,
739,1.60e-04,
740,1.60e-04,
741,-4.00e-04,
742,-4.00e-04,
743,2.40e-04,
744,-2.40e-04,
745,1.60e-04,
746,3.20e-04,
747,-2.40e-04,
748,-2.40e-04,
749,3.20e-04,
750,1.60e-04,
751,-2.40e-04,
752,-2.40e-04,
753,2.40e-04,
754,-2.40e-04,
755,3.20e-04,
756,3.20e-04,
757,-2.40e-04,
758,-2.40e-04,
759,2.40e-04,
760,-2.40e-04,
761,3.20e-04,
762,3.20e-04,
763,-2.40e-04,
764,3.20e-04,
765,-2.40e-04,
766,-2.40e-04,
767,3.20e-04,
768,-2.40e-04,
769,2.40e-04,
770,3.20e-04,
771,-2.40e-04,
772,-2.40e-04,
773,3.20e-04,
774,1.60e-04,
775,-2.40e-04,
776,-1.60e-04,
777,3.20e-04,
778,-2.40e-04,
779,2.40e-04,
780,-2.40e-04,
781,2.40e-04,
782,-2.40e-04,
783,1.60e-04,
784,-4.00e-04,
785,3.20e-04,
786,-2.40e-04,
787,2.40e-04,
788,1.60e-04,
789,-2.40e-04,
790,-2.40e-04,
791,3.20e-04,
792,1.60e-04,
793,-4.00e-04,
794,-2.40e-04,
795,3.20e-04,
796,1.60e-04,
797,-2.40e-04,
798,-2.40e-04,
799,2.40e-04,
800,3.20e-04,
801,-2.40e-04,
802,2.40e-04,
803,-2.40e-04,
804,-2.40e-04,
805,3.20e-04,
806,-2.40e-04,
807,2.40e-04,
808,3.20e-04,
809,-2.40e-04,
810,-2.40e-04,
811,3.20e-04,
812,3.20e-04,
813,-2.40e-04,
814,-2.40e-04,
815,4.00e-04,
816,1.60e-04,
817,-2.40e-04,
818,-4.00e-04,
819,1.60e-04,
820,-4.00e-04,
821,3.20e-04,
822,1.60e-04,
823,-4.00e-04,
824,-2.40e-04,
825,1.60e-04,
826,-4.00e-04,
827,2.40e-04,
828,-2.40e-04,
829,2.40e-04,
830,-2.40e-04,
831,1.60e-04,
832,1.60e-04,
833,-3.20e-04,
834,1.60e-04,
835,-2.40e-04,
836,1.60e-04,
837,-2.40e-04,
838,1.60e-04,
839,-2.40e-04,
840,1.60e-04,
841,-4.00e-04,
842,-2.40e-04,
843,1.60e-04,
844,2.40e-04,
845,-4.00e-04,
846,1.60e-04,
847,-2.40e-04,
848,-2.40e-04,
849,1.60e-04,
850,-2.40e-04,
851,3.20e-04,
852,3.20e-04,
853,-2.40e-04,
854,1.60e-04,
855,-2.40e-04,
856,-4.00e-04,
857,2.40e-04,
858,-4.00e-04,
859,1.60e-04,
860,-2.40e-04,
861,3.20e-04,
862,-4.00e-04,
863,3.20e-04,
864,1.60e-04,
865,-2.40e-04,
866,1.60e-04,
867,-2.40e-04,
868,1.60e-04,
869,-2.40e-04,
870,-2.40e-04,
871,1.60e-04,
872,-2.40e-04,
873,2.40e-04,
874,-3.20e-04,
875,2.40e-04,
876,-2.40e-04,
877,3.20e-04,
878,1.60e-04,
879,-2.40e-04,
880,1.60e-04,
881,-4.00e-04,
882,-1.60e-04,
883,3.20e-04,
884,3.20e-04,
885,-2.40e-04,
886,1.60e-04,
887,-2.40e-04,
888,2.40e-04,
889,-2.40e-04,
890,-2.40e-04,
891,2.40e-04,
892,-2.40e-04,
893,1.60e-04,
894,-2.40e-04,
895,1.60e-04,
896,-2.40e-04,
897,3.20e-04,
898,-2.40e-04,
899,2.40e-04,
900,-2.40e-04,
901,3.20e-04,
902,2.40e-04,
903,-4.00e-04,
904,-2.40e-04,
905,1.60e-04,
906,-4.00e-04,
907,2.40e-04,
908,1.60e-04,
909,-4.00e-04,
910,-2.40e-04,
911,3.20e-04,
912,1.60e-04,
913,-2.40e-04,
914,-2.40e-04,
915,1.60e-04,
916,-2.40e-04,
917,1.60e-04,
918,2.40e-04,
919,-2.40e-04,
920,-2.40e-04,
921,3.20e-04,
922,2.40e-04,
923,-2.40e-04,
924,-4.00e-04,
925,2.40e-04,
926,-2.40e-04,
927,2.40e-04,
928,-3.20e-04,
929,2.40e-04,
930,-1.60e-04,
931,3.20e-04,
932,2.40e-04,
933,-2.40e-04,
934,-2.40e-04,
935,1.60e-04,
936,-2.40e-04,
937,1.60e-04,
938,-2.40e-04,
939,2.40e-04,
940,1.60e-04,
941,-2.40e-04,
942,-4.00e-04,
943,3.20e-04,
944,-2.40e-04,
945,1.60e-04,
946,-2.40e-04,
947,3.20e-04,
948,-2.40e-04,
949,2.40e-04,
950,1.60e-04,
951,-2.40e-04,
952,3.20e-04,
953,-2.40e-04,
954,1.60e-04,
955,-2.40e-04,
956,-1.60e-04,
957,3.20e-04,
958,-2.40e-04,
959,3.20e-04,
960,1.60e-04,
961,-2.40e-04,
962,2.40e-04,
963,-2.40e-04,
964,-2.40e-04,
965,3.20e-04,
966,-2.40e-04,
967,1.60e-04,
968,-2.40e-04,
969,2.40e-04,
970,-2.40e-04,
971,3.20e-04,
972,2.40e-04,
973,-2.40e-04,
974,-2.40e-04,
975,2.40e-04,
976,-2.40e-04,
977,3.20e-04,
978,-2.40e-04,
979,4.00e-04,
980,-1.60e-04,
981,3.20e-04,
982,-2.40e-04,
983,1.60e-04,
984,3.20e-04,
985,-2.40e-04,
986,1.60e-04,
987,-4.00e-04,
988,1.60e-04,
989,-2.40e-04,
990,2.40e-04,
991,-4.00e-04,
992,-2.40e-04,
993,3.20e-04,
994,3.20e-04,
995,-2.40e-04,
996,2.40e-04,
997,-2.40e-04,
998,-2.40e-04,
999,3.20e-04,
1000,1.60e-04,
1001,-2.40e-04,
1002,2.40e-04,
1003,-3.20e-04,
1004,-2.40e-04,
1005,3.20e-04,
1006,-2.40e-04,
1007,1.60e-04,
1008,1.60e-04,
1009,-2.40e-04,
1010,-2.40e-04,
1011,3.20e-04,
1012,-2.40e-04,
1013,1.60e-04,
1014,-2.40e-04,
1015,1.60e-04,
1016,-2.40e-04,
1017,2.40e-04,
1018,-2.40e-04,
1019,4.00e-04,
1020,-2.40e-04,
1021,1.60e-04,
1022,-2.40e-04,
1023,2.40e-04,
1024,2.40e-04,
1025,-2.40e-04,
1026,3.20e-04,
1027,-2.40e-04,
1028,2.40e-04,
1029,-2.40e-04,
1030,-2.40e-04,
1031,3.20e-04,
1032,-2.40e-04,
1033,3.20e-04,
1034,-2.40e-04,
1035,3.20e-04,
1036,-2.40e-04,
1037,3.20e-04,
1038,-2.40e-04,
1039,3.20e-04,
1040,-2.40e-04,
1041,3.20e-04,
1042,1.60e-04,
1043,-4.00e-04,
1044,-4.00e-04,
1045,3.20e-04,
1046,3.20e-04,
1047,-2.40e-04,
1048,1.60e-04,
1049,-2.40e-04,
1050,3.20e-04,
1051,-2.40e-04,
1052,-2.40e-04,
1053,3.20e-04,
1054,-2.40e-04,
1055,2.40e-04,
1056,-2.40e-04,
1057,3.20e-04,
1058,-2.40e-04,
1059,3.20e-04,
1060,2.40e-04,
1061,-2.40e-04,
1062,-2.40e-04,
1063,2.40e-04,
1064,1.60e-04,
1065,-2.40e-04,
1066,1.60e-04,
1067,-2.40e-04,
1068,1.60e-04,
1069,-4.00e-04,
1070,-2.40e-04,
1071,1.60e-04,
1072,-2.40e-04,
1073,1.60e-04,
1074,1.60e-04,
1075,-2.40e-04,
1076,-2.40e-04,
1077,1.60e-04,
1078,-2.40e-04,
1079,1.60e-04,
1080,-2.40e-04,
1081,1.60e-04,
1082,-2.40e-04,
1083,3.20e-04,
1084,1.60e-04,
1085,-2.40e-04,
1086,-2.40e-04,
1087,1.60e-04,
1088,1.60e-04,
1089,-2.40e-04,
1090,1.60e-04,
1091,-2.40e-04,
1092,-4.00e-04,
1093,2.40e-04,
1094,-2.40e-04,
1095,3.20e-04,
1096,-2.40e-04,
1097,3.20e-04,
1098,-2.40e-04,
1099,3.20e-04,
1100,1.60e-04,
1101,-3.20e-04,
1102,-2.40e-04,
1103,1.60e-04,
1104,2.40e-04,
1105,-4.00e-04,
1106,-2.40e-04,
1107,3.20e-04,
1108,-3.20e-04,
1109,2.40e-04,
1110,-2.40e-04,
1111,1.60e-04,
1112,1.60e-04,
1113,-2.40e-04,
1114,3.20e-04,
1115,-2.40e-04,
1116,-1.60e-04,
1117,3.20e-04,
1118,-2.40e-04,
1119,2.40e-04,
1120,3.20e-04,
1121,-4.00e-04,
1122,-2.40e-04,
1123,2.40e-04,
1124,-2.40e-04,
1125,3.20e-04,
1126,-3.20e-04,
1127,3.20e-04,
1128,-2.40e-04,
1129,3.20e-04,
1130,1.60e-04,
1131,-4.00e-04,
1132,-1.60e-04,
1133,3.20e-04,
1134,-2.40e-04,
1135,1.60e-04,
1136,1.60e-04,
1137,-2.40e-04,
1138,1.60e-04,
1139,-2.40e-04,
1140,-1.60e-04,
1141,2.40e-04,
1142,1.60e-04,
1143,-2.40e-04,
1144,2.40e-04,
1145,-2.40e-04,
1146,1.60e-04,
1147,-2.40e-04,
1148,1.60e-04,
1149,-2.40e-04,
1150,1.60e-04,
1151,-4.00e-04,
1152,-2.40e-04,
1153,3.20e-04,
1154,-3.20e-04,
1155,1.60e-04,
1156,-2.40e-04,
1157,3.20e-04,
1158,-2.40e-04,
1159,1.60e-04,
1160,-2.40e-04,
1161,2.40e-04,
1162,1.60e-04,
1163,-2.40e-04,
1164,-2.40e-04,
1165,3.20e-04,
1166,2.40e-04,
1167,-3.20e-04,
1168,-2.40e-04,
1169,1.60e-04,
1170,-1.60e-04,
1171,2.40e-04,
1172,-4.00e-04,
1173,3.20e-04,
1174,1.60e-04,
1175,-2.40e-04,
1176,-3.20e-04,
1177,3.20e-04,
1178,-1.60e-04,
1179,2.40e-04,
1180,3.20e-04,
1181,-2.40e-04,
1182,1.60e-04,
1183,-2.40e-04,
1184,2.40e-04,
1185,-2.40e-04,
1186,1.60e-04,
1187,-2.40e-04,
1188,-2.40e-04,
1189,3.20e-04,
1190,1.60e-04,
1191,-2.40e-04,
1192,2.40e-04,
1193,-2.40e-04,
1194,-2.40e-04,
1195,3.20e-04,
1196,-4.00e-04,
1197,3.20e-04,
1198,1.60e-04,
1199,-2.40e-04,
