fastdiffamp/data-noise-set/bal-demod/NewFile3.csv

X,CH1,Start,Increment,
Sequence,Volt,-5.490000e+00,1.000000e-02
0,3.20e-04,
1,-2.40e-04,
2,3.20e-04,
3,-2.40e-04,
4,-2.40e-04,
5,3.20e-04,
6,-2.40e-04,
7,4.00e-04,
8,3.20e-04,
9,-2.40e-04,
10,-2.40e-04,
11,3.20e-04,
12,-2.40e-04,
13,4.00e-04,
14,-3.20e-04,
15,3.20e-04,
16,4.00e-04,
17,-1.60e-04,
18,3.20e-04,
19,-2.40e-04,
20,1.60e-04,
21,-2.40e-04,
22,-2.40e-04,
23,3.20e-04,
24,1.60e-04,
25,-2.40e-04,
26,3.20e-04,
27,-2.40e-04,
28,-2.40e-04,
29,3.20e-04,
30,1.60e-04,
31,-2.40e-04,
32,3.20e-04,
33,-2.40e-04,
34,3.20e-04,
35,-2.40e-04,
36,-1.60e-04,
37,4.00e-04,
38,-1.60e-04,
39,4.00e-04,
40,3.20e-04,
41,-2.40e-04,
42,4.00e-04,
43,-2.40e-04,
44,-2.40e-04,
45,3.20e-04,
46,1.60e-04,
47,-2.40e-04,
48,1.60e-04,
49,-4.00e-04,
50,-2.40e-04,
51,3.20e-04,
52,3.20e-04,
53,-1.60e-04,
54,-2.40e-04,
55,2.40e-04,
56,3.20e-04,
57,-2.40e-04,
58,3.20e-04,
59,-2.40e-04,
60,-2.40e-04,
61,3.20e-04,
62,3.20e-04,
63,-2.40e-04,
64,3.20e-04,
65,-4.00e-04,
66,2.40e-04,
67,-2.40e-04,
68,-2.40e-04,
69,1.60e-04,
70,4.00e-04,
71,-4.00e-04,
72,1.60e-04,
73,-2.40e-04,
74,-2.40e-04,
75,3.20e-04,
76,-2.40e-04,
77,4.00e-04,
78,1.60e-04,
79,-2.40e-04,
80,3.20e-04,
81,-2.40e-04,
82,-2.40e-04,
83,1.60e-04,
84,1.60e-04,
85,-4.00e-04,
86,-4.00e-04,
87,2.40e-04,
88,-4.00e-04,
89,2.40e-04,
90,3.20e-04,
91,-2.40e-04,
92,3.20e-04,
93,-2.40e-04,
94,3.20e-04,
95,-2.40e-04,
96,-2.40e-04,
97,2.40e-04,
98,-2.40e-04,
99,3.20e-04,
100,3.20e-04,
101,-2.40e-04,
102,-2.40e-04,
103,2.40e-04,
104,3.20e-04,
105,-2.40e-04,
106,3.20e-04,
107,-2.40e-04,
108,3.20e-04,
109,-2.40e-04,
110,-4.00e-04,
111,3.20e-04,
112,3.20e-04,
113,-2.40e-04,
114,1.60e-04,
115,-4.00e-04,
116,-1.60e-04,
117,3.20e-04,
118,-2.40e-04,
119,3.20e-04,
120,-2.40e-04,
121,3.20e-04,
122,3.20e-04,
123,-2.40e-04,
124,-1.60e-04,
125,2.40e-04,
126,-2.40e-04,
127,3.20e-04,
128,4.00e-04,
129,-2.40e-04,
130,-2.40e-04,
131,3.20e-04,
132,-2.40e-04,
133,3.20e-04,
134,2.40e-04,
135,-4.00e-04,
136,-4.00e-04,
137,3.20e-04,
138,4.00e-04,
139,-2.40e-04,
140,-2.40e-04,
141,3.20e-04,
142,-2.40e-04,
143,3.20e-04,
144,3.20e-04,
145,-2.40e-04,
146,-2.40e-04,
147,4.00e-04,
148,3.20e-04,
149,-4.00e-04,
150,-2.40e-04,
151,3.20e-04,
152,-1.60e-04,
153,4.00e-04,
154,1.60e-04,
155,-2.40e-04,
156,-2.40e-04,
157,3.20e-04,
158,2.40e-04,
159,-2.40e-04,
160,-2.40e-04,
161,3.20e-04,
162,-2.40e-04,
163,4.00e-04,
164,-2.40e-04,
165,1.60e-04,
166,4.00e-04,
167,-4.00e-04,
168,-2.40e-04,
169,1.60e-04,
170,3.20e-04,
171,-3.20e-04,
172,3.20e-04,
173,-2.40e-04,
174,-2.40e-04,
175,3.20e-04,
176,1.60e-04,
177,-2.40e-04,
178,-2.40e-04,
179,2.40e-04,
180,3.20e-04,
181,-2.40e-04,
182,-2.40e-04,
183,1.60e-04,
184,1.60e-04,
185,-4.00e-04,
186,3.20e-04,
187,-2.40e-04,
188,-2.40e-04,
189,3.20e-04,
190,4.00e-04,
191,-2.40e-04,
192,1.60e-04,
193,-2.40e-04,
194,3.20e-04,
195,-2.40e-04,
196,4.00e-04,
197,-4.00e-04,
198,-2.40e-04,
199,3.20e-04,
200,4.00e-04,
201,-2.40e-04,
202,-1.60e-04,
203,3.20e-04,
204,3.20e-04,
205,-1.60e-04,
206,3.20e-04,
207,-2.40e-04,
208,3.20e-04,
209,-2.40e-04,
210,-2.40e-04,
211,3.20e-04,
212,2.40e-04,
213,-2.40e-04,
214,4.00e-04,
215,-2.40e-04,
216,-2.40e-04,
217,3.20e-04,
218,1.60e-04,
219,-2.40e-04,
220,1.60e-04,
221,-2.40e-04,
222,3.20e-04,
223,-2.40e-04,
224,-4.00e-04,
225,3.20e-04,
226,-2.40e-04,
227,2.40e-04,
228,1.60e-04,
229,-2.40e-04,
230,3.20e-04,
231,-2.40e-04,
232,3.20e-04,
233,-2.40e-04,
234,-2.40e-04,
235,3.20e-04,
236,3.20e-04,
237,-2.40e-04,
238,1.60e-04,
239,-2.40e-04,
240,-2.40e-04,
241,2.40e-04,
242,-2.40e-04,
243,3.20e-04,
244,3.20e-04,
245,-2.40e-04,
246,2.40e-04,
247,-2.40e-04,
248,2.40e-04,
249,-2.40e-04,
250,-2.40e-04,
251,3.20e-04,
252,1.60e-04,
253,-2.40e-04,
254,-2.40e-04,
255,3.20e-04,
256,3.20e-04,
257,-4.00e-04,
258,-2.40e-04,
259,3.20e-04,
260,-2.40e-04,
261,3.20e-04,
262,3.20e-04,
263,-2.40e-04,
264,2.40e-04,
265,-2.40e-04,
266,-2.40e-04,
267,1.60e-04,
268,-2.40e-04,
269,4.00e-04,
270,3.20e-04,
271,-2.40e-04,
272,4.00e-04,
273,-2.40e-04,
274,-2.40e-04,
275,1.60e-04,
276,-1.60e-04,
277,3.20e-04,
278,-2.40e-04,
279,3.20e-04,
280,-2.40e-04,
281,2.40e-04,
282,-4.00e-04,
283,1.60e-04,
284,-2.40e-04,
285,3.20e-04,
286,-1.60e-04,
287,3.20e-04,
288,1.60e-04,
289,-2.40e-04,
290,3.20e-04,
291,-2.40e-04,
292,1.60e-04,
293,-2.40e-04,
294,-1.60e-04,
295,3.20e-04,
296,-2.40e-04,
297,2.40e-04,
298,-1.60e-04,
299,4.00e-04,
300,-2.40e-04,
301,3.20e-04,
302,3.20e-04,
303,-2.40e-04,
304,4.80e-04,
305,-2.40e-04,
306,-2.40e-04,
307,3.20e-04,
308,3.20e-04,
309,-2.40e-04,
310,3.20e-04,
311,-2.40e-04,
312,3.20e-04,
313,-2.40e-04,
314,1.60e-04,
315,-3.20e-04,
316,1.60e-04,
317,-2.40e-04,
318,-2.40e-04,
319,1.60e-04,
320,1.60e-04,
321,-2.40e-04,
322,-2.40e-04,
323,3.20e-04,
324,3.20e-04,
325,-1.60e-04,
326,1.60e-04,
327,-2.40e-04,
328,-1.60e-04,
329,4.00e-04,
330,4.00e-04,
331,-2.40e-04,
332,3.20e-04,
333,-2.40e-04,
334,-1.60e-04,
335,4.00e-04,
336,1.60e-04,
337,-2.40e-04,
338,-2.40e-04,
339,1.60e-04,
340,-2.40e-04,
341,3.20e-04,
342,-1.60e-04,
343,4.00e-04,
344,4.00e-04,
345,-2.40e-04,
346,-2.40e-04,
347,1.60e-04,
348,4.00e-04,
349,-1.60e-04,
350,3.20e-04,
351,-1.60e-04,
352,-2.40e-04,
353,4.00e-04,
354,3.20e-04,
355,-1.60e-04,
356,3.20e-04,
357,-2.40e-04,
358,-1.60e-04,
359,3.20e-04,
360,-1.60e-04,
361,3.20e-04,
362,2.40e-04,
363,-2.40e-04,
364,-2.40e-04,
365,3.20e-04,
366,-2.40e-04,
367,4.00e-04,
368,-2.40e-04,
369,2.40e-04,
370,-1.60e-04,
371,3.20e-04,
372,2.40e-04,
373,-2.40e-04,
374,-2.40e-04,
375,1.60e-04,
376,3.20e-04,
377,-2.40e-04,
378,-2.40e-04,
379,3.20e-04,
380,-2.40e-04,
381,3.20e-04,
382,3.20e-04,
383,-2.40e-04,
384,-2.40e-04,
385,4.00e-04,
386,1.60e-04,
387,-2.40e-04,
388,1.60e-04,
389,-2.40e-04,
390,-4.00e-04,
391,3.20e-04,
392,-2.40e-04,
393,3.20e-04,
394,-4.00e-04,
395,2.40e-04,
396,4.00e-04,
397,-4.00e-04,
398,4.00e-04,
399,-4.00e-04,
400,1.60e-04,
401,-2.40e-04,
402,4.00e-04,
403,-1.60e-04,
404,-2.40e-04,
405,3.20e-04,
406,3.20e-04,
407,-2.40e-04,
408,-2.40e-04,
409,3.20e-04,
410,2.40e-04,
411,-2.40e-04,
412,3.20e-04,
413,-3.20e-04,
414,3.20e-04,
415,-3.20e-04,
416,-2.40e-04,
417,3.20e-04,
418,-2.40e-04,
419,3.20e-04,
420,-4.00e-04,
421,3.20e-04,
422,-2.40e-04,
423,3.20e-04,
424,-2.40e-04,
425,3.20e-04,
426,4.00e-04,
427,-2.40e-04,
428,-2.40e-04,
429,4.00e-04,
430,1.60e-04,
431,-2.40e-04,
432,3.20e-04,
433,-3.20e-04,
434,-2.40e-04,
435,3.20e-04,
436,3.20e-04,
437,-2.40e-04,
438,3.20e-04,
439,-1.60e-04,
440,-1.60e-04,
441,3.20e-04,
442,3.20e-04,
443,-2.40e-04,
444,-2.40e-04,
445,4.00e-04,
446,3.20e-04,
447,-2.40e-04,
448,-2.40e-04,
449,2.40e-04,
450,1.60e-04,
451,-2.40e-04,
452,1.60e-04,
453,-2.40e-04,
454,-2.40e-04,
455,3.20e-04,
456,1.60e-04,
457,-2.40e-04,
458,2.40e-04,
459,-2.40e-04,
460,3.20e-04,
461,-1.60e-04,
462,-1.60e-04,
463,4.00e-04,
464,3.20e-04,
465,-2.40e-04,
466,1.60e-04,
467,-4.00e-04,
468,1.60e-04,
469,-2.40e-04,
470,3.20e-04,
471,-2.40e-04,
472,-2.40e-04,
473,2.40e-04,
474,-2.40e-04,
475,3.20e-04,
476,3.20e-04,
477,-2.40e-04,
478,-2.40e-04,
479,1.60e-04,
480,1.60e-04,
481,-2.40e-04,
482,2.40e-04,
483,-4.00e-04,
484,3.20e-04,
485,-2.40e-04,
486,1.60e-04,
487,-2.40e-04,
488,-2.40e-04,
489,3.20e-04,
490,-2.40e-04,
491,2.40e-04,
492,3.20e-04,
493,-2.40e-04,
494,-2.40e-04,
495,1.60e-04,
496,-1.60e-04,
497,4.00e-04,
498,-2.40e-04,
499,3.20e-04,
500,3.20e-04,
501,-3.20e-04,
502,1.60e-04,
503,-2.40e-04,
504,1.60e-04,
505,-2.40e-04,
506,-2.40e-04,
507,3.20e-04,
508,2.40e-04,
509,-2.40e-04,
510,-2.40e-04,
511,3.20e-04,
512,-1.60e-04,
513,3.20e-04,
514,-2.40e-04,
515,2.40e-04,
516,-2.40e-04,
517,4.00e-04,
518,3.20e-04,
519,-2.40e-04,
520,2.40e-04,
521,-2.40e-04,
522,1.60e-04,
523,-2.40e-04,
524,-4.00e-04,
525,1.60e-04,
526,1.60e-04,
527,-2.40e-04,
528,-1.60e-04,
529,4.00e-04,
530,-2.40e-04,
531,4.00e-04,
532,-2.40e-04,
533,3.20e-04,
534,-2.40e-04,
535,4.00e-04,
536,3.20e-04,
537,-4.00e-04,
538,1.60e-04,
539,-2.40e-04,
540,-2.40e-04,
541,4.00e-04,
542,4.00e-04,
543,-2.40e-04,
544,3.20e-04,
545,-2.40e-04,
546,-2.40e-04,
547,3.20e-04,
548,-1.60e-04,
549,3.20e-04,
550,-2.40e-04,
551,3.20e-04,
552,4.00e-04,
553,-2.40e-04,
554,-1.60e-04,
555,4.00e-04,
556,4.00e-04,
557,-2.40e-04,
558,-2.40e-04,
559,3.20e-04,
560,3.20e-04,
561,-2.40e-04,
562,1.60e-04,
563,-4.00e-04,
564,-2.40e-04,
565,4.00e-04,
566,-1.60e-04,
567,4.00e-04,
568,-1.60e-04,
569,3.20e-04,
570,-2.40e-04,
571,4.00e-04,
572,0.00e+00,
573,4.00e-04,
574,3.20e-04,
575,-1.60e-04,
576,-2.40e-04,
577,4.00e-04,
578,-2.40e-04,
579,2.40e-04,
580,-2.40e-04,
581,2.40e-04,
582,-2.40e-04,
583,4.00e-04,
584,3.20e-04,
585,-2.40e-04,
586,3.20e-04,
587,-2.40e-04,
588,1.60e-04,
589,-2.40e-04,
590,-2.40e-04,
591,4.00e-04,
592,3.20e-04,
593,-2.40e-04,
594,-1.60e-04,
595,3.20e-04,
596,3.20e-04,
597,-2.40e-04,
598,2.40e-04,
599,-2.40e-04,
600,2.40e-04,
601,-3.20e-04,
602,1.60e-04,
603,-2.40e-04,
604,1.60e-04,
605,-2.40e-04,
606,-2.40e-04,
607,3.20e-04,
608,2.40e-04,
609,-2.40e-04,
610,-2.40e-04,
611,1.60e-04,
612,3.20e-04,
613,-1.60e-04,
614,-1.60e-04,
615,3.20e-04,
616,-2.40e-04,
617,3.20e-04,
618,-2.40e-04,
619,3.20e-04,
620,3.20e-04,
621,-2.40e-04,
622,-2.40e-04,
623,3.20e-04,
624,1.60e-04,
625,-2.40e-04,
626,-1.60e-04,
627,3.20e-04,
628,-2.40e-04,
629,2.40e-04,
630,-2.40e-04,
631,1.60e-04,
632,2.40e-04,
633,-1.60e-04,
634,3.20e-04,
635,-2.40e-04,
636,3.20e-04,
637,-1.60e-04,
638,2.40e-04,
639,-2.40e-04,
640,1.60e-04,
641,-2.40e-04,
642,-2.40e-04,
643,3.20e-04,
644,-2.40e-04,
645,1.60e-04,
646,3.20e-04,
647,-2.40e-04,
648,-1.60e-04,
649,3.20e-04,
650,2.40e-04,
651,-2.40e-04,
652,1.60e-04,
653,-2.40e-04,
654,3.20e-04,
655,-2.40e-04,
656,3.20e-04,
657,-4.00e-04,
658,3.20e-04,
659,-2.40e-04,
660,-2.40e-04,
661,2.40e-04,
662,-2.40e-04,
663,2.40e-04,
664,-2.40e-04,
665,3.20e-04,
666,3.20e-04,
667,-2.40e-04,
668,1.60e-04,
669,-2.40e-04,
670,-2.40e-04,
671,3.20e-04,
672,-4.00e-04,
673,3.20e-04,
674,-2.40e-04,
675,3.20e-04,
676,-2.40e-04,
677,3.20e-04,
678,-2.40e-04,
679,2.40e-04,
680,2.40e-04,
681,-2.40e-04,
682,2.40e-04,
683,-2.40e-04,
684,1.60e-04,
685,-3.20e-04,
686,3.20e-04,
687,-2.40e-04,
688,1.60e-04,
689,-2.40e-04,
690,-2.40e-04,
691,3.20e-04,
692,3.20e-04,
693,-2.40e-04,
694,3.20e-04,
695,-4.00e-04,
696,2.40e-04,
697,-4.00e-04,
698,-4.00e-04,
699,3.20e-04,
700,1.60e-04,
701,-2.40e-04,
702,-2.40e-04,
703,3.20e-04,
704,1.60e-04,
705,-2.40e-04,
706,3.20e-04,
707,-2.40e-04,
708,-2.40e-04,
709,2.40e-04,
710,1.60e-04,
711,-2.40e-04,
712,-4.00e-04,
713,2.40e-04,
714,-2.40e-04,
715,3.20e-04,
716,-2.40e-04,
717,1.60e-04,
718,2.40e-04,
719,-2.40e-04,
720,3.20e-04,
721,-4.00e-04,
722,-2.40e-04,
723,2.40e-04,
724,3.20e-04,
725,-2.40e-04,
726,1.60e-04,
727,-2.40e-04,
728,3.20e-04,
729,-4.00e-04,
730,3.20e-04,
731,-4.00e-04,
732,3.20e-04,
733,-2.40e-04,
734,-1.60e-04,
735,2.40e-04,
736,-2.40e-04,
737,3.20e-04,
738,1.60e-04,
739,-2.40e-04,
740,-2.40e-04,
741,3.20e-04,
742,1.60e-04,
743,-2.40e-04,
744,-2.40e-04,
745,3.20e-04,
746,-2.40e-04,
747,3.20e-04,
748,-2.40e-04,
749,2.40e-04,
750,2.40e-04,
751,-2.40e-04,
752,2.40e-04,
753,-2.40e-04,
754,1.60e-04,
755,-4.00e-04,
756,-1.60e-04,
757,2.40e-04,
758,1.60e-04,
759,-2.40e-04,
760,1.60e-04,
761,-2.40e-04,
762,1.60e-04,
763,-2.40e-04,
764,1.60e-04,
765,-2.40e-04,
766,1.60e-04,
767,-4.00e-04,
768,2.40e-04,
769,-2.40e-04,
770,3.20e-04,
771,-2.40e-04,
772,3.20e-04,
773,-2.40e-04,
774,3.20e-04,
775,-4.00e-04,
776,1.60e-04,
777,-2.40e-04,
778,-2.40e-04,
779,3.20e-04,
780,1.60e-04,
781,-2.40e-04,
782,1.60e-04,
783,-2.40e-04,
784,2.40e-04,
785,-2.40e-04,
786,-2.40e-04,
787,1.60e-04,
788,-1.60e-04,
789,1.60e-04,
790,-4.00e-04,
791,3.20e-04,
792,-2.40e-04,
793,1.60e-04,
794,-2.40e-04,
795,1.60e-04,
796,-2.40e-04,
797,2.40e-04,
798,-2.40e-04,
799,2.40e-04,
800,3.20e-04,
801,-2.40e-04,
802,-1.60e-04,
803,2.40e-04,
804,-2.40e-04,
805,4.00e-04,
806,3.20e-04,
807,-2.40e-04,
808,2.40e-04,
809,-2.40e-04,
810,1.60e-04,
811,-2.40e-04,
812,2.40e-04,
813,-2.40e-04,
814,-2.40e-04,
815,2.40e-04,
816,1.60e-04,
817,-2.40e-04,
818,2.40e-04,
819,-2.40e-04,
820,-2.40e-04,
821,1.60e-04,
822,-2.40e-04,
823,1.60e-04,
824,-2.40e-04,
825,3.20e-04,
826,-2.40e-04,
827,1.60e-04,
828,1.60e-04,
829,-2.40e-04,
830,-2.40e-04,
831,1.60e-04,
832,-1.60e-04,
833,3.20e-04,
834,2.40e-04,
835,-2.40e-04,
836,1.60e-04,
837,-2.40e-04,
838,2.40e-04,
839,-2.40e-04,
840,3.20e-04,
841,-3.20e-04,
842,-2.40e-04,
843,3.20e-04,
844,1.60e-04,
845,-2.40e-04,
846,-2.40e-04,
847,1.60e-04,
848,3.20e-04,
849,-2.40e-04,
850,-4.00e-04,
851,3.20e-04,
852,-2.40e-04,
853,3.20e-04,
854,-2.40e-04,
855,1.60e-04,
856,2.40e-04,
857,-2.40e-04,
858,-2.40e-04,
859,3.20e-04,
860,3.20e-04,
861,-2.40e-04,
862,-2.40e-04,
863,2.40e-04,
864,1.60e-04,
865,-2.40e-04,
866,-2.40e-04,
867,2.40e-04,
868,1.60e-04,
869,-2.40e-04,
870,-2.40e-04,
871,2.40e-04,
872,-2.40e-04,
873,3.20e-04,
874,-2.40e-04,
875,3.20e-04,
876,-2.40e-04,
877,3.20e-04,
878,1.60e-04,
879,-2.40e-04,
880,-2.40e-04,
881,2.40e-04,
882,2.40e-04,
883,-3.20e-04,
884,1.60e-04,
885,-2.40e-04,
886,-2.40e-04,
887,1.60e-04,
888,2.40e-04,
889,-2.40e-04,
890,1.60e-04,
891,-2.40e-04,
892,1.60e-04,
893,-2.40e-04,
894,-1.60e-04,
895,1.60e-04,
896,-1.60e-04,
897,3.20e-04,
898,1.60e-04,
899,-2.40e-04,
900,2.40e-04,
901,-2.40e-04,
902,1.60e-04,
903,-2.40e-04,
904,3.20e-04,
905,-2.40e-04,
906,1.60e-04,
907,-3.20e-04,
908,1.60e-04,
909,-4.00e-04,
910,-2.40e-04,
911,2.40e-04,
912,1.60e-04,
913,-2.40e-04,
914,-2.40e-04,
915,2.40e-04,
916,1.60e-04,
917,-2.40e-04,
918,1.60e-04,
919,-2.40e-04,
920,3.20e-04,
921,-3.20e-04,
922,-2.40e-04,
923,3.20e-04,
924,1.60e-04,
925,-2.40e-04,
926,3.20e-04,
927,-2.40e-04,
928,1.60e-04,
929,-2.40e-04,
930,1.60e-04,
931,-2.40e-04,
932,1.60e-04,
933,-2.40e-04,
934,-2.40e-04,
935,3.20e-04,
936,1.60e-04,
937,-2.40e-04,
938,1.60e-04,
939,-2.40e-04,
940,-2.40e-04,
941,3.20e-04,
942,-2.40e-04,
943,1.60e-04,
944,-2.40e-04,
945,1.60e-04,
946,3.20e-04,
947,-4.00e-04,
948,-2.40e-04,
949,1.60e-04,
950,-4.00e-04,
951,1.60e-04,
952,1.60e-04,
953,-2.40e-04,
954,1.60e-04,
955,-2.40e-04,
956,-2.40e-04,
957,3.20e-04,
958,2.40e-04,
959,-2.40e-04,
960,1.60e-04,
961,-2.40e-04,
962,-2.40e-04,
963,1.60e-04,
964,-2.40e-04,
965,2.40e-04,
966,-1.60e-04,
967,3.20e-04,
968,-2.40e-04,
969,1.60e-04,
970,-2.40e-04,
971,3.20e-04,
972,3.20e-04,
973,-2.40e-04,
974,1.60e-04,
975,-2.40e-04,
976,1.60e-04,
977,-2.40e-04,
978,2.40e-04,
979,-2.40e-04,
980,-4.00e-04,
981,2.40e-04,
982,1.60e-04,
983,-2.40e-04,
984,1.60e-04,
985,-2.40e-04,
986,3.20e-04,
987,-2.40e-04,
988,1.60e-04,
989,-4.00e-04,
990,-2.40e-04,
991,2.40e-04,
992,-2.40e-04,
993,1.60e-04,
994,-4.00e-04,
995,3.20e-04,
996,3.20e-04,
997,-2.40e-04,
998,-4.00e-04,
999,2.40e-04,
1000,-2.40e-04,
1001,3.20e-04,
1002,3.20e-04,
1003,-2.40e-04,
1004,1.60e-04,
1005,-2.40e-04,
1006,1.60e-04,
1007,-2.40e-04,
1008,3.20e-04,
1009,-4.00e-04,
1010,2.40e-04,
1011,-2.40e-04,
1012,-1.60e-04,
1013,3.20e-04,
1014,3.20e-04,
1015,-2.40e-04,
1016,1.60e-04,
1017,-2.40e-04,
1018,-2.40e-04,
1019,3.20e-04,
1020,-1.60e-04,
1021,2.40e-04,
1022,1.60e-04,
1023,-2.40e-04,
1024,3.20e-04,
1025,-2.40e-04,
1026,-2.40e-04,
1027,1.60e-04,
1028,1.60e-04,
1029,-2.40e-04,
1030,-2.40e-04,
1031,1.60e-04,
1032,3.20e-04,
1033,-2.40e-04,
1034,1.60e-04,
1035,-2.40e-04,
1036,1.60e-04,
1037,-2.40e-04,
1038,1.60e-04,
1039,-2.40e-04,
1040,1.60e-04,
1041,-2.40e-04,
1042,1.60e-04,
1043,-2.40e-04,
1044,3.20e-04,
1045,-4.80e-04,
1046,-2.40e-04,
1047,1.60e-04,
1048,-2.40e-04,
1049,3.20e-04,
1050,3.20e-04,
1051,-2.40e-04,
1052,-2.40e-04,
1053,1.60e-04,
1054,-2.40e-04,
1055,2.40e-04,
1056,3.20e-04,
1057,-2.40e-04,
1058,3.20e-04,
1059,-2.40e-04,
1060,1.60e-04,
1061,-1.60e-04,
1062,1.60e-04,
1063,-2.40e-04,
1064,-2.40e-04,
1065,3.20e-04,
1066,-2.40e-04,
1067,3.20e-04,
1068,1.60e-04,
1069,-2.40e-04,
1070,-2.40e-04,
1071,1.60e-04,
1072,1.60e-04,
1073,-4.00e-04,
1074,-2.40e-04,
1075,3.20e-04,
1076,1.60e-04,
1077,-2.40e-04,
1078,1.60e-04,
1079,-2.40e-04,
1080,1.60e-04,
1081,-2.40e-04,
1082,-2.40e-04,
1083,3.20e-04,
1084,2.40e-04,
1085,-2.40e-04,
1086,1.60e-04,
1087,-2.40e-04,
1088,1.60e-04,
1089,-2.40e-04,
1090,-2.40e-04,
1091,3.20e-04,
1092,-1.60e-04,
1093,2.40e-04,
1094,-2.40e-04,
1095,1.60e-04,
1096,2.40e-04,
1097,-2.40e-04,
1098,3.20e-04,
1099,-2.40e-04,
1100,-2.40e-04,
1101,1.60e-04,
1102,1.60e-04,
1103,-4.00e-04,
1104,-2.40e-04,
1105,2.40e-04,
1106,2.40e-04,
1107,-2.40e-04,
1108,3.20e-04,
1109,-4.00e-04,
1110,1.60e-04,
1111,-2.40e-04,
1112,1.60e-04,
1113,-2.40e-04,
1114,2.40e-04,
1115,-2.40e-04,
1116,-2.40e-04,
1117,1.60e-04,
1118,-1.60e-04,
1119,3.20e-04,
1120,1.60e-04,
1121,-2.40e-04,
1122,1.60e-04,
1123,-2.40e-04,
1124,-2.40e-04,
1125,3.20e-04,
1126,1.60e-04,
1127,-2.40e-04,
1128,1.60e-04,
1129,-2.40e-04,
1130,-2.40e-04,
1131,3.20e-04,
1132,1.60e-04,
1133,-2.40e-04,
1134,1.60e-04,
1135,-2.40e-04,
1136,-2.40e-04,
1137,2.40e-04,
1138,1.60e-04,
1139,-2.40e-04,
1140,1.60e-04,
1141,-2.40e-04,
1142,-2.40e-04,
1143,2.40e-04,
1144,1.60e-04,
1145,-2.40e-04,
1146,1.60e-04,
1147,-2.40e-04,
1148,3.20e-04,
1149,-2.40e-04,
1150,1.60e-04,
1151,-2.40e-04,
1152,-1.60e-04,
1153,3.20e-04,
1154,-2.40e-04,
1155,2.40e-04,
1156,1.60e-04,
1157,-2.40e-04,
1158,-1.60e-04,
1159,3.20e-04,
1160,1.60e-04,
1161,-1.60e-04,
1162,1.60e-04,
1163,-2.40e-04,
1164,-2.40e-04,
1165,3.20e-04,
1166,-2.40e-04,
1167,3.20e-04,
1168,-3.20e-04,
1169,3.20e-04,
1170,3.20e-04,
1171,-2.40e-04,
1172,-2.40e-04,
1173,3.20e-04,
1174,-2.40e-04,
1175,3.20e-04,
1176,-2.40e-04,
1177,3.20e-04,
1178,1.60e-04,
1179,-2.40e-04,
1180,1.60e-04,
1181,-2.40e-04,
1182,1.60e-04,
1183,-2.40e-04,
1184,-2.40e-04,
1185,1.60e-04,
1186,1.60e-04,
1187,-2.40e-04,
1188,-2.40e-04,
1189,2.40e-04,
1190,-2.40e-04,
1191,2.40e-04,
1192,-2.40e-04,
1193,3.20e-04,
1194,-1.60e-04,
1195,3.20e-04,
1196,-1.60e-04,
1197,3.20e-04,
1198,3.20e-04,
1199,-2.40e-04,
