fastdiffamp/data-noise-set/bal-demod/NewFile17.csv

X,CH1,Start,Increment,
Sequence,Volt,-5.490000e+00,1.000000e-02
0,-2.40e-04,
1,2.00e-04,
2,2.40e-04,
3,-1.60e-04,
4,-1.60e-04,
5,1.60e-04,
6,-1.60e-04,
7,2.40e-04,
8,1.60e-04,
9,-1.60e-04,
10,2.80e-04,
11,-1.60e-04,
12,-8.00e-05,
13,1.60e-04,
14,-8.00e-05,
15,1.60e-04,
16,2.40e-04,
17,-8.00e-05,
18,-8.00e-05,
19,1.60e-04,
20,1.60e-04,
21,-1.60e-04,
22,-1.60e-04,
23,2.00e-04,
24,-2.40e-04,
25,1.60e-04,
26,-1.60e-04,
27,1.60e-04,
28,2.00e-04,
29,-1.60e-04,
30,2.00e-04,
31,-1.60e-04,
32,-1.60e-04,
33,1.60e-04,
34,-8.00e-05,
35,2.40e-04,
36,1.60e-04,
37,-8.00e-05,
38,2.40e-04,
39,-1.60e-04,
40,1.20e-04,
41,-2.40e-04,
42,2.00e-04,
43,-1.60e-04,
44,-1.60e-04,
45,1.60e-04,
46,2.40e-04,
47,-1.60e-04,
48,-8.00e-05,
49,1.60e-04,
50,-1.60e-04,
51,1.60e-04,
52,-8.00e-05,
53,1.60e-04,
54,2.40e-04,
55,-1.60e-04,
56,2.00e-04,
57,-1.60e-04,
58,1.60e-04,
59,-2.40e-04,
60,-2.40e-04,
61,2.40e-04,
62,3.20e-04,
63,-2.40e-04,
64,-1.60e-04,
65,1.60e-04,
66,-1.60e-04,
67,2.40e-04,
68,2.40e-04,
69,-1.60e-04,
70,2.40e-04,
71,-8.00e-05,
72,1.60e-04,
73,-1.60e-04,
74,-8.00e-05,
75,2.00e-04,
76,2.00e-04,
77,-1.60e-04,
78,-1.60e-04,
79,2.00e-04,
80,2.00e-04,
81,-1.60e-04,
82,-1.60e-04,
83,2.00e-04,
84,-1.60e-04,
85,2.00e-04,
86,-8.00e-05,
87,1.60e-04,
88,1.60e-04,
89,-8.00e-05,
90,-1.60e-04,
91,2.40e-04,
92,-1.60e-04,
93,3.20e-04,
94,-1.60e-04,
95,2.40e-04,
96,2.40e-04,
97,-8.00e-05,
98,-8.00e-05,
99,2.80e-04,
100,1.60e-04,
101,-1.60e-04,
102,2.40e-04,
103,-1.60e-04,
104,1.60e-04,
105,-1.60e-04,
106,1.60e-04,
107,-1.60e-04,
108,2.00e-04,
109,-1.60e-04,
110,-1.60e-04,
111,1.60e-04,
112,-8.00e-05,
113,1.60e-04,
114,-1.60e-04,
115,1.60e-04,
116,2.00e-04,
117,-1.60e-04,
118,-8.00e-05,
119,2.40e-04,
120,-8.00e-05,
121,2.40e-04,
122,-1.60e-04,
123,2.00e-04,
124,2.40e-04,
125,-1.60e-04,
126,-8.00e-05,
127,1.60e-04,
128,-1.60e-04,
129,1.60e-04,
130,-8.00e-05,
131,2.00e-04,
132,1.60e-04,
133,-1.60e-04,
134,1.60e-04,
135,-1.60e-04,
136,-1.60e-04,
137,1.60e-04,
138,1.60e-04,
139,-8.00e-05,
140,-1.60e-04,
141,1.60e-04,
142,2.00e-04,
143,-1.60e-04,
144,-1.60e-04,
145,2.00e-04,
146,2.40e-04,
147,-8.00e-05,
148,1.60e-04,
149,-1.60e-04,
150,2.40e-04,
151,-8.00e-05,
152,-8.00e-05,
153,2.40e-04,
154,1.60e-04,
155,-1.60e-04,
156,1.20e-04,
157,-1.60e-04,
158,-1.60e-04,
159,2.00e-04,
160,2.40e-04,
161,-8.00e-05,
162,-1.60e-04,
163,1.60e-04,
164,1.60e-04,
165,-1.60e-04,
166,2.40e-04,
167,-1.60e-04,
168,1.60e-04,
169,-1.60e-04,
170,2.00e-04,
171,-1.60e-04,
172,-1.60e-04,
173,2.40e-04,
174,1.60e-04,
175,-1.60e-04,
176,1.60e-04,
177,-2.40e-04,
178,2.40e-04,
179,-1.60e-04,
180,2.40e-04,
181,-1.60e-04,
182,-1.60e-04,
183,1.60e-04,
184,2.40e-04,
185,-8.00e-05,
186,2.40e-04,
187,-1.60e-04,
188,1.60e-04,
189,-8.00e-05,
190,-8.00e-05,
191,2.00e-04,
192,1.60e-04,
193,-1.60e-04,
194,-8.00e-05,
195,2.00e-04,
196,-1.60e-04,
197,1.60e-04,
198,2.00e-04,
199,-1.60e-04,
200,-1.60e-04,
201,8.00e-05,
202,-8.00e-05,
203,2.00e-04,
204,2.00e-04,
205,-1.60e-04,
206,1.60e-04,
207,-2.40e-04,
208,1.60e-04,
209,-1.60e-04,
210,2.40e-04,
211,-1.60e-04,
212,2.00e-04,
213,-1.60e-04,
214,2.00e-04,
215,-1.60e-04,
216,2.00e-04,
217,-1.60e-04,
218,-1.60e-04,
219,1.60e-04,
220,-2.40e-04,
221,2.00e-04,
222,1.60e-04,
223,-1.60e-04,
224,-1.60e-04,
225,1.60e-04,
226,-1.60e-04,
227,1.20e-04,
228,-1.60e-04,
229,1.60e-04,
230,-1.60e-04,
231,1.60e-04,
232,1.60e-04,
233,-1.60e-04,
234,-2.40e-04,
235,2.40e-04,
236,1.60e-04,
237,-1.60e-04,
238,-1.60e-04,
239,2.40e-04,
240,2.40e-04,
241,-1.60e-04,
242,1.60e-04,
243,-8.00e-05,
244,-1.60e-04,
245,2.00e-04,
246,2.00e-04,
247,-1.60e-04,
248,1.60e-04,
249,-8.00e-05,
250,2.40e-04,
251,-1.60e-04,
252,-1.60e-04,
253,2.40e-04,
254,2.40e-04,
255,-8.00e-05,
256,-1.60e-04,
257,2.40e-04,
258,2.80e-04,
259,-8.00e-05,
260,2.00e-04,
261,-1.60e-04,
262,-2.40e-04,
263,2.00e-04,
264,2.40e-04,
265,-1.60e-04,
266,-1.60e-04,
267,2.40e-04,
268,-8.00e-05,
269,2.40e-04,
270,2.40e-04,
271,-1.60e-04,
272,1.60e-04,
273,-1.60e-04,
274,1.60e-04,
275,-1.60e-04,
276,-1.60e-04,
277,2.40e-04,
278,-1.60e-04,
279,1.60e-04,
280,2.40e-04,
281,-1.60e-04,
282,-8.00e-05,
283,1.60e-04,
284,2.40e-04,
285,-8.00e-05,
286,-8.00e-05,
287,2.80e-04,
288,2.40e-04,
289,-8.00e-05,
290,2.00e-04,
291,-1.60e-04,
292,1.60e-04,
293,-2.40e-04,
294,-8.00e-05,
295,2.40e-04,
296,-8.00e-05,
297,2.40e-04,
298,1.60e-04,
299,-1.60e-04,
300,1.60e-04,
301,-1.60e-04,
302,-1.60e-04,
303,1.60e-04,
304,-1.60e-04,
305,2.00e-04,
306,2.00e-04,
307,-1.60e-04,
308,-1.60e-04,
309,2.40e-04,
310,1.60e-04,
311,-1.60e-04,
312,2.40e-04,
313,-1.60e-04,
314,2.40e-04,
315,-1.60e-04,
316,-8.00e-05,
317,2.40e-04,
318,1.60e-04,
319,-1.60e-04,
320,2.40e-04,
321,-1.60e-04,
322,2.40e-04,
323,-1.60e-04,
324,1.60e-04,
325,-1.60e-04,
326,-1.60e-04,
327,2.80e-04,
328,-1.60e-04,
329,2.40e-04,
330,-1.60e-04,
331,2.40e-04,
332,2.00e-04,
333,-1.60e-04,
334,-8.00e-05,
335,2.40e-04,
336,1.60e-04,
337,-1.60e-04,
338,-8.00e-05,
339,1.60e-04,
340,1.60e-04,
341,-1.60e-04,
342,2.40e-04,
343,-1.60e-04,
344,-1.60e-04,
345,2.40e-04,
346,-2.40e-04,
347,2.40e-04,
348,-8.00e-05,
349,2.00e-04,
350,2.40e-04,
351,-1.60e-04,
352,2.40e-04,
353,-1.60e-04,
354,-8.00e-05,
355,2.40e-04,
356,-8.00e-05,
357,2.00e-04,
358,-8.00e-05,
359,1.60e-04,
360,1.60e-04,
361,-1.60e-04,
362,1.60e-04,
363,-1.60e-04,
364,2.00e-04,
365,-2.40e-04,
366,-1.60e-04,
367,2.40e-04,
368,2.40e-04,
369,-1.60e-04,
370,-1.60e-04,
371,1.60e-04,
372,-1.60e-04,
373,2.40e-04,
374,1.60e-04,
375,-1.60e-04,
376,-1.60e-04,
377,2.00e-04,
378,2.00e-04,
379,-1.60e-04,
380,-1.60e-04,
381,2.40e-04,
382,-1.60e-04,
383,1.60e-04,
384,1.60e-04,
385,-2.40e-04,
386,-8.00e-05,
387,2.40e-04,
388,1.60e-04,
389,-1.60e-04,
390,1.60e-04,
391,-1.60e-04,
392,-1.60e-04,
393,2.00e-04,
394,-8.00e-05,
395,2.00e-04,
396,1.60e-04,
397,-1.60e-04,
398,1.60e-04,
399,-2.40e-04,
400,2.00e-04,
401,-2.40e-04,
402,1.60e-04,
403,-1.60e-04,
404,-1.60e-04,
405,1.60e-04,
406,-1.60e-04,
407,2.00e-04,
408,2.40e-04,
409,-2.40e-04,
410,1.60e-04,
411,-1.60e-04,
412,-2.40e-04,
413,1.60e-04,
414,1.60e-04,
415,-1.60e-04,
416,-1.60e-04,
417,2.00e-04,
418,2.40e-04,
419,-1.60e-04,
420,1.60e-04,
421,-1.60e-04,
422,2.00e-04,
423,-8.00e-05,
424,1.60e-04,
425,-2.40e-04,
426,-1.20e-04,
427,2.40e-04,
428,2.40e-04,
429,-8.00e-05,
430,1.60e-04,
431,-1.60e-04,
432,1.60e-04,
433,-1.60e-04,
434,2.40e-04,
435,-1.60e-04,
436,1.60e-04,
437,-1.60e-04,
438,-8.00e-05,
439,2.40e-04,
440,2.40e-04,
441,-1.60e-04,
442,-1.60e-04,
443,1.60e-04,
444,1.60e-04,
445,-1.60e-04,
446,2.40e-04,
447,-1.60e-04,
448,2.40e-04,
449,-1.60e-04,
450,1.60e-04,
451,-2.40e-04,
452,-1.60e-04,
453,2.40e-04,
454,1.60e-04,
455,-1.60e-04,
456,-8.00e-05,
457,2.40e-04,
458,2.40e-04,
459,-1.60e-04,
460,2.40e-04,
461,-8.00e-05,
462,-2.40e-04,
463,2.00e-04,
464,-8.00e-05,
465,2.40e-04,
466,0.00e+00,
467,2.00e-04,
468,-8.00e-05,
469,1.60e-04,
470,-1.60e-04,
471,8.00e-05,
472,-8.00e-05,
473,2.40e-04,
474,2.40e-04,
475,-1.60e-04,
476,1.60e-04,
477,-1.60e-04,
478,2.40e-04,
479,-8.00e-05,
480,-1.60e-04,
481,2.00e-04,
482,2.80e-04,
483,-1.60e-04,
484,1.60e-04,
485,-1.60e-04,
486,-1.60e-04,
487,1.60e-04,
488,-1.60e-04,
489,1.60e-04,
490,2.00e-04,
491,-1.60e-04,
492,1.60e-04,
493,-1.60e-04,
494,1.60e-04,
495,-2.40e-04,
496,-2.40e-04,
497,1.60e-04,
498,2.00e-04,
499,-1.60e-04,
500,1.60e-04,
501,-2.40e-04,
502,1.60e-04,
503,-1.60e-04,
504,-1.60e-04,
505,1.60e-04,
506,1.60e-04,
507,-2.40e-04,
508,2.40e-04,
509,-1.60e-04,
510,-1.60e-04,
511,2.00e-04,
512,-8.00e-05,
513,2.80e-04,
514,1.60e-04,
515,-1.60e-04,
516,-1.60e-04,
517,1.60e-04,
518,-2.40e-04,
519,2.00e-04,
520,2.40e-04,
521,-2.40e-04,
522,-8.00e-05,
523,1.60e-04,
524,2.40e-04,
525,-1.60e-04,
526,1.60e-04,
527,-1.60e-04,
528,2.00e-04,
529,-8.00e-05,
530,1.60e-04,
531,-1.60e-04,
532,2.80e-04,
533,-1.60e-04,
534,1.60e-04,
535,-1.60e-04,
536,-1.60e-04,
537,1.60e-04,
538,2.40e-04,
539,-1.60e-04,
540,1.20e-04,
541,-1.60e-04,
542,-2.40e-04,
543,1.60e-04,
544,2.40e-04,
545,-2.40e-04,
546,-8.00e-05,
547,1.60e-04,
548,1.60e-04,
549,-2.40e-04,
550,-8.00e-05,
551,2.00e-04,
552,-1.60e-04,
553,2.40e-04,
554,-1.60e-04,
555,2.40e-04,
556,2.40e-04,
557,-1.60e-04,
558,-1.60e-04,
559,1.60e-04,
560,2.00e-04,
561,-2.40e-04,
562,2.00e-04,
563,-1.60e-04,
564,-1.60e-04,
565,1.60e-04,
566,-1.60e-04,
567,2.40e-04,
568,1.60e-04,
569,-2.40e-04,
570,-1.60e-04,
571,1.60e-04,
572,2.00e-04,
573,-1.60e-04,
574,-1.60e-04,
575,2.00e-04,
576,1.60e-04,
577,-2.40e-04,
578,1.60e-04,
579,-1.60e-04,
580,-1.60e-04,
581,1.60e-04,
582,-2.40e-04,
583,2.80e-04,
584,1.60e-04,
585,-1.60e-04,
586,-1.60e-04,
587,1.60e-04,
588,-1.60e-04,
589,1.20e-04,
590,1.60e-04,
591,-1.60e-04,
592,1.60e-04,
593,-1.60e-04,
594,1.60e-04,
595,-1.60e-04,
596,1.60e-04,
597,-3.20e-04,
598,2.40e-04,
599,-2.40e-04,
600,-1.60e-04,
601,1.60e-04,
602,1.60e-04,
603,-1.60e-04,
604,-1.60e-04,
605,1.60e-04,
606,1.60e-04,
607,-2.40e-04,
608,-1.60e-04,
609,1.60e-04,
610,1.20e-04,
611,-1.60e-04,
612,-1.60e-04,
613,2.00e-04,
614,1.60e-04,
615,-1.60e-04,
616,1.60e-04,
617,-2.40e-04,
618,-1.60e-04,
619,2.00e-04,
620,1.60e-04,
621,-8.00e-05,
622,-2.40e-04,
623,2.40e-04,
624,-1.60e-04,
625,2.00e-04,
626,1.60e-04,
627,-1.60e-04,
628,2.40e-04,
629,-8.00e-05,
630,1.60e-04,
631,-2.40e-04,
632,-1.60e-04,
633,2.00e-04,
634,2.40e-04,
635,-1.60e-04,
636,2.40e-04,
637,-1.20e-04,
638,-1.60e-04,
639,2.40e-04,
640,1.60e-04,
641,-1.60e-04,
642,-8.00e-05,
643,2.00e-04,
644,-8.00e-05,
645,2.40e-04,
646,1.60e-04,
647,-1.60e-04,
648,-8.00e-05,
649,2.40e-04,
650,-8.00e-05,
651,1.60e-04,
652,1.60e-04,
653,-1.60e-04,
654,-8.00e-05,
655,1.60e-04,
656,1.60e-04,
657,-1.60e-04,
658,-1.60e-04,
659,2.40e-04,
660,2.40e-04,
661,-1.60e-04,
662,1.60e-04,
663,-1.60e-04,
664,-1.60e-04,
665,1.60e-04,
666,1.20e-04,
667,-2.40e-04,
668,-1.60e-04,
669,2.40e-04,
670,2.40e-04,
671,-2.40e-04,
672,-2.40e-04,
673,1.60e-04,
674,2.00e-04,
675,-1.60e-04,
676,1.60e-04,
677,-1.60e-04,
678,-1.60e-04,
679,1.60e-04,
680,1.60e-04,
681,-2.40e-04,
682,-1.60e-04,
683,2.00e-04,
684,-8.00e-05,
685,2.40e-04,
686,2.00e-04,
687,-1.60e-04,
688,3.20e-04,
689,-2.40e-04,
690,2.00e-04,
691,-1.60e-04,
692,-8.00e-05,
693,2.00e-04,
694,2.40e-04,
695,-1.60e-04,
696,-8.00e-05,
697,1.60e-04,
698,1.60e-04,
699,-1.60e-04,
700,-1.60e-04,
701,2.40e-04,
702,-1.60e-04,
703,2.40e-04,
704,2.00e-04,
705,-2.40e-04,
706,-8.00e-05,
707,2.40e-04,
708,-1.60e-04,
709,1.60e-04,
710,2.40e-04,
711,-2.40e-04,
712,-1.60e-04,
713,2.00e-04,
714,-8.00e-05,
715,2.00e-04,
716,2.00e-04,
717,-1.60e-04,
718,-1.60e-04,
719,2.40e-04,
720,2.40e-04,
721,-8.00e-05,
722,2.00e-04,
723,-1.60e-04,
724,-1.60e-04,
725,2.00e-04,
726,1.60e-04,
727,-1.60e-04,
728,-1.60e-04,
729,2.40e-04,
730,-1.60e-04,
731,1.60e-04,
732,1.60e-04,
733,-1.60e-04,
734,2.00e-04,
735,-8.00e-05,
736,-1.60e-04,
737,2.40e-04,
738,-2.00e-04,
739,2.40e-04,
740,2.40e-04,
741,-1.60e-04,
742,-8.00e-05,
743,1.60e-04,
744,-1.60e-04,
745,2.40e-04,
746,-2.00e-04,
747,1.60e-04,
748,2.00e-04,
749,-8.00e-05,
750,-8.00e-05,
751,2.00e-04,
752,-1.60e-04,
753,2.00e-04,
754,-8.00e-05,
755,2.40e-04,
756,2.40e-04,
757,-8.00e-05,
758,-8.00e-05,
759,2.40e-04,
760,-1.20e-04,
761,2.40e-04,
762,-1.60e-04,
763,1.60e-04,
764,-1.60e-04,
765,1.60e-04,
766,-1.60e-04,
767,3.20e-04,
768,1.60e-04,
769,-1.60e-04,
770,8.00e-05,
771,-2.40e-04,
772,-1.60e-04,
773,2.40e-04,
774,2.00e-04,
775,-1.60e-04,
776,-2.40e-04,
777,1.60e-04,
778,8.00e-05,
779,-1.60e-04,
780,1.60e-04,
781,-2.40e-04,
782,-1.60e-04,
783,2.40e-04,
784,-1.60e-04,
785,1.60e-04,
786,-1.60e-04,
787,2.00e-04,
788,1.60e-04,
789,-2.40e-04,
790,1.60e-04,
791,-1.60e-04,
792,1.60e-04,
793,-1.60e-04,
794,1.60e-04,
795,-2.40e-04,
796,2.00e-04,
797,-2.40e-04,
798,-1.60e-04,
799,1.60e-04,
800,-8.00e-05,
801,2.80e-04,
802,1.60e-04,
803,-2.40e-04,
804,-2.40e-04,
805,1.60e-04,
806,1.20e-04,
807,-1.60e-04,
808,2.40e-04,
809,-1.60e-04,
810,-1.60e-04,
811,1.60e-04,
812,-2.40e-04,
813,1.20e-04,
814,2.40e-04,
815,-1.60e-04,
816,-1.60e-04,
817,2.00e-04,
818,1.60e-04,
819,-1.60e-04,
820,1.60e-04,
821,-1.60e-04,
822,2.40e-04,
823,-1.60e-04,
824,-2.40e-04,
825,2.00e-04,
826,1.20e-04,
827,-1.60e-04,
828,-1.60e-04,
829,1.60e-04,
830,-2.40e-04,
831,2.80e-04,
832,-1.60e-04,
833,1.60e-04,
834,-1.60e-04,
835,2.40e-04,
836,-1.60e-04,
837,2.40e-04,
838,-2.40e-04,
839,2.00e-04,
840,-1.60e-04,
841,2.40e-04,
842,1.60e-04,
843,-1.60e-04,
844,-8.00e-05,
845,2.40e-04,
846,-1.60e-04,
847,1.60e-04,
848,-8.00e-05,
849,2.40e-04,
850,2.40e-04,
851,-8.00e-05,
852,-1.60e-04,
853,2.40e-04,
854,-8.00e-05,
855,2.40e-04,
856,2.40e-04,
857,-8.00e-05,
858,2.00e-04,
859,-8.00e-05,
860,-1.60e-04,
861,2.40e-04,
862,1.60e-04,
863,-1.60e-04,
864,2.40e-04,
865,-1.60e-04,
866,1.60e-04,
867,-1.60e-04,
868,-1.60e-04,
869,2.40e-04,
870,-8.00e-05,
871,1.60e-04,
872,1.60e-04,
873,-1.60e-04,
874,-1.60e-04,
875,2.40e-04,
876,-1.60e-04,
877,2.00e-04,
878,2.40e-04,
879,-8.00e-05,
880,-1.60e-04,
881,2.40e-04,
882,-8.00e-05,
883,1.60e-04,
884,-1.60e-04,
885,1.60e-04,
886,-1.60e-04,
887,1.60e-04,
888,1.60e-04,
889,-2.00e-04,
890,-1.60e-04,
891,1.20e-04,
892,-1.60e-04,
893,2.00e-04,
894,-1.60e-04,
895,2.40e-04,
896,2.00e-04,
897,-1.60e-04,
898,1.60e-04,
899,-1.60e-04,
900,-1.60e-04,
901,1.60e-04,
902,-1.60e-04,
903,2.00e-04,
904,-1.60e-04,
905,2.40e-04,
906,1.60e-04,
907,-1.60e-04,
908,-1.60e-04,
909,2.40e-04,
910,-8.00e-05,
911,2.40e-04,
912,2.40e-04,
913,-1.60e-04,
914,-1.60e-04,
915,2.40e-04,
916,-1.60e-04,
917,1.60e-04,
918,-8.00e-05,
919,2.00e-04,
920,1.60e-04,
921,-1.60e-04,
922,-1.60e-04,
923,1.60e-04,
924,-1.60e-04,
925,1.60e-04,
926,-2.40e-04,
927,2.40e-04,
928,2.40e-04,
929,-2.40e-04,
930,-1.60e-04,
931,2.00e-04,
932,-1.60e-04,
933,2.40e-04,
934,1.60e-04,
935,-1.60e-04,
936,-1.60e-04,
937,2.00e-04,
938,2.00e-04,
939,-1.60e-04,
940,2.00e-04,
941,-1.60e-04,
942,2.40e-04,
943,-1.60e-04,
944,-1.60e-04,
945,1.60e-04,
946,-1.60e-04,
947,2.80e-04,
948,-1.60e-04,
949,2.40e-04,
950,2.40e-04,
951,-1.60e-04,
952,-2.00e-04,
953,1.60e-04,
954,-1.60e-04,
955,1.60e-04,
956,-1.60e-04,
957,2.40e-04,
958,-1.60e-04,
959,2.40e-04,
960,2.40e-04,
961,-1.60e-04,
962,-1.60e-04,
963,2.40e-04,
964,1.60e-04,
965,-2.40e-04,
966,2.00e-04,
967,-1.60e-04,
968,-2.40e-04,
969,2.40e-04,
970,2.40e-04,
971,-1.60e-04,
972,2.00e-04,
973,-1.60e-04,
974,-8.00e-05,
975,2.00e-04,
976,1.60e-04,
977,-1.60e-04,
978,1.60e-04,
979,-1.60e-04,
980,-2.40e-04,
981,2.40e-04,
982,2.40e-04,
983,-1.60e-04,
984,-1.60e-04,
985,2.40e-04,
986,2.00e-04,
987,-1.60e-04,
988,1.60e-04,
989,-3.20e-04,
990,-1.60e-04,
991,1.60e-04,
992,-8.00e-05,
993,2.00e-04,
994,-8.00e-05,
995,2.40e-04,
996,1.60e-04,
997,-1.60e-04,
998,2.40e-04,
999,-8.00e-05,
1000,2.40e-04,
1001,-1.60e-04,
1002,-1.60e-04,
1003,2.40e-04,
1004,-1.60e-04,
1005,2.00e-04,
1006,1.60e-04,
1007,-1.60e-04,
1008,8.00e-05,
1009,-1.60e-04,
1010,1.60e-04,
1011,-1.60e-04,
1012,-1.60e-04,
1013,1.60e-04,
1014,2.00e-04,
1015,-1.60e-04,
1016,2.80e-04,
1017,-1.60e-04,
1018,-8.00e-05,
1019,2.40e-04,
1020,-1.60e-04,
1021,2.40e-04,
1022,-1.60e-04,
1023,1.60e-04,
1024,-8.00e-05,
1025,2.80e-04,
1026,-8.00e-05,
1027,2.40e-04,
1028,-8.00e-05,
1029,1.60e-04,
1030,-1.60e-04,
1031,3.20e-04,
1032,-8.00e-05,
1033,3.20e-04,
1034,2.40e-04,
1035,-8.00e-05,
1036,2.40e-04,
1037,-1.60e-04,
1038,-1.60e-04,
1039,2.00e-04,
1040,1.60e-04,
1041,-1.60e-04,
1042,4.00e-04,
1043,-1.60e-04,
1044,1.60e-04,
1045,-1.60e-04,
1046,-1.60e-04,
1047,2.40e-04,
1048,2.40e-04,
1049,-1.60e-04,
1050,-8.00e-05,
1051,2.40e-04,
1052,1.60e-04,
1053,-2.40e-04,
1054,1.60e-04,
1055,-1.60e-04,
1056,-8.00e-05,
1057,1.60e-04,
1058,-8.00e-05,
1059,1.60e-04,
1060,-1.60e-04,
1061,1.60e-04,
1062,-2.40e-04,
1063,1.20e-04,
1064,-1.60e-04,
1065,1.60e-04,
1066,1.60e-04,
1067,-2.40e-04,
1068,-1.60e-04,
1069,1.20e-04,
1070,-1.60e-04,
1071,2.40e-04,
1072,-8.00e-05,
1073,2.40e-04,
1074,2.80e-04,
1075,-1.60e-04,
1076,-1.60e-04,
1077,2.80e-04,
1078,-1.60e-04,
1079,2.40e-04,
1080,-8.00e-05,
1081,2.40e-04,
1082,-8.00e-05,
1083,1.60e-04,
1084,-1.60e-04,
1085,1.60e-04,
1086,1.60e-04,
1087,-1.60e-04,
1088,-1.60e-04,
1089,1.60e-04,
1090,-1.60e-04,
1091,1.60e-04,
1092,1.60e-04,
1093,-1.60e-04,
1094,-2.40e-04,
1095,2.40e-04,
1096,1.60e-04,
1097,-1.60e-04,
1098,-1.60e-04,
1099,1.20e-04,
1100,-2.40e-04,
1101,2.40e-04,
1102,-1.60e-04,
1103,2.40e-04,
1104,1.20e-04,
1105,-1.60e-04,
1106,2.40e-04,
1107,-1.60e-04,
1108,-1.60e-04,
1109,2.40e-04,
1110,1.60e-04,
1111,-2.40e-04,
1112,2.00e-04,
1113,-1.60e-04,
1114,-1.60e-04,
1115,2.40e-04,
1116,-8.00e-05,
1117,2.00e-04,
1118,1.60e-04,
1119,-1.60e-04,
1120,-1.60e-04,
1121,1.60e-04,
1122,-1.20e-04,
1123,2.40e-04,
1124,2.40e-04,
1125,-1.60e-04,
1126,-1.60e-04,
1127,2.40e-04,
1128,-2.40e-04,
1129,1.60e-04,
1130,-1.60e-04,
1131,2.40e-04,
1132,2.40e-04,
1133,-8.00e-05,
1134,-8.00e-05,
1135,1.60e-04,
1136,2.00e-04,
1137,-8.00e-05,
1138,1.60e-04,
1139,-1.60e-04,
1140,2.40e-04,
1141,-1.60e-04,
1142,-2.40e-04,
1143,1.60e-04,
1144,-1.60e-04,
1145,1.60e-04,
1146,1.60e-04,
1147,-1.60e-04,
1148,-1.60e-04,
1149,2.40e-04,
1150,-1.60e-04,
1151,1.60e-04,
1152,-8.00e-05,
1153,2.40e-04,
1154,1.60e-04,
1155,-8.00e-05,
1156,-1.60e-04,
1157,1.20e-04,
1158,-1.60e-04,
1159,2.80e-04,
1160,8.00e-05,
1161,-8.00e-05,
1162,-8.00e-05,
1163,2.40e-04,
1164,1.60e-04,
1165,-1.60e-04,
1166,-1.60e-04,
1167,2.40e-04,
1168,1.60e-04,
1169,-1.60e-04,
1170,-1.60e-04,
1171,1.60e-04,
1172,-8.00e-05,
1173,1.60e-04,
1174,-1.60e-04,
1175,2.40e-04,
1176,-1.60e-04,
1177,1.60e-04,
1178,1.60e-04,
1179,-1.60e-04,
1180,-1.60e-04,
1181,1.60e-04,
1182,-2.40e-04,
1183,1.60e-04,
1184,1.60e-04,
1185,-1.60e-04,
1186,-1.60e-04,
1187,2.40e-04,
1188,-1.60e-04,
1189,1.60e-04,
1190,-8.00e-05,
1191,2.00e-04,
1192,2.40e-04,
1193,-1.60e-04,
1194,1.20e-04,
1195,-1.60e-04,
1196,-1.60e-04,
1197,2.40e-04,
1198,1.60e-04,
1199,-1.60e-04,
