fastdiffamp/data-noise-set/bal-demod/NewFile15.csv

X,CH1,Start,Increment,
Sequence,Volt,-5.490000e+00,1.000000e-02
0,1.60e-04,
1,-8.00e-05,
2,2.40e-04,
3,-1.60e-04,
4,1.60e-04,
5,-1.60e-04,
6,-8.00e-05,
7,2.00e-04,
8,-1.60e-04,
9,1.60e-04,
10,-1.60e-04,
11,2.00e-04,
12,-1.60e-04,
13,2.40e-04,
14,2.00e-04,
15,-1.60e-04,
16,-1.60e-04,
17,2.00e-04,
18,1.60e-04,
19,-1.60e-04,
20,1.60e-04,
21,-2.40e-04,
22,-8.00e-05,
23,2.00e-04,
24,-1.60e-04,
25,2.40e-04,
26,-8.00e-05,
27,2.00e-04,
28,-8.00e-05,
29,2.40e-04,
30,1.60e-04,
31,-8.00e-05,
32,2.00e-04,
33,-8.00e-05,
34,-1.60e-04,
35,2.40e-04,
36,-1.60e-04,
37,2.40e-04,
38,1.20e-04,
39,-1.60e-04,
40,-1.20e-04,
41,1.60e-04,
42,-1.60e-04,
43,2.40e-04,
44,1.60e-04,
45,-1.60e-04,
46,2.40e-04,
47,-8.00e-05,
48,-1.60e-04,
49,2.80e-04,
50,-1.60e-04,
51,2.40e-04,
52,2.40e-04,
53,-1.60e-04,
54,-8.00e-05,
55,1.60e-04,
56,-8.00e-05,
57,2.40e-04,
58,1.60e-04,
59,-1.60e-04,
60,1.60e-04,
61,-1.60e-04,
62,-1.60e-04,
63,1.60e-04,
64,1.60e-04,
65,-8.00e-05,
66,2.00e-04,
67,-1.60e-04,
68,-2.40e-04,
69,2.00e-04,
70,1.60e-04,
71,-1.60e-04,
72,2.40e-04,
73,-1.60e-04,
74,-8.00e-05,
75,2.00e-04,
76,-1.60e-04,
77,2.40e-04,
78,-1.60e-04,
79,2.00e-04,
80,-1.60e-04,
81,2.00e-04,
82,-1.60e-04,
83,2.40e-04,
84,-1.60e-04,
85,1.60e-04,
86,-1.60e-04,
87,2.40e-04,
88,-8.00e-05,
89,2.00e-04,
90,-1.60e-04,
91,2.80e-04,
92,1.60e-04,
93,-1.60e-04,
94,-1.60e-04,
95,2.40e-04,
96,1.60e-04,
97,-1.60e-04,
98,-1.60e-04,
99,2.00e-04,
100,1.60e-04,
101,-1.60e-04,
102,-8.00e-05,
103,2.00e-04,
104,-1.60e-04,
105,2.40e-04,
106,2.00e-04,
107,-2.40e-04,
108,-1.60e-04,
109,2.00e-04,
110,2.40e-04,
111,-1.60e-04,
112,-1.60e-04,
113,2.40e-04,
114,1.60e-04,
115,-8.00e-05,
116,-1.60e-04,
117,2.40e-04,
118,1.60e-04,
119,-1.60e-04,
120,1.60e-04,
121,-1.60e-04,
122,-1.60e-04,
123,1.60e-04,
124,-8.00e-05,
125,2.40e-04,
126,-1.60e-04,
127,2.40e-04,
128,2.40e-04,
129,-1.60e-04,
130,-1.60e-04,
131,2.40e-04,
132,1.60e-04,
133,-1.60e-04,
134,-1.60e-04,
135,2.40e-04,
136,-1.60e-04,
137,1.20e-04,
138,2.00e-04,
139,-1.60e-04,
140,-8.00e-05,
141,2.40e-04,
142,-8.00e-05,
143,2.00e-04,
144,2.40e-04,
145,-8.00e-05,
146,-8.00e-05,
147,2.40e-04,
148,2.80e-04,
149,-8.00e-05,
150,1.60e-04,
151,-1.60e-04,
152,1.60e-04,
153,-1.60e-04,
154,-8.00e-05,
155,2.40e-04,
156,1.60e-04,
157,-1.60e-04,
158,-1.60e-04,
159,2.00e-04,
160,-8.00e-05,
161,2.00e-04,
162,-8.00e-05,
163,2.40e-04,
164,-8.00e-05,
165,1.60e-04,
166,-1.60e-04,
167,2.40e-04,
168,2.00e-04,
169,-8.00e-05,
170,-8.00e-05,
171,2.00e-04,
172,-1.60e-04,
173,2.40e-04,
174,1.60e-04,
175,-8.00e-05,
176,1.60e-04,
177,-1.60e-04,
178,2.80e-04,
179,-8.00e-05,
180,-8.00e-05,
181,2.40e-04,
182,-1.60e-04,
183,2.00e-04,
184,2.40e-04,
185,-8.00e-05,
186,-1.60e-04,
187,3.20e-04,
188,-1.60e-04,
189,2.40e-04,
190,-8.00e-05,
191,2.40e-04,
192,-1.60e-04,
193,2.40e-04,
194,2.00e-04,
195,-1.60e-04,
196,-8.00e-05,
197,1.60e-04,
198,-8.00e-05,
199,2.40e-04,
200,1.60e-04,
201,-8.00e-05,
202,1.20e-04,
203,-1.60e-04,
204,-1.60e-04,
205,2.40e-04,
206,-8.00e-05,
207,2.40e-04,
208,-8.00e-05,
209,2.00e-04,
210,-1.60e-04,
211,2.40e-04,
212,2.00e-04,
213,-8.00e-05,
214,2.40e-04,
215,-8.00e-05,
216,-1.20e-04,
217,2.40e-04,
218,2.40e-04,
219,-8.00e-05,
220,-8.00e-05,
221,2.40e-04,
222,2.40e-04,
223,-8.00e-05,
224,1.60e-04,
225,-8.00e-05,
226,-1.60e-04,
227,2.40e-04,
228,-8.00e-05,
229,3.20e-04,
230,0.00e+00,
231,3.20e-04,
232,2.40e-04,
233,-8.00e-05,
234,-8.00e-05,
235,2.00e-04,
236,2.40e-04,
237,-8.00e-05,
238,2.40e-04,
239,-1.60e-04,
240,-1.60e-04,
241,1.60e-04,
242,-1.60e-04,
243,1.20e-04,
244,-1.60e-04,
245,2.40e-04,
246,1.60e-04,
247,-1.60e-04,
248,2.40e-04,
249,-1.60e-04,
250,-1.60e-04,
251,2.40e-04,
252,2.00e-04,
253,-8.00e-05,
254,-1.60e-04,
255,1.60e-04,
256,-1.60e-04,
257,1.60e-04,
258,-1.60e-04,
259,1.20e-04,
260,1.60e-04,
261,-1.60e-04,
262,1.60e-04,
263,-1.60e-04,
264,-1.60e-04,
265,2.40e-04,
266,-1.60e-04,
267,2.40e-04,
268,2.80e-04,
269,-1.60e-04,
270,-1.60e-04,
271,2.00e-04,
272,-1.60e-04,
273,2.40e-04,
274,-1.60e-04,
275,2.40e-04,
276,-8.00e-05,
277,1.60e-04,
278,1.60e-04,
279,-2.40e-04,
280,2.80e-04,
281,-1.60e-04,
282,-1.60e-04,
283,2.40e-04,
284,-1.60e-04,
285,2.40e-04,
286,-8.00e-05,
287,2.40e-04,
288,2.00e-04,
289,-1.60e-04,
290,-1.60e-04,
291,1.60e-04,
292,2.40e-04,
293,-1.60e-04,
294,-8.00e-05,
295,1.60e-04,
296,1.60e-04,
297,-1.60e-04,
298,-8.00e-05,
299,2.40e-04,
300,-1.60e-04,
301,2.40e-04,
302,-8.00e-05,
303,3.20e-04,
304,-8.00e-05,
305,2.40e-04,
306,-1.60e-04,
307,2.40e-04,
308,-8.00e-05,
309,2.40e-04,
310,-8.00e-05,
311,2.40e-04,
312,-1.60e-04,
313,2.40e-04,
314,-8.00e-05,
315,1.60e-04,
316,-1.60e-04,
317,2.40e-04,
318,-8.00e-05,
319,2.40e-04,
320,-1.60e-04,
321,2.00e-04,
322,1.60e-04,
323,-1.60e-04,
324,-1.60e-04,
325,3.20e-04,
326,-1.60e-04,
327,2.00e-04,
328,-1.60e-04,
329,2.40e-04,
330,-8.00e-05,
331,2.40e-04,
332,2.40e-04,
333,-1.60e-04,
334,1.60e-04,
335,-1.60e-04,
336,-1.60e-04,
337,2.80e-04,
338,1.60e-04,
339,-1.60e-04,
340,1.60e-04,
341,-1.60e-04,
342,-8.00e-05,
343,2.80e-04,
344,1.60e-04,
345,-1.60e-04,
346,1.60e-04,
347,-1.60e-04,
348,-1.60e-04,
349,2.40e-04,
350,-2.40e-04,
351,2.40e-04,
352,1.60e-04,
353,-8.00e-05,
354,2.00e-04,
355,-8.00e-05,
356,-1.60e-04,
357,2.40e-04,
358,8.00e-05,
359,-1.60e-04,
360,1.60e-04,
361,-1.60e-04,
362,-1.60e-04,
363,2.00e-04,
364,-1.60e-04,
365,2.40e-04,
366,-2.40e-04,
367,1.60e-04,
368,2.00e-04,
369,-8.00e-05,
370,-1.60e-04,
371,2.40e-04,
372,-1.60e-04,
373,2.40e-04,
374,-8.00e-05,
375,2.40e-04,
376,1.20e-04,
377,-1.60e-04,
378,2.00e-04,
379,-8.00e-05,
380,-1.60e-04,
381,1.60e-04,
382,-1.60e-04,
383,2.00e-04,
384,-1.60e-04,
385,2.40e-04,
386,-8.00e-05,
387,2.40e-04,
388,1.60e-04,
389,-1.60e-04,
390,-1.60e-04,
391,2.40e-04,
392,2.40e-04,
393,-2.40e-04,
394,-1.60e-04,
395,2.40e-04,
396,-1.60e-04,
397,2.40e-04,
398,-8.00e-05,
399,1.60e-04,
400,-8.00e-05,
401,2.40e-04,
402,2.40e-04,
403,-8.00e-05,
404,2.40e-04,
405,-1.60e-04,
406,-8.00e-05,
407,2.40e-04,
408,2.40e-04,
409,-8.00e-05,
410,-1.60e-04,
411,2.40e-04,
412,-1.20e-04,
413,2.40e-04,
414,2.40e-04,
415,-1.60e-04,
416,-8.00e-05,
417,1.60e-04,
418,2.80e-04,
419,-2.40e-04,
420,-8.00e-05,
421,2.40e-04,
422,-8.00e-05,
423,2.40e-04,
424,1.60e-04,
425,-1.60e-04,
426,-8.00e-05,
427,2.00e-04,
428,-1.60e-04,
429,2.00e-04,
430,2.40e-04,
431,-2.40e-04,
432,-1.60e-04,
433,1.60e-04,
434,1.60e-04,
435,-1.60e-04,
436,-1.60e-04,
437,2.00e-04,
438,-1.60e-04,
439,2.00e-04,
440,1.60e-04,
441,-1.60e-04,
442,1.60e-04,
443,-2.40e-04,
444,-1.60e-04,
445,2.00e-04,
446,-2.40e-04,
447,1.60e-04,
448,-1.60e-04,
449,2.40e-04,
450,1.60e-04,
451,-2.40e-04,
452,-1.60e-04,
453,1.60e-04,
454,1.60e-04,
455,-1.60e-04,
456,-1.60e-04,
457,2.00e-04,
458,-8.00e-05,
459,2.40e-04,
460,2.00e-04,
461,-1.60e-04,
462,8.00e-05,
463,-1.60e-04,
464,2.40e-04,
465,-1.60e-04,
466,1.60e-04,
467,-1.60e-04,
468,2.00e-04,
469,-1.60e-04,
470,1.60e-04,
471,-2.40e-04,
472,-1.60e-04,
473,1.20e-04,
474,2.40e-04,
475,-1.60e-04,
476,1.60e-04,
477,-1.60e-04,
478,-1.60e-04,
479,1.60e-04,
480,-1.60e-04,
481,1.60e-04,
482,-2.40e-04,
483,1.60e-04,
484,2.00e-04,
485,-1.60e-04,
486,-2.40e-04,
487,2.00e-04,
488,-1.60e-04,
489,1.60e-04,
490,1.60e-04,
491,-1.60e-04,
492,1.60e-04,
493,-1.60e-04,
494,-8.00e-05,
495,2.00e-04,
496,2.00e-04,
497,-1.60e-04,
498,-1.60e-04,
499,2.40e-04,
500,1.60e-04,
501,-2.40e-04,
502,1.60e-04,
503,-1.60e-04,
504,1.60e-04,
505,-1.60e-04,
506,-1.60e-04,
507,2.40e-04,
508,-1.60e-04,
509,2.00e-04,
510,1.60e-04,
511,-1.60e-04,
512,-8.00e-05,
513,2.40e-04,
514,-2.40e-04,
515,1.60e-04,
516,-1.60e-04,
517,2.40e-04,
518,1.60e-04,
519,-1.60e-04,
520,1.60e-04,
521,-1.60e-04,
522,1.60e-04,
523,-2.40e-04,
524,-1.60e-04,
525,2.40e-04,
526,-1.60e-04,
527,1.60e-04,
528,1.20e-04,
529,-2.40e-04,
530,-1.60e-04,
531,1.60e-04,
532,-1.60e-04,
533,8.00e-05,
534,-1.60e-04,
535,1.60e-04,
536,-1.60e-04,
537,2.00e-04,
538,-2.40e-04,
539,1.60e-04,
540,1.60e-04,
541,-2.40e-04,
542,-1.60e-04,
543,1.60e-04,
544,1.20e-04,
545,-1.60e-04,
546,2.00e-04,
547,-1.60e-04,
548,-1.60e-04,
549,1.60e-04,
550,-1.60e-04,
551,2.40e-04,
552,1.60e-04,
553,-1.60e-04,
554,-1.60e-04,
555,1.60e-04,
556,-2.40e-04,
557,2.40e-04,
558,-8.00e-05,
559,2.40e-04,
560,2.40e-04,
561,-1.60e-04,
562,-1.60e-04,
563,1.60e-04,
564,-1.60e-04,
565,1.60e-04,
566,1.60e-04,
567,-1.60e-04,
568,-1.60e-04,
569,2.40e-04,
570,-8.00e-05,
571,1.60e-04,
572,-1.60e-04,
573,1.60e-04,
574,2.40e-04,
575,-1.60e-04,
576,1.60e-04,
577,-2.40e-04,
578,-1.60e-04,
579,2.40e-04,
580,-1.60e-04,
581,1.60e-04,
582,3.20e-04,
583,-1.60e-04,
584,-1.60e-04,
585,2.00e-04,
586,-8.00e-05,
587,1.60e-04,
588,-1.60e-04,
589,2.40e-04,
590,2.40e-04,
591,-1.60e-04,
592,2.40e-04,
593,-8.00e-05,
594,-1.60e-04,
595,2.40e-04,
596,1.60e-04,
597,-8.00e-05,
598,-8.00e-05,
599,2.40e-04,
600,-1.60e-04,
601,2.40e-04,
602,-1.60e-04,
603,1.60e-04,
604,8.00e-05,
605,-2.40e-04,
606,-1.60e-04,
607,1.60e-04,
608,2.40e-04,
609,-1.60e-04,
610,3.20e-04,
611,-1.60e-04,
612,2.40e-04,
613,-8.00e-05,
614,-2.40e-04,
615,1.60e-04,
616,-1.60e-04,
617,2.40e-04,
618,-1.60e-04,
619,2.40e-04,
620,-1.60e-04,
621,1.20e-04,
622,-1.60e-04,
623,2.40e-04,
624,-1.60e-04,
625,1.60e-04,
626,-1.60e-04,
627,2.00e-04,
628,-8.00e-05,
629,2.00e-04,
630,-8.00e-05,
631,2.40e-04,
632,1.60e-04,
633,-1.60e-04,
634,-1.60e-04,
635,2.40e-04,
636,1.60e-04,
637,-8.00e-05,
638,2.40e-04,
639,-8.00e-05,
640,1.60e-04,
641,-8.00e-05,
642,2.00e-04,
643,-1.60e-04,
644,-1.60e-04,
645,2.00e-04,
646,-1.60e-04,
647,1.20e-04,
648,2.80e-04,
649,-2.40e-04,
650,-1.60e-04,
651,1.60e-04,
652,-1.60e-04,
653,2.40e-04,
654,-8.00e-05,
655,2.40e-04,
656,1.60e-04,
657,-1.60e-04,
658,-1.60e-04,
659,1.60e-04,
660,-1.60e-04,
661,1.60e-04,
662,2.00e-04,
663,-1.60e-04,
664,-2.40e-04,
665,1.60e-04,
666,2.80e-04,
667,-1.60e-04,
668,-8.00e-05,
669,1.60e-04,
670,1.60e-04,
671,-1.60e-04,
672,1.60e-04,
673,-1.60e-04,
674,1.60e-04,
675,-1.60e-04,
676,2.00e-04,
677,-1.60e-04,
678,-2.40e-04,
679,1.60e-04,
680,2.40e-04,
681,-1.60e-04,
682,-1.60e-04,
683,2.00e-04,
684,-1.60e-04,
685,1.60e-04,
686,-1.60e-04,
687,2.00e-04,
688,-8.00e-05,
689,1.60e-04,
690,2.00e-04,
691,-1.60e-04,
692,-8.00e-05,
693,2.40e-04,
694,-8.00e-05,
695,2.40e-04,
696,1.60e-04,
697,-1.60e-04,
698,-1.60e-04,
699,1.60e-04,
700,-1.60e-04,
701,1.60e-04,
702,-8.00e-05,
703,1.60e-04,
704,-1.60e-04,
705,2.00e-04,
706,1.60e-04,
707,-2.40e-04,
708,2.00e-04,
709,-1.60e-04,
710,1.60e-04,
711,-2.40e-04,
712,-1.60e-04,
713,2.00e-04,
714,1.60e-04,
715,-1.60e-04,
716,-1.60e-04,
717,1.60e-04,
718,1.60e-04,
719,-2.40e-04,
720,-1.60e-04,
721,1.20e-04,
722,1.60e-04,
723,-1.60e-04,
724,-1.60e-04,
725,2.40e-04,
726,-1.60e-04,
727,1.20e-04,
728,-1.60e-04,
729,1.60e-04,
730,-1.60e-04,
731,1.60e-04,
732,-1.60e-04,
733,1.60e-04,
734,2.40e-04,
735,-1.60e-04,
736,-8.00e-05,
737,2.00e-04,
738,2.40e-04,
739,-1.60e-04,
740,-1.60e-04,
741,8.00e-05,
742,-1.60e-04,
743,1.60e-04,
744,2.00e-04,
745,-1.60e-04,
746,-3.20e-04,
747,2.00e-04,
748,1.60e-04,
749,-1.60e-04,
750,-1.60e-04,
751,1.60e-04,
752,1.60e-04,
753,-1.60e-04,
754,1.20e-04,
755,-1.60e-04,
756,2.40e-04,
757,-1.60e-04,
758,-1.60e-04,
759,2.40e-04,
760,2.00e-04,
761,-1.60e-04,
762,2.40e-04,
763,-1.60e-04,
764,2.40e-04,
765,-1.60e-04,
766,1.20e-04,
767,-1.60e-04,
768,-1.60e-04,
769,1.20e-04,
770,1.60e-04,
771,-1.60e-04,
772,-1.60e-04,
773,1.60e-04,
774,-1.60e-04,
775,2.40e-04,
776,2.40e-04,
777,-1.60e-04,
778,-1.60e-04,
779,2.40e-04,
780,-8.00e-05,
781,2.40e-04,
782,1.60e-04,
783,-3.20e-04,
784,-8.00e-05,
785,2.40e-04,
786,1.60e-04,
787,-1.60e-04,
788,-1.60e-04,
789,2.40e-04,
790,1.60e-04,
791,-1.60e-04,
792,-1.60e-04,
793,1.60e-04,
794,-1.60e-04,
795,2.40e-04,
796,-8.00e-05,
797,2.00e-04,
798,2.40e-04,
799,-2.40e-04,
800,-1.60e-04,
801,1.60e-04,
802,-1.60e-04,
803,1.60e-04,
804,-8.00e-05,
805,2.40e-04,
806,-1.60e-04,
807,1.60e-04,
808,-8.00e-05,
809,1.60e-04,
810,-1.60e-04,
811,1.60e-04,
812,2.40e-04,
813,-1.60e-04,
814,-2.40e-04,
815,1.60e-04,
816,-1.60e-04,
817,2.40e-04,
818,-2.40e-04,
819,1.60e-04,
820,1.60e-04,
821,-8.00e-05,
822,-1.60e-04,
823,2.80e-04,
824,1.60e-04,
825,-1.60e-04,
826,-1.60e-04,
827,2.40e-04,
828,-1.60e-04,
829,1.60e-04,
830,-2.40e-04,
831,1.20e-04,
832,2.40e-04,
833,-1.60e-04,
834,-2.40e-04,
835,2.40e-04,
836,2.40e-04,
837,-2.40e-04,
838,-1.60e-04,
839,1.60e-04,
840,1.60e-04,
841,-1.60e-04,
842,-1.60e-04,
843,2.40e-04,
844,-1.60e-04,
845,1.60e-04,
846,2.40e-04,
847,-1.60e-04,
848,2.40e-04,
849,-8.00e-05,
850,1.60e-04,
851,-1.60e-04,
852,-2.40e-04,
853,2.40e-04,
854,1.60e-04,
855,-1.60e-04,
856,-8.00e-05,
857,1.60e-04,
858,1.60e-04,
859,-1.60e-04,
860,-1.60e-04,
861,1.60e-04,
862,2.80e-04,
863,-8.00e-05,
864,2.00e-04,
865,-8.00e-05,
866,-1.60e-04,
867,2.00e-04,
868,1.60e-04,
869,-1.60e-04,
870,2.40e-04,
871,-2.40e-04,
872,-1.60e-04,
873,2.40e-04,
874,-1.60e-04,
875,1.60e-04,
876,1.60e-04,
877,-2.40e-04,
878,1.60e-04,
879,-1.60e-04,
880,-1.60e-04,
881,2.00e-04,
882,-2.40e-04,
883,1.60e-04,
884,-2.40e-04,
885,2.00e-04,
886,-1.60e-04,
887,1.60e-04,
888,-1.60e-04,
889,2.40e-04,
890,-8.00e-05,
891,1.60e-04,
892,2.40e-04,
893,-1.60e-04,
894,-8.00e-05,
895,1.60e-04,
896,-1.60e-04,
897,1.60e-04,
898,-1.60e-04,
899,2.40e-04,
900,2.40e-04,
901,-8.00e-05,
902,1.60e-04,
903,-1.60e-04,
904,1.20e-04,
905,-2.40e-04,
906,-1.60e-04,
907,2.00e-04,
908,1.60e-04,
909,-1.60e-04,
910,2.40e-04,
911,-1.60e-04,
912,1.60e-04,
913,-8.00e-05,
914,1.60e-04,
915,-1.60e-04,
916,-1.60e-04,
917,2.00e-04,
918,-1.60e-04,
919,1.60e-04,
920,1.60e-04,
921,-1.60e-04,
922,-1.60e-04,
923,2.40e-04,
924,-1.60e-04,
925,2.00e-04,
926,-8.00e-05,
927,1.60e-04,
928,-1.60e-04,
929,1.60e-04,
930,-1.60e-04,
931,1.60e-04,
932,2.00e-04,
933,-1.60e-04,
934,1.60e-04,
935,-1.60e-04,
936,-1.60e-04,
937,2.00e-04,
938,-1.60e-04,
939,1.60e-04,
940,1.60e-04,
941,-1.60e-04,
942,2.40e-04,
943,-1.20e-04,
944,1.60e-04,
945,-1.60e-04,
946,-2.40e-04,
947,2.00e-04,
948,1.60e-04,
949,-1.60e-04,
950,-8.00e-05,
951,1.60e-04,
952,2.40e-04,
953,-2.40e-04,
954,1.60e-04,
955,-2.40e-04,
956,2.40e-04,
957,-2.40e-04,
958,1.60e-04,
959,-8.00e-05,
960,1.60e-04,
961,-2.40e-04,
962,-1.60e-04,
963,1.60e-04,
964,-8.00e-05,
965,2.00e-04,
966,2.40e-04,
967,-1.60e-04,
968,1.20e-04,
969,-1.60e-04,
970,-8.00e-05,
971,2.40e-04,
972,1.20e-04,
973,-1.60e-04,
974,1.60e-04,
975,-2.40e-04,
976,1.20e-04,
977,-1.60e-04,
978,-8.00e-05,
979,2.40e-04,
980,1.60e-04,
981,-1.60e-04,
982,-1.60e-04,
983,2.00e-04,
984,8.00e-05,
985,-1.60e-04,
986,-1.60e-04,
987,2.00e-04,
988,-2.40e-04,
989,1.60e-04,
990,1.60e-04,
991,-1.60e-04,
992,2.00e-04,
993,-2.40e-04,
994,-1.60e-04,
995,8.00e-05,
996,-1.60e-04,
997,1.60e-04,
998,-8.00e-05,
999,2.80e-04,
1000,2.00e-04,
1001,-1.60e-04,
1002,2.40e-04,
1003,-2.40e-04,
1004,-2.00e-04,
1005,2.00e-04,
1006,2.40e-04,
1007,-2.40e-04,
1008,-1.60e-04,
1009,2.00e-04,
1010,-1.60e-04,
1011,2.00e-04,
1012,-1.60e-04,
1013,1.60e-04,
1014,1.60e-04,
1015,-2.40e-04,
1016,1.60e-04,
1017,-2.40e-04,
1018,-2.40e-04,
1019,1.60e-04,
1020,-1.60e-04,
1021,1.60e-04,
1022,2.00e-04,
1023,-1.60e-04,
1024,-1.60e-04,
1025,1.60e-04,
1026,1.60e-04,
1027,-2.40e-04,
1028,-1.60e-04,
1029,2.00e-04,
1030,-1.60e-04,
1031,1.60e-04,
1032,-1.60e-04,
1033,2.40e-04,
1034,2.80e-04,
1035,-1.60e-04,
1036,-1.60e-04,
1037,1.60e-04,
1038,1.60e-04,
1039,-1.60e-04,
1040,1.20e-04,
1041,-2.40e-04,
1042,-1.60e-04,
1043,1.60e-04,
1044,-1.60e-04,
1045,1.60e-04,
1046,2.00e-04,
1047,-1.60e-04,
1048,1.60e-04,
1049,-2.40e-04,
1050,-1.60e-04,
1051,1.60e-04,
1052,-1.60e-04,
1053,1.60e-04,
1054,1.60e-04,
1055,-2.40e-04,
1056,-1.60e-04,
1057,1.20e-04,
1058,-1.60e-04,
1059,2.00e-04,
1060,-1.60e-04,
1061,2.40e-04,
1062,-1.60e-04,
1063,1.20e-04,
1064,1.60e-04,
1065,-1.60e-04,
1066,2.40e-04,
1067,-1.60e-04,
1068,2.40e-04,
1069,-1.60e-04,
1070,1.60e-04,
1071,-2.40e-04,
1072,-1.60e-04,
1073,1.60e-04,
1074,1.60e-04,
1075,-1.60e-04,
1076,1.60e-04,
1077,-1.60e-04,
1078,1.20e-04,
1079,-2.40e-04,
1080,1.20e-04,
1081,-2.40e-04,
1082,-1.60e-04,
1083,2.80e-04,
1084,1.60e-04,
1085,-1.60e-04,
1086,1.60e-04,
1087,-1.60e-04,
1088,2.40e-04,
1089,-2.40e-04,
1090,-1.60e-04,
1091,2.00e-04,
1092,-1.60e-04,
1093,1.60e-04,
1094,-8.00e-05,
1095,2.40e-04,
1096,2.00e-04,
1097,-1.60e-04,
1098,1.60e-04,
1099,-1.60e-04,
1100,1.60e-04,
1101,-2.40e-04,
1102,-1.60e-04,
1103,1.20e-04,
1104,1.60e-04,
1105,-2.40e-04,
1106,-1.60e-04,
1107,2.00e-04,
1108,2.40e-04,
1109,-1.60e-04,
1110,-8.00e-05,
1111,2.00e-04,
1112,-1.60e-04,
1113,2.40e-04,
1114,-1.60e-04,
1115,2.40e-04,
1116,2.40e-04,
1117,-1.60e-04,
1118,2.80e-04,
1119,-1.60e-04,
1120,1.60e-04,
1121,-1.60e-04,
1122,1.60e-04,
1123,-1.60e-04,
1124,-8.00e-05,
1125,2.00e-04,
1126,1.60e-04,
1127,-1.60e-04,
1128,2.80e-04,
1129,-8.00e-05,
1130,1.60e-04,
1131,-1.60e-04,
1132,1.60e-04,
1133,-2.40e-04,
1134,1.60e-04,
1135,-2.40e-04,
1136,1.60e-04,
1137,-1.60e-04,
1138,-1.60e-04,
1139,2.40e-04,
1140,-1.60e-04,
1141,2.40e-04,
1142,1.60e-04,
1143,-1.60e-04,
1144,1.60e-04,
1145,-1.60e-04,
1146,1.60e-04,
1147,-2.40e-04,
1148,-1.60e-04,
1149,1.60e-04,
1150,2.40e-04,
1151,-8.00e-05,
1152,2.00e-04,
1153,-2.40e-04,
1154,-2.40e-04,
1155,1.20e-04,
1156,1.60e-04,
1157,-1.60e-04,
1158,1.60e-04,
1159,-1.60e-04,
1160,-1.60e-04,
1161,2.00e-04,
1162,2.00e-04,
1163,-1.60e-04,
1164,-1.60e-04,
1165,2.40e-04,
1166,-2.40e-04,
1167,1.20e-04,
1168,-2.00e-04,
1169,1.20e-04,
1170,-1.60e-04,
1171,1.60e-04,
1172,-1.60e-04,
1173,1.20e-04,
1174,-8.00e-05,
1175,1.60e-04,
1176,-1.60e-04,
1177,1.60e-04,
1178,8.00e-05,
1179,-1.60e-04,
1180,1.60e-04,
1181,-1.60e-04,
1182,1.60e-04,
1183,-2.40e-04,
1184,2.40e-04,
1185,-1.60e-04,
1186,2.80e-04,
1187,-8.00e-05,
1188,-8.00e-05,
1189,2.00e-04,
1190,1.60e-04,
1191,-1.60e-04,
1192,2.40e-04,
1193,-8.00e-05,
1194,1.60e-04,
1195,-2.40e-04,
1196,-1.60e-04,
1197,2.40e-04,
1198,2.40e-04,
1199,-1.60e-04,
