fastdiffamp/data-noise-set/unb-left-mean/NewFile11.csv

X,CH1,Start,Increment,
Sequence,Volt,-5.990000e+00,1.000000e-02
0,-7.92e-01,
1,-7.08e-01,
2,-7.20e-01,
3,-7.92e-01,
4,-7.92e-01,
5,-7.16e-01,
6,-7.24e-01,
7,-7.96e-01,
8,-7.20e-01,
9,-7.84e-01,
10,-7.88e-01,
11,-7.16e-01,
12,-8.00e-01,
13,-7.20e-01,
14,-7.92e-01,
15,-7.20e-01,
16,-7.12e-01,
17,-8.04e-01,
18,-7.92e-01,
19,-7.20e-01,
20,-7.92e-01,
21,-7.20e-01,
22,-7.88e-01,
23,-7.20e-01,
24,-7.08e-01,
25,-7.92e-01,
26,-7.12e-01,
27,-7.92e-01,
28,-7.16e-01,
29,-7.92e-01,
30,-7.96e-01,
31,-7.12e-01,
32,-7.88e-01,
33,-7.20e-01,
34,-7.20e-01,
35,-7.92e-01,
36,-7.92e-01,
37,-7.24e-01,
38,-7.20e-01,
39,-7.88e-01,
40,-7.24e-01,
41,-7.88e-01,
42,-7.88e-01,
43,-7.20e-01,
44,-7.16e-01,
45,-7.92e-01,
46,-7.20e-01,
47,-7.88e-01,
48,-7.96e-01,
49,-7.24e-01,
50,-7.16e-01,
51,-7.96e-01,
52,-7.92e-01,
53,-7.12e-01,
54,-7.92e-01,
55,-7.12e-01,
56,-7.24e-01,
57,-8.00e-01,
58,-7.92e-01,
59,-7.12e-01,
60,-7.20e-01,
61,-8.04e-01,
62,-7.92e-01,
63,-7.08e-01,
64,-7.88e-01,
65,-7.12e-01,
66,-7.24e-01,
67,-7.88e-01,
68,-7.12e-01,
69,-7.96e-01,
70,-8.00e-01,
71,-7.16e-01,
72,-7.20e-01,
73,-7.84e-01,
74,-7.16e-01,
75,-8.00e-01,
76,-7.88e-01,
77,-7.00e-01,
78,-8.12e-01,
79,-7.04e-01,
80,-7.16e-01,
81,-8.04e-01,
82,-7.88e-01,
83,-7.16e-01,
84,-7.96e-01,
85,-7.08e-01,
86,-7.20e-01,
87,-7.92e-01,
88,-7.88e-01,
89,-7.04e-01,
90,-7.84e-01,
91,-7.12e-01,
92,-7.20e-01,
93,-7.96e-01,
94,-7.84e-01,
95,-7.24e-01,
96,-7.96e-01,
97,-7.24e-01,
98,-7.96e-01,
99,-7.20e-01,
100,-7.24e-01,
101,-7.92e-01,
102,-7.08e-01,
103,-7.92e-01,
104,-7.08e-01,
105,-8.04e-01,
106,-7.96e-01,
107,-7.16e-01,
108,-7.16e-01,
109,-7.92e-01,
110,-7.24e-01,
111,-7.96e-01,
112,-7.88e-01,
113,-7.12e-01,
114,-7.20e-01,
115,-8.00e-01,
116,-7.12e-01,
117,-7.88e-01,
118,-7.04e-01,
119,-7.96e-01,
120,-7.20e-01,
121,-8.08e-01,
122,-7.16e-01,
123,-7.92e-01,
124,-7.12e-01,
125,-7.96e-01,
126,-8.00e-01,
127,-7.16e-01,
128,-8.00e-01,
129,-7.20e-01,
130,-7.24e-01,
131,-7.92e-01,
132,-7.24e-01,
133,-7.92e-01,
134,-7.88e-01,
135,-7.12e-01,
136,-8.00e-01,
137,-7.24e-01,
138,-7.20e-01,
139,-7.96e-01,
140,-7.88e-01,
141,-7.16e-01,
142,-7.08e-01,
143,-8.04e-01,
144,-7.24e-01,
145,-7.92e-01,
146,-7.92e-01,
147,-7.04e-01,
148,-7.92e-01,
149,-7.20e-01,
150,-8.00e-01,
151,-7.16e-01,
152,-7.24e-01,
153,-7.92e-01,
154,-7.20e-01,
155,-7.92e-01,
156,-7.20e-01,
157,-7.88e-01,
158,-7.24e-01,
159,-7.88e-01,
160,-8.00e-01,
161,-7.12e-01,
162,-8.00e-01,
163,-7.16e-01,
164,-7.20e-01,
165,-7.92e-01,
166,-7.88e-01,
167,-7.08e-01,
168,-7.16e-01,
169,-7.96e-01,
170,-8.00e-01,
171,-7.12e-01,
172,-7.24e-01,
173,-8.00e-01,
174,-7.88e-01,
175,-7.20e-01,
176,-7.24e-01,
177,-7.88e-01,
178,-7.24e-01,
179,-8.00e-01,
180,-7.88e-01,
181,-7.20e-01,
182,-7.04e-01,
183,-7.92e-01,
184,-8.04e-01,
185,-7.08e-01,
186,-7.16e-01,
187,-7.88e-01,
188,-7.96e-01,
189,-7.20e-01,
190,-8.00e-01,
191,-7.24e-01,
192,-7.04e-01,
193,-7.96e-01,
194,-7.08e-01,
195,-7.92e-01,
196,-7.96e-01,
197,-7.16e-01,
198,-7.88e-01,
199,-7.08e-01,
200,-7.88e-01,
201,-7.24e-01,
202,-7.92e-01,
203,-7.16e-01,
204,-7.08e-01,
205,-7.92e-01,
206,-7.20e-01,
207,-7.92e-01,
208,-7.12e-01,
209,-7.92e-01,
210,-7.24e-01,
211,-7.88e-01,
212,-7.20e-01,
213,-7.88e-01,
214,-7.88e-01,
215,-7.12e-01,
216,-7.12e-01,
217,-7.88e-01,
218,-7.20e-01,
219,-7.88e-01,
220,-7.20e-01,
221,-8.08e-01,
222,-7.88e-01,
223,-7.08e-01,
224,-7.24e-01,
225,-8.08e-01,
226,-7.20e-01,
227,-8.04e-01,
228,-7.88e-01,
229,-7.08e-01,
230,-7.92e-01,
231,-7.24e-01,
232,-8.00e-01,
233,-7.08e-01,
234,-7.12e-01,
235,-7.88e-01,
236,-7.88e-01,
237,-7.16e-01,
238,-7.96e-01,
239,-7.16e-01,
240,-7.20e-01,
241,-7.92e-01,
242,-7.92e-01,
243,-7.20e-01,
244,-7.16e-01,
245,-8.00e-01,
246,-8.04e-01,
247,-7.24e-01,
248,-7.96e-01,
249,-7.12e-01,
250,-7.96e-01,
251,-7.12e-01,
252,-7.92e-01,
253,-7.16e-01,
254,-7.24e-01,
255,-8.00e-01,
256,-7.88e-01,
257,-7.16e-01,
258,-7.16e-01,
259,-7.92e-01,
260,-8.00e-01,
261,-7.12e-01,
262,-7.24e-01,
263,-8.04e-01,
264,-7.08e-01,
265,-7.92e-01,
266,-7.16e-01,
267,-7.92e-01,
268,-7.84e-01,
269,-7.20e-01,
270,-7.92e-01,
271,-7.12e-01,
272,-7.84e-01,
273,-7.04e-01,
274,-7.20e-01,
275,-7.88e-01,
276,-7.92e-01,
277,-7.12e-01,
278,-7.92e-01,
279,-7.20e-01,
280,-7.20e-01,
281,-8.16e-01,
282,-7.92e-01,
283,-7.24e-01,
284,-7.16e-01,
285,-7.88e-01,
286,-7.16e-01,
287,-7.92e-01,
288,-7.92e-01,
289,-7.24e-01,
290,-7.08e-01,
291,-8.04e-01,
292,-8.00e-01,
293,-7.20e-01,
294,-7.96e-01,
295,-7.12e-01,
296,-7.16e-01,
297,-7.92e-01,
298,-7.24e-01,
299,-7.88e-01,
300,-7.24e-01,
301,-7.88e-01,
302,-7.84e-01,
303,-7.20e-01,
304,-7.20e-01,
305,-8.00e-01,
306,-8.04e-01,
307,-7.16e-01,
308,-7.88e-01,
309,-7.20e-01,
310,-7.12e-01,
311,-8.00e-01,
312,-7.12e-01,
313,-7.92e-01,
314,-7.20e-01,
315,-7.92e-01,
316,-7.88e-01,
317,-7.24e-01,
318,-7.20e-01,
319,-7.88e-01,
320,-8.00e-01,
321,-7.20e-01,
322,-7.92e-01,
323,-7.00e-01,
324,-8.04e-01,
325,-7.12e-01,
326,-7.08e-01,
327,-7.84e-01,
328,-7.20e-01,
329,-7.88e-01,
330,-7.12e-01,
331,-7.88e-01,
332,-7.92e-01,
333,-7.16e-01,
334,-7.12e-01,
335,-8.00e-01,
336,-7.20e-01,
337,-7.96e-01,
338,-7.08e-01,
339,-7.88e-01,
340,-7.16e-01,
341,-8.00e-01,
342,-7.88e-01,
343,-7.24e-01,
344,-7.24e-01,
345,-7.88e-01,
346,-7.20e-01,
347,-8.04e-01,
348,-7.92e-01,
349,-7.12e-01,
350,-7.20e-01,
351,-7.92e-01,
352,-7.92e-01,
353,-7.12e-01,
354,-7.08e-01,
355,-7.96e-01,
356,-7.04e-01,
357,-7.92e-01,
358,-7.92e-01,
359,-7.24e-01,
360,-7.20e-01,
361,-8.00e-01,
362,-7.20e-01,
363,-8.00e-01,
364,-7.20e-01,
365,-7.96e-01,
366,-8.00e-01,
367,-7.08e-01,
368,-7.20e-01,
369,-8.04e-01,
370,-7.92e-01,
371,-7.12e-01,
372,-7.12e-01,
373,-7.88e-01,
374,-7.20e-01,
375,-7.92e-01,
376,-7.92e-01,
377,-7.08e-01,
378,-7.20e-01,
379,-7.88e-01,
380,-7.84e-01,
381,-7.12e-01,
382,-7.88e-01,
383,-7.20e-01,
384,-7.20e-01,
385,-7.96e-01,
386,-7.88e-01,
387,-7.12e-01,
388,-7.24e-01,
389,-7.92e-01,
390,-8.04e-01,
391,-7.16e-01,
392,-7.88e-01,
393,-7.20e-01,
394,-7.16e-01,
395,-7.88e-01,
396,-7.96e-01,
397,-7.20e-01,
398,-7.92e-01,
399,-7.20e-01,
400,-7.92e-01,
401,-7.08e-01,
402,-7.88e-01,
403,-7.20e-01,
404,-7.92e-01,
405,-7.16e-01,
406,-8.00e-01,
407,-7.20e-01,
408,-7.24e-01,
409,-7.88e-01,
410,-7.88e-01,
411,-7.04e-01,
412,-7.92e-01,
413,-7.20e-01,
414,-7.96e-01,
415,-7.12e-01,
416,-7.88e-01,
417,-7.12e-01,
418,-7.92e-01,
419,-7.24e-01,
420,-7.92e-01,
421,-7.12e-01,
422,-7.28e-01,
423,-8.04e-01,
424,-7.20e-01,
425,-7.92e-01,
426,-8.04e-01,
427,-7.12e-01,
428,-7.24e-01,
429,-7.96e-01,
430,-8.00e-01,
431,-7.16e-01,
432,-8.00e-01,
433,-7.20e-01,
434,-7.88e-01,
435,-7.04e-01,
436,-7.16e-01,
437,-7.96e-01,
438,-7.20e-01,
439,-7.88e-01,
440,-7.20e-01,
441,-7.88e-01,
442,-7.92e-01,
443,-7.20e-01,
444,-7.12e-01,
445,-8.00e-01,
446,-7.88e-01,
447,-7.16e-01,
448,-8.04e-01,
449,-7.20e-01,
450,-7.24e-01,
451,-7.92e-01,
452,-7.84e-01,
453,-7.08e-01,
454,-7.24e-01,
455,-7.96e-01,
456,-7.92e-01,
457,-7.08e-01,
458,-7.92e-01,
459,-7.20e-01,
460,-7.20e-01,
461,-7.96e-01,
462,-7.20e-01,
463,-7.84e-01,
464,-7.20e-01,
465,-7.88e-01,
466,-7.20e-01,
467,-7.92e-01,
468,-7.20e-01,
469,-7.88e-01,
470,-7.92e-01,
471,-7.20e-01,
472,-7.16e-01,
473,-7.92e-01,
474,-7.92e-01,
475,-7.08e-01,
476,-7.16e-01,
477,-7.88e-01,
478,-7.16e-01,
479,-7.88e-01,
480,-7.04e-01,
481,-7.92e-01,
482,-7.24e-01,
483,-7.96e-01,
484,-7.88e-01,
485,-7.20e-01,
486,-7.88e-01,
487,-7.08e-01,
488,-7.88e-01,
489,-7.24e-01,
490,-7.20e-01,
491,-7.88e-01,
492,-7.88e-01,
493,-7.24e-01,
494,-7.16e-01,
495,-7.92e-01,
496,-7.88e-01,
497,-7.12e-01,
498,-7.88e-01,
499,-7.20e-01,
500,-7.92e-01,
501,-7.20e-01,
502,-7.16e-01,
503,-7.88e-01,
504,-7.24e-01,
505,-7.92e-01,
506,-7.88e-01,
507,-7.12e-01,
508,-8.00e-01,
509,-7.16e-01,
510,-7.92e-01,
511,-7.08e-01,
512,-7.92e-01,
513,-7.12e-01,
514,-7.12e-01,
515,-7.92e-01,
516,-7.12e-01,
517,-8.04e-01,
518,-7.16e-01,
519,-7.88e-01,
520,-7.20e-01,
521,-8.00e-01,
522,-7.88e-01,
523,-7.20e-01,
524,-7.92e-01,
525,-7.12e-01,
526,-7.92e-01,
527,-7.24e-01,
528,-7.92e-01,
529,-7.24e-01,
530,-7.12e-01,
531,-7.88e-01,
532,-8.00e-01,
533,-7.20e-01,
534,-7.84e-01,
535,-7.08e-01,
536,-7.16e-01,
537,-8.00e-01,
538,-7.20e-01,
539,-7.88e-01,
540,-7.16e-01,
541,-7.88e-01,
542,-7.12e-01,
543,-7.92e-01,
544,-7.08e-01,
545,-8.00e-01,
546,-7.88e-01,
547,-7.16e-01,
548,-7.24e-01,
549,-7.92e-01,
550,-7.24e-01,
551,-7.92e-01,
552,-8.00e-01,
553,-7.16e-01,
554,-7.92e-01,
555,-7.24e-01,
556,-7.20e-01,
557,-7.92e-01,
558,-7.24e-01,
559,-7.88e-01,
560,-7.20e-01,
561,-7.88e-01,
562,-7.20e-01,
563,-7.92e-01,
564,-7.16e-01,
565,-7.92e-01,
566,-7.88e-01,
567,-7.20e-01,
568,-7.88e-01,
569,-7.20e-01,
570,-7.20e-01,
571,-7.88e-01,
572,-7.96e-01,
573,-7.20e-01,
574,-7.20e-01,
575,-8.00e-01,
576,-7.24e-01,
577,-7.96e-01,
578,-7.20e-01,
579,-7.92e-01,
580,-7.96e-01,
581,-7.08e-01,
582,-8.04e-01,
583,-7.24e-01,
584,-7.92e-01,
585,-7.12e-01,
586,-7.12e-01,
587,-7.92e-01,
588,-7.92e-01,
589,-7.16e-01,
590,-7.20e-01,
591,-7.84e-01,
592,-7.92e-01,
593,-7.20e-01,
594,-7.88e-01,
595,-7.16e-01,
596,-8.00e-01,
597,-7.12e-01,
598,-7.20e-01,
599,-7.92e-01,
600,-8.00e-01,
601,-7.16e-01,
602,-7.88e-01,
603,-7.24e-01,
604,-7.16e-01,
605,-7.92e-01,
606,-7.92e-01,
607,-7.24e-01,
608,-8.04e-01,
609,-7.12e-01,
610,-7.16e-01,
611,-7.92e-01,
612,-7.92e-01,
613,-7.12e-01,
614,-8.00e-01,
615,-7.20e-01,
616,-7.92e-01,
617,-6.96e-01,
618,-7.88e-01,
619,-7.24e-01,
620,-7.20e-01,
621,-7.92e-01,
622,-7.20e-01,
623,-7.88e-01,
624,-7.12e-01,
625,-7.92e-01,
626,-7.88e-01,
627,-7.12e-01,
628,-7.92e-01,
629,-7.20e-01,
630,-7.08e-01,
631,-7.88e-01,
632,-7.12e-01,
633,-8.00e-01,
634,-7.20e-01,
635,-7.92e-01,
636,-7.88e-01,
637,-7.12e-01,
638,-7.12e-01,
639,-8.00e-01,
640,-7.92e-01,
641,-7.12e-01,
642,-7.92e-01,
643,-7.16e-01,
644,-7.12e-01,
645,-8.00e-01,
646,-7.12e-01,
647,-7.88e-01,
648,-7.12e-01,
649,-7.84e-01,
650,-7.16e-01,
651,-7.88e-01,
652,-7.88e-01,
653,-7.20e-01,
654,-7.96e-01,
655,-7.12e-01,
656,-8.00e-01,
657,-7.16e-01,
658,-7.28e-01,
659,-7.88e-01,
660,-8.00e-01,
661,-7.16e-01,
662,-7.88e-01,
663,-7.12e-01,
664,-7.92e-01,
665,-7.12e-01,
666,-7.16e-01,
667,-7.92e-01,
668,-7.16e-01,
669,-7.88e-01,
670,-8.00e-01,
671,-7.16e-01,
672,-7.88e-01,
673,-7.12e-01,
674,-7.88e-01,
675,-7.08e-01,
676,-7.88e-01,
677,-7.20e-01,
678,-7.12e-01,
679,-7.84e-01,
680,-7.96e-01,
681,-7.16e-01,
682,-7.92e-01,
683,-7.20e-01,
684,-7.88e-01,
685,-7.16e-01,
686,-8.08e-01,
687,-7.16e-01,
688,-7.20e-01,
689,-7.96e-01,
690,-7.92e-01,
691,-7.16e-01,
692,-7.84e-01,
693,-7.20e-01,
694,-7.12e-01,
695,-7.92e-01,
696,-7.92e-01,
697,-7.12e-01,
698,-7.16e-01,
699,-7.92e-01,
700,-7.20e-01,
701,-8.08e-01,
702,-7.92e-01,
703,-7.16e-01,
704,-7.88e-01,
705,-7.20e-01,
706,-7.12e-01,
707,-8.04e-01,
708,-7.16e-01,
709,-7.96e-01,
710,-7.20e-01,
711,-7.84e-01,
712,-7.92e-01,
713,-7.16e-01,
714,-7.20e-01,
715,-8.04e-01,
716,-7.92e-01,
717,-7.20e-01,
718,-7.20e-01,
719,-7.84e-01,
720,-7.20e-01,
721,-7.92e-01,
722,-7.08e-01,
723,-7.96e-01,
724,-7.88e-01,
725,-7.20e-01,
726,-7.20e-01,
727,-7.92e-01,
728,-7.88e-01,
729,-7.24e-01,
730,-7.88e-01,
731,-7.16e-01,
732,-7.92e-01,
733,-7.16e-01,
734,-7.16e-01,
735,-8.00e-01,
736,-7.88e-01,
737,-7.20e-01,
738,-7.92e-01,
739,-7.20e-01,
740,-7.12e-01,
741,-7.92e-01,
742,-7.04e-01,
743,-7.96e-01,
744,-7.88e-01,
745,-7.04e-01,
746,-7.20e-01,
747,-7.92e-01,
748,-7.88e-01,
749,-7.20e-01,
750,-7.88e-01,
751,-7.12e-01,
752,-7.92e-01,
753,-7.08e-01,
754,-7.20e-01,
755,-7.92e-01,
756,-7.20e-01,
757,-7.88e-01,
758,-7.96e-01,
759,-7.12e-01,
760,-7.92e-01,
761,-7.04e-01,
762,-8.04e-01,
763,-7.08e-01,
764,-7.12e-01,
765,-7.92e-01,
766,-7.16e-01,
767,-8.04e-01,
768,-7.20e-01,
769,-7.96e-01,
770,-7.92e-01,
771,-7.16e-01,
772,-7.88e-01,
773,-7.12e-01,
774,-7.96e-01,
775,-7.16e-01,
776,-7.12e-01,
777,-7.84e-01,
778,-7.12e-01,
779,-7.92e-01,
780,-8.04e-01,
781,-7.08e-01,
782,-7.92e-01,
783,-7.12e-01,
784,-7.24e-01,
785,-7.84e-01,
786,-7.92e-01,
787,-7.04e-01,
788,-7.84e-01,
789,-7.20e-01,
790,-7.20e-01,
791,-7.84e-01,
792,-7.92e-01,
793,-7.08e-01,
794,-7.88e-01,
795,-7.16e-01,
796,-7.92e-01,
797,-7.16e-01,
798,-7.88e-01,
799,-7.12e-01,
800,-7.92e-01,
801,-7.08e-01,
802,-7.04e-01,
803,-7.88e-01,
804,-7.24e-01,
805,-7.88e-01,
806,-7.96e-01,
807,-7.08e-01,
808,-7.84e-01,
809,-7.20e-01,
810,-7.16e-01,
811,-7.92e-01,
812,-7.16e-01,
813,-7.92e-01,
814,-7.16e-01,
815,-7.92e-01,
816,-7.88e-01,
817,-7.16e-01,
818,-7.08e-01,
819,-7.88e-01,
820,-7.84e-01,
821,-7.20e-01,
822,-7.16e-01,
823,-7.92e-01,
824,-7.08e-01,
825,-7.88e-01,
826,-7.20e-01,
827,-7.92e-01,
828,-7.20e-01,
829,-7.92e-01,
830,-7.88e-01,
831,-7.16e-01,
832,-7.20e-01,
833,-7.88e-01,
834,-7.92e-01,
835,-7.16e-01,
836,-7.20e-01,
837,-7.88e-01,
838,-7.96e-01,
839,-7.16e-01,
840,-7.88e-01,
841,-7.20e-01,
842,-7.96e-01,
843,-7.16e-01,
844,-7.24e-01,
845,-7.96e-01,
846,-8.00e-01,
847,-7.16e-01,
848,-7.20e-01,
849,-7.92e-01,
850,-7.20e-01,
851,-7.88e-01,
852,-7.88e-01,
853,-7.12e-01,
854,-7.12e-01,
855,-7.88e-01,
856,-7.12e-01,
857,-7.92e-01,
858,-7.20e-01,
859,-8.00e-01,
860,-7.16e-01,
861,-7.88e-01,
862,-8.00e-01,
863,-7.12e-01,
864,-7.20e-01,
865,-7.88e-01,
866,-7.92e-01,
867,-7.12e-01,
868,-7.12e-01,
869,-7.96e-01,
870,-7.92e-01,
871,-7.20e-01,
872,-7.80e-01,
873,-7.12e-01,
874,-7.20e-01,
875,-7.96e-01,
876,-6.96e-01,
877,-8.00e-01,
878,-7.24e-01,
879,-7.88e-01,
880,-7.96e-01,
881,-7.24e-01,
882,-8.04e-01,
883,-7.04e-01,
884,-7.88e-01,
885,-7.24e-01,
886,-7.92e-01,
887,-7.20e-01,
888,-7.20e-01,
889,-7.92e-01,
890,-7.92e-01,
891,-7.16e-01,
892,-7.88e-01,
893,-7.12e-01,
894,-7.92e-01,
895,-7.12e-01,
896,-7.08e-01,
897,-7.92e-01,
898,-7.20e-01,
899,-7.92e-01,
900,-7.88e-01,
901,-7.12e-01,
902,-7.20e-01,
903,-8.00e-01,
904,-7.20e-01,
905,-7.96e-01,
906,-7.20e-01,
907,-7.92e-01,
908,-7.20e-01,
909,-7.88e-01,
910,-7.92e-01,
911,-7.20e-01,
912,-7.88e-01,
913,-7.20e-01,
914,-7.96e-01,
915,-7.16e-01,
916,-7.92e-01,
917,-7.16e-01,
918,-7.88e-01,
919,-7.20e-01,
920,-7.92e-01,
921,-7.08e-01,
922,-7.92e-01,
923,-7.16e-01,
924,-7.24e-01,
925,-7.92e-01,
926,-7.24e-01,
927,-7.96e-01,
928,-7.16e-01,
929,-7.88e-01,
930,-7.16e-01,
931,-7.88e-01,
932,-8.00e-01,
933,-7.20e-01,
934,-7.88e-01,
935,-7.20e-01,
936,-7.20e-01,
937,-7.96e-01,
938,-7.20e-01,
939,-8.00e-01,
940,-7.24e-01,
941,-7.92e-01,
942,-7.88e-01,
943,-7.20e-01,
944,-7.08e-01,
945,-8.04e-01,
946,-7.88e-01,
947,-7.04e-01,
948,-7.92e-01,
949,-7.20e-01,
950,-7.16e-01,
951,-7.88e-01,
952,-7.20e-01,
953,-7.96e-01,
954,-7.92e-01,
955,-7.16e-01,
956,-7.88e-01,
957,-7.24e-01,
958,-6.96e-01,
959,-7.88e-01,
960,-7.88e-01,
961,-7.12e-01,
962,-7.24e-01,
963,-7.88e-01,
964,-8.00e-01,
965,-7.16e-01,
966,-7.24e-01,
967,-7.92e-01,
968,-7.88e-01,
969,-7.20e-01,
970,-7.88e-01,
971,-7.20e-01,
972,-7.88e-01,
973,-7.12e-01,
974,-6.96e-01,
975,-7.88e-01,
976,-7.88e-01,
977,-7.08e-01,
978,-7.20e-01,
979,-8.04e-01,
980,-7.20e-01,
981,-7.92e-01,
982,-7.20e-01,
983,-7.92e-01,
984,-7.92e-01,
985,-7.20e-01,
986,-7.28e-01,
987,-7.92e-01,
988,-7.88e-01,
989,-7.08e-01,
990,-7.88e-01,
991,-7.16e-01,
992,-7.88e-01,
993,-7.20e-01,
994,-7.92e-01,
995,-7.12e-01,
996,-7.88e-01,
997,-7.24e-01,
998,-7.88e-01,
999,-7.12e-01,
1000,-7.04e-01,
1001,-7.92e-01,
1002,-7.88e-01,
1003,-7.20e-01,
1004,-7.16e-01,
1005,-7.88e-01,
1006,-8.08e-01,
1007,-7.16e-01,
1008,-7.16e-01,
1009,-7.92e-01,
1010,-7.88e-01,
1011,-7.16e-01,
1012,-7.96e-01,
1013,-7.20e-01,
1014,-7.88e-01,
1015,-7.16e-01,
1016,-7.88e-01,
1017,-7.20e-01,
1018,-7.92e-01,
1019,-7.08e-01,
1020,-7.88e-01,
1021,-7.16e-01,
1022,-7.92e-01,
1023,-7.12e-01,
1024,-7.92e-01,
1025,-7.20e-01,
1026,-7.12e-01,
1027,-7.88e-01,
1028,-7.92e-01,
1029,-7.16e-01,
1030,-7.84e-01,
1031,-7.04e-01,
1032,-7.16e-01,
1033,-7.92e-01,
1034,-7.88e-01,
1035,-7.08e-01,
1036,-7.12e-01,
1037,-7.92e-01,
1038,-7.04e-01,
1039,-7.88e-01,
1040,-7.96e-01,
1041,-7.04e-01,
1042,-7.96e-01,
1043,-7.08e-01,
1044,-8.00e-01,
1045,-7.12e-01,
1046,-7.12e-01,
1047,-7.92e-01,
1048,-7.88e-01,
1049,-7.16e-01,
1050,-7.20e-01,
1051,-8.04e-01,
1052,-7.08e-01,
1053,-7.92e-01,
1054,-7.08e-01,
1055,-8.00e-01,
1056,-7.92e-01,
1057,-7.20e-01,
1058,-7.88e-01,
1059,-7.08e-01,
1060,-7.88e-01,
1061,-7.12e-01,
1062,-7.12e-01,
1063,-7.92e-01,
1064,-7.16e-01,
1065,-7.88e-01,
1066,-7.92e-01,
1067,-7.12e-01,
1068,-7.80e-01,
1069,-7.12e-01,
1070,-7.20e-01,
1071,-7.88e-01,
1072,-7.24e-01,
1073,-8.00e-01,
1074,-8.00e-01,
1075,-7.20e-01,
1076,-7.88e-01,
1077,-7.12e-01,
1078,-7.88e-01,
1079,-7.20e-01,
1080,-7.84e-01,
1081,-7.16e-01,
1082,-7.04e-01,
1083,-8.00e-01,
1084,-7.88e-01,
1085,-7.12e-01,
1086,-7.88e-01,
1087,-6.92e-01,
1088,-7.12e-01,
1089,-7.96e-01,
1090,-8.04e-01,
1091,-6.92e-01,
1092,-7.92e-01,
1093,-7.20e-01,
1094,-7.24e-01,
1095,-7.84e-01,
1096,-7.96e-01,
1097,-7.12e-01,
1098,-7.96e-01,
1099,-7.20e-01,
1100,-7.92e-01,
1101,-7.08e-01,
1102,-7.88e-01,
1103,-7.12e-01,
1104,-7.88e-01,
1105,-7.12e-01,
1106,-7.16e-01,
1107,-8.00e-01,
1108,-7.96e-01,
1109,-7.16e-01,
1110,-7.24e-01,
1111,-7.88e-01,
1112,-7.16e-01,
1113,-7.96e-01,
1114,-7.92e-01,
1115,-7.16e-01,
1116,-7.08e-01,
1117,-7.92e-01,
1118,-7.16e-01,
1119,-8.04e-01,
1120,-8.04e-01,
1121,-7.20e-01,
1122,-7.20e-01,
1123,-7.92e-01,
1124,-7.20e-01,
1125,-8.00e-01,
1126,-7.20e-01,
1127,-7.92e-01,
1128,-7.16e-01,
1129,-7.88e-01,
1130,-7.24e-01,
1131,-7.88e-01,
1132,-7.88e-01,
1133,-7.20e-01,
1134,-7.24e-01,
1135,-7.92e-01,
1136,-7.92e-01,
1137,-7.16e-01,
1138,-7.92e-01,
1139,-7.20e-01,
1140,-7.16e-01,
1141,-7.92e-01,
1142,-7.24e-01,
1143,-7.92e-01,
1144,-7.24e-01,
1145,-8.04e-01,
1146,-7.20e-01,
1147,-7.92e-01,
1148,-7.88e-01,
1149,-7.24e-01,
1150,-7.08e-01,
1151,-7.92e-01,
1152,-7.88e-01,
1153,-7.24e-01,
1154,-7.24e-01,
1155,-7.92e-01,
1156,-7.24e-01,
1157,-7.92e-01,
1158,-7.24e-01,
1159,-7.96e-01,
1160,-7.92e-01,
1161,-7.20e-01,
1162,-7.84e-01,
1163,-7.08e-01,
1164,-7.20e-01,
1165,-7.88e-01,
1166,-7.92e-01,
1167,-7.20e-01,
1168,-7.16e-01,
1169,-8.04e-01,
1170,-7.12e-01,
1171,-7.92e-01,
1172,-7.20e-01,
1173,-7.88e-01,
1174,-7.16e-01,
1175,-7.92e-01,
1176,-7.20e-01,
1177,-8.08e-01,
1178,-7.88e-01,
1179,-7.24e-01,
1180,-7.12e-01,
1181,-7.96e-01,
1182,-7.92e-01,
1183,-7.12e-01,
1184,-7.20e-01,
1185,-7.88e-01,
1186,-7.92e-01,
1187,-7.16e-01,
1188,-7.84e-01,
1189,-7.16e-01,
1190,-7.88e-01,
1191,-7.12e-01,
1192,-7.88e-01,
1193,-7.20e-01,
1194,-7.16e-01,
1195,-7.92e-01,
1196,-7.04e-01,
1197,-7.88e-01,
1198,-7.08e-01,
1199,-8.04e-01,
