fastdiffamp/data-noise-set/unb-left-mean/NewFile12.csv

X,CH1,Start,Increment,
Sequence,Volt,-5.990000e+00,1.000000e-02
0,-5.48e-01,
1,-6.32e-01,
2,-6.24e-01,
3,-5.44e-01,
4,-5.52e-01,
5,-6.20e-01,
6,-5.48e-01,
7,-6.20e-01,
8,-6.12e-01,
9,-5.40e-01,
10,-5.40e-01,
11,-6.24e-01,
12,-6.24e-01,
13,-5.44e-01,
14,-6.12e-01,
15,-5.44e-01,
16,-6.24e-01,
17,-5.48e-01,
18,-5.44e-01,
19,-6.24e-01,
20,-5.48e-01,
21,-6.20e-01,
22,-5.52e-01,
23,-6.28e-01,
24,-6.20e-01,
25,-5.44e-01,
26,-6.16e-01,
27,-5.44e-01,
28,-5.48e-01,
29,-6.24e-01,
30,-6.24e-01,
31,-5.48e-01,
32,-6.20e-01,
33,-5.40e-01,
34,-5.48e-01,
35,-6.32e-01,
36,-5.48e-01,
37,-6.20e-01,
38,-6.28e-01,
39,-5.48e-01,
40,-6.24e-01,
41,-5.52e-01,
42,-6.20e-01,
43,-5.48e-01,
44,-5.48e-01,
45,-6.24e-01,
46,-5.48e-01,
47,-6.32e-01,
48,-6.20e-01,
49,-5.44e-01,
50,-5.52e-01,
51,-6.28e-01,
52,-6.36e-01,
53,-5.44e-01,
54,-6.24e-01,
55,-5.52e-01,
56,-6.24e-01,
57,-5.40e-01,
58,-5.60e-01,
59,-6.24e-01,
60,-6.16e-01,
61,-5.44e-01,
62,-6.16e-01,
63,-5.40e-01,
64,-5.44e-01,
65,-6.36e-01,
66,-5.44e-01,
67,-6.24e-01,
68,-5.44e-01,
69,-6.24e-01,
70,-5.44e-01,
71,-6.40e-01,
72,-6.12e-01,
73,-5.48e-01,
74,-5.44e-01,
75,-6.20e-01,
76,-5.44e-01,
77,-6.28e-01,
78,-6.16e-01,
79,-5.40e-01,
80,-6.20e-01,
81,-5.44e-01,
82,-6.24e-01,
83,-5.44e-01,
84,-5.48e-01,
85,-6.16e-01,
86,-6.08e-01,
87,-5.48e-01,
88,-6.28e-01,
89,-5.48e-01,
90,-6.24e-01,
91,-5.52e-01,
92,-6.20e-01,
93,-5.52e-01,
94,-5.44e-01,
95,-6.20e-01,
96,-6.28e-01,
97,-5.32e-01,
98,-6.16e-01,
99,-5.44e-01,
100,-6.16e-01,
101,-5.52e-01,
102,-5.56e-01,
103,-6.28e-01,
104,-6.24e-01,
105,-5.36e-01,
106,-6.16e-01,
107,-5.52e-01,
108,-5.44e-01,
109,-6.20e-01,
110,-5.44e-01,
111,-6.44e-01,
112,-5.48e-01,
113,-6.24e-01,
114,-5.48e-01,
115,-6.20e-01,
116,-5.48e-01,
117,-6.20e-01,
118,-6.24e-01,
119,-5.44e-01,
120,-5.44e-01,
121,-6.28e-01,
122,-5.44e-01,
123,-6.24e-01,
124,-6.20e-01,
125,-5.56e-01,
126,-6.28e-01,
127,-5.48e-01,
128,-5.48e-01,
129,-6.24e-01,
130,-5.44e-01,
131,-6.28e-01,
132,-5.44e-01,
133,-6.28e-01,
134,-6.16e-01,
135,-5.52e-01,
136,-6.16e-01,
137,-5.48e-01,
138,-5.52e-01,
139,-6.24e-01,
140,-6.20e-01,
141,-5.44e-01,
142,-5.32e-01,
143,-6.16e-01,
144,-5.40e-01,
145,-6.20e-01,
146,-6.24e-01,
147,-5.48e-01,
148,-5.44e-01,
149,-6.12e-01,
150,-6.20e-01,
151,-5.52e-01,
152,-5.52e-01,
153,-6.32e-01,
154,-6.20e-01,
155,-5.48e-01,
156,-6.24e-01,
157,-5.48e-01,
158,-5.40e-01,
159,-6.28e-01,
160,-6.24e-01,
161,-5.52e-01,
162,-6.20e-01,
163,-5.48e-01,
164,-5.52e-01,
165,-6.28e-01,
166,-5.40e-01,
167,-6.24e-01,
168,-5.44e-01,
169,-6.28e-01,
170,-5.44e-01,
171,-6.24e-01,
172,-6.24e-01,
173,-5.44e-01,
174,-5.52e-01,
175,-6.32e-01,
176,-5.48e-01,
177,-6.28e-01,
178,-5.48e-01,
179,-6.24e-01,
180,-5.44e-01,
181,-6.16e-01,
182,-6.16e-01,
183,-5.40e-01,
184,-5.48e-01,
185,-6.20e-01,
186,-5.40e-01,
187,-6.12e-01,
188,-6.24e-01,
189,-5.48e-01,
190,-5.48e-01,
191,-6.24e-01,
192,-5.52e-01,
193,-6.20e-01,
194,-5.44e-01,
195,-6.24e-01,
196,-5.52e-01,
197,-6.20e-01,
198,-6.24e-01,
199,-5.44e-01,
200,-6.20e-01,
201,-5.52e-01,
202,-6.20e-01,
203,-5.48e-01,
204,-6.24e-01,
205,-5.52e-01,
206,-5.32e-01,
207,-6.24e-01,
208,-6.12e-01,
209,-5.44e-01,
210,-5.40e-01,
211,-6.20e-01,
212,-5.52e-01,
213,-6.16e-01,
214,-6.24e-01,
215,-5.44e-01,
216,-6.16e-01,
217,-5.48e-01,
218,-6.16e-01,
219,-5.48e-01,
220,-5.56e-01,
221,-6.20e-01,
222,-6.16e-01,
223,-5.48e-01,
224,-6.24e-01,
225,-5.52e-01,
226,-5.48e-01,
227,-6.24e-01,
228,-6.28e-01,
229,-5.48e-01,
230,-6.24e-01,
231,-5.40e-01,
232,-5.48e-01,
233,-6.24e-01,
234,-5.48e-01,
235,-6.24e-01,
236,-6.24e-01,
237,-5.40e-01,
238,-5.48e-01,
239,-6.24e-01,
240,-6.16e-01,
241,-5.44e-01,
242,-6.16e-01,
243,-5.44e-01,
244,-6.32e-01,
245,-5.48e-01,
246,-6.24e-01,
247,-5.48e-01,
248,-6.16e-01,
249,-5.56e-01,
250,-5.44e-01,
251,-6.20e-01,
252,-5.48e-01,
253,-6.20e-01,
254,-5.48e-01,
255,-6.24e-01,
256,-6.24e-01,
257,-5.44e-01,
258,-6.24e-01,
259,-5.36e-01,
260,-5.36e-01,
261,-6.16e-01,
262,-6.16e-01,
263,-5.24e-01,
264,-5.48e-01,
265,-6.16e-01,
266,-6.24e-01,
267,-5.48e-01,
268,-5.40e-01,
269,-6.16e-01,
270,-5.44e-01,
271,-6.20e-01,
272,-5.48e-01,
273,-6.20e-01,
274,-5.48e-01,
275,-6.20e-01,
276,-5.48e-01,
277,-6.12e-01,
278,-5.52e-01,
279,-6.24e-01,
280,-5.48e-01,
281,-6.28e-01,
282,-5.48e-01,
283,-6.16e-01,
284,-5.48e-01,
285,-6.24e-01,
286,-6.12e-01,
287,-5.44e-01,
288,-5.60e-01,
289,-6.16e-01,
290,-6.28e-01,
291,-5.48e-01,
292,-6.24e-01,
293,-5.48e-01,
294,-5.40e-01,
295,-6.28e-01,
296,-5.48e-01,
297,-6.28e-01,
298,-6.20e-01,
299,-5.52e-01,
300,-5.40e-01,
301,-6.24e-01,
302,-5.44e-01,
303,-6.16e-01,
304,-5.52e-01,
305,-6.28e-01,
306,-5.44e-01,
307,-6.24e-01,
308,-6.16e-01,
309,-5.44e-01,
310,-6.20e-01,
311,-5.44e-01,
312,-6.20e-01,
313,-5.52e-01,
314,-5.48e-01,
315,-6.16e-01,
316,-5.48e-01,
317,-6.24e-01,
318,-6.28e-01,
319,-5.44e-01,
320,-6.20e-01,
321,-5.48e-01,
322,-5.44e-01,
323,-6.28e-01,
324,-6.28e-01,
325,-5.44e-01,
326,-5.48e-01,
327,-6.12e-01,
328,-5.48e-01,
329,-6.28e-01,
330,-5.44e-01,
331,-6.16e-01,
332,-5.44e-01,
333,-6.12e-01,
334,-5.44e-01,
335,-6.20e-01,
336,-6.16e-01,
337,-5.36e-01,
338,-5.52e-01,
339,-6.20e-01,
340,-6.20e-01,
341,-5.48e-01,
342,-5.48e-01,
343,-6.20e-01,
344,-6.16e-01,
345,-5.44e-01,
346,-5.44e-01,
347,-6.24e-01,
348,-5.48e-01,
349,-6.24e-01,
350,-6.16e-01,
351,-5.48e-01,
352,-5.56e-01,
353,-6.20e-01,
354,-6.16e-01,
355,-5.48e-01,
356,-6.16e-01,
357,-5.36e-01,
358,-6.16e-01,
359,-5.48e-01,
360,-6.12e-01,
361,-5.48e-01,
362,-6.24e-01,
363,-5.48e-01,
364,-6.24e-01,
365,-5.36e-01,
366,-6.24e-01,
367,-5.44e-01,
368,-6.12e-01,
369,-5.40e-01,
370,-6.20e-01,
371,-5.52e-01,
372,-6.20e-01,
373,-5.48e-01,
374,-6.20e-01,
375,-5.44e-01,
376,-5.36e-01,
377,-6.32e-01,
378,-6.20e-01,
379,-5.44e-01,
380,-5.48e-01,
381,-6.16e-01,
382,-5.40e-01,
383,-6.24e-01,
384,-5.52e-01,
385,-6.24e-01,
386,-5.44e-01,
387,-6.16e-01,
388,-6.28e-01,
389,-5.44e-01,
390,-6.20e-01,
391,-5.40e-01,
392,-5.48e-01,
393,-6.24e-01,
394,-6.20e-01,
395,-5.40e-01,
396,-5.48e-01,
397,-6.24e-01,
398,-6.16e-01,
399,-5.40e-01,
400,-6.28e-01,
401,-5.48e-01,
402,-5.48e-01,
403,-6.12e-01,
404,-5.40e-01,
405,-6.16e-01,
406,-5.56e-01,
407,-6.28e-01,
408,-5.48e-01,
409,-6.24e-01,
410,-6.20e-01,
411,-5.44e-01,
412,-6.08e-01,
413,-5.36e-01,
414,-6.12e-01,
415,-5.48e-01,
416,-5.52e-01,
417,-6.16e-01,
418,-6.20e-01,
419,-5.52e-01,
420,-6.28e-01,
421,-5.48e-01,
422,-6.12e-01,
423,-5.44e-01,
424,-6.24e-01,
425,-5.48e-01,
426,-5.48e-01,
427,-6.16e-01,
428,-6.32e-01,
429,-5.48e-01,
430,-6.28e-01,
431,-5.48e-01,
432,-5.44e-01,
433,-6.24e-01,
434,-6.24e-01,
435,-5.48e-01,
436,-6.16e-01,
437,-5.40e-01,
438,-6.16e-01,
439,-5.44e-01,
440,-5.44e-01,
441,-6.24e-01,
442,-5.48e-01,
443,-6.28e-01,
444,-5.44e-01,
445,-6.20e-01,
446,-5.48e-01,
447,-6.24e-01,
448,-6.20e-01,
449,-5.48e-01,
450,-5.40e-01,
451,-6.24e-01,
452,-5.48e-01,
453,-6.32e-01,
454,-5.44e-01,
455,-6.16e-01,
456,-5.48e-01,
457,-6.24e-01,
458,-5.44e-01,
459,-6.20e-01,
460,-5.52e-01,
461,-6.12e-01,
462,-6.12e-01,
463,-5.40e-01,
464,-5.44e-01,
465,-6.28e-01,
466,-5.44e-01,
467,-6.16e-01,
468,-5.48e-01,
469,-6.20e-01,
470,-5.48e-01,
471,-6.16e-01,
472,-6.20e-01,
473,-5.44e-01,
474,-5.40e-01,
475,-6.28e-01,
476,-5.44e-01,
477,-6.24e-01,
478,-6.20e-01,
479,-5.48e-01,
480,-5.36e-01,
481,-6.28e-01,
482,-6.24e-01,
483,-5.52e-01,
484,-6.32e-01,
485,-5.44e-01,
486,-6.24e-01,
487,-5.48e-01,
488,-6.24e-01,
489,-5.52e-01,
490,-6.12e-01,
491,-5.36e-01,
492,-6.20e-01,
493,-5.44e-01,
494,-5.48e-01,
495,-6.24e-01,
496,-6.16e-01,
497,-5.48e-01,
498,-5.48e-01,
499,-6.24e-01,
500,-5.52e-01,
501,-6.20e-01,
502,-6.16e-01,
503,-5.48e-01,
504,-5.28e-01,
505,-6.24e-01,
506,-6.24e-01,
507,-5.48e-01,
508,-5.44e-01,
509,-6.20e-01,
510,-5.32e-01,
511,-6.20e-01,
512,-6.20e-01,
513,-5.48e-01,
514,-5.40e-01,
515,-6.24e-01,
516,-5.48e-01,
517,-6.28e-01,
518,-5.52e-01,
519,-6.24e-01,
520,-6.20e-01,
521,-5.48e-01,
522,-6.20e-01,
523,-5.48e-01,
524,-6.24e-01,
525,-5.44e-01,
526,-5.36e-01,
527,-6.36e-01,
528,-6.16e-01,
529,-5.44e-01,
530,-5.44e-01,
531,-6.16e-01,
532,-5.40e-01,
533,-6.32e-01,
534,-5.48e-01,
535,-6.32e-01,
536,-5.48e-01,
537,-6.20e-01,
538,-6.40e-01,
539,-5.48e-01,
540,-6.24e-01,
541,-5.48e-01,
542,-5.48e-01,
543,-6.32e-01,
544,-5.24e-01,
545,-6.28e-01,
546,-6.24e-01,
547,-5.44e-01,
548,-5.52e-01,
549,-6.24e-01,
550,-5.52e-01,
551,-6.32e-01,
552,-6.12e-01,
553,-5.48e-01,
554,-5.48e-01,
555,-6.24e-01,
556,-6.20e-01,
557,-5.48e-01,
558,-6.16e-01,
559,-5.48e-01,
560,-6.20e-01,
561,-5.40e-01,
562,-5.52e-01,
563,-6.24e-01,
564,-5.48e-01,
565,-6.24e-01,
566,-6.20e-01,
567,-5.48e-01,
568,-6.20e-01,
569,-5.40e-01,
570,-5.40e-01,
571,-6.24e-01,
572,-6.12e-01,
573,-5.48e-01,
574,-6.12e-01,
575,-5.40e-01,
576,-6.28e-01,
577,-5.52e-01,
578,-5.52e-01,
579,-6.20e-01,
580,-6.12e-01,
581,-5.44e-01,
582,-5.44e-01,
583,-6.16e-01,
584,-5.52e-01,
585,-6.20e-01,
586,-5.44e-01,
587,-6.24e-01,
588,-5.52e-01,
589,-6.20e-01,
590,-5.52e-01,
591,-6.20e-01,
592,-5.44e-01,
593,-6.20e-01,
594,-6.24e-01,
595,-5.44e-01,
596,-6.20e-01,
597,-5.48e-01,
598,-6.24e-01,
599,-5.44e-01,
600,-5.48e-01,
601,-6.28e-01,
602,-5.44e-01,
603,-6.28e-01,
604,-5.48e-01,
605,-6.24e-01,
606,-5.28e-01,
607,-6.28e-01,
608,-5.48e-01,
609,-6.20e-01,
610,-6.16e-01,
611,-5.48e-01,
612,-6.24e-01,
613,-5.48e-01,
614,-5.48e-01,
615,-6.16e-01,
616,-6.28e-01,
617,-5.44e-01,
618,-6.24e-01,
619,-5.40e-01,
620,-6.24e-01,
621,-5.44e-01,
622,-6.24e-01,
623,-5.48e-01,
624,-5.56e-01,
625,-6.24e-01,
626,-6.32e-01,
627,-5.48e-01,
628,-6.28e-01,
629,-5.48e-01,
630,-6.12e-01,
631,-5.32e-01,
632,-5.44e-01,
633,-6.24e-01,
634,-5.44e-01,
635,-6.20e-01,
636,-6.20e-01,
637,-5.48e-01,
638,-6.20e-01,
639,-5.44e-01,
640,-5.44e-01,
641,-6.16e-01,
642,-6.20e-01,
643,-5.48e-01,
644,-6.32e-01,
645,-5.48e-01,
646,-5.44e-01,
647,-6.20e-01,
648,-5.44e-01,
649,-6.28e-01,
650,-5.52e-01,
651,-6.24e-01,
652,-5.48e-01,
653,-6.24e-01,
654,-5.44e-01,
655,-6.24e-01,
656,-5.48e-01,
657,-6.28e-01,
658,-5.32e-01,
659,-6.24e-01,
660,-6.20e-01,
661,-5.52e-01,
662,-6.24e-01,
663,-5.44e-01,
664,-5.40e-01,
665,-6.24e-01,
666,-6.16e-01,
667,-5.32e-01,
668,-6.12e-01,
669,-5.40e-01,
670,-6.16e-01,
671,-5.40e-01,
672,-6.24e-01,
673,-5.48e-01,
674,-5.48e-01,
675,-6.12e-01,
676,-6.28e-01,
677,-5.48e-01,
678,-5.48e-01,
679,-6.16e-01,
680,-6.16e-01,
681,-5.48e-01,
682,-5.48e-01,
683,-6.16e-01,
684,-5.44e-01,
685,-6.32e-01,
686,-5.44e-01,
687,-6.24e-01,
688,-6.20e-01,
689,-5.44e-01,
690,-6.28e-01,
691,-5.48e-01,
692,-5.52e-01,
693,-6.20e-01,
694,-5.36e-01,
695,-6.20e-01,
696,-6.20e-01,
697,-5.52e-01,
698,-5.44e-01,
699,-6.20e-01,
700,-6.16e-01,
701,-5.48e-01,
702,-5.44e-01,
703,-6.24e-01,
704,-5.52e-01,
705,-6.24e-01,
706,-6.28e-01,
707,-5.48e-01,
708,-6.24e-01,
709,-5.44e-01,
710,-6.16e-01,
711,-5.44e-01,
712,-5.36e-01,
713,-6.20e-01,
714,-6.24e-01,
715,-5.44e-01,
716,-5.44e-01,
717,-6.16e-01,
718,-6.24e-01,
719,-5.32e-01,
720,-5.44e-01,
721,-6.24e-01,
722,-5.56e-01,
723,-6.20e-01,
724,-6.20e-01,
725,-5.44e-01,
726,-6.24e-01,
727,-5.40e-01,
728,-5.48e-01,
729,-6.28e-01,
730,-5.60e-01,
731,-6.24e-01,
732,-6.24e-01,
733,-5.44e-01,
734,-6.24e-01,
735,-5.40e-01,
736,-5.52e-01,
737,-6.20e-01,
738,-6.28e-01,
739,-5.44e-01,
740,-5.44e-01,
741,-6.24e-01,
742,-5.44e-01,
743,-6.16e-01,
744,-5.48e-01,
745,-6.28e-01,
746,-5.36e-01,
747,-6.24e-01,
748,-5.44e-01,
749,-6.24e-01,
750,-5.44e-01,
751,-6.24e-01,
752,-6.20e-01,
753,-5.48e-01,
754,-6.12e-01,
755,-5.44e-01,
756,-5.48e-01,
757,-6.32e-01,
758,-6.12e-01,
759,-5.36e-01,
760,-5.44e-01,
761,-6.16e-01,
762,-6.24e-01,
763,-5.40e-01,
764,-6.16e-01,
765,-5.44e-01,
766,-5.44e-01,
767,-6.28e-01,
768,-5.44e-01,
769,-6.24e-01,
770,-5.44e-01,
771,-6.24e-01,
772,-6.24e-01,
773,-5.48e-01,
774,-6.20e-01,
775,-5.56e-01,
776,-5.52e-01,
777,-6.24e-01,
778,-6.16e-01,
779,-5.48e-01,
780,-5.52e-01,
781,-6.24e-01,
782,-5.32e-01,
783,-6.28e-01,
784,-6.16e-01,
785,-5.40e-01,
786,-6.24e-01,
787,-5.24e-01,
788,-5.40e-01,
789,-6.32e-01,
790,-6.24e-01,
791,-5.48e-01,
792,-6.12e-01,
793,-5.44e-01,
794,-6.28e-01,
795,-5.48e-01,
796,-5.52e-01,
797,-6.28e-01,
798,-6.24e-01,
799,-5.48e-01,
800,-5.40e-01,
801,-6.20e-01,
802,-6.24e-01,
803,-5.48e-01,
804,-5.36e-01,
805,-6.28e-01,
806,-6.20e-01,
807,-5.40e-01,
808,-6.24e-01,
809,-5.48e-01,
810,-5.40e-01,
811,-6.32e-01,
812,-6.20e-01,
813,-5.48e-01,
814,-5.48e-01,
815,-6.24e-01,
816,-5.52e-01,
817,-6.24e-01,
818,-5.48e-01,
819,-6.28e-01,
820,-5.48e-01,
821,-6.20e-01,
822,-5.44e-01,
823,-6.16e-01,
824,-5.48e-01,
825,-6.24e-01,
826,-5.52e-01,
827,-6.20e-01,
828,-5.52e-01,
829,-6.24e-01,
830,-6.16e-01,
831,-5.48e-01,
832,-6.16e-01,
833,-5.52e-01,
834,-5.44e-01,
835,-6.16e-01,
836,-5.48e-01,
837,-6.28e-01,
838,-6.24e-01,
839,-5.56e-01,
840,-5.48e-01,
841,-6.20e-01,
842,-5.44e-01,
843,-6.24e-01,
844,-6.24e-01,
845,-5.52e-01,
846,-5.52e-01,
847,-6.24e-01,
848,-6.40e-01,
849,-5.52e-01,
850,-6.16e-01,
851,-5.48e-01,
852,-5.48e-01,
853,-6.28e-01,
854,-5.52e-01,
855,-6.28e-01,
856,-5.44e-01,
857,-6.20e-01,
858,-5.44e-01,
859,-6.28e-01,
860,-5.52e-01,
861,-6.24e-01,
862,-6.20e-01,
863,-5.44e-01,
864,-5.48e-01,
865,-6.24e-01,
866,-5.52e-01,
867,-6.24e-01,
868,-5.44e-01,
869,-6.20e-01,
870,-6.24e-01,
871,-5.40e-01,
872,-6.32e-01,
873,-5.44e-01,
874,-6.28e-01,
875,-5.52e-01,
876,-5.48e-01,
877,-6.24e-01,
878,-6.20e-01,
879,-5.44e-01,
880,-5.44e-01,
881,-6.20e-01,
882,-6.20e-01,
883,-5.48e-01,
884,-6.40e-01,
885,-5.48e-01,
886,-6.16e-01,
887,-5.52e-01,
888,-6.24e-01,
889,-5.44e-01,
890,-6.28e-01,
891,-5.36e-01,
892,-5.48e-01,
893,-6.16e-01,
894,-6.24e-01,
895,-5.40e-01,
896,-6.16e-01,
897,-5.44e-01,
898,-5.36e-01,
899,-6.20e-01,
900,-5.44e-01,
901,-6.16e-01,
902,-6.24e-01,
903,-5.48e-01,
904,-6.28e-01,
905,-5.48e-01,
906,-5.36e-01,
907,-6.16e-01,
908,-5.52e-01,
909,-6.28e-01,
910,-6.28e-01,
911,-5.52e-01,
912,-5.44e-01,
913,-6.20e-01,
914,-5.48e-01,
915,-6.20e-01,
916,-6.24e-01,
917,-5.44e-01,
918,-6.28e-01,
919,-5.48e-01,
920,-6.24e-01,
921,-5.52e-01,
922,-5.40e-01,
923,-6.28e-01,
924,-5.48e-01,
925,-6.28e-01,
926,-6.28e-01,
927,-5.48e-01,
928,-5.52e-01,
929,-6.16e-01,
930,-5.44e-01,
931,-6.28e-01,
932,-6.28e-01,
933,-5.52e-01,
934,-6.24e-01,
935,-5.48e-01,
936,-5.44e-01,
937,-6.24e-01,
938,-6.16e-01,
939,-5.52e-01,
940,-5.36e-01,
941,-6.24e-01,
942,-6.20e-01,
943,-5.48e-01,
944,-5.48e-01,
945,-6.28e-01,
946,-5.44e-01,
947,-6.32e-01,
948,-6.28e-01,
949,-5.48e-01,
950,-5.48e-01,
951,-6.28e-01,
952,-5.56e-01,
953,-6.28e-01,
954,-6.12e-01,
955,-5.48e-01,
956,-5.44e-01,
957,-6.24e-01,
958,-6.28e-01,
959,-5.48e-01,
960,-5.44e-01,
961,-6.24e-01,
962,-6.20e-01,
963,-5.52e-01,
964,-6.20e-01,
965,-5.52e-01,
966,-6.20e-01,
967,-5.48e-01,
968,-6.16e-01,
969,-5.52e-01,
970,-6.28e-01,
971,-5.40e-01,
972,-5.40e-01,
973,-6.36e-01,
974,-5.44e-01,
975,-6.12e-01,
976,-6.16e-01,
977,-5.44e-01,
978,-5.44e-01,
979,-6.24e-01,
980,-5.44e-01,
981,-6.32e-01,
982,-6.20e-01,
983,-5.48e-01,
984,-6.20e-01,
985,-5.52e-01,
986,-6.24e-01,
987,-5.56e-01,
988,-6.24e-01,
989,-5.56e-01,
990,-6.24e-01,
991,-5.48e-01,
992,-6.28e-01,
993,-5.52e-01,
994,-6.32e-01,
995,-5.40e-01,
996,-6.24e-01,
997,-5.44e-01,
998,-5.28e-01,
999,-6.28e-01,
1000,-5.48e-01,
1001,-6.20e-01,
1002,-6.24e-01,
1003,-5.44e-01,
1004,-6.24e-01,
1005,-5.48e-01,
1006,-5.48e-01,
1007,-6.32e-01,
1008,-5.44e-01,
1009,-6.24e-01,
1010,-6.20e-01,
1011,-5.48e-01,
1012,-5.48e-01,
1013,-6.20e-01,
1014,-6.28e-01,
1015,-5.44e-01,
1016,-6.20e-01,
1017,-5.48e-01,
1018,-5.56e-01,
1019,-6.16e-01,
1020,-5.52e-01,
1021,-6.32e-01,
1022,-6.24e-01,
1023,-5.44e-01,
1024,-5.48e-01,
1025,-6.24e-01,
1026,-6.20e-01,
1027,-5.44e-01,
1028,-6.24e-01,
1029,-5.60e-01,
1030,-5.48e-01,
1031,-6.44e-01,
1032,-6.24e-01,
1033,-5.48e-01,
1034,-6.24e-01,
1035,-5.48e-01,
1036,-6.24e-01,
1037,-5.48e-01,
1038,-5.52e-01,
1039,-6.24e-01,
1040,-6.24e-01,
1041,-5.48e-01,
1042,-5.52e-01,
1043,-6.20e-01,
1044,-6.12e-01,
1045,-5.52e-01,
1046,-6.16e-01,
1047,-5.40e-01,
1048,-6.24e-01,
1049,-5.48e-01,
1050,-6.16e-01,
1051,-5.52e-01,
1052,-5.48e-01,
1053,-6.20e-01,
1054,-6.32e-01,
1055,-5.44e-01,
1056,-6.20e-01,
1057,-5.52e-01,
1058,-6.20e-01,
1059,-5.48e-01,
1060,-5.52e-01,
1061,-6.16e-01,
1062,-5.44e-01,
1063,-6.24e-01,
1064,-5.52e-01,
1065,-6.36e-01,
1066,-5.44e-01,
1067,-6.16e-01,
1068,-5.48e-01,
1069,-6.24e-01,
1070,-5.52e-01,
1071,-6.16e-01,
1072,-5.52e-01,
1073,-6.12e-01,
1074,-5.48e-01,
1075,-6.24e-01,
1076,-5.44e-01,
1077,-6.20e-01,
1078,-5.56e-01,
1079,-6.24e-01,
1080,-6.24e-01,
1081,-5.48e-01,
1082,-5.52e-01,
1083,-6.20e-01,
1084,-5.36e-01,
1085,-6.24e-01,
1086,-6.16e-01,
1087,-5.44e-01,
1088,-6.12e-01,
1089,-5.48e-01,
1090,-6.12e-01,
1091,-5.48e-01,
1092,-6.24e-01,
1093,-5.44e-01,
1094,-6.16e-01,
1095,-5.36e-01,
1096,-6.24e-01,
1097,-5.48e-01,
1098,-5.44e-01,
1099,-6.28e-01,
1100,-5.44e-01,
1101,-6.24e-01,
1102,-5.56e-01,
1103,-6.28e-01,
1104,-5.52e-01,
1105,-6.20e-01,
1106,-5.52e-01,
1107,-6.16e-01,
1108,-5.36e-01,
1109,-6.20e-01,
1110,-5.52e-01,
1111,-6.32e-01,
1112,-5.52e-01,
1113,-6.28e-01,
1114,-5.56e-01,
1115,-6.28e-01,
1116,-5.52e-01,
1117,-6.28e-01,
1118,-6.24e-01,
1119,-5.52e-01,
1120,-6.28e-01,
1121,-5.44e-01,
1122,-6.28e-01,
1123,-5.32e-01,
1124,-5.40e-01,
1125,-6.24e-01,
1126,-6.28e-01,
1127,-5.48e-01,
1128,-6.16e-01,
1129,-5.44e-01,
1130,-6.28e-01,
1131,-5.48e-01,
1132,-5.52e-01,
1133,-6.20e-01,
1134,-6.24e-01,
1135,-5.44e-01,
1136,-5.48e-01,
1137,-6.24e-01,
1138,-5.40e-01,
1139,-6.20e-01,
1140,-5.52e-01,
1141,-6.24e-01,
1142,-5.40e-01,
1143,-6.28e-01,
1144,-6.20e-01,
1145,-5.52e-01,
1146,-5.52e-01,
1147,-6.28e-01,
1148,-5.48e-01,
1149,-6.24e-01,
1150,-5.44e-01,
1151,-6.20e-01,
1152,-5.48e-01,
1153,-6.24e-01,
1154,-6.24e-01,
1155,-5.44e-01,
1156,-6.16e-01,
1157,-5.44e-01,
1158,-6.20e-01,
1159,-5.44e-01,
1160,-5.52e-01,
1161,-6.16e-01,
1162,-5.48e-01,
1163,-6.16e-01,
1164,-6.16e-01,
1165,-5.44e-01,
1166,-5.48e-01,
1167,-6.24e-01,
1168,-5.44e-01,
1169,-6.16e-01,
1170,-6.24e-01,
1171,-5.52e-01,
1172,-5.48e-01,
1173,-6.24e-01,
1174,-6.32e-01,
1175,-5.44e-01,
1176,-6.20e-01,
1177,-5.48e-01,
1178,-6.28e-01,
1179,-5.44e-01,
1180,-6.28e-01,
1181,-5.48e-01,
1182,-5.36e-01,
1183,-6.24e-01,
1184,-5.48e-01,
1185,-6.12e-01,
1186,-6.16e-01,
1187,-5.48e-01,
1188,-5.40e-01,
1189,-6.20e-01,
1190,-5.48e-01,
1191,-6.16e-01,
1192,-6.28e-01,
1193,-5.44e-01,
1194,-5.44e-01,
1195,-6.24e-01,
1196,-6.28e-01,
1197,-5.44e-01,
1198,-5.48e-01,
1199,-6.28e-01,
