fastdiffamp/data-noise-set/unb-left-mean/NewFile16.csv

X,CH1,Start,Increment,
Sequence,Volt,-5.990000e+00,1.000000e-02
0,-1.72e-01,
1,-1.08e-01,
2,-1.76e-01,
3,-9.20e-02,
4,-1.04e-01,
5,-1.76e-01,
6,-1.08e-01,
7,-1.76e-01,
8,-1.84e-01,
9,-1.12e-01,
10,-1.12e-01,
11,-1.76e-01,
12,-1.76e-01,
13,-1.04e-01,
14,-1.84e-01,
15,-1.04e-01,
16,-1.08e-01,
17,-1.80e-01,
18,-1.92e-01,
19,-1.04e-01,
20,-1.92e-01,
21,-1.08e-01,
22,-1.80e-01,
23,-9.60e-02,
24,-1.12e-01,
25,-1.88e-01,
26,-1.84e-01,
27,-1.04e-01,
28,-1.08e-01,
29,-1.76e-01,
30,-1.80e-01,
31,-1.12e-01,
32,-1.04e-01,
33,-1.84e-01,
34,-1.88e-01,
35,-1.08e-01,
36,-1.08e-01,
37,-1.76e-01,
38,-1.80e-01,
39,-1.04e-01,
40,-1.88e-01,
41,-1.04e-01,
42,-1.84e-01,
43,-1.12e-01,
44,-1.88e-01,
45,-1.00e-01,
46,-1.08e-01,
47,-1.88e-01,
48,-1.08e-01,
49,-1.80e-01,
50,-1.20e-01,
51,-1.88e-01,
52,-1.80e-01,
53,-1.04e-01,
54,-1.76e-01,
55,-1.04e-01,
56,-1.08e-01,
57,-1.88e-01,
58,-1.80e-01,
59,-1.04e-01,
60,-1.84e-01,
61,-1.08e-01,
62,-1.12e-01,
63,-1.80e-01,
64,-1.04e-01,
65,-1.92e-01,
66,-1.80e-01,
67,-1.04e-01,
68,-1.08e-01,
69,-1.76e-01,
70,-1.88e-01,
71,-1.08e-01,
72,-1.84e-01,
73,-1.04e-01,
74,-1.84e-01,
75,-1.04e-01,
76,-9.20e-02,
77,-1.92e-01,
78,-1.84e-01,
79,-1.08e-01,
80,-1.08e-01,
81,-1.84e-01,
82,-1.04e-01,
83,-1.88e-01,
84,-1.04e-01,
85,-1.88e-01,
86,-9.60e-02,
87,-1.84e-01,
88,-1.72e-01,
89,-1.12e-01,
90,-1.12e-01,
91,-1.92e-01,
92,-1.76e-01,
93,-1.04e-01,
94,-1.12e-01,
95,-1.80e-01,
96,-1.80e-01,
97,-1.08e-01,
98,-1.04e-01,
99,-1.92e-01,
100,-1.08e-01,
101,-1.88e-01,
102,-1.16e-01,
103,-1.92e-01,
104,-1.08e-01,
105,-1.84e-01,
106,-1.88e-01,
107,-1.08e-01,
108,-8.80e-02,
109,-1.88e-01,
110,-1.08e-01,
111,-1.84e-01,
112,-1.84e-01,
113,-1.04e-01,
114,-1.88e-01,
115,-1.08e-01,
116,-1.84e-01,
117,-1.08e-01,
118,-1.84e-01,
119,-1.08e-01,
120,-1.92e-01,
121,-1.04e-01,
122,-1.76e-01,
123,-1.00e-01,
124,-1.76e-01,
125,-1.16e-01,
126,-1.00e-01,
127,-1.88e-01,
128,-1.76e-01,
129,-1.08e-01,
130,-1.88e-01,
131,-9.60e-02,
132,-1.84e-01,
133,-1.04e-01,
134,-1.84e-01,
135,-1.08e-01,
136,-1.08e-01,
137,-1.88e-01,
138,-1.08e-01,
139,-1.84e-01,
140,-1.76e-01,
141,-1.04e-01,
142,-1.76e-01,
143,-1.12e-01,
144,-1.12e-01,
145,-1.76e-01,
146,-1.88e-01,
147,-1.08e-01,
148,-1.08e-01,
149,-1.88e-01,
150,-1.04e-01,
151,-1.92e-01,
152,-1.12e-01,
153,-1.84e-01,
154,-1.80e-01,
155,-1.04e-01,
156,-1.04e-01,
157,-1.88e-01,
158,-1.80e-01,
159,-1.00e-01,
160,-1.08e-01,
161,-1.84e-01,
162,-1.92e-01,
163,-1.00e-01,
164,-1.12e-01,
165,-1.76e-01,
166,-1.04e-01,
167,-1.92e-01,
168,-1.76e-01,
169,-1.04e-01,
170,-1.16e-01,
171,-1.84e-01,
172,-1.08e-01,
173,-1.80e-01,
174,-1.04e-01,
175,-1.84e-01,
176,-1.76e-01,
177,-1.08e-01,
178,-1.08e-01,
179,-1.84e-01,
180,-1.12e-01,
181,-1.76e-01,
182,-1.76e-01,
183,-1.08e-01,
184,-1.80e-01,
185,-1.08e-01,
186,-1.08e-01,
187,-1.88e-01,
188,-1.00e-01,
189,-1.88e-01,
190,-1.00e-01,
191,-1.92e-01,
192,-1.76e-01,
193,-1.08e-01,
194,-1.84e-01,
195,-1.08e-01,
196,-1.80e-01,
197,-1.12e-01,
198,-1.12e-01,
199,-1.84e-01,
200,-1.04e-01,
201,-1.84e-01,
202,-1.80e-01,
203,-1.08e-01,
204,-1.00e-01,
205,-1.96e-01,
206,-1.04e-01,
207,-1.84e-01,
208,-1.16e-01,
209,-1.84e-01,
210,-1.00e-01,
211,-1.84e-01,
212,-1.92e-01,
213,-1.04e-01,
214,-1.72e-01,
215,-1.04e-01,
216,-1.04e-01,
217,-1.76e-01,
218,-1.84e-01,
219,-1.08e-01,
220,-1.12e-01,
221,-1.84e-01,
222,-1.84e-01,
223,-1.16e-01,
224,-1.76e-01,
225,-1.16e-01,
226,-1.76e-01,
227,-1.12e-01,
228,-1.12e-01,
229,-1.80e-01,
230,-1.08e-01,
231,-1.84e-01,
232,-1.88e-01,
233,-1.04e-01,
234,-1.12e-01,
235,-1.84e-01,
236,-1.00e-01,
237,-1.88e-01,
238,-1.84e-01,
239,-1.04e-01,
240,-1.76e-01,
241,-1.08e-01,
242,-1.08e-01,
243,-1.84e-01,
244,-1.08e-01,
245,-1.88e-01,
246,-1.88e-01,
247,-1.08e-01,
248,-1.84e-01,
249,-9.20e-02,
250,-1.12e-01,
251,-1.84e-01,
252,-1.76e-01,
253,-1.08e-01,
254,-1.96e-01,
255,-1.04e-01,
256,-1.04e-01,
257,-1.80e-01,
258,-1.84e-01,
259,-1.08e-01,
260,-1.00e-01,
261,-1.92e-01,
262,-1.04e-01,
263,-1.80e-01,
264,-1.72e-01,
265,-1.04e-01,
266,-1.00e-01,
267,-1.80e-01,
268,-1.12e-01,
269,-1.84e-01,
270,-1.08e-01,
271,-2.00e-01,
272,-1.12e-01,
273,-1.76e-01,
274,-1.08e-01,
275,-1.84e-01,
276,-1.12e-01,
277,-1.88e-01,
278,-1.04e-01,
279,-1.84e-01,
280,-1.08e-01,
281,-1.76e-01,
282,-1.76e-01,
283,-1.08e-01,
284,-1.92e-01,
285,-1.04e-01,
286,-1.80e-01,
287,-9.20e-02,
288,-1.88e-01,
289,-9.60e-02,
290,-1.84e-01,
291,-1.16e-01,
292,-1.88e-01,
293,-1.04e-01,
294,-1.84e-01,
295,-1.12e-01,
296,-1.08e-01,
297,-1.88e-01,
298,-1.84e-01,
299,-1.12e-01,
300,-1.12e-01,
301,-2.04e-01,
302,-1.08e-01,
303,-1.88e-01,
304,-1.88e-01,
305,-1.00e-01,
306,-1.88e-01,
307,-1.04e-01,
308,-1.80e-01,
309,-1.08e-01,
310,-1.16e-01,
311,-1.92e-01,
312,-1.08e-01,
313,-1.80e-01,
314,-1.12e-01,
315,-1.84e-01,
316,-1.12e-01,
317,-1.80e-01,
318,-1.08e-01,
319,-1.84e-01,
320,-1.84e-01,
321,-1.12e-01,
322,-9.20e-02,
323,-1.76e-01,
324,-1.84e-01,
325,-1.12e-01,
326,-1.12e-01,
327,-1.92e-01,
328,-1.08e-01,
329,-1.88e-01,
330,-1.92e-01,
331,-1.08e-01,
332,-1.08e-01,
333,-1.84e-01,
334,-1.04e-01,
335,-1.84e-01,
336,-1.08e-01,
337,-1.88e-01,
338,-1.88e-01,
339,-1.08e-01,
340,-1.12e-01,
341,-1.84e-01,
342,-1.16e-01,
343,-1.88e-01,
344,-1.84e-01,
345,-1.08e-01,
346,-1.12e-01,
347,-1.84e-01,
348,-1.84e-01,
349,-1.08e-01,
350,-1.08e-01,
351,-1.88e-01,
352,-1.80e-01,
353,-1.08e-01,
354,-1.04e-01,
355,-1.84e-01,
356,-1.08e-01,
357,-1.76e-01,
358,-1.84e-01,
359,-1.00e-01,
360,-1.92e-01,
361,-1.04e-01,
362,-1.00e-01,
363,-1.96e-01,
364,-1.12e-01,
365,-1.84e-01,
366,-1.04e-01,
367,-1.88e-01,
368,-1.08e-01,
369,-1.88e-01,
370,-1.16e-01,
371,-1.88e-01,
372,-1.08e-01,
373,-1.76e-01,
374,-1.84e-01,
375,-1.12e-01,
376,-1.04e-01,
377,-1.92e-01,
378,-1.08e-01,
379,-1.96e-01,
380,-1.08e-01,
381,-1.80e-01,
382,-1.92e-01,
383,-1.08e-01,
384,-1.08e-01,
385,-1.80e-01,
386,-1.16e-01,
387,-1.88e-01,
388,-1.88e-01,
389,-1.08e-01,
390,-1.12e-01,
391,-1.88e-01,
392,-1.08e-01,
393,-1.84e-01,
394,-1.72e-01,
395,-1.04e-01,
396,-1.84e-01,
397,-9.60e-02,
398,-1.76e-01,
399,-1.04e-01,
400,-1.80e-01,
401,-9.20e-02,
402,-1.08e-01,
403,-1.88e-01,
404,-1.72e-01,
405,-1.08e-01,
406,-1.80e-01,
407,-9.60e-02,
408,-1.76e-01,
409,-1.08e-01,
410,-1.84e-01,
411,-1.08e-01,
412,-1.04e-01,
413,-1.76e-01,
414,-1.04e-01,
415,-1.84e-01,
416,-1.80e-01,
417,-1.08e-01,
418,-1.84e-01,
419,-1.08e-01,
420,-1.80e-01,
421,-1.08e-01,
422,-1.84e-01,
423,-1.00e-01,
424,-1.84e-01,
425,-1.04e-01,
426,-1.04e-01,
427,-1.76e-01,
428,-1.12e-01,
429,-1.76e-01,
430,-1.76e-01,
431,-1.08e-01,
432,-1.08e-01,
433,-1.84e-01,
434,-1.04e-01,
435,-1.80e-01,
436,-1.04e-01,
437,-1.76e-01,
438,-1.84e-01,
439,-1.04e-01,
440,-1.08e-01,
441,-1.76e-01,
442,-1.88e-01,
443,-1.08e-01,
444,-1.88e-01,
445,-1.04e-01,
446,-1.72e-01,
447,-1.08e-01,
448,-1.88e-01,
449,-1.08e-01,
450,-1.88e-01,
451,-1.12e-01,
452,-1.08e-01,
453,-1.92e-01,
454,-1.08e-01,
455,-1.92e-01,
456,-1.88e-01,
457,-1.12e-01,
458,-1.12e-01,
459,-1.84e-01,
460,-1.80e-01,
461,-1.04e-01,
462,-1.04e-01,
463,-1.92e-01,
464,-1.08e-01,
465,-1.88e-01,
466,-1.80e-01,
467,-1.04e-01,
468,-1.08e-01,
469,-1.84e-01,
470,-1.88e-01,
471,-1.08e-01,
472,-9.60e-02,
473,-1.76e-01,
474,-1.80e-01,
475,-1.12e-01,
476,-1.04e-01,
477,-1.80e-01,
478,-1.88e-01,
479,-1.08e-01,
480,-1.12e-01,
481,-1.88e-01,
482,-1.76e-01,
483,-1.04e-01,
484,-1.88e-01,
485,-1.08e-01,
486,-1.04e-01,
487,-1.88e-01,
488,-1.84e-01,
489,-1.08e-01,
490,-1.80e-01,
491,-1.12e-01,
492,-1.12e-01,
493,-1.88e-01,
494,-1.08e-01,
495,-1.76e-01,
496,-1.76e-01,
497,-1.04e-01,
498,-1.12e-01,
499,-1.84e-01,
500,-1.80e-01,
501,-1.04e-01,
502,-1.84e-01,
503,-1.04e-01,
504,-1.16e-01,
505,-1.84e-01,
506,-1.08e-01,
507,-1.76e-01,
508,-1.04e-01,
509,-1.80e-01,
510,-1.76e-01,
511,-1.00e-01,
512,-1.80e-01,
513,-1.04e-01,
514,-1.88e-01,
515,-1.08e-01,
516,-1.08e-01,
517,-1.84e-01,
518,-1.76e-01,
519,-1.04e-01,
520,-1.80e-01,
521,-9.60e-02,
522,-1.88e-01,
523,-1.08e-01,
524,-1.08e-01,
525,-1.84e-01,
526,-1.08e-01,
527,-1.76e-01,
528,-1.04e-01,
529,-1.80e-01,
530,-1.76e-01,
531,-1.04e-01,
532,-1.04e-01,
533,-1.76e-01,
534,-1.04e-01,
535,-1.84e-01,
536,-1.80e-01,
537,-1.08e-01,
538,-1.00e-01,
539,-1.84e-01,
540,-1.80e-01,
541,-1.12e-01,
542,-9.60e-02,
543,-1.84e-01,
544,-1.84e-01,
545,-9.20e-02,
546,-1.08e-01,
547,-1.80e-01,
548,-1.80e-01,
549,-1.08e-01,
550,-1.76e-01,
551,-1.04e-01,
552,-1.84e-01,
553,-1.08e-01,
554,-1.12e-01,
555,-1.84e-01,
556,-1.88e-01,
557,-1.12e-01,
558,-1.04e-01,
559,-1.76e-01,
560,-1.08e-01,
561,-1.80e-01,
562,-1.16e-01,
563,-1.76e-01,
564,-1.84e-01,
565,-1.04e-01,
566,-1.00e-01,
567,-1.80e-01,
568,-1.08e-01,
569,-1.76e-01,
570,-1.08e-01,
571,-1.84e-01,
572,-1.12e-01,
573,-1.80e-01,
574,-1.80e-01,
575,-1.04e-01,
576,-1.80e-01,
577,-1.08e-01,
578,-1.08e-01,
579,-1.88e-01,
580,-1.04e-01,
581,-1.84e-01,
582,-1.08e-01,
583,-1.84e-01,
584,-1.00e-01,
585,-1.76e-01,
586,-1.04e-01,
587,-1.80e-01,
588,-1.12e-01,
589,-1.88e-01,
590,-1.08e-01,
591,-1.88e-01,
592,-1.84e-01,
593,-1.16e-01,
594,-1.08e-01,
595,-1.84e-01,
596,-1.76e-01,
597,-1.08e-01,
598,-1.08e-01,
599,-1.92e-01,
600,-1.08e-01,
601,-1.92e-01,
602,-1.08e-01,
603,-1.88e-01,
604,-1.04e-01,
605,-1.76e-01,
606,-1.08e-01,
607,-1.88e-01,
608,-1.08e-01,
609,-1.76e-01,
610,-1.04e-01,
611,-1.88e-01,
612,-2.04e-01,
613,-1.04e-01,
614,-1.80e-01,
615,-1.04e-01,
616,-1.80e-01,
617,-1.04e-01,
618,-1.84e-01,
619,-1.00e-01,
620,-1.84e-01,
621,-1.12e-01,
622,-1.12e-01,
623,-1.84e-01,
624,-1.80e-01,
625,-1.04e-01,
626,-1.76e-01,
627,-1.08e-01,
628,-1.84e-01,
629,-1.08e-01,
630,-1.80e-01,
631,-1.04e-01,
632,-1.88e-01,
633,-1.12e-01,
634,-1.08e-01,
635,-1.80e-01,
636,-1.08e-01,
637,-1.84e-01,
638,-1.88e-01,
639,-1.12e-01,
640,-1.84e-01,
641,-1.08e-01,
642,-1.80e-01,
643,-1.04e-01,
644,-1.76e-01,
645,-1.04e-01,
646,-1.12e-01,
647,-1.80e-01,
648,-1.84e-01,
649,-1.04e-01,
650,-1.92e-01,
651,-1.16e-01,
652,-1.80e-01,
653,-1.04e-01,
654,-1.08e-01,
655,-1.84e-01,
656,-1.84e-01,
657,-1.08e-01,
658,-1.04e-01,
659,-1.84e-01,
660,-1.16e-01,
661,-1.72e-01,
662,-1.88e-01,
663,-1.08e-01,
664,-1.76e-01,
665,-9.20e-02,
666,-1.80e-01,
667,-9.60e-02,
668,-1.84e-01,
669,-1.08e-01,
670,-1.12e-01,
671,-1.92e-01,
672,-1.08e-01,
673,-1.80e-01,
674,-1.72e-01,
675,-1.04e-01,
676,-1.08e-01,
677,-1.80e-01,
678,-1.00e-01,
679,-1.84e-01,
680,-1.76e-01,
681,-1.16e-01,
682,-1.84e-01,
683,-9.60e-02,
684,-1.92e-01,
685,-1.08e-01,
686,-1.04e-01,
687,-1.88e-01,
688,-1.04e-01,
689,-1.88e-01,
690,-1.76e-01,
691,-1.04e-01,
692,-1.92e-01,
693,-1.04e-01,
694,-1.88e-01,
695,-1.00e-01,
696,-1.76e-01,
697,-1.04e-01,
698,-1.04e-01,
699,-1.80e-01,
700,-1.12e-01,
701,-1.84e-01,
702,-1.04e-01,
703,-1.80e-01,
704,-1.08e-01,
705,-1.76e-01,
706,-1.88e-01,
707,-1.00e-01,
708,-1.76e-01,
709,-1.12e-01,
710,-1.76e-01,
711,-1.12e-01,
712,-1.04e-01,
713,-1.92e-01,
714,-1.08e-01,
715,-1.84e-01,
716,-9.60e-02,
717,-1.84e-01,
718,-1.08e-01,
719,-1.84e-01,
720,-1.84e-01,
721,-1.08e-01,
722,-1.84e-01,
723,-1.12e-01,
724,-1.04e-01,
725,-1.84e-01,
726,-1.92e-01,
727,-1.00e-01,
728,-1.12e-01,
729,-1.92e-01,
730,-1.84e-01,
731,-1.16e-01,
732,-1.04e-01,
733,-1.88e-01,
734,-1.04e-01,
735,-1.84e-01,
736,-1.92e-01,
737,-1.08e-01,
738,-1.84e-01,
739,-1.08e-01,
740,-1.80e-01,
741,-1.12e-01,
742,-1.88e-01,
743,-9.20e-02,
744,-1.84e-01,
745,-1.04e-01,
746,-1.80e-01,
747,-1.08e-01,
748,-1.84e-01,
749,-1.00e-01,
750,-1.76e-01,
751,-1.08e-01,
752,-1.84e-01,
753,-1.04e-01,
754,-1.08e-01,
755,-1.80e-01,
756,-1.84e-01,
757,-1.04e-01,
758,-1.08e-01,
759,-1.84e-01,
760,-1.08e-01,
761,-1.80e-01,
762,-1.88e-01,
763,-1.08e-01,
764,-1.76e-01,
765,-1.04e-01,
766,-1.80e-01,
767,-1.04e-01,
768,-1.12e-01,
769,-1.84e-01,
770,-1.12e-01,
771,-1.76e-01,
772,-1.76e-01,
773,-1.08e-01,
774,-1.76e-01,
775,-1.08e-01,
776,-1.76e-01,
777,-1.04e-01,
778,-1.84e-01,
779,-1.12e-01,
780,-1.84e-01,
781,-1.12e-01,
782,-1.00e-01,
783,-1.72e-01,
