fastdiffamp/data-noise-set/unb-left-mean/NewFile18.csv

X,CH1,Start,Increment,
Sequence,Volt,-5.900000e+00,1.000000e-02
0,-1.40e-01,
1,-7.20e-02,
2,-7.20e-02,
3,-1.52e-01,
4,-7.20e-02,
5,-1.48e-01,
6,-7.60e-02,
7,-1.52e-01,
8,-1.40e-01,
9,-7.60e-02,
10,-6.00e-02,
11,-1.52e-01,
12,-1.40e-01,
13,-7.20e-02,
14,-7.20e-02,
15,-1.48e-01,
16,-6.80e-02,
17,-1.56e-01,
18,-7.20e-02,
19,-1.52e-01,
20,-7.20e-02,
21,-1.48e-01,
22,-1.40e-01,
23,-7.60e-02,
24,-1.40e-01,
25,-7.20e-02,
26,-1.56e-01,
27,-7.60e-02,
28,-1.44e-01,
29,-6.80e-02,
30,-6.80e-02,
31,-1.52e-01,
32,-1.36e-01,
33,-7.20e-02,
34,-7.20e-02,
35,-1.40e-01,
36,-1.40e-01,
37,-6.80e-02,
38,-1.40e-01,
39,-6.40e-02,
40,-1.36e-01,
41,-7.20e-02,
42,-7.20e-02,
43,-1.44e-01,
44,-7.60e-02,
45,-1.44e-01,
46,-6.40e-02,
47,-1.48e-01,
48,-7.60e-02,
49,-1.40e-01,
50,-6.00e-02,
51,-1.48e-01,
52,-7.60e-02,
53,-1.44e-01,
54,-1.56e-01,
55,-6.40e-02,
56,-7.60e-02,
57,-1.44e-01,
58,-6.80e-02,
59,-1.48e-01,
60,-1.52e-01,
61,-7.20e-02,
62,-6.80e-02,
63,-1.52e-01,
64,-7.20e-02,
65,-1.40e-01,
66,-6.80e-02,
67,-1.56e-01,
68,-1.44e-01,
69,-7.60e-02,
70,-1.52e-01,
71,-7.60e-02,
72,-1.44e-01,
73,-7.20e-02,
74,-6.00e-02,
75,-1.44e-01,
76,-7.20e-02,
77,-1.44e-01,
78,-1.40e-01,
79,-7.20e-02,
80,-7.20e-02,
81,-1.48e-01,
82,-7.60e-02,
83,-1.64e-01,
84,-7.20e-02,
85,-1.52e-01,
86,-7.20e-02,
87,-1.44e-01,
88,-6.00e-02,
89,-1.48e-01,
90,-1.40e-01,
91,-6.80e-02,
92,-1.52e-01,
93,-6.80e-02,
94,-6.80e-02,
95,-1.48e-01,
96,-6.80e-02,
97,-1.44e-01,
98,-6.80e-02,
99,-1.56e-01,
100,-1.40e-01,
101,-7.60e-02,
102,-7.20e-02,
103,-1.36e-01,
104,-5.60e-02,
105,-1.52e-01,
106,-1.52e-01,
107,-6.00e-02,
108,-1.40e-01,
109,-8.00e-02,
110,-1.52e-01,
111,-6.80e-02,
112,-1.40e-01,
113,-6.80e-02,
114,-7.20e-02,
115,-1.52e-01,
116,-6.80e-02,
117,-1.44e-01,
118,-6.80e-02,
119,-1.56e-01,
120,-1.48e-01,
121,-7.60e-02,
122,-1.48e-01,
123,-6.80e-02,
124,-8.00e-02,
125,-1.48e-01,
126,-7.60e-02,
127,-1.44e-01,
128,-6.80e-02,
129,-1.52e-01,
130,-1.52e-01,
131,-7.60e-02,
132,-1.40e-01,
133,-7.60e-02,
134,-7.60e-02,
135,-1.48e-01,
136,-1.44e-01,
137,-7.20e-02,
138,-1.68e-01,
139,-6.00e-02,
140,-7.60e-02,
141,-1.44e-01,
142,-1.40e-01,
143,-7.60e-02,
144,-7.20e-02,
145,-1.52e-01,
146,-7.20e-02,
147,-1.48e-01,
148,-1.48e-01,
149,-6.80e-02,
150,-1.40e-01,
151,-7.20e-02,
152,-8.00e-02,
153,-1.48e-01,
154,-1.60e-01,
155,-7.20e-02,
156,-1.44e-01,
157,-7.20e-02,
158,-6.00e-02,
159,-1.44e-01,
160,-1.44e-01,
161,-5.60e-02,
162,-1.48e-01,
163,-6.80e-02,
164,-1.44e-01,
165,-6.80e-02,
166,-8.00e-02,
167,-1.44e-01,
168,-8.00e-02,
169,-1.44e-01,
170,-6.80e-02,
171,-1.40e-01,
172,-1.56e-01,
173,-7.20e-02,
174,-6.80e-02,
175,-1.52e-01,
176,-1.48e-01,
177,-7.20e-02,
178,-7.20e-02,
179,-1.44e-01,
180,-7.20e-02,
181,-1.40e-01,
182,-7.60e-02,
183,-1.48e-01,
184,-7.20e-02,
185,-1.44e-01,
186,-1.40e-01,
187,-6.80e-02,
188,-7.20e-02,
189,-1.56e-01,
190,-7.60e-02,
191,-1.40e-01,
192,-1.52e-01,
193,-7.20e-02,
194,-7.20e-02,
195,-1.36e-01,
196,-1.40e-01,
197,-6.80e-02,
198,-1.40e-01,
199,-6.00e-02,
200,-1.44e-01,
201,-7.20e-02,
202,-7.20e-02,
203,-1.48e-01,
204,-6.40e-02,
205,-1.36e-01,
206,-1.44e-01,
207,-6.80e-02,
208,-1.56e-01,
209,-6.80e-02,
210,-7.20e-02,
211,-1.52e-01,
212,-7.60e-02,
213,-1.60e-01,
214,-1.36e-01,
215,-7.20e-02,
216,-1.48e-01,
217,-6.00e-02,
218,-1.40e-01,
219,-6.80e-02,
220,-6.00e-02,
221,-1.56e-01,
222,-7.20e-02,
223,-1.44e-01,
224,-1.44e-01,
225,-7.20e-02,
226,-1.44e-01,
227,-6.80e-02,
228,-8.40e-02,
229,-1.52e-01,
230,-6.80e-02,
231,-1.36e-01,
232,-1.44e-01,
233,-7.20e-02,
234,-5.60e-02,
235,-1.52e-01,
236,-7.20e-02,
237,-1.48e-01,
238,-7.20e-02,
239,-1.40e-01,
240,-7.60e-02,
241,-1.40e-01,
242,-6.80e-02,
243,-1.48e-01,
244,-7.60e-02,
245,-1.44e-01,
246,-1.68e-01,
247,-5.60e-02,
248,-1.40e-01,
249,-7.60e-02,
250,-1.40e-01,
251,-7.60e-02,
252,-1.52e-01,
253,-6.80e-02,
254,-1.36e-01,
255,-7.20e-02,
256,-6.00e-02,
257,-1.44e-01,
258,-5.60e-02,
259,-1.48e-01,
260,-1.40e-01,
261,-7.20e-02,
262,-6.80e-02,
263,-1.44e-01,
264,-1.44e-01,
265,-5.60e-02,
266,-7.60e-02,
267,-1.56e-01,
268,-7.20e-02,
269,-1.40e-01,
270,-6.80e-02,
271,-1.52e-01,
272,-6.00e-02,
273,-1.44e-01,
274,-7.20e-02,
275,-1.48e-01,
276,-1.52e-01,
277,-6.40e-02,
278,-6.40e-02,
279,-1.52e-01,
280,-6.80e-02,
281,-1.48e-01,
282,-1.48e-01,
283,-7.20e-02,
284,-7.60e-02,
285,-1.40e-01,
286,-8.00e-02,
287,-1.48e-01,
288,-1.40e-01,
289,-7.20e-02,
290,-1.40e-01,
291,-6.80e-02,
292,-1.56e-01,
293,-7.60e-02,
294,-1.48e-01,
295,-7.20e-02,
296,-1.56e-01,
297,-6.80e-02,
298,-1.52e-01,
299,-5.60e-02,
300,-7.60e-02,
301,-1.40e-01,
302,-1.44e-01,
303,-7.20e-02,
304,-7.20e-02,
305,-1.44e-01,
306,-1.40e-01,
307,-6.80e-02,
308,-1.36e-01,
309,-6.80e-02,
310,-1.40e-01,
311,-6.80e-02,
312,-1.48e-01,
313,-6.40e-02,
314,-7.60e-02,
315,-1.56e-01,
316,-1.40e-01,
317,-6.40e-02,
318,-7.20e-02,
319,-1.52e-01,
320,-1.40e-01,
321,-6.00e-02,
322,-6.40e-02,
323,-1.44e-01,
324,-7.60e-02,
325,-1.44e-01,
326,-1.52e-01,
327,-7.20e-02,
328,-1.48e-01,
329,-7.20e-02,
330,-1.44e-01,
331,-7.60e-02,
332,-1.56e-01,
333,-7.60e-02,
334,-1.52e-01,
335,-6.80e-02,
336,-7.20e-02,
337,-1.52e-01,
338,-7.60e-02,
339,-1.40e-01,
340,-1.52e-01,
341,-6.80e-02,
342,-6.80e-02,
343,-1.44e-01,
344,-6.80e-02,
345,-1.56e-01,
346,-7.20e-02,
347,-1.48e-01,
348,-1.44e-01,
349,-7.20e-02,
350,-7.60e-02,
351,-1.40e-01,
352,-6.00e-02,
353,-1.52e-01,
354,-1.52e-01,
355,-7.60e-02,
356,-7.60e-02,
357,-1.44e-01,
358,-1.40e-01,
359,-7.20e-02,
360,-1.52e-01,
361,-6.80e-02,
362,-6.80e-02,
363,-1.40e-01,
364,-1.44e-01,
365,-6.80e-02,
366,-6.80e-02,
367,-1.48e-01,
368,-1.48e-01,
369,-7.60e-02,
370,-1.44e-01,
371,-7.20e-02,
372,-6.00e-02,
373,-1.48e-01,
374,-7.20e-02,
375,-1.48e-01,
376,-1.52e-01,
377,-6.80e-02,
378,-1.48e-01,
379,-7.20e-02,
380,-1.64e-01,
381,-7.20e-02,
382,-1.52e-01,
383,-7.20e-02,
384,-1.40e-01,
385,-6.80e-02,
386,-7.60e-02,
387,-1.48e-01,
388,-1.40e-01,
389,-6.80e-02,
390,-6.40e-02,
391,-1.44e-01,
392,-7.20e-02,
393,-1.44e-01,
394,-7.20e-02,
395,-1.44e-01,
396,-1.40e-01,
397,-6.00e-02,
398,-8.40e-02,
399,-1.44e-01,
400,-1.40e-01,
401,-7.20e-02,
402,-7.20e-02,
403,-1.40e-01,
404,-1.44e-01,
405,-7.20e-02,
406,-1.48e-01,
407,-6.40e-02,
408,-1.40e-01,
409,-6.80e-02,
410,-7.20e-02,
411,-1.40e-01,
412,-7.20e-02,
413,-1.44e-01,
414,-7.20e-02,
415,-1.40e-01,
416,-1.48e-01,
417,-7.20e-02,
418,-1.52e-01,
419,-7.20e-02,
420,-5.60e-02,
421,-1.40e-01,
422,-7.60e-02,
423,-1.40e-01,
424,-1.40e-01,
425,-6.80e-02,
426,-7.60e-02,
427,-1.60e-01,
428,-1.52e-01,
429,-6.80e-02,
430,-7.20e-02,
431,-1.36e-01,
432,-1.40e-01,
433,-7.60e-02,
434,-7.60e-02,
435,-1.44e-01,
436,-6.80e-02,
437,-1.48e-01,
438,-1.48e-01,
439,-7.20e-02,
440,-1.48e-01,
441,-6.80e-02,
442,-1.44e-01,
443,-6.40e-02,
444,-6.80e-02,
445,-1.44e-01,
446,-1.48e-01,
447,-6.00e-02,
448,-6.80e-02,
449,-1.44e-01,
450,-1.52e-01,
451,-7.20e-02,
452,-7.20e-02,
453,-1.52e-01,
454,-6.80e-02,
455,-1.40e-01,
456,-6.00e-02,
457,-1.48e-01,
458,-1.36e-01,
459,-7.20e-02,
460,-1.44e-01,
461,-6.80e-02,
462,-7.20e-02,
463,-1.48e-01,
464,-6.40e-02,
465,-1.44e-01,
466,-1.48e-01,
467,-7.20e-02,
468,-1.56e-01,
469,-6.80e-02,
470,-1.52e-01,
471,-7.20e-02,
472,-1.52e-01,
473,-7.60e-02,
474,-1.40e-01,
475,-5.60e-02,
476,-7.60e-02,
477,-1.52e-01,
478,-7.20e-02,
479,-1.52e-01,
480,-7.20e-02,
481,-1.52e-01,
482,-6.00e-02,
483,-1.40e-01,
484,-7.20e-02,
485,-1.40e-01,
486,-1.44e-01,
487,-7.20e-02,
488,-7.20e-02,
489,-1.44e-01,
490,-1.40e-01,
491,-6.80e-02,
492,-7.60e-02,
493,-1.40e-01,
494,-6.40e-02,
495,-1.52e-01,
496,-7.60e-02,
497,-1.44e-01,
498,-1.52e-01,
499,-7.60e-02,
500,-7.20e-02,
501,-1.52e-01,
502,-1.44e-01,
503,-7.20e-02,
504,-7.60e-02,
505,-1.52e-01,
506,-6.80e-02,
507,-1.68e-01,
508,-1.60e-01,
509,-7.20e-02,
510,-1.48e-01,
511,-6.40e-02,
512,-1.40e-01,
513,-7.20e-02,
514,-1.44e-01,
515,-7.20e-02,
516,-7.20e-02,
517,-1.40e-01,
518,-7.20e-02,
519,-1.52e-01,
520,-1.48e-01,
521,-7.20e-02,
522,-7.20e-02,
523,-1.44e-01,
524,-7.60e-02,
525,-1.56e-01,
526,-1.40e-01,
527,-6.80e-02,
528,-6.80e-02,
529,-1.52e-01,
530,-7.20e-02,
531,-1.48e-01,
532,-1.48e-01,
533,-7.20e-02,
534,-1.48e-01,
535,-7.20e-02,
536,-1.44e-01,
537,-7.20e-02,
538,-6.80e-02,
539,-1.44e-01,
540,-1.48e-01,
541,-5.60e-02,
542,-1.40e-01,
543,-7.20e-02,
544,-1.48e-01,
545,-6.80e-02,
546,-1.48e-01,
547,-6.00e-02,
548,-6.80e-02,
549,-1.48e-01,
550,-7.60e-02,
551,-1.48e-01,
552,-7.20e-02,
553,-1.40e-01,
554,-7.20e-02,
555,-1.52e-01,
556,-6.80e-02,
557,-1.56e-01,
558,-1.44e-01,
559,-6.80e-02,
560,-6.40e-02,
561,-1.48e-01,
562,-7.60e-02,
563,-1.48e-01,
564,-7.60e-02,
565,-1.52e-01,
566,-6.80e-02,
567,-1.40e-01,
568,-1.48e-01,
569,-8.00e-02,
570,-6.80e-02,
571,-1.48e-01,
572,-7.20e-02,
573,-1.56e-01,
574,-1.40e-01,
575,-6.00e-02,
576,-1.52e-01,
577,-6.80e-02,
578,-1.56e-01,
579,-7.20e-02,
580,-6.80e-02,
581,-1.48e-01,
582,-1.60e-01,
583,-7.20e-02,
584,-1.52e-01,
585,-5.60e-02,
586,-6.40e-02,
587,-1.48e-01,
588,-7.20e-02,
589,-1.40e-01,
590,-7.20e-02,
591,-1.52e-01,
592,-7.20e-02,
593,-1.40e-01,
594,-1.44e-01,
595,-6.80e-02,
596,-7.60e-02,
597,-1.56e-01,
598,-1.44e-01,
599,-6.40e-02,
600,-1.52e-01,
601,-7.20e-02,
602,-1.40e-01,
603,-7.60e-02,
604,-7.60e-02,
605,-1.48e-01,
606,-1.56e-01,
607,-6.40e-02,
608,-6.80e-02,
609,-1.48e-01,
610,-1.48e-01,
611,-6.80e-02,
612,-7.20e-02,
613,-1.52e-01,
614,-1.48e-01,
615,-7.20e-02,
616,-7.20e-02,
617,-1.44e-01,
618,-1.52e-01,
619,-7.60e-02,
620,-1.48e-01,
621,-6.40e-02,
622,-6.80e-02,
623,-1.44e-01,
624,-7.20e-02,
625,-1.52e-01,
626,-1.40e-01,
627,-7.60e-02,
628,-1.36e-01,
629,-6.80e-02,
630,-1.52e-01,
631,-6.80e-02,
632,-1.40e-01,
633,-6.80e-02,
634,-7.20e-02,
635,-1.56e-01,
636,-6.00e-02,
637,-1.40e-01,
638,-6.80e-02,
639,-1.44e-01,
640,-6.80e-02,
641,-1.52e-01,
642,-6.80e-02,
643,-1.40e-01,
644,-6.00e-02,
645,-1.44e-01,
646,-1.44e-01,
647,-7.20e-02,
648,-1.40e-01,
649,-5.60e-02,
650,-1.40e-01,
651,-6.80e-02,
652,-1.44e-01,
653,-6.80e-02,
654,-1.56e-01,
655,-7.20e-02,
656,-7.20e-02,
657,-1.52e-01,
658,-1.52e-01,
659,-7.20e-02,
660,-1.48e-01,
661,-6.80e-02,
662,-1.40e-01,
663,-7.60e-02,
664,-1.52e-01,
665,-7.60e-02,
666,-1.48e-01,
667,-6.80e-02,
668,-1.52e-01,
669,-7.20e-02,
670,-6.80e-02,
671,-1.40e-01,
672,-6.80e-02,
673,-1.44e-01,
674,-7.20e-02,
675,-1.44e-01,
676,-1.40e-01,
677,-7.20e-02,
678,-6.80e-02,
679,-1.44e-01,
680,-1.52e-01,
681,-6.80e-02,
682,-1.40e-01,
683,-7.60e-02,
684,-7.20e-02,
685,-1.56e-01,
686,-6.80e-02,
687,-1.48e-01,
688,-1.64e-01,
689,-6.80e-02,
690,-7.60e-02,
691,-1.60e-01,
692,-1.52e-01,
693,-6.00e-02,
694,-1.40e-01,
695,-8.00e-02,
696,-7.60e-02,
697,-1.48e-01,
698,-7.20e-02,
699,-1.44e-01,
700,-6.80e-02,
701,-1.48e-01,
702,-7.20e-02,
703,-1.48e-01,
704,-1.44e-01,
705,-6.80e-02,
706,-6.80e-02,
707,-1.48e-01,
708,-1.52e-01,
709,-6.80e-02,
710,-1.44e-01,
711,-7.20e-02,
712,-1.44e-01,
713,-6.40e-02,
714,-6.80e-02,
715,-1.48e-01,
716,-7.20e-02,
717,-1.48e-01,
718,-1.52e-01,
719,-7.20e-02,
720,-1.48e-01,
721,-6.00e-02,
722,-1.56e-01,
723,-6.80e-02,
724,-6.40e-02,
725,-1.44e-01,
726,-8.00e-02,
727,-1.40e-01,
728,-7.20e-02,
729,-1.48e-01,
730,-1.52e-01,
731,-7.60e-02,
732,-6.80e-02,
733,-1.48e-01,
734,-1.56e-01,
735,-7.20e-02,
736,-1.40e-01,
737,-6.80e-02,
738,-1.48e-01,
739,-6.80e-02,
740,-1.56e-01,
741,-7.20e-02,
742,-6.80e-02,
743,-1.48e-01,
744,-1.44e-01,
745,-5.20e-02,
746,-7.20e-02,
747,-1.44e-01,
748,-4.80e-02,
749,-1.48e-01,
750,-1.48e-01,
751,-7.20e-02,
752,-7.20e-02,
753,-1.48e-01,
754,-8.00e-02,
755,-1.52e-01,
756,-6.80e-02,
757,-1.36e-01,
758,-7.20e-02,
759,-1.40e-01,
760,-1.48e-01,
761,-6.40e-02,
762,-1.48e-01,
763,-6.00e-02,
764,-1.48e-01,
765,-7.60e-02,
766,-7.20e-02,
767,-1.52e-01,
768,-7.20e-02,
769,-1.40e-01,
770,-6.40e-02,
771,-1.52e-01,
772,-7.60e-02,
773,-1.52e-01,
774,-6.40e-02,
775,-1.56e-01,
776,-7.20e-02,
777,-1.44e-01,
778,-7.60e-02,
779,-1.44e-01,
780,-1.48e-01,
781,-7.20e-02,
782,-1.48e-01,
783,-7.20e-02,
784,-5.60e-02,
785,-1.52e-01,
786,-7.60e-02,
787,-1.56e-01,
788,-1.44e-01,
789,-7.20e-02,
790,-7.20e-02,
791,-1.52e-01,
792,-1.48e-01,
793,-6.40e-02,
794,-6.80e-02,
795,-1.52e-01,
796,-6.80e-02,
797,-1.52e-01,
798,-7.20e-02,
799,-1.48e-01,
800,-7.60e-02,
801,-1.44e-01,
802,-7.20e-02,
803,-1.52e-01,
804,-1.40e-01,
805,-7.60e-02,
806,-1.60e-01,
807,-7.60e-02,
808,-1.52e-01,
809,-7.20e-02,
810,-7.20e-02,
811,-1.44e-01,
812,-7.20e-02,
813,-1.44e-01,
814,-7.20e-02,
815,-1.48e-01,
816,-1.56e-01,
817,-7.20e-02,
818,-6.80e-02,
819,-1.48e-01,
820,-7.60e-02,
821,-1.52e-01,
822,-5.20e-02,
823,-1.44e-01,
824,-1.52e-01,
825,-7.20e-02,
826,-7.20e-02,
827,-1.48e-01,
828,-7.20e-02,
829,-1.52e-01,
830,-1.48e-01,
831,-7.20e-02,
832,-1.44e-01,
833,-7.60e-02,
834,-6.80e-02,
835,-1.44e-01,
836,-7.60e-02,
837,-1.48e-01,
838,-6.40e-02,
839,-1.56e-01,
840,-5.60e-02,
841,-1.56e-01,
842,-1.40e-01,
843,-6.80e-02,
844,-1.48e-01,
845,-6.40e-02,
846,-7.60e-02,
847,-1.52e-01,
848,-1.40e-01,
849,-7.20e-02,
850,-1.44e-01,
851,-6.80e-02,
852,-6.80e-02,
853,-1.44e-01,
854,-6.80e-02,
855,-1.48e-01,
856,-7.20e-02,
857,-1.52e-01,
858,-1.48e-01,
859,-7.60e-02,
860,-1.56e-01,
861,-6.40e-02,
862,-7.20e-02,
863,-1.44e-01,
864,-7.20e-02,
865,-1.44e-01,
866,-7.60e-02,
867,-1.48e-01,
868,-1.40e-01,
869,-6.40e-02,
870,-6.00e-02,
871,-1.48e-01,
872,-1.48e-01,
873,-6.80e-02,
874,-1.52e-01,
875,-6.80e-02,
876,-7.60e-02,
877,-1.48e-01,
878,-7.20e-02,
879,-1.44e-01,
880,-1.56e-01,
881,-7.20e-02,
882,-1.48e-01,
883,-7.20e-02,
884,-6.80e-02,
885,-1.52e-01,
886,-6.80e-02,
887,-1.48e-01,
888,-1.40e-01,
889,-7.20e-02,
890,-1.48e-01,
891,-7.20e-02,
892,-7.20e-02,
893,-1.40e-01,
894,-7.60e-02,
895,-1.40e-01,
896,-1.40e-01,
897,-6.80e-02,
898,-1.48e-01,
899,-6.80e-02,
900,-1.44e-01,
901,-6.80e-02,
902,-7.20e-02,
903,-1.44e-01,
904,-7.20e-02,
905,-1.44e-01,
906,-6.80e-02,
907,-1.52e-01,
908,-1.48e-01,
909,-7.20e-02,
910,-7.20e-02,
911,-1.44e-01,
912,-6.00e-02,
913,-1.52e-01,
914,-1.44e-01,
915,-6.80e-02,
916,-1.52e-01,
917,-6.80e-02,
918,-7.60e-02,
919,-1.52e-01,
920,-7.20e-02,
921,-1.44e-01,
922,-1.40e-01,
923,-7.20e-02,
924,-1.40e-01,
925,-6.80e-02,
926,-1.48e-01,
927,-7.60e-02,
928,-7.20e-02,
929,-1.52e-01,
930,-1.40e-01,
931,-7.20e-02,
932,-6.40e-02,
933,-1.48e-01,
934,-1.52e-01,
935,-6.80e-02,
936,-7.60e-02,
937,-1.48e-01,
938,-1.44e-01,
939,-7.60e-02,
940,-8.00e-02,
941,-1.44e-01,
942,-1.52e-01,
943,-6.80e-02,
944,-7.20e-02,
945,-1.52e-01,
946,-7.20e-02,
947,-1.44e-01,
948,-7.20e-02,
949,-1.40e-01,
950,-1.40e-01,
951,-7.20e-02,
952,-7.20e-02,
953,-1.48e-01,
954,-7.20e-02,
955,-1.40e-01,
956,-1.40e-01,
957,-6.80e-02,
958,-6.80e-02,
959,-1.48e-01,
960,-1.44e-01,
961,-6.80e-02,
962,-6.80e-02,
963,-1.56e-01,
964,-1.48e-01,
965,-6.80e-02,
966,-7.60e-02,
967,-1.44e-01,
968,-7.20e-02,
969,-1.52e-01,
970,-6.80e-02,
971,-1.40e-01,
972,-1.48e-01,
973,-6.40e-02,
974,-8.00e-02,
975,-1.44e-01,
976,-6.40e-02,
977,-1.44e-01,
978,-1.44e-01,
979,-7.20e-02,
980,-1.52e-01,
981,-6.80e-02,
982,-1.48e-01,
983,-6.80e-02,
984,-7.60e-02,
985,-1.40e-01,
986,-7.60e-02,
987,-1.48e-01,
988,-6.80e-02,
989,-1.48e-01,
990,-1.48e-01,
991,-6.80e-02,
992,-1.52e-01,
993,-6.00e-02,
994,-7.60e-02,
995,-1.44e-01,
996,-7.20e-02,
997,-1.52e-01,
998,-1.48e-01,
999,-7.20e-02,
1000,-1.40e-01,
1001,-7.20e-02,
1002,-1.52e-01,
1003,-7.60e-02,
1004,-7.60e-02,
1005,-1.40e-01,
1006,-1.40e-01,
1007,-7.60e-02,
1008,-6.80e-02,
1009,-1.56e-01,
1010,-1.48e-01,
1011,-6.40e-02,
1012,-1.52e-01,
1013,-7.60e-02,
1014,-6.80e-02,
1015,-1.52e-01,
1016,-1.52e-01,
1017,-6.80e-02,
1018,-7.20e-02,
1019,-1.48e-01,
1020,-1.56e-01,
1021,-6.80e-02,
1022,-1.40e-01,
1023,-6.00e-02,
1024,-6.80e-02,
1025,-1.52e-01,
1026,-6.80e-02,
1027,-1.48e-01,
1028,-7.20e-02,
1029,-1.48e-01,
1030,-6.80e-02,
1031,-1.52e-01,
1032,-1.52e-01,
1033,-8.00e-02,
1034,-7.60e-02,
1035,-1.52e-01,
1036,-4.40e-02,
1037,-1.48e-01,
1038,-1.40e-01,
1039,-7.20e-02,
1040,-7.20e-02,
1041,-1.40e-01,
1042,-1.40e-01,
1043,-6.80e-02,
1044,-1.44e-01,
1045,-7.20e-02,
1046,-1.40e-01,
1047,-7.20e-02,
1048,-1.52e-01,
1049,-7.20e-02,
1050,-6.80e-02,
1051,-1.44e-01,
1052,-6.40e-02,
1053,-1.52e-01,
1054,-1.52e-01,
1055,-6.40e-02,
1056,-1.44e-01,
1057,-6.40e-02,
1058,-1.36e-01,
1059,-6.80e-02,
1060,-6.80e-02,
1061,-1.40e-01,
1062,-1.56e-01,
1063,-7.20e-02,
1064,-1.48e-01,
1065,-7.20e-02,
1066,-6.40e-02,
1067,-1.48e-01,
1068,-6.00e-02,
1069,-1.44e-01,
1070,-1.48e-01,
1071,-6.00e-02,
1072,-7.60e-02,
1073,-1.40e-01,
1074,-1.40e-01,
1075,-7.20e-02,
1076,-6.40e-02,
1077,-1.40e-01,
1078,-7.60e-02,
1079,-1.44e-01,
1080,-1.52e-01,
1081,-7.20e-02,
1082,-6.80e-02,
1083,-1.44e-01,
1084,-7.60e-02,
1085,-1.44e-01,
1086,-7.20e-02,
1087,-1.44e-01,
1088,-7.20e-02,
1089,-1.48e-01,
1090,-1.56e-01,
1091,-6.80e-02,
1092,-1.52e-01,
1093,-7.60e-02,
1094,-7.20e-02,
1095,-1.48e-01,
1096,-1.56e-01,
1097,-7.20e-02,
1098,-7.20e-02,
1099,-1.52e-01,
1100,-1.48e-01,
1101,-6.00e-02,
1102,-1.44e-01,
1103,-7.60e-02,
1104,-7.20e-02,
1105,-1.44e-01,
1106,-1.52e-01,
1107,-7.20e-02,
1108,-1.44e-01,
1109,-6.80e-02,
1110,-7.60e-02,
1111,-1.48e-01,
1112,-6.80e-02,
1113,-1.44e-01,
1114,-6.00e-02,
1115,-1.52e-01,
1116,-1.56e-01,
1117,-6.40e-02,
1118,-6.80e-02,
1119,-1.56e-01,
1120,-7.20e-02,
1121,-1.48e-01,
1122,-1.56e-01,
1123,-7.20e-02,
1124,-6.80e-02,
1125,-1.44e-01,
1126,-7.20e-02,
1127,-1.40e-01,
1128,-1.44e-01,
1129,-6.80e-02,
1130,-7.20e-02,
1131,-1.60e-01,
1132,-1.40e-01,
1133,-7.20e-02,
1134,-7.60e-02,
1135,-1.48e-01,
1136,-1.64e-01,
1137,-6.80e-02,
1138,-6.80e-02,
1139,-1.52e-01,
1140,-1.48e-01,
1141,-6.80e-02,
1142,-1.52e-01,
1143,-6.80e-02,
1144,-1.48e-01,
1145,-6.00e-02,
1146,-7.60e-02,
1147,-1.40e-01,
1148,-7.20e-02,
1149,-1.48e-01,
1150,-1.44e-01,
1151,-7.60e-02,
1152,-1.40e-01,
1153,-7.20e-02,
1154,-1.40e-01,
1155,-7.60e-02,
1156,-6.80e-02,
1157,-1.48e-01,
1158,-1.52e-01,
1159,-6.80e-02,
1160,-1.52e-01,
1161,-7.60e-02,
1162,-5.60e-02,
1163,-1.40e-01,
1164,-5.20e-02,
1165,-1.52e-01,
1166,-1.48e-01,
1167,-6.00e-02,
1168,-1.52e-01,
1169,-7.20e-02,
1170,-6.80e-02,
1171,-1.52e-01,
1172,-1.44e-01,
1173,-6.00e-02,
1174,-1.40e-01,
1175,-6.80e-02,
1176,-7.60e-02,
1177,-1.48e-01,
1178,-1.48e-01,
1179,-6.80e-02,
1180,-1.40e-01,
1181,-6.80e-02,
1182,-1.52e-01,
1183,-6.80e-02,
1184,-7.60e-02,
1185,-1.40e-01,
1186,-1.40e-01,
1187,-6.80e-02,
1188,-1.40e-01,
1189,-6.40e-02,
1190,-7.20e-02,
1191,-1.60e-01,
1192,-1.52e-01,
1193,-5.60e-02,
1194,-1.44e-01,
1195,-7.20e-02,
1196,-8.00e-02,
1197,-1.56e-01,
1198,-1.52e-01,
1199,-7.20e-02,
