fastdiffamp/data-noise-set/unb-left-mean/NewFile13.csv

X,CH1,Start,Increment,
Sequence,Volt,-5.990000e+00,1.000000e-02
0,-3.60e-01,
1,-4.40e-01,
2,-3.60e-01,
3,-4.40e-01,
4,-4.32e-01,
5,-3.56e-01,
6,-3.60e-01,
7,-4.40e-01,
8,-4.52e-01,
9,-3.56e-01,
10,-4.36e-01,
11,-3.60e-01,
12,-4.32e-01,
13,-3.56e-01,
14,-3.72e-01,
15,-4.32e-01,
16,-3.60e-01,
17,-4.40e-01,
18,-4.40e-01,
19,-3.72e-01,
20,-4.40e-01,
21,-3.60e-01,
22,-3.68e-01,
23,-4.36e-01,
24,-3.64e-01,
25,-4.36e-01,
26,-3.68e-01,
27,-4.44e-01,
28,-4.40e-01,
29,-3.56e-01,
30,-3.56e-01,
31,-4.36e-01,
32,-4.36e-01,
33,-3.64e-01,
34,-4.40e-01,
35,-3.68e-01,
36,-4.40e-01,
37,-3.64e-01,
38,-3.60e-01,
39,-4.32e-01,
40,-3.52e-01,
41,-4.40e-01,
42,-3.56e-01,
43,-4.40e-01,
44,-4.36e-01,
45,-3.56e-01,
46,-4.32e-01,
47,-3.60e-01,
48,-4.40e-01,
49,-3.60e-01,
50,-4.40e-01,
51,-3.64e-01,
52,-4.40e-01,
53,-3.72e-01,
54,-4.44e-01,
55,-3.52e-01,
56,-3.56e-01,
57,-4.32e-01,
58,-4.40e-01,
59,-3.56e-01,
60,-4.36e-01,
61,-3.56e-01,
62,-3.68e-01,
63,-4.40e-01,
64,-3.68e-01,
65,-4.40e-01,
66,-4.36e-01,
67,-3.68e-01,
68,-3.56e-01,
69,-4.36e-01,
70,-4.44e-01,
71,-3.52e-01,
72,-3.64e-01,
73,-4.32e-01,
74,-4.36e-01,
75,-3.60e-01,
76,-3.60e-01,
77,-4.40e-01,
78,-4.32e-01,
79,-3.60e-01,
80,-3.56e-01,
81,-4.40e-01,
82,-3.68e-01,
83,-4.36e-01,
84,-4.36e-01,
85,-3.60e-01,
86,-4.44e-01,
87,-3.68e-01,
88,-4.36e-01,
89,-3.60e-01,
90,-4.40e-01,
91,-3.68e-01,
92,-4.40e-01,
93,-3.64e-01,
94,-3.64e-01,
95,-4.36e-01,
96,-4.40e-01,
97,-3.64e-01,
98,-3.60e-01,
99,-4.36e-01,
100,-4.28e-01,
101,-3.56e-01,
102,-4.28e-01,
103,-3.68e-01,
104,-4.32e-01,
105,-3.68e-01,
106,-4.32e-01,
107,-3.68e-01,
108,-4.40e-01,
109,-3.56e-01,
110,-4.36e-01,
111,-3.64e-01,
112,-4.36e-01,
113,-3.60e-01,
114,-4.56e-01,
115,-3.60e-01,
116,-3.68e-01,
117,-4.36e-01,
118,-4.24e-01,
119,-3.56e-01,
120,-3.64e-01,
121,-4.40e-01,
122,-3.60e-01,
123,-4.40e-01,
124,-4.40e-01,
125,-3.56e-01,
126,-4.36e-01,
127,-3.68e-01,
128,-4.40e-01,
129,-3.60e-01,
130,-3.64e-01,
131,-4.40e-01,
132,-4.36e-01,
133,-3.60e-01,
134,-3.64e-01,
135,-4.32e-01,
136,-3.68e-01,
137,-4.40e-01,
138,-3.60e-01,
139,-4.36e-01,
140,-3.48e-01,
141,-4.40e-01,
142,-3.64e-01,
143,-4.32e-01,
144,-3.60e-01,
145,-4.40e-01,
146,-3.60e-01,
147,-4.40e-01,
148,-4.36e-01,
149,-3.68e-01,
150,-4.36e-01,
151,-3.52e-01,
152,-3.60e-01,
153,-4.36e-01,
154,-4.32e-01,
155,-3.60e-01,
156,-3.68e-01,
157,-4.52e-01,
158,-4.40e-01,
159,-3.64e-01,
160,-3.64e-01,
161,-4.48e-01,
162,-3.60e-01,
163,-4.40e-01,
164,-4.32e-01,
165,-3.68e-01,
166,-4.32e-01,
167,-3.60e-01,
168,-4.40e-01,
169,-3.60e-01,
170,-3.56e-01,
171,-4.36e-01,
172,-4.44e-01,
173,-3.56e-01,
174,-3.64e-01,
175,-4.36e-01,
176,-4.32e-01,
177,-3.64e-01,
178,-3.64e-01,
179,-4.36e-01,
180,-4.32e-01,
181,-3.56e-01,
182,-3.72e-01,
183,-4.36e-01,
184,-3.68e-01,
185,-4.40e-01,
186,-4.40e-01,
187,-3.64e-01,
188,-3.60e-01,
189,-4.44e-01,
190,-3.60e-01,
191,-4.52e-01,
192,-3.60e-01,
193,-4.52e-01,
194,-3.72e-01,
195,-4.40e-01,
196,-4.48e-01,
197,-3.60e-01,
198,-4.36e-01,
199,-3.64e-01,
200,-3.60e-01,
201,-4.44e-01,
202,-4.40e-01,
203,-3.60e-01,
204,-4.48e-01,
205,-3.68e-01,
206,-3.60e-01,
207,-4.36e-01,
208,-4.32e-01,
209,-3.60e-01,
210,-4.40e-01,
211,-3.56e-01,
212,-4.48e-01,
213,-3.72e-01,
214,-4.36e-01,
215,-3.68e-01,
216,-3.60e-01,
217,-4.52e-01,
218,-3.64e-01,
219,-4.40e-01,
220,-3.64e-01,
221,-4.32e-01,
222,-4.32e-01,
223,-3.52e-01,
224,-4.44e-01,
225,-3.56e-01,
226,-3.60e-01,
227,-4.48e-01,
228,-4.44e-01,
229,-3.56e-01,
230,-4.36e-01,
231,-3.60e-01,
232,-3.60e-01,
233,-4.40e-01,
234,-4.40e-01,
235,-3.64e-01,
236,-4.44e-01,
237,-3.68e-01,
238,-3.52e-01,
239,-4.44e-01,
240,-4.36e-01,
241,-3.68e-01,
242,-3.64e-01,
243,-4.36e-01,
244,-3.64e-01,
245,-4.44e-01,
246,-4.44e-01,
247,-3.56e-01,
248,-3.64e-01,
249,-4.32e-01,
250,-3.60e-01,
251,-4.36e-01,
252,-4.32e-01,
253,-3.72e-01,
254,-3.68e-01,
255,-4.40e-01,
256,-3.68e-01,
257,-4.40e-01,
258,-3.68e-01,
259,-4.36e-01,
260,-4.32e-01,
261,-3.60e-01,
262,-3.64e-01,
263,-4.36e-01,
264,-3.68e-01,
265,-4.40e-01,
266,-4.36e-01,
267,-3.60e-01,
268,-4.48e-01,
269,-3.56e-01,
270,-4.44e-01,
271,-3.60e-01,
272,-3.60e-01,
273,-4.40e-01,
274,-3.40e-01,
275,-4.40e-01,
276,-4.36e-01,
277,-3.60e-01,
278,-3.64e-01,
279,-4.52e-01,
280,-3.68e-01,
281,-4.44e-01,
282,-3.64e-01,
283,-4.36e-01,
284,-3.64e-01,
285,-4.40e-01,
286,-3.72e-01,
287,-4.40e-01,
288,-4.36e-01,
289,-3.44e-01,
290,-3.56e-01,
291,-4.40e-01,
292,-4.40e-01,
293,-3.60e-01,
294,-3.68e-01,
295,-4.48e-01,
296,-3.40e-01,
297,-4.36e-01,
298,-3.56e-01,
299,-4.40e-01,
300,-4.40e-01,
301,-3.64e-01,
302,-3.60e-01,
303,-4.52e-01,
304,-3.68e-01,
305,-4.44e-01,
306,-3.60e-01,
307,-4.40e-01,
308,-3.64e-01,
309,-4.40e-01,
310,-3.64e-01,
311,-4.36e-01,
312,-4.44e-01,
313,-3.60e-01,
314,-4.36e-01,
315,-3.68e-01,
316,-4.40e-01,
317,-3.64e-01,
318,-4.44e-01,
319,-3.68e-01,
320,-3.64e-01,
321,-4.36e-01,
322,-4.56e-01,
323,-3.68e-01,
324,-4.52e-01,
325,-3.64e-01,
326,-3.64e-01,
327,-4.44e-01,
328,-4.28e-01,
329,-3.68e-01,
330,-3.64e-01,
331,-4.48e-01,
332,-3.56e-01,
333,-4.40e-01,
334,-4.40e-01,
335,-3.56e-01,
336,-4.32e-01,
337,-3.56e-01,
338,-4.32e-01,
339,-3.60e-01,
340,-3.60e-01,
341,-4.44e-01,
342,-3.64e-01,
343,-4.36e-01,
344,-3.72e-01,
345,-4.32e-01,
346,-3.72e-01,
347,-4.40e-01,
348,-3.64e-01,
349,-4.44e-01,
350,-3.56e-01,
351,-4.48e-01,
352,-4.32e-01,
353,-3.64e-01,
354,-4.52e-01,
355,-3.60e-01,
356,-4.32e-01,
357,-3.64e-01,
358,-4.36e-01,
359,-3.56e-01,
360,-4.36e-01,
361,-3.60e-01,
362,-3.64e-01,
363,-4.36e-01,
364,-4.44e-01,
365,-3.60e-01,
366,-4.28e-01,
367,-3.64e-01,
368,-3.56e-01,
369,-4.36e-01,
370,-4.52e-01,
371,-3.64e-01,
372,-3.60e-01,
373,-4.36e-01,
374,-4.32e-01,
375,-3.56e-01,
376,-3.56e-01,
377,-4.48e-01,
378,-3.52e-01,
379,-4.40e-01,
380,-3.56e-01,
381,-4.40e-01,
382,-4.36e-01,
383,-3.60e-01,
384,-3.60e-01,
385,-4.44e-01,
386,-3.68e-01,
387,-4.52e-01,
388,-3.64e-01,
389,-4.40e-01,
390,-4.36e-01,
391,-3.52e-01,
392,-3.68e-01,
393,-4.48e-01,
394,-4.40e-01,
395,-3.64e-01,
396,-4.36e-01,
397,-3.48e-01,
398,-4.40e-01,
399,-3.48e-01,
400,-4.36e-01,
401,-3.60e-01,
402,-3.60e-01,
403,-4.32e-01,
404,-4.36e-01,
405,-3.60e-01,
406,-4.40e-01,
407,-3.64e-01,
408,-4.36e-01,
409,-3.56e-01,
410,-4.32e-01,
411,-3.60e-01,
412,-3.72e-01,
413,-4.36e-01,
414,-4.36e-01,
415,-3.64e-01,
416,-4.44e-01,
417,-3.44e-01,
418,-3.60e-01,
419,-4.40e-01,
420,-4.28e-01,
421,-3.56e-01,
422,-4.28e-01,
423,-3.64e-01,
424,-4.40e-01,
425,-3.56e-01,
426,-3.60e-01,
427,-4.40e-01,
428,-4.36e-01,
429,-3.56e-01,
430,-3.60e-01,
431,-4.36e-01,
432,-4.36e-01,
433,-3.60e-01,
434,-4.36e-01,
435,-3.64e-01,
436,-3.68e-01,
437,-4.36e-01,
438,-3.72e-01,
439,-4.40e-01,
440,-4.36e-01,
441,-3.56e-01,
442,-4.36e-01,
443,-3.60e-01,
444,-4.32e-01,
445,-3.64e-01,
446,-4.32e-01,
447,-3.60e-01,
448,-4.40e-01,
449,-3.60e-01,
450,-4.32e-01,
451,-3.64e-01,
452,-4.40e-01,
453,-3.56e-01,
454,-3.64e-01,
455,-4.36e-01,
456,-4.40e-01,
457,-3.68e-01,
458,-3.44e-01,
459,-4.40e-01,
460,-3.64e-01,
461,-4.36e-01,
462,-3.64e-01,
463,-4.40e-01,
464,-4.32e-01,
465,-3.64e-01,
466,-3.56e-01,
467,-4.40e-01,
468,-3.68e-01,
469,-4.40e-01,
470,-4.36e-01,
471,-3.60e-01,
472,-3.64e-01,
473,-4.48e-01,
474,-3.72e-01,
475,-4.40e-01,
476,-3.56e-01,
477,-4.32e-01,
478,-4.36e-01,
479,-3.60e-01,
480,-4.36e-01,
481,-3.68e-01,
482,-4.36e-01,
483,-3.64e-01,
484,-4.40e-01,
485,-3.48e-01,
486,-4.40e-01,
487,-3.68e-01,
488,-3.64e-01,
489,-4.32e-01,
490,-3.44e-01,
491,-4.36e-01,
492,-4.40e-01,
493,-3.56e-01,
494,-4.40e-01,
495,-3.64e-01,
496,-4.32e-01,
497,-3.60e-01,
498,-4.36e-01,
499,-3.60e-01,
500,-4.44e-01,
501,-3.64e-01,
502,-4.32e-01,
503,-3.48e-01,
504,-3.60e-01,
505,-4.40e-01,
506,-3.56e-01,
507,-4.36e-01,
508,-3.72e-01,
509,-4.36e-01,
510,-4.36e-01,
511,-3.60e-01,
512,-3.60e-01,
513,-4.36e-01,
514,-4.32e-01,
515,-3.56e-01,
516,-4.32e-01,
517,-3.64e-01,
518,-3.60e-01,
519,-4.32e-01,
520,-4.36e-01,
521,-3.60e-01,
522,-4.40e-01,
523,-3.56e-01,
524,-3.64e-01,
525,-4.32e-01,
526,-3.72e-01,
527,-4.36e-01,
528,-4.32e-01,
529,-3.64e-01,
530,-3.60e-01,
531,-4.36e-01,
532,-3.72e-01,
533,-4.36e-01,
534,-3.52e-01,
535,-4.48e-01,
536,-4.48e-01,
537,-3.56e-01,
538,-4.36e-01,
539,-3.56e-01,
540,-4.32e-01,
541,-3.48e-01,
542,-3.56e-01,
543,-4.40e-01,
544,-3.68e-01,
545,-4.44e-01,
546,-3.64e-01,
547,-4.36e-01,
548,-3.68e-01,
549,-4.44e-01,
550,-4.36e-01,
551,-3.64e-01,
552,-4.36e-01,
553,-3.68e-01,
554,-3.52e-01,
555,-4.40e-01,
556,-4.36e-01,
557,-3.60e-01,
558,-4.40e-01,
559,-3.60e-01,
560,-4.32e-01,
561,-3.56e-01,
562,-3.64e-01,
563,-4.36e-01,
564,-4.44e-01,
565,-3.68e-01,
566,-3.68e-01,
567,-4.36e-01,
568,-3.72e-01,
569,-4.44e-01,
570,-3.64e-01,
571,-4.36e-01,
572,-4.40e-01,
573,-3.60e-01,
574,-3.60e-01,
575,-4.40e-01,
576,-4.24e-01,
577,-3.60e-01,
578,-4.36e-01,
579,-3.56e-01,
580,-4.36e-01,
581,-3.60e-01,
582,-4.32e-01,
583,-3.48e-01,
584,-4.36e-01,
585,-3.60e-01,
586,-3.68e-01,
587,-4.44e-01,
588,-3.60e-01,
589,-4.36e-01,
590,-4.40e-01,
591,-3.56e-01,
592,-4.40e-01,
593,-3.64e-01,
594,-3.64e-01,
595,-4.32e-01,
596,-4.36e-01,
597,-3.60e-01,
598,-4.36e-01,
599,-3.56e-01,
600,-3.64e-01,
601,-4.40e-01,
602,-4.40e-01,
603,-3.60e-01,
604,-4.40e-01,
605,-3.56e-01,
606,-3.60e-01,
607,-4.36e-01,
608,-3.60e-01,
609,-4.36e-01,
610,-3.68e-01,
611,-4.44e-01,
612,-4.40e-01,
613,-3.64e-01,
614,-4.36e-01,
615,-3.60e-01,
616,-3.56e-01,
617,-4.44e-01,
618,-3.56e-01,
619,-4.32e-01,
620,-4.36e-01,
621,-3.56e-01,
622,-4.24e-01,
623,-3.60e-01,
624,-3.68e-01,
625,-4.40e-01,
626,-4.52e-01,
627,-3.72e-01,
628,-4.24e-01,
629,-3.68e-01,
630,-3.56e-01,
631,-4.40e-01,
632,-3.72e-01,
633,-4.28e-01,
634,-3.40e-01,
635,-4.40e-01,
636,-3.64e-01,
637,-4.36e-01,
638,-4.40e-01,
639,-3.60e-01,
640,-4.48e-01,
641,-3.60e-01,
642,-3.68e-01,
643,-4.44e-01,
644,-4.44e-01,
645,-3.52e-01,
646,-4.40e-01,
647,-3.68e-01,
648,-3.68e-01,
649,-4.52e-01,
650,-4.32e-01,
651,-3.44e-01,
652,-4.40e-01,
653,-3.64e-01,
654,-3.56e-01,
655,-4.44e-01,
656,-4.40e-01,
657,-3.52e-01,
658,-4.32e-01,
659,-3.52e-01,
660,-4.44e-01,
661,-3.68e-01,
662,-4.48e-01,
663,-3.64e-01,
664,-4.36e-01,
665,-3.52e-01,
666,-4.36e-01,
667,-3.60e-01,
668,-4.32e-01,
669,-3.56e-01,
670,-4.36e-01,
671,-3.60e-01,
672,-4.36e-01,
673,-3.60e-01,
674,-4.40e-01,
675,-3.56e-01,
676,-3.60e-01,
677,-4.44e-01,
678,-4.36e-01,
679,-3.56e-01,
680,-4.28e-01,
681,-3.60e-01,
682,-4.36e-01,
683,-3.60e-01,
684,-3.72e-01,
685,-4.32e-01,
686,-4.36e-01,
687,-3.52e-01,
688,-4.40e-01,
689,-3.60e-01,
690,-4.44e-01,
691,-3.64e-01,
692,-4.24e-01,
693,-3.64e-01,
694,-4.40e-01,
695,-3.52e-01,
696,-3.68e-01,
697,-4.36e-01,
698,-3.64e-01,
699,-4.40e-01,
700,-3.68e-01,
701,-4.40e-01,
702,-4.36e-01,
703,-3.56e-01,
704,-4.28e-01,
705,-3.60e-01,
706,-3.68e-01,
707,-4.36e-01,
708,-4.40e-01,
709,-3.64e-01,
710,-4.28e-01,
711,-3.56e-01,
712,-4.60e-01,
713,-3.56e-01,
714,-4.32e-01,
715,-3.60e-01,
716,-4.40e-01,
717,-3.56e-01,
718,-3.68e-01,
719,-4.36e-01,
720,-4.36e-01,
721,-3.68e-01,
722,-4.40e-01,
723,-3.64e-01,
724,-4.36e-01,
725,-3.64e-01,
726,-4.60e-01,
727,-3.60e-01,
728,-4.32e-01,
729,-3.68e-01,
730,-3.64e-01,
731,-4.44e-01,
732,-4.28e-01,
733,-3.60e-01,
734,-4.24e-01,
735,-3.56e-01,
736,-4.40e-01,
737,-3.60e-01,
738,-4.36e-01,
739,-3.60e-01,
740,-4.48e-01,
741,-3.68e-01,
742,-4.36e-01,
743,-3.68e-01,
744,-3.56e-01,
745,-4.36e-01,
746,-3.60e-01,
747,-4.32e-01,
748,-3.60e-01,
749,-4.36e-01,
750,-3.56e-01,
751,-4.40e-01,
752,-3.52e-01,
753,-4.40e-01,
754,-4.32e-01,
755,-3.56e-01,
756,-3.68e-01,
757,-4.32e-01,
758,-4.40e-01,
759,-3.48e-01,
760,-3.56e-01,
761,-4.40e-01,
762,-3.52e-01,
763,-4.28e-01,
764,-3.60e-01,
765,-4.48e-01,
766,-3.52e-01,
767,-4.36e-01,
768,-3.56e-01,
769,-4.36e-01,
770,-4.40e-01,
771,-3.60e-01,
772,-3.60e-01,
773,-4.44e-01,
774,-3.72e-01,
775,-4.36e-01,
776,-3.68e-01,
777,-4.40e-01,
778,-4.40e-01,
779,-3.64e-01,
780,-3.56e-01,
781,-4.48e-01,
782,-3.60e-01,
783,-4.40e-01,
784,-4.40e-01,
785,-3.56e-01,
786,-4.40e-01,
787,-3.60e-01,
788,-3.60e-01,
789,-4.56e-01,
790,-4.48e-01,
791,-3.68e-01,
792,-4.40e-01,
793,-3.60e-01,
794,-4.40e-01,
795,-3.56e-01,
796,-4.40e-01,
797,-3.64e-01,
798,-3.68e-01,
799,-4.44e-01,
800,-4.32e-01,
801,-3.68e-01,
802,-3.68e-01,
803,-4.40e-01,
804,-3.52e-01,
805,-4.40e-01,
806,-3.60e-01,
807,-4.40e-01,
808,-4.32e-01,
809,-3.60e-01,
810,-3.68e-01,
811,-4.48e-01,
812,-4.36e-01,
813,-3.60e-01,
814,-3.68e-01,
815,-4.40e-01,
816,-4.40e-01,
817,-3.56e-01,
818,-4.40e-01,
819,-3.64e-01,
820,-3.64e-01,
821,-4.36e-01,
822,-3.72e-01,
823,-4.28e-01,
824,-3.52e-01,
825,-4.36e-01,
826,-4.32e-01,
827,-3.64e-01,
828,-4.36e-01,
829,-3.64e-01,
830,-4.36e-01,
831,-3.60e-01,
832,-4.36e-01,
833,-3.56e-01,
834,-4.40e-01,
835,-3.40e-01,
836,-4.40e-01,
837,-3.64e-01,
838,-4.40e-01,
839,-3.64e-01,
840,-3.56e-01,
841,-4.44e-01,
842,-3.60e-01,
843,-4.40e-01,
844,-4.40e-01,
845,-3.60e-01,
846,-3.56e-01,
847,-4.36e-01,
848,-4.48e-01,
849,-3.64e-01,
850,-3.60e-01,
851,-4.48e-01,
852,-4.40e-01,
853,-3.60e-01,
854,-3.56e-01,
855,-4.44e-01,
856,-3.56e-01,
857,-4.36e-01,
858,-3.64e-01,
859,-4.36e-01,
860,-4.36e-01,
861,-3.68e-01,
862,-4.36e-01,
863,-3.64e-01,
864,-3.64e-01,
865,-4.40e-01,
866,-4.40e-01,
867,-3.52e-01,
868,-4.40e-01,
869,-3.56e-01,
870,-3.60e-01,
871,-4.32e-01,
872,-3.48e-01,
873,-4.36e-01,
874,-4.40e-01,
875,-3.68e-01,
876,-4.36e-01,
877,-3.60e-01,
878,-3.64e-01,
879,-4.36e-01,
880,-4.32e-01,
881,-3.60e-01,
882,-4.36e-01,
883,-3.56e-01,
884,-3.60e-01,
885,-4.32e-01,
886,-4.40e-01,
887,-3.68e-01,
888,-3.56e-01,
889,-4.36e-01,
890,-4.36e-01,
891,-3.64e-01,
892,-3.60e-01,
893,-4.40e-01,
894,-4.40e-01,
895,-3.64e-01,
896,-3.56e-01,
897,-4.48e-01,
898,-4.48e-01,
899,-3.64e-01,
900,-3.68e-01,
901,-4.36e-01,
902,-3.60e-01,
903,-4.36e-01,
904,-3.64e-01,
905,-4.36e-01,
906,-4.36e-01,
907,-3.64e-01,
908,-4.36e-01,
909,-3.60e-01,
910,-4.40e-01,
911,-3.64e-01,
912,-3.60e-01,
913,-4.36e-01,
914,-3.68e-01,
915,-4.40e-01,
916,-3.52e-01,
917,-4.44e-01,
918,-4.28e-01,
919,-3.60e-01,
920,-4.36e-01,
921,-3.52e-01,
922,-4.36e-01,
923,-3.56e-01,
924,-4.36e-01,
925,-3.60e-01,
926,-3.68e-01,
927,-4.40e-01,
928,-3.60e-01,
929,-4.36e-01,
930,-3.48e-01,
931,-4.36e-01,
932,-3.60e-01,
933,-4.40e-01,
934,-3.64e-01,
935,-4.44e-01,
936,-4.52e-01,
937,-3.56e-01,
938,-3.68e-01,
939,-4.36e-01,
940,-4.36e-01,
941,-3.48e-01,
942,-3.60e-01,
943,-4.40e-01,
944,-3.48e-01,
945,-4.44e-01,
946,-4.32e-01,
947,-3.60e-01,
948,-3.56e-01,
949,-4.40e-01,
950,-4.40e-01,
951,-3.52e-01,
952,-4.36e-01,
953,-3.60e-01,
954,-4.36e-01,
955,-3.56e-01,
956,-3.60e-01,
957,-4.52e-01,
958,-3.56e-01,
959,-4.32e-01,
960,-3.64e-01,
961,-4.44e-01,
962,-4.52e-01,
963,-3.64e-01,
964,-3.64e-01,
965,-4.32e-01,
966,-3.68e-01,
967,-4.36e-01,
968,-4.44e-01,
969,-3.56e-01,
970,-4.36e-01,
971,-3.64e-01,
972,-4.40e-01,
973,-3.44e-01,
974,-3.60e-01,
975,-4.32e-01,
976,-4.36e-01,
977,-3.60e-01,
978,-3.64e-01,
979,-4.36e-01,
980,-4.32e-01,
981,-3.56e-01,
982,-4.40e-01,
983,-3.52e-01,
984,-4.36e-01,
985,-3.68e-01,
986,-4.40e-01,
987,-3.44e-01,
988,-3.60e-01,
989,-4.36e-01,
990,-3.60e-01,
991,-4.36e-01,
992,-3.68e-01,
993,-4.52e-01,
994,-4.40e-01,
995,-3.68e-01,
996,-3.64e-01,
997,-4.40e-01,
998,-3.56e-01,
999,-4.32e-01,
1000,-4.40e-01,
1001,-3.52e-01,
1002,-4.36e-01,
1003,-3.52e-01,
1004,-3.60e-01,
1005,-4.32e-01,
1006,-4.36e-01,
1007,-3.60e-01,
1008,-4.44e-01,
1009,-3.48e-01,
1010,-4.36e-01,
1011,-3.68e-01,
1012,-3.68e-01,
1013,-4.36e-01,
1014,-4.32e-01,
1015,-3.52e-01,
1016,-3.52e-01,
1017,-4.36e-01,
1018,-4.48e-01,
1019,-3.64e-01,
1020,-3.52e-01,
1021,-4.40e-01,
1022,-3.64e-01,
1023,-4.32e-01,
1024,-3.56e-01,
1025,-4.44e-01,
1026,-4.36e-01,
1027,-3.60e-01,
1028,-3.60e-01,
1029,-4.32e-01,
1030,-3.56e-01,
1031,-4.40e-01,
1032,-3.60e-01,
1033,-4.36e-01,
1034,-4.32e-01,
1035,-3.48e-01,
1036,-4.36e-01,
1037,-3.60e-01,
1038,-4.36e-01,
1039,-3.56e-01,
1040,-3.44e-01,
1041,-4.32e-01,
1042,-4.36e-01,
1043,-3.56e-01,
1044,-4.40e-01,
1045,-3.48e-01,
1046,-4.40e-01,
1047,-3.64e-01,
1048,-3.64e-01,
1049,-4.28e-01,
1050,-4.36e-01,
1051,-3.56e-01,
1052,-4.40e-01,
1053,-3.64e-01,
1054,-4.40e-01,
1055,-3.60e-01,
1056,-3.56e-01,
1057,-4.40e-01,
1058,-3.64e-01,
1059,-4.32e-01,
1060,-4.36e-01,
1061,-3.64e-01,
1062,-3.68e-01,
1063,-4.40e-01,
1064,-3.60e-01,
1065,-4.32e-01,
1066,-4.32e-01,
1067,-3.56e-01,
1068,-4.36e-01,
1069,-3.60e-01,
1070,-4.36e-01,
1071,-3.56e-01,
1072,-4.32e-01,
1073,-3.68e-01,
1074,-4.40e-01,
1075,-3.60e-01,
1076,-3.60e-01,
1077,-4.48e-01,
1078,-4.36e-01,
1079,-3.60e-01,
1080,-4.36e-01,
1081,-3.56e-01,
1082,-3.64e-01,
1083,-4.40e-01,
1084,-4.36e-01,
1085,-3.64e-01,
1086,-4.32e-01,
1087,-3.60e-01,
1088,-4.40e-01,
1089,-3.56e-01,
1090,-3.60e-01,
1091,-4.36e-01,
1092,-3.56e-01,
1093,-4.40e-01,
1094,-3.72e-01,
1095,-4.36e-01,
1096,-4.44e-01,
1097,-3.60e-01,
1098,-4.40e-01,
1099,-3.60e-01,
1100,-4.36e-01,
1101,-3.60e-01,
1102,-3.68e-01,
1103,-4.40e-01,
1104,-4.40e-01,
1105,-3.56e-01,
1106,-3.68e-01,
1107,-4.36e-01,
1108,-4.32e-01,
1109,-3.64e-01,
1110,-3.60e-01,
1111,-4.40e-01,
1112,-3.60e-01,
1113,-4.40e-01,
1114,-4.40e-01,
1115,-3.56e-01,
1116,-4.52e-01,
1117,-3.68e-01,
1118,-4.36e-01,
1119,-3.68e-01,
1120,-4.36e-01,
1121,-3.64e-01,
1122,-3.64e-01,
1123,-4.40e-01,
1124,-3.56e-01,
1125,-4.40e-01,
1126,-3.52e-01,
1127,-4.36e-01,
1128,-4.32e-01,
1129,-3.52e-01,
1130,-4.36e-01,
1131,-3.60e-01,
1132,-3.56e-01,
1133,-4.32e-01,
1134,-3.72e-01,
1135,-4.40e-01,
1136,-3.56e-01,
1137,-4.40e-01,
1138,-3.60e-01,
1139,-4.36e-01,
1140,-3.60e-01,
1141,-4.36e-01,
1142,-3.60e-01,
1143,-4.40e-01,
1144,-4.48e-01,
1145,-3.56e-01,
1146,-3.56e-01,
1147,-4.32e-01,
1148,-3.56e-01,
1149,-4.32e-01,
1150,-3.64e-01,
1151,-4.52e-01,
1152,-3.52e-01,
1153,-4.32e-01,
1154,-4.40e-01,
1155,-3.52e-01,
1156,-3.56e-01,
1157,-4.36e-01,
1158,-4.32e-01,
1159,-3.68e-01,
1160,-4.44e-01,
1161,-3.60e-01,
1162,-4.36e-01,
1163,-3.60e-01,
1164,-3.68e-01,
1165,-4.40e-01,
1166,-3.60e-01,
1167,-4.36e-01,
1168,-3.60e-01,
1169,-4.40e-01,
1170,-4.36e-01,
1171,-3.64e-01,
1172,-4.32e-01,
1173,-3.44e-01,
1174,-3.64e-01,
1175,-4.28e-01,
1176,-4.40e-01,
1177,-3.64e-01,
1178,-4.40e-01,
1179,-3.64e-01,
1180,-4.36e-01,
1181,-3.60e-01,
1182,-4.52e-01,
1183,-3.60e-01,
1184,-3.60e-01,
1185,-4.36e-01,
1186,-4.40e-01,
1187,-3.60e-01,
1188,-4.40e-01,
1189,-3.60e-01,
1190,-3.64e-01,
1191,-4.36e-01,
1192,-4.36e-01,
1193,-3.56e-01,
1194,-4.40e-01,
1195,-3.56e-01,
1196,-3.64e-01,
1197,-4.32e-01,
1198,-4.36e-01,
1199,-3.56e-01,
