fastdiffamp/data-noise-set/unb-left-mean/NewFile15.csv

X,CH1,Start,Increment,
Sequence,Volt,-5.990000e+00,1.000000e-02
0,-2.60e-01,
1,-1.92e-01,
2,-1.92e-01,
3,-2.68e-01,
4,-1.92e-01,
5,-2.64e-01,
6,-1.92e-01,
7,-2.72e-01,
8,-2.60e-01,
9,-1.92e-01,
10,-2.72e-01,
11,-1.92e-01,
12,-2.76e-01,
13,-1.84e-01,
14,-2.72e-01,
15,-1.88e-01,
16,-1.92e-01,
17,-2.60e-01,
18,-2.64e-01,
19,-1.88e-01,
20,-1.80e-01,
21,-2.64e-01,
22,-2.68e-01,
23,-1.96e-01,
24,-1.92e-01,
25,-2.64e-01,
26,-2.64e-01,
27,-1.96e-01,
28,-1.96e-01,
29,-2.64e-01,
30,-1.96e-01,
31,-2.64e-01,
32,-1.92e-01,
33,-2.60e-01,
34,-1.92e-01,
35,-2.60e-01,
36,-1.96e-01,
37,-2.72e-01,
38,-2.64e-01,
39,-1.96e-01,
40,-1.88e-01,
41,-2.64e-01,
42,-2.64e-01,
43,-1.92e-01,
44,-2.64e-01,
45,-1.88e-01,
46,-1.84e-01,
47,-2.64e-01,
48,-2.60e-01,
49,-1.92e-01,
50,-2.64e-01,
51,-1.88e-01,
52,-2.60e-01,
53,-1.96e-01,
54,-1.96e-01,
55,-2.60e-01,
56,-1.96e-01,
57,-2.60e-01,
58,-2.60e-01,
59,-1.88e-01,
60,-2.68e-01,
61,-1.92e-01,
62,-2.60e-01,
63,-1.92e-01,
64,-2.64e-01,
65,-1.92e-01,
66,-2.64e-01,
67,-1.92e-01,
68,-2.64e-01,
69,-1.92e-01,
70,-2.60e-01,
71,-1.80e-01,
72,-1.88e-01,
73,-2.60e-01,
74,-2.64e-01,
75,-1.96e-01,
76,-1.92e-01,
77,-2.64e-01,
78,-2.60e-01,
79,-1.92e-01,
80,-2.72e-01,
81,-1.92e-01,
82,-2.64e-01,
83,-1.84e-01,
84,-1.96e-01,
85,-2.64e-01,
86,-2.64e-01,
87,-1.96e-01,
88,-1.76e-01,
89,-2.68e-01,
90,-2.68e-01,
91,-1.92e-01,
92,-1.76e-01,
93,-2.64e-01,
94,-1.84e-01,
95,-2.68e-01,
96,-1.84e-01,
97,-2.64e-01,
98,-2.76e-01,
99,-1.92e-01,
100,-2.68e-01,
101,-1.92e-01,
102,-1.84e-01,
103,-2.68e-01,
104,-2.64e-01,
105,-1.92e-01,
106,-1.92e-01,
107,-2.64e-01,
108,-1.96e-01,
109,-2.72e-01,
110,-1.92e-01,
111,-2.60e-01,
112,-1.84e-01,
113,-2.64e-01,
114,-2.72e-01,
115,-1.88e-01,
116,-2.76e-01,
117,-1.92e-01,
118,-1.84e-01,
119,-2.60e-01,
120,-2.60e-01,
121,-1.92e-01,
122,-1.92e-01,
123,-2.64e-01,
124,-1.88e-01,
125,-2.80e-01,
126,-2.64e-01,
127,-1.92e-01,
128,-2.60e-01,
129,-1.96e-01,
130,-2.56e-01,
131,-1.96e-01,
132,-1.92e-01,
133,-2.64e-01,
134,-1.76e-01,
135,-2.72e-01,
136,-2.68e-01,
137,-1.92e-01,
138,-1.92e-01,
139,-2.60e-01,
140,-1.84e-01,
141,-2.64e-01,
142,-2.60e-01,
143,-1.88e-01,
144,-2.64e-01,
145,-1.84e-01,
146,-1.88e-01,
147,-2.76e-01,
148,-2.60e-01,
149,-1.96e-01,
150,-1.76e-01,
151,-2.64e-01,
152,-1.96e-01,
153,-2.72e-01,
154,-2.76e-01,
155,-1.84e-01,
156,-1.88e-01,
157,-2.68e-01,
158,-1.84e-01,
159,-2.72e-01,
160,-2.60e-01,
161,-1.88e-01,
162,-2.60e-01,
163,-1.88e-01,
164,-2.68e-01,
165,-1.92e-01,
166,-1.92e-01,
167,-2.60e-01,
168,-1.92e-01,
169,-2.64e-01,
170,-1.96e-01,
171,-2.60e-01,
172,-2.64e-01,
173,-1.84e-01,
174,-1.92e-01,
175,-2.64e-01,
176,-1.92e-01,
177,-2.88e-01,
178,-2.64e-01,
179,-1.88e-01,
180,-2.64e-01,
181,-1.88e-01,
182,-1.96e-01,
183,-2.80e-01,
184,-1.88e-01,
185,-2.80e-01,
186,-1.96e-01,
187,-2.76e-01,
188,-2.60e-01,
189,-1.92e-01,
190,-1.92e-01,
191,-2.60e-01,
192,-2.60e-01,
193,-1.92e-01,
194,-2.64e-01,
195,-1.72e-01,
196,-1.96e-01,
197,-2.68e-01,
198,-1.92e-01,
199,-2.68e-01,
200,-1.96e-01,
201,-2.60e-01,
202,-2.64e-01,
203,-1.84e-01,
204,-1.92e-01,
205,-2.68e-01,
206,-2.60e-01,
207,-1.80e-01,
208,-1.92e-01,
209,-2.72e-01,
210,-1.92e-01,
211,-2.64e-01,
212,-1.84e-01,
213,-2.60e-01,
214,-1.92e-01,
215,-2.72e-01,
216,-2.68e-01,
217,-1.88e-01,
218,-2.68e-01,
219,-1.88e-01,
220,-2.64e-01,
221,-1.76e-01,
222,-1.96e-01,
223,-2.76e-01,
224,-1.92e-01,
225,-2.68e-01,
226,-2.64e-01,
227,-1.84e-01,
228,-2.84e-01,
229,-1.84e-01,
230,-1.96e-01,
231,-2.68e-01,
232,-1.84e-01,
233,-2.60e-01,
234,-1.84e-01,
235,-2.68e-01,
236,-2.64e-01,
237,-1.92e-01,
238,-1.92e-01,
239,-2.56e-01,
240,-1.92e-01,
241,-2.68e-01,
242,-1.92e-01,
243,-2.64e-01,
244,-2.64e-01,
245,-1.88e-01,
246,-1.92e-01,
247,-2.60e-01,
248,-1.88e-01,
249,-2.68e-01,
250,-2.56e-01,
251,-1.84e-01,
252,-1.64e-01,
253,-2.76e-01,
254,-2.64e-01,
255,-1.92e-01,
256,-1.92e-01,
257,-2.60e-01,
258,-2.60e-01,
259,-1.84e-01,
260,-2.56e-01,
261,-1.80e-01,
262,-2.60e-01,
263,-1.84e-01,
264,-2.00e-01,
265,-2.64e-01,
266,-1.80e-01,
267,-2.60e-01,
268,-1.88e-01,
269,-2.76e-01,
270,-1.84e-01,
271,-2.64e-01,
272,-1.92e-01,
273,-2.60e-01,
274,-2.60e-01,
275,-1.84e-01,
276,-2.72e-01,
277,-1.80e-01,
278,-1.80e-01,
279,-2.68e-01,
280,-1.92e-01,
281,-2.72e-01,
282,-1.92e-01,
283,-2.72e-01,
284,-1.92e-01,
285,-2.60e-01,
286,-1.88e-01,
287,-2.64e-01,
288,-2.72e-01,
289,-1.92e-01,
290,-2.76e-01,
291,-1.96e-01,
292,-1.80e-01,
293,-2.60e-01,
294,-1.92e-01,
295,-2.68e-01,
296,-2.56e-01,
297,-1.72e-01,
298,-1.80e-01,
299,-2.64e-01,
300,-1.92e-01,
301,-2.64e-01,
302,-2.60e-01,
303,-1.84e-01,
304,-2.64e-01,
305,-1.76e-01,
306,-2.68e-01,
307,-1.84e-01,
308,-2.64e-01,
309,-1.72e-01,
310,-2.60e-01,
311,-1.96e-01,
312,-1.96e-01,
313,-2.60e-01,
314,-1.76e-01,
315,-2.64e-01,
316,-2.64e-01,
317,-1.88e-01,
318,-2.64e-01,
319,-1.88e-01,
320,-1.92e-01,
321,-2.72e-01,
322,-2.72e-01,
323,-1.88e-01,
324,-2.60e-01,
325,-1.92e-01,
326,-2.68e-01,
327,-1.60e-01,
328,-2.72e-01,
329,-1.84e-01,
330,-1.84e-01,
331,-2.60e-01,
332,-1.92e-01,
333,-2.68e-01,
334,-1.92e-01,
335,-2.60e-01,
336,-1.88e-01,
337,-2.60e-01,
338,-1.96e-01,
339,-2.64e-01,
340,-2.64e-01,
341,-1.84e-01,
342,-1.92e-01,
343,-2.76e-01,
344,-1.96e-01,
345,-2.60e-01,
346,-2.64e-01,
347,-1.96e-01,
348,-2.64e-01,
349,-1.84e-01,
350,-1.96e-01,
351,-2.60e-01,
352,-2.64e-01,
353,-1.84e-01,
354,-2.60e-01,
355,-1.80e-01,
356,-2.64e-01,
357,-1.84e-01,
358,-2.64e-01,
359,-1.88e-01,
360,-1.84e-01,
361,-2.64e-01,
362,-2.64e-01,
363,-1.80e-01,
364,-1.84e-01,
365,-2.64e-01,
366,-1.84e-01,
367,-2.60e-01,
368,-2.64e-01,
369,-1.92e-01,
370,-1.92e-01,
371,-2.64e-01,
372,-2.68e-01,
373,-1.92e-01,
374,-1.92e-01,
375,-2.56e-01,
376,-2.64e-01,
377,-1.88e-01,
378,-2.60e-01,
379,-1.84e-01,
380,-1.88e-01,
381,-2.56e-01,
382,-1.76e-01,
383,-2.56e-01,
384,-2.68e-01,
385,-1.80e-01,
386,-2.56e-01,
387,-1.80e-01,
388,-1.92e-01,
389,-2.80e-01,
390,-1.92e-01,
391,-2.76e-01,
392,-2.76e-01,
393,-1.92e-01,
394,-1.92e-01,
395,-2.56e-01,
396,-1.76e-01,
397,-2.72e-01,
398,-1.80e-01,
399,-2.60e-01,
400,-1.92e-01,
401,-2.56e-01,
402,-2.72e-01,
403,-1.84e-01,
404,-2.64e-01,
405,-1.88e-01,
406,-2.64e-01,
407,-1.96e-01,
408,-1.92e-01,
409,-2.64e-01,
410,-1.80e-01,
411,-2.64e-01,
412,-1.84e-01,
413,-2.64e-01,
414,-1.92e-01,
415,-2.60e-01,
416,-2.64e-01,
417,-1.84e-01,
418,-1.88e-01,
419,-2.64e-01,
420,-1.80e-01,
421,-2.76e-01,
422,-2.84e-01,
423,-1.92e-01,
424,-2.64e-01,
425,-1.80e-01,
426,-2.60e-01,
427,-1.96e-01,
428,-1.96e-01,
429,-2.64e-01,
430,-1.88e-01,
431,-2.64e-01,
432,-2.64e-01,
433,-1.92e-01,
434,-2.60e-01,
435,-1.88e-01,
436,-1.84e-01,
437,-2.60e-01,
438,-2.56e-01,
439,-1.96e-01,
440,-2.64e-01,
441,-1.80e-01,
442,-2.64e-01,
443,-1.84e-01,
444,-1.84e-01,
445,-2.68e-01,
446,-2.60e-01,
447,-1.92e-01,
448,-2.68e-01,
449,-1.92e-01,
450,-1.80e-01,
451,-2.60e-01,
452,-2.56e-01,
453,-1.88e-01,
454,-1.76e-01,
455,-2.56e-01,
456,-2.76e-01,
457,-1.92e-01,
458,-1.88e-01,
459,-2.64e-01,
460,-2.56e-01,
461,-1.84e-01,
462,-2.64e-01,
463,-1.84e-01,
464,-1.92e-01,
465,-2.60e-01,
466,-1.92e-01,
467,-2.60e-01,
468,-2.64e-01,
469,-1.84e-01,
470,-1.92e-01,
471,-2.64e-01,
472,-1.92e-01,
473,-2.84e-01,
474,-1.84e-01,
475,-2.60e-01,
476,-2.68e-01,
477,-1.96e-01,
478,-1.80e-01,
479,-2.56e-01,
480,-2.64e-01,
481,-1.84e-01,
482,-2.60e-01,
483,-1.84e-01,
484,-2.60e-01,
485,-1.88e-01,
486,-2.64e-01,
487,-1.80e-01,
488,-2.72e-01,
489,-1.88e-01,
490,-1.96e-01,
491,-2.60e-01,
492,-1.96e-01,
493,-2.76e-01,
494,-1.92e-01,
495,-2.60e-01,
496,-1.76e-01,
497,-2.76e-01,
498,-1.80e-01,
499,-2.60e-01,
500,-1.92e-01,
501,-2.64e-01,
502,-2.64e-01,
503,-1.84e-01,
504,-1.92e-01,
505,-2.60e-01,
506,-1.96e-01,
507,-2.64e-01,
508,-2.60e-01,
509,-1.72e-01,
510,-1.88e-01,
511,-2.64e-01,
512,-1.96e-01,
513,-2.72e-01,
514,-1.84e-01,
515,-2.60e-01,
516,-1.92e-01,
517,-2.68e-01,
518,-1.92e-01,
519,-2.60e-01,
520,-2.60e-01,
521,-1.84e-01,
522,-2.64e-01,
523,-1.88e-01,
524,-1.88e-01,
525,-2.60e-01,
526,-1.80e-01,
527,-2.64e-01,
528,-1.80e-01,
529,-2.68e-01,
530,-2.60e-01,
531,-1.84e-01,
532,-2.60e-01,
533,-1.88e-01,
534,-2.64e-01,
535,-1.88e-01,
536,-1.92e-01,
537,-2.60e-01,
538,-1.84e-01,
539,-2.60e-01,
540,-1.84e-01,
541,-2.60e-01,
542,-2.56e-01,
543,-1.96e-01,
544,-1.88e-01,
545,-2.72e-01,
546,-2.56e-01,
547,-1.92e-01,
548,-2.56e-01,
549,-1.92e-01,
550,-2.60e-01,
551,-1.88e-01,
552,-1.96e-01,
553,-2.56e-01,
554,-2.64e-01,
555,-1.72e-01,
556,-1.80e-01,
557,-2.64e-01,
558,-2.64e-01,
559,-1.92e-01,
560,-2.56e-01,
561,-1.84e-01,
562,-2.56e-01,
563,-1.88e-01,
564,-2.64e-01,
565,-1.92e-01,
566,-2.60e-01,
567,-1.92e-01,
568,-1.96e-01,
569,-2.60e-01,
570,-1.88e-01,
571,-2.72e-01,
572,-2.64e-01,
573,-1.84e-01,
574,-2.60e-01,
575,-1.92e-01,
576,-2.56e-01,
577,-1.80e-01,
578,-1.92e-01,
579,-2.56e-01,
580,-2.64e-01,
581,-1.88e-01,
582,-1.92e-01,
583,-2.64e-01,
584,-2.56e-01,
585,-1.88e-01,
586,-2.56e-01,
587,-1.92e-01,
588,-2.64e-01,
589,-1.92e-01,
590,-2.64e-01,
591,-1.80e-01,
592,-2.68e-01,
593,-1.92e-01,
594,-1.84e-01,
595,-2.60e-01,
596,-1.84e-01,
597,-2.60e-01,
598,-2.64e-01,
599,-1.84e-01,
600,-2.60e-01,
601,-1.84e-01,
602,-2.60e-01,
603,-1.92e-01,
604,-2.64e-01,
605,-1.92e-01,
606,-2.60e-01,
607,-1.88e-01,
608,-1.88e-01,
609,-2.52e-01,
610,-2.64e-01,
611,-1.80e-01,
612,-2.64e-01,
613,-1.80e-01,
614,-2.60e-01,
615,-1.88e-01,
616,-2.64e-01,
617,-1.88e-01,
618,-2.56e-01,
619,-1.88e-01,
620,-2.60e-01,
621,-1.92e-01,
622,-2.72e-01,
623,-1.80e-01,
624,-2.60e-01,
625,-1.84e-01,
626,-2.64e-01,
627,-1.76e-01,
628,-1.88e-01,
629,-2.64e-01,
630,-1.88e-01,
631,-2.64e-01,
632,-1.92e-01,
633,-2.64e-01,
634,-1.80e-01,
635,-2.80e-01,
636,-1.88e-01,
637,-2.64e-01,
638,-1.88e-01,
639,-2.72e-01,
640,-2.68e-01,
641,-1.92e-01,
642,-2.64e-01,
643,-1.88e-01,
644,-1.92e-01,
645,-2.64e-01,
646,-2.72e-01,
647,-1.84e-01,
648,-2.64e-01,
649,-1.96e-01,
650,-2.60e-01,
651,-1.80e-01,
652,-1.88e-01,
653,-2.56e-01,
654,-2.80e-01,
655,-1.88e-01,
656,-2.64e-01,
657,-1.88e-01,
658,-2.60e-01,
659,-1.92e-01,
660,-1.80e-01,
661,-2.68e-01,
662,-2.76e-01,
663,-1.92e-01,
664,-1.92e-01,
665,-2.64e-01,
666,-2.60e-01,
667,-1.92e-01,
668,-1.92e-01,
669,-2.60e-01,
670,-1.76e-01,
671,-2.64e-01,
672,-1.92e-01,
673,-2.64e-01,
674,-1.80e-01,
675,-2.64e-01,
676,-1.84e-01,
677,-2.60e-01,
678,-2.68e-01,
679,-1.92e-01,
680,-1.92e-01,
681,-2.52e-01,
682,-1.84e-01,
683,-2.60e-01,
684,-2.60e-01,
685,-1.92e-01,
686,-1.80e-01,
687,-2.76e-01,
688,-2.60e-01,
689,-1.84e-01,
690,-2.68e-01,
691,-1.84e-01,
692,-1.92e-01,
693,-2.64e-01,
694,-2.64e-01,
695,-1.92e-01,
696,-1.72e-01,
697,-2.60e-01,
698,-1.80e-01,
699,-2.68e-01,
700,-1.84e-01,
701,-2.60e-01,
702,-2.60e-01,
703,-1.92e-01,
704,-1.84e-01,
705,-2.64e-01,
706,-2.64e-01,
707,-1.76e-01,
708,-1.84e-01,
709,-2.72e-01,
710,-1.88e-01,
711,-2.60e-01,
712,-1.88e-01,
713,-2.52e-01,
714,-2.64e-01,
715,-1.84e-01,
716,-2.56e-01,
717,-1.88e-01,
718,-1.80e-01,
719,-2.80e-01,
720,-2.68e-01,
721,-1.80e-01,
722,-2.56e-01,
723,-1.88e-01,
724,-2.60e-01,
725,-1.88e-01,
726,-1.92e-01,
727,-2.60e-01,
728,-1.92e-01,
729,-2.68e-01,
730,-1.92e-01,
731,-2.60e-01,
732,-1.84e-01,
733,-2.60e-01,
734,-1.80e-01,
735,-2.68e-01,
736,-1.84e-01,
737,-2.64e-01,
738,-2.60e-01,
739,-1.92e-01,
740,-2.56e-01,
741,-1.84e-01,
742,-1.80e-01,
743,-2.68e-01,
744,-1.84e-01,
745,-2.64e-01,
746,-2.64e-01,
747,-1.88e-01,
748,-1.80e-01,
749,-2.68e-01,
750,-2.64e-01,
751,-1.92e-01,
752,-1.92e-01,
753,-2.60e-01,
754,-2.68e-01,
755,-1.92e-01,
756,-1.92e-01,
757,-2.56e-01,
758,-1.92e-01,
759,-2.64e-01,
760,-1.84e-01,
761,-2.72e-01,
762,-1.92e-01,
763,-2.64e-01,
764,-1.92e-01,
765,-2.80e-01,
766,-1.92e-01,
767,-2.60e-01,
768,-1.88e-01,
769,-2.60e-01,
770,-1.84e-01,
771,-2.64e-01,
772,-2.60e-01,
773,-1.80e-01,
774,-2.64e-01,
775,-1.80e-01,
776,-2.64e-01,
777,-1.76e-01,
778,-1.80e-01,
779,-2.72e-01,
780,-2.52e-01,
781,-1.96e-01,
782,-1.92e-01,
783,-2.60e-01,
784,-1.92e-01,
785,-2.72e-01,
786,-1.92e-01,
787,-2.56e-01,
788,-1.96e-01,
789,-2.72e-01,
790,-1.92e-01,
791,-2.64e-01,
792,-1.88e-01,
793,-2.60e-01,
794,-1.92e-01,
795,-2.76e-01,
796,-2.60e-01,
797,-1.80e-01,
798,-1.80e-01,
799,-2.60e-01,
800,-2.64e-01,
801,-1.76e-01,
802,-1.84e-01,
803,-2.64e-01,
804,-1.84e-01,
805,-2.60e-01,
806,-2.56e-01,
807,-1.88e-01,
808,-2.60e-01,
809,-1.84e-01,
810,-2.72e-01,
811,-1.88e-01,
812,-2.60e-01,
813,-1.88e-01,
814,-2.64e-01,
815,-1.84e-01,
816,-1.76e-01,
817,-2.64e-01,
818,-1.92e-01,
819,-2.80e-01,
820,-1.76e-01,
821,-2.60e-01,
822,-2.64e-01,
823,-1.84e-01,
824,-1.88e-01,
825,-2.60e-01,
826,-2.60e-01,
827,-1.76e-01,
828,-1.80e-01,
829,-2.60e-01,
830,-2.64e-01,
831,-1.92e-01,
832,-1.80e-01,
833,-2.72e-01,
834,-2.60e-01,
835,-1.84e-01,
836,-2.60e-01,
837,-1.92e-01,
838,-1.92e-01,
839,-2.64e-01,
840,-2.60e-01,
841,-1.88e-01,
842,-2.60e-01,
843,-1.92e-01,
844,-1.96e-01,
845,-2.68e-01,
846,-1.84e-01,
847,-2.60e-01,
848,-2.64e-01,
849,-1.96e-01,
850,-2.60e-01,
851,-1.92e-01,
852,-2.64e-01,
853,-1.96e-01,
854,-1.80e-01,
855,-2.72e-01,
856,-1.92e-01,
857,-2.60e-01,
858,-1.88e-01,
859,-2.60e-01,
860,-1.76e-01,
861,-2.60e-01,
862,-1.80e-01,
863,-2.64e-01,
864,-1.84e-01,
865,-2.60e-01,
866,-2.60e-01,
867,-1.84e-01,
868,-2.56e-01,
869,-1.80e-01,
870,-1.92e-01,
871,-2.64e-01,
872,-2.68e-01,
873,-1.88e-01,
874,-2.60e-01,
875,-1.92e-01,
876,-1.84e-01,
877,-2.60e-01,
878,-1.80e-01,
879,-2.56e-01,
880,-2.60e-01,
881,-1.84e-01,
882,-2.56e-01,
883,-1.84e-01,
884,-1.88e-01,
885,-2.68e-01,
886,-1.88e-01,
887,-2.68e-01,
888,-1.96e-01,
889,-2.60e-01,
890,-1.84e-01,
891,-2.60e-01,
892,-1.84e-01,
893,-2.64e-01,
894,-1.84e-01,
895,-2.60e-01,
896,-1.92e-01,
897,-2.60e-01,
898,-2.56e-01,
899,-1.92e-01,
900,-2.64e-01,
901,-1.84e-01,
902,-1.76e-01,
903,-2.76e-01,
904,-2.56e-01,
905,-1.84e-01,
906,-1.80e-01,
907,-2.60e-01,
908,-1.92e-01,
909,-2.64e-01,
910,-1.92e-01,
911,-2.76e-01,
912,-1.84e-01,
913,-2.60e-01,
914,-2.56e-01,
915,-1.64e-01,
916,-1.96e-01,
917,-2.68e-01,
918,-2.64e-01,
919,-1.80e-01,
920,-1.96e-01,
921,-2.60e-01,
922,-2.60e-01,
923,-1.84e-01,
924,-2.72e-01,
925,-1.88e-01,
926,-2.56e-01,
927,-1.88e-01,
928,-1.76e-01,
929,-2.60e-01,
930,-2.72e-01,
931,-1.92e-01,
932,-2.64e-01,
933,-1.88e-01,
934,-1.76e-01,
935,-2.60e-01,
936,-1.80e-01,
937,-2.56e-01,
938,-2.68e-01,
939,-1.88e-01,
940,-2.56e-01,
941,-1.88e-01,
942,-2.60e-01,
943,-1.84e-01,
944,-1.80e-01,
945,-2.60e-01,
946,-1.84e-01,
947,-2.68e-01,
948,-2.56e-01,
949,-1.76e-01,
950,-2.72e-01,
951,-1.92e-01,
952,-2.60e-01,
953,-1.80e-01,
954,-1.80e-01,
955,-2.60e-01,
956,-1.88e-01,
957,-2.68e-01,
958,-1.84e-01,
959,-2.60e-01,
960,-1.84e-01,
961,-2.56e-01,
962,-1.88e-01,
963,-2.60e-01,
964,-2.72e-01,
965,-1.84e-01,
966,-2.60e-01,
967,-1.84e-01,
968,-1.84e-01,
969,-2.64e-01,
970,-1.84e-01,
971,-2.60e-01,
972,-1.76e-01,
973,-2.60e-01,
974,-1.76e-01,
975,-2.60e-01,
976,-1.88e-01,
977,-2.60e-01,
978,-1.84e-01,
979,-2.56e-01,
980,-1.80e-01,
981,-2.56e-01,
982,-1.84e-01,
983,-2.64e-01,
984,-2.64e-01,
985,-1.72e-01,
986,-1.88e-01,
987,-2.64e-01,
988,-2.60e-01,
989,-1.92e-01,
990,-2.60e-01,
991,-1.84e-01,
992,-2.64e-01,
993,-1.88e-01,
994,-1.84e-01,
995,-2.52e-01,
996,-1.84e-01,
997,-2.56e-01,
998,-2.64e-01,
999,-1.84e-01,
1000,-1.84e-01,
1001,-2.60e-01,
1002,-2.60e-01,
1003,-1.80e-01,
1004,-2.56e-01,
1005,-1.84e-01,
1006,-1.84e-01,
1007,-2.64e-01,
1008,-2.56e-01,
1009,-1.84e-01,
1010,-1.88e-01,
1011,-2.64e-01,
1012,-2.60e-01,
1013,-1.84e-01,
1014,-1.84e-01,
1015,-2.60e-01,
1016,-2.52e-01,
1017,-1.88e-01,
1018,-2.68e-01,
1019,-1.84e-01,
1020,-2.56e-01,
1021,-1.84e-01,
1022,-1.80e-01,
1023,-2.68e-01,
1024,-2.64e-01,
1025,-1.88e-01,
1026,-2.68e-01,
1027,-1.84e-01,
1028,-2.72e-01,
1029,-1.84e-01,
1030,-1.88e-01,
1031,-2.64e-01,
1032,-2.64e-01,
1033,-1.64e-01,
1034,-2.72e-01,
1035,-1.76e-01,
1036,-2.60e-01,
1037,-1.88e-01,
1038,-2.64e-01,
1039,-1.84e-01,
1040,-2.64e-01,
1041,-1.80e-01,
1042,-2.56e-01,
1043,-1.88e-01,
1044,-2.64e-01,
1045,-1.80e-01,
1046,-1.92e-01,
1047,-2.64e-01,
1048,-2.56e-01,
1049,-1.84e-01,
1050,-1.92e-01,
1051,-2.64e-01,
1052,-2.60e-01,
1053,-1.88e-01,
1054,-2.60e-01,
1055,-1.84e-01,
1056,-2.60e-01,
1057,-1.84e-01,
1058,-2.60e-01,
1059,-1.80e-01,
1060,-2.56e-01,
1061,-1.92e-01,
1062,-1.80e-01,
1063,-2.64e-01,
1064,-2.76e-01,
1065,-1.88e-01,
1066,-2.56e-01,
1067,-1.88e-01,
1068,-2.56e-01,
1069,-1.80e-01,
1070,-1.92e-01,
1071,-2.64e-01,
1072,-2.60e-01,
1073,-1.84e-01,
1074,-1.84e-01,
1075,-2.60e-01,
1076,-1.88e-01,
1077,-2.56e-01,
1078,-2.56e-01,
1079,-1.80e-01,
1080,-2.72e-01,
1081,-1.88e-01,
1082,-1.80e-01,
1083,-2.60e-01,
1084,-1.92e-01,
1085,-2.64e-01,
1086,-1.84e-01,
1087,-2.68e-01,
1088,-2.64e-01,
1089,-1.80e-01,
1090,-1.92e-01,
1091,-2.60e-01,
1092,-1.88e-01,
1093,-2.64e-01,
1094,-2.64e-01,
1095,-1.92e-01,
1096,-1.84e-01,
1097,-2.64e-01,
1098,-1.92e-01,
1099,-2.56e-01,
1100,-1.92e-01,
1101,-2.52e-01,
1102,-1.92e-01,
1103,-2.60e-01,
1104,-2.64e-01,
1105,-1.80e-01,
1106,-2.60e-01,
1107,-1.80e-01,
1108,-1.88e-01,
1109,-2.68e-01,
1110,-2.64e-01,
1111,-1.80e-01,
1112,-2.56e-01,
1113,-1.92e-01,
1114,-2.60e-01,
1115,-1.88e-01,
1116,-1.92e-01,
1117,-2.68e-01,
1118,-2.68e-01,
1119,-1.84e-01,
1120,-2.60e-01,
1121,-1.80e-01,
1122,-1.84e-01,
1123,-2.60e-01,
1124,-2.68e-01,
1125,-1.88e-01,
1126,-2.60e-01,
1127,-1.88e-01,
1128,-2.68e-01,
1129,-1.92e-01,
1130,-1.84e-01,
1131,-2.72e-01,
1132,-2.64e-01,
1133,-1.88e-01,
1134,-2.60e-01,
1135,-1.92e-01,
1136,-2.56e-01,
1137,-1.84e-01,
1138,-1.92e-01,
1139,-2.60e-01,
1140,-2.64e-01,
1141,-1.92e-01,
1142,-2.64e-01,
1143,-1.84e-01,
1144,-2.60e-01,
1145,-1.80e-01,
1146,-2.60e-01,
1147,-1.92e-01,
1148,-1.84e-01,
1149,-2.64e-01,
1150,-1.72e-01,
1151,-2.64e-01,
1152,-2.68e-01,
1153,-1.92e-01,
1154,-2.60e-01,
1155,-1.80e-01,
1156,-2.56e-01,
1157,-1.84e-01,
1158,-1.92e-01,
1159,-2.72e-01,
1160,-2.56e-01,
1161,-1.84e-01,
1162,-1.88e-01,
1163,-2.68e-01,
1164,-1.76e-01,
1165,-2.68e-01,
1166,-1.84e-01,
1167,-2.56e-01,
1168,-1.92e-01,
1169,-2.56e-01,
1170,-1.80e-01,
1171,-2.60e-01,
1172,-1.92e-01,
1173,-2.56e-01,
1174,-2.60e-01,
1175,-1.80e-01,
1176,-1.80e-01,
1177,-2.64e-01,
1178,-1.68e-01,
1179,-2.56e-01,
1180,-1.88e-01,
1181,-2.60e-01,
1182,-1.84e-01,
1183,-2.68e-01,
1184,-1.92e-01,
1185,-2.68e-01,
1186,-2.60e-01,
1187,-1.84e-01,
1188,-2.64e-01,
1189,-1.84e-01,
1190,-2.56e-01,
1191,-1.84e-01,
1192,-2.64e-01,
1193,-1.76e-01,
1194,-2.56e-01,
1195,-1.80e-01,
1196,-1.84e-01,
1197,-2.76e-01,
1198,-2.60e-01,
1199,-1.84e-01,
