fastdiffamp/data-noise-set/7th/NewFile6.csv

X,CH1,Start,Increment,
Sequence,Volt,-1.200000e-02,2.000000e-05
0,-8.00e-04,
1,3.20e-03,
2,3.20e-03,
3,0.00e+00,
4,8.00e-04,
5,3.20e-03,
6,3.20e-03,
7,-8.00e-04,
8,3.20e-03,
9,0.00e+00,
10,-8.00e-04,
11,4.00e-03,
12,-8.00e-04,
13,4.00e-03,
14,-8.00e-04,
15,3.20e-03,
16,0.00e+00,
17,2.80e-03,
18,-8.00e-04,
19,4.00e-03,
20,4.80e-03,
21,-8.00e-04,
22,3.20e-03,
23,-8.00e-04,
24,3.20e-03,
25,-1.60e-03,
26,2.40e-03,
27,-8.00e-04,
28,2.40e-03,
29,-8.00e-04,
30,2.40e-03,
31,-8.00e-04,
32,2.40e-03,
33,-8.00e-04,
34,-2.40e-03,
35,3.20e-03,
36,-8.00e-04,
37,3.20e-03,
38,4.00e-03,
39,-8.00e-04,
40,-8.00e-04,
41,2.80e-03,
42,0.00e+00,
43,2.40e-03,
44,-8.00e-04,
45,4.00e-03,
46,-1.60e-03,
47,4.00e-03,
48,4.00e-03,
49,-1.60e-03,
50,-8.00e-04,
51,2.40e-03,
52,-1.60e-03,
53,3.20e-03,
54,-8.00e-04,
55,3.20e-03,
56,3.20e-03,
57,-1.60e-03,
58,1.60e-03,
59,-8.00e-04,
60,-8.00e-04,
61,4.00e-03,
62,-8.00e-04,
63,3.20e-03,
64,-1.60e-03,
65,3.20e-03,
66,-8.00e-04,
67,2.00e-03,
68,-1.60e-03,
69,2.80e-03,
70,2.40e-03,
71,-8.00e-04,
72,0.00e+00,
73,3.20e-03,
74,3.20e-03,
75,-8.00e-04,
76,3.20e-03,
77,-1.60e-03,
78,3.20e-03,
79,-8.00e-04,
80,3.20e-03,
81,-1.60e-03,
82,-8.00e-04,
83,3.60e-03,
84,2.00e-03,
85,-8.00e-04,
86,-8.00e-04,
87,3.20e-03,
88,0.00e+00,
89,2.80e-03,
90,3.20e-03,
91,-1.60e-03,
92,3.20e-03,
93,-8.00e-04,
94,3.20e-03,
95,-8.00e-04,
96,-8.00e-04,
97,3.20e-03,
98,2.40e-03,
99,-8.00e-04,
100,3.20e-03,
101,-8.00e-04,
102,-8.00e-04,
103,3.20e-03,
104,3.20e-03,
105,0.00e+00,
106,2.40e-03,
107,-8.00e-04,
108,-8.00e-04,
109,3.20e-03,
110,-8.00e-04,
111,4.00e-03,
112,0.00e+00,
113,3.20e-03,
114,-8.00e-04,
115,2.40e-03,
116,2.40e-03,
117,0.00e+00,
118,0.00e+00,
119,4.00e-03,
120,0.00e+00,
121,3.20e-03,
122,3.60e-03,
123,-1.60e-03,
124,2.40e-03,
125,-1.60e-03,
126,-8.00e-04,
127,4.00e-03,
128,3.20e-03,
129,-8.00e-04,
130,-8.00e-04,
131,2.40e-03,
132,-8.00e-04,
133,2.80e-03,
134,-1.60e-03,
135,3.20e-03,
136,-1.60e-03,
137,3.20e-03,
138,-8.00e-04,
139,2.40e-03,
140,-8.00e-04,
141,2.40e-03,
142,2.40e-03,
143,-1.60e-03,
144,-8.00e-04,
145,2.40e-03,
146,3.20e-03,
147,-8.00e-04,
148,-8.00e-04,
149,2.40e-03,
150,2.40e-03,
151,-1.60e-03,
152,2.40e-03,
153,-8.00e-04,
154,2.00e-03,
155,-1.60e-03,
156,-8.00e-04,
157,2.00e-03,
158,1.60e-03,
159,-1.60e-03,
160,4.00e-03,
161,-1.60e-03,
162,-8.00e-04,
163,2.80e-03,
164,-8.00e-04,
165,3.20e-03,
166,2.40e-03,
167,-8.00e-04,
168,2.80e-03,
169,-1.60e-03,
170,-1.60e-03,
171,2.40e-03,
172,-1.60e-03,
173,1.60e-03,
174,-1.60e-03,
175,3.20e-03,
176,3.20e-03,
177,-8.00e-04,
178,2.40e-03,
179,-8.00e-04,
180,-1.60e-03,
181,3.20e-03,
182,-8.00e-04,
183,2.80e-03,
184,-8.00e-04,
185,1.60e-03,
186,-8.00e-04,
187,2.40e-03,
188,-1.60e-03,
189,3.20e-03,
190,0.00e+00,
191,2.40e-03,
192,-8.00e-04,
193,2.40e-03,
194,2.40e-03,
195,-8.00e-04,
196,3.20e-03,
197,-8.00e-04,
198,-8.00e-04,
199,2.40e-03,
200,1.60e-03,
201,-1.60e-03,
202,-1.60e-03,
203,2.40e-03,
204,3.20e-03,
205,-1.60e-03,
206,2.40e-03,
207,-1.60e-03,
208,2.80e-03,
209,-1.60e-03,
210,-1.60e-03,
211,3.20e-03,
212,2.40e-03,
213,-8.00e-04,
214,2.40e-03,
215,-1.60e-03,
216,-8.00e-04,
217,3.20e-03,
218,-8.00e-04,
219,2.00e-03,
220,3.20e-03,
221,-8.00e-04,
222,-1.60e-03,
223,2.40e-03,
224,2.40e-03,
225,-1.60e-03,
226,2.40e-03,
227,-8.00e-04,
228,2.00e-03,
229,-1.60e-03,
230,2.40e-03,
231,-8.00e-04,
232,2.40e-03,
233,-8.00e-04,
234,-8.00e-04,
235,3.20e-03,
236,2.80e-03,
237,-8.00e-04,
238,1.60e-03,
239,-8.00e-04,
240,-1.60e-03,
241,3.20e-03,
242,3.20e-03,
243,-1.60e-03,
244,-1.60e-03,
245,2.00e-03,
246,2.40e-03,
247,-1.60e-03,
248,-1.60e-03,
249,3.20e-03,
250,-1.60e-03,
251,2.00e-03,
252,-1.60e-03,
253,2.40e-03,
254,1.60e-03,
255,-8.00e-04,
256,-1.60e-03,
257,3.20e-03,
258,2.40e-03,
259,-8.00e-04,
260,-1.60e-03,
261,1.60e-03,
262,2.40e-03,
263,-1.60e-03,
264,-2.40e-03,
265,2.40e-03,
266,2.40e-03,
267,-1.60e-03,
268,-2.40e-03,
269,2.40e-03,
270,-1.60e-03,
271,2.40e-03,
272,3.20e-03,
273,-3.20e-03,
274,-1.60e-03,
275,2.80e-03,
276,-1.60e-03,
277,1.60e-03,
278,1.60e-03,
279,-1.60e-03,
280,2.40e-03,
281,-1.60e-03,
282,1.60e-03,
283,-2.40e-03,
284,8.00e-04,
285,-1.60e-03,
286,-8.00e-04,
287,2.00e-03,
288,-1.60e-03,
289,2.40e-03,
290,-1.60e-03,
291,2.40e-03,
292,3.20e-03,
293,-2.40e-03,
294,-8.00e-04,
295,2.40e-03,
296,2.40e-03,
297,-1.60e-03,
298,-1.60e-03,
299,2.40e-03,
300,2.40e-03,
301,-2.40e-03,
302,-3.20e-03,
303,2.40e-03,
304,3.20e-03,
305,-2.40e-03,
306,-1.60e-03,
307,2.40e-03,
308,-1.60e-03,
309,2.00e-03,
310,-2.40e-03,
311,1.60e-03,
312,1.20e-03,
313,-1.60e-03,
314,-1.60e-03,
315,2.00e-03,
316,1.60e-03,
317,-1.60e-03,
318,2.00e-03,
319,-2.40e-03,
320,2.40e-03,
321,-1.60e-03,
322,2.40e-03,
323,-1.60e-03,
324,-8.00e-04,
325,2.40e-03,
326,2.00e-03,
327,-2.40e-03,
328,-1.60e-03,
329,2.40e-03,
330,-8.00e-04,
331,1.60e-03,
332,1.60e-03,
333,-1.60e-03,
334,-1.60e-03,
335,1.60e-03,
336,2.40e-03,
337,-1.60e-03,
338,-1.60e-03,
339,1.60e-03,
340,1.60e-03,
341,-1.60e-03,
342,1.60e-03,
343,-1.60e-03,
344,1.60e-03,
345,-1.60e-03,
346,2.40e-03,
347,-1.60e-03,
348,1.20e-03,
349,-2.40e-03,
350,2.40e-03,
351,-1.60e-03,
352,2.00e-03,
353,-1.60e-03,
354,-1.60e-03,
355,2.40e-03,
356,-8.00e-04,
357,1.60e-03,
358,-1.60e-03,
359,1.60e-03,
360,-2.40e-03,
361,2.40e-03,
362,2.40e-03,
363,-2.40e-03,
364,-1.60e-03,
365,2.40e-03,
366,1.60e-03,
367,-1.60e-03,
368,-1.60e-03,
369,1.60e-03,
370,1.60e-03,
371,-1.60e-03,
372,-2.40e-03,
373,1.60e-03,
374,-8.00e-04,
375,1.20e-03,
376,-1.60e-03,
377,2.40e-03,
378,2.40e-03,
379,-2.40e-03,
380,1.60e-03,
381,-3.20e-03,
382,-2.40e-03,
383,2.40e-03,
384,-2.40e-03,
385,2.40e-03,
386,1.60e-03,
387,-2.40e-03,
388,-2.40e-03,
389,2.80e-03,
390,-2.40e-03,
391,1.60e-03,
392,1.60e-03,
393,-2.40e-03,
394,-2.40e-03,
395,2.00e-03,
396,8.00e-04,
397,-2.40e-03,
398,-2.40e-03,
399,1.20e-03,
400,-1.60e-03,
401,1.60e-03,
402,1.20e-03,
403,-3.20e-03,
404,2.40e-03,
405,-3.20e-03,
406,-2.40e-03,
407,1.60e-03,
408,-3.20e-03,
409,2.40e-03,
410,1.60e-03,
411,-3.20e-03,
412,-2.40e-03,
413,1.20e-03,
414,-1.60e-03,
415,1.60e-03,
416,-1.60e-03,
417,1.60e-03,
418,1.60e-03,
419,-2.40e-03,
420,-2.40e-03,
421,1.60e-03,
422,-1.60e-03,
423,1.60e-03,
424,-2.40e-03,
425,1.60e-03,
426,-2.40e-03,
427,1.20e-03,
428,-2.40e-03,
429,2.40e-03,
430,-3.20e-03,
431,1.60e-03,
432,1.60e-03,
433,-3.20e-03,
434,8.00e-04,
435,-2.40e-03,
436,-1.60e-03,
437,1.60e-03,
438,-2.40e-03,
439,1.60e-03,
440,1.60e-03,
441,-2.40e-03,
442,-2.40e-03,
443,1.60e-03,
444,2.40e-03,
445,-2.40e-03,
446,1.60e-03,
447,-1.60e-03,
448,8.00e-04,
449,-2.40e-03,
450,-2.40e-03,
451,1.60e-03,
452,-1.60e-03,
453,2.40e-03,
454,3.20e-03,
455,-2.40e-03,
456,1.60e-03,
457,-8.00e-04,
458,1.60e-03,
459,-2.40e-03,
460,-3.20e-03,
461,1.60e-03,
462,1.60e-03,
463,-2.40e-03,
464,-1.60e-03,
465,1.60e-03,
466,-1.60e-03,
467,1.60e-03,
468,8.00e-04,
469,-1.60e-03,
470,-2.40e-03,
471,2.40e-03,
472,-2.40e-03,
473,1.60e-03,
474,-1.60e-03,
475,1.20e-03,
476,2.40e-03,
477,-3.20e-03,
478,-1.60e-03,
479,2.40e-03,
480,-2.40e-03,
481,2.80e-03,
482,8.00e-04,
483,-3.20e-03,
484,-2.40e-03,
485,1.60e-03,
486,1.20e-03,
487,-2.40e-03,
488,-2.40e-03,
489,1.60e-03,
490,-2.40e-03,
491,1.20e-03,
492,1.60e-03,
493,-1.60e-03,
494,-2.40e-03,
495,1.20e-03,
496,2.40e-03,
497,-2.40e-03,
498,-2.40e-03,
499,1.60e-03,
500,-2.40e-03,
501,2.40e-03,
502,2.00e-03,
503,-1.60e-03,
504,-1.60e-03,
505,1.60e-03,
506,-2.40e-03,
507,1.60e-03,
508,-1.60e-03,
509,1.60e-03,
510,-1.60e-03,
511,1.20e-03,
512,-1.60e-03,
513,1.60e-03,
514,1.60e-03,
515,-1.60e-03,
516,-8.00e-04,
517,1.60e-03,
518,-3.20e-03,
519,3.20e-03,
520,-1.60e-03,
521,1.60e-03,
522,-1.60e-03,
523,8.00e-04,
524,2.00e-03,
525,-2.40e-03,
526,2.40e-03,
527,-2.40e-03,
528,2.40e-03,
529,-1.60e-03,
530,-1.60e-03,
531,1.60e-03,
532,1.20e-03,
533,-1.60e-03,
534,1.60e-03,
535,-1.60e-03,
536,1.60e-03,
537,-1.60e-03,
538,1.60e-03,
539,-2.40e-03,
540,-2.40e-03,
541,1.60e-03,
542,-1.60e-03,
543,1.60e-03,
544,-1.60e-03,
545,8.00e-04,
546,-1.60e-03,
547,3.20e-03,
548,1.60e-03,
549,-1.60e-03,
550,-1.60e-03,
551,2.40e-03,
552,8.00e-04,
553,-1.60e-03,
554,1.60e-03,
555,-1.60e-03,
556,-2.40e-03,
557,2.40e-03,
558,1.60e-03,
559,-1.60e-03,
560,-8.00e-04,
561,2.40e-03,
562,-2.00e-03,
563,2.00e-03,
564,2.40e-03,
565,-2.40e-03,
566,-1.60e-03,
567,2.40e-03,
568,2.40e-03,
569,-2.40e-03,
570,-2.40e-03,
571,2.40e-03,
572,1.60e-03,
573,-2.40e-03,
574,2.40e-03,
575,-2.40e-03,
576,1.60e-03,
577,-1.60e-03,
578,-1.60e-03,
579,2.40e-03,
580,2.40e-03,
581,-1.60e-03,
582,-2.40e-03,
583,1.60e-03,
584,-1.60e-03,
585,1.60e-03,
586,-2.40e-03,
587,1.60e-03,
588,-1.60e-03,
589,1.20e-03,
590,1.60e-03,
591,-1.60e-03,
592,1.60e-03,
593,-2.40e-03,
594,1.60e-03,
595,-3.20e-03,
596,2.40e-03,
597,-1.60e-03,
598,-1.60e-03,
599,1.20e-03,
600,-1.60e-03,
601,2.40e-03,
602,-1.60e-03,
603,1.20e-03,
604,-2.40e-03,
605,1.60e-03,
606,-8.00e-04,
607,2.00e-03,
608,-1.60e-03,
609,1.60e-03,
610,-1.60e-03,
611,2.40e-03,
612,2.40e-03,
613,-1.60e-03,
614,3.20e-03,
615,-1.60e-03,
616,-1.60e-03,
617,2.40e-03,
618,8.00e-04,
619,-2.40e-03,
620,-1.60e-03,
621,2.40e-03,
622,-1.60e-03,
623,2.40e-03,
624,-1.60e-03,
625,2.40e-03,
626,1.60e-03,
627,-1.60e-03,
628,-1.60e-03,
629,2.40e-03,
630,-2.40e-03,
631,2.40e-03,
632,2.40e-03,
633,-2.40e-03,
634,-8.00e-04,
635,1.60e-03,
636,1.60e-03,
637,-1.60e-03,
638,-1.60e-03,
639,2.40e-03,
640,-1.60e-03,
641,1.60e-03,
642,-1.60e-03,
643,1.60e-03,
644,-1.60e-03,
645,1.60e-03,
646,-1.60e-03,
647,3.20e-03,
648,2.80e-03,
649,-1.60e-03,
650,1.60e-03,
651,-2.40e-03,
652,2.40e-03,
653,-2.40e-03,
654,3.20e-03,
655,-1.60e-03,
656,-1.60e-03,
657,3.20e-03,
658,-1.60e-03,
659,2.40e-03,
660,2.40e-03,
661,-2.40e-03,
662,2.40e-03,
663,-1.60e-03,
664,-1.60e-03,
665,2.80e-03,
666,-2.40e-03,
667,2.40e-03,
668,-8.00e-04,
669,3.20e-03,
670,2.40e-03,
671,-8.00e-04,
672,-2.40e-03,
673,2.40e-03,
674,2.40e-03,
675,-2.40e-03,
676,-1.60e-03,
677,2.40e-03,
678,-1.60e-03,
679,3.20e-03,
680,-1.60e-03,
681,2.00e-03,
682,3.20e-03,
683,-2.40e-03,
684,1.60e-03,
685,-2.40e-03,
686,2.40e-03,
687,-1.60e-03,
688,-2.40e-03,
689,1.60e-03,
690,2.40e-03,
691,-1.60e-03,
692,-2.40e-03,
693,2.40e-03,
694,2.40e-03,
695,-1.60e-03,
696,2.40e-03,
697,-2.40e-03,
698,-2.40e-03,
699,2.00e-03,
700,-1.60e-03,
701,2.40e-03,
702,-1.60e-03,
703,1.60e-03,
704,1.60e-03,
705,-1.60e-03,
706,2.40e-03,
707,-1.60e-03,
708,2.40e-03,
709,-2.40e-03,
710,-1.60e-03,
711,2.40e-03,
712,-2.40e-03,
713,1.60e-03,
714,-8.00e-04,
715,1.60e-03,
716,2.80e-03,
717,-1.60e-03,
718,-8.00e-04,
719,1.60e-03,
720,-8.00e-04,
721,1.60e-03,
722,-1.60e-03,
723,2.40e-03,
724,2.40e-03,
725,-1.60e-03,
726,-1.60e-03,
727,1.60e-03,
728,-1.60e-03,
729,2.40e-03,
730,1.60e-03,
731,-1.60e-03,
732,-1.20e-03,
733,2.40e-03,
734,-1.60e-03,
735,2.40e-03,
736,-8.00e-04,
737,2.00e-03,
738,2.40e-03,
739,-8.00e-04,
740,2.40e-03,
741,-1.60e-03,
742,2.40e-03,
743,-1.60e-03,
744,-1.60e-03,
745,2.40e-03,
746,-8.00e-04,
747,1.60e-03,
748,3.20e-03,
749,-1.20e-03,
750,-1.60e-03,
751,3.20e-03,
752,-8.00e-04,
753,2.40e-03,
754,-1.60e-03,
755,2.40e-03,
756,-8.00e-04,
757,2.40e-03,
758,-8.00e-04,
759,3.20e-03,
760,2.00e-03,
761,-1.60e-03,
762,2.40e-03,
763,-2.40e-03,
764,2.40e-03,
765,-2.40e-03,
766,2.40e-03,
767,-8.00e-04,
768,2.40e-03,
769,-8.00e-04,
770,2.40e-03,
771,-8.00e-04,
772,3.20e-03,
773,-8.00e-04,
774,4.00e-03,
775,-8.00e-04,
776,2.40e-03,
777,-8.00e-04,
778,2.80e-03,
779,-1.60e-03,
780,-8.00e-04,
781,3.20e-03,
782,3.20e-03,
783,-8.00e-04,
784,-8.00e-04,
785,2.40e-03,
786,-2.40e-03,
787,2.40e-03,
788,2.40e-03,
789,-1.60e-03,
790,2.40e-03,
791,-8.00e-04,
792,2.40e-03,
793,-8.00e-04,
794,0.00e+00,
795,2.80e-03,
796,-1.60e-03,
797,2.40e-03,
798,3.20e-03,
799,-2.40e-03,
800,-8.00e-04,
801,2.40e-03,
802,3.20e-03,
803,-1.60e-03,
804,-8.00e-04,
805,1.60e-03,
806,-1.60e-03,
807,3.20e-03,
808,-8.00e-04,
809,3.20e-03,
810,-8.00e-04,
811,2.00e-03,
812,-1.60e-03,
813,2.40e-03,
814,-2.40e-03,
815,2.00e-03,
816,-8.00e-04,
817,2.40e-03,
818,2.40e-03,
819,-1.60e-03,
820,3.20e-03,
821,-1.60e-03,
822,-2.40e-03,
823,3.20e-03,
824,2.40e-03,
825,-2.40e-03,
826,3.20e-03,
827,-1.60e-03,
828,0.00e+00,
829,3.20e-03,
830,2.40e-03,
831,-8.00e-04,
832,-8.00e-04,
833,3.20e-03,
834,-8.00e-04,
835,2.40e-03,
836,-2.40e-03,
837,3.20e-03,
838,-8.00e-04,
839,3.20e-03,
840,-8.00e-04,
841,3.20e-03,
842,2.40e-03,
843,-8.00e-04,
844,2.00e-03,
845,-2.40e-03,
846,2.00e-03,
847,-8.00e-04,
848,-8.00e-04,
849,2.80e-03,
850,2.40e-03,
851,-1.60e-03,
852,-1.20e-03,
853,2.00e-03,
854,-2.40e-03,
855,2.40e-03,
856,-8.00e-04,
857,2.40e-03,
858,2.40e-03,
859,-2.40e-03,
860,-8.00e-04,
861,3.20e-03,
862,-1.60e-03,
863,2.40e-03,
864,2.40e-03,
865,-1.60e-03,
866,2.40e-03,
867,0.00e+00,
868,2.40e-03,
869,-1.60e-03,
870,2.40e-03,
871,-8.00e-04,
872,-8.00e-04,
873,3.20e-03,
874,-1.60e-03,
875,3.20e-03,
876,3.20e-03,
877,-8.00e-04,
878,2.40e-03,
879,-1.60e-03,
880,-8.00e-04,
881,2.40e-03,
882,-1.60e-03,
883,3.20e-03,
884,-8.00e-04,
885,2.40e-03,
886,3.20e-03,
887,-8.00e-04,
888,3.20e-03,
889,-8.00e-04,
890,-8.00e-04,
891,2.40e-03,
892,-8.00e-04,
893,2.40e-03,
894,2.40e-03,
895,-1.60e-03,
896,2.80e-03,
897,-1.60e-03,
898,3.20e-03,
899,-8.00e-04,
900,-2.40e-03,
901,2.40e-03,
902,-8.00e-04,
903,3.20e-03,
904,4.00e-03,
905,0.00e+00,
906,0.00e+00,
907,2.00e-03,
908,2.40e-03,
909,-8.00e-04,
910,-1.60e-03,
911,3.20e-03,
912,2.40e-03,
913,-8.00e-04,
914,-2.40e-03,
915,3.20e-03,
916,3.20e-03,
917,-8.00e-04,
918,2.40e-03,
919,-1.60e-03,
920,3.20e-03,
921,-8.00e-04,
922,-8.00e-04,
923,3.20e-03,
924,-8.00e-04,
925,2.80e-03,
926,-1.60e-03,
927,2.80e-03,
928,-1.60e-03,
929,2.40e-03,
930,-8.00e-04,
931,2.40e-03,
932,3.20e-03,
933,-2.40e-03,
934,2.40e-03,
935,-1.60e-03,
936,2.40e-03,
937,-8.00e-04,
938,2.40e-03,
939,-1.60e-03,
940,2.40e-03,
941,-1.60e-03,
942,-8.00e-04,
943,2.40e-03,
944,-8.00e-04,
945,3.20e-03,
946,2.40e-03,
947,-8.00e-04,
948,2.80e-03,
949,-1.60e-03,
950,2.80e-03,
951,-1.60e-03,
952,2.00e-03,
953,-8.00e-04,
954,-1.60e-03,
955,3.20e-03,
956,2.40e-03,
957,-1.60e-03,
958,-1.60e-03,
959,2.80e-03,
960,2.40e-03,
961,-8.00e-04,
962,-1.20e-03,
963,3.20e-03,
964,-8.00e-04,
965,3.20e-03,
966,-2.40e-03,
967,1.60e-03,
968,3.20e-03,
969,-1.60e-03,
970,-8.00e-04,
971,2.40e-03,
972,4.00e-03,
973,-1.60e-03,
974,-1.60e-03,
975,2.80e-03,
976,-8.00e-04,
977,2.80e-03,
978,-8.00e-04,
979,3.20e-03,
980,-1.60e-03,
981,3.20e-03,
982,2.40e-03,
983,-1.60e-03,
984,2.40e-03,
985,-8.00e-04,
986,2.40e-03,
987,-8.00e-04,
988,3.20e-03,
989,-1.60e-03,
990,1.60e-03,
991,-8.00e-04,
992,-8.00e-04,
993,3.60e-03,
994,2.40e-03,
995,-4.00e-04,
996,2.40e-03,
997,-1.60e-03,
998,0.00e+00,
999,2.40e-03,
1000,2.40e-03,
1001,-8.00e-04,
1002,2.00e-03,
1003,-8.00e-04,
1004,2.40e-03,
1005,-8.00e-04,
1006,3.20e-03,
1007,-8.00e-04,
1008,-8.00e-04,
1009,3.20e-03,
1010,-8.00e-04,
1011,3.20e-03,
1012,-8.00e-04,
1013,3.20e-03,
1014,-2.40e-03,
1015,3.20e-03,
1016,2.40e-03,
1017,-1.60e-03,
1018,-2.40e-03,
1019,4.00e-03,
1020,-8.00e-04,
1021,3.20e-03,
1022,2.80e-03,
1023,-1.60e-03,
1024,2.40e-03,
1025,-1.60e-03,
1026,-8.00e-04,
1027,2.40e-03,
1028,3.20e-03,
1029,-8.00e-04,
1030,3.20e-03,
1031,-1.60e-03,
1032,-8.00e-04,
1033,2.80e-03,
1034,-8.00e-04,
1035,4.00e-03,
1036,2.80e-03,
1037,-8.00e-04,
1038,2.40e-03,
1039,-8.00e-04,
1040,-1.60e-03,
1041,2.40e-03,
1042,-8.00e-04,
1043,3.20e-03,
1044,-8.00e-04,
1045,2.80e-03,
1046,2.40e-03,
1047,-8.00e-04,
1048,-8.00e-04,
1049,2.40e-03,
1050,2.00e-03,
1051,-2.40e-03,
1052,-8.00e-04,
1053,3.20e-03,
1054,-8.00e-04,
1055,2.40e-03,
1056,-1.60e-03,
1057,2.80e-03,
1058,2.40e-03,
1059,-8.00e-04,
1060,-8.00e-04,
1061,2.40e-03,
1062,-8.00e-04,
1063,2.40e-03,
1064,2.40e-03,
1065,-8.00e-04,
1066,-1.60e-03,
1067,3.20e-03,
1068,-8.00e-04,
1069,3.20e-03,
1070,2.40e-03,
1071,-8.00e-04,
1072,-8.00e-04,
1073,3.20e-03,
1074,-1.60e-03,
1075,2.80e-03,
1076,-8.00e-04,
1077,2.40e-03,
1078,2.40e-03,
1079,-1.60e-03,
1080,-8.00e-04,
1081,3.20e-03,
1082,1.60e-03,
1083,-1.60e-03,
1084,0.00e+00,
1085,3.20e-03,
1086,-1.60e-03,
1087,2.40e-03,
1088,3.20e-03,
1089,-1.60e-03,
1090,-8.00e-04,
1091,3.20e-03,
1092,2.40e-03,
1093,-8.00e-04,
1094,-1.60e-03,
1095,2.40e-03,
1096,2.40e-03,
1097,-1.60e-03,
1098,-1.60e-03,
1099,2.40e-03,
1100,2.40e-03,
1101,-8.00e-04,
1102,-8.00e-04,
1103,2.40e-03,
1104,2.40e-03,
1105,-8.00e-04,
1106,2.40e-03,
1107,-8.00e-04,
1108,2.40e-03,
1109,-8.00e-04,
1110,-1.60e-03,
1111,2.40e-03,
1112,2.40e-03,
1113,-8.00e-04,
1114,-8.00e-04,
1115,2.40e-03,
1116,2.80e-03,
1117,-1.60e-03,
1118,-8.00e-04,
1119,2.40e-03,
1120,2.40e-03,
1121,-1.60e-03,
1122,-8.00e-04,
1123,2.40e-03,
1124,2.40e-03,
1125,-1.60e-03,
1126,2.40e-03,
1127,-8.00e-04,
1128,-8.00e-04,
1129,2.40e-03,
1130,-8.00e-04,
1131,3.20e-03,
1132,-8.00e-04,
1133,2.40e-03,
1134,2.40e-03,
1135,-1.60e-03,
1136,2.40e-03,
1137,-1.60e-03,
1138,-8.00e-04,
1139,2.40e-03,
1140,2.40e-03,
1141,-8.00e-04,
1142,2.40e-03,
1143,-1.60e-03,
1144,2.40e-03,
1145,-8.00e-04,
1146,2.40e-03,
1147,-8.00e-04,
1148,-1.60e-03,
1149,2.40e-03,
1150,1.60e-03,
1151,-8.00e-04,
1152,2.40e-03,
1153,-8.00e-04,
1154,-8.00e-04,
1155,2.80e-03,
1156,2.40e-03,
1157,-1.60e-03,
1158,2.40e-03,
1159,-1.60e-03,
1160,2.40e-03,
1161,-1.20e-03,
1162,-1.60e-03,
1163,2.40e-03,
1164,3.20e-03,
1165,-1.60e-03,
1166,-8.00e-04,
1167,3.20e-03,
1168,0.00e+00,
1169,2.40e-03,
1170,-8.00e-04,
1171,2.40e-03,
1172,3.20e-03,
1173,-8.00e-04,
1174,-8.00e-04,
1175,2.40e-03,
1176,3.20e-03,
1177,-8.00e-04,
1178,1.60e-03,
1179,-1.60e-03,
1180,-1.60e-03,
1181,3.20e-03,
1182,-8.00e-04,
1183,3.20e-03,
1184,-8.00e-04,
1185,3.20e-03,
1186,-8.00e-04,
1187,3.20e-03,
1188,2.40e-03,
1189,-1.60e-03,
1190,2.40e-03,
1191,-1.60e-03,
1192,2.40e-03,
1193,-1.60e-03,
1194,-8.00e-04,
1195,4.00e-03,
1196,2.40e-03,
1197,-1.60e-03,
1198,-8.00e-04,
1199,3.20e-03,
