fastdiffamp/data-noise-set/7th/NewFile7.csv

X,CH1,Start,Increment,
Sequence,Volt,-1.200000e-02,2.000000e-05
0,2.40e-03,
1,-2.40e-03,
2,-8.00e-04,
3,2.80e-03,
4,2.40e-03,
5,-1.60e-03,
6,-1.60e-03,
7,2.40e-03,
8,-8.00e-04,
9,2.40e-03,
10,-1.60e-03,
11,3.20e-03,
12,-1.60e-03,
13,2.80e-03,
14,2.80e-03,
15,-2.40e-03,
16,-8.00e-04,
17,3.20e-03,
18,-1.60e-03,
19,2.40e-03,
20,-1.60e-03,
21,3.20e-03,
22,2.40e-03,
23,-1.60e-03,
24,-1.60e-03,
25,2.00e-03,
26,2.40e-03,
27,-8.00e-04,
28,2.40e-03,
29,-1.60e-03,
30,-8.00e-04,
31,2.40e-03,
32,2.40e-03,
33,-8.00e-04,
34,-8.00e-04,
35,2.00e-03,
36,-1.60e-03,
37,2.00e-03,
38,2.40e-03,
39,-8.00e-04,
40,-8.00e-04,
41,2.40e-03,
42,1.60e-03,
43,-1.60e-03,
44,-8.00e-04,
45,2.40e-03,
46,-1.60e-03,
47,2.40e-03,
48,2.80e-03,
49,-8.00e-04,
50,-2.40e-03,
51,2.40e-03,
52,-8.00e-04,
53,2.40e-03,
54,-8.00e-04,
55,3.20e-03,
56,-1.60e-03,
57,3.20e-03,
58,2.40e-03,
59,-1.60e-03,
60,2.40e-03,
61,-8.00e-04,
62,-8.00e-04,
63,2.40e-03,
64,-1.60e-03,
65,2.40e-03,
66,1.60e-03,
67,-1.60e-03,
68,-8.00e-04,
69,1.60e-03,
70,2.00e-03,
71,-1.60e-03,
72,-1.60e-03,
73,2.40e-03,
74,3.20e-03,
75,-1.60e-03,
76,2.40e-03,
77,-8.00e-04,
78,1.60e-03,
79,-1.60e-03,
80,-8.00e-04,
81,2.00e-03,
82,-1.60e-03,
83,2.40e-03,
84,-1.60e-03,
85,2.80e-03,
86,1.60e-03,
87,-1.60e-03,
88,-2.40e-03,
89,1.60e-03,
90,3.20e-03,
91,-1.60e-03,
92,-2.40e-03,
93,2.40e-03,
94,-2.40e-03,
95,2.40e-03,
96,1.60e-03,
97,-2.40e-03,
98,1.60e-03,
99,-1.60e-03,
100,-8.00e-04,
101,2.40e-03,
102,1.60e-03,
103,-1.60e-03,
104,1.60e-03,
105,-1.60e-03,
106,-1.60e-03,
107,1.60e-03,
108,-1.60e-03,
109,2.40e-03,
110,-8.00e-04,
111,2.40e-03,
112,-1.60e-03,
113,2.40e-03,
114,2.40e-03,
115,-1.60e-03,
116,3.20e-03,
117,-1.60e-03,
118,-1.60e-03,
119,2.00e-03,
120,-1.60e-03,
121,2.40e-03,
122,-8.00e-04,
123,2.40e-03,
124,2.40e-03,
125,-8.00e-04,
126,2.40e-03,
127,-1.60e-03,
128,-8.00e-04,
129,3.20e-03,
130,-2.40e-03,
131,1.60e-03,
132,2.80e-03,
133,-8.00e-04,
134,-1.60e-03,
135,3.20e-03,
136,2.40e-03,
137,-8.00e-04,
138,2.80e-03,
139,-2.40e-03,
140,-1.60e-03,
141,2.40e-03,
142,2.40e-03,
143,-1.60e-03,
144,0.00e+00,
145,3.20e-03,
146,-8.00e-04,
147,3.20e-03,
148,3.20e-03,
149,-1.60e-03,
150,2.80e-03,
151,-8.00e-04,
152,-8.00e-04,
153,3.20e-03,
154,-8.00e-04,
155,3.20e-03,
156,-8.00e-04,
157,2.40e-03,
158,-8.00e-04,
159,3.20e-03,
160,2.40e-03,
161,-8.00e-04,
162,-8.00e-04,
163,2.80e-03,
164,0.00e+00,
165,2.40e-03,
166,2.40e-03,
167,-1.60e-03,
168,-8.00e-04,
169,3.20e-03,
170,-1.60e-03,
171,3.20e-03,
172,3.20e-03,
173,-8.00e-04,
174,3.20e-03,
175,-1.60e-03,
176,3.20e-03,
177,-8.00e-04,
178,-8.00e-04,
179,3.20e-03,
180,2.40e-03,
181,-8.00e-04,
182,8.00e-04,
183,2.40e-03,
184,-8.00e-04,
185,2.40e-03,
186,2.40e-03,
187,-8.00e-04,
188,2.80e-03,
189,-8.00e-04,
190,-8.00e-04,
191,2.40e-03,
192,3.20e-03,
193,-8.00e-04,
194,-8.00e-04,
195,4.00e-03,
196,-8.00e-04,
197,1.60e-03,
198,2.40e-03,
199,-8.00e-04,
200,-8.00e-04,
201,3.20e-03,
202,2.40e-03,
203,-1.60e-03,
204,-8.00e-04,
205,2.40e-03,
206,-8.00e-04,
207,2.00e-03,
208,-8.00e-04,
209,3.20e-03,
210,2.40e-03,
211,-8.00e-04,
212,2.40e-03,
213,0.00e+00,
214,-8.00e-04,
215,2.40e-03,
216,-1.60e-03,
217,3.20e-03,
218,-8.00e-04,
219,2.40e-03,
220,-8.00e-04,
221,2.80e-03,
222,-1.60e-03,
223,3.20e-03,
224,3.20e-03,
225,-8.00e-04,
226,2.40e-03,
227,-8.00e-04,
228,2.40e-03,
229,0.00e+00,
230,2.40e-03,
231,-8.00e-04,
232,-1.60e-03,
233,2.40e-03,
234,2.80e-03,
235,-8.00e-04,
236,-8.00e-04,
237,2.40e-03,
238,-8.00e-04,
239,2.40e-03,
240,-8.00e-04,
241,4.00e-03,
242,3.20e-03,
243,-8.00e-04,
244,2.40e-03,
245,-8.00e-04,
246,0.00e+00,
247,2.40e-03,
248,3.20e-03,
249,-8.00e-04,
250,2.40e-03,
251,-8.00e-04,
252,3.20e-03,
253,-8.00e-04,
254,-8.00e-04,
255,2.80e-03,
256,2.80e-03,
257,-8.00e-04,
258,-8.00e-04,
259,3.20e-03,
260,-8.00e-04,
261,3.20e-03,
262,-1.60e-03,
263,4.00e-03,
264,0.00e+00,
265,3.20e-03,
266,2.40e-03,
267,-1.60e-03,
268,2.40e-03,
269,-8.00e-04,
270,-2.40e-03,
271,3.20e-03,
272,-8.00e-04,
273,2.40e-03,
274,3.20e-03,
275,0.00e+00,
276,0.00e+00,
277,3.20e-03,
278,-8.00e-04,
279,3.20e-03,
280,3.20e-03,
281,-1.60e-03,
282,-8.00e-04,
283,3.20e-03,
284,-8.00e-04,
285,3.20e-03,
286,2.80e-03,
287,-8.00e-04,
288,-8.00e-04,
289,3.20e-03,
290,-8.00e-04,
291,3.20e-03,
292,-8.00e-04,
293,3.20e-03,
294,3.20e-03,
295,-8.00e-04,
296,2.40e-03,
297,0.00e+00,
298,3.20e-03,
299,-8.00e-04,
300,3.20e-03,
301,-1.60e-03,
302,0.00e+00,
303,3.20e-03,
304,-8.00e-04,
305,2.80e-03,
306,3.20e-03,
307,-8.00e-04,
308,-8.00e-04,
309,3.20e-03,
310,2.80e-03,
311,-8.00e-04,
312,2.40e-03,
313,-1.60e-03,
314,0.00e+00,
315,3.20e-03,
316,0.00e+00,
317,3.20e-03,
318,0.00e+00,
319,3.20e-03,
320,2.40e-03,
321,-8.00e-04,
322,2.40e-03,
323,-8.00e-04,
324,2.40e-03,
325,0.00e+00,
326,-8.00e-04,
327,2.80e-03,
328,-8.00e-04,
329,2.80e-03,
330,2.40e-03,
331,-8.00e-04,
332,-8.00e-04,
333,3.20e-03,
334,-1.60e-03,
335,3.20e-03,
336,3.20e-03,
337,-1.60e-03,
338,-8.00e-04,
339,3.20e-03,
340,2.40e-03,
341,-4.00e-04,
342,-1.60e-03,
343,2.40e-03,
344,2.40e-03,
345,-8.00e-04,
346,2.40e-03,
347,-8.00e-04,
348,-2.40e-03,
349,3.20e-03,
350,-8.00e-04,
351,2.40e-03,
352,-8.00e-04,
353,2.40e-03,
354,3.20e-03,
355,-1.60e-03,
356,-1.60e-03,
357,2.80e-03,
358,-1.60e-03,
359,2.40e-03,
360,2.40e-03,
361,-1.60e-03,
362,-8.00e-04,
363,2.40e-03,
364,2.40e-03,
365,-8.00e-04,
366,2.40e-03,
367,-1.60e-03,
368,2.00e-03,
369,-1.60e-03,
370,2.40e-03,
371,-8.00e-04,
372,2.80e-03,
373,-8.00e-04,
374,-8.00e-04,
375,3.20e-03,
376,2.40e-03,
377,-8.00e-04,
378,2.40e-03,
379,-1.60e-03,
380,-8.00e-04,
381,2.00e-03,
382,-1.60e-03,
383,3.20e-03,
384,2.40e-03,
385,-1.60e-03,
386,1.60e-03,
387,-8.00e-04,
388,2.40e-03,
389,-8.00e-04,
390,-1.60e-03,
391,2.40e-03,
392,-1.60e-03,
393,3.20e-03,
394,2.40e-03,
395,-1.60e-03,
396,2.40e-03,
397,-8.00e-04,
398,-8.00e-04,
399,1.60e-03,
400,-1.60e-03,
401,3.20e-03,
402,0.00e+00,
403,3.20e-03,
404,-1.60e-03,
405,2.40e-03,
406,3.20e-03,
407,0.00e+00,
408,-8.00e-04,
409,2.40e-03,
410,-1.60e-03,
411,2.40e-03,
412,-8.00e-04,
413,3.20e-03,
414,0.00e+00,
415,2.40e-03,
416,-8.00e-04,
417,3.20e-03,
418,0.00e+00,
419,3.20e-03,
420,4.00e-03,
421,-8.00e-04,
422,2.40e-03,
423,-8.00e-04,
424,3.20e-03,
425,-8.00e-04,
426,2.40e-03,
427,-8.00e-04,
428,2.40e-03,
429,-8.00e-04,
430,2.40e-03,
431,0.00e+00,
432,-8.00e-04,
433,2.80e-03,
434,0.00e+00,
435,3.20e-03,
436,-1.60e-03,
437,2.40e-03,
438,2.40e-03,
439,-8.00e-04,
440,3.20e-03,
441,-8.00e-04,
442,2.40e-03,
443,-8.00e-04,
444,2.40e-03,
445,-8.00e-04,
446,-1.60e-03,
447,3.20e-03,
448,-8.00e-04,
449,3.20e-03,
450,2.80e-03,
451,0.00e+00,
452,3.20e-03,
453,0.00e+00,
454,3.20e-03,
455,0.00e+00,
456,2.40e-03,
457,-1.60e-03,
458,2.40e-03,
459,-8.00e-04,
460,0.00e+00,
461,3.20e-03,
462,3.20e-03,
463,0.00e+00,
464,-8.00e-04,
465,3.20e-03,
466,3.20e-03,
467,-8.00e-04,
468,2.40e-03,
469,-8.00e-04,
470,-8.00e-04,
471,3.20e-03,
472,2.80e-03,
473,-8.00e-04,
474,-8.00e-04,
475,2.40e-03,
476,0.00e+00,
477,3.20e-03,
478,-8.00e-04,
479,3.20e-03,
480,2.40e-03,
481,-8.00e-04,
482,-8.00e-04,
483,2.40e-03,
484,3.60e-03,
485,-8.00e-04,
486,-1.60e-03,
487,2.80e-03,
488,3.20e-03,
489,-8.00e-04,
490,2.40e-03,
491,-8.00e-04,
492,3.20e-03,
493,-8.00e-04,
494,0.00e+00,
495,3.20e-03,
496,0.00e+00,
497,3.20e-03,
498,2.40e-03,
499,-8.00e-04,
500,2.40e-03,
501,0.00e+00,
502,3.20e-03,
503,0.00e+00,
504,3.20e-03,
505,-8.00e-04,
506,2.40e-03,
507,-8.00e-04,
508,3.20e-03,
509,0.00e+00,
510,4.00e-03,
511,0.00e+00,
512,0.00e+00,
513,3.20e-03,
514,0.00e+00,
515,4.00e-03,
516,0.00e+00,
517,3.20e-03,
518,-8.00e-04,
519,3.20e-03,
520,0.00e+00,
521,3.20e-03,
522,0.00e+00,
523,4.00e-03,
524,0.00e+00,
525,3.20e-03,
526,8.00e-04,
527,4.00e-03,
528,3.20e-03,
529,0.00e+00,
530,0.00e+00,
531,3.20e-03,
532,3.20e-03,
533,-8.00e-04,
534,2.40e-03,
535,0.00e+00,
536,3.20e-03,
537,0.00e+00,
538,2.80e-03,
539,0.00e+00,
540,0.00e+00,
541,3.20e-03,
542,4.00e-03,
543,0.00e+00,
544,3.20e-03,
545,0.00e+00,
546,2.40e-03,
547,-8.00e-04,
548,3.20e-03,
549,-8.00e-04,
550,0.00e+00,
551,3.20e-03,
552,3.20e-03,
553,-1.60e-03,
554,3.20e-03,
555,-8.00e-04,
556,-8.00e-04,
557,2.40e-03,
558,3.20e-03,
559,-8.00e-04,
560,2.40e-03,
561,-8.00e-04,
562,3.20e-03,
563,-1.60e-03,
564,2.40e-03,
565,-8.00e-04,
566,2.40e-03,
567,-8.00e-04,
568,-1.60e-03,
569,2.40e-03,
570,-8.00e-04,
571,2.40e-03,
572,2.40e-03,
573,-8.00e-04,
574,-8.00e-04,
575,3.20e-03,
576,3.20e-03,
577,0.00e+00,
578,-8.00e-04,
579,3.20e-03,
580,2.40e-03,
581,-8.00e-04,
582,3.20e-03,
583,-8.00e-04,
584,2.40e-03,
585,-8.00e-04,
586,0.00e+00,
587,2.40e-03,
588,2.40e-03,
589,-8.00e-04,
590,2.40e-03,
591,-8.00e-04,
592,0.00e+00,
593,3.20e-03,
594,0.00e+00,
595,3.20e-03,
596,3.20e-03,
597,0.00e+00,
598,2.40e-03,
599,-8.00e-04,
600,0.00e+00,
601,2.40e-03,
602,2.40e-03,
603,-8.00e-04,
604,-1.60e-03,
605,3.20e-03,
606,2.40e-03,
607,-8.00e-04,
608,-8.00e-04,
609,3.20e-03,
610,2.40e-03,
611,-1.60e-03,
612,0.00e+00,
613,3.20e-03,
614,2.40e-03,
615,-1.60e-03,
616,3.60e-03,
617,-1.60e-03,
618,-8.00e-04,
619,2.40e-03,
620,-8.00e-04,
621,2.40e-03,
622,-8.00e-04,
623,3.20e-03,
624,-8.00e-04,
625,3.20e-03,
626,3.20e-03,
627,-8.00e-04,
628,3.20e-03,
629,-8.00e-04,
630,3.20e-03,
631,-8.00e-04,
632,2.80e-03,
633,-1.60e-03,
634,3.20e-03,
635,-1.60e-03,
636,2.40e-03,
637,-8.00e-04,
638,3.60e-03,
639,-8.00e-04,
640,-8.00e-04,
641,1.60e-03,
642,2.40e-03,
643,-8.00e-04,
644,2.40e-03,
645,-1.60e-03,
646,-8.00e-04,
647,3.20e-03,
648,-1.60e-03,
649,2.40e-03,
650,-2.40e-03,
651,3.20e-03,
652,3.20e-03,
653,-2.40e-03,
654,-1.60e-03,
655,3.20e-03,
656,-8.00e-04,
657,2.40e-03,
658,3.20e-03,
659,-1.60e-03,
660,-1.60e-03,
661,2.00e-03,
662,2.40e-03,
663,-8.00e-04,
664,-8.00e-04,
665,2.80e-03,
666,-8.00e-04,
667,3.20e-03,
668,-8.00e-04,
669,2.00e-03,
670,-8.00e-04,
671,2.40e-03,
672,2.40e-03,
673,-1.60e-03,
674,-8.00e-04,
675,2.40e-03,
676,-1.60e-03,
677,2.40e-03,
678,-1.60e-03,
679,2.40e-03,
680,-8.00e-04,
681,2.40e-03,
682,1.60e-03,
683,-8.00e-04,
684,-1.60e-03,
685,2.00e-03,
686,2.40e-03,
687,-1.60e-03,
688,2.40e-03,
689,-1.60e-03,
690,2.40e-03,
691,-1.60e-03,
692,-1.60e-03,
693,2.40e-03,
694,-8.00e-04,
695,2.40e-03,
696,-1.60e-03,
697,2.40e-03,
698,3.20e-03,
699,-1.60e-03,
700,-1.60e-03,
701,3.20e-03,
702,2.00e-03,
703,-1.60e-03,
704,-8.00e-04,
705,2.40e-03,
706,-1.60e-03,
707,2.40e-03,
708,1.60e-03,
709,-1.60e-03,
710,-8.00e-04,
711,2.40e-03,
712,1.60e-03,
713,-8.00e-04,
714,2.40e-03,
715,-1.60e-03,
716,-1.60e-03,
717,2.40e-03,
718,-1.60e-03,
719,2.40e-03,
720,2.40e-03,
721,-1.60e-03,
722,2.40e-03,
723,-1.60e-03,
724,-8.00e-04,
725,2.00e-03,
726,2.40e-03,
727,-1.60e-03,
728,-1.60e-03,
729,2.40e-03,
730,2.40e-03,
731,-1.60e-03,
732,-8.00e-04,
733,2.40e-03,
734,2.40e-03,
735,-1.60e-03,
736,-1.60e-03,
737,2.40e-03,
738,-1.60e-03,
739,2.80e-03,
740,-8.00e-04,
741,2.40e-03,
742,-8.00e-04,
743,3.20e-03,
744,-8.00e-04,
745,2.40e-03,
746,-2.40e-03,
747,2.40e-03,
748,2.40e-03,
749,-1.60e-03,
750,3.20e-03,
751,-8.00e-04,
752,-8.00e-04,
753,2.40e-03,
754,2.80e-03,
755,-1.60e-03,
756,-8.00e-04,
757,2.40e-03,
758,2.40e-03,
759,-1.60e-03,
760,3.20e-03,
761,-1.60e-03,
762,4.00e-03,
763,-1.60e-03,
764,-8.00e-04,
765,2.40e-03,
766,-1.60e-03,
767,2.80e-03,
768,3.20e-03,
769,-1.60e-03,
770,0.00e+00,
771,2.40e-03,
772,-1.60e-03,
773,2.40e-03,
774,-1.60e-03,
775,2.00e-03,
776,2.40e-03,
777,-1.60e-03,
778,2.40e-03,
779,-1.60e-03,
780,-8.00e-04,
781,3.60e-03,
782,2.40e-03,
783,0.00e+00,
784,2.40e-03,
785,-8.00e-04,
786,-1.60e-03,
787,3.20e-03,
788,-8.00e-04,
789,2.40e-03,
790,2.40e-03,
791,-1.60e-03,
792,-8.00e-04,
793,2.40e-03,
794,-1.60e-03,
795,3.20e-03,
796,3.20e-03,
797,-1.60e-03,
798,-8.00e-04,
799,4.00e-03,
800,3.20e-03,
801,-8.00e-04,
802,-8.00e-04,
803,2.40e-03,
804,3.20e-03,
805,-8.00e-04,
806,-8.00e-04,
807,2.80e-03,
808,3.20e-03,
809,-8.00e-04,
810,-8.00e-04,
811,2.40e-03,
812,-8.00e-04,
813,2.40e-03,
814,-8.00e-04,
815,2.40e-03,
816,0.00e+00,
817,3.20e-03,
818,2.40e-03,
819,-8.00e-04,
820,2.40e-03,
821,-8.00e-04,
822,0.00e+00,
823,2.80e-03,
824,0.00e+00,
825,2.40e-03,
826,3.20e-03,
827,-8.00e-04,
828,-8.00e-04,
829,3.20e-03,
830,-8.00e-04,
831,2.40e-03,
832,-8.00e-04,
833,4.00e-03,
834,0.00e+00,
835,3.20e-03,
836,-8.00e-04,
837,2.40e-03,
838,2.80e-03,
839,-8.00e-04,
840,0.00e+00,
841,2.40e-03,
842,-8.00e-04,
843,3.20e-03,
844,-8.00e-04,
845,2.80e-03,
846,-8.00e-04,
847,2.80e-03,
848,2.80e-03,
849,0.00e+00,
850,2.40e-03,
851,-8.00e-04,
852,-8.00e-04,
853,2.80e-03,
854,3.20e-03,
855,-8.00e-04,
856,0.00e+00,
857,4.00e-03,
858,3.20e-03,
859,-8.00e-04,
860,-1.60e-03,
861,4.00e-03,
862,3.20e-03,
863,-8.00e-04,
864,4.00e-03,
865,-8.00e-04,
866,4.00e-03,
867,-8.00e-04,
868,-1.60e-03,
869,3.20e-03,
870,0.00e+00,
871,4.00e-03,
872,2.40e-03,
873,-8.00e-04,
874,3.20e-03,
875,-1.60e-03,
876,-8.00e-04,
877,3.20e-03,
878,-8.00e-04,
879,3.20e-03,
880,3.20e-03,
881,-8.00e-04,
882,0.00e+00,
883,2.40e-03,
884,0.00e+00,
885,3.20e-03,
886,4.00e-03,
887,-8.00e-04,
888,4.00e-03,
889,-8.00e-04,
890,-8.00e-04,
891,3.20e-03,
892,-8.00e-04,
893,2.80e-03,
894,0.00e+00,
895,4.00e-03,
896,2.40e-03,
897,0.00e+00,
898,-8.00e-04,
899,2.40e-03,
900,-8.00e-04,
901,2.40e-03,
902,-1.60e-03,
903,2.40e-03,
904,-8.00e-04,
905,3.20e-03,
906,3.20e-03,
907,-1.60e-03,
908,2.40e-03,
909,-1.60e-03,
910,2.80e-03,
911,-8.00e-04,
912,-8.00e-04,
913,2.80e-03,
914,-8.00e-04,
915,2.40e-03,
916,-8.00e-04,
917,2.40e-03,
918,2.40e-03,
919,0.00e+00,
920,3.20e-03,
921,-8.00e-04,
922,-8.00e-04,
923,2.40e-03,
924,3.20e-03,
925,-1.60e-03,
926,-8.00e-04,
927,3.20e-03,
928,-8.00e-04,
929,3.20e-03,
930,3.20e-03,
931,-8.00e-04,
932,-8.00e-04,
933,3.20e-03,
934,-8.00e-04,
935,3.20e-03,
936,-8.00e-04,
937,2.40e-03,
938,3.20e-03,
939,0.00e+00,
940,2.40e-03,
941,-8.00e-04,
942,2.40e-03,
943,0.00e+00,
944,4.00e-03,
945,-8.00e-04,
946,2.40e-03,
947,-8.00e-04,
948,3.20e-03,
949,-8.00e-04,
950,-8.00e-04,
951,2.40e-03,
952,-8.00e-04,
953,3.20e-03,
954,-8.00e-04,
955,4.00e-03,
956,3.20e-03,
957,0.00e+00,
958,3.20e-03,
959,-8.00e-04,
960,-8.00e-04,
961,3.20e-03,
962,3.20e-03,
963,-8.00e-04,
964,3.20e-03,
965,0.00e+00,
966,0.00e+00,
967,3.20e-03,
968,0.00e+00,
969,3.20e-03,
970,2.40e-03,
971,-1.60e-03,
972,0.00e+00,
973,3.20e-03,
974,2.40e-03,
975,-1.60e-03,
976,2.40e-03,
977,-8.00e-04,
978,3.20e-03,
979,0.00e+00,
980,2.80e-03,
981,0.00e+00,
982,0.00e+00,
983,2.40e-03,
984,3.20e-03,
985,-1.20e-03,
986,3.20e-03,
987,0.00e+00,
988,2.80e-03,
989,-1.60e-03,
990,2.40e-03,
991,-1.60e-03,
992,2.40e-03,
993,-8.00e-04,
994,2.40e-03,
995,-8.00e-04,
996,2.80e-03,
997,0.00e+00,
998,2.40e-03,
999,-8.00e-04,
1000,2.40e-03,
1001,-8.00e-04,
1002,-8.00e-04,
1003,2.80e-03,
1004,-8.00e-04,
1005,3.60e-03,
1006,3.20e-03,
1007,-8.00e-04,
1008,0.00e+00,
1009,3.20e-03,
1010,2.80e-03,
1011,-8.00e-04,
1012,2.40e-03,
1013,-8.00e-04,
1014,2.40e-03,
1015,-1.60e-03,
1016,-8.00e-04,
1017,3.20e-03,
1018,-8.00e-04,
1019,2.40e-03,
1020,0.00e+00,
1021,2.80e-03,
1022,-8.00e-04,
1023,2.40e-03,
1024,2.40e-03,
1025,-8.00e-04,
1026,-8.00e-04,
1027,2.40e-03,
1028,-8.00e-04,
1029,3.20e-03,
1030,2.40e-03,
1031,-2.40e-03,
1032,0.00e+00,
1033,3.20e-03,
1034,2.40e-03,
1035,0.00e+00,
1036,-8.00e-04,
1037,2.40e-03,
1038,-1.60e-03,
1039,3.20e-03,
1040,2.80e-03,
1041,0.00e+00,
1042,3.20e-03,
1043,0.00e+00,
1044,0.00e+00,
1045,3.20e-03,
1046,3.20e-03,
1047,-8.00e-04,
1048,0.00e+00,
1049,2.80e-03,
1050,0.00e+00,
1051,3.20e-03,
1052,0.00e+00,
1053,2.80e-03,
1054,3.20e-03,
1055,-1.60e-03,
1056,-1.60e-03,
1057,3.60e-03,
1058,3.20e-03,
1059,0.00e+00,
1060,-8.00e-04,
1061,3.20e-03,
1062,-8.00e-04,
1063,3.20e-03,
1064,0.00e+00,
1065,3.20e-03,
1066,0.00e+00,
1067,4.00e-03,
1068,2.40e-03,
1069,-8.00e-04,
1070,2.40e-03,
1071,-1.60e-03,
1072,3.20e-03,
1073,-8.00e-04,
1074,0.00e+00,
1075,3.20e-03,
1076,-8.00e-04,
1077,2.40e-03,
1078,-8.00e-04,
1079,3.20e-03,
1080,-8.00e-04,
1081,2.40e-03,
1082,2.40e-03,
1083,-8.00e-04,
1084,0.00e+00,
1085,2.80e-03,
1086,-8.00e-04,
1087,2.40e-03,
1088,0.00e+00,
1089,2.40e-03,
1090,0.00e+00,
1091,2.40e-03,
1092,-8.00e-04,
1093,3.20e-03,
1094,0.00e+00,
1095,2.40e-03,
1096,-1.60e-03,
1097,2.00e-03,
1098,-8.00e-04,
1099,3.20e-03,
1100,-8.00e-04,
1101,2.40e-03,
1102,4.00e-03,
1103,0.00e+00,
1104,0.00e+00,
1105,3.20e-03,
1106,4.00e-03,
1107,-8.00e-04,
1108,2.80e-03,
1109,-8.00e-04,
1110,-8.00e-04,
1111,2.80e-03,
1112,-8.00e-04,
1113,3.20e-03,
1114,3.20e-03,
1115,-8.00e-04,
1116,0.00e+00,
1117,3.20e-03,
1118,0.00e+00,
1119,3.20e-03,
1120,2.40e-03,
1121,0.00e+00,
1122,2.40e-03,
1123,-8.00e-04,
1124,-8.00e-04,
1125,3.20e-03,
1126,2.40e-03,
1127,-8.00e-04,
1128,-8.00e-04,
1129,3.20e-03,
1130,-8.00e-04,
1131,2.40e-03,
1132,-8.00e-04,
1133,2.40e-03,
1134,-8.00e-04,
1135,3.20e-03,
1136,-8.00e-04,
1137,2.40e-03,
1138,3.20e-03,
1139,-8.00e-04,
1140,-8.00e-04,
1141,3.20e-03,
1142,-8.00e-04,
1143,2.80e-03,
1144,2.40e-03,
1145,-8.00e-04,
1146,3.20e-03,
1147,-8.00e-04,
1148,4.00e-03,
1149,0.00e+00,
1150,-8.00e-04,
1151,3.20e-03,
1152,3.20e-03,
1153,-1.60e-03,
1154,4.00e-03,
1155,0.00e+00,
1156,0.00e+00,
1157,3.20e-03,
1158,3.20e-03,
1159,0.00e+00,
1160,0.00e+00,
1161,3.20e-03,
1162,3.20e-03,
1163,0.00e+00,
1164,-8.00e-04,
1165,3.20e-03,
1166,4.00e-03,
1167,-8.00e-04,
1168,-1.60e-03,
1169,2.80e-03,
1170,2.80e-03,
1171,-8.00e-04,
1172,-8.00e-04,
1173,3.20e-03,
1174,-8.00e-04,
1175,3.20e-03,
1176,4.00e-03,
1177,-8.00e-04,
1178,2.40e-03,
1179,-8.00e-04,
1180,2.40e-03,
1181,-8.00e-04,
1182,3.20e-03,
1183,-8.00e-04,
1184,-8.00e-04,
1185,2.40e-03,
1186,-8.00e-04,
1187,4.00e-03,
1188,-1.60e-03,
1189,2.80e-03,
1190,-8.00e-04,
1191,3.20e-03,
1192,2.80e-03,
1193,-8.00e-04,
1194,3.20e-03,
1195,-8.00e-04,
1196,-8.00e-04,
1197,3.20e-03,
1198,3.20e-03,
1199,-8.00e-04,
