fastdiffamp/data-noise-set/7th/NewFile9.csv

X,CH1,Start,Increment,
Sequence,Volt,-1.200000e-02,2.000000e-05
0,3.20e-03,
1,0.00e+00,
2,4.00e-03,
3,0.00e+00,
4,3.20e-03,
5,0.00e+00,
6,0.00e+00,
7,3.20e-03,
8,0.00e+00,
9,3.20e-03,
10,3.20e-03,
11,0.00e+00,
12,3.20e-03,
13,0.00e+00,
14,0.00e+00,
15,3.20e-03,
16,0.00e+00,
17,4.00e-03,
18,4.00e-03,
19,0.00e+00,
20,4.00e-03,
21,0.00e+00,
22,0.00e+00,
23,4.00e-03,
24,8.00e-04,
25,3.20e-03,
26,8.00e-04,
27,3.60e-03,
28,0.00e+00,
29,3.20e-03,
30,0.00e+00,
31,4.00e-03,
32,8.00e-04,
33,4.00e-03,
34,4.00e-03,
35,0.00e+00,
36,4.00e-03,
37,0.00e+00,
38,8.00e-04,
39,3.20e-03,
40,0.00e+00,
41,3.20e-03,
42,8.00e-04,
43,2.80e-03,
44,8.00e-04,
45,4.00e-03,
46,8.00e-04,
47,2.40e-03,
48,-8.00e-04,
49,3.20e-03,
50,3.20e-03,
51,-8.00e-04,
52,3.20e-03,
53,-8.00e-04,
54,3.20e-03,
55,-8.00e-04,
56,4.00e-03,
57,0.00e+00,
58,3.20e-03,
59,0.00e+00,
60,2.40e-03,
61,-8.00e-04,
62,0.00e+00,
63,3.20e-03,
64,0.00e+00,
65,2.40e-03,
66,-8.00e-04,
67,4.00e-03,
68,2.40e-03,
69,-8.00e-04,
70,0.00e+00,
71,2.80e-03,
72,0.00e+00,
73,3.20e-03,
74,0.00e+00,
75,3.20e-03,
76,2.40e-03,
77,-8.00e-04,
78,2.40e-03,
79,-8.00e-04,
80,2.40e-03,
81,-1.60e-03,
82,2.00e-03,
83,-1.60e-03,
84,1.60e-03,
85,-3.20e-03,
86,-8.00e-04,
87,2.40e-03,
88,2.40e-03,
89,-8.00e-04,
90,2.40e-03,
91,-1.60e-03,
92,2.40e-03,
93,-8.00e-04,
94,-1.60e-03,
95,2.40e-03,
96,-8.00e-04,
97,3.20e-03,
98,2.40e-03,
99,-1.20e-03,
100,2.40e-03,
101,-8.00e-04,
102,2.40e-03,
103,-1.60e-03,
104,0.00e+00,
105,4.00e-03,
106,3.20e-03,
107,-8.00e-04,
108,2.80e-03,
109,-1.60e-03,
110,2.40e-03,
111,-8.00e-04,
112,2.40e-03,
113,-8.00e-04,
114,-8.00e-04,
115,3.20e-03,
116,-8.00e-04,
117,2.40e-03,
118,2.40e-03,
119,-1.20e-03,
120,8.00e-04,
121,2.40e-03,
122,0.00e+00,
123,2.40e-03,
124,2.40e-03,
125,-8.00e-04,
126,0.00e+00,
127,2.40e-03,
128,-8.00e-04,
129,2.40e-03,
130,2.40e-03,
131,-1.60e-03,
132,0.00e+00,
133,2.80e-03,
134,2.00e-03,
135,-8.00e-04,
136,-8.00e-04,
137,2.40e-03,
138,2.40e-03,
139,-1.60e-03,
140,-8.00e-04,
141,2.40e-03,
142,1.60e-03,
143,-1.60e-03,
144,-1.60e-03,
145,2.40e-03,
146,2.40e-03,
147,-1.60e-03,
148,-1.60e-03,
149,2.00e-03,
150,2.40e-03,
151,-1.60e-03,
152,1.60e-03,
153,-1.20e-03,
154,-1.60e-03,
155,2.40e-03,
156,1.60e-03,
157,-2.40e-03,
158,1.60e-03,
159,-1.60e-03,
160,-1.60e-03,
161,1.60e-03,
162,2.40e-03,
163,-1.60e-03,
164,1.60e-03,
165,-1.60e-03,
166,1.60e-03,
167,-1.60e-03,
168,2.40e-03,
169,-1.60e-03,
170,-1.60e-03,
171,2.00e-03,
172,-1.60e-03,
173,2.40e-03,
174,2.00e-03,
175,-1.60e-03,
176,1.60e-03,
177,-1.60e-03,
178,-8.00e-04,
179,1.60e-03,
180,-1.60e-03,
181,2.40e-03,
182,-2.40e-03,
183,1.60e-03,
184,-1.60e-03,
185,1.60e-03,
186,1.60e-03,
187,-1.60e-03,
188,2.40e-03,
189,-1.60e-03,
190,-1.60e-03,
191,2.40e-03,
192,2.00e-03,
193,-1.60e-03,
194,1.60e-03,
195,-8.00e-04,
196,1.60e-03,
197,-1.60e-03,
198,1.60e-03,
199,-1.60e-03,
200,-1.60e-03,
201,1.20e-03,
202,1.60e-03,
203,-1.60e-03,
204,-2.40e-03,
205,1.60e-03,
206,-1.60e-03,
207,1.60e-03,
208,1.60e-03,
209,-2.40e-03,
210,1.60e-03,
211,-2.40e-03,
212,1.60e-03,
213,-1.60e-03,
214,1.60e-03,
215,-1.60e-03,
216,-1.60e-03,
217,2.40e-03,
218,-1.60e-03,
219,2.40e-03,
220,3.20e-03,
221,-8.00e-04,
222,1.60e-03,
223,-1.60e-03,
224,1.60e-03,
225,-1.60e-03,
226,1.60e-03,
227,-2.40e-03,
228,1.60e-03,
229,-2.40e-03,
230,1.60e-03,
231,-1.60e-03,
232,-1.60e-03,
233,3.20e-03,
234,1.60e-03,
235,-1.60e-03,
236,1.60e-03,
237,-1.60e-03,
238,2.00e-03,
239,-1.60e-03,
240,-1.60e-03,
241,1.20e-03,
242,-1.60e-03,
243,1.60e-03,
244,-1.60e-03,
245,1.60e-03,
246,-2.40e-03,
247,1.60e-03,
248,-2.40e-03,
249,1.20e-03,
250,1.60e-03,
251,-1.60e-03,
252,2.00e-03,
253,-1.60e-03,
254,-1.60e-03,
255,1.60e-03,
256,-1.60e-03,
257,1.60e-03,
258,-8.00e-04,
259,1.60e-03,
260,-8.00e-04,
261,1.60e-03,
262,-2.40e-03,
263,2.40e-03,
264,-1.60e-03,
265,1.60e-03,
266,1.60e-03,
267,-1.60e-03,
268,-2.40e-03,
269,1.60e-03,
270,1.60e-03,
271,-1.60e-03,
272,-1.60e-03,
273,2.00e-03,
274,-2.40e-03,
275,2.40e-03,
276,-1.60e-03,
277,1.60e-03,
278,-1.60e-03,
279,1.60e-03,
280,2.40e-03,
281,-2.40e-03,
282,2.00e-03,
283,-8.00e-04,
284,-8.00e-04,
285,1.60e-03,
286,-1.60e-03,
287,1.60e-03,
288,2.40e-03,
289,-1.60e-03,
290,2.40e-03,
291,-1.60e-03,
292,-1.60e-03,
293,1.60e-03,
294,-1.60e-03,
295,1.60e-03,
296,1.60e-03,
297,-1.60e-03,
298,-8.00e-04,
299,2.40e-03,
300,1.60e-03,
301,-1.60e-03,
302,-1.60e-03,
303,2.40e-03,
304,1.60e-03,
305,-8.00e-04,
306,-8.00e-04,
307,2.40e-03,
308,-8.00e-04,
309,1.60e-03,
310,1.60e-03,
311,-1.60e-03,
312,-8.00e-04,
313,1.20e-03,
314,-8.00e-04,
315,2.00e-03,
316,2.40e-03,
317,-1.60e-03,
318,1.60e-03,
319,-1.60e-03,
320,2.00e-03,
321,-1.60e-03,
322,1.60e-03,
323,-2.40e-03,
324,-8.00e-04,
325,2.00e-03,
326,2.40e-03,
327,-1.60e-03,
328,-8.00e-04,
329,1.60e-03,
330,1.60e-03,
331,-8.00e-04,
332,-1.60e-03,
333,2.00e-03,
334,-8.00e-04,
335,1.60e-03,
336,2.00e-03,
337,-1.60e-03,
338,1.60e-03,
339,-1.60e-03,
340,1.60e-03,
341,-1.60e-03,
342,2.40e-03,
343,-8.00e-04,
344,-8.00e-04,
345,2.40e-03,
346,-8.00e-04,
347,2.40e-03,
348,-8.00e-04,
349,2.40e-03,
350,-8.00e-04,
351,3.20e-03,
352,-8.00e-04,
353,2.40e-03,
354,2.40e-03,
355,-1.60e-03,
356,2.40e-03,
357,-8.00e-04,
358,3.20e-03,
359,-8.00e-04,
360,-8.00e-04,
361,2.40e-03,
362,2.40e-03,
363,-8.00e-04,
364,-8.00e-04,
365,2.40e-03,
366,-8.00e-04,
367,3.20e-03,
368,0.00e+00,
369,3.20e-03,
370,0.00e+00,
371,2.40e-03,
372,-8.00e-04,
373,2.40e-03,
374,2.40e-03,
375,-8.00e-04,
376,2.40e-03,
377,-8.00e-04,
378,-8.00e-04,
379,2.80e-03,
380,3.20e-03,
381,-8.00e-04,
382,-8.00e-04,
383,2.40e-03,
384,-1.60e-03,
385,2.80e-03,
386,-8.00e-04,
387,2.40e-03,
388,3.20e-03,
389,-1.60e-03,
390,2.40e-03,
391,0.00e+00,
392,-8.00e-04,
393,2.40e-03,
394,-8.00e-04,
395,2.80e-03,
396,-8.00e-04,
397,2.40e-03,
398,0.00e+00,
399,3.20e-03,
400,-8.00e-04,
401,3.20e-03,
402,-8.00e-04,
403,2.40e-03,
404,-8.00e-04,
405,2.00e-03,
406,0.00e+00,
407,3.20e-03,
408,2.40e-03,
409,-8.00e-04,
410,-8.00e-04,
411,2.40e-03,
412,2.40e-03,
413,-8.00e-04,
414,-8.00e-04,
415,3.20e-03,
416,1.60e-03,
417,-2.40e-03,
418,-8.00e-04,
419,2.80e-03,
420,2.40e-03,
421,-1.60e-03,
422,3.20e-03,
423,-8.00e-04,
424,-8.00e-04,
425,3.20e-03,
426,2.40e-03,
427,-8.00e-04,
428,2.40e-03,
429,-8.00e-04,
430,-8.00e-04,
431,3.20e-03,
432,-8.00e-04,
433,2.40e-03,
434,-8.00e-04,
435,2.40e-03,
436,0.00e+00,
437,2.40e-03,
438,2.40e-03,
439,-1.60e-03,
440,-8.00e-04,
441,2.40e-03,
442,0.00e+00,
443,3.20e-03,
444,-1.60e-03,
445,2.40e-03,
446,2.40e-03,
447,0.00e+00,
448,0.00e+00,
449,2.40e-03,
450,2.40e-03,
451,0.00e+00,
452,2.40e-03,
453,0.00e+00,
454,3.20e-03,
455,-8.00e-04,
456,0.00e+00,
457,2.80e-03,
458,2.40e-03,
459,0.00e+00,
460,2.40e-03,
461,-8.00e-04,
462,0.00e+00,
463,2.40e-03,
464,-1.60e-03,
465,2.40e-03,
466,0.00e+00,
467,3.20e-03,
468,0.00e+00,
469,3.20e-03,
470,-8.00e-04,
471,2.40e-03,
472,-8.00e-04,
473,3.20e-03,
474,0.00e+00,
475,3.20e-03,
476,3.20e-03,
477,0.00e+00,
478,2.40e-03,
479,0.00e+00,
480,0.00e+00,
481,3.20e-03,
482,3.20e-03,
483,-8.00e-04,
484,3.20e-03,
485,-8.00e-04,
486,-1.20e-03,
487,3.20e-03,
488,3.20e-03,
489,0.00e+00,
490,3.20e-03,
491,0.00e+00,
492,3.20e-03,
493,-8.00e-04,
494,3.20e-03,
495,0.00e+00,
496,3.20e-03,
497,0.00e+00,
498,0.00e+00,
499,3.20e-03,
500,8.00e-04,
501,4.00e-03,
502,8.00e-04,
503,2.80e-03,
504,2.40e-03,
505,0.00e+00,
506,3.20e-03,
507,0.00e+00,
508,0.00e+00,
509,3.20e-03,
510,3.20e-03,
511,0.00e+00,
512,-8.00e-04,
513,3.20e-03,
514,8.00e-04,
515,3.20e-03,
516,3.20e-03,
517,0.00e+00,
518,3.20e-03,
519,0.00e+00,
520,3.20e-03,
521,0.00e+00,
522,0.00e+00,
523,4.00e-03,
524,0.00e+00,
525,3.20e-03,
526,4.00e-03,
527,0.00e+00,
528,4.00e-03,
529,0.00e+00,
530,3.20e-03,
531,0.00e+00,
532,3.20e-03,
533,-8.00e-04,
534,3.20e-03,
535,0.00e+00,
536,8.00e-04,
537,3.20e-03,
538,8.00e-04,
539,3.20e-03,
540,4.00e-03,
541,8.00e-04,
542,3.20e-03,
543,0.00e+00,
544,3.20e-03,
545,0.00e+00,
546,8.00e-04,
547,4.00e-03,
548,8.00e-04,
549,3.20e-03,
550,8.00e-04,
551,3.20e-03,
552,3.20e-03,
553,8.00e-04,
554,3.20e-03,
555,0.00e+00,
556,8.00e-04,
557,4.00e-03,
558,0.00e+00,
559,4.00e-03,
560,8.00e-04,
561,3.20e-03,
562,8.00e-04,
563,3.20e-03,
564,3.20e-03,
565,0.00e+00,
566,4.00e-03,
567,0.00e+00,
568,3.20e-03,
569,0.00e+00,
570,3.20e-03,
571,0.00e+00,
572,0.00e+00,
573,3.20e-03,
574,3.20e-03,
575,0.00e+00,
576,0.00e+00,
577,3.20e-03,
578,2.40e-03,
579,0.00e+00,
580,0.00e+00,
581,3.20e-03,
582,0.00e+00,
583,3.20e-03,
584,3.20e-03,
585,0.00e+00,
586,2.40e-03,
587,0.00e+00,
588,3.20e-03,
589,-8.00e-04,
590,0.00e+00,
591,3.20e-03,
592,3.20e-03,
593,0.00e+00,
594,0.00e+00,
595,3.20e-03,
596,0.00e+00,
597,4.00e-03,
598,0.00e+00,
599,3.20e-03,
600,3.20e-03,
601,-8.00e-04,
602,3.20e-03,
603,-8.00e-04,
604,0.00e+00,
605,3.20e-03,
606,0.00e+00,
607,3.20e-03,
608,3.20e-03,
609,-8.00e-04,
610,3.20e-03,
611,0.00e+00,
612,8.00e-04,
613,3.20e-03,
614,0.00e+00,
615,2.40e-03,
616,2.80e-03,
617,0.00e+00,
618,2.40e-03,
619,-8.00e-04,
620,2.40e-03,
621,-8.00e-04,
622,-8.00e-04,
623,2.80e-03,
624,-8.00e-04,
625,2.40e-03,
626,0.00e+00,
627,2.40e-03,
628,2.40e-03,
629,-8.00e-04,
630,-8.00e-04,
631,2.40e-03,
632,0.00e+00,
633,2.40e-03,
634,2.40e-03,
635,-8.00e-04,
636,4.00e-03,
637,-8.00e-04,
638,2.40e-03,
639,-8.00e-04,
640,-8.00e-04,
641,3.20e-03,
642,-8.00e-04,
643,2.40e-03,
644,0.00e+00,
645,3.20e-03,
646,-8.00e-04,
647,2.40e-03,
648,2.40e-03,
649,-1.60e-03,
650,2.40e-03,
651,-1.20e-03,
652,3.20e-03,
653,-8.00e-04,
654,-8.00e-04,
655,2.40e-03,
656,0.00e+00,
657,2.40e-03,
658,2.40e-03,
659,-8.00e-04,
660,-8.00e-04,
661,2.40e-03,
662,-8.00e-04,
663,3.20e-03,
664,2.40e-03,
665,0.00e+00,
666,2.40e-03,
667,0.00e+00,
668,0.00e+00,
669,2.40e-03,
670,-8.00e-04,
671,2.40e-03,
672,-8.00e-04,
673,2.40e-03,
674,2.40e-03,
675,0.00e+00,
676,0.00e+00,
677,3.20e-03,
678,-8.00e-04,
679,1.60e-03,
680,-8.00e-04,
681,3.20e-03,
682,3.20e-03,
683,-8.00e-04,
684,-8.00e-04,
685,2.00e-03,
686,2.40e-03,
687,-8.00e-04,
688,0.00e+00,
689,2.40e-03,
690,2.40e-03,
691,-1.60e-03,
692,-8.00e-04,
693,2.80e-03,
694,0.00e+00,
695,2.40e-03,
696,2.40e-03,
697,0.00e+00,
698,-8.00e-04,
699,3.20e-03,
700,2.40e-03,
701,-8.00e-04,
702,3.60e-03,
703,0.00e+00,
704,0.00e+00,
705,3.20e-03,
706,2.40e-03,
707,-8.00e-04,
708,-8.00e-04,
709,2.40e-03,
710,-8.00e-04,
711,2.40e-03,
712,3.20e-03,
713,-8.00e-04,
714,2.40e-03,
715,0.00e+00,
716,0.00e+00,
717,3.20e-03,
718,0.00e+00,
719,3.20e-03,
720,3.20e-03,
721,-8.00e-04,
722,-8.00e-04,
723,2.40e-03,
724,2.40e-03,
725,0.00e+00,
726,8.00e-04,
727,3.20e-03,
728,3.20e-03,
729,0.00e+00,
730,-8.00e-04,
731,3.20e-03,
732,-8.00e-04,
733,3.20e-03,
734,0.00e+00,
735,2.40e-03,
736,2.80e-03,
737,0.00e+00,
738,-8.00e-04,
739,2.40e-03,
740,-8.00e-04,
741,3.20e-03,
742,2.40e-03,
743,0.00e+00,
744,-8.00e-04,
745,3.20e-03,
746,0.00e+00,
747,3.20e-03,
748,0.00e+00,
749,2.00e-03,
750,2.40e-03,
751,-8.00e-04,
752,0.00e+00,
753,3.20e-03,
754,3.20e-03,
755,0.00e+00,
756,0.00e+00,
757,3.20e-03,
758,2.40e-03,
759,0.00e+00,
760,0.00e+00,
761,2.40e-03,
762,0.00e+00,
763,2.80e-03,
764,-8.00e-04,
765,3.20e-03,
766,3.20e-03,
767,-8.00e-04,
768,-8.00e-04,
769,3.20e-03,
770,2.40e-03,
771,-8.00e-04,
772,0.00e+00,
773,3.20e-03,
774,3.20e-03,
775,0.00e+00,
776,2.40e-03,
777,0.00e+00,
778,0.00e+00,
779,2.40e-03,
780,0.00e+00,
781,3.20e-03,
782,-8.00e-04,
783,2.40e-03,
784,0.00e+00,
785,3.20e-03,
786,4.00e-03,
787,0.00e+00,
788,0.00e+00,
789,3.20e-03,
790,0.00e+00,
791,3.20e-03,
792,0.00e+00,
793,2.80e-03,
794,0.00e+00,
795,3.20e-03,
796,3.20e-03,
797,0.00e+00,
798,3.20e-03,
799,-8.00e-04,
800,8.00e-04,
801,2.80e-03,
802,8.00e-04,
803,4.00e-03,
804,3.20e-03,
805,0.00e+00,
806,3.20e-03,
807,0.00e+00,
808,0.00e+00,
809,2.80e-03,
810,0.00e+00,
811,3.20e-03,
812,3.20e-03,
813,-1.60e-03,
814,0.00e+00,
815,3.20e-03,
816,0.00e+00,
817,2.40e-03,
818,2.40e-03,
819,-8.00e-04,
820,3.20e-03,
821,-8.00e-04,
822,2.40e-03,
823,0.00e+00,
824,3.20e-03,
825,0.00e+00,
826,0.00e+00,
827,3.20e-03,
828,0.00e+00,
829,2.40e-03,
830,0.00e+00,
831,2.80e-03,
832,0.00e+00,
833,3.20e-03,
834,0.00e+00,
835,3.20e-03,
836,3.20e-03,
837,-8.00e-04,
838,3.20e-03,
839,-8.00e-04,
840,3.20e-03,
841,0.00e+00,
842,2.40e-03,
843,0.00e+00,
844,0.00e+00,
845,3.20e-03,
846,3.20e-03,
847,0.00e+00,
848,-8.00e-04,
849,4.00e-03,
850,3.20e-03,
851,0.00e+00,
852,0.00e+00,
853,3.20e-03,
854,8.00e-04,
855,3.20e-03,
856,3.20e-03,
857,0.00e+00,
858,3.20e-03,
859,8.00e-04,
860,0.00e+00,
861,3.20e-03,
862,2.40e-03,
863,0.00e+00,
864,0.00e+00,
865,3.20e-03,
866,4.00e-03,
867,-8.00e-04,
868,0.00e+00,
869,3.20e-03,
870,0.00e+00,
871,3.20e-03,
872,4.00e-03,
873,0.00e+00,
874,3.20e-03,
875,0.00e+00,
876,3.20e-03,
877,0.00e+00,
878,0.00e+00,
879,3.20e-03,
880,3.20e-03,
881,0.00e+00,
882,3.20e-03,
883,8.00e-04,
884,8.00e-04,
885,4.00e-03,
886,0.00e+00,
887,3.20e-03,
888,3.20e-03,
889,-8.00e-04,
890,8.00e-04,
891,3.20e-03,
892,3.20e-03,
893,0.00e+00,
894,3.20e-03,
895,0.00e+00,
896,3.20e-03,
897,0.00e+00,
898,0.00e+00,
899,3.20e-03,
900,0.00e+00,
901,3.20e-03,
902,3.20e-03,
903,8.00e-04,
904,8.00e-04,
905,3.20e-03,
906,3.60e-03,
907,0.00e+00,
908,3.20e-03,
909,0.00e+00,
910,0.00e+00,
911,3.20e-03,
912,2.80e-03,
913,-8.00e-04,
914,0.00e+00,
915,4.00e-03,
916,0.00e+00,
917,4.00e-03,
918,3.20e-03,
919,-8.00e-04,
920,0.00e+00,
921,3.20e-03,
922,0.00e+00,
923,3.20e-03,
924,3.20e-03,
925,8.00e-04,
926,3.20e-03,
927,0.00e+00,
928,3.20e-03,
929,0.00e+00,
930,0.00e+00,
931,2.80e-03,
932,0.00e+00,
933,2.80e-03,
934,3.20e-03,
935,0.00e+00,
936,3.20e-03,
937,-8.00e-04,
938,3.20e-03,
939,0.00e+00,
940,0.00e+00,
941,2.80e-03,
942,2.40e-03,
943,0.00e+00,
944,8.00e-04,
945,3.20e-03,
946,0.00e+00,
947,2.80e-03,
948,8.00e-04,
949,3.20e-03,
950,3.20e-03,
951,8.00e-04,
952,0.00e+00,
953,4.00e-03,
954,2.40e-03,
955,0.00e+00,
956,0.00e+00,
957,4.00e-03,
958,0.00e+00,
959,3.20e-03,
960,8.00e-04,
961,3.20e-03,
962,0.00e+00,
963,3.20e-03,
964,0.00e+00,
965,3.20e-03,
966,0.00e+00,
967,2.80e-03,
968,3.20e-03,
969,0.00e+00,
970,3.20e-03,
971,0.00e+00,
972,0.00e+00,
973,3.20e-03,
974,0.00e+00,
975,2.40e-03,
976,3.20e-03,
977,-8.00e-04,
978,3.20e-03,
979,0.00e+00,
980,0.00e+00,
981,2.80e-03,
982,0.00e+00,
983,3.20e-03,
984,0.00e+00,
985,3.20e-03,
986,-8.00e-04,
987,4.00e-03,
988,3.20e-03,
989,0.00e+00,
990,-8.00e-04,
991,4.00e-03,
992,0.00e+00,
993,3.20e-03,
994,2.80e-03,
995,0.00e+00,
996,3.20e-03,
997,0.00e+00,
998,3.20e-03,
999,0.00e+00,
1000,2.80e-03,
1001,-8.00e-04,
1002,3.20e-03,
1003,-8.00e-04,
1004,0.00e+00,
1005,4.00e-03,
1006,-8.00e-04,
1007,3.20e-03,
1008,3.20e-03,
1009,0.00e+00,
1010,-8.00e-04,
1011,2.40e-03,
1012,2.40e-03,
1013,0.00e+00,
1014,2.40e-03,
1015,-1.60e-03,
1016,0.00e+00,
1017,2.80e-03,
1018,0.00e+00,
1019,2.80e-03,
1020,0.00e+00,
1021,3.20e-03,
1022,0.00e+00,
1023,3.20e-03,
1024,0.00e+00,
1025,3.20e-03,
1026,0.00e+00,
1027,2.40e-03,
1028,3.20e-03,
1029,-8.00e-04,
1030,3.20e-03,
1031,-8.00e-04,
1032,-8.00e-04,
1033,4.00e-03,
1034,0.00e+00,
1035,3.20e-03,
1036,0.00e+00,
1037,3.20e-03,
1038,0.00e+00,
1039,3.60e-03,
1040,2.40e-03,
1041,0.00e+00,
1042,2.40e-03,
1043,0.00e+00,
1044,0.00e+00,
1045,3.20e-03,
1046,0.00e+00,
1047,3.20e-03,
1048,-8.00e-04,
1049,2.80e-03,
1050,0.00e+00,
1051,3.20e-03,
1052,0.00e+00,
1053,3.20e-03,
1054,3.20e-03,
1055,0.00e+00,
1056,0.00e+00,
1057,2.80e-03,
1058,-8.00e-04,
1059,2.40e-03,
1060,3.20e-03,
1061,0.00e+00,
1062,2.80e-03,
1063,-1.60e-03,
1064,0.00e+00,
1065,3.20e-03,
1066,2.40e-03,
1067,0.00e+00,
1068,2.40e-03,
1069,-8.00e-04,
1070,0.00e+00,
1071,3.20e-03,
1072,0.00e+00,
1073,2.40e-03,
1074,3.20e-03,
1075,-8.00e-04,
1076,2.80e-03,
1077,-8.00e-04,
1078,-1.60e-03,
1079,2.80e-03,
1080,-8.00e-04,
1081,2.40e-03,
1082,2.00e-03,
1083,-8.00e-04,
1084,-8.00e-04,
1085,1.60e-03,
1086,-8.00e-04,
1087,2.80e-03,
1088,2.40e-03,
1089,-8.00e-04,
1090,0.00e+00,
1091,2.40e-03,
1092,-8.00e-04,
1093,2.00e-03,
1094,-8.00e-04,
1095,3.20e-03,
1096,-8.00e-04,
1097,2.40e-03,
1098,2.40e-03,
1099,-8.00e-04,
1100,1.60e-03,
1101,-8.00e-04,
1102,-8.00e-04,
1103,2.40e-03,
1104,3.20e-03,
1105,-8.00e-04,
1106,-8.00e-04,
1107,2.40e-03,
1108,2.40e-03,
1109,-1.60e-03,
1110,2.40e-03,
1111,0.00e+00,
1112,2.40e-03,
1113,-8.00e-04,
1114,-8.00e-04,
1115,2.40e-03,
1116,2.40e-03,
1117,-8.00e-04,
1118,-8.00e-04,
1119,2.40e-03,
1120,-8.00e-04,
1121,3.20e-03,
1122,2.40e-03,
1123,-8.00e-04,
1124,3.20e-03,
1125,-1.60e-03,
1126,2.40e-03,
1127,-2.40e-03,
1128,3.20e-03,
1129,-8.00e-04,
1130,-1.60e-03,
1131,3.20e-03,
1132,2.40e-03,
1133,-1.60e-03,
1134,1.60e-03,
1135,0.00e+00,
1136,-8.00e-04,
1137,3.20e-03,
1138,-8.00e-04,
1139,3.20e-03,
1140,-1.60e-03,
1141,3.20e-03,
1142,-8.00e-04,
1143,2.40e-03,
1144,-1.60e-03,
1145,3.20e-03,
1146,-8.00e-04,
1147,2.40e-03,
1148,-8.00e-04,
1149,2.40e-03,
1150,-8.00e-04,
1151,2.40e-03,
1152,2.40e-03,
1153,-1.60e-03,
1154,2.00e-03,
1155,-1.60e-03,
1156,-1.60e-03,
1157,3.20e-03,
1158,2.40e-03,
1159,-1.60e-03,
1160,-1.60e-03,
1161,2.40e-03,
1162,3.20e-03,
1163,-8.00e-04,
1164,-8.00e-04,
1165,3.20e-03,
1166,-8.00e-04,
1167,2.00e-03,
1168,2.80e-03,
1169,-8.00e-04,
1170,1.60e-03,
1171,-8.00e-04,
1172,2.80e-03,
1173,-8.00e-04,
1174,0.00e+00,
1175,2.80e-03,
1176,2.40e-03,
1177,-8.00e-04,
1178,2.40e-03,
1179,-8.00e-04,
1180,2.40e-03,
1181,-8.00e-04,
1182,2.40e-03,
1183,-8.00e-04,
1184,2.40e-03,
1185,-1.60e-03,
1186,-8.00e-04,
1187,2.40e-03,
1188,-1.60e-03,
1189,3.20e-03,
1190,-8.00e-04,
1191,2.40e-03,
1192,2.40e-03,
1193,-8.00e-04,
1194,-8.00e-04,
1195,2.00e-03,
1196,-1.60e-03,
1197,3.20e-03,
1198,-8.00e-04,
1199,2.00e-03,
