fastdiffamp/data-noise-set/7th/NewFile1.csv

X,CH1,Start,Increment,
Sequence,Volt,-1.200000e-02,2.000000e-05
0,3.20e-03,
1,0.00e+00,
2,3.60e-03,
3,-8.00e-04,
4,-8.00e-04,
5,4.00e-03,
6,4.00e-03,
7,-8.00e-04,
8,3.20e-03,
9,-8.00e-04,
10,3.20e-03,
11,0.00e+00,
12,-8.00e-04,
13,4.00e-03,
14,0.00e+00,
15,4.00e-03,
16,0.00e+00,
17,4.80e-03,
18,5.60e-03,
19,0.00e+00,
20,3.20e-03,
21,-8.00e-04,
22,4.00e-03,
23,-8.00e-04,
24,0.00e+00,
25,3.20e-03,
26,-8.00e-04,
27,4.00e-03,
28,4.00e-03,
29,-1.60e-03,
30,-8.00e-04,
31,3.20e-03,
32,0.00e+00,
33,4.00e-03,
34,-8.00e-04,
35,4.80e-03,
36,4.80e-03,
37,0.00e+00,
38,-1.60e-03,
39,4.00e-03,
40,-8.00e-04,
41,3.20e-03,
42,-1.60e-03,
43,3.60e-03,
44,0.00e+00,
45,4.00e-03,
46,4.80e-03,
47,-1.60e-03,
48,-1.60e-03,
49,3.20e-03,
50,3.20e-03,
51,-8.00e-04,
52,0.00e+00,
53,4.00e-03,
54,3.20e-03,
55,-8.00e-04,
56,0.00e+00,
57,3.20e-03,
58,2.80e-03,
59,0.00e+00,
60,4.00e-03,
61,0.00e+00,
62,4.00e-03,
63,-8.00e-04,
64,4.00e-03,
65,0.00e+00,
66,-8.00e-04,
67,4.00e-03,
68,3.20e-03,
69,-1.60e-03,
70,-1.60e-03,
71,4.00e-03,
72,0.00e+00,
73,4.00e-03,
74,0.00e+00,
75,4.00e-03,
76,4.00e-03,
77,-8.00e-04,
78,-8.00e-04,
79,4.00e-03,
80,4.00e-03,
81,0.00e+00,
82,3.20e-03,
83,0.00e+00,
84,-8.00e-04,
85,4.80e-03,
86,4.00e-03,
87,-1.60e-03,
88,0.00e+00,
89,4.00e-03,
90,4.00e-03,
91,-8.00e-04,
92,-1.60e-03,
93,3.20e-03,
94,3.20e-03,
95,0.00e+00,
96,3.20e-03,
97,0.00e+00,
98,4.00e-03,
99,-1.60e-03,
100,-1.60e-03,
101,3.20e-03,
102,-8.00e-04,
103,4.00e-03,
104,-8.00e-04,
105,4.00e-03,
106,-1.60e-03,
107,3.20e-03,
108,3.20e-03,
109,-8.00e-04,
110,4.00e-03,
111,0.00e+00,
112,-1.60e-03,
113,3.20e-03,
114,3.20e-03,
115,-1.60e-03,
116,-8.00e-04,
117,3.20e-03,
118,3.20e-03,
119,0.00e+00,
120,2.40e-03,
121,-8.00e-04,
122,-1.60e-03,
123,3.20e-03,
124,0.00e+00,
125,4.00e-03,
126,-8.00e-04,
127,3.20e-03,
128,-8.00e-04,
129,2.40e-03,
130,3.20e-03,
131,-8.00e-04,
132,-8.00e-04,
133,4.00e-03,
134,3.20e-03,
135,-8.00e-04,
136,-8.00e-04,
137,3.20e-03,
138,2.80e-03,
139,-1.60e-03,
140,0.00e+00,
141,4.00e-03,
142,0.00e+00,
143,3.20e-03,
144,3.20e-03,
145,-8.00e-04,
146,-8.00e-04,
147,3.20e-03,
148,4.00e-03,
149,-1.60e-03,
150,3.20e-03,
151,-8.00e-04,
152,3.20e-03,
153,-1.60e-03,
154,-8.00e-04,
155,3.20e-03,
156,-8.00e-04,
157,4.00e-03,
158,0.00e+00,
159,4.00e-03,
160,-1.60e-03,
161,3.20e-03,
162,-8.00e-04,
163,2.40e-03,
164,-8.00e-04,
165,3.20e-03,
166,3.20e-03,
167,-1.60e-03,
168,2.40e-03,
169,-1.60e-03,
170,-1.60e-03,
171,3.20e-03,
172,-8.00e-04,
173,3.20e-03,
174,0.00e+00,
175,4.00e-03,
176,-8.00e-04,
177,4.80e-03,
178,3.20e-03,
179,-8.00e-04,
180,-8.00e-04,
181,4.00e-03,
182,-1.60e-03,
183,4.00e-03,
184,3.20e-03,
185,-8.00e-04,
186,3.20e-03,
187,-1.60e-03,
188,-8.00e-04,
189,4.00e-03,
190,-8.00e-04,
191,4.80e-03,
192,-1.60e-03,
193,2.40e-03,
194,-8.00e-04,
195,2.40e-03,
196,4.00e-03,
197,-8.00e-04,
198,0.00e+00,
199,3.20e-03,
200,3.20e-03,
201,-8.00e-04,
202,3.20e-03,
203,-1.60e-03,
204,3.20e-03,
205,-8.00e-04,
206,-1.60e-03,
207,2.80e-03,
208,1.60e-03,
209,-1.60e-03,
210,-1.60e-03,
211,2.40e-03,
212,3.20e-03,
213,-2.40e-03,
214,-1.60e-03,
215,3.20e-03,
216,-8.00e-04,
217,3.20e-03,
218,-1.60e-03,
219,2.40e-03,
220,2.40e-03,
221,-8.00e-04,
222,-2.40e-03,
223,3.20e-03,
224,2.40e-03,
225,-1.60e-03,
226,-1.60e-03,
227,2.40e-03,
228,2.80e-03,
229,-1.60e-03,
230,3.20e-03,
231,-1.60e-03,
232,-8.00e-04,
233,4.00e-03,
234,-1.60e-03,
235,2.40e-03,
236,-1.60e-03,
237,2.40e-03,
238,3.20e-03,
239,-8.00e-04,
240,4.00e-03,
241,-1.60e-03,
242,-8.00e-04,
243,3.20e-03,
244,-8.00e-04,
245,3.20e-03,
246,2.40e-03,
247,0.00e+00,
248,3.20e-03,
249,-1.60e-03,
250,2.80e-03,
251,-2.40e-03,
252,-1.60e-03,
253,3.20e-03,
254,2.40e-03,
255,-2.40e-03,
256,-2.40e-03,
257,4.00e-03,
258,0.00e+00,
259,2.40e-03,
260,3.20e-03,
261,-8.00e-04,
262,-1.60e-03,
263,3.20e-03,
264,-8.00e-04,
265,2.80e-03,
266,3.20e-03,
267,-1.60e-03,
268,-8.00e-04,
269,3.20e-03,
270,3.20e-03,
271,-1.60e-03,
272,2.40e-03,
273,-1.60e-03,
274,-8.00e-04,
275,2.40e-03,
276,-8.00e-04,
277,2.40e-03,
278,3.20e-03,
279,-2.40e-03,
280,-8.00e-04,
281,2.00e-03,
282,3.20e-03,
283,-8.00e-04,
284,-1.60e-03,
285,3.20e-03,
286,2.40e-03,
287,-1.60e-03,
288,2.80e-03,
289,-1.60e-03,
290,2.40e-03,
291,-1.60e-03,
292,-1.60e-03,
293,2.40e-03,
294,2.40e-03,
295,-2.40e-03,
296,-1.60e-03,
297,3.20e-03,
298,3.20e-03,
299,-1.60e-03,
300,1.60e-03,
301,-1.60e-03,
302,-1.60e-03,
303,2.40e-03,
304,-1.60e-03,
305,2.40e-03,
306,2.40e-03,
307,-1.60e-03,
308,2.40e-03,
309,-2.40e-03,
310,2.40e-03,
311,-1.60e-03,
312,-1.60e-03,
313,3.20e-03,
314,2.40e-03,
315,-2.40e-03,
316,-1.60e-03,
317,2.40e-03,
318,2.40e-03,
319,-8.00e-04,
320,-1.60e-03,
321,3.20e-03,
322,2.40e-03,
323,-2.40e-03,
324,2.40e-03,
325,-1.60e-03,
326,3.20e-03,
327,-1.60e-03,
328,-1.60e-03,
329,3.20e-03,
330,3.20e-03,
331,-1.60e-03,
332,-8.00e-04,
333,2.40e-03,
334,-8.00e-04,
335,2.40e-03,
336,-1.60e-03,
337,2.40e-03,
338,-1.60e-03,
339,3.20e-03,
340,-2.40e-03,
341,2.40e-03,
342,3.20e-03,
343,-1.60e-03,
344,3.20e-03,
345,-2.40e-03,
346,2.40e-03,
347,-1.60e-03,
348,-1.60e-03,
349,2.40e-03,
350,2.80e-03,
351,-2.00e-03,
352,4.00e-03,
353,-8.00e-04,
354,3.20e-03,
355,-1.60e-03,
356,-8.00e-04,
357,4.40e-03,
358,-1.60e-03,
359,4.00e-03,
360,-1.60e-03,
361,3.20e-03,
362,0.00e+00,
363,3.20e-03,
364,4.80e-03,
365,-1.60e-03,
366,-1.60e-03,
367,4.00e-03,
368,-8.00e-04,
369,3.20e-03,
370,3.20e-03,
371,-8.00e-04,
372,3.20e-03,
373,-8.00e-04,
374,-2.40e-03,
375,4.00e-03,
376,2.40e-03,
377,-8.00e-04,
378,3.20e-03,
379,-8.00e-04,
380,-8.00e-04,
381,4.00e-03,
382,-8.00e-04,
383,3.20e-03,
384,3.20e-03,
385,-8.00e-04,
386,3.20e-03,
387,-1.60e-03,
388,3.20e-03,
389,-1.60e-03,
390,3.20e-03,
391,-1.60e-03,
392,-8.00e-04,
393,4.80e-03,
394,3.20e-03,
395,-1.60e-03,
396,3.20e-03,
397,-1.60e-03,
398,2.40e-03,
399,-8.00e-04,
400,-8.00e-04,
401,4.80e-03,
402,-8.00e-04,
403,4.00e-03,
404,-2.40e-03,
405,3.20e-03,
406,4.00e-03,
407,-8.00e-04,
408,3.20e-03,
409,-1.60e-03,
410,2.40e-03,
411,-1.60e-03,
412,0.00e+00,
413,3.20e-03,
414,-8.00e-04,
415,3.20e-03,
416,-8.00e-04,
417,3.20e-03,
418,-8.00e-04,
419,3.20e-03,
420,-8.00e-04,
421,4.00e-03,
422,3.20e-03,
423,-2.40e-03,
424,1.60e-03,
425,-1.20e-03,
426,-8.00e-04,
427,3.20e-03,
428,3.20e-03,
429,-8.00e-04,
430,3.20e-03,
431,-8.00e-04,
432,0.00e+00,
433,3.20e-03,
434,3.20e-03,
435,-1.60e-03,
436,2.40e-03,
437,-2.40e-03,
438,-8.00e-04,
439,2.40e-03,
440,-3.20e-03,
441,2.00e-03,
442,-1.60e-03,
443,2.40e-03,
444,4.00e-03,
445,-8.00e-04,
446,-2.40e-03,
447,2.40e-03,
448,2.40e-03,
449,-2.40e-03,
450,3.20e-03,
451,-1.60e-03,
452,3.20e-03,
453,-1.60e-03,
454,3.20e-03,
455,-1.60e-03,
456,3.20e-03,
457,-2.40e-03,
458,2.40e-03,
459,-1.60e-03,
460,-3.20e-03,
461,2.40e-03,
462,-2.40e-03,
463,2.40e-03,
464,-1.60e-03,
465,4.00e-03,
466,1.60e-03,
467,-2.40e-03,
468,-8.00e-04,
469,3.20e-03,
470,-8.00e-04,
471,2.40e-03,
472,2.40e-03,
473,-1.60e-03,
474,1.60e-03,
475,-1.60e-03,
476,-1.60e-03,
477,3.20e-03,
478,2.40e-03,
479,-1.60e-03,
480,-8.00e-04,
481,3.20e-03,
482,-8.00e-04,
483,3.20e-03,
484,3.20e-03,
485,-1.60e-03,
486,1.60e-03,
487,-3.20e-03,
488,-2.40e-03,
489,3.20e-03,
490,-2.40e-03,
491,2.40e-03,
492,-8.00e-04,
493,3.20e-03,
494,-1.60e-03,
495,3.20e-03,
496,-1.60e-03,
497,2.40e-03,
498,-8.00e-04,
499,3.20e-03,
500,-1.60e-03,
501,3.20e-03,
502,4.00e-03,
503,-1.60e-03,
504,-2.40e-03,
505,2.40e-03,
506,2.40e-03,
507,-1.60e-03,
508,1.60e-03,
509,-1.60e-03,
510,-8.00e-04,
511,2.40e-03,
512,-8.00e-04,
513,3.20e-03,
514,-2.40e-03,
515,2.40e-03,
516,2.40e-03,
517,-8.00e-04,
518,2.40e-03,
519,-1.60e-03,
520,-2.40e-03,
521,2.40e-03,
522,2.40e-03,
523,0.00e+00,
524,-1.60e-03,
525,3.20e-03,
526,3.20e-03,
527,-1.60e-03,
528,-2.40e-03,
529,2.40e-03,
530,-1.60e-03,
531,2.40e-03,
532,-1.60e-03,
533,2.40e-03,
534,-1.60e-03,
535,2.80e-03,
536,2.40e-03,
537,-1.60e-03,
538,-1.60e-03,
539,2.40e-03,
540,-1.60e-03,
541,4.00e-03,
542,3.20e-03,
543,-1.60e-03,
544,-1.60e-03,
545,1.60e-03,
546,2.40e-03,
547,-2.40e-03,
548,2.40e-03,
549,-1.60e-03,
550,2.40e-03,
551,-1.60e-03,
552,0.00e+00,
553,2.40e-03,
554,3.20e-03,
555,-1.60e-03,
556,3.20e-03,
557,-8.00e-04,
558,-1.60e-03,
559,2.40e-03,
560,-1.60e-03,
561,3.20e-03,
562,-1.60e-03,
563,1.60e-03,
564,2.80e-03,
565,-8.00e-04,
566,2.40e-03,
567,-1.60e-03,
568,-1.60e-03,
569,3.20e-03,
570,-1.60e-03,
571,2.40e-03,
572,2.40e-03,
573,-2.40e-03,
574,-8.00e-04,
575,3.20e-03,
576,-1.60e-03,
577,2.40e-03,
578,-8.00e-04,
579,4.00e-03,
580,2.40e-03,
581,-1.60e-03,
582,-1.60e-03,
583,2.00e-03,
584,-3.20e-03,
585,3.20e-03,
586,3.60e-03,
587,-1.60e-03,
588,-1.60e-03,
589,3.20e-03,
590,-1.60e-03,
591,2.00e-03,
592,2.80e-03,
593,-1.60e-03,
594,3.20e-03,
595,-1.60e-03,
596,-8.00e-04,
597,2.00e-03,
598,-1.60e-03,
599,4.00e-03,
600,-1.60e-03,
601,4.00e-03,
602,2.40e-03,
603,-1.60e-03,
604,2.40e-03,
605,-2.40e-03,
606,2.40e-03,
607,-1.60e-03,
608,2.40e-03,
609,-1.60e-03,
610,-2.40e-03,
611,2.40e-03,
612,2.40e-03,
613,-2.40e-03,
614,-2.40e-03,
615,3.20e-03,
616,1.60e-03,
617,-2.40e-03,
618,-1.60e-03,
619,2.40e-03,
620,-8.00e-04,
621,3.20e-03,
622,3.20e-03,
623,-2.40e-03,
624,-1.60e-03,
625,2.40e-03,
626,-2.40e-03,
627,2.40e-03,
628,3.20e-03,
629,-4.00e-03,
630,2.00e-03,
631,-1.60e-03,
632,2.40e-03,
633,-2.40e-03,
634,-8.00e-04,
635,3.20e-03,
636,1.60e-03,
637,-1.60e-03,
638,2.40e-03,
639,-1.60e-03,
640,-2.40e-03,
641,1.60e-03,
642,2.40e-03,
643,-3.20e-03,
644,2.40e-03,
645,-3.20e-03,
646,2.40e-03,
647,-2.40e-03,
648,2.40e-03,
649,-2.40e-03,
650,-2.40e-03,
651,2.40e-03,
652,-1.60e-03,
653,2.00e-03,
654,-1.60e-03,
655,2.40e-03,
656,-8.00e-04,
657,2.00e-03,
658,-3.20e-03,
659,2.40e-03,
660,-1.60e-03,
661,1.60e-03,
662,-1.60e-03,
663,3.20e-03,
664,3.20e-03,
665,-1.60e-03,
666,2.40e-03,
667,-1.60e-03,
668,-2.40e-03,
669,2.00e-03,
670,-1.60e-03,
671,2.40e-03,
672,-8.00e-04,
673,2.40e-03,
674,2.00e-03,
675,-1.60e-03,
676,3.20e-03,
677,-1.60e-03,
678,2.40e-03,
679,-2.40e-03,
680,-2.40e-03,
681,2.40e-03,
682,-2.40e-03,
683,3.20e-03,
684,-1.60e-03,
685,1.60e-03,
686,-1.60e-03,
687,3.20e-03,
688,2.80e-03,
689,-1.60e-03,
690,2.40e-03,
691,-2.40e-03,
692,-8.00e-04,
693,2.40e-03,
694,2.40e-03,
695,-1.60e-03,
696,-1.60e-03,
697,2.40e-03,
698,3.20e-03,
699,-8.00e-04,
700,-2.40e-03,
701,2.00e-03,
702,-8.00e-04,
703,2.40e-03,
704,-1.60e-03,
705,3.20e-03,
706,-2.40e-03,
707,2.80e-03,
708,3.20e-03,
709,-1.60e-03,
710,-1.60e-03,
711,2.80e-03,
712,2.40e-03,
713,-1.60e-03,
714,3.20e-03,
715,-2.40e-03,
716,2.40e-03,
717,-8.00e-04,
718,3.20e-03,
719,-1.60e-03,
720,-1.60e-03,
721,2.40e-03,
722,-1.60e-03,
723,2.40e-03,
724,-8.00e-04,
725,2.40e-03,
726,3.20e-03,
727,-1.60e-03,
728,4.00e-03,
729,-8.00e-04,
730,-2.40e-03,
731,2.40e-03,
732,2.40e-03,
733,-1.60e-03,
734,3.20e-03,
735,-1.60e-03,
736,2.40e-03,
737,-3.20e-03,
738,2.80e-03,
739,-1.60e-03,
740,-2.40e-03,
741,3.20e-03,
742,-1.60e-03,
743,4.00e-03,
744,3.20e-03,
745,-2.40e-03,
746,-1.60e-03,
747,3.20e-03,
748,2.40e-03,
749,-1.20e-03,
750,3.20e-03,
751,-2.40e-03,
752,-1.60e-03,
753,3.20e-03,
754,3.20e-03,
755,-8.00e-04,
756,-8.00e-04,
757,2.40e-03,
758,2.40e-03,
759,-1.60e-03,
760,-2.40e-03,
761,3.20e-03,
762,3.20e-03,
763,-1.60e-03,
764,2.40e-03,
765,-2.40e-03,
766,2.40e-03,
767,-1.60e-03,
768,2.40e-03,
769,-2.40e-03,
770,3.20e-03,
771,-8.00e-04,
772,3.20e-03,
773,-2.40e-03,
774,-2.40e-03,
775,2.80e-03,
776,2.40e-03,
777,-1.60e-03,
778,-3.20e-03,
779,4.00e-03,
780,3.20e-03,
781,-1.60e-03,
782,3.20e-03,
783,-1.60e-03,
784,-1.60e-03,
785,2.40e-03,
786,3.20e-03,
787,-1.60e-03,
788,-1.60e-03,
789,3.20e-03,
790,-2.40e-03,
791,2.40e-03,
792,3.20e-03,
793,-1.60e-03,
794,-8.00e-04,
795,2.40e-03,
796,2.40e-03,
797,-1.60e-03,
798,2.40e-03,
799,-1.60e-03,
800,-1.60e-03,
801,2.40e-03,
802,-8.00e-04,
803,3.20e-03,
804,3.20e-03,
805,-1.60e-03,
806,-8.00e-04,
807,2.40e-03,
808,0.00e+00,
809,4.00e-03,
810,-1.60e-03,
811,4.80e-03,
812,3.20e-03,
813,-8.00e-04,
814,4.00e-03,
815,-1.60e-03,
816,-8.00e-04,
817,2.80e-03,
818,-1.60e-03,
819,3.20e-03,
820,3.20e-03,
821,-1.60e-03,
822,-8.00e-04,
823,3.20e-03,
824,-8.00e-04,
825,3.20e-03,
826,0.00e+00,
827,3.20e-03,
828,2.40e-03,
829,-1.60e-03,
830,2.40e-03,
831,-1.20e-03,
832,-1.60e-03,
833,3.20e-03,
834,2.40e-03,
835,-8.00e-04,
836,3.20e-03,
837,-8.00e-04,
838,3.20e-03,
839,0.00e+00,
840,3.20e-03,
841,-8.00e-04,
842,-8.00e-04,
843,2.40e-03,
844,-8.00e-04,
845,2.40e-03,
846,-1.60e-03,
847,4.00e-03,
848,-8.00e-04,
849,4.80e-03,
850,-8.00e-04,
851,4.80e-03,
852,-8.00e-04,
853,3.20e-03,
854,-8.00e-04,
855,3.20e-03,
856,-8.00e-04,
857,4.00e-03,
858,3.20e-03,
859,-8.00e-04,
860,-1.60e-03,
861,4.80e-03,
862,3.20e-03,
863,-1.60e-03,
864,4.80e-03,
865,-8.00e-04,
866,4.00e-03,
867,-8.00e-04,
868,0.00e+00,
869,3.20e-03,
870,-8.00e-04,
871,4.00e-03,
872,0.00e+00,
873,3.60e-03,
874,2.40e-03,
875,0.00e+00,
876,-1.60e-03,
877,3.20e-03,
878,0.00e+00,
879,3.20e-03,
880,-8.00e-04,
881,3.20e-03,
882,-8.00e-04,
883,4.80e-03,
884,4.00e-03,
885,-2.40e-03,
886,-1.60e-03,
887,4.00e-03,
888,3.20e-03,
889,-8.00e-04,
890,-8.00e-04,
891,3.20e-03,
892,-8.00e-04,
893,4.00e-03,
894,-1.60e-03,
895,3.20e-03,
896,-8.00e-04,
897,3.20e-03,
898,3.20e-03,
899,-1.60e-03,
900,0.00e+00,
901,4.00e-03,
902,0.00e+00,
903,3.60e-03,
904,3.20e-03,
905,0.00e+00,
906,3.20e-03,
907,-8.00e-04,
908,-8.00e-04,
909,3.20e-03,
910,4.00e-03,
911,-8.00e-04,
912,0.00e+00,
913,2.80e-03,
914,4.00e-03,
915,-8.00e-04,
916,3.20e-03,
917,-8.00e-04,
918,0.00e+00,
919,4.00e-03,
920,0.00e+00,
921,3.20e-03,
922,4.00e-03,
923,0.00e+00,
924,3.20e-03,
925,-8.00e-04,
926,4.00e-03,
927,-8.00e-04,
928,-8.00e-04,
929,3.20e-03,
930,-1.60e-03,
931,4.80e-03,
932,-1.60e-03,
933,3.20e-03,
934,3.20e-03,
935,0.00e+00,
936,4.00e-03,
937,0.00e+00,
938,0.00e+00,
939,4.00e-03,
940,-8.00e-04,
941,4.00e-03,
942,3.20e-03,
943,-2.40e-03,
944,0.00e+00,
945,4.80e-03,
946,3.20e-03,
947,-1.60e-03,
948,4.00e-03,
949,0.00e+00,
950,-8.00e-04,
951,3.20e-03,
952,3.20e-03,
953,-8.00e-04,
954,-8.00e-04,
955,4.00e-03,
956,0.00e+00,
957,4.00e-03,
958,3.20e-03,
959,-8.00e-04,
960,3.20e-03,
961,-8.00e-04,
962,-8.00e-04,
963,4.00e-03,
964,3.20e-03,
965,0.00e+00,
966,3.20e-03,
967,-1.60e-03,
968,3.20e-03,
969,0.00e+00,
970,-8.00e-04,
971,4.00e-03,
972,-1.60e-03,
973,4.00e-03,
974,-8.00e-04,
975,2.40e-03,
976,-8.00e-04,
977,3.20e-03,
978,-1.60e-03,
979,3.20e-03,
980,3.20e-03,
981,-8.00e-04,
982,3.20e-03,
983,-1.60e-03,
984,3.60e-03,
985,-1.60e-03,
986,0.00e+00,
987,3.20e-03,
988,2.40e-03,
989,-8.00e-04,
990,3.20e-03,
991,-8.00e-04,
992,3.20e-03,
993,0.00e+00,
994,4.00e-03,
995,-4.00e-04,
996,4.00e-03,
997,-1.60e-03,
998,0.00e+00,
999,3.20e-03,
1000,4.00e-03,
1001,-8.00e-04,
1002,-8.00e-04,
1003,3.20e-03,
1004,4.00e-03,
1005,0.00e+00,
1006,-8.00e-04,
1007,4.00e-03,
1008,4.00e-03,
1009,-1.60e-03,
1010,0.00e+00,
1011,3.20e-03,
1012,4.00e-03,
1013,-8.00e-04,
1014,0.00e+00,
1015,3.20e-03,
1016,0.00e+00,
1017,4.00e-03,
1018,0.00e+00,
1019,4.00e-03,
1020,3.20e-03,
1021,0.00e+00,
1022,3.20e-03,
1023,-8.00e-04,
1024,-8.00e-04,
1025,2.80e-03,
1026,4.80e-03,
1027,-8.00e-04,
1028,3.20e-03,
1029,-8.00e-04,
1030,0.00e+00,
1031,4.00e-03,
1032,4.00e-03,
1033,0.00e+00,
1034,4.00e-03,
1035,8.00e-04,
1036,4.00e-03,
1037,-8.00e-04,
1038,0.00e+00,
1039,4.00e-03,
1040,0.00e+00,
1041,4.00e-03,
1042,-8.00e-04,
1043,3.20e-03,
1044,3.20e-03,
1045,0.00e+00,
1046,-4.00e-04,
1047,4.00e-03,
1048,0.00e+00,
1049,4.00e-03,
1050,3.20e-03,
1051,-8.00e-04,
1052,-8.00e-04,
1053,4.00e-03,
1054,0.00e+00,
1055,4.80e-03,
1056,4.00e-03,
1057,-8.00e-04,
1058,3.20e-03,
1059,-8.00e-04,
1060,0.00e+00,
1061,3.20e-03,
1062,4.00e-03,
1063,0.00e+00,
1064,3.20e-03,
1065,-8.00e-04,
1066,5.60e-03,
1067,-1.60e-03,
1068,-8.00e-04,
1069,3.20e-03,
1070,0.00e+00,
1071,3.20e-03,
1072,0.00e+00,
1073,4.00e-03,
1074,-8.00e-04,
1075,4.00e-03,
1076,-8.00e-04,
1077,4.00e-03,
1078,-8.00e-04,
1079,2.40e-03,
1080,-8.00e-04,
1081,4.00e-03,
1082,0.00e+00,
1083,4.80e-03,
1084,4.00e-03,
1085,0.00e+00,
1086,4.00e-03,
1087,-1.20e-03,
1088,-8.00e-04,
1089,4.80e-03,
1090,4.00e-03,
1091,0.00e+00,
1092,8.00e-04,
1093,4.00e-03,
1094,0.00e+00,
1095,4.80e-03,
1096,0.00e+00,
1097,3.20e-03,
1098,-8.00e-04,
1099,4.00e-03,
1100,4.00e-03,
1101,-8.00e-04,
1102,-8.00e-04,
1103,4.00e-03,
1104,0.00e+00,
1105,3.20e-03,
1106,0.00e+00,
1107,4.00e-03,
1108,0.00e+00,
1109,3.20e-03,
1110,4.00e-03,
1111,-1.60e-03,
1112,0.00e+00,
1113,3.20e-03,
1114,0.00e+00,
1115,4.00e-03,
1116,0.00e+00,
1117,3.20e-03,
1118,3.20e-03,
1119,-8.00e-04,
1120,3.20e-03,
1121,0.00e+00,
1122,0.00e+00,
1123,4.00e-03,
1124,3.20e-03,
1125,0.00e+00,
1126,0.00e+00,
1127,4.80e-03,
1128,8.00e-04,
1129,4.00e-03,
1130,0.00e+00,
1131,4.00e-03,
1132,0.00e+00,
1133,4.00e-03,
1134,4.00e-03,
1135,-8.00e-04,
1136,0.00e+00,
1137,4.00e-03,
1138,-8.00e-04,
1139,4.00e-03,
1140,0.00e+00,
1141,4.00e-03,
1142,3.20e-03,
1143,0.00e+00,
1144,4.00e-03,
1145,-1.60e-03,
1146,4.00e-03,
1147,-8.00e-04,
1148,4.00e-03,
1149,-8.00e-04,
1150,0.00e+00,
1151,4.00e-03,
1152,4.00e-03,
1153,-1.60e-03,
1154,3.20e-03,
1155,-8.00e-04,
1156,3.20e-03,
1157,0.00e+00,
1158,3.20e-03,
1159,-8.00e-04,
1160,3.20e-03,
1161,-8.00e-04,
1162,4.80e-03,
1163,-8.00e-04,
1164,4.00e-03,
1165,-8.00e-04,
1166,3.20e-03,
1167,-8.00e-04,
1168,-8.00e-04,
1169,3.20e-03,
1170,2.40e-03,
1171,-1.60e-03,
1172,3.20e-03,
1173,-8.00e-04,
1174,-1.60e-03,
1175,3.20e-03,
1176,3.20e-03,
1177,-8.00e-04,
1178,3.60e-03,
1179,-8.00e-04,
1180,-8.00e-04,
1181,3.20e-03,
1182,2.40e-03,
1183,-1.60e-03,
1184,-8.00e-04,
1185,3.20e-03,
1186,3.20e-03,
1187,-8.00e-04,
1188,-1.60e-03,
1189,4.80e-03,
1190,4.00e-03,
1191,-8.00e-04,
1192,4.80e-03,
1193,-1.60e-03,
1194,3.20e-03,
1195,-1.60e-03,
1196,-1.60e-03,
1197,3.20e-03,
1198,4.00e-03,
1199,-1.60e-03,
