fastdiffamp/data-noise-set/7th/NewFile10.csv

X,CH1,Start,Increment,
Sequence,Volt,-1.200000e-02,2.000000e-05
0,2.40e-03,
1,-8.00e-04,
2,3.20e-03,
3,-8.00e-04,
4,2.40e-03,
5,-8.00e-04,
6,-8.00e-04,
7,2.40e-03,
8,2.40e-03,
9,-1.60e-03,
10,2.40e-03,
11,-8.00e-04,
12,0.00e+00,
13,2.40e-03,
14,-8.00e-04,
15,2.40e-03,
16,-1.60e-03,
17,3.20e-03,
18,1.60e-03,
19,-8.00e-04,
20,-8.00e-04,
21,2.40e-03,
22,-8.00e-04,
23,2.40e-03,
24,-8.00e-04,
25,2.80e-03,
26,2.40e-03,
27,-8.00e-04,
28,-8.00e-04,
29,2.40e-03,
30,2.40e-03,
31,-8.00e-04,
32,2.80e-03,
33,-8.00e-04,
34,-8.00e-04,
35,2.00e-03,
36,2.40e-03,
37,-1.60e-03,
38,-1.60e-03,
39,2.40e-03,
40,-8.00e-04,
41,2.00e-03,
42,2.40e-03,
43,-8.00e-04,
44,3.20e-03,
45,-8.00e-04,
46,-8.00e-04,
47,2.40e-03,
48,-8.00e-04,
49,2.40e-03,
50,0.00e+00,
51,2.40e-03,
52,1.60e-03,
53,-8.00e-04,
54,2.40e-03,
55,-8.00e-04,
56,-8.00e-04,
57,3.20e-03,
58,0.00e+00,
59,3.20e-03,
60,-8.00e-04,
61,2.40e-03,
62,2.40e-03,
63,0.00e+00,
64,2.40e-03,
65,0.00e+00,
66,0.00e+00,
67,2.40e-03,
68,2.40e-03,
69,-8.00e-04,
70,-8.00e-04,
71,2.40e-03,
72,2.40e-03,
73,-8.00e-04,
74,-8.00e-04,
75,2.40e-03,
76,4.00e-03,
77,-8.00e-04,
78,-8.00e-04,
79,2.40e-03,
80,0.00e+00,
81,2.40e-03,
82,3.20e-03,
83,-8.00e-04,
84,0.00e+00,
85,2.40e-03,
86,3.20e-03,
87,-8.00e-04,
88,2.40e-03,
89,-8.00e-04,
90,0.00e+00,
91,2.80e-03,
92,0.00e+00,
93,2.40e-03,
94,0.00e+00,
95,3.20e-03,
96,0.00e+00,
97,2.40e-03,
98,0.00e+00,
99,2.40e-03,
100,2.40e-03,
101,0.00e+00,
102,3.20e-03,
103,-8.00e-04,
104,0.00e+00,
105,2.40e-03,
106,2.40e-03,
107,0.00e+00,
108,3.20e-03,
109,-8.00e-04,
110,0.00e+00,
111,3.20e-03,
112,0.00e+00,
113,2.40e-03,
114,2.40e-03,
115,8.00e-04,
116,0.00e+00,
117,2.80e-03,
118,0.00e+00,
119,2.40e-03,
120,3.20e-03,
121,0.00e+00,
122,0.00e+00,
123,2.40e-03,
124,0.00e+00,
125,3.20e-03,
126,2.80e-03,
127,0.00e+00,
128,0.00e+00,
129,3.20e-03,
130,0.00e+00,
131,3.20e-03,
132,3.20e-03,
133,-8.00e-04,
134,-8.00e-04,
135,4.00e-03,
136,3.20e-03,
137,0.00e+00,
138,0.00e+00,
139,3.20e-03,
140,2.40e-03,
141,0.00e+00,
142,0.00e+00,
143,2.80e-03,
144,2.40e-03,
145,0.00e+00,
146,-8.00e-04,
147,2.40e-03,
148,0.00e+00,
149,2.80e-03,
150,2.40e-03,
151,-8.00e-04,
152,0.00e+00,
153,3.20e-03,
154,2.40e-03,
155,0.00e+00,
156,2.40e-03,
157,0.00e+00,
158,0.00e+00,
159,3.20e-03,
160,0.00e+00,
161,2.80e-03,
162,3.20e-03,
163,0.00e+00,
164,0.00e+00,
165,3.20e-03,
166,0.00e+00,
167,3.20e-03,
168,3.20e-03,
169,0.00e+00,
170,3.20e-03,
171,0.00e+00,
172,2.40e-03,
173,-8.00e-04,
174,2.40e-03,
175,-8.00e-04,
176,-8.00e-04,
177,2.80e-03,
178,2.80e-03,
179,-8.00e-04,
180,3.20e-03,
181,-1.60e-03,
182,2.40e-03,
183,-8.00e-04,
184,2.80e-03,
185,-8.00e-04,
186,-8.00e-04,
187,2.40e-03,
188,-8.00e-04,
189,2.40e-03,
190,2.80e-03,
191,-8.00e-04,
192,-8.00e-04,
193,2.80e-03,
194,-8.00e-04,
195,2.40e-03,
196,0.00e+00,
197,2.40e-03,
198,2.40e-03,
199,0.00e+00,
200,2.40e-03,
201,-8.00e-04,
202,3.20e-03,
203,-8.00e-04,
204,2.40e-03,
205,-8.00e-04,
206,-8.00e-04,
207,2.40e-03,
208,-8.00e-04,
209,3.20e-03,
210,2.40e-03,
211,-8.00e-04,
212,2.40e-03,
213,-8.00e-04,
214,3.20e-03,
215,-8.00e-04,
216,0.00e+00,
217,3.20e-03,
218,-8.00e-04,
219,2.40e-03,
220,-8.00e-04,
221,2.40e-03,
222,2.80e-03,
223,-1.60e-03,
224,-8.00e-04,
225,2.40e-03,
226,2.40e-03,
227,-8.00e-04,
228,-8.00e-04,
229,3.20e-03,
230,-2.40e-03,
231,3.20e-03,
232,2.80e-03,
233,-1.60e-03,
234,2.00e-03,
235,-8.00e-04,
236,-8.00e-04,
237,2.40e-03,
238,-8.00e-04,
239,2.40e-03,
240,-8.00e-04,
241,2.40e-03,
242,0.00e+00,
243,2.40e-03,
244,2.40e-03,
245,-8.00e-04,
246,3.20e-03,
247,-8.00e-04,
248,2.40e-03,
249,-8.00e-04,
250,-8.00e-04,
251,2.40e-03,
252,2.40e-03,
253,-1.60e-03,
254,1.60e-03,
255,-1.60e-03,
256,-1.60e-03,
257,2.40e-03,
258,1.60e-03,
259,-8.00e-04,
260,1.60e-03,
261,-1.60e-03,
262,-1.60e-03,
263,3.20e-03,
264,2.00e-03,
265,-8.00e-04,
266,2.40e-03,
267,0.00e+00,
268,2.40e-03,
269,-1.60e-03,
270,2.80e-03,
271,-8.00e-04,
272,-8.00e-04,
273,2.80e-03,
274,-8.00e-04,
275,2.40e-03,
276,0.00e+00,
277,2.00e-03,
278,-1.60e-03,
279,2.40e-03,
280,-8.00e-04,
281,2.00e-03,
282,1.60e-03,
283,0.00e+00,
284,-8.00e-04,
285,3.20e-03,
286,-1.60e-03,
287,2.00e-03,
288,2.80e-03,
289,-1.60e-03,
290,-8.00e-04,
291,2.80e-03,
292,-8.00e-04,
293,1.60e-03,
294,-8.00e-04,
295,2.80e-03,
296,2.40e-03,
297,-1.60e-03,
298,-8.00e-04,
299,2.40e-03,
300,2.40e-03,
301,-1.20e-03,
302,-8.00e-04,
303,1.60e-03,
304,1.60e-03,
305,-1.60e-03,
306,-1.60e-03,
307,2.40e-03,
308,1.60e-03,
309,-1.60e-03,
310,2.40e-03,
311,-1.60e-03,
312,-1.60e-03,
313,1.60e-03,
314,-8.00e-04,
315,2.00e-03,
316,-8.00e-04,
317,2.40e-03,
318,2.00e-03,
319,-8.00e-04,
320,-1.60e-03,
321,2.00e-03,
322,-1.20e-03,
323,1.60e-03,
324,-8.00e-04,
325,2.40e-03,
326,3.20e-03,
327,-1.60e-03,
328,-1.60e-03,
329,2.40e-03,
330,2.00e-03,
331,-8.00e-04,
332,-8.00e-04,
333,1.60e-03,
334,2.40e-03,
335,-8.00e-04,
336,-8.00e-04,
337,2.00e-03,
338,-8.00e-04,
339,2.40e-03,
340,-8.00e-04,
341,2.40e-03,
342,2.40e-03,
343,-1.60e-03,
344,0.00e+00,
345,2.40e-03,
346,2.40e-03,
347,-8.00e-04,
348,2.40e-03,
349,-8.00e-04,
350,-8.00e-04,
351,1.60e-03,
352,1.60e-03,
353,-8.00e-04,
354,0.00e+00,
355,2.40e-03,
356,0.00e+00,
357,3.20e-03,
358,2.40e-03,
359,-8.00e-04,
360,0.00e+00,
361,3.20e-03,
362,0.00e+00,
363,2.40e-03,
364,0.00e+00,
365,2.40e-03,
366,2.40e-03,
367,0.00e+00,
368,-1.60e-03,
369,2.40e-03,
370,2.40e-03,
371,-8.00e-04,
372,2.40e-03,
373,-8.00e-04,
374,2.40e-03,
375,-8.00e-04,
376,2.40e-03,
377,-8.00e-04,
378,-8.00e-04,
379,2.40e-03,
380,-8.00e-04,
381,2.40e-03,
382,2.40e-03,
383,-8.00e-04,
384,2.40e-03,
385,-8.00e-04,
386,2.00e-03,
387,-8.00e-04,
388,-8.00e-04,
389,2.40e-03,
390,-8.00e-04,
391,2.40e-03,
392,2.40e-03,
393,-8.00e-04,
394,2.80e-03,
395,0.00e+00,
396,0.00e+00,
397,2.40e-03,
398,0.00e+00,
399,2.40e-03,
400,-8.00e-04,
401,3.20e-03,
402,-8.00e-04,
403,2.40e-03,
404,-1.20e-03,
405,2.40e-03,
406,1.60e-03,
407,-1.60e-03,
408,2.40e-03,
409,-8.00e-04,
410,0.00e+00,
411,2.40e-03,
412,2.40e-03,
413,-8.00e-04,
414,-8.00e-04,
415,2.40e-03,
416,2.40e-03,
417,-8.00e-04,
418,-8.00e-04,
419,2.40e-03,
420,2.40e-03,
421,-8.00e-04,
422,2.40e-03,
423,-8.00e-04,
424,0.00e+00,
425,2.80e-03,
426,-8.00e-04,
427,2.40e-03,
428,2.40e-03,
429,-8.00e-04,
430,2.40e-03,
431,-8.00e-04,
432,-8.00e-04,
433,2.40e-03,
434,2.40e-03,
435,-8.00e-04,
436,2.40e-03,
437,-8.00e-04,
438,-8.00e-04,
439,2.80e-03,
440,-8.00e-04,
441,3.20e-03,
442,-8.00e-04,
443,2.40e-03,
444,0.00e+00,
445,2.40e-03,
446,2.40e-03,
447,-8.00e-04,
448,0.00e+00,
449,2.40e-03,
450,2.40e-03,
451,0.00e+00,
452,0.00e+00,
453,2.40e-03,
454,0.00e+00,
455,3.20e-03,
456,2.40e-03,
457,-8.00e-04,
458,0.00e+00,
459,3.20e-03,
460,-8.00e-04,
461,3.20e-03,
462,3.20e-03,
463,-8.00e-04,
464,3.20e-03,
465,-8.00e-04,
466,0.00e+00,
467,3.20e-03,
468,2.40e-03,
469,0.00e+00,
470,2.80e-03,
471,-8.00e-04,
472,2.40e-03,
473,0.00e+00,
474,0.00e+00,
475,3.20e-03,
476,2.40e-03,
477,0.00e+00,
478,-8.00e-04,
479,3.20e-03,
480,3.20e-03,
481,-8.00e-04,
482,2.40e-03,
483,0.00e+00,
484,3.20e-03,
485,0.00e+00,
486,2.40e-03,
487,0.00e+00,
488,0.00e+00,
489,3.20e-03,
490,3.20e-03,
491,0.00e+00,
492,-8.00e-04,
493,2.40e-03,
494,2.40e-03,
495,0.00e+00,
496,0.00e+00,
497,3.20e-03,
498,0.00e+00,
499,2.40e-03,
500,2.40e-03,
501,0.00e+00,
502,3.20e-03,
503,0.00e+00,
504,0.00e+00,
505,3.20e-03,
506,2.80e-03,
507,0.00e+00,
508,2.80e-03,
509,0.00e+00,
510,-8.00e-04,
511,3.20e-03,
512,4.00e-03,
513,0.00e+00,
514,0.00e+00,
515,2.40e-03,
516,-8.00e-04,
517,4.00e-03,
518,2.40e-03,
519,0.00e+00,
520,0.00e+00,
521,3.20e-03,
522,8.00e-04,
523,3.20e-03,
524,0.00e+00,
525,3.20e-03,
526,2.80e-03,
527,0.00e+00,
528,2.40e-03,
529,0.00e+00,
530,0.00e+00,
531,2.40e-03,
532,0.00e+00,
533,2.40e-03,
534,2.40e-03,
535,0.00e+00,
536,0.00e+00,
537,3.20e-03,
538,0.00e+00,
539,3.20e-03,
540,-8.00e-04,
541,3.20e-03,
542,0.00e+00,
543,3.20e-03,
544,2.40e-03,
545,0.00e+00,
546,0.00e+00,
547,3.20e-03,
548,-8.00e-04,
549,2.40e-03,
550,0.00e+00,
551,3.20e-03,
552,2.40e-03,
553,0.00e+00,
554,-8.00e-04,
555,3.20e-03,
556,3.20e-03,
557,-8.00e-04,
558,0.00e+00,
559,3.20e-03,
560,0.00e+00,
561,2.40e-03,
562,0.00e+00,
563,3.20e-03,
564,0.00e+00,
565,3.20e-03,
566,2.40e-03,
567,-8.00e-04,
568,0.00e+00,
569,2.40e-03,
570,2.40e-03,
571,0.00e+00,
572,0.00e+00,
573,3.20e-03,
574,2.40e-03,
575,0.00e+00,
576,2.40e-03,
577,-8.00e-04,
578,0.00e+00,
579,2.40e-03,
580,3.20e-03,
581,-8.00e-04,
582,2.40e-03,
583,-8.00e-04,
584,2.80e-03,
585,0.00e+00,
586,0.00e+00,
587,2.40e-03,
588,3.20e-03,
589,-8.00e-04,
590,3.20e-03,
591,0.00e+00,
592,2.40e-03,
593,-8.00e-04,
594,0.00e+00,
595,3.20e-03,
596,0.00e+00,
597,3.20e-03,
598,0.00e+00,
599,3.20e-03,
600,-8.00e-04,
601,3.20e-03,
602,3.20e-03,
603,0.00e+00,
604,3.20e-03,
605,0.00e+00,
606,0.00e+00,
607,3.20e-03,
608,-8.00e-04,
609,2.80e-03,
610,2.40e-03,
611,0.00e+00,
612,0.00e+00,
613,2.40e-03,
614,2.40e-03,
615,-8.00e-04,
616,0.00e+00,
617,3.20e-03,
618,3.20e-03,
619,8.00e-04,
620,2.40e-03,
621,0.00e+00,
622,-8.00e-04,
623,2.40e-03,
624,0.00e+00,
625,3.20e-03,
626,2.40e-03,
627,0.00e+00,
628,2.40e-03,
629,0.00e+00,
630,3.20e-03,
631,0.00e+00,
632,3.20e-03,
633,-8.00e-04,
634,2.40e-03,
635,0.00e+00,
636,3.20e-03,
637,-8.00e-04,
638,0.00e+00,
639,3.20e-03,
640,-8.00e-04,
641,2.40e-03,
642,0.00e+00,
643,2.80e-03,
644,0.00e+00,
645,3.20e-03,
646,0.00e+00,
647,3.20e-03,
648,-8.00e-04,
649,2.80e-03,
650,-8.00e-04,
651,2.40e-03,
652,1.60e-03,
653,-8.00e-04,
654,0.00e+00,
655,2.40e-03,
656,2.40e-03,
657,-8.00e-04,
658,2.40e-03,
659,-8.00e-04,
660,-8.00e-04,
661,2.40e-03,
662,-8.00e-04,
663,2.40e-03,
664,2.80e-03,
665,-8.00e-04,
666,0.00e+00,
667,2.40e-03,
668,-8.00e-04,
669,1.60e-03,
670,2.40e-03,
671,-8.00e-04,
672,0.00e+00,
673,2.80e-03,
674,2.40e-03,
675,-8.00e-04,
676,0.00e+00,
677,2.40e-03,
678,-8.00e-04,
679,2.40e-03,
680,2.40e-03,
681,0.00e+00,
682,2.40e-03,
683,-8.00e-04,
684,3.20e-03,
685,0.00e+00,
686,0.00e+00,
687,2.40e-03,
688,0.00e+00,
689,2.80e-03,
690,3.20e-03,
691,0.00e+00,
692,3.20e-03,
693,-8.00e-04,
694,-8.00e-04,
695,2.40e-03,
696,-8.00e-04,
697,2.40e-03,
698,2.40e-03,
699,-8.00e-04,
700,0.00e+00,
701,3.20e-03,
702,0.00e+00,
703,2.80e-03,
704,0.00e+00,
705,2.40e-03,
706,0.00e+00,
707,2.40e-03,
708,2.40e-03,
709,-8.00e-04,
710,0.00e+00,
711,3.20e-03,
712,0.00e+00,
713,2.40e-03,
714,2.40e-03,
715,0.00e+00,
716,-8.00e-04,
717,2.40e-03,
718,-8.00e-04,
719,2.40e-03,
720,0.00e+00,
721,2.80e-03,
722,2.40e-03,
723,0.00e+00,
724,0.00e+00,
725,2.40e-03,
726,0.00e+00,
727,2.40e-03,
728,0.00e+00,
729,2.00e-03,
730,0.00e+00,
731,2.40e-03,
732,0.00e+00,
733,3.20e-03,
734,0.00e+00,
735,2.80e-03,
736,2.40e-03,
737,-8.00e-04,
738,0.00e+00,
739,2.40e-03,
740,-8.00e-04,
741,2.80e-03,
742,2.40e-03,
743,-8.00e-04,
744,2.40e-03,
745,-8.00e-04,
746,3.20e-03,
747,-1.60e-03,
748,2.40e-03,
749,0.00e+00,
750,0.00e+00,
751,2.80e-03,
752,2.40e-03,
753,-8.00e-04,
754,-8.00e-04,
755,2.40e-03,
756,-8.00e-04,
757,3.20e-03,
758,3.20e-03,
759,-8.00e-04,
760,3.20e-03,
761,-8.00e-04,
762,-8.00e-04,
763,3.20e-03,
764,2.40e-03,
765,-8.00e-04,
766,-8.00e-04,
767,2.40e-03,
768,-8.00e-04,
769,2.40e-03,
770,2.40e-03,
771,0.00e+00,
772,2.40e-03,
773,-8.00e-04,
774,3.20e-03,
775,0.00e+00,
776,2.40e-03,
777,-1.60e-03,
778,0.00e+00,
779,2.40e-03,
780,2.40e-03,
781,-8.00e-04,
782,-8.00e-04,
783,2.40e-03,
784,3.20e-03,
785,-8.00e-04,
786,2.40e-03,
787,0.00e+00,
788,0.00e+00,
789,2.80e-03,
790,2.40e-03,
791,0.00e+00,
792,3.20e-03,
793,-8.00e-04,
794,2.40e-03,
795,0.00e+00,
796,0.00e+00,
797,3.20e-03,
798,0.00e+00,
799,3.20e-03,
800,0.00e+00,
801,2.40e-03,
802,3.20e-03,
803,-8.00e-04,
804,0.00e+00,
805,3.20e-03,
806,0.00e+00,
807,2.40e-03,
808,3.20e-03,
809,0.00e+00,
810,2.40e-03,
811,0.00e+00,
812,-8.00e-04,
813,2.80e-03,
814,2.40e-03,
815,-8.00e-04,
816,-8.00e-04,
817,2.40e-03,
818,0.00e+00,
819,3.20e-03,
820,-8.00e-04,
821,3.20e-03,
822,-8.00e-04,
823,2.80e-03,
824,-8.00e-04,
825,2.40e-03,
826,3.20e-03,
827,-8.00e-04,
828,0.00e+00,
829,3.20e-03,
830,0.00e+00,
831,3.20e-03,
832,-8.00e-04,
833,2.40e-03,
834,3.20e-03,
835,-8.00e-04,
836,-8.00e-04,
837,3.20e-03,
838,0.00e+00,
839,3.20e-03,
840,2.40e-03,
841,0.00e+00,
842,0.00e+00,
843,2.80e-03,
844,2.80e-03,
845,0.00e+00,
846,2.40e-03,
847,-8.00e-04,
848,0.00e+00,
849,2.40e-03,
850,-8.00e-04,
851,3.20e-03,
852,3.20e-03,
853,-8.00e-04,
854,0.00e+00,
855,2.80e-03,
856,0.00e+00,
857,2.80e-03,
858,0.00e+00,
859,3.20e-03,
860,2.40e-03,
861,-8.00e-04,
862,3.20e-03,
863,0.00e+00,
864,0.00e+00,
865,3.20e-03,
866,-8.00e-04,
867,2.80e-03,
868,4.00e-04,
869,3.20e-03,
870,2.40e-03,
871,0.00e+00,
872,2.40e-03,
873,0.00e+00,
874,3.60e-03,
875,-8.00e-04,
876,8.00e-04,
877,3.20e-03,
878,0.00e+00,
879,3.20e-03,
880,0.00e+00,
881,2.80e-03,
882,8.00e-04,
883,3.20e-03,
884,-8.00e-04,
885,3.20e-03,
886,0.00e+00,
887,3.20e-03,
888,3.20e-03,
889,0.00e+00,
890,0.00e+00,
891,3.20e-03,
892,8.00e-04,
893,3.20e-03,
894,0.00e+00,
895,2.80e-03,
896,4.00e-03,
897,0.00e+00,
898,8.00e-04,
899,3.20e-03,
900,0.00e+00,
901,3.20e-03,
902,8.00e-04,
903,4.00e-03,
904,0.00e+00,
905,3.20e-03,
906,8.00e-04,
907,3.20e-03,
908,3.20e-03,
909,0.00e+00,
910,3.20e-03,
911,0.00e+00,
912,8.00e-04,
913,4.00e-03,
914,8.00e-04,
915,3.20e-03,
916,4.00e-03,
917,0.00e+00,
918,3.20e-03,
919,0.00e+00,
920,0.00e+00,
921,4.00e-03,
922,2.40e-03,
923,0.00e+00,
924,4.00e-03,
925,0.00e+00,
926,0.00e+00,
927,2.80e-03,
928,0.00e+00,
929,3.20e-03,
930,-8.00e-04,
931,3.20e-03,
932,4.80e-03,
933,0.00e+00,
934,3.20e-03,
935,0.00e+00,
936,4.00e-04,
937,2.40e-03,
938,3.20e-03,
939,0.00e+00,
940,0.00e+00,
941,3.20e-03,
942,3.20e-03,
943,0.00e+00,
944,3.20e-03,
945,0.00e+00,
946,3.20e-03,
947,0.00e+00,
948,0.00e+00,
949,3.20e-03,
950,2.40e-03,
951,0.00e+00,
952,3.20e-03,
953,-8.00e-04,
954,0.00e+00,
955,4.00e-03,
956,0.00e+00,
957,3.20e-03,
958,3.20e-03,
959,-8.00e-04,
960,0.00e+00,
961,3.20e-03,
962,0.00e+00,
963,3.20e-03,
964,2.40e-03,
965,0.00e+00,
966,2.80e-03,
967,-8.00e-04,
968,0.00e+00,
969,2.40e-03,
970,3.20e-03,
971,0.00e+00,
972,3.20e-03,
973,0.00e+00,
974,3.20e-03,
975,0.00e+00,
976,0.00e+00,
977,3.20e-03,
978,2.40e-03,
979,-8.00e-04,
980,4.00e-03,
981,0.00e+00,
982,0.00e+00,
983,4.00e-03,
984,3.20e-03,
985,0.00e+00,
986,2.40e-03,
987,0.00e+00,
988,3.20e-03,
989,0.00e+00,
990,0.00e+00,
991,3.20e-03,
992,0.00e+00,
993,2.80e-03,
994,0.00e+00,
995,3.20e-03,
996,3.20e-03,
997,0.00e+00,
998,0.00e+00,
999,3.20e-03,
1000,3.20e-03,
1001,0.00e+00,
1002,3.20e-03,
1003,0.00e+00,
1004,0.00e+00,
1005,3.20e-03,
1006,8.00e-04,
1007,3.20e-03,
1008,0.00e+00,
1009,3.20e-03,
1010,2.40e-03,
1011,0.00e+00,
1012,3.20e-03,
1013,0.00e+00,
1014,3.20e-03,
1015,0.00e+00,
1016,3.20e-03,
1017,0.00e+00,
1018,2.40e-03,
1019,0.00e+00,
1020,0.00e+00,
1021,3.20e-03,
1022,0.00e+00,
1023,3.20e-03,
1024,0.00e+00,
1025,3.20e-03,
1026,4.00e-03,
1027,0.00e+00,
1028,0.00e+00,
1029,4.00e-03,
1030,0.00e+00,
1031,3.20e-03,
1032,3.20e-03,
1033,0.00e+00,
1034,4.00e-03,
1035,0.00e+00,
1036,3.20e-03,
1037,-8.00e-04,
1038,0.00e+00,
1039,3.20e-03,
1040,0.00e+00,
1041,3.20e-03,
1042,3.20e-03,
1043,0.00e+00,
1044,3.20e-03,
1045,0.00e+00,
1046,0.00e+00,
1047,3.20e-03,
1048,2.80e-03,
1049,0.00e+00,
1050,0.00e+00,
1051,3.20e-03,
1052,0.00e+00,
1053,3.20e-03,
1054,8.00e-04,
1055,3.20e-03,
1056,0.00e+00,
1057,3.20e-03,
1058,0.00e+00,
1059,2.40e-03,
1060,3.20e-03,
1061,0.00e+00,
1062,0.00e+00,
1063,4.00e-03,
1064,0.00e+00,
1065,3.20e-03,
1066,2.40e-03,
1067,-8.00e-04,
1068,3.20e-03,
1069,0.00e+00,
1070,0.00e+00,
1071,3.20e-03,
1072,0.00e+00,
1073,3.20e-03,
1074,3.20e-03,
1075,0.00e+00,
1076,3.20e-03,
1077,0.00e+00,
1078,-8.00e-04,
1079,3.60e-03,
1080,0.00e+00,
1081,3.20e-03,
1082,2.40e-03,
1083,0.00e+00,
1084,-8.00e-04,
1085,2.80e-03,
1086,0.00e+00,
1087,2.40e-03,
1088,3.20e-03,
1089,0.00e+00,
1090,2.40e-03,
1091,0.00e+00,
1092,0.00e+00,
1093,2.80e-03,
1094,-8.00e-04,
1095,3.20e-03,
1096,0.00e+00,
1097,3.20e-03,
1098,3.20e-03,
1099,-8.00e-04,
1100,3.20e-03,
1101,0.00e+00,
1102,2.40e-03,
1103,0.00e+00,
1104,0.00e+00,
1105,3.20e-03,
1106,2.40e-03,
1107,0.00e+00,
1108,0.00e+00,
1109,3.20e-03,
1110,8.00e-04,
1111,3.20e-03,
1112,0.00e+00,
1113,2.40e-03,
1114,0.00e+00,
1115,3.20e-03,
1116,3.20e-03,
1117,-8.00e-04,
1118,0.00e+00,
1119,4.00e-03,
1120,0.00e+00,
1121,3.20e-03,
1122,0.00e+00,
1123,2.80e-03,
1124,3.20e-03,
1125,0.00e+00,
1126,0.00e+00,
1127,3.20e-03,
1128,-8.00e-04,
1129,3.20e-03,
1130,0.00e+00,
1131,3.20e-03,
1132,0.00e+00,
1133,3.20e-03,
1134,0.00e+00,
1135,3.20e-03,
1136,0.00e+00,
1137,3.20e-03,
1138,0.00e+00,
1139,3.20e-03,
1140,3.20e-03,
1141,-8.00e-04,
1142,2.40e-03,
1143,0.00e+00,
1144,0.00e+00,
1145,2.40e-03,
1146,3.20e-03,
1147,-8.00e-04,
1148,2.40e-03,
1149,0.00e+00,
1150,3.20e-03,
1151,0.00e+00,
1152,2.40e-03,
1153,-8.00e-04,
1154,2.40e-03,
1155,-8.00e-04,
1156,0.00e+00,
1157,3.20e-03,
1158,-8.00e-04,
1159,3.20e-03,
1160,-8.00e-04,
1161,2.80e-03,
1162,0.00e+00,
1163,2.40e-03,
1164,3.20e-03,
1165,0.00e+00,
1166,2.40e-03,
1167,0.00e+00,
1168,2.40e-03,
1169,0.00e+00,
1170,-8.00e-04,
1171,3.20e-03,
1172,0.00e+00,
1173,2.40e-03,
1174,-8.00e-04,
1175,4.00e-03,
1176,-8.00e-04,
1177,3.20e-03,
1178,-8.00e-04,
1179,2.40e-03,
1180,2.80e-03,
1181,-8.00e-04,
1182,0.00e+00,
1183,2.40e-03,
1184,2.40e-03,
1185,0.00e+00,
1186,2.00e-03,
1187,-8.00e-04,
1188,0.00e+00,
1189,2.40e-03,
1190,1.60e-03,
1191,-8.00e-04,
1192,3.20e-03,
1193,0.00e+00,
1194,2.40e-03,
1195,-8.00e-04,
1196,-1.60e-03,
1197,2.40e-03,
1198,3.20e-03,
1199,-8.00e-04,
