fastdiffamp/data-noise-set/7th/NewFile3.csv

X,CH1,Start,Increment,
Sequence,Volt,-1.200000e-02,2.000000e-05
0,3.20e-03,
1,-8.00e-04,
2,-1.60e-03,
3,3.20e-03,
4,3.20e-03,
5,-1.60e-03,
6,-1.60e-03,
7,3.20e-03,
8,0.00e+00,
9,4.00e-03,
10,-8.00e-04,
11,3.20e-03,
12,3.20e-03,
13,-1.60e-03,
14,-8.00e-04,
15,3.20e-03,
16,-1.60e-03,
17,4.00e-03,
18,3.20e-03,
19,-8.00e-04,
20,-8.00e-04,
21,2.40e-03,
22,-1.60e-03,
23,4.80e-03,
24,-1.60e-03,
25,3.20e-03,
26,-1.60e-03,
27,4.00e-03,
28,3.20e-03,
29,0.00e+00,
30,-8.00e-04,
31,4.00e-03,
32,-2.40e-03,
33,2.40e-03,
34,3.20e-03,
35,-8.00e-04,
36,-8.00e-04,
37,3.20e-03,
38,-8.00e-04,
39,4.00e-03,
40,3.20e-03,
41,-8.00e-04,
42,8.00e-04,
43,3.20e-03,
44,0.00e+00,
45,2.40e-03,
46,0.00e+00,
47,3.20e-03,
48,-8.00e-04,
49,2.40e-03,
50,-8.00e-04,
51,3.20e-03,
52,-8.00e-04,
53,2.80e-03,
54,2.40e-03,
55,-8.00e-04,
56,2.40e-03,
57,-8.00e-04,
58,-8.00e-04,
59,3.20e-03,
60,-1.60e-03,
61,3.20e-03,
62,-8.00e-04,
63,3.20e-03,
64,-1.60e-03,
65,3.20e-03,
66,4.00e-03,
67,-8.00e-04,
68,3.20e-03,
69,-1.60e-03,
70,4.00e-03,
71,-8.00e-04,
72,0.00e+00,
73,4.00e-03,
74,2.40e-03,
75,-8.00e-04,
76,-2.40e-03,
77,2.40e-03,
78,2.40e-03,
79,-1.60e-03,
80,-8.00e-04,
81,3.20e-03,
82,-1.60e-03,
83,3.20e-03,
84,-8.00e-04,
85,3.20e-03,
86,-8.00e-04,
87,3.20e-03,
88,0.00e+00,
89,3.20e-03,
90,3.20e-03,
91,-1.60e-03,
92,-1.60e-03,
93,2.80e-03,
94,3.20e-03,
95,-2.40e-03,
96,3.20e-03,
97,-1.60e-03,
98,-8.00e-04,
99,3.20e-03,
100,3.20e-03,
101,-2.00e-03,
102,-1.60e-03,
103,3.20e-03,
104,0.00e+00,
105,2.40e-03,
106,4.80e-03,
107,0.00e+00,
108,3.20e-03,
109,-8.00e-04,
110,3.20e-03,
111,-1.60e-03,
112,-3.20e-03,
113,3.20e-03,
114,-1.60e-03,
115,4.00e-03,
116,-1.60e-03,
117,4.00e-03,
118,3.20e-03,
119,-1.60e-03,
120,2.40e-03,
121,-1.60e-03,
122,-8.00e-04,
123,4.00e-03,
124,3.20e-03,
125,-1.60e-03,
126,3.20e-03,
127,-2.40e-03,
128,3.20e-03,
129,-1.60e-03,
130,-1.60e-03,
131,3.20e-03,
132,3.20e-03,
133,-2.40e-03,
134,-1.60e-03,
135,4.00e-03,
136,2.00e-03,
137,-3.20e-03,
138,2.40e-03,
139,-2.40e-03,
140,-1.60e-03,
141,2.40e-03,
142,-1.60e-03,
143,2.80e-03,
144,-2.40e-03,
145,2.00e-03,
146,2.40e-03,
147,-1.60e-03,
148,-1.60e-03,
149,3.20e-03,
150,2.40e-03,
151,-1.60e-03,
152,-1.60e-03,
153,2.40e-03,
154,-2.40e-03,
155,3.20e-03,
156,-2.40e-03,
157,2.40e-03,
158,-2.40e-03,
159,3.20e-03,
160,-1.60e-03,
161,2.80e-03,
162,-8.00e-04,
163,2.40e-03,
164,-1.60e-03,
165,3.20e-03,
166,2.40e-03,
167,-3.20e-03,
168,2.40e-03,
169,-2.40e-03,
170,3.20e-03,
171,-2.40e-03,
172,-3.20e-03,
173,3.20e-03,
174,2.40e-03,
175,-1.60e-03,
176,-1.60e-03,
177,4.00e-03,
178,2.40e-03,
179,-1.20e-03,
180,-1.20e-03,
181,3.20e-03,
182,-2.40e-03,
183,2.40e-03,
184,3.20e-03,
185,-1.60e-03,
186,3.20e-03,
187,-2.40e-03,
188,2.40e-03,
189,-1.60e-03,
190,2.40e-03,
191,-2.40e-03,
192,1.60e-03,
193,-1.60e-03,
194,-1.60e-03,
195,3.20e-03,
196,-1.60e-03,
197,3.20e-03,
198,2.40e-03,
199,-1.60e-03,
200,2.40e-03,
201,-8.00e-04,
202,3.20e-03,
203,-1.60e-03,
204,2.40e-03,
205,-1.60e-03,
206,-1.60e-03,
207,1.60e-03,
208,-1.60e-03,
209,3.20e-03,
210,2.40e-03,
211,-2.40e-03,
212,-2.80e-03,
213,2.00e-03,
214,-1.60e-03,
215,3.20e-03,
216,2.40e-03,
217,-2.40e-03,
218,2.40e-03,
219,-1.60e-03,
220,2.40e-03,
221,-1.60e-03,
222,-1.60e-03,
223,2.40e-03,
224,-1.60e-03,
225,4.00e-03,
226,3.60e-03,
227,-1.60e-03,
228,-1.60e-03,
229,2.40e-03,
230,3.20e-03,
231,-1.60e-03,
232,-1.60e-03,
233,2.40e-03,
234,3.20e-03,
235,-3.20e-03,
236,-1.60e-03,
237,3.20e-03,
238,-1.60e-03,
239,1.60e-03,
240,-1.60e-03,
241,3.20e-03,
242,2.00e-03,
243,-1.60e-03,
244,-3.20e-03,
245,2.00e-03,
246,2.40e-03,
247,-2.40e-03,
248,1.60e-03,
249,-1.60e-03,
250,-1.60e-03,
251,2.40e-03,
252,-2.40e-03,
253,2.00e-03,
254,-1.60e-03,
255,1.60e-03,
256,2.80e-03,
257,-2.40e-03,
258,-1.60e-03,
259,2.80e-03,
260,-8.00e-04,
261,1.60e-03,
262,-1.60e-03,
263,2.40e-03,
264,2.40e-03,
265,-1.60e-03,
266,1.60e-03,
267,-2.00e-03,
268,-1.60e-03,
269,2.40e-03,
270,2.40e-03,
271,-1.60e-03,
272,-1.60e-03,
273,1.60e-03,
274,-2.40e-03,
275,3.20e-03,
276,2.40e-03,
277,-2.40e-03,
278,-2.40e-03,
279,2.00e-03,
280,-1.60e-03,
281,2.40e-03,
282,2.40e-03,
283,-2.40e-03,
284,2.80e-03,
285,-1.60e-03,
286,1.60e-03,
287,-2.40e-03,
288,1.60e-03,
289,-1.60e-03,
290,-1.60e-03,
291,2.40e-03,
292,2.40e-03,
293,-8.00e-04,
294,-8.00e-04,
295,3.20e-03,
296,4.00e-03,
297,-2.40e-03,
298,-2.40e-03,
299,3.20e-03,
300,1.60e-03,
301,-2.40e-03,
302,-1.60e-03,
303,2.40e-03,
304,3.20e-03,
305,-3.20e-03,
306,2.40e-03,
307,-2.40e-03,
308,-1.20e-03,
309,3.20e-03,
310,-2.40e-03,
311,2.40e-03,
312,2.80e-03,
313,-2.40e-03,
314,-1.60e-03,
315,2.40e-03,
316,-8.00e-04,
317,4.00e-03,
318,-1.60e-03,
319,2.40e-03,
320,3.20e-03,
321,-1.60e-03,
322,-1.60e-03,
323,3.20e-03,
324,4.00e-03,
325,-2.40e-03,
326,-1.60e-03,
327,3.20e-03,
328,2.40e-03,
329,-1.60e-03,
330,2.40e-03,
331,-1.60e-03,
332,-1.60e-03,
333,2.40e-03,
334,-2.40e-03,
335,2.40e-03,
336,2.80e-03,
337,-1.60e-03,
338,3.20e-03,
339,-1.60e-03,
340,4.00e-03,
341,-8.00e-04,
342,-2.40e-03,
343,2.40e-03,
344,2.40e-03,
345,-1.60e-03,
346,-8.00e-04,
347,3.20e-03,
348,3.20e-03,
349,-8.00e-04,
350,3.20e-03,
351,-1.60e-03,
352,2.40e-03,
353,-8.00e-04,
354,3.20e-03,
355,-8.00e-04,
356,2.40e-03,
357,-1.60e-03,
358,2.40e-03,
359,-1.60e-03,
360,4.00e-03,
361,-1.60e-03,
362,-8.00e-04,
363,3.20e-03,
364,2.40e-03,
365,-8.00e-04,
366,-1.60e-03,
367,2.40e-03,
368,-1.60e-03,
369,3.20e-03,
370,0.00e+00,
371,2.40e-03,
372,3.20e-03,
373,-8.00e-04,
374,-8.00e-04,
375,3.20e-03,
376,-1.60e-03,
377,2.80e-03,
378,2.40e-03,
379,-1.60e-03,
380,3.60e-03,
381,-1.60e-03,
382,-8.00e-04,
383,2.40e-03,
384,-8.00e-04,
385,3.20e-03,
386,-1.60e-03,
387,4.00e-03,
388,4.00e-03,
389,-1.60e-03,
390,-1.60e-03,
391,2.40e-03,
392,-1.60e-03,
393,3.20e-03,
394,-2.40e-03,
395,3.20e-03,
396,-1.60e-03,
397,2.40e-03,
398,2.40e-03,
399,-1.60e-03,
400,-2.40e-03,
401,3.20e-03,
402,-1.60e-03,
403,3.20e-03,
404,-1.60e-03,
405,3.20e-03,
406,2.40e-03,
407,-2.40e-03,
408,-8.00e-04,
409,2.40e-03,
410,2.40e-03,
411,-1.60e-03,
412,3.20e-03,
413,-8.00e-04,
414,3.20e-03,
415,-1.60e-03,
416,2.40e-03,
417,-8.00e-04,
418,2.40e-03,
419,-1.60e-03,
420,2.40e-03,
421,-8.00e-04,
422,-2.40e-03,
423,2.00e-03,
424,-1.60e-03,
425,2.40e-03,
426,2.40e-03,
427,-1.60e-03,
428,-1.60e-03,
429,2.40e-03,
430,2.40e-03,
431,-8.00e-04,
432,-1.60e-03,
433,2.80e-03,
434,2.40e-03,
435,-8.00e-04,
436,-8.00e-04,
437,4.00e-03,
438,-1.60e-03,
439,3.20e-03,
440,2.00e-03,
441,-1.60e-03,
442,-1.60e-03,
443,2.40e-03,
444,-1.60e-03,
445,3.20e-03,
446,-1.60e-03,
447,3.20e-03,
448,3.20e-03,
449,-8.00e-04,
450,2.80e-03,
451,-8.00e-04,
452,3.20e-03,
453,-1.60e-03,
454,3.20e-03,
455,-2.40e-03,
456,3.20e-03,
457,-2.40e-03,
458,3.20e-03,
459,-8.00e-04,
460,-1.60e-03,
461,3.60e-03,
462,-1.60e-03,
463,2.40e-03,
464,-1.60e-03,
465,3.20e-03,
466,-8.00e-04,
467,2.40e-03,
468,3.20e-03,
469,-8.00e-04,
470,-1.60e-03,
471,3.20e-03,
472,2.40e-03,
473,-1.60e-03,
474,-8.00e-04,
475,3.20e-03,
476,-1.60e-03,
477,3.20e-03,
478,3.20e-03,
479,-2.40e-03,
480,2.40e-03,
481,-1.60e-03,
482,2.80e-03,
483,-8.00e-04,
484,3.20e-03,
485,-8.00e-04,
486,3.20e-03,
487,-1.60e-03,
488,3.20e-03,
489,-2.40e-03,
490,-1.60e-03,
491,2.40e-03,
492,-1.20e-03,
493,2.40e-03,
494,-8.00e-04,
495,3.20e-03,
496,-8.00e-04,
497,2.40e-03,
498,2.40e-03,
499,-1.60e-03,
500,3.20e-03,
501,-8.00e-04,
502,3.20e-03,
503,0.00e+00,
504,0.00e+00,
505,4.00e-03,
506,-8.00e-04,
507,1.60e-03,
508,-8.00e-04,
509,4.80e-03,
510,-8.00e-04,
511,3.20e-03,
512,4.00e-03,
513,0.00e+00,
514,-8.00e-04,
515,4.80e-03,
516,3.20e-03,
517,-8.00e-04,
518,3.20e-03,
519,-8.00e-04,
520,4.00e-03,
521,-8.00e-04,
522,-8.00e-04,
523,3.20e-03,
524,-8.00e-04,
525,3.20e-03,
526,-8.00e-04,
527,3.20e-03,
528,-1.20e-03,
529,4.00e-03,
530,0.00e+00,
531,3.20e-03,
532,0.00e+00,
533,3.20e-03,
534,3.20e-03,
535,-8.00e-04,
536,3.20e-03,
537,-1.60e-03,
538,-8.00e-04,
539,3.20e-03,
540,2.40e-03,
541,-8.00e-04,
542,0.00e+00,
543,3.20e-03,
544,0.00e+00,
545,3.20e-03,
546,-8.00e-04,
547,3.20e-03,
548,-8.00e-04,
549,4.00e-03,
550,3.20e-03,
551,-1.60e-03,
552,2.40e-03,
553,-8.00e-04,
554,3.20e-03,
555,0.00e+00,
556,4.00e-03,
557,-8.00e-04,
558,0.00e+00,
559,3.20e-03,
560,-8.00e-04,
561,3.20e-03,
562,4.00e-03,
563,0.00e+00,
564,4.00e-03,
565,0.00e+00,
566,-8.00e-04,
567,4.00e-03,
568,4.80e-03,
569,-1.60e-03,
570,4.00e-03,
571,-8.00e-04,
572,3.20e-03,
573,-8.00e-04,
574,0.00e+00,
575,4.00e-03,
576,-8.00e-04,
577,3.20e-03,
578,8.00e-04,
579,3.20e-03,
580,3.20e-03,
581,-8.00e-04,
582,3.20e-03,
583,-8.00e-04,
584,4.00e-03,
585,-8.00e-04,
586,0.00e+00,
587,4.00e-03,
588,-8.00e-04,
589,4.00e-03,
590,4.00e-03,
591,0.00e+00,
592,-8.00e-04,
593,3.20e-03,
594,2.40e-03,
595,-8.00e-04,
596,0.00e+00,
597,4.00e-03,
598,4.00e-03,
599,0.00e+00,
600,-8.00e-04,
601,4.00e-03,
602,3.20e-03,
603,-8.00e-04,
604,4.00e-03,
605,-1.60e-03,
606,3.20e-03,
607,-1.60e-03,
608,4.80e-03,
609,0.00e+00,
610,-8.00e-04,
611,3.20e-03,
612,4.80e-03,
613,-8.00e-04,
614,3.20e-03,
615,-8.00e-04,
616,4.00e-03,
617,0.00e+00,
618,3.20e-03,
619,0.00e+00,
620,0.00e+00,
621,4.00e-03,
622,-8.00e-04,
623,4.00e-03,
624,0.00e+00,
625,4.00e-03,
626,-8.00e-04,
627,4.00e-03,
628,8.00e-04,
629,3.20e-03,
630,4.80e-03,
631,-8.00e-04,
632,0.00e+00,
633,4.00e-03,
634,3.20e-03,
635,-8.00e-04,
636,4.00e-03,
637,-8.00e-04,
638,4.80e-03,
639,-2.40e-03,
640,-8.00e-04,
641,4.00e-03,
642,4.00e-03,
643,-8.00e-04,
644,4.80e-03,
645,0.00e+00,
646,0.00e+00,
647,3.20e-03,
648,8.00e-04,
649,4.00e-03,
650,0.00e+00,
651,3.20e-03,
652,3.20e-03,
653,-8.00e-04,
654,4.00e-03,
655,-4.00e-04,
656,-1.60e-03,
657,4.80e-03,
658,-8.00e-04,
659,4.80e-03,
660,-1.60e-03,
661,4.00e-03,
662,0.00e+00,
663,3.20e-03,
664,-8.00e-04,
665,4.00e-03,
666,4.00e-03,
667,0.00e+00,
668,0.00e+00,
669,3.20e-03,
670,2.40e-03,
671,-8.00e-04,
672,-1.60e-03,
673,3.20e-03,
674,-8.00e-04,
675,4.00e-03,
676,4.00e-03,
677,-8.00e-04,
678,0.00e+00,
679,4.00e-03,
680,2.80e-03,
681,-8.00e-04,
682,4.00e-03,
683,-1.60e-03,
684,3.20e-03,
685,-8.00e-04,
686,-8.00e-04,
687,3.20e-03,
688,3.20e-03,
689,-8.00e-04,
690,4.00e-03,
691,-8.00e-04,
692,-8.00e-04,
693,4.00e-03,
694,4.00e-03,
695,-8.00e-04,
696,4.00e-03,
697,-8.00e-04,
698,-8.00e-04,
699,3.20e-03,
700,2.80e-03,
701,-8.00e-04,
702,0.00e+00,
703,3.20e-03,
704,2.40e-03,
705,-8.00e-04,
706,3.20e-03,
707,-8.00e-04,
708,2.80e-03,
709,-1.60e-03,
710,-8.00e-04,
711,3.20e-03,
712,-8.00e-04,
713,3.20e-03,
714,0.00e+00,
715,4.80e-03,
716,3.20e-03,
717,-1.60e-03,
718,3.20e-03,
719,-1.60e-03,
720,-1.60e-03,
721,3.20e-03,
722,3.20e-03,
723,-8.00e-04,
724,4.00e-03,
725,-8.00e-04,
726,4.80e-03,
727,-1.60e-03,
728,-8.00e-04,
729,4.00e-03,
730,2.80e-03,
731,-1.60e-03,
732,-8.00e-04,
733,3.20e-03,
734,-1.60e-03,
735,4.00e-03,
736,-1.60e-03,
737,2.80e-03,
738,3.20e-03,
739,-8.00e-04,
740,2.40e-03,
741,-1.60e-03,
742,-1.60e-03,
743,2.80e-03,
744,2.40e-03,
745,-8.00e-04,
746,-1.60e-03,
747,3.20e-03,
748,2.40e-03,
749,-1.60e-03,
750,4.00e-03,
751,-2.40e-03,
752,2.40e-03,
753,-1.60e-03,
754,-1.60e-03,
755,3.20e-03,
756,2.40e-03,
757,-8.00e-04,
758,-2.40e-03,
759,2.40e-03,
760,2.40e-03,
761,-1.60e-03,
762,2.40e-03,
763,-2.40e-03,
764,-1.60e-03,
765,3.20e-03,
766,2.40e-03,
767,-1.60e-03,
768,0.00e+00,
769,3.20e-03,
770,-8.00e-04,
771,2.80e-03,
772,-3.20e-03,
773,4.00e-03,
774,3.20e-03,
775,-1.60e-03,
776,2.40e-03,
777,-8.00e-04,
778,-1.60e-03,
779,2.40e-03,
780,-1.60e-03,
781,4.00e-03,
782,2.40e-03,
783,-1.60e-03,
784,-8.00e-04,
785,2.40e-03,
786,-8.00e-04,
787,3.20e-03,
788,2.40e-03,
789,-2.40e-03,
790,2.40e-03,
791,-1.60e-03,
792,3.20e-03,
793,-1.60e-03,
794,-1.60e-03,
795,3.20e-03,
796,2.40e-03,
797,-8.00e-04,
798,2.00e-03,
799,-1.60e-03,
800,1.60e-03,
801,-1.60e-03,
802,-1.60e-03,
803,3.20e-03,
804,1.60e-03,
805,-1.60e-03,
806,-8.00e-04,
807,3.20e-03,
808,-1.60e-03,
809,2.40e-03,
810,1.60e-03,
811,-2.40e-03,
812,3.20e-03,
813,-8.00e-04,
814,-2.40e-03,
815,2.40e-03,
816,-8.00e-04,
817,1.60e-03,
818,2.40e-03,
819,-1.60e-03,
820,2.80e-03,
821,-1.60e-03,
822,-8.00e-04,
823,2.40e-03,
824,2.40e-03,
825,-1.60e-03,
826,1.60e-03,
827,-1.60e-03,
828,2.40e-03,
829,-1.60e-03,
830,2.40e-03,
831,-2.40e-03,
832,-8.00e-04,
833,2.40e-03,
834,-8.00e-04,
835,2.00e-03,
836,-1.60e-03,
837,3.20e-03,
838,3.20e-03,
839,-1.60e-03,
840,2.40e-03,
841,-8.00e-04,
842,1.60e-03,
843,-2.40e-03,
844,-8.00e-04,
845,2.40e-03,
846,-1.60e-03,
847,2.80e-03,
848,-1.60e-03,
849,2.40e-03,
850,-1.60e-03,
851,3.20e-03,
852,2.40e-03,
853,-3.20e-03,
854,3.20e-03,
855,-1.60e-03,
856,-8.00e-04,
857,3.20e-03,
858,3.20e-03,
859,-2.40e-03,
860,2.80e-03,
861,-1.60e-03,
862,2.40e-03,
863,-3.20e-03,
864,1.60e-03,
865,-2.40e-03,
866,-1.60e-03,
867,4.00e-03,
868,2.40e-03,
869,-1.60e-03,
870,3.20e-03,
871,-2.40e-03,
872,-1.60e-03,
873,2.80e-03,
874,-1.60e-03,
875,1.60e-03,
876,-1.60e-03,
877,2.40e-03,
878,-8.00e-04,
879,3.20e-03,
880,3.20e-03,
881,-8.00e-04,
882,-1.60e-03,
883,2.40e-03,
884,-8.00e-04,
885,3.20e-03,
886,2.40e-03,
887,-1.60e-03,
888,2.40e-03,
889,-1.60e-03,
890,-1.60e-03,
891,2.40e-03,
892,2.40e-03,
893,-1.60e-03,
894,-1.60e-03,
895,3.20e-03,
896,2.40e-03,
897,-1.60e-03,
898,1.60e-03,
899,-1.60e-03,
900,-1.60e-03,
901,1.60e-03,
902,-8.00e-04,
903,2.40e-03,
904,-1.60e-03,
905,3.20e-03,
906,-3.20e-03,
907,2.40e-03,
908,3.20e-03,
909,-1.60e-03,
910,3.20e-03,
911,-8.00e-04,
912,3.20e-03,
913,-1.60e-03,
914,-1.60e-03,
915,3.20e-03,
916,2.40e-03,
917,-1.60e-03,
918,2.40e-03,
919,-1.60e-03,
920,-1.60e-03,
921,2.40e-03,
922,3.20e-03,
923,-1.60e-03,
924,-1.60e-03,
925,3.20e-03,
926,1.60e-03,
927,-1.60e-03,
928,-1.60e-03,
929,2.40e-03,
930,-2.40e-03,
931,2.40e-03,
932,2.40e-03,
933,-1.60e-03,
934,-1.60e-03,
935,3.20e-03,
936,-8.00e-04,
937,2.40e-03,
938,-1.60e-03,
939,2.40e-03,
940,3.20e-03,
941,-1.60e-03,
942,3.20e-03,
943,-1.60e-03,
944,4.00e-03,
945,-2.40e-03,
946,3.20e-03,
947,-1.60e-03,
948,-8.00e-04,
949,2.80e-03,
950,3.20e-03,
951,-8.00e-04,
952,-8.00e-04,
953,2.80e-03,
954,2.40e-03,
955,-8.00e-04,
956,-1.60e-03,
957,3.20e-03,
958,3.20e-03,
959,-1.60e-03,
960,4.00e-03,
961,-1.60e-03,
962,3.20e-03,
963,-8.00e-04,
964,3.20e-03,
965,-1.60e-03,
966,-8.00e-04,
967,3.20e-03,
968,-1.60e-03,
969,3.20e-03,
970,2.40e-03,
971,-1.60e-03,
972,-2.40e-03,
973,4.00e-03,
974,4.00e-03,
975,-1.60e-03,
976,3.20e-03,
977,-8.00e-04,
978,2.40e-03,
979,-1.60e-03,
980,-1.60e-03,
981,3.20e-03,
982,-8.00e-04,
983,3.20e-03,
984,3.20e-03,
985,-8.00e-04,
986,2.40e-03,
987,-1.60e-03,
988,2.80e-03,
989,-1.60e-03,
990,-8.00e-04,
991,3.20e-03,
992,2.40e-03,
993,-1.60e-03,
994,-1.60e-03,
995,4.00e-03,
996,3.20e-03,
997,-1.60e-03,
998,2.40e-03,
999,-8.00e-04,
1000,-1.60e-03,
1001,3.20e-03,
1002,-8.00e-04,
1003,2.40e-03,
1004,3.20e-03,
1005,-1.60e-03,
1006,3.20e-03,
1007,-8.00e-04,
1008,2.40e-03,
1009,-1.60e-03,
1010,-8.00e-04,
1011,3.20e-03,
1012,-2.40e-03,
1013,2.40e-03,
1014,2.80e-03,
1015,-2.40e-03,
1016,-1.60e-03,
1017,3.20e-03,
1018,4.00e-03,
1019,-1.60e-03,
1020,0.00e+00,
1021,3.20e-03,
1022,3.20e-03,
1023,-8.00e-04,
1024,-1.20e-03,
1025,2.40e-03,
1026,3.20e-03,
1027,-8.00e-04,
1028,-1.60e-03,
1029,3.20e-03,
1030,3.20e-03,
1031,-1.60e-03,
1032,2.40e-03,
1033,-1.60e-03,
1034,2.40e-03,
1035,-1.60e-03,
1036,-2.40e-03,
1037,3.20e-03,
1038,-2.40e-03,
1039,2.40e-03,
1040,2.80e-03,
1041,-1.60e-03,
1042,-1.60e-03,
1043,2.40e-03,
1044,2.40e-03,
1045,-2.40e-03,
1046,3.20e-03,
1047,-8.00e-04,
1048,-1.60e-03,
1049,3.20e-03,
1050,0.00e+00,
1051,3.20e-03,
1052,-1.60e-03,
1053,2.40e-03,
1054,-8.00e-04,
1055,4.00e-03,
1056,-8.00e-04,
1057,3.20e-03,
1058,2.40e-03,
1059,-8.00e-04,
1060,-2.40e-03,
1061,3.20e-03,
1062,3.20e-03,
1063,-8.00e-04,
1064,-8.00e-04,
1065,3.20e-03,
1066,-8.00e-04,
1067,3.20e-03,
1068,2.40e-03,
1069,-8.00e-04,
1070,2.40e-03,
1071,-1.60e-03,
1072,2.40e-03,
1073,-8.00e-04,
1074,-8.00e-04,
1075,3.60e-03,
1076,4.00e-03,
1077,-8.00e-04,
1078,3.20e-03,
1079,-8.00e-04,
1080,5.60e-03,
1081,-1.60e-03,
1082,0.00e+00,
1083,3.20e-03,
1084,-8.00e-04,
1085,3.20e-03,
1086,2.80e-03,
1087,-8.00e-04,
1088,-8.00e-04,
1089,3.20e-03,
1090,-8.00e-04,
1091,3.20e-03,
1092,2.40e-03,
1093,-8.00e-04,
1094,-8.00e-04,
1095,3.20e-03,
1096,-8.00e-04,
1097,2.80e-03,
1098,-8.00e-04,
1099,3.20e-03,
1100,2.40e-03,
1101,0.00e+00,
1102,-8.00e-04,
1103,3.20e-03,
1104,0.00e+00,
1105,3.20e-03,
1106,0.00e+00,
1107,3.20e-03,
1108,-8.00e-04,
1109,3.20e-03,
1110,3.20e-03,
1111,-8.00e-04,
1112,3.20e-03,
1113,-8.00e-04,
1114,3.20e-03,
1115,-8.00e-04,
1116,-1.60e-03,
1117,4.00e-03,
1118,3.20e-03,
1119,-2.40e-03,
1120,4.00e-03,
1121,-8.00e-04,
1122,-8.00e-04,
1123,4.00e-03,
1124,0.00e+00,
1125,4.80e-03,
1126,4.80e-03,
1127,-8.00e-04,
1128,0.00e+00,
1129,3.20e-03,
1130,-8.00e-04,
1131,4.80e-03,
1132,4.80e-03,
1133,0.00e+00,
1134,-1.60e-03,
1135,4.00e-03,
1136,-1.60e-03,
1137,3.60e-03,
1138,3.20e-03,
1139,-8.00e-04,
1140,3.20e-03,
1141,-8.00e-04,
1142,3.20e-03,
1143,-8.00e-04,
1144,0.00e+00,
1145,2.40e-03,
1146,0.00e+00,
1147,3.20e-03,
1148,3.20e-03,
1149,-8.00e-04,
1150,2.40e-03,
1151,-8.00e-04,
1152,3.20e-03,
1153,-8.00e-04,
1154,0.00e+00,
1155,3.20e-03,
1156,0.00e+00,
1157,4.00e-03,
1158,3.20e-03,
1159,-1.60e-03,
1160,-8.00e-04,
1161,4.00e-03,
1162,3.20e-03,
1163,-8.00e-04,
1164,-8.00e-04,
1165,3.20e-03,
1166,4.00e-03,
1167,-1.60e-03,
1168,4.00e-03,
1169,-8.00e-04,
1170,-8.00e-04,
1171,3.20e-03,
1172,-8.00e-04,
1173,2.40e-03,
1174,3.20e-03,
1175,-8.00e-04,
1176,3.20e-03,
1177,-2.40e-03,
1178,-1.60e-03,
1179,3.20e-03,
1180,-1.60e-03,
1181,3.20e-03,
1182,-8.00e-04,
1183,4.00e-03,
1184,-8.00e-04,
1185,4.00e-03,
1186,-8.00e-04,
1187,3.20e-03,
1188,-1.60e-03,
1189,3.20e-03,
1190,3.20e-03,
1191,-8.00e-04,
1192,-1.60e-03,
1193,4.00e-03,
1194,-8.00e-04,
1195,3.20e-03,
1196,2.40e-03,
1197,0.00e+00,
1198,3.20e-03,
1199,-1.60e-03,
