fastdiffamp/data-noise-set/7th/NewFile4.csv

X,CH1,Start,Increment,
Sequence,Volt,-1.200000e-02,2.000000e-05
0,3.20e-03,
1,-1.60e-03,
2,-8.00e-04,
3,3.20e-03,
4,2.40e-03,
5,-1.60e-03,
6,2.40e-03,
7,-8.00e-04,
8,3.20e-03,
9,-8.00e-04,
10,-8.00e-04,
11,4.80e-03,
12,-8.00e-04,
13,3.20e-03,
14,-8.00e-04,
15,3.20e-03,
16,-8.00e-04,
17,3.20e-03,
18,3.20e-03,
19,-8.00e-04,
20,3.20e-03,
21,0.00e+00,
22,3.20e-03,
23,-8.00e-04,
24,0.00e+00,
25,4.00e-03,
26,-1.60e-03,
27,3.20e-03,
28,-8.00e-04,
29,4.00e-03,
30,-8.00e-04,
31,3.20e-03,
32,3.20e-03,
33,-8.00e-04,
34,-8.00e-04,
35,4.80e-03,
36,-8.00e-04,
37,4.00e-03,
38,-8.00e-04,
39,4.00e-03,
40,3.20e-03,
41,-8.00e-04,
42,3.20e-03,
43,-1.20e-03,
44,3.20e-03,
45,-1.60e-03,
46,0.00e+00,
47,3.20e-03,
48,-8.00e-04,
49,2.40e-03,
50,3.20e-03,
51,-1.60e-03,
52,-1.60e-03,
53,4.00e-03,
54,-8.00e-04,
55,2.80e-03,
56,2.40e-03,
57,-8.00e-04,
58,-8.00e-04,
59,3.20e-03,
60,-8.00e-04,
61,3.20e-03,
62,2.40e-03,
63,-1.60e-03,
64,-1.60e-03,
65,3.20e-03,
66,-1.60e-03,
67,3.20e-03,
68,-1.60e-03,
69,2.40e-03,
70,3.20e-03,
71,-2.40e-03,
72,2.40e-03,
73,-1.60e-03,
74,3.20e-03,
75,-2.00e-03,
76,-8.00e-04,
77,2.80e-03,
78,-1.60e-03,
79,3.20e-03,
80,-8.00e-04,
81,4.00e-03,
82,2.80e-03,
83,-1.60e-03,
84,-8.00e-04,
85,3.20e-03,
86,3.20e-03,
87,-1.60e-03,
88,3.20e-03,
89,-1.60e-03,
90,3.20e-03,
91,-2.40e-03,
92,3.20e-03,
93,-1.60e-03,
94,-1.60e-03,
95,2.40e-03,
96,3.20e-03,
97,-1.60e-03,
98,2.40e-03,
99,-1.60e-03,
100,4.00e-03,
101,-2.40e-03,
102,-8.00e-04,
103,3.20e-03,
104,-8.00e-04,
105,3.20e-03,
106,3.20e-03,
107,-1.60e-03,
108,0.00e+00,
109,2.80e-03,
110,2.40e-03,
111,-8.00e-04,
112,2.40e-03,
113,-8.00e-04,
114,4.00e-03,
115,-1.60e-03,
116,3.20e-03,
117,-1.60e-03,
118,3.20e-03,
119,-8.00e-04,
120,-2.40e-03,
121,4.00e-03,
122,-1.60e-03,
123,3.20e-03,
124,-1.60e-03,
125,3.20e-03,
126,-1.60e-03,
127,2.40e-03,
128,1.60e-03,
129,-1.20e-03,
130,3.20e-03,
131,-2.40e-03,
132,2.40e-03,
133,-1.60e-03,
134,-1.60e-03,
135,3.20e-03,
136,-8.00e-04,
137,3.20e-03,
138,2.00e-03,
139,-1.60e-03,
140,-8.00e-04,
141,2.00e-03,
142,-1.60e-03,
143,2.00e-03,
144,2.40e-03,
145,-2.40e-03,
146,1.60e-03,
147,-1.60e-03,
148,2.00e-03,
149,-8.00e-04,
150,-2.40e-03,
151,2.40e-03,
152,4.00e-03,
153,-8.00e-04,
154,1.60e-03,
155,-1.60e-03,
156,3.20e-03,
157,-8.00e-04,
158,-1.60e-03,
159,2.40e-03,
160,-1.60e-03,
161,2.00e-03,
162,-8.00e-04,
163,2.80e-03,
164,-8.00e-04,
165,2.40e-03,
166,2.80e-03,
167,-1.60e-03,
168,-4.00e-04,
169,2.40e-03,
170,-8.00e-04,
171,2.40e-03,
172,-8.00e-04,
173,2.40e-03,
174,2.40e-03,
175,-2.40e-03,
176,2.00e-03,
177,-2.40e-03,
178,2.40e-03,
179,-1.60e-03,
180,2.40e-03,
181,-1.60e-03,
182,4.00e-03,
183,-1.60e-03,
184,2.40e-03,
185,-1.60e-03,
186,3.20e-03,
187,-1.60e-03,
188,-2.40e-03,
189,2.80e-03,
190,0.00e+00,
191,4.00e-03,
192,-8.00e-04,
193,2.40e-03,
194,-8.00e-04,
195,3.20e-03,
196,-8.00e-04,
197,2.40e-03,
198,2.80e-03,
199,-1.60e-03,
200,-8.00e-04,
201,4.80e-03,
202,-8.00e-04,
203,2.80e-03,
204,2.40e-03,
205,-8.00e-04,
206,2.40e-03,
207,-3.20e-03,
208,-3.20e-03,
209,2.40e-03,
210,-2.40e-03,
211,3.20e-03,
212,3.20e-03,
213,-2.40e-03,
214,3.20e-03,
215,-1.60e-03,
216,-2.40e-03,
217,3.20e-03,
218,-1.60e-03,
219,3.60e-03,
220,2.40e-03,
221,-2.40e-03,
222,2.40e-03,
223,-1.60e-03,
224,2.40e-03,
225,-8.00e-04,
226,2.40e-03,
227,-1.60e-03,
228,-1.60e-03,
229,1.60e-03,
230,2.40e-03,
231,-1.60e-03,
232,1.20e-03,
233,-2.40e-03,
234,-1.60e-03,
235,3.20e-03,
236,-1.60e-03,
237,2.40e-03,
238,-2.40e-03,
239,2.40e-03,
240,-2.40e-03,
241,3.20e-03,
242,-1.60e-03,
243,3.20e-03,
244,-2.40e-03,
245,2.40e-03,
246,-1.60e-03,
247,2.40e-03,
248,2.40e-03,
249,-1.60e-03,
250,2.40e-03,
251,-1.60e-03,
252,-8.00e-04,
253,2.00e-03,
254,1.60e-03,
255,-2.40e-03,
256,3.20e-03,
257,-2.40e-03,
258,-1.60e-03,
259,1.60e-03,
260,-1.60e-03,
261,3.20e-03,
262,-1.60e-03,
263,3.20e-03,
264,-1.60e-03,
265,1.60e-03,
266,2.00e-03,
267,-1.60e-03,
268,-1.60e-03,
269,2.40e-03,
270,3.20e-03,
271,-8.00e-04,
272,-1.60e-03,
273,3.20e-03,
274,2.00e-03,
275,-8.00e-04,
276,-1.60e-03,
277,2.40e-03,
278,-1.60e-03,
279,2.80e-03,
280,-1.60e-03,
281,3.20e-03,
282,1.20e-03,
283,-2.40e-03,
284,-1.60e-03,
285,3.20e-03,
286,-8.00e-04,
287,3.20e-03,
288,3.20e-03,
289,-1.60e-03,
290,-8.00e-04,
291,3.20e-03,
292,-1.60e-03,
293,2.00e-03,
294,2.00e-03,
295,-2.40e-03,
296,-1.60e-03,
297,2.40e-03,
298,-2.40e-03,
299,2.40e-03,
300,-1.60e-03,
301,2.80e-03,
302,-8.00e-04,
303,2.40e-03,
304,2.40e-03,
305,-8.00e-04,
306,3.20e-03,
307,-8.00e-04,
308,1.60e-03,
309,-8.00e-04,
310,3.20e-03,
311,-1.60e-03,
312,2.40e-03,
313,-2.40e-03,
314,-2.40e-03,
315,2.40e-03,
316,-1.60e-03,
317,2.40e-03,
318,-1.60e-03,
319,2.80e-03,
320,-1.60e-03,
321,2.80e-03,
322,2.40e-03,
323,-1.60e-03,
324,-1.60e-03,
325,1.60e-03,
326,-1.60e-03,
327,3.20e-03,
328,-1.60e-03,
329,3.20e-03,
330,3.20e-03,
331,-1.60e-03,
332,2.40e-03,
333,-8.00e-04,
334,-8.00e-04,
335,2.40e-03,
336,2.40e-03,
337,-1.60e-03,
338,2.80e-03,
339,-1.60e-03,
340,2.80e-03,
341,-2.40e-03,
342,-1.60e-03,
343,4.00e-03,
344,3.20e-03,
345,-1.60e-03,
346,-1.60e-03,
347,2.40e-03,
348,2.40e-03,
349,-1.60e-03,
350,-8.00e-04,
351,4.00e-03,
352,2.00e-03,
353,-2.40e-03,
354,-2.40e-03,
355,2.40e-03,
356,2.40e-03,
357,-1.60e-03,
358,1.60e-03,
359,-1.60e-03,
360,-1.60e-03,
361,3.20e-03,
362,-8.00e-04,
363,3.20e-03,
364,-1.60e-03,
365,2.40e-03,
366,-8.00e-04,
367,3.20e-03,
368,-1.60e-03,
369,2.40e-03,
370,2.40e-03,
371,-8.00e-04,
372,2.80e-03,
373,0.00e+00,
374,-8.00e-04,
375,2.80e-03,
376,1.60e-03,
377,-8.00e-04,
378,3.20e-03,
379,-8.00e-04,
380,3.20e-03,
381,-1.60e-03,
382,2.40e-03,
383,-8.00e-04,
384,2.40e-03,
385,-1.60e-03,
386,2.40e-03,
387,-1.60e-03,
388,-1.60e-03,
389,3.20e-03,
390,1.60e-03,
391,-8.00e-04,
392,-1.60e-03,
393,3.60e-03,
394,2.40e-03,
395,-1.60e-03,
396,3.20e-03,
397,-1.60e-03,
398,-1.60e-03,
399,3.20e-03,
400,2.40e-03,
401,-2.40e-03,
402,3.20e-03,
403,-8.00e-04,
404,-8.00e-04,
405,3.20e-03,
406,-8.00e-04,
407,3.20e-03,
408,-2.40e-03,
409,4.00e-03,
410,2.40e-03,
411,-8.00e-04,
412,-8.00e-04,
413,3.20e-03,
414,-8.00e-04,
415,4.00e-03,
416,3.20e-03,
417,-8.00e-04,
418,2.40e-03,
419,-1.60e-03,
420,-8.00e-04,
421,3.20e-03,
422,-8.00e-04,
423,3.20e-03,
424,-1.60e-03,
425,2.40e-03,
426,2.40e-03,
427,-8.00e-04,
428,2.40e-03,
429,-1.60e-03,
430,-8.00e-04,
431,3.20e-03,
432,3.20e-03,
433,-8.00e-04,
434,3.20e-03,
435,-1.60e-03,
436,2.40e-03,
437,-2.40e-03,
438,3.20e-03,
439,-2.40e-03,
440,-8.00e-04,
441,3.20e-03,
442,-1.60e-03,
443,3.60e-03,
444,3.20e-03,
445,-1.60e-03,
446,3.20e-03,
447,-2.40e-03,
448,-1.60e-03,
449,3.20e-03,
450,2.40e-03,
451,-1.60e-03,
452,3.20e-03,
453,-8.00e-04,
454,-8.00e-04,
455,2.40e-03,
456,-1.60e-03,
457,4.00e-03,
458,3.20e-03,
459,-8.00e-04,
460,3.20e-03,
461,-1.60e-03,
462,-2.40e-03,
463,2.40e-03,
464,0.00e+00,
465,3.20e-03,
466,3.20e-03,
467,-8.00e-04,
468,3.20e-03,
469,-1.60e-03,
470,-8.00e-04,
471,3.20e-03,
472,-1.60e-03,
473,2.00e-03,
474,-8.00e-04,
475,4.00e-03,
476,-8.00e-04,
477,3.20e-03,
478,-8.00e-04,
479,2.40e-03,
480,0.00e+00,
481,3.20e-03,
482,3.20e-03,
483,-8.00e-04,
484,3.20e-03,
485,-8.00e-04,
486,2.40e-03,
487,-8.00e-04,
488,3.20e-03,
489,-1.60e-03,
490,-1.60e-03,
491,3.20e-03,
492,3.20e-03,
493,-1.60e-03,
494,3.20e-03,
495,-8.00e-04,
496,2.40e-03,
497,-2.40e-03,
498,3.20e-03,
499,-1.60e-03,
500,-1.60e-03,
501,4.00e-03,
502,-1.60e-03,
503,4.00e-03,
504,0.00e+00,
505,2.40e-03,
506,-8.00e-04,
507,3.20e-03,
508,3.20e-03,
509,-1.60e-03,
510,4.00e-03,
511,-8.00e-04,
512,2.40e-03,
513,-8.00e-04,
514,0.00e+00,
515,3.20e-03,
516,-1.60e-03,
517,4.00e-03,
518,0.00e+00,
519,4.00e-03,
520,2.40e-03,
521,-8.00e-04,
522,-8.00e-04,
523,3.20e-03,
524,-1.60e-03,
525,3.20e-03,
526,-1.60e-03,
527,3.20e-03,
528,0.00e+00,
529,4.00e-03,
530,0.00e+00,
531,2.40e-03,
532,0.00e+00,
533,3.20e-03,
534,2.80e-03,
535,-1.60e-03,
536,3.20e-03,
537,-8.00e-04,
538,3.20e-03,
539,-1.60e-03,
540,3.20e-03,
541,0.00e+00,
542,-1.60e-03,
543,4.00e-03,
544,4.00e-03,
545,-1.60e-03,
546,-8.00e-04,
547,4.00e-03,
548,4.00e-03,
549,-8.00e-04,
550,-1.60e-03,
551,3.20e-03,
552,-8.00e-04,
553,3.20e-03,
554,4.00e-03,
555,0.00e+00,
556,3.20e-03,
557,0.00e+00,
558,3.20e-03,
559,0.00e+00,
560,8.00e-04,
561,3.20e-03,
562,0.00e+00,
563,4.00e-03,
564,2.40e-03,
565,-8.00e-04,
566,0.00e+00,
567,4.00e-03,
568,4.00e-03,
569,-8.00e-04,
570,0.00e+00,
571,3.20e-03,
572,4.00e-03,
573,-8.00e-04,
574,3.20e-03,
575,-8.00e-04,
576,0.00e+00,
577,4.00e-03,
578,0.00e+00,
579,4.00e-03,
580,3.20e-03,
581,0.00e+00,
582,3.20e-03,
583,-8.00e-04,
584,4.00e-03,
585,-8.00e-04,
586,3.20e-03,
587,-8.00e-04,
588,3.20e-03,
589,-8.00e-04,
590,-1.60e-03,
591,4.00e-03,
592,-8.00e-04,
593,3.20e-03,
594,3.20e-03,
595,-2.40e-03,
596,3.20e-03,
597,0.00e+00,
598,4.00e-03,
599,-8.00e-04,
600,-8.00e-04,
601,3.20e-03,
602,3.20e-03,
603,-8.00e-04,
604,0.00e+00,
605,3.20e-03,
606,3.20e-03,
607,-8.00e-04,
608,0.00e+00,
609,4.00e-03,
610,4.00e-03,
611,-1.60e-03,
612,-8.00e-04,
613,4.00e-03,
614,3.20e-03,
615,-1.60e-03,
616,3.20e-03,
617,-1.60e-03,
618,0.00e+00,
619,4.80e-03,
620,0.00e+00,
621,3.20e-03,
622,-8.00e-04,
623,4.00e-03,
624,3.20e-03,
625,-8.00e-04,
626,-8.00e-04,
627,3.20e-03,
628,3.20e-03,
629,-8.00e-04,
630,0.00e+00,
631,3.20e-03,
632,0.00e+00,
633,4.00e-03,
634,-8.00e-04,
635,4.00e-03,
636,-8.00e-04,
637,4.00e-03,
638,-8.00e-04,
639,4.00e-03,
640,-1.60e-03,
641,3.20e-03,
642,4.00e-03,
643,-8.00e-04,
644,3.20e-03,
645,-8.00e-04,
646,4.00e-03,
647,0.00e+00,
648,0.00e+00,
649,3.20e-03,
650,0.00e+00,
651,4.00e-03,
652,-8.00e-04,
653,3.20e-03,
654,3.20e-03,
655,-1.60e-03,
656,-1.60e-03,
657,4.00e-03,
658,3.20e-03,
659,-8.00e-04,
660,-8.00e-04,
661,4.00e-03,
662,3.20e-03,
663,-8.00e-04,
664,3.20e-03,
665,-1.60e-03,
666,3.20e-03,
667,-8.00e-04,
668,-8.00e-04,
669,3.20e-03,
670,2.40e-03,
671,-8.00e-04,
672,2.80e-03,
673,-1.60e-03,
674,3.20e-03,
675,-8.00e-04,
676,-8.00e-04,
677,3.20e-03,
678,2.40e-03,
679,-8.00e-04,
680,-8.00e-04,
681,4.00e-03,
682,-8.00e-04,
683,4.00e-03,
684,-8.00e-04,
685,4.00e-03,
686,3.20e-03,
687,-1.60e-03,
688,-1.60e-03,
689,3.20e-03,
690,4.00e-03,
691,-8.00e-04,
692,-8.00e-04,
693,3.20e-03,
694,-8.00e-04,
695,3.20e-03,
696,-8.00e-04,
697,3.20e-03,
698,-8.00e-04,
699,5.60e-03,
700,3.20e-03,
701,-8.00e-04,
702,2.40e-03,
703,-8.00e-04,
704,0.00e+00,
705,4.00e-03,
706,0.00e+00,
707,4.00e-03,
708,3.20e-03,
709,0.00e+00,
710,3.20e-03,
711,-8.00e-04,
712,3.20e-03,
713,0.00e+00,
714,-8.00e-04,
715,3.20e-03,
716,4.00e-03,
717,-8.00e-04,
718,4.00e-03,
719,-8.00e-04,
720,3.20e-03,
721,-1.60e-03,
722,0.00e+00,
723,3.20e-03,
724,3.20e-03,
725,0.00e+00,
726,3.20e-03,
727,-8.00e-04,
728,-8.00e-04,
729,3.20e-03,
730,0.00e+00,
731,3.20e-03,
732,4.00e-03,
733,-8.00e-04,
734,3.20e-03,
735,-8.00e-04,
736,-8.00e-04,
737,3.20e-03,
738,2.40e-03,
739,-8.00e-04,
740,-1.60e-03,
741,3.20e-03,
742,3.20e-03,
743,-8.00e-04,
744,0.00e+00,
745,4.00e-03,
746,-1.60e-03,
747,3.20e-03,
748,3.20e-03,
749,-8.00e-04,
750,-1.60e-03,
751,4.00e-03,
752,-1.60e-03,
753,4.00e-03,
754,4.00e-03,
755,-8.00e-04,
756,-8.00e-04,
757,3.20e-03,
758,-8.00e-04,
759,4.00e-03,
760,4.00e-03,
761,-8.00e-04,
762,3.20e-03,
763,-8.00e-04,
764,3.20e-03,
765,0.00e+00,
766,3.20e-03,
767,0.00e+00,
768,4.00e-03,
769,-8.00e-04,
770,0.00e+00,
771,4.00e-03,
772,-8.00e-04,
773,2.80e-03,
774,3.20e-03,
775,0.00e+00,
776,3.20e-03,
777,-8.00e-04,
778,-8.00e-04,
779,3.20e-03,
780,-8.00e-04,
781,4.00e-03,
782,3.60e-03,
783,-8.00e-04,
784,-8.00e-04,
785,3.20e-03,
786,3.20e-03,
787,-1.60e-03,
788,3.20e-03,
789,-8.00e-04,
790,-8.00e-04,
791,4.00e-03,
792,-8.00e-04,
793,3.20e-03,
794,3.20e-03,
795,-8.00e-04,
796,4.00e-03,
797,0.00e+00,
798,0.00e+00,
799,4.00e-03,
800,4.00e-03,
801,-8.00e-04,
802,-8.00e-04,
803,3.20e-03,
804,-1.60e-03,
805,3.20e-03,
806,0.00e+00,
807,4.00e-03,
808,0.00e+00,
809,3.20e-03,
810,3.20e-03,
811,-8.00e-04,
812,3.20e-03,
813,0.00e+00,
814,3.20e-03,
815,-8.00e-04,
816,-8.00e-04,
817,3.20e-03,
818,0.00e+00,
819,4.00e-03,
820,4.00e-03,
821,-8.00e-04,
822,4.00e-03,
823,-8.00e-04,
824,-8.00e-04,
825,4.00e-03,
826,0.00e+00,
827,4.00e-03,
828,0.00e+00,
829,4.00e-03,
830,3.20e-03,
831,-1.60e-03,
832,0.00e+00,
833,3.60e-03,
834,4.00e-03,
835,0.00e+00,
836,4.00e-03,
837,0.00e+00,
838,0.00e+00,
839,4.00e-03,
840,0.00e+00,
841,4.80e-03,
842,4.80e-03,
843,0.00e+00,
844,-8.00e-04,
845,4.00e-03,
846,0.00e+00,
847,4.00e-03,
848,4.00e-03,
849,-8.00e-04,
850,4.00e-03,
851,-8.00e-04,
852,4.00e-03,
853,-8.00e-04,
854,-8.00e-04,
855,4.00e-03,
856,3.20e-03,
857,-8.00e-04,
858,-8.00e-04,
859,4.00e-03,
860,3.20e-03,
861,-8.00e-04,
862,-8.00e-04,
863,4.00e-03,
864,0.00e+00,
865,4.00e-03,
866,4.00e-03,
867,-1.60e-03,
868,-8.00e-04,
869,4.00e-03,
870,0.00e+00,
871,4.80e-03,
872,0.00e+00,
873,4.00e-03,
874,4.00e-03,
875,0.00e+00,
876,-1.60e-03,
877,3.20e-03,
878,-8.00e-04,
879,2.40e-03,
880,2.40e-03,
881,-8.00e-04,
882,4.00e-03,
883,-8.00e-04,
884,0.00e+00,
885,4.00e-03,
886,3.20e-03,
887,-8.00e-04,
888,3.20e-03,
889,0.00e+00,
890,0.00e+00,
891,3.20e-03,
892,4.00e-03,
893,-1.60e-03,
894,3.20e-03,
895,-1.60e-03,
896,2.80e-03,
897,-8.00e-04,
898,2.40e-03,
899,-8.00e-04,
900,3.20e-03,
901,-8.00e-04,
902,3.20e-03,
903,0.00e+00,
904,-8.00e-04,
905,4.00e-03,
906,-8.00e-04,
907,4.00e-03,
908,-8.00e-04,
909,3.20e-03,
910,0.00e+00,
911,4.00e-03,
912,0.00e+00,
913,3.20e-03,
914,3.20e-03,
915,0.00e+00,
916,3.20e-03,
917,-8.00e-04,
918,-1.60e-03,
919,3.20e-03,
920,-2.40e-03,
921,2.40e-03,
922,-8.00e-04,
923,2.40e-03,
924,4.00e-03,
925,-1.60e-03,
926,2.40e-03,
927,-1.60e-03,
928,-8.00e-04,
929,4.00e-03,
930,-1.60e-03,
931,3.20e-03,
932,-8.00e-04,
933,2.40e-03,
934,-8.00e-04,
935,3.20e-03,
936,2.40e-03,
937,-8.00e-04,
938,-1.60e-03,
939,2.80e-03,
940,0.00e+00,
941,3.20e-03,
942,2.80e-03,
943,0.00e+00,
944,3.20e-03,
945,-2.40e-03,
946,-1.60e-03,
947,3.20e-03,
948,4.00e-03,
949,-8.00e-04,
950,0.00e+00,
951,2.40e-03,
952,3.20e-03,
953,-8.00e-04,
954,3.20e-03,
955,0.00e+00,
956,4.00e-03,
957,-8.00e-04,
958,2.80e-03,
959,-8.00e-04,
960,2.40e-03,
961,-8.00e-04,
962,0.00e+00,
963,4.00e-03,
964,2.40e-03,
965,-8.00e-04,
966,-8.00e-04,
967,4.00e-03,
968,0.00e+00,
969,4.00e-03,
970,3.20e-03,
971,-1.60e-03,
972,-1.60e-03,
973,3.20e-03,
974,3.20e-03,
975,-8.00e-04,
976,-8.00e-04,
977,3.20e-03,
978,-8.00e-04,
979,3.20e-03,
980,-2.40e-03,
981,2.40e-03,
982,-8.00e-04,
983,2.40e-03,
984,-1.60e-03,
985,3.20e-03,
986,-1.60e-03,
987,4.80e-03,
988,-8.00e-04,
989,4.00e-03,
990,-8.00e-04,
991,3.20e-03,
992,3.20e-03,
993,-1.60e-03,
994,2.40e-03,
995,-8.00e-04,
996,2.40e-03,
997,-1.60e-03,
998,-2.40e-03,
999,3.20e-03,
1000,2.40e-03,
1001,-1.60e-03,
1002,-8.00e-04,
1003,3.20e-03,
1004,2.40e-03,
1005,-8.00e-04,
1006,-1.60e-03,
1007,2.80e-03,
1008,2.40e-03,
1009,-1.60e-03,
1010,-1.60e-03,
1011,3.20e-03,
1012,-2.40e-03,
1013,2.40e-03,
1014,2.40e-03,
1015,-1.60e-03,
1016,1.60e-03,
1017,-2.40e-03,
1018,2.40e-03,
1019,-2.40e-03,
1020,3.20e-03,
1021,-2.40e-03,
1022,-1.60e-03,
1023,3.20e-03,
1024,1.60e-03,
1025,-8.00e-04,
1026,2.80e-03,
1027,-1.60e-03,
1028,-1.60e-03,
1029,1.60e-03,
1030,-1.60e-03,
1031,2.40e-03,
1032,-8.00e-04,
1033,3.20e-03,
1034,-1.60e-03,
1035,3.20e-03,
1036,3.20e-03,
1037,-1.60e-03,
1038,-8.00e-04,
1039,2.40e-03,
1040,3.20e-03,
1041,-1.60e-03,
1042,2.40e-03,
1043,-1.60e-03,
1044,-1.60e-03,
1045,3.20e-03,
1046,2.40e-03,
1047,-2.40e-03,
1048,2.00e-03,
1049,-1.60e-03,
1050,3.20e-03,
1051,-2.40e-03,
1052,-2.40e-03,
1053,3.20e-03,
1054,2.40e-03,
1055,-1.60e-03,
1056,2.40e-03,
1057,-1.60e-03,
1058,-1.60e-03,
1059,2.40e-03,
1060,-1.60e-03,
1061,2.40e-03,
1062,-1.60e-03,
1063,1.60e-03,
1064,2.00e-03,
1065,-8.00e-04,
1066,-2.40e-03,
1067,3.20e-03,
1068,3.20e-03,
1069,-1.60e-03,
1070,3.20e-03,
1071,-1.60e-03,
1072,-8.00e-04,
1073,3.20e-03,
1074,2.80e-03,
1075,-2.40e-03,
1076,2.40e-03,
1077,-1.60e-03,
1078,3.20e-03,
1079,-1.60e-03,
1080,-2.40e-03,
1081,2.40e-03,
1082,-1.60e-03,
1083,4.00e-03,
1084,2.40e-03,
1085,-1.60e-03,
1086,2.40e-03,
1087,-1.60e-03,
1088,-1.60e-03,
1089,3.60e-03,
1090,1.60e-03,
1091,-2.40e-03,
1092,-1.60e-03,
1093,1.60e-03,
1094,2.00e-03,
1095,-1.60e-03,
1096,-1.60e-03,
1097,2.40e-03,
1098,2.40e-03,
1099,-1.60e-03,
1100,3.20e-03,
1101,-2.40e-03,
1102,2.40e-03,
1103,-1.60e-03,
1104,-1.60e-03,
1105,2.00e-03,
1106,3.20e-03,
1107,-2.40e-03,
1108,-1.60e-03,
1109,2.40e-03,
1110,-1.60e-03,
1111,2.80e-03,
1112,2.40e-03,
1113,-2.40e-03,
1114,3.20e-03,
1115,-1.60e-03,
1116,1.60e-03,
1117,-1.60e-03,
1118,2.00e-03,
1119,-1.60e-03,
1120,-1.60e-03,
1121,2.40e-03,
1122,3.20e-03,
1123,-1.60e-03,
1124,-1.60e-03,
1125,2.00e-03,
1126,-1.60e-03,
1127,2.80e-03,
1128,-3.20e-03,
1129,2.80e-03,
1130,2.40e-03,
1131,-1.60e-03,
1132,2.40e-03,
1133,-2.40e-03,
1134,-1.60e-03,
1135,2.00e-03,
1136,3.20e-03,
1137,-8.00e-04,
1138,2.40e-03,
1139,-1.60e-03,
1140,1.60e-03,
1141,-1.60e-03,
1142,-1.60e-03,
1143,4.00e-03,
1144,-1.60e-03,
1145,3.20e-03,
1146,2.00e-03,
1147,-1.60e-03,
1148,2.40e-03,
1149,-2.40e-03,
1150,-1.60e-03,
1151,2.40e-03,
1152,-8.00e-04,
1153,3.20e-03,
1154,3.20e-03,
1155,-2.40e-03,
1156,2.40e-03,
1157,-1.60e-03,
1158,3.20e-03,
1159,-1.60e-03,
1160,2.40e-03,
1161,-2.40e-03,
1162,2.00e-03,
1163,-3.20e-03,
1164,-2.40e-03,
1165,3.20e-03,
1166,2.40e-03,
1167,-1.60e-03,
1168,2.40e-03,
1169,-2.40e-03,
1170,-3.20e-03,
1171,2.40e-03,
1172,2.40e-03,
1173,-1.60e-03,
1174,-1.60e-03,
1175,2.40e-03,
1176,2.40e-03,
1177,-1.60e-03,
1178,-2.40e-03,
1179,4.00e-03,
1180,2.80e-03,
1181,-1.60e-03,
1182,2.40e-03,
1183,-2.40e-03,
1184,-8.00e-04,
1185,2.40e-03,
1186,-8.00e-04,
1187,4.00e-03,
1188,2.40e-03,
1189,-1.60e-03,
1190,2.00e-03,
1191,-1.60e-03,
1192,-1.60e-03,
1193,2.00e-03,
1194,2.40e-03,
1195,-1.60e-03,
1196,-1.60e-03,
1197,2.40e-03,
1198,3.20e-03,
1199,-1.60e-03,
