fastdiffamp/data-noise-set/7th/NewFile8.csv

X,CH1,Start,Increment,
Sequence,Volt,-1.200000e-02,2.000000e-05
0,0.00e+00,
1,3.20e-03,
2,0.00e+00,
3,3.20e-03,
4,0.00e+00,
5,4.00e-03,
6,0.00e+00,
7,3.20e-03,
8,3.20e-03,
9,-8.00e-04,
10,0.00e+00,
11,2.40e-03,
12,0.00e+00,
13,3.20e-03,
14,-1.60e-03,
15,3.20e-03,
16,-8.00e-04,
17,2.80e-03,
18,0.00e+00,
19,3.20e-03,
20,2.40e-03,
21,0.00e+00,
22,-8.00e-04,
23,3.20e-03,
24,2.40e-03,
25,-8.00e-04,
26,-8.00e-04,
27,3.20e-03,
28,-8.00e-04,
29,4.00e-03,
30,2.40e-03,
31,-8.00e-04,
32,-8.00e-04,
33,2.40e-03,
34,2.40e-03,
35,-8.00e-04,
36,2.40e-03,
37,-8.00e-04,
38,2.40e-03,
39,0.00e+00,
40,-8.00e-04,
41,2.40e-03,
42,2.40e-03,
43,-8.00e-04,
44,0.00e+00,
45,2.40e-03,
46,0.00e+00,
47,2.40e-03,
48,3.20e-03,
49,0.00e+00,
50,0.00e+00,
51,3.20e-03,
52,-8.00e-04,
53,3.20e-03,
54,2.40e-03,
55,-8.00e-04,
56,-1.60e-03,
57,3.20e-03,
58,2.40e-03,
59,0.00e+00,
60,-8.00e-04,
61,2.40e-03,
62,2.40e-03,
63,0.00e+00,
64,0.00e+00,
65,4.00e-03,
66,2.40e-03,
67,-8.00e-04,
68,3.20e-03,
69,-8.00e-04,
70,3.20e-03,
71,-1.60e-03,
72,3.20e-03,
73,-8.00e-04,
74,-8.00e-04,
75,2.40e-03,
76,-8.00e-04,
77,3.20e-03,
78,3.20e-03,
79,-8.00e-04,
80,-8.00e-04,
81,2.40e-03,
82,-1.60e-03,
83,2.40e-03,
84,-8.00e-04,
85,2.80e-03,
86,2.40e-03,
87,-1.60e-03,
88,2.40e-03,
89,-1.60e-03,
90,-8.00e-04,
91,2.40e-03,
92,2.40e-03,
93,0.00e+00,
94,2.40e-03,
95,-8.00e-04,
96,3.20e-03,
97,-8.00e-04,
98,-8.00e-04,
99,2.40e-03,
100,-8.00e-04,
101,2.40e-03,
102,3.20e-03,
103,-8.00e-04,
104,-8.00e-04,
105,2.40e-03,
106,3.20e-03,
107,-8.00e-04,
108,-1.60e-03,
109,2.00e-03,
110,-8.00e-04,
111,2.40e-03,
112,2.40e-03,
113,-4.00e-04,
114,2.40e-03,
115,-8.00e-04,
116,3.20e-03,
117,-8.00e-04,
118,2.40e-03,
119,-8.00e-04,
120,2.80e-03,
121,-1.60e-03,
122,3.20e-03,
123,-8.00e-04,
124,-8.00e-04,
125,2.40e-03,
126,-8.00e-04,
127,2.40e-03,
128,2.40e-03,
129,-8.00e-04,
130,2.80e-03,
131,-8.00e-04,
132,-8.00e-04,
133,2.40e-03,
134,-1.60e-03,
135,2.00e-03,
136,-8.00e-04,
137,2.00e-03,
138,1.60e-03,
139,-8.00e-04,
140,3.20e-03,
141,-8.00e-04,
142,2.40e-03,
143,-1.60e-03,
144,-1.60e-03,
145,2.40e-03,
146,-8.00e-04,
147,2.40e-03,
148,-8.00e-04,
149,2.40e-03,
150,2.40e-03,
151,-1.60e-03,
152,1.60e-03,
153,-8.00e-04,
154,2.40e-03,
155,-8.00e-04,
156,3.20e-03,
157,-1.60e-03,
158,1.60e-03,
159,-8.00e-04,
160,2.40e-03,
161,-8.00e-04,
162,0.00e+00,
163,2.40e-03,
164,2.40e-03,
165,-8.00e-04,
166,-8.00e-04,
167,2.40e-03,
168,0.00e+00,
169,2.40e-03,
170,2.40e-03,
171,-8.00e-04,
172,2.40e-03,
173,-8.00e-04,
174,0.00e+00,
175,3.20e-03,
176,-8.00e-04,
177,4.00e-03,
178,3.20e-03,
179,-8.00e-04,
180,-8.00e-04,
181,2.80e-03,
182,-8.00e-04,
183,3.20e-03,
184,-8.00e-04,
185,2.40e-03,
186,0.00e+00,
187,3.20e-03,
188,2.40e-03,
189,0.00e+00,
190,0.00e+00,
191,3.20e-03,
192,8.00e-04,
193,3.20e-03,
194,0.00e+00,
195,3.20e-03,
196,0.00e+00,
197,2.40e-03,
198,-8.00e-04,
199,3.20e-03,
200,-8.00e-04,
201,3.20e-03,
202,0.00e+00,
203,2.40e-03,
204,2.40e-03,
205,0.00e+00,
206,3.20e-03,
207,-8.00e-04,
208,0.00e+00,
209,3.20e-03,
210,0.00e+00,
211,3.20e-03,
212,2.80e-03,
213,-8.00e-04,
214,2.40e-03,
215,-8.00e-04,
216,-8.00e-04,
217,2.80e-03,
218,2.40e-03,
219,-8.00e-04,
220,3.20e-03,
221,0.00e+00,
222,-8.00e-04,
223,4.00e-03,
224,2.40e-03,
225,-8.00e-04,
226,2.40e-03,
227,-8.00e-04,
228,2.40e-03,
229,0.00e+00,
230,0.00e+00,
231,2.40e-03,
232,2.80e-03,
233,0.00e+00,
234,-8.00e-04,
235,3.20e-03,
236,0.00e+00,
237,3.20e-03,
238,-8.00e-04,
239,2.80e-03,
240,-8.00e-04,
241,3.20e-03,
242,0.00e+00,
243,3.20e-03,
244,3.20e-03,
245,-8.00e-04,
246,-8.00e-04,
247,3.20e-03,
248,-8.00e-04,
249,3.20e-03,
250,0.00e+00,
251,2.40e-03,
252,-8.00e-04,
253,2.40e-03,
254,0.00e+00,
255,2.40e-03,
256,2.40e-03,
257,-8.00e-04,
258,0.00e+00,
259,2.40e-03,
260,-8.00e-04,
261,3.20e-03,
262,2.80e-03,
263,-8.00e-04,
264,0.00e+00,
265,3.20e-03,
266,0.00e+00,
267,3.20e-03,
268,-8.00e-04,
269,3.20e-03,
270,0.00e+00,
271,3.20e-03,
272,2.40e-03,
273,-8.00e-04,
274,0.00e+00,
275,3.20e-03,
276,2.40e-03,
277,0.00e+00,
278,0.00e+00,
279,3.20e-03,
280,0.00e+00,
281,3.20e-03,
282,8.00e-04,
283,3.20e-03,
284,-8.00e-04,
285,4.00e-03,
286,0.00e+00,
287,3.20e-03,
288,0.00e+00,
289,2.40e-03,
290,-8.00e-04,
291,4.00e-03,
292,0.00e+00,
293,4.00e-03,
294,-8.00e-04,
295,3.20e-03,
296,8.00e-04,
297,3.20e-03,
298,2.40e-03,
299,0.00e+00,
300,4.00e-03,
301,-8.00e-04,
302,3.20e-03,
303,-8.00e-04,
304,0.00e+00,
305,3.20e-03,
306,0.00e+00,
307,3.20e-03,
308,0.00e+00,
309,2.80e-03,
310,0.00e+00,
311,3.20e-03,
312,3.20e-03,
313,-4.00e-04,
314,8.00e-04,
315,4.00e-03,
316,0.00e+00,
317,3.20e-03,
318,0.00e+00,
319,3.20e-03,
320,8.00e-04,
321,4.00e-03,
322,3.20e-03,
323,0.00e+00,
324,0.00e+00,
325,3.20e-03,
326,0.00e+00,
327,4.00e-03,
328,3.20e-03,
329,0.00e+00,
330,0.00e+00,
331,4.00e-03,
332,8.00e-04,
333,2.80e-03,
334,0.00e+00,
335,3.20e-03,
336,0.00e+00,
337,4.00e-03,
338,-8.00e-04,
339,3.20e-03,
340,0.00e+00,
341,3.20e-03,
342,3.20e-03,
343,-8.00e-04,
344,0.00e+00,
345,4.00e-03,
346,3.20e-03,
347,0.00e+00,
348,3.20e-03,
349,0.00e+00,
350,3.20e-03,
351,0.00e+00,
352,4.00e-03,
353,0.00e+00,
354,4.00e-03,
355,0.00e+00,
356,3.20e-03,
357,0.00e+00,
358,2.80e-03,
359,0.00e+00,
360,8.00e-04,
361,4.00e-03,
362,4.00e-03,
363,0.00e+00,
364,3.20e-03,
365,0.00e+00,
366,3.20e-03,
367,0.00e+00,
368,4.00e-03,
369,0.00e+00,
370,3.20e-03,
371,0.00e+00,
372,0.00e+00,
373,4.00e-03,
374,8.00e-04,
375,4.00e-03,
376,4.00e-03,
377,0.00e+00,
378,0.00e+00,
379,3.20e-03,
380,8.00e-04,
381,4.00e-03,
382,3.20e-03,
383,0.00e+00,
384,3.20e-03,
385,0.00e+00,
386,0.00e+00,
387,3.20e-03,
388,2.40e-03,
389,0.00e+00,
390,8.00e-04,
391,3.20e-03,
392,3.20e-03,
393,0.00e+00,
394,4.00e-03,
395,0.00e+00,
396,0.00e+00,
397,4.00e-03,
398,4.00e-03,
399,0.00e+00,
400,0.00e+00,
401,3.20e-03,
402,3.20e-03,
403,0.00e+00,
404,0.00e+00,
405,3.20e-03,
406,3.20e-03,
407,-8.00e-04,
408,0.00e+00,
409,3.20e-03,
410,0.00e+00,
411,4.00e-03,
412,2.40e-03,
413,8.00e-04,
414,3.20e-03,
415,0.00e+00,
416,4.00e-03,
417,-4.00e-04,
418,-8.00e-04,
419,4.00e-03,
420,3.20e-03,
421,0.00e+00,
422,8.00e-04,
423,4.00e-03,
424,4.80e-03,
425,0.00e+00,
426,0.00e+00,
427,4.00e-03,
428,8.00e-04,
429,3.20e-03,
430,0.00e+00,
431,3.20e-03,
432,3.20e-03,
433,8.00e-04,
434,3.20e-03,
435,0.00e+00,
436,8.00e-04,
437,3.20e-03,
438,8.00e-04,
439,4.00e-03,
440,8.00e-04,
441,3.20e-03,
442,3.20e-03,
443,0.00e+00,
444,0.00e+00,
445,3.20e-03,
446,3.20e-03,
447,0.00e+00,
448,0.00e+00,
449,4.00e-03,
450,3.20e-03,
451,0.00e+00,
452,3.20e-03,
453,0.00e+00,
454,-8.00e-04,
455,4.00e-03,
456,0.00e+00,
457,4.00e-03,
458,-8.00e-04,
459,4.00e-03,
460,0.00e+00,
461,3.20e-03,
462,3.20e-03,
463,0.00e+00,
464,0.00e+00,
465,3.20e-03,
466,0.00e+00,
467,4.00e-03,
468,0.00e+00,
469,3.20e-03,
470,8.00e-04,
471,4.80e-03,
472,2.40e-03,
473,0.00e+00,
474,0.00e+00,
475,3.20e-03,
476,3.20e-03,
477,0.00e+00,
478,0.00e+00,
479,3.60e-03,
480,0.00e+00,
481,3.20e-03,
482,0.00e+00,
483,3.20e-03,
484,3.20e-03,
485,-8.00e-04,
486,2.40e-03,
487,0.00e+00,
488,0.00e+00,
489,2.40e-03,
490,4.00e-03,
491,-8.00e-04,
492,0.00e+00,
493,2.40e-03,
494,0.00e+00,
495,2.40e-03,
496,-8.00e-04,
497,3.20e-03,
498,0.00e+00,
499,3.20e-03,
500,3.20e-03,
501,0.00e+00,
502,3.20e-03,
503,0.00e+00,
504,0.00e+00,
505,2.40e-03,
506,2.40e-03,
507,0.00e+00,
508,-8.00e-04,
509,2.80e-03,
510,2.40e-03,
511,0.00e+00,
512,-8.00e-04,
513,3.20e-03,
514,0.00e+00,
515,3.20e-03,
516,2.40e-03,
517,-8.00e-04,
518,0.00e+00,
519,3.20e-03,
520,2.40e-03,
521,-8.00e-04,
522,3.20e-03,
523,-1.60e-03,
524,-1.60e-03,
525,3.20e-03,
526,3.20e-03,
527,0.00e+00,
528,0.00e+00,
529,3.20e-03,
530,-8.00e-04,
531,3.20e-03,
532,-8.00e-04,
533,2.40e-03,
534,-1.60e-03,
535,3.20e-03,
536,2.40e-03,
537,-8.00e-04,
538,0.00e+00,
539,3.20e-03,
540,2.40e-03,
541,0.00e+00,
542,3.20e-03,
543,-8.00e-04,
544,-8.00e-04,
545,3.20e-03,
546,2.40e-03,
547,-8.00e-04,
548,2.80e-03,
549,-8.00e-04,
550,2.40e-03,
551,0.00e+00,
552,2.40e-03,
553,0.00e+00,
554,4.00e-03,
555,0.00e+00,
556,2.40e-03,
557,-8.00e-04,
558,-1.60e-03,
559,2.40e-03,
560,3.20e-03,
561,-1.60e-03,
562,-1.60e-03,
563,2.40e-03,
564,-8.00e-04,
565,2.40e-03,
566,-8.00e-04,
567,3.20e-03,
568,2.40e-03,
569,-8.00e-04,
570,0.00e+00,
571,2.80e-03,
572,3.20e-03,
573,-8.00e-04,
574,-8.00e-04,
575,3.20e-03,
576,1.60e-03,
577,-8.00e-04,
578,2.40e-03,
579,-8.00e-04,
580,0.00e+00,
581,3.20e-03,
582,-8.00e-04,
583,2.40e-03,
584,-1.60e-03,
585,4.00e-03,
586,2.40e-03,
587,-1.60e-03,
588,2.40e-03,
589,-8.00e-04,
590,-8.00e-04,
591,2.40e-03,
592,-8.00e-04,
593,2.80e-03,
594,2.40e-03,
595,-8.00e-04,
596,2.40e-03,
597,-8.00e-04,
598,2.40e-03,
599,-8.00e-04,
600,-8.00e-04,
601,2.80e-03,
602,1.60e-03,
603,0.00e+00,
604,-8.00e-04,
605,3.20e-03,
606,2.40e-03,
607,-1.60e-03,
608,2.40e-03,
609,-8.00e-04,
610,2.40e-03,
611,-8.00e-04,
612,2.40e-03,
613,-8.00e-04,
614,-1.60e-03,
615,2.40e-03,
616,-8.00e-04,
617,2.00e-03,
618,2.40e-03,
619,-1.60e-03,
620,2.40e-03,
621,-1.60e-03,
622,-8.00e-04,
623,2.40e-03,
624,2.40e-03,
625,-1.60e-03,
626,-8.00e-04,
627,2.40e-03,
628,-8.00e-04,
629,3.20e-03,
630,3.20e-03,
631,-8.00e-04,
632,2.40e-03,
633,-8.00e-04,
634,2.00e-03,
635,-1.60e-03,
636,-8.00e-04,
637,2.40e-03,
638,-8.00e-04,
639,2.40e-03,
640,-8.00e-04,
641,2.40e-03,
642,-8.00e-04,
643,2.80e-03,
644,-8.00e-04,
645,3.20e-03,
646,2.40e-03,
647,-1.60e-03,
648,-8.00e-04,
649,3.20e-03,
650,-8.00e-04,
651,3.20e-03,
652,2.80e-03,
653,-8.00e-04,
654,3.20e-03,
655,-8.00e-04,
656,3.20e-03,
657,-8.00e-04,
658,-1.60e-03,
659,2.40e-03,
660,-8.00e-04,
661,2.00e-03,
662,-8.00e-04,
663,2.40e-03,
664,-8.00e-04,
665,3.20e-03,
666,2.40e-03,
667,-8.00e-04,
668,-1.60e-03,
669,2.00e-03,
670,-8.00e-04,
671,2.80e-03,
672,2.00e-03,
673,-8.00e-04,
674,2.40e-03,
675,-8.00e-04,
676,3.20e-03,
677,-1.60e-03,
678,2.40e-03,
679,-8.00e-04,
680,-8.00e-04,
681,2.80e-03,
682,0.00e+00,
683,2.40e-03,
684,2.40e-03,
685,0.00e+00,
686,-8.00e-04,
687,2.40e-03,
688,-8.00e-04,
689,3.20e-03,
690,1.60e-03,
691,-8.00e-04,
692,3.20e-03,
693,-8.00e-04,
694,0.00e+00,
695,2.40e-03,
696,-8.00e-04,
697,3.20e-03,
698,2.80e-03,
699,-8.00e-04,
700,3.20e-03,
701,-8.00e-04,
702,-8.00e-04,
703,3.20e-03,
704,3.20e-03,
705,-1.60e-03,
706,2.40e-03,
707,-8.00e-04,
708,2.40e-03,
709,-8.00e-04,
710,-8.00e-04,
711,2.40e-03,
712,2.40e-03,
713,-1.60e-03,
714,2.40e-03,
715,-8.00e-04,
716,-8.00e-04,
717,2.40e-03,
718,-8.00e-04,
719,2.40e-03,
720,2.40e-03,
721,-8.00e-04,
722,2.40e-03,
723,0.00e+00,
724,3.20e-03,
725,-8.00e-04,
726,0.00e+00,
727,2.80e-03,
728,2.40e-03,
729,-8.00e-04,
730,0.00e+00,
731,2.40e-03,
732,-8.00e-04,
733,2.40e-03,
734,2.40e-03,
735,-8.00e-04,
736,-1.60e-03,
737,2.40e-03,
738,2.40e-03,
739,-8.00e-04,
740,-8.00e-04,
741,3.20e-03,
742,2.40e-03,
743,-8.00e-04,
744,-8.00e-04,
745,2.40e-03,
746,-8.00e-04,
747,3.20e-03,
748,1.60e-03,
749,-1.60e-03,
750,-1.60e-03,
751,2.40e-03,
752,1.60e-03,
753,-1.60e-03,
754,2.00e-03,
755,-1.60e-03,
756,-8.00e-04,
757,2.40e-03,
758,2.80e-03,
759,-1.20e-03,
760,-8.00e-04,
761,2.80e-03,
762,-8.00e-04,
763,2.40e-03,
764,2.00e-03,
765,-1.60e-03,
766,1.60e-03,
767,-1.60e-03,
768,3.20e-03,
769,-1.60e-03,
770,1.60e-03,
771,-1.60e-03,
772,-1.60e-03,
773,2.40e-03,
774,-1.60e-03,
775,2.40e-03,
776,-8.00e-04,
777,2.40e-03,
778,2.80e-03,
779,-1.60e-03,
780,-1.60e-03,
781,2.40e-03,
782,-8.00e-04,
783,2.40e-03,
784,2.40e-03,
785,-1.60e-03,
786,2.40e-03,
787,-8.00e-04,
788,2.40e-03,
789,-8.00e-04,
790,2.40e-03,
791,-1.60e-03,
792,-8.00e-04,
793,3.20e-03,
794,2.40e-03,
795,-8.00e-04,
796,0.00e+00,
797,2.40e-03,
798,-8.00e-04,
799,2.40e-03,
800,1.60e-03,
801,-1.60e-03,
802,2.40e-03,
803,-8.00e-04,
804,-8.00e-04,
805,2.80e-03,
806,-8.00e-04,
807,2.40e-03,
808,0.00e+00,
809,3.20e-03,
810,0.00e+00,
811,3.20e-03,
812,-8.00e-04,
813,3.20e-03,
814,2.40e-03,
815,-8.00e-04,
816,2.40e-03,
817,-1.60e-03,
818,2.40e-03,
819,-8.00e-04,
820,3.20e-03,
821,-8.00e-04,
822,1.60e-03,
823,0.00e+00,
824,2.80e-03,
825,0.00e+00,
826,2.40e-03,
827,-8.00e-04,
828,0.00e+00,
829,3.20e-03,
830,2.40e-03,
831,-8.00e-04,
832,2.40e-03,
833,-1.60e-03,
834,3.20e-03,
835,-8.00e-04,
836,0.00e+00,
837,3.20e-03,
838,0.00e+00,
839,3.20e-03,
840,0.00e+00,
841,2.40e-03,
842,-8.00e-04,
843,2.40e-03,
844,3.20e-03,
845,0.00e+00,
846,0.00e+00,
847,2.40e-03,
848,3.20e-03,
849,-8.00e-04,
850,0.00e+00,
851,3.20e-03,
852,3.20e-03,
853,-1.60e-03,
854,0.00e+00,
855,3.20e-03,
856,3.20e-03,
857,0.00e+00,
858,0.00e+00,
859,3.20e-03,
860,0.00e+00,
861,3.20e-03,
862,0.00e+00,
863,2.80e-03,
864,3.20e-03,
865,-8.00e-04,
866,4.00e-03,
867,-8.00e-04,
868,2.40e-03,
869,0.00e+00,
870,0.00e+00,
871,4.80e-03,
872,3.20e-03,
873,0.00e+00,
874,0.00e+00,
875,2.80e-03,
876,0.00e+00,
877,3.20e-03,
878,3.20e-03,
879,0.00e+00,
880,3.20e-03,
881,0.00e+00,
882,3.20e-03,
883,0.00e+00,
884,3.20e-03,
885,0.00e+00,
886,3.20e-03,
887,0.00e+00,
888,-8.00e-04,
889,2.40e-03,
890,0.00e+00,
891,3.20e-03,
892,3.20e-03,
893,0.00e+00,
894,0.00e+00,
895,3.20e-03,
896,0.00e+00,
897,3.60e-03,
898,0.00e+00,
899,3.20e-03,
900,0.00e+00,
901,4.00e-03,
902,3.20e-03,
903,0.00e+00,
904,0.00e+00,
905,3.20e-03,
906,0.00e+00,
907,3.20e-03,
908,3.20e-03,
909,-8.00e-04,
910,3.20e-03,
911,0.00e+00,
912,3.20e-03,
913,-8.00e-04,
914,0.00e+00,
915,3.20e-03,
916,0.00e+00,
917,4.00e-03,
918,0.00e+00,
919,3.20e-03,
920,3.20e-03,
921,0.00e+00,
922,8.00e-04,
923,3.20e-03,
924,4.00e-03,
925,8.00e-04,
926,-8.00e-04,
927,3.20e-03,
928,-8.00e-04,
929,4.00e-03,
930,8.00e-04,
931,3.20e-03,
932,0.00e+00,
933,3.20e-03,
934,3.20e-03,
935,0.00e+00,
936,3.20e-03,
937,8.00e-04,
938,3.20e-03,
939,0.00e+00,
940,3.20e-03,
941,0.00e+00,
942,3.20e-03,
943,0.00e+00,
944,-8.00e-04,
945,4.80e-03,
946,-8.00e-04,
947,3.20e-03,
948,0.00e+00,
949,3.20e-03,
950,-8.00e-04,
951,2.80e-03,
952,8.00e-04,
953,3.20e-03,
954,0.00e+00,
955,3.20e-03,
956,4.00e-03,
957,-8.00e-04,
958,3.20e-03,
959,0.00e+00,
960,0.00e+00,
961,3.20e-03,
962,0.00e+00,
963,3.20e-03,
964,3.20e-03,
965,-8.00e-04,
966,3.20e-03,
967,-1.60e-03,
968,0.00e+00,
969,3.20e-03,
970,0.00e+00,
971,4.00e-03,
972,3.20e-03,
973,0.00e+00,
974,0.00e+00,
975,3.20e-03,
976,3.20e-03,
977,-8.00e-04,
978,3.20e-03,
979,0.00e+00,
980,0.00e+00,
981,2.40e-03,
982,-8.00e-04,
983,3.20e-03,
984,-8.00e-04,
985,3.20e-03,
986,0.00e+00,
987,3.20e-03,
988,3.20e-03,
989,0.00e+00,
990,3.20e-03,
991,0.00e+00,
992,3.20e-03,
993,-8.00e-04,
994,-1.60e-03,
995,3.20e-03,
996,-8.00e-04,
997,4.00e-03,
998,3.20e-03,
999,0.00e+00,
1000,2.80e-03,
1001,-8.00e-04,
1002,0.00e+00,
1003,3.20e-03,
1004,3.20e-03,
1005,0.00e+00,
1006,3.20e-03,
1007,-8.00e-04,
1008,3.20e-03,
1009,-8.00e-04,
1010,0.00e+00,
1011,2.40e-03,
1012,3.20e-03,
1013,-8.00e-04,
1014,2.40e-03,
1015,0.00e+00,
1016,-8.00e-04,
1017,3.20e-03,
1018,2.40e-03,
1019,-8.00e-04,
1020,2.80e-03,
1021,-1.60e-03,
1022,-8.00e-04,
1023,2.80e-03,
1024,-8.00e-04,
1025,2.40e-03,
1026,-8.00e-04,
1027,3.20e-03,
1028,0.00e+00,
1029,2.40e-03,
1030,2.40e-03,
1031,-8.00e-04,
1032,-1.60e-03,
1033,3.20e-03,
1034,0.00e+00,
1035,2.40e-03,
1036,2.40e-03,
1037,-8.00e-04,
1038,0.00e+00,
1039,3.20e-03,
1040,2.40e-03,
1041,-8.00e-04,
1042,2.40e-03,
1043,-8.00e-04,
1044,-8.00e-04,
1045,3.20e-03,
1046,-8.00e-04,
1047,3.20e-03,
1048,-8.00e-04,
1049,2.40e-03,
1050,3.20e-03,
1051,-1.60e-03,
1052,2.80e-03,
1053,0.00e+00,
1054,0.00e+00,
1055,3.20e-03,
1056,2.40e-03,
1057,-8.00e-04,
1058,-8.00e-04,
1059,2.00e-03,
1060,2.80e-03,
1061,-1.60e-03,
1062,2.40e-03,
1063,-8.00e-04,
1064,-8.00e-04,
1065,3.20e-03,
1066,2.40e-03,
1067,-8.00e-04,
1068,-8.00e-04,
1069,3.20e-03,
1070,-1.60e-03,
1071,3.20e-03,
1072,-8.00e-04,
1073,2.40e-03,
1074,2.40e-03,
1075,-1.60e-03,
1076,2.40e-03,
1077,-8.00e-04,
1078,-8.00e-04,
1079,2.40e-03,
1080,2.40e-03,
1081,0.00e+00,
1082,3.20e-03,
1083,-1.60e-03,
1084,2.40e-03,
1085,0.00e+00,
1086,2.40e-03,
1087,-8.00e-04,
1088,2.40e-03,
1089,-8.00e-04,
1090,-8.00e-04,
1091,3.20e-03,
1092,2.40e-03,
1093,-8.00e-04,
1094,2.40e-03,
1095,-1.60e-03,
1096,2.40e-03,
1097,-8.00e-04,
1098,-1.60e-03,
1099,3.20e-03,
1100,2.40e-03,
1101,-8.00e-04,
1102,-8.00e-04,
1103,2.40e-03,
1104,-8.00e-04,
1105,2.40e-03,
1106,3.20e-03,
1107,-8.00e-04,
1108,2.40e-03,
1109,-8.00e-04,
1110,2.40e-03,
1111,-1.60e-03,
1112,2.40e-03,
1113,-8.00e-04,
1114,2.40e-03,
1115,-8.00e-04,
1116,3.20e-03,
1117,-8.00e-04,
1118,3.20e-03,
1119,-8.00e-04,
1120,-8.00e-04,
1121,3.20e-03,
1122,-8.00e-04,
1123,3.20e-03,
1124,-8.00e-04,
1125,2.40e-03,
1126,2.40e-03,
1127,-8.00e-04,
1128,2.40e-03,
1129,-8.00e-04,
1130,-1.60e-03,
1131,3.20e-03,
1132,2.80e-03,
1133,-1.60e-03,
1134,0.00e+00,
1135,2.40e-03,
1136,2.80e-03,
1137,-8.00e-04,
1138,-8.00e-04,
1139,3.20e-03,
1140,3.20e-03,
1141,0.00e+00,
1142,2.80e-03,
1143,0.00e+00,
1144,-8.00e-04,
1145,3.20e-03,
1146,2.40e-03,
1147,0.00e+00,
1148,0.00e+00,
1149,3.20e-03,
1150,-8.00e-04,
1151,3.20e-03,
1152,3.20e-03,
1153,-8.00e-04,
1154,0.00e+00,
1155,3.20e-03,
1156,0.00e+00,
1157,3.20e-03,
1158,0.00e+00,
1159,3.20e-03,
1160,0.00e+00,
1161,3.20e-03,
1162,-8.00e-04,
1163,3.20e-03,
1164,3.20e-03,
1165,0.00e+00,
1166,8.00e-04,
1167,3.20e-03,
1168,-4.00e-04,
1169,3.20e-03,
1170,3.20e-03,
1171,0.00e+00,
1172,0.00e+00,
1173,3.60e-03,
1174,8.00e-04,
1175,3.20e-03,
1176,0.00e+00,
1177,3.20e-03,
1178,-8.00e-04,
1179,4.00e-03,
1180,3.20e-03,
1181,0.00e+00,
1182,3.20e-03,
1183,0.00e+00,
1184,0.00e+00,
1185,3.20e-03,
1186,0.00e+00,
1187,3.20e-03,
1188,3.20e-03,
1189,-8.00e-04,
1190,0.00e+00,
1191,2.80e-03,
1192,-8.00e-04,
1193,4.00e-03,
1194,3.20e-03,
1195,-8.00e-04,
1196,0.00e+00,
1197,3.20e-03,
1198,3.20e-03,
1199,0.00e+00,
