fastdiffamp/data-noise-set/old-str-wk/str-wk-unb/NewFile8.csv

X,CH1,Start,Increment,
Sequence,Volt,-1.148000e+01,2.000000e-02
0,-1.60e-03,
1,2.00e-03,
2,-1.60e-03,
3,2.40e-03,
4,1.60e-03,
5,-2.40e-03,
6,-1.60e-03,
7,2.40e-03,
8,-1.60e-03,
9,1.60e-03,
10,-1.60e-03,
11,2.80e-03,
12,1.60e-03,
13,-1.60e-03,
14,-2.40e-03,
15,2.00e-03,
16,-1.60e-03,
17,1.60e-03,
18,-2.40e-03,
19,2.40e-03,
20,-1.60e-03,
21,2.00e-03,
22,1.60e-03,
23,-1.60e-03,
24,-2.40e-03,
25,1.60e-03,
26,-1.60e-03,
27,1.60e-03,
28,-1.60e-03,
29,2.40e-03,
30,1.60e-03,
31,-2.40e-03,
32,2.00e-03,
33,-1.60e-03,
34,-2.40e-03,
35,2.40e-03,
36,-1.60e-03,
37,2.40e-03,
38,-8.00e-04,
39,2.00e-03,
40,-1.60e-03,
41,2.00e-03,
42,1.60e-03,
43,-1.60e-03,
44,1.60e-03,
45,-1.60e-03,
46,-1.60e-03,
47,1.60e-03,
48,1.60e-03,
49,-1.60e-03,
50,-1.60e-03,
51,2.00e-03,
52,2.40e-03,
53,-1.60e-03,
54,-1.60e-03,
55,1.60e-03,
56,-1.60e-03,
57,2.00e-03,
58,1.60e-03,
59,-1.60e-03,
60,1.60e-03,
61,-1.60e-03,
62,1.60e-03,
63,-2.40e-03,
64,-1.60e-03,
65,2.40e-03,
66,2.80e-03,
67,-1.60e-03,
68,-1.60e-03,
69,2.40e-03,
70,-1.60e-03,
71,2.40e-03,
72,-1.60e-03,
73,2.40e-03,
74,-1.60e-03,
75,1.60e-03,
76,2.40e-03,
77,-1.60e-03,
78,-1.60e-03,
79,2.00e-03,
80,-2.40e-03,
81,2.40e-03,
82,2.00e-03,
83,-1.60e-03,
84,-8.00e-04,
85,1.60e-03,
86,2.00e-03,
87,-1.60e-03,
88,-1.60e-03,
89,2.40e-03,
90,1.60e-03,
91,-1.60e-03,
92,1.60e-03,
93,-1.60e-03,
94,-1.60e-03,
95,2.40e-03,
96,1.60e-03,
97,-2.40e-03,
98,1.60e-03,
99,-2.40e-03,
100,-8.00e-04,
101,2.00e-03,
102,2.00e-03,
103,-1.60e-03,
104,-1.60e-03,
105,2.80e-03,
106,-1.60e-03,
107,2.40e-03,
108,-1.60e-03,
109,2.00e-03,
110,-1.60e-03,
111,1.60e-03,
112,-2.40e-03,
113,2.00e-03,
114,-1.60e-03,
115,2.40e-03,
116,-2.00e-03,
117,1.60e-03,
118,-8.00e-04,
119,1.60e-03,
120,-2.40e-03,
121,2.80e-03,
122,2.40e-03,
123,-1.60e-03,
124,-1.60e-03,
125,2.40e-03,
126,2.40e-03,
127,-8.00e-04,
128,2.40e-03,
129,-8.00e-04,
130,-1.60e-03,
131,2.40e-03,
132,-1.60e-03,
133,3.20e-03,
134,2.40e-03,
135,-1.60e-03,
136,-8.00e-04,
137,2.40e-03,
138,-2.40e-03,
139,2.40e-03,
140,-2.40e-03,
141,2.40e-03,
142,-1.60e-03,
143,2.00e-03,
144,-2.40e-03,
145,2.40e-03,
146,-1.60e-03,
147,2.40e-03,
148,-1.60e-03,
149,2.80e-03,
150,2.40e-03,
151,-8.00e-04,
152,-8.00e-04,
153,2.40e-03,
154,-1.60e-03,
155,2.40e-03,
156,2.40e-03,
157,-1.60e-03,
158,2.80e-03,
159,-8.00e-04,
160,2.00e-03,
161,-2.40e-03,
162,-2.40e-03,
163,2.40e-03,
164,-1.60e-03,
165,2.40e-03,
166,2.40e-03,
167,-1.60e-03,
168,-1.60e-03,
169,2.40e-03,
170,2.40e-03,
171,-8.00e-04,
172,-1.60e-03,
173,2.00e-03,
174,2.40e-03,
175,-1.60e-03,
176,-1.60e-03,
177,2.40e-03,
178,2.40e-03,
179,-1.60e-03,
180,2.40e-03,
181,-1.60e-03,
182,-8.00e-04,
183,2.00e-03,
184,2.00e-03,
185,-1.60e-03,
186,-1.60e-03,
187,2.40e-03,
188,-8.00e-04,
189,2.40e-03,
190,-2.40e-03,
191,2.40e-03,
192,-1.60e-03,
193,1.60e-03,
194,-1.60e-03,
195,2.00e-03,
196,-1.60e-03,
197,2.40e-03,
198,-1.60e-03,
199,2.00e-03,
200,-1.60e-03,
201,2.00e-03,
202,2.40e-03,
203,-1.60e-03,
204,-1.60e-03,
205,2.00e-03,
206,2.00e-03,
207,-1.60e-03,
208,-1.60e-03,
209,2.40e-03,
210,1.60e-03,
211,-1.60e-03,
212,2.40e-03,
213,-2.40e-03,
214,2.00e-03,
215,-1.20e-03,
216,-1.60e-03,
217,2.00e-03,
218,-1.60e-03,
219,2.40e-03,
220,-2.40e-03,
221,3.20e-03,
222,-1.60e-03,
223,2.80e-03,
224,2.00e-03,
225,-2.40e-03,
226,-1.60e-03,
227,2.40e-03,
228,-1.60e-03,
229,2.00e-03,
230,-1.60e-03,
231,2.40e-03,
232,2.40e-03,
233,-1.60e-03,
234,-1.60e-03,
235,2.40e-03,
236,-1.60e-03,
237,1.60e-03,
238,-2.40e-03,
239,2.00e-03,
240,-2.40e-03,
241,2.00e-03,
242,2.40e-03,
243,-1.60e-03,
244,-1.60e-03,
245,1.60e-03,
246,-1.60e-03,
247,2.80e-03,
248,2.40e-03,
249,-1.60e-03,
250,-1.60e-03,
251,2.00e-03,
252,-8.00e-04,
253,2.80e-03,
254,-1.60e-03,
255,2.40e-03,
256,-1.60e-03,
257,2.40e-03,
258,-1.60e-03,
259,1.60e-03,
260,2.00e-03,
261,-1.60e-03,
262,-1.60e-03,
263,2.00e-03,
264,2.40e-03,
265,-2.40e-03,
266,-2.40e-03,
267,1.60e-03,
268,-2.40e-03,
269,2.40e-03,
270,-1.60e-03,
271,2.40e-03,
272,2.40e-03,
273,-2.40e-03,
274,2.40e-03,
275,-2.40e-03,
276,-1.60e-03,
277,2.80e-03,
278,-2.40e-03,
279,2.40e-03,
280,-1.20e-03,
281,2.40e-03,
282,-1.60e-03,
283,2.00e-03,
284,2.40e-03,
285,-1.60e-03,
286,-1.60e-03,
287,2.40e-03,
288,2.40e-03,
289,-1.60e-03,
290,-1.60e-03,
291,1.60e-03,
292,-2.40e-03,
293,2.40e-03,
294,-8.00e-04,
295,2.40e-03,
296,-8.00e-04,
297,2.40e-03,
298,-1.60e-03,
299,2.00e-03,
300,1.60e-03,
301,-1.60e-03,
302,-2.40e-03,
303,2.40e-03,
304,-1.60e-03,
305,2.00e-03,
306,1.60e-03,
307,-1.60e-03,
308,2.40e-03,
309,-2.40e-03,
310,-2.40e-03,
311,1.60e-03,
312,1.60e-03,
313,-1.60e-03,
314,-2.40e-03,
315,1.60e-03,
316,-1.60e-03,
317,3.20e-03,
318,-1.60e-03,
319,2.40e-03,
320,2.40e-03,
321,-1.60e-03,
322,-1.60e-03,
323,1.60e-03,
324,-1.60e-03,
325,3.20e-03,
326,-1.60e-03,
327,2.40e-03,
328,-2.40e-03,
329,1.60e-03,
330,-1.60e-03,
331,2.00e-03,
332,-1.60e-03,
333,2.40e-03,
334,-1.60e-03,
335,2.40e-03,
336,-2.40e-03,
337,2.80e-03,
338,-1.60e-03,
339,1.60e-03,
340,2.00e-03,
341,-2.40e-03,
342,-1.60e-03,
343,1.60e-03,
344,-1.60e-03,
345,2.00e-03,
346,1.60e-03,
347,-1.60e-03,
348,-2.40e-03,
349,2.40e-03,
350,-1.60e-03,
351,1.60e-03,
352,-1.60e-03,
353,2.40e-03,
354,-1.60e-03,
355,2.40e-03,
356,1.60e-03,
357,-2.40e-03,
358,-1.60e-03,
359,2.40e-03,
360,-1.60e-03,
361,2.40e-03,
362,-2.40e-03,
363,2.40e-03,
364,2.40e-03,
365,-2.40e-03,
366,-2.40e-03,
367,2.00e-03,
368,-2.40e-03,
369,2.80e-03,
370,2.40e-03,
371,-1.60e-03,
372,-1.60e-03,
373,1.60e-03,
374,-2.40e-03,
375,2.00e-03,
376,-1.60e-03,
377,2.00e-03,
378,2.40e-03,
379,-2.40e-03,
380,-1.60e-03,
381,2.40e-03,
382,-1.60e-03,
383,2.80e-03,
384,-2.40e-03,
385,2.00e-03,
386,1.60e-03,
387,-2.40e-03,
388,2.40e-03,
389,-2.40e-03,
390,2.00e-03,
391,-1.60e-03,
392,-2.40e-03,
393,2.00e-03,
394,-1.60e-03,
395,1.60e-03,
396,-1.60e-03,
397,1.60e-03,
398,-2.40e-03,
399,2.40e-03,
400,1.60e-03,
401,-1.60e-03,
402,-2.40e-03,
403,2.00e-03,
404,-1.60e-03,
405,2.00e-03,
406,2.40e-03,
407,-2.40e-03,
408,-1.60e-03,
409,2.40e-03,
410,1.60e-03,
411,-2.40e-03,
412,-2.40e-03,
413,2.40e-03,
414,1.60e-03,
415,-1.60e-03,
416,-1.60e-03,
417,1.60e-03,
418,2.00e-03,
419,-1.60e-03,
420,2.00e-03,
421,-1.60e-03,
422,-2.40e-03,
423,2.00e-03,
424,-1.60e-03,
425,2.40e-03,
426,2.40e-03,
427,-2.40e-03,
428,2.40e-03,
429,-1.60e-03,
430,-1.60e-03,
431,1.60e-03,
432,-2.40e-03,
433,2.00e-03,
434,2.40e-03,
435,-1.60e-03,
436,1.60e-03,
437,-2.40e-03,
438,2.40e-03,
439,-1.60e-03,
440,1.60e-03,
441,-2.40e-03,
442,2.40e-03,
443,-1.60e-03,
444,-1.60e-03,
445,2.40e-03,
446,-1.60e-03,
447,2.00e-03,
448,-1.60e-03,
449,2.40e-03,
450,-1.60e-03,
451,2.40e-03,
452,2.00e-03,
453,-2.40e-03,
454,-1.60e-03,
455,1.60e-03,
456,-1.60e-03,
457,1.60e-03,
458,-1.60e-03,
459,2.00e-03,
460,2.40e-03,
461,-1.60e-03,
462,2.00e-03,
463,-2.40e-03,
464,-1.60e-03,
465,2.40e-03,
466,2.00e-03,
467,-2.40e-03,
468,-1.60e-03,
469,2.00e-03,
470,-2.40e-03,
471,2.40e-03,
472,-1.60e-03,
473,2.40e-03,
474,-1.60e-03,
475,1.60e-03,
476,-1.60e-03,
477,2.00e-03,
478,-1.60e-03,
479,2.40e-03,
480,-1.60e-03,
481,2.40e-03,
482,-1.60e-03,
483,2.40e-03,
484,-1.60e-03,
485,2.40e-03,
486,2.40e-03,
487,-2.40e-03,
488,-2.40e-03,
489,2.00e-03,
490,-2.40e-03,
491,2.40e-03,
492,-2.40e-03,
493,2.40e-03,
494,-1.60e-03,
495,2.00e-03,
496,-1.60e-03,
497,2.00e-03,
498,2.00e-03,
499,-1.60e-03,
500,2.40e-03,
501,-1.60e-03,
502,2.40e-03,
503,-1.60e-03,
504,-1.60e-03,
505,2.40e-03,
506,-1.60e-03,
507,2.40e-03,
508,-1.60e-03,
509,2.00e-03,
510,-1.60e-03,
511,2.40e-03,
512,-1.60e-03,
513,1.60e-03,
514,-1.60e-03,
515,2.80e-03,
516,-1.60e-03,
517,1.60e-03,
518,-2.40e-03,
519,2.80e-03,
520,-1.60e-03,
521,2.80e-03,
522,-1.60e-03,
523,2.40e-03,
524,-1.60e-03,
525,3.20e-03,
526,-1.60e-03,
527,2.40e-03,
528,1.60e-03,
529,-2.40e-03,
530,2.40e-03,
531,-2.40e-03,
532,-1.60e-03,
533,2.80e-03,
534,2.00e-03,
535,-1.60e-03,
536,-1.60e-03,
537,2.40e-03,
538,2.40e-03,
539,-1.60e-03,
540,1.60e-03,
541,-2.40e-03,
542,2.40e-03,
543,-2.40e-03,
544,2.00e-03,
545,-1.60e-03,
546,-1.60e-03,
547,2.80e-03,
548,-2.40e-03,
549,2.00e-03,
550,1.60e-03,
551,-2.40e-03,
552,1.60e-03,
553,-2.40e-03,
554,1.60e-03,
555,-2.40e-03,
556,1.60e-03,
557,-2.40e-03,
558,1.60e-03,
559,-2.40e-03,
560,2.40e-03,
561,-1.60e-03,
562,-1.60e-03,
563,2.00e-03,
564,2.80e-03,
565,-1.60e-03,
566,-8.00e-04,
567,2.00e-03,
568,-1.60e-03,
569,2.40e-03,
570,1.60e-03,
571,-1.60e-03,
572,-1.60e-03,
573,2.00e-03,
574,1.60e-03,
575,-1.60e-03,
576,-8.00e-04,
577,2.00e-03,
578,2.40e-03,
579,-1.60e-03,
580,-2.40e-03,
581,1.60e-03,
582,2.80e-03,
583,-1.60e-03,
584,-1.60e-03,
585,2.40e-03,
586,1.60e-03,
587,-2.40e-03,
588,-1.60e-03,
589,1.60e-03,
590,2.40e-03,
591,-1.60e-03,
592,2.40e-03,
593,-1.60e-03,
594,-1.60e-03,
595,2.00e-03,
596,-2.40e-03,
597,2.80e-03,
598,-1.60e-03,
599,3.20e-03,
600,2.40e-03,
601,-2.40e-03,
602,-1.60e-03,
603,2.40e-03,
604,2.00e-03,
605,-1.60e-03,
606,-1.60e-03,
607,2.00e-03,
608,1.60e-03,
609,-1.60e-03,
610,2.40e-03,
611,-1.60e-03,
612,-1.60e-03,
613,2.40e-03,
614,1.60e-03,
615,-2.40e-03,
616,-1.60e-03,
617,1.60e-03,
618,2.40e-03,
619,-1.60e-03,
620,-1.60e-03,
621,2.00e-03,
622,2.40e-03,
623,-1.60e-03,
624,-1.60e-03,
625,2.40e-03,
626,-8.00e-04,
627,2.40e-03,
628,-1.60e-03,
629,2.40e-03,
630,-2.40e-03,
631,2.40e-03,
632,2.40e-03,
633,-3.20e-03,
634,1.60e-03,
635,-1.60e-03,
636,2.40e-03,
637,-1.60e-03,
638,-1.60e-03,
639,2.40e-03,
640,1.60e-03,
641,-1.60e-03,
642,2.80e-03,
643,-2.40e-03,
644,-2.40e-03,
645,2.40e-03,
646,1.60e-03,
647,-2.40e-03,
648,3.20e-03,
649,-1.60e-03,
650,2.40e-03,
651,-2.00e-03,
652,2.00e-03,
653,-2.40e-03,
654,2.00e-03,
655,-1.60e-03,
656,-1.60e-03,
657,1.60e-03,
658,-2.40e-03,
659,1.60e-03,
660,2.40e-03,
661,-2.40e-03,
662,2.40e-03,
663,-1.60e-03,
664,-1.60e-03,
665,2.40e-03,
666,1.60e-03,
667,-2.40e-03,
668,-1.60e-03,
669,2.40e-03,
670,1.60e-03,
671,-1.60e-03,
672,-1.60e-03,
673,1.60e-03,
674,-2.40e-03,
675,2.40e-03,
676,-1.60e-03,
677,3.20e-03,
678,1.60e-03,
679,-2.40e-03,
680,2.00e-03,
681,-2.40e-03,
682,-1.60e-03,
683,2.40e-03,
684,1.60e-03,
685,-2.40e-03,
686,-1.60e-03,
687,2.40e-03,
688,2.40e-03,
689,-1.60e-03,
690,-1.60e-03,
691,2.40e-03,
692,1.60e-03,
693,-2.40e-03,
694,2.00e-03,
695,-2.40e-03,
696,1.60e-03,
697,-2.40e-03,
698,-1.60e-03,
699,1.60e-03,
700,-1.60e-03,
701,2.40e-03,
702,-1.60e-03,
703,2.00e-03,
704,-2.40e-03,
705,1.60e-03,
706,-1.60e-03,
707,2.40e-03,
708,2.40e-03,
709,-1.60e-03,
710,-1.60e-03,
711,2.40e-03,
712,2.40e-03,
713,-2.40e-03,
714,-1.60e-03,
715,1.20e-03,
716,-1.60e-03,
717,2.00e-03,
718,1.60e-03,
719,-1.60e-03,
720,-2.40e-03,
721,2.40e-03,
722,2.40e-03,
723,-2.40e-03,
724,2.00e-03,
725,-1.60e-03,
726,2.40e-03,
727,-1.60e-03,
728,2.00e-03,
729,-2.40e-03,
730,-2.40e-03,
731,2.40e-03,
732,1.60e-03,
733,-2.00e-03,
734,2.00e-03,
735,-1.60e-03,
736,2.40e-03,
737,-1.60e-03,
738,1.60e-03,
739,-2.40e-03,
740,1.60e-03,
741,-1.60e-03,
742,-1.60e-03,
743,3.20e-03,
744,-1.60e-03,
745,3.20e-03,
746,2.40e-03,
747,-2.40e-03,
748,-1.60e-03,
749,1.60e-03,
750,-1.60e-03,
751,3.20e-03,
752,2.40e-03,
753,-2.40e-03,
754,-1.60e-03,
755,2.00e-03,
756,-1.60e-03,
757,1.60e-03,
758,-1.60e-03,
759,2.40e-03,
760,-1.60e-03,
761,1.60e-03,
762,2.00e-03,
763,-2.40e-03,
764,2.00e-03,
765,-1.60e-03,
766,-2.40e-03,
767,2.40e-03,
768,2.40e-03,
769,-2.40e-03,
770,-1.60e-03,
771,1.60e-03,
772,2.40e-03,
773,-2.40e-03,
774,-1.60e-03,
775,2.40e-03,
776,2.40e-03,
777,-2.40e-03,
778,2.40e-03,
779,-1.60e-03,
780,-1.60e-03,
781,2.40e-03,
782,2.40e-03,
783,-2.40e-03,
784,1.60e-03,
785,-1.60e-03,
786,1.60e-03,
787,-1.60e-03,
788,-1.60e-03,
789,2.40e-03,
790,-1.60e-03,
791,2.40e-03,
792,-1.60e-03,
793,3.20e-03,
794,2.40e-03,
795,-1.60e-03,
796,-2.40e-03,
797,2.40e-03,
798,2.40e-03,
799,-8.00e-04,
800,1.60e-03,
801,-1.60e-03,
802,-1.60e-03,
803,3.20e-03,
804,-1.60e-03,
805,2.40e-03,
806,3.20e-03,
807,-1.60e-03,
808,-1.60e-03,
809,2.40e-03,
810,2.40e-03,
811,-1.60e-03,
812,-1.60e-03,
813,1.60e-03,
814,1.60e-03,
815,-1.60e-03,
816,-1.60e-03,
817,2.40e-03,
818,2.00e-03,
819,-1.60e-03,
820,1.60e-03,
821,-1.60e-03,
822,-1.60e-03,
823,2.40e-03,
824,1.60e-03,
825,-2.40e-03,
826,-1.60e-03,
827,2.00e-03,
828,-1.60e-03,
829,2.40e-03,
830,2.00e-03,
831,-1.60e-03,
832,-1.60e-03,
833,3.20e-03,
834,2.40e-03,
835,-1.60e-03,
836,-1.60e-03,
837,2.40e-03,
838,-1.60e-03,
839,2.80e-03,
840,2.40e-03,
841,-2.40e-03,
842,-2.40e-03,
843,2.40e-03,
844,1.60e-03,
845,-1.60e-03,
846,1.60e-03,
847,-2.40e-03,
848,-2.40e-03,
849,1.60e-03,
850,2.40e-03,
851,-3.20e-03,
852,1.20e-03,
853,-1.60e-03,
854,2.40e-03,
855,-2.40e-03,
856,-1.60e-03,
857,1.20e-03,
858,-2.40e-03,
859,2.00e-03,
860,1.60e-03,
861,-2.40e-03,
862,1.20e-03,
863,-2.40e-03,
864,-2.40e-03,
865,1.60e-03,
866,1.20e-03,
867,-2.40e-03,
868,1.60e-03,
869,-2.40e-03,
870,1.60e-03,
871,-2.40e-03,
872,-1.60e-03,
873,1.60e-03,
874,1.60e-03,
875,-2.40e-03,
876,-1.60e-03,
877,2.00e-03,
878,1.60e-03,
879,-1.60e-03,
880,2.40e-03,
881,-1.60e-03,
882,-2.40e-03,
883,2.00e-03,
884,1.60e-03,
885,-2.40e-03,
886,2.40e-03,
887,-1.60e-03,
888,2.80e-03,
889,-1.60e-03,
890,1.60e-03,
891,-1.60e-03,
892,-1.60e-03,
893,1.60e-03,
894,-1.60e-03,
895,2.00e-03,
896,-1.60e-03,
897,2.00e-03,
898,2.40e-03,
899,-2.40e-03,
900,-1.60e-03,
901,2.40e-03,
902,1.60e-03,
903,-2.40e-03,
904,2.40e-03,
905,-1.60e-03,
906,1.60e-03,
907,-1.60e-03,
908,2.00e-03,
909,-1.60e-03,
910,1.60e-03,
911,-2.40e-03,
912,1.60e-03,
913,-2.40e-03,
914,2.00e-03,
915,-2.40e-03,
916,-1.60e-03,
917,2.00e-03,
918,-1.60e-03,
919,1.60e-03,
920,1.60e-03,
921,-2.40e-03,
922,1.60e-03,
923,-1.60e-03,
924,-1.60e-03,
925,2.00e-03,
926,2.00e-03,
927,-2.40e-03,
928,1.60e-03,
929,-2.40e-03,
930,-1.60e-03,
931,1.60e-03,
932,-2.40e-03,
933,2.40e-03,
934,-2.40e-03,
935,2.00e-03,
936,1.60e-03,
937,-2.40e-03,
938,2.00e-03,
939,-3.20e-03,
940,-2.40e-03,
941,2.40e-03,
942,1.60e-03,
943,-1.60e-03,
944,2.40e-03,
945,-2.40e-03,
946,2.40e-03,
947,-1.60e-03,
948,1.60e-03,
949,-1.60e-03,
950,2.00e-03,
951,-2.40e-03,
952,1.60e-03,
953,-2.40e-03,
954,-2.40e-03,
955,2.00e-03,
956,2.00e-03,
957,-2.40e-03,
958,-1.60e-03,
959,2.40e-03,
960,1.60e-03,
961,-2.40e-03,
962,-2.40e-03,
963,2.40e-03,
964,-2.40e-03,
965,2.00e-03,
966,3.20e-03,
967,-1.60e-03,
968,1.60e-03,
969,-2.40e-03,
970,-1.60e-03,
971,1.60e-03,
972,-1.60e-03,
973,2.40e-03,
974,1.60e-03,
975,-1.60e-03,
976,2.00e-03,
977,-2.40e-03,
978,-2.00e-03,
979,2.00e-03,
980,1.60e-03,
981,-1.60e-03,
982,-1.60e-03,
983,1.60e-03,
984,-1.60e-03,
985,2.00e-03,
986,-1.60e-03,
987,2.00e-03,
988,-1.60e-03,
989,2.00e-03,
990,-1.60e-03,
991,2.00e-03,
992,-1.60e-03,
993,2.00e-03,
994,-1.60e-03,
995,2.40e-03,
996,1.60e-03,
997,-1.60e-03,
998,2.40e-03,
999,-1.60e-03,
1000,-1.60e-03,
1001,1.60e-03,
1002,1.60e-03,
1003,-1.60e-03,
1004,2.00e-03,
1005,-3.20e-03,
1006,-8.00e-04,
1007,2.00e-03,
1008,2.40e-03,
1009,-1.60e-03,
1010,1.60e-03,
1011,-1.60e-03,
1012,1.60e-03,
1013,-2.40e-03,
1014,-2.40e-03,
1015,2.00e-03,
1016,-2.40e-03,
1017,2.00e-03,
1018,-2.40e-03,
1019,2.00e-03,
1020,-1.60e-03,
1021,2.40e-03,
1022,-2.40e-03,
1023,2.00e-03,
1024,1.60e-03,
1025,-1.60e-03,
1026,-1.60e-03,
1027,1.60e-03,
1028,2.40e-03,
1029,-1.60e-03,
1030,-2.40e-03,
1031,2.00e-03,
1032,1.60e-03,
1033,-1.60e-03,
1034,-2.40e-03,
1035,1.60e-03,
1036,1.60e-03,
1037,-1.60e-03,
1038,-1.60e-03,
1039,2.40e-03,
1040,2.40e-03,
1041,-8.00e-04,
1042,-1.60e-03,
1043,2.40e-03,
1044,2.00e-03,
1045,-1.60e-03,
1046,2.40e-03,
1047,-2.40e-03,
1048,2.40e-03,
1049,-1.60e-03,
1050,2.40e-03,
1051,-1.60e-03,
1052,1.60e-03,
1053,-2.40e-03,
1054,3.20e-03,
1055,-2.40e-03,
1056,-2.40e-03,
1057,2.00e-03,
1058,1.60e-03,
1059,-2.40e-03,
1060,-1.60e-03,
1061,2.40e-03,
1062,2.40e-03,
1063,-1.60e-03,
1064,-2.40e-03,
1065,2.00e-03,
1066,2.40e-03,
1067,-2.40e-03,
1068,2.40e-03,
1069,-1.60e-03,
1070,-1.60e-03,
1071,2.80e-03,
1072,2.00e-03,
1073,-1.60e-03,
1074,2.40e-03,
1075,-1.60e-03,
1076,2.40e-03,
1077,-1.60e-03,
1078,2.40e-03,
1079,-2.40e-03,
1080,1.60e-03,
1081,-1.60e-03,
1082,2.40e-03,
1083,-1.60e-03,
1084,-1.60e-03,
1085,2.40e-03,
1086,2.40e-03,
1087,-1.60e-03,
1088,1.60e-03,
1089,-1.60e-03,
1090,1.60e-03,
1091,-2.40e-03,
1092,4.00e-03,
1093,-1.60e-03,
1094,-2.40e-03,
1095,3.20e-03,
1096,-1.60e-03,
1097,2.00e-03,
1098,2.00e-03,
1099,-2.40e-03,
1100,2.00e-03,
1101,-1.60e-03,
1102,-1.60e-03,
1103,2.80e-03,
1104,2.40e-03,
1105,-2.40e-03,
1106,-1.60e-03,
1107,1.60e-03,
1108,3.20e-03,
1109,-1.60e-03,
1110,2.40e-03,
1111,-1.60e-03,
1112,1.60e-03,
1113,-2.40e-03,
1114,-1.60e-03,
1115,2.40e-03,
1116,2.00e-03,
1117,-1.60e-03,
1118,1.60e-03,
1119,-2.40e-03,
1120,1.60e-03,
1121,-2.40e-03,
1122,2.40e-03,
1123,-2.40e-03,
1124,2.40e-03,
1125,-1.60e-03,
1126,-1.60e-03,
1127,1.60e-03,
1128,2.40e-03,
1129,-1.60e-03,
1130,1.60e-03,
1131,-2.40e-03,
1132,1.60e-03,
1133,-2.40e-03,
1134,-2.40e-03,
1135,1.20e-03,
1136,-1.60e-03,
1137,1.60e-03,
1138,-1.60e-03,
1139,2.00e-03,
1140,1.60e-03,
1141,-1.60e-03,
1142,3.20e-03,
1143,-1.60e-03,
1144,3.20e-03,
1145,-1.60e-03,
1146,-1.60e-03,
1147,2.40e-03,
1148,2.40e-03,
1149,-2.40e-03,
1150,-2.40e-03,
1151,2.40e-03,
1152,-2.40e-03,
1153,2.00e-03,
1154,-2.40e-03,
1155,2.00e-03,
1156,-1.60e-03,
1157,1.60e-03,
1158,-2.40e-03,
1159,2.40e-03,
1160,2.40e-03,
1161,-1.60e-03,
1162,2.40e-03,
1163,-1.60e-03,
1164,1.60e-03,
1165,-2.40e-03,
1166,-2.40e-03,
1167,3.20e-03,
1168,1.60e-03,
1169,-1.60e-03,
1170,2.40e-03,
1171,-1.60e-03,
1172,-1.60e-03,
1173,2.40e-03,
1174,-1.60e-03,
1175,1.60e-03,
1176,2.40e-03,
1177,-2.40e-03,
1178,2.40e-03,
1179,-1.60e-03,
1180,-1.60e-03,
1181,2.40e-03,
1182,-1.60e-03,
1183,2.40e-03,
1184,-1.60e-03,
1185,2.40e-03,
1186,-1.60e-03,
1187,3.20e-03,
1188,2.80e-03,
1189,-1.60e-03,
1190,-1.60e-03,
1191,2.40e-03,
1192,2.40e-03,
1193,-1.60e-03,
1194,-1.60e-03,
1195,2.80e-03,
1196,-1.60e-03,
1197,2.40e-03,
1198,2.00e-03,
1199,-2.40e-03,
