fastdiffamp/data-noise-set/old-str-wk/str-wk-unb/NewFile7.csv

X,CH1,Start,Increment,
Sequence,Volt,-1.148000e+01,2.000000e-02
0,-8.00e-04,
1,2.40e-03,
2,-1.60e-03,
3,2.40e-03,
4,-8.00e-04,
5,2.00e-03,
6,1.60e-03,
7,-1.60e-03,
8,2.40e-03,
9,-8.00e-04,
10,2.40e-03,
11,-1.60e-03,
12,-1.60e-03,
13,2.40e-03,
14,3.20e-03,
15,-8.00e-04,
16,2.40e-03,
17,-8.00e-04,
18,3.20e-03,
19,-1.60e-03,
20,3.20e-03,
21,-8.00e-04,
22,2.40e-03,
23,-1.60e-03,
24,2.40e-03,
25,-1.60e-03,
26,-8.00e-04,
27,2.40e-03,
28,2.00e-03,
29,-2.40e-03,
30,-8.00e-04,
31,2.40e-03,
32,2.00e-03,
33,-1.60e-03,
34,1.60e-03,
35,-1.60e-03,
36,2.40e-03,
37,-1.60e-03,
38,2.40e-03,
39,-1.60e-03,
40,-1.60e-03,
41,2.40e-03,
42,2.80e-03,
43,-1.60e-03,
44,-1.60e-03,
45,3.20e-03,
46,2.40e-03,
47,-1.60e-03,
48,2.00e-03,
49,-1.60e-03,
50,2.40e-03,
51,-1.60e-03,
52,2.40e-03,
53,-1.60e-03,
54,2.80e-03,
55,-1.60e-03,
56,-1.60e-03,
57,2.40e-03,
58,-1.60e-03,
59,2.80e-03,
60,2.40e-03,
61,-2.40e-03,
62,-1.60e-03,
63,1.60e-03,
64,-1.60e-03,
65,1.60e-03,
66,1.60e-03,
67,-1.60e-03,
68,1.60e-03,
69,-1.60e-03,
70,2.40e-03,
71,-1.60e-03,
72,2.80e-03,
73,-2.40e-03,
74,-8.00e-04,
75,2.40e-03,
76,2.00e-03,
77,-1.60e-03,
78,-1.60e-03,
79,2.00e-03,
80,1.60e-03,
81,-1.60e-03,
82,-1.60e-03,
83,1.60e-03,
84,1.60e-03,
85,-2.40e-03,
86,1.60e-03,
87,-2.40e-03,
88,2.00e-03,
89,-1.60e-03,
90,-1.60e-03,
91,2.00e-03,
92,2.80e-03,
93,-2.40e-03,
94,-1.60e-03,
95,2.40e-03,
96,2.40e-03,
97,-1.60e-03,
98,2.00e-03,
99,-2.40e-03,
100,1.60e-03,
101,-1.60e-03,
102,-1.60e-03,
103,2.40e-03,
104,-1.60e-03,
105,2.40e-03,
106,2.40e-03,
107,-1.60e-03,
108,2.40e-03,
109,-1.60e-03,
110,2.40e-03,
111,-2.40e-03,
112,-1.60e-03,
113,2.00e-03,
114,-1.60e-03,
115,2.00e-03,
116,1.60e-03,
117,-2.40e-03,
118,2.40e-03,
119,-1.60e-03,
120,-1.60e-03,
121,3.20e-03,
122,1.60e-03,
123,-2.40e-03,
124,-8.00e-04,
125,2.40e-03,
126,2.40e-03,
127,-2.40e-03,
128,1.60e-03,
129,-1.60e-03,
130,2.00e-03,
131,-2.40e-03,
132,2.40e-03,
133,-1.60e-03,
134,2.40e-03,
135,-1.60e-03,
136,1.60e-03,
137,-1.60e-03,
138,-2.40e-03,
139,2.40e-03,
140,1.60e-03,
141,-2.40e-03,
142,3.20e-03,
143,-1.60e-03,
144,2.40e-03,
145,-2.40e-03,
146,2.40e-03,
147,-1.60e-03,
148,-1.60e-03,
149,2.40e-03,
150,3.20e-03,
151,-1.60e-03,
152,2.80e-03,
153,-1.60e-03,
154,2.00e-03,
155,-1.60e-03,
156,1.60e-03,
157,-2.40e-03,
158,-1.60e-03,
159,2.00e-03,
160,1.60e-03,
161,-1.60e-03,
162,-1.60e-03,
163,1.60e-03,
164,2.40e-03,
165,-1.60e-03,
166,-1.60e-03,
167,2.40e-03,
168,-1.60e-03,
169,1.60e-03,
170,-1.60e-03,
171,2.80e-03,
172,-2.40e-03,
173,2.40e-03,
174,-2.40e-03,
175,2.00e-03,
176,1.60e-03,
177,-1.60e-03,
178,-1.60e-03,
179,2.40e-03,
180,2.00e-03,
181,-2.40e-03,
182,2.40e-03,
183,-1.60e-03,
184,2.40e-03,
185,-1.60e-03,
186,-1.60e-03,
187,1.60e-03,
188,-1.60e-03,
189,2.40e-03,
190,2.00e-03,
191,-1.60e-03,
192,2.40e-03,
193,-1.60e-03,
194,2.40e-03,
195,-1.60e-03,
196,2.40e-03,
197,-1.60e-03,
198,2.40e-03,
199,-2.40e-03,
200,-1.60e-03,
201,1.60e-03,
202,-1.60e-03,
203,2.40e-03,
204,-8.00e-04,
205,2.40e-03,
206,2.80e-03,
207,-1.60e-03,
208,2.40e-03,
209,-1.60e-03,
210,3.20e-03,
211,-1.60e-03,
212,-1.60e-03,
213,2.80e-03,
214,1.60e-03,
215,-1.60e-03,
216,2.00e-03,
217,-1.60e-03,
218,-2.40e-03,
219,3.20e-03,
220,2.40e-03,
221,-1.60e-03,
222,2.40e-03,
223,-1.60e-03,
224,-1.60e-03,
225,2.40e-03,
226,2.40e-03,
227,-1.60e-03,
228,2.40e-03,
229,-1.60e-03,
230,2.40e-03,
231,-1.60e-03,
232,2.40e-03,
233,-1.60e-03,
234,-1.60e-03,
235,2.40e-03,
236,2.40e-03,
237,-8.00e-04,
238,-1.60e-03,
239,2.80e-03,
240,-1.60e-03,
241,2.40e-03,
242,2.00e-03,
243,-1.60e-03,
244,1.60e-03,
245,-1.60e-03,
246,-1.60e-03,
247,2.40e-03,
248,-1.60e-03,
249,2.40e-03,
250,2.00e-03,
251,-2.40e-03,
252,1.60e-03,
253,-2.40e-03,
254,2.00e-03,
255,-1.60e-03,
256,-1.60e-03,
257,3.20e-03,
258,-1.60e-03,
259,1.60e-03,
260,-1.60e-03,
261,1.60e-03,
262,-1.60e-03,
263,2.00e-03,
264,1.60e-03,
265,-1.60e-03,
266,2.40e-03,
267,-1.60e-03,
268,2.40e-03,
269,-2.40e-03,
270,1.60e-03,
271,-1.60e-03,
272,1.60e-03,
273,-1.60e-03,
274,2.00e-03,
275,-3.20e-03,
276,-1.60e-03,
277,2.40e-03,
278,-2.40e-03,
279,2.40e-03,
280,-1.60e-03,
281,2.40e-03,
282,-1.60e-03,
283,2.00e-03,
284,1.60e-03,
285,-1.60e-03,
286,-8.00e-04,
287,2.40e-03,
288,-8.00e-04,
289,2.40e-03,
290,-8.00e-04,
291,2.80e-03,
292,-1.60e-03,
293,2.80e-03,
294,-1.60e-03,
295,2.40e-03,
296,3.20e-03,
297,-1.60e-03,
298,2.80e-03,
299,-1.60e-03,
300,2.40e-03,
301,-1.60e-03,
302,2.40e-03,
303,-1.60e-03,
304,2.00e-03,
305,-1.60e-03,
306,-1.60e-03,
307,2.40e-03,
308,2.40e-03,
309,-1.60e-03,
310,-1.60e-03,
311,1.60e-03,
312,2.00e-03,
313,-1.60e-03,
314,2.40e-03,
315,-1.60e-03,
316,2.40e-03,
317,-1.60e-03,
318,-1.60e-03,
319,2.40e-03,
320,2.40e-03,
321,-1.60e-03,
322,-1.20e-03,
323,2.80e-03,
324,2.40e-03,
325,-1.60e-03,
326,2.40e-03,
327,-1.60e-03,
328,-2.40e-03,
329,2.80e-03,
330,-1.60e-03,
331,2.00e-03,
332,2.00e-03,
333,-1.60e-03,
334,2.40e-03,
335,-2.40e-03,
336,2.40e-03,
337,-2.40e-03,
338,-1.60e-03,
339,2.40e-03,
340,-2.40e-03,
341,2.40e-03,
342,-1.60e-03,
343,2.80e-03,
344,-1.60e-03,
345,2.40e-03,
346,2.40e-03,
347,-2.40e-03,
348,2.40e-03,
349,-1.60e-03,
350,2.00e-03,
351,-1.60e-03,
352,1.60e-03,
353,-1.60e-03,
354,2.00e-03,
355,-8.00e-04,
356,-1.60e-03,
357,2.40e-03,
358,2.40e-03,
359,-1.60e-03,
360,1.60e-03,
361,-2.40e-03,
362,-1.60e-03,
363,2.40e-03,
364,-1.60e-03,
365,2.40e-03,
366,2.40e-03,
367,-1.60e-03,
368,-1.60e-03,
369,2.40e-03,
370,2.40e-03,
371,-1.60e-03,
372,-1.60e-03,
373,2.00e-03,
374,2.40e-03,
375,-1.60e-03,
376,-2.40e-03,
377,2.80e-03,
378,-1.60e-03,
379,2.00e-03,
380,-1.60e-03,
381,2.40e-03,
382,1.60e-03,
383,-1.60e-03,
384,-1.60e-03,
385,2.40e-03,
386,2.40e-03,
387,-3.20e-03,
388,1.60e-03,
389,-1.60e-03,
390,2.00e-03,
391,-1.60e-03,
392,1.60e-03,
393,-1.60e-03,
394,-1.60e-03,
395,2.40e-03,
396,2.40e-03,
397,-2.40e-03,
398,2.00e-03,
399,-2.40e-03,
400,2.40e-03,
401,-1.60e-03,
402,-1.60e-03,
403,2.40e-03,
404,-2.40e-03,
405,2.40e-03,
406,2.40e-03,
407,-1.60e-03,
408,2.40e-03,
409,-2.40e-03,
410,2.40e-03,
411,-1.60e-03,
412,-2.40e-03,
413,2.00e-03,
414,-1.60e-03,
415,1.60e-03,
416,-1.60e-03,
417,2.40e-03,
418,-2.40e-03,
419,2.40e-03,
420,2.40e-03,
421,-1.60e-03,
422,2.00e-03,
423,-1.60e-03,
424,2.40e-03,
425,-2.40e-03,
426,1.60e-03,
427,-1.60e-03,
428,-1.60e-03,
429,2.40e-03,
430,2.40e-03,
431,-1.60e-03,
432,-1.60e-03,
433,2.00e-03,
434,-1.60e-03,
435,2.00e-03,
436,-2.40e-03,
437,2.00e-03,
438,1.60e-03,
439,-2.40e-03,
440,-2.40e-03,
441,2.40e-03,
442,-2.40e-03,
443,2.00e-03,
444,2.80e-03,
445,-1.60e-03,
446,2.00e-03,
447,-2.40e-03,
448,2.80e-03,
449,-2.40e-03,
450,1.60e-03,
451,-2.40e-03,
452,-1.60e-03,
453,2.40e-03,
454,1.60e-03,
455,-1.60e-03,
456,2.00e-03,
457,-2.40e-03,
458,-1.60e-03,
459,2.00e-03,
460,1.60e-03,
461,-1.60e-03,
462,2.40e-03,
463,-1.60e-03,
464,-8.00e-04,
465,1.60e-03,
466,1.60e-03,
467,-1.60e-03,
468,2.00e-03,
469,-1.60e-03,
470,1.60e-03,
471,-1.60e-03,
472,2.00e-03,
473,-2.40e-03,
474,2.40e-03,
475,-2.40e-03,
476,2.40e-03,
477,-1.60e-03,
478,-1.60e-03,
479,2.40e-03,
480,2.00e-03,
481,-2.40e-03,
482,1.60e-03,
483,-2.40e-03,
484,2.40e-03,
485,-2.40e-03,
486,2.00e-03,
487,-3.20e-03,
488,-1.60e-03,
489,1.60e-03,
490,2.40e-03,
491,-1.60e-03,
492,-1.60e-03,
493,2.00e-03,
494,-1.60e-03,
495,2.40e-03,
496,2.40e-03,
497,-1.60e-03,
498,2.40e-03,
499,-1.60e-03,
500,-2.40e-03,
501,2.00e-03,
502,3.20e-03,
503,-1.60e-03,
504,-1.60e-03,
505,2.40e-03,
506,2.00e-03,
507,-1.60e-03,
508,-1.60e-03,
509,3.20e-03,
510,-8.00e-04,
511,2.40e-03,
512,1.60e-03,
513,-2.40e-03,
514,2.00e-03,
515,-1.60e-03,
516,-1.60e-03,
517,2.00e-03,
518,2.40e-03,
519,-1.60e-03,
520,-1.60e-03,
521,2.00e-03,
522,-2.40e-03,
523,2.00e-03,
524,1.60e-03,
525,-1.60e-03,
526,-1.60e-03,
527,2.40e-03,
528,2.40e-03,
529,-1.60e-03,
530,-2.40e-03,
531,2.40e-03,
532,2.40e-03,
533,-1.60e-03,
534,2.40e-03,
535,-1.60e-03,
536,-1.60e-03,
537,2.40e-03,
538,-1.60e-03,
539,3.20e-03,
540,1.60e-03,
541,-2.40e-03,
542,1.60e-03,
543,-1.60e-03,
544,1.60e-03,
545,-2.40e-03,
546,-1.60e-03,
547,2.40e-03,
548,2.40e-03,
549,-1.60e-03,
550,2.00e-03,
551,-1.60e-03,
552,2.40e-03,
553,-1.60e-03,
554,2.00e-03,
555,-1.60e-03,
556,1.60e-03,
557,-1.60e-03,
558,-2.40e-03,
559,2.00e-03,
560,-1.60e-03,
561,1.60e-03,
562,-1.60e-03,
563,2.00e-03,
564,-1.60e-03,
565,2.40e-03,
566,-1.60e-03,
567,1.60e-03,
568,2.00e-03,
569,-1.60e-03,
570,-1.60e-03,
571,2.40e-03,
572,2.40e-03,
573,-1.60e-03,
574,2.00e-03,
575,-1.60e-03,
576,-1.60e-03,
577,1.60e-03,
578,-1.60e-03,
579,2.00e-03,
580,2.40e-03,
581,-1.60e-03,
582,-2.40e-03,
583,2.00e-03,
584,-1.60e-03,
585,2.40e-03,
586,-1.60e-03,
587,2.40e-03,
588,2.40e-03,
589,-2.40e-03,
590,2.40e-03,
591,-8.00e-04,
592,1.60e-03,
593,-1.60e-03,
594,-2.40e-03,
595,2.00e-03,
596,1.60e-03,
597,-1.60e-03,
598,2.40e-03,
599,-2.40e-03,
600,-1.60e-03,
601,2.40e-03,
602,1.60e-03,
603,-2.40e-03,
604,-8.00e-04,
605,2.40e-03,
606,-1.60e-03,
607,2.40e-03,
608,-1.60e-03,
609,2.00e-03,
610,-1.60e-03,
611,2.40e-03,
612,2.00e-03,
613,-2.40e-03,
614,2.00e-03,
615,-2.40e-03,
616,-2.40e-03,
617,1.60e-03,
618,1.60e-03,
619,-1.60e-03,
620,2.40e-03,
621,-2.40e-03,
622,-1.60e-03,
623,1.60e-03,
624,1.60e-03,
625,-1.60e-03,
626,-2.40e-03,
627,2.40e-03,
628,-1.60e-03,
629,1.60e-03,
630,-1.60e-03,
631,2.40e-03,
632,-1.60e-03,
633,2.00e-03,
634,-1.60e-03,
635,2.40e-03,
636,2.40e-03,
637,-1.60e-03,
638,-1.60e-03,
639,2.00e-03,
640,2.40e-03,
641,-2.40e-03,
642,-1.60e-03,
643,2.00e-03,
644,-1.60e-03,
645,1.60e-03,
646,2.00e-03,
647,-2.40e-03,
648,1.60e-03,
649,-2.40e-03,
650,1.60e-03,
651,-3.20e-03,
652,-2.40e-03,
653,2.40e-03,
654,-2.40e-03,
655,2.00e-03,
656,-2.40e-03,
657,2.40e-03,
658,-1.60e-03,
659,1.60e-03,
660,-2.40e-03,
661,2.40e-03,
662,2.40e-03,
663,-2.40e-03,
664,2.00e-03,
665,-2.40e-03,
666,1.60e-03,
667,-2.40e-03,
668,-2.40e-03,
669,2.40e-03,
670,-2.40e-03,
671,2.00e-03,
672,-1.60e-03,
673,1.60e-03,
674,2.40e-03,
675,-2.40e-03,
676,1.60e-03,
677,-1.60e-03,
678,1.60e-03,
679,-1.60e-03,
680,-1.60e-03,
681,1.60e-03,
682,2.00e-03,
683,-2.40e-03,
684,2.40e-03,
685,-1.60e-03,
686,-1.60e-03,
687,2.00e-03,
688,-1.60e-03,
689,2.40e-03,
690,-1.60e-03,
691,1.60e-03,
692,1.60e-03,
693,-2.40e-03,
694,2.00e-03,
695,-2.40e-03,
696,1.60e-03,
697,-1.60e-03,
698,-8.00e-04,
699,2.00e-03,
700,1.60e-03,
701,-2.40e-03,
702,-1.60e-03,
703,2.40e-03,
704,-1.60e-03,
705,2.40e-03,
706,2.40e-03,
707,-2.40e-03,
708,-2.40e-03,
709,2.40e-03,
710,2.40e-03,
711,-2.40e-03,
712,-1.60e-03,
713,1.60e-03,
714,2.40e-03,
715,-2.40e-03,
716,1.60e-03,
717,-2.40e-03,
718,2.40e-03,
719,-1.60e-03,
720,2.40e-03,
721,-1.60e-03,
722,2.00e-03,
723,-2.40e-03,
724,2.40e-03,
725,-2.40e-03,
726,-1.60e-03,
727,2.40e-03,
728,-2.40e-03,
729,2.80e-03,
730,2.40e-03,
731,-2.40e-03,
732,-1.60e-03,
733,2.80e-03,
734,-1.60e-03,
735,2.40e-03,
736,-2.40e-03,
737,2.40e-03,
738,-1.60e-03,
739,2.00e-03,
740,-1.60e-03,
741,2.40e-03,
742,1.60e-03,
743,-1.60e-03,
744,-1.60e-03,
745,2.40e-03,
746,-2.40e-03,
747,1.60e-03,
748,2.40e-03,
749,-2.40e-03,
750,-1.60e-03,
751,2.40e-03,
752,1.60e-03,
753,-2.40e-03,
754,-1.60e-03,
755,2.00e-03,
756,2.00e-03,
757,-2.40e-03,
758,-2.40e-03,
759,2.40e-03,
760,1.60e-03,
761,-2.40e-03,
762,1.60e-03,
763,-2.40e-03,
764,-2.40e-03,
765,2.00e-03,
766,-2.40e-03,
767,2.00e-03,
768,1.60e-03,
769,-1.60e-03,
770,-1.60e-03,
771,2.00e-03,
772,2.40e-03,
773,-1.60e-03,
774,1.60e-03,
775,-1.60e-03,
776,-1.60e-03,
777,1.60e-03,
778,1.60e-03,
779,-1.60e-03,
780,-1.60e-03,
781,2.00e-03,
782,-1.60e-03,
783,2.00e-03,
784,-1.60e-03,
785,2.40e-03,
786,1.60e-03,
787,-2.40e-03,
788,-2.40e-03,
789,2.80e-03,
790,-2.40e-03,
791,1.60e-03,
792,2.40e-03,
793,-1.60e-03,
794,-1.60e-03,
795,2.00e-03,
796,2.00e-03,
797,-2.40e-03,
798,1.60e-03,
799,-2.80e-03,
800,2.40e-03,
801,-2.00e-03,
802,2.40e-03,
803,-1.60e-03,
804,2.80e-03,
805,-2.40e-03,
806,-2.40e-03,
807,1.60e-03,
808,-1.60e-03,
809,2.40e-03,
810,-1.60e-03,
811,2.40e-03,
812,2.00e-03,
813,-1.60e-03,
814,1.60e-03,
815,-2.40e-03,
816,2.40e-03,
817,-2.40e-03,
818,-1.60e-03,
819,2.40e-03,
820,2.00e-03,
821,-1.60e-03,
822,-1.60e-03,
823,2.00e-03,
824,1.60e-03,
825,-1.60e-03,
826,2.80e-03,
827,-1.60e-03,
828,2.40e-03,
829,-1.60e-03,
830,2.40e-03,
831,-1.60e-03,
832,-1.60e-03,
833,1.60e-03,
834,2.40e-03,
835,-1.60e-03,
836,2.40e-03,
837,-1.60e-03,
838,1.60e-03,
839,-1.60e-03,
840,2.00e-03,
841,-1.60e-03,
842,-1.60e-03,
843,2.00e-03,
844,2.00e-03,
845,-2.40e-03,
846,2.40e-03,
847,-2.40e-03,
848,-1.60e-03,
849,2.40e-03,
850,-2.40e-03,
851,2.00e-03,
852,-1.60e-03,
853,2.40e-03,
854,-1.60e-03,
855,2.40e-03,
856,1.60e-03,
857,-2.40e-03,
858,2.00e-03,
859,-2.40e-03,
860,-1.60e-03,
861,2.00e-03,
862,2.40e-03,
863,-1.60e-03,
864,-2.40e-03,
865,2.00e-03,
866,3.20e-03,
867,-1.60e-03,
868,-1.60e-03,
869,2.40e-03,
870,2.00e-03,
871,-2.40e-03,
872,-1.60e-03,
873,2.00e-03,
874,2.40e-03,
875,-2.40e-03,
876,-2.40e-03,
877,2.40e-03,
878,2.00e-03,
879,-1.60e-03,
880,2.40e-03,
881,-2.40e-03,
882,2.00e-03,
883,-1.60e-03,
884,-1.60e-03,
885,2.40e-03,
886,1.60e-03,
887,-2.40e-03,
888,2.00e-03,
889,-2.40e-03,
890,2.00e-03,
891,-2.40e-03,
892,-2.40e-03,
893,2.00e-03,
894,-1.60e-03,
895,3.20e-03,
896,-1.60e-03,
897,2.40e-03,
898,2.40e-03,
899,-2.40e-03,
900,2.40e-03,
901,-1.60e-03,
902,2.40e-03,
903,-1.60e-03,
904,2.40e-03,
905,-1.60e-03,
906,-1.60e-03,
907,2.40e-03,
908,2.40e-03,
909,-1.60e-03,
910,2.00e-03,
911,-2.40e-03,
912,-8.00e-04,
913,2.40e-03,
914,2.40e-03,
915,-2.40e-03,
916,2.40e-03,
917,-1.60e-03,
918,2.40e-03,
919,-1.60e-03,
920,1.60e-03,
921,-3.20e-03,
922,-1.60e-03,
923,2.40e-03,
924,1.60e-03,
925,-2.40e-03,
926,2.00e-03,
927,-2.40e-03,
928,1.60e-03,
929,-1.60e-03,
930,-1.60e-03,
931,2.00e-03,
932,-2.40e-03,
933,2.40e-03,
934,2.40e-03,
935,-2.40e-03,
936,-8.00e-04,
937,1.60e-03,
938,2.40e-03,
939,-1.60e-03,
940,2.40e-03,
941,-1.60e-03,
942,-1.60e-03,
943,2.80e-03,
944,-1.60e-03,
945,2.40e-03,
946,2.40e-03,
947,-1.60e-03,
948,-1.60e-03,
949,2.40e-03,
950,2.40e-03,
951,-2.40e-03,
952,2.00e-03,
953,-2.40e-03,
954,2.40e-03,
955,-2.40e-03,
956,3.20e-03,
957,-1.60e-03,
958,4.00e-03,
959,-2.40e-03,
960,-8.00e-04,
961,2.80e-03,
962,-1.60e-03,
963,2.40e-03,
964,1.60e-03,
965,-1.60e-03,
966,-1.60e-03,
967,3.20e-03,
968,2.40e-03,
969,-2.40e-03,
970,-1.60e-03,
971,2.40e-03,
972,2.80e-03,
973,-1.60e-03,
974,2.40e-03,
975,-1.60e-03,
976,2.00e-03,
977,-1.60e-03,
978,-1.60e-03,
979,2.40e-03,
980,2.40e-03,
981,-1.60e-03,
982,2.40e-03,
983,-1.60e-03,
984,2.00e-03,
985,-1.60e-03,
986,-1.60e-03,
987,1.60e-03,
988,-1.60e-03,
989,2.40e-03,
990,1.60e-03,
991,-1.60e-03,
992,-1.60e-03,
993,2.40e-03,
994,2.40e-03,
995,-2.40e-03,
996,-1.60e-03,
997,2.40e-03,
998,-1.60e-03,
999,2.00e-03,
1000,2.00e-03,
1001,-2.40e-03,
1002,-1.60e-03,
1003,2.00e-03,
1004,2.40e-03,
1005,-2.40e-03,
1006,-1.60e-03,
1007,2.40e-03,
1008,-1.60e-03,
1009,2.00e-03,
1010,-1.60e-03,
1011,2.40e-03,
1012,1.60e-03,
1013,-8.00e-04,
1014,2.40e-03,
1015,-1.60e-03,
1016,1.60e-03,
1017,-1.60e-03,
1018,-1.60e-03,
1019,2.00e-03,
1020,-2.40e-03,
1021,2.00e-03,
1022,2.40e-03,
1023,-1.60e-03,
1024,-1.60e-03,
1025,2.40e-03,
1026,-1.60e-03,
1027,2.40e-03,
1028,-1.60e-03,
1029,2.40e-03,
1030,-1.60e-03,
1031,2.80e-03,
1032,-1.60e-03,
1033,2.80e-03,
1034,-1.60e-03,
1035,2.40e-03,
1036,2.40e-03,
1037,-2.40e-03,
1038,-1.60e-03,
1039,2.80e-03,
1040,2.40e-03,
1041,-1.60e-03,
1042,2.40e-03,
1043,-1.60e-03,
1044,-1.60e-03,
1045,3.20e-03,
1046,-1.60e-03,
1047,3.20e-03,
1048,-1.60e-03,
1049,2.80e-03,
1050,2.40e-03,
1051,-1.60e-03,
1052,2.40e-03,
1053,-2.40e-03,
1054,2.00e-03,
1055,-1.60e-03,
1056,-1.60e-03,
1057,3.20e-03,
1058,2.40e-03,
1059,-1.60e-03,
1060,3.20e-03,
1061,-1.60e-03,
1062,-1.60e-03,
1063,2.40e-03,
1064,-1.60e-03,
1065,2.40e-03,
1066,2.40e-03,
1067,-2.40e-03,
1068,3.20e-03,
1069,-1.60e-03,
1070,-8.00e-04,
1071,2.40e-03,
1072,-1.60e-03,
1073,2.40e-03,
1074,-1.60e-03,
1075,2.00e-03,
1076,2.40e-03,
1077,-2.40e-03,
1078,-2.40e-03,
1079,2.40e-03,
1080,2.40e-03,
1081,-2.40e-03,
1082,-1.60e-03,
1083,2.40e-03,
1084,-1.60e-03,
1085,2.40e-03,
1086,2.40e-03,
1087,-2.40e-03,
1088,-1.60e-03,
1089,2.40e-03,
1090,-1.60e-03,
1091,2.40e-03,
1092,-1.60e-03,
1093,2.00e-03,
1094,-1.60e-03,
1095,2.40e-03,
1096,-1.60e-03,
1097,1.60e-03,
1098,1.60e-03,
1099,-1.60e-03,
1100,2.40e-03,
1101,-1.60e-03,
1102,2.40e-03,
1103,-1.60e-03,
1104,2.40e-03,
1105,-2.40e-03,
1106,-1.60e-03,
1107,2.00e-03,
1108,-1.60e-03,
1109,2.40e-03,
1110,-1.60e-03,
1111,2.40e-03,
1112,-1.60e-03,
1113,1.60e-03,
1114,1.60e-03,
1115,-1.60e-03,
1116,2.40e-03,
1117,-1.60e-03,
1118,1.60e-03,
1119,-1.60e-03,
1120,-2.40e-03,
1121,2.40e-03,
1122,2.40e-03,
1123,-1.60e-03,
1124,2.40e-03,
1125,-1.60e-03,
1126,2.80e-03,
1127,-1.60e-03,
1128,-8.00e-04,
1129,3.20e-03,
1130,-8.00e-04,
1131,2.40e-03,
1132,-1.60e-03,
1133,2.80e-03,
1134,-2.40e-03,
1135,3.20e-03,
1136,2.40e-03,
1137,-8.00e-04,
1138,1.60e-03,
1139,-1.60e-03,
1140,2.40e-03,
1141,-1.60e-03,
1142,2.40e-03,
1143,-1.60e-03,
1144,-1.60e-03,
1145,2.00e-03,
1146,2.40e-03,
1147,-1.60e-03,
1148,-1.60e-03,
1149,3.20e-03,
1150,-1.60e-03,
1151,2.00e-03,
1152,-8.00e-04,
1153,2.40e-03,
1154,2.40e-03,
1155,-1.60e-03,
1156,-1.60e-03,
1157,2.80e-03,
1158,2.40e-03,
1159,-1.60e-03,
1160,2.40e-03,
1161,-1.60e-03,
1162,1.60e-03,
1163,-1.60e-03,
1164,1.20e-03,
1165,-1.60e-03,
1166,-1.60e-03,
1167,1.60e-03,
1168,2.40e-03,
1169,-2.40e-03,
1170,-2.40e-03,
1171,2.40e-03,
1172,-2.40e-03,
1173,2.00e-03,
1174,-2.40e-03,
1175,1.60e-03,
1176,-1.60e-03,
1177,2.40e-03,
1178,-2.40e-03,
1179,2.00e-03,
1180,-1.60e-03,
1181,2.40e-03,
1182,-1.60e-03,
1183,2.40e-03,
1184,1.60e-03,
1185,-2.40e-03,
1186,-1.60e-03,
1187,2.40e-03,
1188,-1.60e-03,
1189,2.40e-03,
1190,2.00e-03,
1191,-1.60e-03,
1192,2.00e-03,
1193,-2.40e-03,
1194,-1.60e-03,
1195,2.40e-03,
1196,1.60e-03,
1197,-1.60e-03,
1198,-1.60e-03,
1199,1.60e-03,
