fastdiffamp/data-noise-set/old-str-wk/strong-balanced/NewFile4.csv

X,CH1,Start,Increment,
Sequence,Volt,-1.148000e+01,2.000000e-02
0,2.40e-03,
1,-3.20e-03,
2,-2.40e-03,
3,2.40e-03,
4,-3.20e-03,
5,2.40e-03,
6,2.40e-03,
7,-2.40e-03,
8,2.40e-03,
9,-3.20e-03,
10,-1.60e-03,
11,2.80e-03,
12,-2.40e-03,
13,2.40e-03,
14,-2.40e-03,
15,3.20e-03,
16,-2.40e-03,
17,2.40e-03,
18,-1.60e-03,
19,3.20e-03,
20,-2.40e-03,
21,2.80e-03,
22,2.40e-03,
23,-2.40e-03,
24,-3.20e-03,
25,2.80e-03,
26,-2.40e-03,
27,2.40e-03,
28,2.40e-03,
29,-2.40e-03,
30,-2.40e-03,
31,3.20e-03,
32,-2.40e-03,
33,2.40e-03,
34,-3.20e-03,
35,2.40e-03,
36,2.40e-03,
37,-2.40e-03,
38,1.60e-03,
39,-2.40e-03,
40,2.40e-03,
41,-3.20e-03,
42,3.20e-03,
43,-2.40e-03,
44,2.40e-03,
45,-1.60e-03,
46,2.40e-03,
47,-2.40e-03,
48,2.80e-03,
49,-2.40e-03,
50,2.40e-03,
51,-2.40e-03,
52,1.60e-03,
53,-2.40e-03,
54,-2.40e-03,
55,2.00e-03,
56,2.40e-03,
57,-4.00e-03,
58,-2.40e-03,
59,2.40e-03,
60,2.40e-03,
61,-2.40e-03,
62,3.20e-03,
63,-3.20e-03,
64,2.40e-03,
65,-2.40e-03,
66,2.40e-03,
67,-2.40e-03,
68,-2.40e-03,
69,2.40e-03,
70,-2.40e-03,
71,2.80e-03,
72,-3.20e-03,
73,1.60e-03,
74,-3.20e-03,
75,2.40e-03,
76,-2.40e-03,
77,2.40e-03,
78,-2.40e-03,
79,3.20e-03,
80,-1.60e-03,
81,2.80e-03,
82,-1.60e-03,
83,3.20e-03,
84,-2.40e-03,
85,2.40e-03,
86,2.40e-03,
87,-3.20e-03,
88,-2.40e-03,
89,2.40e-03,
90,2.40e-03,
91,-2.40e-03,
92,-2.40e-03,
93,2.40e-03,
94,-2.40e-03,
95,2.40e-03,
96,2.40e-03,
97,-2.40e-03,
98,-3.20e-03,
99,2.40e-03,
100,2.40e-03,
101,-2.40e-03,
102,2.40e-03,
103,-2.40e-03,
104,-2.40e-03,
105,2.80e-03,
106,2.80e-03,
107,-2.40e-03,
108,-3.20e-03,
109,2.40e-03,
110,-2.40e-03,
111,2.40e-03,
112,-2.40e-03,
113,2.40e-03,
114,3.20e-03,
115,-2.40e-03,
116,-1.60e-03,
117,3.20e-03,
118,-3.20e-03,
119,2.40e-03,
120,2.40e-03,
121,-2.40e-03,
122,2.80e-03,
123,-2.40e-03,
124,3.20e-03,
125,-3.20e-03,
126,-2.40e-03,
127,2.40e-03,
128,2.40e-03,
129,-1.60e-03,
130,-2.40e-03,
131,2.40e-03,
132,2.40e-03,
133,-2.40e-03,
134,-2.40e-03,
135,2.40e-03,
136,2.40e-03,
137,-2.40e-03,
138,4.00e-03,
139,-2.40e-03,
140,-2.40e-03,
141,3.20e-03,
142,-2.40e-03,
143,2.40e-03,
144,2.40e-03,
145,-2.40e-03,
146,2.40e-03,
147,-2.40e-03,
148,-8.00e-04,
149,3.20e-03,
150,-2.40e-03,
151,2.40e-03,
152,2.40e-03,
153,-2.40e-03,
154,-1.60e-03,
155,2.40e-03,
156,-2.40e-03,
157,2.40e-03,
158,2.40e-03,
159,-1.60e-03,
160,2.40e-03,
161,-1.60e-03,
162,-2.40e-03,
163,2.40e-03,
164,-3.20e-03,
165,2.00e-03,
166,3.20e-03,
167,-2.40e-03,
168,2.40e-03,
169,-2.40e-03,
170,2.40e-03,
171,-3.20e-03,
172,-3.20e-03,
173,2.40e-03,
174,-2.40e-03,
175,2.40e-03,
176,-2.40e-03,
177,3.20e-03,
178,-2.40e-03,
179,2.40e-03,
180,-1.60e-03,
181,2.40e-03,
182,2.40e-03,
183,-2.40e-03,
184,2.00e-03,
185,-3.20e-03,
186,1.60e-03,
187,-3.20e-03,
188,-2.40e-03,
189,2.40e-03,
190,-2.40e-03,
191,2.40e-03,
192,2.40e-03,
193,-2.40e-03,
194,-2.40e-03,
195,3.20e-03,
196,1.60e-03,
197,-2.80e-03,
198,-2.40e-03,
199,1.60e-03,
200,-2.80e-03,
201,2.40e-03,
202,-3.20e-03,
203,2.40e-03,
204,2.40e-03,
205,-2.40e-03,
206,-2.40e-03,
207,3.20e-03,
208,-2.40e-03,
209,2.40e-03,
210,-3.20e-03,
211,2.80e-03,
212,2.40e-03,
213,-3.20e-03,
214,-3.20e-03,
215,3.20e-03,
216,-2.40e-03,
217,2.40e-03,
218,2.00e-03,
219,-2.40e-03,
220,-2.40e-03,
221,3.20e-03,
222,-2.40e-03,
223,2.40e-03,
224,-2.40e-03,
225,2.40e-03,
226,-3.20e-03,
227,3.20e-03,
228,-3.20e-03,
229,3.20e-03,
230,2.40e-03,
231,-1.60e-03,
232,-2.40e-03,
233,2.40e-03,
234,2.40e-03,
235,-2.40e-03,
236,-3.60e-03,
237,2.40e-03,
238,-3.20e-03,
239,2.40e-03,
240,-1.60e-03,
241,2.40e-03,
242,-2.40e-03,
243,2.40e-03,
244,-2.40e-03,
245,3.20e-03,
246,-3.20e-03,
247,2.40e-03,
248,-2.40e-03,
249,2.00e-03,
250,2.40e-03,
251,-2.40e-03,
252,2.80e-03,
253,-1.60e-03,
254,-2.40e-03,
255,3.20e-03,
256,2.40e-03,
257,-2.40e-03,
258,-2.40e-03,
259,2.40e-03,
260,-1.60e-03,
261,3.20e-03,
262,2.40e-03,
263,-2.40e-03,
264,2.40e-03,
265,-2.40e-03,
266,-2.40e-03,
267,3.20e-03,
268,-2.40e-03,
269,3.20e-03,
270,-2.40e-03,
271,2.40e-03,
272,2.40e-03,
273,-2.40e-03,
274,-2.80e-03,
275,2.80e-03,
276,-2.40e-03,
277,2.40e-03,
278,-2.40e-03,
279,2.40e-03,
280,-2.40e-03,
281,2.40e-03,
282,-1.60e-03,
283,2.40e-03,
284,-2.40e-03,
285,3.20e-03,
286,-2.80e-03,
287,2.40e-03,
288,2.40e-03,
289,-3.20e-03,
290,-3.20e-03,
291,2.40e-03,
292,2.40e-03,
293,-3.20e-03,
294,-2.40e-03,
295,3.20e-03,
296,2.00e-03,
297,-2.40e-03,
298,2.40e-03,
299,-3.20e-03,
300,2.40e-03,
301,-2.40e-03,
302,-2.40e-03,
303,2.40e-03,
304,3.20e-03,
305,-2.40e-03,
306,2.40e-03,
307,-2.40e-03,
308,-3.20e-03,
309,3.20e-03,
310,2.00e-03,
311,-2.40e-03,
312,-2.40e-03,
313,3.20e-03,
314,-3.20e-03,
315,3.20e-03,
316,2.00e-03,
317,-1.60e-03,
318,3.20e-03,
319,-3.20e-03,
320,2.00e-03,
321,-2.40e-03,
322,1.60e-03,
323,-2.40e-03,
324,1.60e-03,
325,-3.20e-03,
326,-2.80e-03,
327,2.40e-03,
328,-3.20e-03,
329,2.40e-03,
330,2.40e-03,
331,-3.20e-03,
332,-2.40e-03,
333,2.80e-03,
334,2.40e-03,
335,-1.60e-03,
336,-2.40e-03,
337,2.80e-03,
338,1.60e-03,
339,-4.00e-03,
340,-3.20e-03,
341,3.20e-03,
342,-3.20e-03,
343,2.40e-03,
344,-1.60e-03,
345,2.00e-03,
346,-2.40e-03,
347,3.20e-03,
348,-2.40e-03,
349,2.40e-03,
350,2.40e-03,
351,-3.20e-03,
352,-3.20e-03,
353,3.20e-03,
354,-3.20e-03,
355,3.20e-03,
356,-3.20e-03,
357,2.40e-03,
358,-2.40e-03,
359,2.40e-03,
360,2.40e-03,
361,-2.40e-03,
362,-2.40e-03,
363,2.40e-03,
364,-2.40e-03,
365,3.20e-03,
366,2.80e-03,
367,-3.20e-03,
368,2.80e-03,
369,-3.20e-03,
370,2.40e-03,
371,-2.40e-03,
372,-2.40e-03,
373,2.40e-03,
374,2.40e-03,
375,-2.40e-03,
376,2.40e-03,
377,-2.40e-03,
378,-3.20e-03,
379,3.20e-03,
380,2.40e-03,
381,-2.40e-03,
382,-2.40e-03,
383,2.40e-03,
384,-2.40e-03,
385,2.40e-03,
386,-2.40e-03,
387,2.00e-03,
388,2.40e-03,
389,-2.40e-03,
390,2.40e-03,
391,-2.40e-03,
392,-2.40e-03,
393,2.40e-03,
394,3.20e-03,
395,-3.20e-03,
396,-2.40e-03,
397,2.40e-03,
398,-2.40e-03,
399,2.40e-03,
400,-2.40e-03,
401,3.20e-03,
402,2.80e-03,
403,-2.40e-03,
404,2.40e-03,
405,-2.40e-03,
406,-3.20e-03,
407,3.20e-03,
408,1.60e-03,
409,-2.40e-03,
410,-3.20e-03,
411,3.20e-03,
412,2.40e-03,
413,-2.40e-03,
414,2.40e-03,
415,-2.40e-03,
416,-2.40e-03,
417,2.40e-03,
418,2.40e-03,
419,-2.40e-03,
420,-2.40e-03,
421,2.80e-03,
422,-2.40e-03,
423,3.20e-03,
424,2.40e-03,
425,-2.40e-03,
426,2.80e-03,
427,-2.40e-03,
428,2.40e-03,
429,-2.40e-03,
430,2.40e-03,
431,-2.40e-03,
432,-2.40e-03,
433,3.20e-03,
434,-2.40e-03,
435,2.40e-03,
436,2.80e-03,
437,-2.40e-03,
438,-2.40e-03,
439,2.40e-03,
440,-2.40e-03,
441,3.20e-03,
442,-3.20e-03,
443,2.40e-03,
444,-2.40e-03,
445,2.40e-03,
446,-2.40e-03,
447,2.40e-03,
448,-2.40e-03,
449,3.20e-03,
450,2.80e-03,
451,-3.20e-03,
452,-2.40e-03,
453,2.40e-03,
454,2.40e-03,
455,-3.20e-03,
456,-2.40e-03,
457,3.20e-03,
458,-2.40e-03,
459,2.40e-03,
460,-2.40e-03,
461,2.40e-03,
462,-2.40e-03,
463,3.20e-03,
464,2.40e-03,
465,-2.40e-03,
466,-2.40e-03,
467,3.20e-03,
468,-1.60e-03,
469,3.20e-03,
470,-1.60e-03,
471,2.40e-03,
472,2.40e-03,
473,-3.20e-03,
474,-1.60e-03,
475,2.80e-03,
476,2.40e-03,
477,-2.40e-03,
478,2.80e-03,
479,-2.40e-03,
480,-2.40e-03,
481,2.40e-03,
482,2.40e-03,
483,-2.40e-03,
484,-2.40e-03,
485,2.80e-03,
486,2.40e-03,
487,-3.20e-03,
488,3.20e-03,
489,-2.40e-03,
490,-2.40e-03,
491,2.40e-03,
492,-1.60e-03,
493,2.40e-03,
494,-3.20e-03,
495,2.40e-03,
496,2.40e-03,
497,-1.60e-03,
498,-2.40e-03,
499,3.20e-03,
500,2.40e-03,
501,-2.40e-03,
502,3.20e-03,
503,-3.20e-03,
504,-1.60e-03,
505,2.80e-03,
506,2.40e-03,
507,-2.40e-03,
508,-2.40e-03,
509,3.20e-03,
510,2.40e-03,
511,-2.40e-03,
512,2.40e-03,
513,-2.40e-03,
514,-1.60e-03,
515,3.20e-03,
516,-2.40e-03,
517,2.40e-03,
518,2.80e-03,
519,-3.20e-03,
520,-2.40e-03,
521,2.00e-03,
522,-1.60e-03,
523,3.20e-03,
524,-3.20e-03,
525,2.00e-03,
526,-3.20e-03,
527,3.20e-03,
528,-2.40e-03,
529,3.20e-03,
530,2.40e-03,
531,-2.40e-03,
532,2.40e-03,
533,-3.20e-03,
534,-3.20e-03,
535,2.40e-03,
536,2.40e-03,
537,-2.40e-03,
538,-2.40e-03,
539,2.40e-03,
540,2.40e-03,
541,-3.20e-03,
542,3.20e-03,
543,-2.40e-03,
544,-2.40e-03,
545,3.20e-03,
546,-2.40e-03,
547,2.40e-03,
548,2.40e-03,
549,-2.40e-03,
550,-2.40e-03,
551,3.20e-03,
552,2.40e-03,
553,-3.20e-03,
554,2.40e-03,
555,-2.40e-03,
556,-3.20e-03,
557,3.20e-03,
558,2.80e-03,
559,-3.20e-03,
560,-2.40e-03,
561,2.40e-03,
562,2.40e-03,
563,-2.40e-03,
564,-2.40e-03,
565,2.40e-03,
566,-2.40e-03,
567,2.80e-03,
568,-2.40e-03,
569,3.20e-03,
570,3.20e-03,
571,-2.40e-03,
572,2.40e-03,
573,-1.60e-03,
574,-2.40e-03,
575,3.20e-03,
576,-2.40e-03,
577,2.40e-03,
578,2.40e-03,
579,-2.80e-03,
580,2.40e-03,
581,-2.40e-03,
582,-2.40e-03,
583,3.20e-03,
584,2.40e-03,
585,-1.60e-03,
586,2.40e-03,
587,-3.20e-03,
588,-2.40e-03,
589,2.40e-03,
590,2.40e-03,
591,-2.40e-03,
592,-1.60e-03,
593,2.80e-03,
594,2.40e-03,
595,-4.00e-03,
596,2.40e-03,
597,-3.20e-03,
598,-1.60e-03,
599,2.40e-03,
600,2.40e-03,
601,-2.40e-03,
602,3.20e-03,
603,-2.40e-03,
604,2.40e-03,
605,-2.40e-03,
606,3.20e-03,
607,-3.20e-03,
608,-2.40e-03,
609,2.40e-03,
610,2.40e-03,
611,-2.40e-03,
612,3.20e-03,
613,-2.40e-03,
614,-2.40e-03,
615,3.20e-03,
616,2.40e-03,
617,-2.40e-03,
618,-3.20e-03,
619,2.40e-03,
620,2.40e-03,
621,-2.40e-03,
622,2.40e-03,
623,-3.20e-03,
624,1.60e-03,
625,-2.40e-03,
626,-2.40e-03,
627,3.20e-03,
628,2.40e-03,
629,-2.40e-03,
630,2.00e-03,
631,-2.40e-03,
632,2.40e-03,
633,-3.20e-03,
634,-2.40e-03,
635,2.80e-03,
636,2.40e-03,
637,-3.20e-03,
638,3.20e-03,
639,-3.20e-03,
640,2.40e-03,
641,-3.20e-03,
642,2.40e-03,
643,-2.40e-03,
644,-2.40e-03,
645,2.40e-03,
646,-3.20e-03,
647,2.40e-03,
648,-2.40e-03,
649,2.40e-03,
650,2.40e-03,
651,-3.20e-03,
652,-2.40e-03,
653,2.00e-03,
654,2.40e-03,
655,-2.40e-03,
656,2.00e-03,
657,-3.20e-03,
658,-3.20e-03,
659,2.40e-03,
660,1.60e-03,
661,-2.40e-03,
662,-3.20e-03,
663,2.40e-03,
664,-2.40e-03,
665,2.40e-03,
666,-2.40e-03,
667,2.40e-03,
668,2.40e-03,
669,-3.20e-03,
670,2.40e-03,
671,-2.40e-03,
672,2.40e-03,
673,-2.40e-03,
674,-3.20e-03,
675,2.40e-03,
676,3.20e-03,
677,-3.20e-03,
678,2.40e-03,
679,-2.40e-03,
680,2.40e-03,
681,-2.40e-03,
682,1.60e-03,
683,-2.40e-03,
684,-3.20e-03,
685,3.20e-03,
686,-3.20e-03,
687,2.80e-03,
688,2.40e-03,
689,-3.20e-03,
690,2.40e-03,
691,-3.20e-03,
692,-3.20e-03,
693,2.00e-03,
694,2.40e-03,
695,-2.40e-03,
696,-2.40e-03,
697,2.40e-03,
698,2.40e-03,
699,-2.40e-03,
700,-3.20e-03,
701,2.40e-03,
702,-2.40e-03,
703,2.40e-03,
704,-2.40e-03,
705,2.00e-03,
706,2.40e-03,
707,-2.40e-03,
708,1.60e-03,
709,-2.40e-03,
710,-1.60e-03,
711,3.20e-03,
712,-2.40e-03,
713,2.40e-03,
714,3.20e-03,
715,-2.40e-03,
716,2.40e-03,
717,-2.40e-03,
718,-3.20e-03,
719,3.20e-03,
720,2.40e-03,
721,-2.40e-03,
722,2.40e-03,
723,-2.40e-03,
724,-3.20e-03,
725,2.40e-03,
726,-2.40e-03,
727,2.40e-03,
728,1.60e-03,
729,-3.20e-03,
730,-2.40e-03,
731,2.40e-03,
732,-2.40e-03,
733,2.00e-03,
734,2.40e-03,
735,-3.20e-03,
736,-3.20e-03,
737,2.40e-03,
738,-3.20e-03,
739,2.40e-03,
740,2.00e-03,
741,-3.20e-03,
742,2.40e-03,
743,-2.40e-03,
744,2.40e-03,
745,-2.40e-03,
746,3.20e-03,
747,-2.40e-03,
748,-2.40e-03,
749,2.00e-03,
750,-2.80e-03,
751,2.80e-03,
752,3.20e-03,
753,-2.40e-03,
754,2.40e-03,
755,-3.20e-03,
756,-1.60e-03,
757,2.40e-03,
758,-3.20e-03,
759,2.40e-03,
760,2.40e-03,
761,-2.40e-03,
762,2.40e-03,
763,-2.40e-03,
764,-2.40e-03,
765,2.40e-03,
766,-3.20e-03,
767,2.80e-03,
768,-3.20e-03,
769,1.60e-03,
770,2.40e-03,
771,-3.20e-03,
772,2.40e-03,
773,-3.20e-03,
774,2.40e-03,
775,-2.40e-03,
776,-2.40e-03,
777,2.40e-03,
778,-3.20e-03,
779,3.20e-03,
780,2.40e-03,
781,-3.20e-03,
782,-2.40e-03,
783,3.20e-03,
784,-2.40e-03,
785,3.20e-03,
786,2.40e-03,
787,-2.80e-03,
788,2.40e-03,
789,-2.40e-03,
790,-3.20e-03,
791,2.40e-03,
792,3.20e-03,
793,-3.20e-03,
794,-2.40e-03,
795,3.20e-03,
796,-2.40e-03,
797,2.40e-03,
798,2.40e-03,
799,-2.40e-03,
800,-2.40e-03,
801,3.20e-03,
802,-3.20e-03,
803,2.40e-03,
804,-2.40e-03,
805,3.20e-03,
806,3.60e-03,
807,-2.40e-03,
808,-2.40e-03,
809,3.20e-03,
810,2.40e-03,
811,-2.80e-03,
812,2.40e-03,
813,-2.40e-03,
814,2.40e-03,
815,-2.40e-03,
816,-2.40e-03,
817,2.40e-03,
818,2.80e-03,
819,-3.20e-03,
820,-2.40e-03,
821,2.40e-03,
822,2.40e-03,
823,-2.40e-03,
824,3.20e-03,
825,-2.40e-03,
826,2.40e-03,
827,-3.20e-03,
828,-2.40e-03,
829,2.40e-03,
830,2.40e-03,
831,-2.40e-03,
832,3.20e-03,
833,-2.40e-03,
834,-2.40e-03,
835,3.60e-03,
836,-1.60e-03,
837,2.40e-03,
838,2.40e-03,
839,-2.40e-03,
840,-1.60e-03,
841,3.20e-03,
842,2.40e-03,
843,-2.40e-03,
844,4.00e-03,
845,-1.60e-03,
846,2.40e-03,
847,-2.40e-03,
848,2.40e-03,
849,-2.40e-03,
850,3.20e-03,
851,-2.40e-03,
852,3.20e-03,
853,-1.60e-03,
854,2.40e-03,
855,-2.40e-03,
856,2.40e-03,
857,-2.40e-03,
858,2.40e-03,
859,-2.40e-03,
860,-2.40e-03,
861,2.40e-03,
862,-2.40e-03,
863,2.80e-03,
864,3.20e-03,
865,-2.40e-03,
866,2.40e-03,
867,-2.40e-03,
868,2.40e-03,
869,-2.40e-03,
870,-2.40e-03,
871,2.00e-03,
872,-3.20e-03,
873,2.40e-03,
874,-2.40e-03,
875,2.40e-03,
876,-3.20e-03,
877,3.20e-03,
878,3.20e-03,
879,-2.40e-03,
880,2.40e-03,
881,-3.20e-03,
882,-2.40e-03,
883,2.80e-03,
884,3.20e-03,
885,-2.40e-03,
886,2.40e-03,
887,-2.40e-03,
888,2.40e-03,
889,-2.40e-03,
890,2.40e-03,
891,-2.40e-03,
892,-2.40e-03,
893,2.40e-03,
894,-2.40e-03,
895,2.80e-03,
896,3.20e-03,
897,-3.20e-03,
898,2.40e-03,
899,-2.40e-03,
900,-2.40e-03,
901,2.40e-03,
902,2.40e-03,
903,-2.40e-03,
904,2.40e-03,
905,-2.40e-03,
906,3.20e-03,
907,-2.40e-03,
908,3.20e-03,
909,-2.40e-03,
910,3.20e-03,
911,-2.40e-03,
912,-3.20e-03,
913,2.40e-03,
914,-2.40e-03,
915,2.80e-03,
916,-2.40e-03,
917,3.20e-03,
918,3.20e-03,
919,-2.40e-03,
920,-2.40e-03,
921,2.40e-03,
922,1.60e-03,
923,-2.40e-03,
924,-2.40e-03,
925,2.40e-03,
926,2.40e-03,
927,-3.20e-03,
928,-2.40e-03,
929,2.40e-03,
930,-3.20e-03,
931,2.40e-03,
932,-2.40e-03,
933,2.00e-03,
934,-2.40e-03,
935,2.40e-03,
936,-1.60e-03,
937,2.40e-03,
938,-2.40e-03,
939,2.40e-03,
940,1.60e-03,
941,-3.20e-03,
942,-3.20e-03,
943,3.20e-03,
944,2.00e-03,
945,-2.40e-03,
946,-1.60e-03,
947,2.40e-03,
948,2.40e-03,
949,-3.20e-03,
950,-3.20e-03,
951,2.00e-03,
952,-2.40e-03,
953,3.20e-03,
954,-2.40e-03,
955,2.40e-03,
956,2.40e-03,
957,-3.20e-03,
958,-1.60e-03,
959,2.40e-03,
960,-2.40e-03,
961,2.40e-03,
962,-2.40e-03,
963,2.40e-03,
964,-2.80e-03,
965,2.00e-03,
966,-2.40e-03,
967,2.40e-03,
968,2.40e-03,
969,-2.40e-03,
970,2.40e-03,
971,-2.40e-03,
972,-2.40e-03,
973,2.80e-03,
974,2.40e-03,
975,-1.60e-03,
976,-3.20e-03,
977,4.00e-03,
978,-2.40e-03,
979,3.20e-03,
980,2.80e-03,
981,-2.40e-03,
982,2.40e-03,
983,-2.40e-03,
984,2.40e-03,
985,-2.40e-03,
986,-2.40e-03,
987,2.00e-03,
988,1.60e-03,
989,-2.40e-03,
990,1.60e-03,
991,-2.40e-03,
992,-2.40e-03,
993,3.20e-03,
994,2.40e-03,
995,-2.40e-03,
996,2.40e-03,
997,-2.40e-03,
998,1.60e-03,
999,-2.40e-03,
1000,-2.40e-03,
1001,2.40e-03,
1002,2.40e-03,
1003,-2.40e-03,
1004,2.40e-03,
1005,-2.40e-03,
1006,-2.40e-03,
1007,2.40e-03,
1008,2.40e-03,
1009,-2.40e-03,
1010,-2.40e-03,
1011,3.20e-03,
1012,1.60e-03,
1013,-3.20e-03,
1014,2.40e-03,
1015,-2.40e-03,
1016,-1.60e-03,
1017,2.40e-03,
1018,1.60e-03,
1019,-3.20e-03,
1020,2.40e-03,
1021,-3.20e-03,
1022,-3.20e-03,
1023,1.60e-03,
1024,-2.40e-03,
1025,2.40e-03,
1026,2.40e-03,
1027,-2.40e-03,
1028,3.20e-03,
1029,-4.00e-03,
1030,-2.40e-03,
1031,2.80e-03,
1032,2.40e-03,
1033,-3.20e-03,
1034,-3.20e-03,
1035,2.40e-03,
1036,-3.20e-03,
1037,2.40e-03,
1038,-2.40e-03,
1039,2.00e-03,
1040,-2.40e-03,
1041,1.60e-03,
1042,2.40e-03,
1043,-2.40e-03,
1044,-2.40e-03,
1045,3.20e-03,
1046,-3.20e-03,
1047,2.40e-03,
1048,2.40e-03,
1049,-3.20e-03,
1050,2.40e-03,
1051,-2.40e-03,
1052,-2.40e-03,
1053,2.40e-03,
1054,2.40e-03,
1055,-3.20e-03,
1056,2.40e-03,
1057,-2.40e-03,
1058,2.40e-03,
1059,-2.40e-03,
1060,2.40e-03,
1061,-2.40e-03,
1062,-2.40e-03,
1063,2.40e-03,
1064,2.40e-03,
1065,-3.20e-03,
1066,2.40e-03,
1067,-2.40e-03,
1068,2.40e-03,
1069,-2.80e-03,
1070,-2.40e-03,
1071,2.40e-03,
1072,2.40e-03,
1073,-3.20e-03,
1074,2.40e-03,
1075,-3.20e-03,
1076,-2.40e-03,
1077,2.40e-03,
1078,2.40e-03,
1079,-2.40e-03,
1080,2.40e-03,
1081,-2.40e-03,
1082,3.20e-03,
1083,-2.40e-03,
1084,-2.40e-03,
1085,2.40e-03,
1086,-3.20e-03,
1087,3.20e-03,
1088,2.80e-03,
1089,-2.40e-03,
1090,-3.20e-03,
1091,2.40e-03,
1092,2.40e-03,
1093,-3.20e-03,
1094,-3.20e-03,
1095,2.80e-03,
1096,-2.40e-03,
1097,2.40e-03,
1098,2.40e-03,
1099,-3.20e-03,
1100,-2.40e-03,
1101,3.20e-03,
1102,2.40e-03,
1103,-3.20e-03,
1104,3.20e-03,
1105,-3.20e-03,
1106,-2.40e-03,
1107,3.20e-03,
1108,2.40e-03,
1109,-3.20e-03,
1110,3.20e-03,
1111,-2.40e-03,
1112,2.40e-03,
1113,-3.20e-03,
1114,2.40e-03,
1115,-2.00e-03,
1116,-2.40e-03,
1117,2.40e-03,
1118,2.40e-03,
1119,-3.20e-03,
1120,2.40e-03,
1121,-2.80e-03,
1122,2.40e-03,
1123,-3.20e-03,
1124,2.40e-03,
1125,-3.20e-03,
1126,2.40e-03,
1127,-2.40e-03,
1128,-2.40e-03,
1129,2.00e-03,
1130,2.40e-03,
1131,-3.20e-03,
1132,-2.40e-03,
1133,3.20e-03,
1134,2.80e-03,
1135,-3.20e-03,
1136,2.40e-03,
1137,-3.20e-03,
1138,2.40e-03,
1139,-2.80e-03,
1140,3.20e-03,
1141,-3.20e-03,
1142,2.40e-03,
1143,-2.40e-03,
1144,2.40e-03,
1145,-2.40e-03,
1146,-2.40e-03,
1147,3.20e-03,
1148,2.40e-03,
1149,-2.40e-03,
1150,-3.20e-03,
1151,2.40e-03,
1152,2.40e-03,
1153,-2.40e-03,
1154,-2.40e-03,
1155,2.40e-03,
1156,3.20e-03,
1157,-2.40e-03,
1158,-2.40e-03,
1159,2.40e-03,
1160,-1.60e-03,
1161,2.40e-03,
1162,2.40e-03,
1163,-2.40e-03,
1164,2.00e-03,
1165,-2.40e-03,
1166,2.40e-03,
1167,-2.40e-03,
1168,2.40e-03,
1169,-2.40e-03,
1170,-2.80e-03,
1171,2.80e-03,
1172,2.40e-03,
1173,-2.40e-03,
1174,1.60e-03,
1175,-2.40e-03,
1176,-2.40e-03,
1177,2.40e-03,
1178,-2.40e-03,
1179,3.20e-03,
1180,-2.40e-03,
1181,2.00e-03,
1182,-2.40e-03,
1183,3.20e-03,
1184,-2.40e-03,
1185,2.40e-03,
1186,-3.20e-03,
1187,4.00e-03,
1188,-1.60e-03,
1189,2.40e-03,
1190,2.40e-03,
1191,-3.20e-03,
1192,2.40e-03,
1193,-2.40e-03,
1194,4.00e-03,
1195,-3.20e-03,
1196,-2.40e-03,
1197,1.60e-03,
1198,2.80e-03,
1199,-2.40e-03,
