fastdiffamp/data-noise-set/old-str-wk/strong-balanced/NewFile2.csv

X,CH1,Start,Increment,
Sequence,Volt,-1.198000e+01,2.000000e-02
0,2.40e-03,
1,-2.40e-03,
2,-4.00e-03,
3,2.40e-03,
4,2.00e-03,
5,-3.20e-03,
6,3.20e-03,
7,-3.20e-03,
8,-2.40e-03,
9,3.20e-03,
10,-2.40e-03,
11,3.20e-03,
12,4.00e-03,
13,-3.20e-03,
14,-2.40e-03,
15,2.40e-03,
16,2.40e-03,
17,-2.40e-03,
18,-2.40e-03,
19,2.40e-03,
20,-2.40e-03,
21,3.20e-03,
22,2.40e-03,
23,-2.40e-03,
24,2.40e-03,
25,-3.20e-03,
26,3.20e-03,
27,-3.20e-03,
28,3.20e-03,
29,-2.80e-03,
30,2.40e-03,
31,-2.40e-03,
32,2.80e-03,
33,-2.40e-03,
34,-2.40e-03,
35,2.40e-03,
36,2.80e-03,
37,-1.60e-03,
38,2.80e-03,
39,-2.40e-03,
40,3.20e-03,
41,-2.40e-03,
42,-2.40e-03,
43,1.60e-03,
44,-3.20e-03,
45,2.40e-03,
46,3.20e-03,
47,-2.40e-03,
48,3.20e-03,
49,-2.40e-03,
50,-3.20e-03,
51,2.40e-03,
52,-3.20e-03,
53,3.20e-03,
54,-3.20e-03,
55,3.20e-03,
56,-3.20e-03,
57,2.40e-03,
58,3.20e-03,
59,-2.40e-03,
60,2.40e-03,
61,-2.40e-03,
62,-3.20e-03,
63,2.80e-03,
64,-3.20e-03,
65,2.80e-03,
66,2.40e-03,
67,-2.40e-03,
68,-2.40e-03,
69,2.40e-03,
70,-2.40e-03,
71,3.20e-03,
72,-2.40e-03,
73,2.40e-03,
74,-2.40e-03,
75,2.40e-03,
76,2.40e-03,
77,-2.40e-03,
78,-2.40e-03,
79,2.40e-03,
80,-1.60e-03,
81,3.20e-03,
82,-3.20e-03,
83,3.20e-03,
84,-2.40e-03,
85,2.80e-03,
86,-3.20e-03,
87,2.40e-03,
88,-4.00e-03,
89,2.40e-03,
90,-2.40e-03,
91,3.20e-03,
92,2.40e-03,
93,-2.40e-03,
94,-2.40e-03,
95,3.20e-03,
96,2.80e-03,
97,-2.40e-03,
98,3.20e-03,
99,-2.40e-03,
100,-2.40e-03,
101,3.20e-03,
102,-2.40e-03,
103,4.00e-03,
104,3.20e-03,
105,-2.40e-03,
106,2.40e-03,
107,-2.40e-03,
108,-2.40e-03,
109,2.40e-03,
110,-2.40e-03,
111,3.20e-03,
112,2.40e-03,
113,-1.60e-03,
114,-2.40e-03,
115,2.40e-03,
116,2.40e-03,
117,-3.20e-03,
118,2.40e-03,
119,-3.20e-03,
120,3.20e-03,
121,-4.00e-03,
122,2.40e-03,
123,-3.20e-03,
124,-3.20e-03,
125,2.40e-03,
126,2.40e-03,
127,-3.20e-03,
128,-2.40e-03,
129,2.40e-03,
130,2.40e-03,
131,-2.40e-03,
132,2.40e-03,
133,-2.40e-03,
134,-3.20e-03,
135,2.40e-03,
136,-2.40e-03,
137,2.80e-03,
138,2.40e-03,
139,-3.60e-03,
140,2.40e-03,
141,-2.40e-03,
142,-3.20e-03,
143,3.20e-03,
144,-3.20e-03,
145,2.40e-03,
146,2.40e-03,
147,-2.40e-03,
148,2.40e-03,
149,-3.20e-03,
150,2.40e-03,
151,-3.20e-03,
152,-2.40e-03,
153,2.40e-03,
154,-3.20e-03,
155,3.20e-03,
156,-3.20e-03,
157,3.20e-03,
158,-2.40e-03,
159,2.40e-03,
160,-2.40e-03,
161,2.80e-03,
162,2.40e-03,
163,-2.40e-03,
164,-2.40e-03,
165,2.80e-03,
166,-2.80e-03,
167,2.40e-03,
168,2.40e-03,
169,-2.40e-03,
170,-1.60e-03,
171,3.20e-03,
172,3.20e-03,
173,-2.40e-03,
174,2.40e-03,
175,-2.40e-03,
176,2.80e-03,
177,-2.80e-03,
178,-2.40e-03,
179,2.40e-03,
180,2.40e-03,
181,-2.40e-03,
182,-3.20e-03,
183,2.40e-03,
184,-2.40e-03,
185,4.00e-03,
186,-2.40e-03,
187,2.40e-03,
188,2.40e-03,
189,-2.40e-03,
190,-3.20e-03,
191,2.00e-03,
192,-3.20e-03,
193,4.00e-03,
194,-2.40e-03,
195,2.80e-03,
196,-3.20e-03,
197,2.40e-03,
198,-2.40e-03,
199,3.20e-03,
200,-2.40e-03,
201,2.40e-03,
202,2.40e-03,
203,-2.40e-03,
204,1.60e-03,
205,-4.00e-03,
206,-2.40e-03,
207,2.40e-03,
208,-3.20e-03,
209,2.40e-03,
210,-2.40e-03,
211,2.40e-03,
212,2.40e-03,
213,-3.60e-03,
214,2.40e-03,
215,-2.40e-03,
216,3.20e-03,
217,-3.20e-03,
218,2.40e-03,
219,-2.40e-03,
220,2.40e-03,
221,-3.20e-03,
222,-3.20e-03,
223,2.40e-03,
224,-3.20e-03,
225,2.40e-03,
226,-4.00e-03,
227,1.60e-03,
228,1.60e-03,
229,-4.00e-03,
230,-3.20e-03,
231,1.60e-03,
232,-2.40e-03,
233,2.00e-03,
234,3.20e-03,
235,-2.40e-03,
236,2.40e-03,
237,-4.00e-03,
238,2.40e-03,
239,-3.20e-03,
240,-3.20e-03,
241,2.80e-03,
242,-3.20e-03,
243,2.40e-03,
244,-2.80e-03,
245,2.40e-03,
246,-2.40e-03,
247,2.40e-03,
248,-3.20e-03,
249,2.40e-03,
250,2.40e-03,
251,-3.20e-03,
252,-3.20e-03,
253,2.80e-03,
254,1.60e-03,
255,-4.00e-03,
256,2.40e-03,
257,-2.40e-03,
258,-3.20e-03,
259,3.20e-03,
260,2.40e-03,
261,-2.40e-03,
262,2.40e-03,
263,-3.20e-03,
264,2.00e-03,
265,-3.20e-03,
266,2.40e-03,
267,-3.20e-03,
268,-3.20e-03,
269,2.40e-03,
270,2.40e-03,
271,-3.20e-03,
272,-2.40e-03,
273,2.40e-03,
274,-2.40e-03,
275,2.00e-03,
276,-2.40e-03,
277,2.80e-03,
278,-2.40e-03,
279,2.40e-03,
280,2.40e-03,
281,-2.40e-03,
282,-2.40e-03,
283,2.40e-03,
284,-3.20e-03,
285,3.20e-03,
286,-3.20e-03,
287,2.80e-03,
288,2.40e-03,
289,-2.40e-03,
290,2.40e-03,
291,-2.40e-03,
292,2.40e-03,
293,-3.20e-03,
294,2.40e-03,
295,-2.40e-03,
296,-2.40e-03,
297,2.80e-03,
298,4.00e-03,
299,-2.80e-03,
300,-3.20e-03,
301,3.20e-03,
302,4.00e-03,
303,-3.20e-03,
304,3.20e-03,
305,-2.40e-03,
306,-2.40e-03,
307,3.20e-03,
308,3.20e-03,
309,-2.00e-03,
310,3.20e-03,
311,-3.20e-03,
312,-2.40e-03,
313,3.20e-03,
314,-2.40e-03,
315,3.20e-03,
316,2.40e-03,
317,-3.20e-03,
318,-2.00e-03,
319,3.20e-03,
320,2.40e-03,
321,-2.40e-03,
322,-2.40e-03,
323,3.20e-03,
324,-2.40e-03,
325,2.80e-03,
326,-2.40e-03,
327,3.20e-03,
328,-2.40e-03,
329,2.40e-03,
330,-2.40e-03,
331,3.20e-03,
332,2.40e-03,
333,-2.40e-03,
334,-1.60e-03,
335,3.20e-03,
336,-3.20e-03,
337,2.80e-03,
338,-3.20e-03,
339,3.20e-03,
340,2.40e-03,
341,-2.40e-03,
342,-2.40e-03,
343,2.40e-03,
344,-3.20e-03,
345,2.40e-03,
346,-2.40e-03,
347,3.20e-03,
348,3.20e-03,
349,-2.40e-03,
350,2.40e-03,
351,-2.40e-03,
352,-3.20e-03,
353,2.40e-03,
354,-3.20e-03,
355,3.20e-03,
356,-2.40e-03,
357,2.80e-03,
358,2.40e-03,
359,-3.20e-03,
360,2.40e-03,
361,-3.20e-03,
362,2.40e-03,
363,-2.40e-03,
364,3.20e-03,
365,-3.20e-03,
366,-1.60e-03,
367,3.20e-03,
368,2.40e-03,
369,-3.20e-03,
370,-2.40e-03,
371,2.40e-03,
372,-3.20e-03,
373,2.40e-03,
374,2.40e-03,
375,-2.40e-03,
376,2.80e-03,
377,-4.00e-03,
378,3.20e-03,
379,-4.00e-03,
380,-2.40e-03,
381,2.40e-03,
382,-2.40e-03,
383,2.40e-03,
384,2.40e-03,
385,-4.00e-03,
386,2.40e-03,
387,-3.20e-03,
388,-2.40e-03,
389,2.40e-03,
390,2.40e-03,
391,-3.20e-03,
392,2.80e-03,
393,-3.20e-03,
394,-2.40e-03,
395,2.40e-03,
396,-3.20e-03,
397,2.80e-03,
398,-3.20e-03,
399,2.40e-03,
400,2.40e-03,
401,-2.80e-03,
402,-3.20e-03,
403,2.80e-03,
404,-3.20e-03,
405,2.80e-03,
406,-4.00e-03,
407,2.40e-03,
408,-4.00e-03,
409,2.80e-03,
410,2.40e-03,
411,-3.20e-03,
412,-2.40e-03,
413,2.00e-03,
414,-2.40e-03,
415,2.00e-03,
416,2.40e-03,
417,-3.20e-03,
418,2.40e-03,
419,-2.40e-03,
420,-3.20e-03,
421,2.80e-03,
422,-3.20e-03,
423,2.40e-03,
424,-3.20e-03,
425,2.80e-03,
426,-2.40e-03,
427,3.20e-03,
428,-2.40e-03,
429,3.20e-03,
430,3.20e-03,
431,-2.40e-03,
432,-3.20e-03,
433,3.20e-03,
434,2.40e-03,
435,-3.20e-03,
436,-2.40e-03,
437,3.20e-03,
438,3.20e-03,
439,-2.40e-03,
440,-2.40e-03,
441,2.40e-03,
442,-2.80e-03,
443,2.40e-03,
444,2.40e-03,
445,-2.40e-03,
446,-4.00e-03,
447,3.20e-03,
448,-2.40e-03,
449,2.80e-03,
450,-2.40e-03,
451,2.80e-03,
452,2.80e-03,
453,-2.40e-03,
454,2.40e-03,
455,-2.40e-03,
456,-3.20e-03,
457,2.40e-03,
458,2.40e-03,
459,-3.20e-03,
460,-3.20e-03,
461,3.20e-03,
462,-3.20e-03,
463,2.40e-03,
464,2.40e-03,
465,-3.20e-03,
466,2.40e-03,
467,-3.20e-03,
468,2.40e-03,
469,-2.40e-03,
470,-2.80e-03,
471,2.80e-03,
472,-2.40e-03,
473,2.40e-03,
474,-3.20e-03,
475,2.40e-03,
476,-2.40e-03,
477,3.20e-03,
478,-1.60e-03,
479,2.40e-03,
480,2.40e-03,
481,-4.00e-03,
482,2.80e-03,
483,-2.40e-03,
484,3.20e-03,
485,-2.40e-03,
486,-3.20e-03,
487,3.20e-03,
488,-3.20e-03,
489,2.80e-03,
490,-1.60e-03,
491,3.20e-03,
492,-3.20e-03,
493,3.20e-03,
494,2.80e-03,
495,-3.20e-03,
496,-2.40e-03,
497,2.40e-03,
498,3.20e-03,
499,-3.20e-03,
500,2.40e-03,
501,-2.40e-03,
502,-3.20e-03,
503,2.40e-03,
504,-1.60e-03,
505,2.80e-03,
506,-1.60e-03,
507,4.00e-03,
508,-1.60e-03,
509,3.20e-03,
510,-2.40e-03,
511,2.40e-03,
512,-2.40e-03,
513,2.40e-03,
514,-3.20e-03,
515,3.20e-03,
516,2.40e-03,
517,-3.20e-03,
518,-3.20e-03,
519,2.40e-03,
520,-2.40e-03,
521,2.80e-03,
522,2.40e-03,
523,-3.20e-03,
524,-3.20e-03,
525,3.20e-03,
526,2.40e-03,
527,-2.40e-03,
528,3.20e-03,
529,-2.40e-03,
530,-1.60e-03,
531,3.20e-03,
532,-3.20e-03,
533,2.40e-03,
534,2.80e-03,
535,-2.40e-03,
536,-2.40e-03,
537,2.40e-03,
538,-2.40e-03,
539,2.40e-03,
540,2.40e-03,
541,-3.20e-03,
542,-2.40e-03,
543,2.80e-03,
544,-2.40e-03,
545,2.40e-03,
546,2.40e-03,
547,-3.20e-03,
548,-3.20e-03,
549,3.20e-03,
550,-3.20e-03,
551,3.20e-03,
552,-3.20e-03,
553,3.20e-03,
554,3.20e-03,
555,-3.20e-03,
556,2.40e-03,
557,-3.20e-03,
558,-3.20e-03,
559,3.20e-03,
560,3.20e-03,
561,-2.40e-03,
562,3.20e-03,
563,-2.40e-03,
564,-2.40e-03,
565,2.80e-03,
566,2.40e-03,
567,-2.40e-03,
568,-2.80e-03,
569,3.20e-03,
570,-3.20e-03,
571,2.40e-03,
572,2.40e-03,
573,-3.20e-03,
574,-4.00e-03,
575,2.40e-03,
576,2.40e-03,
577,-3.20e-03,
578,-3.20e-03,
579,2.40e-03,
580,2.40e-03,
581,-3.20e-03,
582,-3.20e-03,
583,3.20e-03,
584,3.20e-03,
585,-2.40e-03,
586,-3.20e-03,
587,2.40e-03,
588,-2.40e-03,
589,2.40e-03,
590,2.40e-03,
591,-2.40e-03,
592,-2.40e-03,
593,2.40e-03,
594,-3.20e-03,
595,2.40e-03,
596,1.60e-03,
597,-3.20e-03,
598,-2.40e-03,
599,1.60e-03,
600,2.40e-03,
601,-3.20e-03,
602,2.00e-03,
603,-3.20e-03,
604,-3.20e-03,
605,3.20e-03,
606,2.40e-03,
607,-2.40e-03,
608,-3.20e-03,
609,2.40e-03,
610,1.60e-03,
611,-3.60e-03,
612,-3.20e-03,
613,2.40e-03,
614,2.40e-03,
615,-3.20e-03,
616,-2.40e-03,
617,3.20e-03,
618,-3.20e-03,
619,3.20e-03,
620,-3.20e-03,
621,4.00e-03,
622,-2.40e-03,
623,4.00e-03,
624,2.40e-03,
625,-3.20e-03,
626,2.40e-03,
627,-2.40e-03,
628,2.40e-03,
629,-3.20e-03,
630,-2.40e-03,
631,1.60e-03,
632,-2.40e-03,
633,2.40e-03,
634,2.40e-03,
635,-3.20e-03,
636,-2.40e-03,
637,2.40e-03,
638,2.80e-03,
639,-4.00e-03,
640,2.40e-03,
641,-4.00e-03,
642,-3.20e-03,
643,2.40e-03,
644,-3.20e-03,
645,2.40e-03,
646,2.40e-03,
647,-3.20e-03,
648,-3.20e-03,
649,2.40e-03,
650,-2.40e-03,
651,3.20e-03,
652,-3.20e-03,
653,2.80e-03,
654,2.40e-03,
655,-4.00e-03,
656,2.40e-03,
657,-3.20e-03,
658,-2.40e-03,
659,2.40e-03,
660,-3.20e-03,
661,2.40e-03,
662,-3.20e-03,
663,2.40e-03,
664,2.40e-03,
665,-3.20e-03,
666,4.00e-03,
667,-2.40e-03,
668,-3.20e-03,
669,3.20e-03,
670,-3.20e-03,
671,3.20e-03,
672,-1.60e-03,
673,3.20e-03,
674,-3.20e-03,
675,2.80e-03,
676,-2.40e-03,
677,2.40e-03,
678,-2.40e-03,
679,2.80e-03,
680,2.40e-03,
681,-2.40e-03,
682,-2.40e-03,
683,2.40e-03,
684,2.00e-03,
685,-3.20e-03,
686,2.40e-03,
687,-2.40e-03,
688,2.40e-03,
689,-3.20e-03,
690,-3.20e-03,
691,2.40e-03,
692,-2.40e-03,
693,2.40e-03,
694,3.20e-03,
695,-3.20e-03,
696,-2.40e-03,
697,2.40e-03,
698,-2.40e-03,
699,2.40e-03,
700,2.40e-03,
701,-2.40e-03,
702,-3.20e-03,
703,2.00e-03,
704,2.00e-03,
705,-3.20e-03,
706,2.40e-03,
707,-3.20e-03,
708,2.40e-03,
709,-2.80e-03,
710,2.00e-03,
711,-2.40e-03,
712,2.40e-03,
713,-3.20e-03,
714,-3.20e-03,
715,2.40e-03,
716,1.60e-03,
717,-3.20e-03,
718,2.40e-03,
719,-3.20e-03,
720,-2.40e-03,
721,2.40e-03,
722,1.60e-03,
723,-2.40e-03,
724,2.40e-03,
725,-3.20e-03,
726,3.20e-03,
727,-3.20e-03,
728,-2.40e-03,
729,3.20e-03,
730,-3.20e-03,
731,2.80e-03,
732,-2.40e-03,
733,2.40e-03,
734,2.40e-03,
735,-2.40e-03,
736,-2.40e-03,
737,2.40e-03,
738,-2.40e-03,
739,3.20e-03,
740,-2.40e-03,
741,3.20e-03,
742,-3.20e-03,
743,2.40e-03,
744,-2.40e-03,
745,2.80e-03,
746,2.40e-03,
747,-3.20e-03,
748,2.40e-03,
749,-2.80e-03,
750,-2.40e-03,
751,2.80e-03,
752,-2.40e-03,
753,2.80e-03,
754,-2.40e-03,
755,2.40e-03,
756,-2.40e-03,
757,2.40e-03,
758,-4.00e-03,
759,2.40e-03,
760,-2.40e-03,
761,2.80e-03,
762,-2.40e-03,
763,2.80e-03,
764,2.40e-03,
765,-3.20e-03,
766,2.40e-03,
767,-3.20e-03,
768,-2.40e-03,
769,2.40e-03,
770,-3.20e-03,
771,3.20e-03,
772,-2.40e-03,
773,2.80e-03,
774,-2.40e-03,
775,2.40e-03,
776,-2.40e-03,
777,2.40e-03,
778,-2.40e-03,
779,2.40e-03,
780,-2.40e-03,
781,2.40e-03,
782,2.40e-03,
783,-3.20e-03,
784,-2.40e-03,
785,2.40e-03,
786,4.00e-03,
787,-3.20e-03,
788,2.40e-03,
789,-3.20e-03,
790,-2.40e-03,
791,3.20e-03,
792,3.20e-03,
793,-2.40e-03,
794,2.40e-03,
795,-2.40e-03,
796,2.40e-03,
797,-3.20e-03,
798,3.20e-03,
799,-2.40e-03,
800,-2.40e-03,
801,2.40e-03,
802,-2.40e-03,
803,2.40e-03,
804,2.40e-03,
805,-2.40e-03,
806,-3.20e-03,
807,2.40e-03,
808,-3.20e-03,
809,3.20e-03,
810,-2.40e-03,
811,2.40e-03,
812,-2.40e-03,
813,3.20e-03,
814,1.60e-03,
815,-2.40e-03,
816,2.40e-03,
817,-3.20e-03,
818,2.00e-03,
819,-4.00e-03,
820,-3.20e-03,
821,2.40e-03,
822,2.40e-03,
823,-3.20e-03,
824,-2.40e-03,
825,2.40e-03,
826,2.40e-03,
827,-2.40e-03,
828,3.20e-03,
829,-3.20e-03,
830,-2.40e-03,
831,3.20e-03,
832,-3.20e-03,
833,3.20e-03,
834,-2.40e-03,
835,3.20e-03,
836,-2.40e-03,
837,3.20e-03,
838,3.20e-03,
839,-3.20e-03,
840,-2.40e-03,
841,2.40e-03,
842,2.40e-03,
843,-3.20e-03,
844,-2.40e-03,
845,2.40e-03,
846,-2.40e-03,
847,2.40e-03,
848,2.00e-03,
849,-4.00e-03,
850,2.40e-03,
851,-2.40e-03,
852,-3.20e-03,
853,2.80e-03,
854,-2.40e-03,
855,2.40e-03,
856,2.40e-03,
857,-3.20e-03,
858,-3.20e-03,
859,2.40e-03,
860,2.40e-03,
861,-2.40e-03,
862,2.40e-03,
863,-3.20e-03,
864,-2.40e-03,
865,2.40e-03,
866,-3.20e-03,
867,2.80e-03,
868,2.40e-03,
869,-3.20e-03,
870,-3.20e-03,
871,2.00e-03,
872,2.40e-03,
873,-3.20e-03,
874,-2.40e-03,
875,3.20e-03,
876,2.40e-03,
877,-3.20e-03,
878,-3.20e-03,
879,2.40e-03,
880,2.40e-03,
881,-3.20e-03,
882,-3.20e-03,
883,2.40e-03,
884,2.40e-03,
885,-2.80e-03,
886,2.40e-03,
887,-2.40e-03,
888,-3.20e-03,
889,3.20e-03,
890,-3.20e-03,
891,2.40e-03,
892,2.40e-03,
893,-3.20e-03,
894,-2.40e-03,
895,2.80e-03,
896,-2.40e-03,
897,3.20e-03,
898,-2.40e-03,
899,2.40e-03,
900,2.40e-03,
901,-2.40e-03,
902,2.40e-03,
903,-2.40e-03,
904,2.40e-03,
905,-3.20e-03,
906,-2.40e-03,
907,2.40e-03,
908,2.40e-03,
909,-2.40e-03,
910,1.60e-03,
911,-3.20e-03,
912,-3.20e-03,
913,1.60e-03,
914,-3.20e-03,
915,2.40e-03,
916,2.40e-03,
917,-3.20e-03,
918,-3.20e-03,
919,2.40e-03,
920,2.40e-03,
921,-4.00e-03,
922,-3.20e-03,
923,2.40e-03,
924,-3.20e-03,
925,2.40e-03,
926,-3.20e-03,
927,1.60e-03,
928,1.60e-03,
929,-2.40e-03,
930,1.60e-03,
931,-4.00e-03,
932,-4.00e-03,
933,2.40e-03,
934,-2.40e-03,
935,2.40e-03,
936,2.40e-03,
937,-3.20e-03,
938,2.40e-03,
939,-3.20e-03,
940,3.20e-03,
941,-3.20e-03,
942,-3.20e-03,
943,2.40e-03,
944,-3.20e-03,
945,2.40e-03,
946,2.40e-03,
947,-2.40e-03,
948,2.40e-03,
949,-3.20e-03,
950,3.20e-03,
951,-3.60e-03,
952,-3.20e-03,
953,2.40e-03,
954,-3.20e-03,
955,2.40e-03,
956,-3.20e-03,
957,2.00e-03,
958,-2.80e-03,
959,2.40e-03,
960,-4.00e-03,
961,2.40e-03,
962,-4.00e-03,
963,1.60e-03,
964,2.40e-03,
965,-3.20e-03,
966,-3.20e-03,
967,2.40e-03,
968,-3.20e-03,
969,2.40e-03,
970,-3.20e-03,
971,1.60e-03,
972,2.40e-03,
973,-3.20e-03,
974,-2.40e-03,
975,3.20e-03,
976,2.40e-03,
977,-4.00e-03,
978,-3.20e-03,
979,3.20e-03,
980,-3.20e-03,
981,3.20e-03,
982,-3.20e-03,
983,2.40e-03,
984,2.40e-03,
985,-2.40e-03,
986,3.20e-03,
987,-2.40e-03,
988,-3.20e-03,
989,2.40e-03,
990,-3.20e-03,
991,3.20e-03,
992,-2.40e-03,
993,3.20e-03,
994,3.20e-03,
995,-2.40e-03,
996,2.40e-03,
997,-3.20e-03,
998,2.40e-03,
999,-2.40e-03,
1000,2.40e-03,
1001,-4.00e-03,
1002,-2.40e-03,
1003,2.40e-03,
1004,-2.40e-03,
1005,2.40e-03,
1006,2.80e-03,
1007,-2.40e-03,
1008,3.20e-03,
1009,-2.40e-03,
1010,2.40e-03,
1011,-1.60e-03,
1012,2.40e-03,
1013,-3.20e-03,
1014,-2.40e-03,
1015,3.20e-03,
1016,-3.20e-03,
1017,3.20e-03,
1018,2.40e-03,
1019,-2.40e-03,
1020,-2.40e-03,
1021,2.80e-03,
1022,-2.40e-03,
1023,2.00e-03,
1024,-2.40e-03,
1025,2.40e-03,
1026,-2.40e-03,
1027,3.20e-03,
1028,-2.40e-03,
1029,3.20e-03,
1030,2.40e-03,
1031,-3.20e-03,
1032,3.20e-03,
1033,-2.40e-03,
1034,-3.20e-03,
1035,3.20e-03,
1036,1.60e-03,
1037,-3.20e-03,
1038,-2.40e-03,
1039,3.20e-03,
1040,-2.40e-03,
1041,2.40e-03,
1042,2.40e-03,
1043,-2.40e-03,
1044,-3.20e-03,
1045,2.40e-03,
1046,2.40e-03,
1047,-2.40e-03,
1048,-2.00e-03,
1049,3.20e-03,
1050,-3.20e-03,
1051,3.20e-03,
1052,3.20e-03,
1053,-3.20e-03,
1054,-2.40e-03,
1055,3.20e-03,
1056,2.80e-03,
1057,-3.20e-03,
1058,-2.40e-03,
1059,2.40e-03,
1060,-3.20e-03,
1061,2.40e-03,
1062,-2.40e-03,
1063,2.40e-03,
1064,-2.40e-03,
1065,2.40e-03,
1066,-2.40e-03,
1067,3.20e-03,
1068,2.40e-03,
1069,-3.20e-03,
1070,-3.20e-03,
1071,3.20e-03,
1072,2.40e-03,
1073,-2.40e-03,
1074,-2.40e-03,
1075,2.40e-03,
1076,2.40e-03,
1077,-2.40e-03,
1078,-2.40e-03,
1079,2.40e-03,
1080,2.40e-03,
1081,-3.20e-03,
1082,2.40e-03,
1083,-2.40e-03,
1084,2.40e-03,
1085,-3.20e-03,
1086,4.00e-03,
1087,-3.20e-03,
1088,-2.40e-03,
1089,2.80e-03,
1090,-3.20e-03,
1091,3.20e-03,
1092,-2.40e-03,
1093,2.40e-03,
1094,-2.40e-03,
1095,3.20e-03,
1096,2.40e-03,
1097,-2.40e-03,
1098,2.40e-03,
1099,-2.40e-03,
1100,2.40e-03,
1101,-2.80e-03,
1102,-2.40e-03,
1103,2.40e-03,
1104,3.20e-03,
1105,-3.20e-03,
1106,-2.40e-03,
1107,3.20e-03,
1108,2.40e-03,
1109,-3.20e-03,
1110,2.00e-03,
1111,-2.80e-03,
1112,2.40e-03,
1113,-3.20e-03,
1114,-2.40e-03,
1115,2.40e-03,
1116,-2.40e-03,
1117,3.20e-03,
1118,-2.40e-03,
1119,3.20e-03,
1120,-3.20e-03,
1121,3.20e-03,
1122,-2.40e-03,
1123,2.40e-03,
1124,2.80e-03,
1125,-3.20e-03,
1126,2.80e-03,
1127,-3.20e-03,
1128,-3.20e-03,
1129,2.40e-03,
1130,-3.20e-03,
1131,2.40e-03,
1132,2.40e-03,
1133,-3.20e-03,
1134,-3.20e-03,
1135,3.20e-03,
1136,-2.40e-03,
1137,3.20e-03,
1138,1.60e-03,
1139,-3.20e-03,
1140,2.40e-03,
1141,-2.40e-03,
1142,-2.40e-03,
1143,3.20e-03,
1144,-2.40e-03,
1145,3.20e-03,
1146,-2.40e-03,
1147,3.20e-03,
1148,-3.20e-03,
1149,3.20e-03,
1150,2.80e-03,
1151,-3.20e-03,
1152,3.20e-03,
1153,-2.40e-03,
1154,-3.20e-03,
1155,3.20e-03,
1156,-2.40e-03,
1157,2.40e-03,
1158,-2.40e-03,
1159,3.20e-03,
1160,-3.20e-03,
1161,3.20e-03,
1162,-3.20e-03,
1163,3.20e-03,
1164,-2.40e-03,
1165,3.20e-03,
1166,-2.40e-03,
1167,3.20e-03,
1168,3.20e-03,
1169,-2.40e-03,
1170,2.40e-03,
1171,-2.40e-03,
1172,2.40e-03,
1173,-2.40e-03,
1174,3.20e-03,
1175,-2.40e-03,
1176,-3.20e-03,
1177,4.00e-03,
1178,2.40e-03,
1179,-3.20e-03,
1180,2.40e-03,
1181,-2.40e-03,
1182,-3.20e-03,
1183,3.20e-03,
1184,2.40e-03,
1185,-3.20e-03,
1186,2.40e-03,
1187,-2.40e-03,
1188,2.40e-03,
1189,-2.40e-03,
1190,3.20e-03,
1191,-2.40e-03,
1192,-2.40e-03,
1193,4.00e-03,
1194,2.40e-03,
1195,-3.20e-03,
1196,2.40e-03,
1197,-2.40e-03,
1198,-3.20e-03,
1199,2.80e-03,
