fastdiffamp/data-noise-set/8th/NewFile11.csv

X,CH1,Start,Increment,
Sequence,Volt,-1.200000e-02,2.000000e-05
0,2.40e-03,
1,-8.00e-04,
2,2.40e-03,
3,-8.00e-04,
4,0.00e+00,
5,2.40e-03,
6,-8.00e-04,
7,2.40e-03,
8,-8.00e-04,
9,2.40e-03,
10,-8.00e-04,
11,2.00e-03,
12,2.00e-03,
13,-1.60e-03,
14,-8.00e-04,
15,2.40e-03,
16,-8.00e-04,
17,3.20e-03,
18,2.40e-03,
19,-8.00e-04,
20,-8.00e-04,
21,2.40e-03,
22,3.20e-03,
23,-8.00e-04,
24,-1.60e-03,
25,3.20e-03,
26,2.40e-03,
27,-8.00e-04,
28,-8.00e-04,
29,2.00e-03,
30,-8.00e-04,
31,3.20e-03,
32,0.00e+00,
33,2.40e-03,
34,-8.00e-04,
35,2.40e-03,
36,-8.00e-04,
37,2.40e-03,
38,2.40e-03,
39,-8.00e-04,
40,2.40e-03,
41,-8.00e-04,
42,2.40e-03,
43,-8.00e-04,
44,3.20e-03,
45,-8.00e-04,
46,2.40e-03,
47,-8.00e-04,
48,-1.60e-03,
49,3.20e-03,
50,2.40e-03,
51,-8.00e-04,
52,2.40e-03,
53,-8.00e-04,
54,2.40e-03,
55,-1.60e-03,
56,1.60e-03,
57,-1.60e-03,
58,2.40e-03,
59,-8.00e-04,
60,-8.00e-04,
61,2.40e-03,
62,2.40e-03,
63,-1.60e-03,
64,-1.60e-03,
65,2.40e-03,
66,1.60e-03,
67,-1.60e-03,
68,-1.60e-03,
69,2.00e-03,
70,-8.00e-04,
71,1.60e-03,
72,2.40e-03,
73,-1.20e-03,
74,2.00e-03,
75,-1.60e-03,
76,2.40e-03,
77,-1.60e-03,
78,-1.60e-03,
79,3.20e-03,
80,-8.00e-04,
81,1.60e-03,
82,-8.00e-04,
83,3.20e-03,
84,3.20e-03,
85,-1.60e-03,
86,-1.60e-03,
87,2.40e-03,
88,2.40e-03,
89,-1.60e-03,
90,-1.60e-03,
91,1.60e-03,
92,-8.00e-04,
93,2.40e-03,
94,-1.60e-03,
95,2.40e-03,
96,2.40e-03,
97,-1.60e-03,
98,2.40e-03,
99,-8.00e-04,
100,0.00e+00,
101,2.80e-03,
102,1.60e-03,
103,-8.00e-04,
104,-8.00e-04,
105,3.20e-03,
106,-8.00e-04,
107,1.60e-03,
108,-8.00e-04,
109,2.00e-03,
110,1.60e-03,
111,-1.60e-03,
112,-8.00e-04,
113,2.40e-03,
114,-1.60e-03,
115,3.20e-03,
116,-8.00e-04,
117,2.40e-03,
118,-8.00e-04,
119,3.20e-03,
120,2.40e-03,
121,-8.00e-04,
122,-8.00e-04,
123,3.20e-03,
124,2.40e-03,
125,-1.60e-03,
126,0.00e+00,
127,2.40e-03,
128,-8.00e-04,
129,2.40e-03,
130,-8.00e-04,
131,2.40e-03,
132,-1.60e-03,
133,2.40e-03,
134,-8.00e-04,
135,2.40e-03,
136,2.40e-03,
137,-8.00e-04,
138,-1.60e-03,
139,3.20e-03,
140,2.40e-03,
141,-8.00e-04,
142,-8.00e-04,
143,3.20e-03,
144,3.20e-03,
145,-8.00e-04,
146,2.40e-03,
147,-8.00e-04,
148,2.40e-03,
149,-1.20e-03,
150,0.00e+00,
151,2.80e-03,
152,-8.00e-04,
153,2.40e-03,
154,-8.00e-04,
155,2.40e-03,
156,-8.00e-04,
157,1.60e-03,
158,-1.60e-03,
159,2.80e-03,
160,2.40e-03,
161,-8.00e-04,
162,3.20e-03,
163,-1.60e-03,
164,3.20e-03,
165,-8.00e-04,
166,2.40e-03,
167,-8.00e-04,
168,-8.00e-04,
169,2.40e-03,
170,2.40e-03,
171,-8.00e-04,
172,2.40e-03,
173,-8.00e-04,
174,-8.00e-04,
175,3.20e-03,
176,-8.00e-04,
177,2.40e-03,
178,-1.60e-03,
179,2.40e-03,
180,-1.60e-03,
181,2.40e-03,
182,3.20e-03,
183,-8.00e-04,
184,2.40e-03,
185,-1.20e-03,
186,-8.00e-04,
187,3.20e-03,
188,2.40e-03,
189,-1.60e-03,
190,2.40e-03,
191,-8.00e-04,
192,-8.00e-04,
193,3.20e-03,
194,2.40e-03,
195,-8.00e-04,
196,-8.00e-04,
197,3.20e-03,
198,2.40e-03,
199,-1.60e-03,
200,2.40e-03,
201,-8.00e-04,
202,2.40e-03,
203,-8.00e-04,
204,2.40e-03,
205,-8.00e-04,
206,2.80e-03,
207,-8.00e-04,
208,2.40e-03,
209,-8.00e-04,
210,-1.60e-03,
211,2.40e-03,
212,-8.00e-04,
213,3.20e-03,
214,-1.60e-03,
215,2.40e-03,
216,2.40e-03,
217,-8.00e-04,
218,-1.60e-03,
219,2.40e-03,
220,-1.60e-03,
221,2.40e-03,
222,0.00e+00,
223,2.80e-03,
224,-8.00e-04,
225,3.20e-03,
226,2.40e-03,
227,-8.00e-04,
228,3.20e-03,
229,-8.00e-04,
230,2.40e-03,
231,-1.60e-03,
232,-1.60e-03,
233,3.20e-03,
234,-8.00e-04,
235,3.20e-03,
236,-8.00e-04,
237,2.40e-03,
238,3.20e-03,
239,-8.00e-04,
240,0.00e+00,
241,3.20e-03,
242,0.00e+00,
243,2.40e-03,
244,-8.00e-04,
245,2.40e-03,
246,0.00e+00,
247,2.80e-03,
248,2.40e-03,
249,-1.60e-03,
250,2.40e-03,
251,0.00e+00,
252,2.40e-03,
253,-8.00e-04,
254,2.40e-03,
255,-8.00e-04,
256,3.20e-03,
257,-8.00e-04,
258,0.00e+00,
259,3.20e-03,
260,0.00e+00,
261,3.20e-03,
262,0.00e+00,
263,2.80e-03,
264,-8.00e-04,
265,2.40e-03,
266,0.00e+00,
267,2.80e-03,
268,0.00e+00,
269,2.40e-03,
270,2.40e-03,
271,-8.00e-04,
272,2.40e-03,
273,-8.00e-04,
274,0.00e+00,
275,2.40e-03,
276,0.00e+00,
277,2.40e-03,
278,0.00e+00,
279,3.20e-03,
280,2.40e-03,
281,-8.00e-04,
282,0.00e+00,
283,2.40e-03,
284,2.40e-03,
285,-8.00e-04,
286,-1.60e-03,
287,2.80e-03,
288,-8.00e-04,
289,3.20e-03,
290,0.00e+00,
291,2.40e-03,
292,3.20e-03,
293,-8.00e-04,
294,2.80e-03,
295,-8.00e-04,
296,2.40e-03,
297,0.00e+00,
298,-4.00e-04,
299,2.40e-03,
300,2.40e-03,
301,-8.00e-04,
302,-8.00e-04,
303,3.20e-03,
304,3.20e-03,
305,-8.00e-04,
306,3.20e-03,
307,-8.00e-04,
308,0.00e+00,
309,3.20e-03,
310,3.20e-03,
311,-8.00e-04,
312,-8.00e-04,
313,2.40e-03,
314,-8.00e-04,
315,2.40e-03,
316,-8.00e-04,
317,2.40e-03,
318,0.00e+00,
319,3.20e-03,
320,0.00e+00,
321,2.40e-03,
322,-1.60e-03,
323,3.20e-03,
324,0.00e+00,
325,2.40e-03,
326,0.00e+00,
327,2.40e-03,
328,2.00e-03,
329,-1.60e-03,
330,0.00e+00,
331,2.80e-03,
332,2.40e-03,
333,-8.00e-04,
334,-8.00e-04,
335,1.60e-03,
336,2.40e-03,
337,-8.00e-04,
338,-8.00e-04,
339,2.00e-03,
340,-8.00e-04,
341,2.40e-03,
342,-8.00e-04,
343,2.40e-03,
344,1.60e-03,
345,-8.00e-04,
346,1.60e-03,
347,-8.00e-04,
348,-8.00e-04,
349,2.40e-03,
350,0.00e+00,
351,1.60e-03,
352,-8.00e-04,
353,2.40e-03,
354,2.40e-03,
355,-8.00e-04,
356,-1.60e-03,
357,1.60e-03,
358,-1.60e-03,
359,2.00e-03,
360,2.00e-03,
361,-1.60e-03,
362,2.40e-03,
363,-8.00e-04,
364,0.00e+00,
365,2.40e-03,
366,-8.00e-04,
367,2.40e-03,
368,2.40e-03,
369,-8.00e-04,
370,2.40e-03,
371,-1.60e-03,
372,-8.00e-04,
373,2.40e-03,
374,-8.00e-04,
375,2.00e-03,
376,-1.60e-03,
377,2.40e-03,
378,0.00e+00,
379,2.40e-03,
380,-8.00e-04,
381,2.40e-03,
382,2.00e-03,
383,-8.00e-04,
384,2.40e-03,
385,-8.00e-04,
386,-1.60e-03,
387,3.20e-03,
388,2.40e-03,
389,-8.00e-04,
390,-8.00e-04,
391,2.40e-03,
392,0.00e+00,
393,2.40e-03,
394,1.60e-03,
395,-1.60e-03,
396,0.00e+00,
397,2.40e-03,
398,1.60e-03,
399,-8.00e-04,
400,-8.00e-04,
401,2.00e-03,
402,2.40e-03,
403,-1.60e-03,
404,-1.60e-03,
405,2.00e-03,
406,2.40e-03,
407,-1.60e-03,
408,-8.00e-04,
409,2.40e-03,
410,-8.00e-04,
411,1.60e-03,
412,-8.00e-04,
413,2.40e-03,
414,2.40e-03,
415,-8.00e-04,
416,2.40e-03,
417,-8.00e-04,
418,2.40e-03,
419,-1.60e-03,
420,-1.60e-03,
421,1.60e-03,
422,1.60e-03,
423,-2.40e-03,
424,-8.00e-04,
425,2.40e-03,
426,-1.60e-03,
427,2.40e-03,
428,-8.00e-04,
429,1.60e-03,
430,2.00e-03,
431,-8.00e-04,
432,-8.00e-04,
433,1.60e-03,
434,-8.00e-04,
435,2.40e-03,
436,2.40e-03,
437,-8.00e-04,
438,2.00e-03,
439,-8.00e-04,
440,-8.00e-04,
441,2.40e-03,
442,2.40e-03,
443,-1.60e-03,
444,2.40e-03,
445,-8.00e-04,
446,-8.00e-04,
447,2.40e-03,
448,-8.00e-04,
449,2.40e-03,
450,-1.60e-03,
451,3.20e-03,
452,2.40e-03,
453,-8.00e-04,
454,-1.60e-03,
455,2.40e-03,
456,2.40e-03,
457,-1.60e-03,
458,-1.60e-03,
459,1.60e-03,
460,-8.00e-04,
461,1.60e-03,
462,-8.00e-04,
463,2.40e-03,
464,-1.60e-03,
465,2.40e-03,
466,2.40e-03,
467,-8.00e-04,
468,0.00e+00,
469,2.40e-03,
470,2.40e-03,
471,-8.00e-04,
472,2.00e-03,
473,-1.60e-03,
474,2.40e-03,
475,-1.60e-03,
476,-8.00e-04,
477,2.40e-03,
478,-8.00e-04,
479,2.40e-03,
480,2.40e-03,
481,-8.00e-04,
482,-8.00e-04,
483,2.40e-03,
484,2.40e-03,
485,-1.60e-03,
486,-8.00e-04,
487,2.40e-03,
488,1.60e-03,
489,-1.20e-03,
490,2.40e-03,
491,-1.60e-03,
492,1.60e-03,
493,-1.60e-03,
494,1.60e-03,
495,-8.00e-04,
496,1.60e-03,
497,-1.60e-03,
498,2.00e-03,
499,-8.00e-04,
500,1.60e-03,
501,-1.60e-03,
502,1.60e-03,
503,-1.60e-03,
504,-8.00e-04,
505,2.40e-03,
506,2.40e-03,
507,-8.00e-04,
508,1.60e-03,
509,-1.60e-03,
510,1.60e-03,
511,-1.60e-03,
512,2.00e-03,
513,-1.60e-03,
514,1.60e-03,
515,-1.60e-03,
516,-1.60e-03,
517,1.20e-03,
518,-8.00e-04,
519,2.40e-03,
520,-8.00e-04,
521,2.40e-03,
522,-1.60e-03,
523,2.40e-03,
524,-8.00e-04,
525,1.60e-03,
526,-1.60e-03,
527,1.60e-03,
528,-1.60e-03,
529,2.00e-03,
530,-1.60e-03,
531,1.60e-03,
532,-2.40e-03,
533,1.60e-03,
534,1.60e-03,
535,-1.60e-03,
536,1.60e-03,
537,-1.60e-03,
538,1.60e-03,
539,-1.60e-03,
540,-1.60e-03,
541,1.60e-03,
542,-8.00e-04,
543,1.60e-03,
544,1.60e-03,
545,-1.60e-03,
546,-8.00e-04,
547,1.60e-03,
548,-1.60e-03,
549,2.00e-03,
550,-1.60e-03,
551,1.60e-03,
552,2.40e-03,
553,-1.60e-03,
554,1.60e-03,
555,-2.40e-03,
556,-1.60e-03,
557,1.60e-03,
558,8.00e-04,
559,-1.60e-03,
560,1.60e-03,
561,-1.60e-03,
562,1.60e-03,
563,-1.60e-03,
564,-1.60e-03,
565,1.60e-03,
566,1.20e-03,
567,-1.60e-03,
568,8.00e-04,
569,-1.60e-03,
570,1.60e-03,
571,-1.60e-03,
572,-2.40e-03,
573,1.20e-03,
574,1.60e-03,
575,-2.40e-03,
576,1.60e-03,
577,-2.40e-03,
578,1.60e-03,
579,-8.00e-04,
580,1.60e-03,
581,-2.40e-03,
582,-1.60e-03,
583,1.60e-03,
584,-1.60e-03,
585,2.40e-03,
586,1.60e-03,
587,-1.60e-03,
588,1.60e-03,
589,-2.40e-03,
590,-1.60e-03,
591,1.20e-03,
592,-1.60e-03,
593,1.60e-03,
594,-1.60e-03,
595,1.20e-03,
596,1.60e-03,
597,-1.60e-03,
598,2.00e-03,
599,-1.60e-03,
600,-1.60e-03,
601,8.00e-04,
602,1.60e-03,
603,-1.60e-03,
604,1.60e-03,
605,-1.60e-03,
606,-1.60e-03,
607,2.00e-03,
608,2.40e-03,
609,-1.60e-03,
610,-1.60e-03,
611,1.60e-03,
612,1.60e-03,
613,-1.60e-03,
614,1.20e-03,
615,-1.60e-03,
616,-1.60e-03,
617,1.60e-03,
618,1.60e-03,
619,-1.60e-03,
620,-1.60e-03,
621,1.60e-03,
622,1.60e-03,
623,-1.60e-03,
624,2.00e-03,
625,-1.60e-03,
626,1.20e-03,
627,-1.60e-03,
628,1.60e-03,
629,-1.60e-03,
630,2.40e-03,
631,-1.60e-03,
632,-1.60e-03,
633,1.60e-03,
634,-1.60e-03,
635,8.00e-04,
636,2.00e-03,
637,-1.60e-03,
638,-1.60e-03,
639,2.00e-03,
640,-1.60e-03,
641,1.60e-03,
642,-1.60e-03,
643,2.40e-03,
644,-1.60e-03,
645,1.60e-03,
646,2.00e-03,
647,-8.00e-04,
648,-1.60e-03,
649,2.40e-03,
650,1.60e-03,
651,-1.20e-03,
652,2.40e-03,
653,-8.00e-04,
654,1.60e-03,
655,-2.40e-03,
656,1.60e-03,
657,-1.60e-03,
658,1.60e-03,
659,-1.60e-03,
660,-8.00e-04,
661,1.60e-03,
662,1.60e-03,
663,-1.60e-03,
664,-1.60e-03,
665,2.00e-03,
666,2.40e-03,
667,-8.00e-04,
668,1.60e-03,
669,-8.00e-04,
670,1.60e-03,
671,-1.60e-03,
672,2.40e-03,
673,-8.00e-04,
674,-8.00e-04,
675,2.00e-03,
676,-8.00e-04,
677,2.40e-03,
678,-8.00e-04,
679,2.00e-03,
680,-8.00e-04,
681,1.60e-03,
682,1.60e-03,
683,-8.00e-04,
684,2.00e-03,
685,-8.00e-04,
686,2.40e-03,
687,-8.00e-04,
688,-8.00e-04,
689,2.40e-03,
690,2.40e-03,
691,-8.00e-04,
692,-8.00e-04,
693,2.40e-03,
694,-1.60e-03,
695,2.40e-03,
696,2.80e-03,
697,-1.60e-03,
698,-8.00e-04,
699,2.40e-03,
700,2.40e-03,
701,-8.00e-04,
702,2.40e-03,
703,-8.00e-04,
704,0.00e+00,
705,2.40e-03,
706,0.00e+00,
707,2.40e-03,
708,2.40e-03,
709,-1.60e-03,
710,-8.00e-04,
711,1.60e-03,
712,2.40e-03,
713,0.00e+00,
714,1.60e-03,
715,-8.00e-04,
716,-1.60e-03,
717,3.20e-03,
718,2.00e-03,
719,-1.60e-03,
720,2.40e-03,
721,-8.00e-04,
722,1.60e-03,
723,-8.00e-04,
724,-8.00e-04,
725,2.40e-03,
726,2.40e-03,
727,-8.00e-04,
728,2.40e-03,
729,-8.00e-04,
730,2.40e-03,
731,-8.00e-04,
732,-8.00e-04,
733,2.40e-03,
734,2.40e-03,
735,-8.00e-04,
736,2.40e-03,
737,-8.00e-04,
738,-8.00e-04,
739,2.40e-03,
740,-8.00e-04,
741,2.40e-03,
742,0.00e+00,
743,2.80e-03,
744,0.00e+00,
745,2.40e-03,
746,0.00e+00,
747,3.20e-03,
748,2.40e-03,
749,0.00e+00,
750,0.00e+00,
751,3.20e-03,
752,8.00e-04,
753,3.20e-03,
754,-8.00e-04,
755,2.80e-03,
756,0.00e+00,
757,2.80e-03,
758,0.00e+00,
759,3.20e-03,
760,2.40e-03,
761,0.00e+00,
762,0.00e+00,
763,3.20e-03,
764,3.20e-03,
765,0.00e+00,
766,0.00e+00,
767,3.20e-03,
768,0.00e+00,
769,3.20e-03,
770,0.00e+00,
771,2.40e-03,
772,-8.00e-04,
773,2.00e-03,
774,2.40e-03,
775,0.00e+00,
776,2.40e-03,
777,0.00e+00,
778,3.20e-03,
779,-8.00e-04,
780,0.00e+00,
781,2.80e-03,
782,2.40e-03,
783,0.00e+00,
784,-8.00e-04,
785,2.00e-03,
786,-8.00e-04,
787,2.40e-03,
788,0.00e+00,
789,2.40e-03,
790,2.40e-03,
791,0.00e+00,
792,-8.00e-04,
793,3.20e-03,
794,8.00e-04,
795,3.20e-03,
796,3.20e-03,
797,0.00e+00,
798,0.00e+00,
799,2.80e-03,
800,0.00e+00,
801,3.20e-03,
802,2.40e-03,
803,0.00e+00,
804,2.40e-03,
805,0.00e+00,
806,2.80e-03,
807,0.00e+00,
808,2.40e-03,
809,0.00e+00,
810,3.20e-03,
811,0.00e+00,
812,2.40e-03,
813,0.00e+00,
814,-8.00e-04,
815,3.20e-03,
816,0.00e+00,
817,3.20e-03,
818,-8.00e-04,
819,2.80e-03,
820,-8.00e-04,
821,2.80e-03,
822,-8.00e-04,
823,4.00e-03,
824,4.00e-03,
825,0.00e+00,
826,8.00e-04,
827,3.20e-03,
828,3.20e-03,
829,0.00e+00,
830,3.20e-03,
831,0.00e+00,
832,0.00e+00,
833,3.20e-03,
834,0.00e+00,
835,3.20e-03,
836,0.00e+00,
837,3.20e-03,
838,0.00e+00,
839,3.20e-03,
840,4.00e-03,
841,0.00e+00,
842,3.20e-03,
843,-8.00e-04,
844,3.20e-03,
845,0.00e+00,
846,8.00e-04,
847,3.20e-03,
848,8.00e-04,
849,3.20e-03,
850,3.20e-03,
851,-4.00e-04,
852,8.00e-04,
853,4.00e-03,
854,3.20e-03,
855,0.00e+00,
856,0.00e+00,
857,3.20e-03,
858,3.20e-03,
859,0.00e+00,
860,3.20e-03,
861,0.00e+00,
862,0.00e+00,
863,3.20e-03,
864,8.00e-04,
865,3.20e-03,
866,0.00e+00,
867,4.00e-03,
868,0.00e+00,
869,2.40e-03,
870,3.20e-03,
871,0.00e+00,
872,0.00e+00,
873,3.20e-03,
874,3.20e-03,
875,-8.00e-04,
876,2.80e-03,
877,0.00e+00,
878,2.40e-03,
879,8.00e-04,
880,3.20e-03,
881,0.00e+00,
882,0.00e+00,
883,4.00e-03,
884,3.20e-03,
885,0.00e+00,
886,-8.00e-04,
887,3.20e-03,
888,0.00e+00,
889,3.20e-03,
890,2.40e-03,
891,0.00e+00,
892,0.00e+00,
893,3.20e-03,
894,3.20e-03,
895,0.00e+00,
896,3.20e-03,
897,0.00e+00,
898,0.00e+00,
899,2.80e-03,
900,-8.00e-04,
901,2.40e-03,
902,8.00e-04,
903,3.20e-03,
904,3.20e-03,
905,0.00e+00,
906,4.00e-03,
907,-8.00e-04,
908,0.00e+00,
909,3.20e-03,
910,3.20e-03,
911,-8.00e-04,
912,8.00e-04,
913,3.60e-03,
914,3.20e-03,
915,0.00e+00,
916,8.00e-04,
917,3.20e-03,
918,0.00e+00,
919,3.20e-03,
920,0.00e+00,
921,4.00e-03,
922,3.20e-03,
923,0.00e+00,
924,3.20e-03,
925,0.00e+00,
926,0.00e+00,
927,3.20e-03,
928,3.20e-03,
929,0.00e+00,
930,0.00e+00,
931,3.20e-03,
932,2.40e-03,
933,0.00e+00,
934,2.40e-03,
935,0.00e+00,
936,0.00e+00,
937,2.40e-03,
938,4.00e-03,
939,0.00e+00,
940,2.40e-03,
941,0.00e+00,
942,0.00e+00,
943,2.80e-03,
944,0.00e+00,
945,3.20e-03,
946,4.00e-03,
947,8.00e-04,
948,0.00e+00,
949,3.20e-03,
950,0.00e+00,
951,3.20e-03,
952,0.00e+00,
953,2.80e-03,
954,0.00e+00,
955,2.40e-03,
956,0.00e+00,
957,3.20e-03,
958,0.00e+00,
959,3.20e-03,
960,3.20e-03,
961,-8.00e-04,
962,0.00e+00,
963,2.40e-03,
964,3.20e-03,
965,0.00e+00,
966,3.20e-03,
967,0.00e+00,
968,0.00e+00,
969,4.00e-03,
970,0.00e+00,
971,2.40e-03,
972,0.00e+00,
973,3.20e-03,
974,3.20e-03,
975,0.00e+00,
976,3.20e-03,
977,0.00e+00,
978,0.00e+00,
979,3.20e-03,
980,0.00e+00,
981,3.20e-03,
982,2.40e-03,
983,0.00e+00,
984,2.80e-03,
985,0.00e+00,
986,2.40e-03,
987,0.00e+00,
988,3.20e-03,
989,0.00e+00,
990,2.80e-03,
991,0.00e+00,
992,2.40e-03,
993,0.00e+00,
994,0.00e+00,
995,2.80e-03,
996,0.00e+00,
997,3.20e-03,
998,0.00e+00,
999,3.20e-03,
1000,0.00e+00,
1001,3.20e-03,
1002,0.00e+00,
1003,3.20e-03,
1004,-8.00e-04,
1005,3.20e-03,
1006,2.40e-03,
1007,0.00e+00,
1008,-8.00e-04,
1009,2.40e-03,
1010,-8.00e-04,
1011,3.20e-03,
1012,-8.00e-04,
1013,2.80e-03,
1014,-8.00e-04,
1015,2.40e-03,
1016,0.00e+00,
1017,3.20e-03,
1018,-1.60e-03,
1019,2.80e-03,
1020,2.40e-03,
1021,-8.00e-04,
1022,3.20e-03,
1023,-8.00e-04,
1024,2.40e-03,
1025,-8.00e-04,
1026,0.00e+00,
1027,2.40e-03,
1028,0.00e+00,
1029,3.20e-03,
1030,-8.00e-04,
1031,2.40e-03,
1032,2.80e-03,
1033,0.00e+00,
1034,-8.00e-04,
1035,2.80e-03,
1036,2.40e-03,
1037,-8.00e-04,
1038,3.20e-03,
1039,0.00e+00,
1040,2.40e-03,
1041,-8.00e-04,
1042,2.40e-03,
1043,0.00e+00,
1044,0.00e+00,
1045,2.40e-03,
1046,2.40e-03,
1047,-8.00e-04,
1048,0.00e+00,
1049,3.20e-03,
1050,2.40e-03,
1051,0.00e+00,
1052,3.20e-03,
1053,0.00e+00,
1054,0.00e+00,
1055,2.40e-03,
1056,2.40e-03,
1057,0.00e+00,
1058,3.20e-03,
1059,-8.00e-04,
1060,3.20e-03,
1061,-8.00e-04,
1062,2.40e-03,
1063,-8.00e-04,
1064,-8.00e-04,
1065,2.40e-03,
1066,-8.00e-04,
1067,2.40e-03,
1068,2.40e-03,
1069,-8.00e-04,
1070,0.00e+00,
1071,2.40e-03,
1072,0.00e+00,
1073,2.80e-03,
1074,3.20e-03,
1075,-8.00e-04,
1076,0.00e+00,
1077,3.20e-03,
1078,2.40e-03,
1079,0.00e+00,
1080,-8.00e-04,
1081,2.80e-03,
1082,-8.00e-04,
1083,2.40e-03,
1084,2.40e-03,
1085,-8.00e-04,
1086,0.00e+00,
1087,2.40e-03,
1088,-8.00e-04,
1089,2.80e-03,
1090,-8.00e-04,
1091,2.40e-03,
1092,3.20e-03,
1093,-1.60e-03,
1094,2.40e-03,
1095,-8.00e-04,
1096,2.40e-03,
1097,0.00e+00,
1098,3.20e-03,
1099,-8.00e-04,
1100,2.80e-03,
1101,-8.00e-04,
1102,2.40e-03,
1103,-8.00e-04,
1104,2.40e-03,
1105,-1.60e-03,
1106,2.40e-03,
1107,-1.60e-03,
1108,-8.00e-04,
1109,2.40e-03,
1110,3.20e-03,
1111,-8.00e-04,
1112,-1.60e-03,
1113,2.00e-03,
1114,2.40e-03,
1115,-8.00e-04,
1116,2.80e-03,
1117,-1.60e-03,
1118,0.00e+00,
1119,3.20e-03,
1120,-8.00e-04,
1121,3.20e-03,
1122,2.80e-03,
1123,-8.00e-04,
1124,-1.60e-03,
1125,3.20e-03,
1126,2.40e-03,
1127,-8.00e-04,
1128,2.40e-03,
1129,-8.00e-04,
1130,-8.00e-04,
1131,3.20e-03,
1132,-1.60e-03,
1133,3.20e-03,
1134,0.00e+00,
1135,3.20e-03,
1136,3.20e-03,
1137,-8.00e-04,
1138,-8.00e-04,
1139,3.20e-03,
1140,0.00e+00,
1141,2.40e-03,
1142,3.20e-03,
1143,0.00e+00,
1144,3.20e-03,
1145,0.00e+00,
1146,2.40e-03,
1147,0.00e+00,
1148,0.00e+00,
1149,3.20e-03,
1150,0.00e+00,
1151,3.20e-03,
1152,2.40e-03,
1153,0.00e+00,
1154,3.20e-03,
1155,-8.00e-04,
1156,0.00e+00,
1157,2.80e-03,
1158,2.40e-03,
1159,-8.00e-04,
1160,2.40e-03,
1161,0.00e+00,
1162,3.20e-03,
1163,-8.00e-04,
1164,0.00e+00,
1165,2.40e-03,
1166,2.40e-03,
1167,-8.00e-04,
1168,-1.60e-03,
1169,2.40e-03,
1170,2.80e-03,
1171,-1.60e-03,
1172,-8.00e-04,
1173,2.40e-03,
1174,2.40e-03,
1175,-8.00e-04,
1176,-1.60e-03,
1177,2.40e-03,
1178,-8.00e-04,
1179,2.00e-03,
1180,2.40e-03,
1181,-8.00e-04,
1182,-8.00e-04,
1183,2.40e-03,
1184,-8.00e-04,
1185,2.40e-03,
1186,1.60e-03,
1187,-1.60e-03,
1188,2.40e-03,
1189,-8.00e-04,
1190,2.40e-03,
1191,-1.60e-03,
1192,1.60e-03,
1193,-8.00e-04,
1194,2.40e-03,
1195,-8.00e-04,
1196,2.40e-03,
1197,-1.60e-03,
1198,-8.00e-04,
1199,2.40e-03,
