fastdiffamp/data-noise-set/8th/NewFile9.csv

X,CH1,Start,Increment,
Sequence,Volt,-1.200000e-02,2.000000e-05
0,4.00e-03,
1,0.00e+00,
2,0.00e+00,
3,2.40e-03,
4,3.20e-03,
5,0.00e+00,
6,0.00e+00,
7,4.00e-03,
8,3.20e-03,
9,0.00e+00,
10,3.20e-03,
11,0.00e+00,
12,4.00e-03,
13,0.00e+00,
14,0.00e+00,
15,3.20e-03,
16,3.20e-03,
17,0.00e+00,
18,4.00e-03,
19,0.00e+00,
20,8.00e-04,
21,3.20e-03,
22,3.20e-03,
23,-8.00e-04,
24,4.00e-03,
25,0.00e+00,
26,0.00e+00,
27,3.20e-03,
28,2.80e-03,
29,0.00e+00,
30,-8.00e-04,
31,2.80e-03,
32,0.00e+00,
33,4.00e-03,
34,0.00e+00,
35,3.20e-03,
36,3.20e-03,
37,0.00e+00,
38,4.00e-03,
39,0.00e+00,
40,0.00e+00,
41,3.20e-03,
42,-8.00e-04,
43,3.20e-03,
44,3.20e-03,
45,0.00e+00,
46,3.20e-03,
47,0.00e+00,
48,0.00e+00,
49,3.20e-03,
50,-8.00e-04,
51,2.80e-03,
52,0.00e+00,
53,3.20e-03,
54,0.00e+00,
55,3.20e-03,
56,4.00e-03,
57,0.00e+00,
58,-8.00e-04,
59,4.00e-03,
60,3.20e-03,
61,0.00e+00,
62,8.00e-04,
63,3.20e-03,
64,0.00e+00,
65,3.20e-03,
66,3.20e-03,
67,0.00e+00,
68,0.00e+00,
69,3.20e-03,
70,3.20e-03,
71,0.00e+00,
72,0.00e+00,
73,4.00e-03,
74,3.20e-03,
75,0.00e+00,
76,0.00e+00,
77,3.20e-03,
78,3.20e-03,
79,-8.00e-04,
80,-8.00e-04,
81,3.20e-03,
82,3.20e-03,
83,-8.00e-04,
84,3.20e-03,
85,-8.00e-04,
86,3.20e-03,
87,-8.00e-04,
88,2.40e-03,
89,0.00e+00,
90,2.40e-03,
91,-8.00e-04,
92,0.00e+00,
93,3.20e-03,
94,2.40e-03,
95,-8.00e-04,
96,-8.00e-04,
97,4.00e-03,
98,3.20e-03,
99,-1.60e-03,
100,3.20e-03,
101,-1.60e-03,
102,-8.00e-04,
103,3.20e-03,
104,0.00e+00,
105,2.00e-03,
106,0.00e+00,
107,2.40e-03,
108,2.00e-03,
109,-8.00e-04,
110,-8.00e-04,
111,3.20e-03,
112,2.40e-03,
113,-8.00e-04,
114,-8.00e-04,
115,2.40e-03,
116,-8.00e-04,
117,2.80e-03,
118,-8.00e-04,
119,2.40e-03,
120,2.40e-03,
121,-8.00e-04,
122,0.00e+00,
123,2.40e-03,
124,2.40e-03,
125,-4.00e-04,
126,2.40e-03,
127,-8.00e-04,
128,-8.00e-04,
129,3.20e-03,
130,3.20e-03,
131,-8.00e-04,
132,0.00e+00,
133,2.40e-03,
134,-8.00e-04,
135,2.80e-03,
136,2.40e-03,
137,0.00e+00,
138,3.20e-03,
139,-8.00e-04,
140,-8.00e-04,
141,4.00e-03,
142,2.40e-03,
143,0.00e+00,
144,0.00e+00,
145,2.40e-03,
146,3.20e-03,
147,-8.00e-04,
148,2.40e-03,
149,0.00e+00,
150,-8.00e-04,
151,3.20e-03,
152,3.20e-03,
153,-8.00e-04,
154,3.20e-03,
155,-8.00e-04,
156,2.40e-03,
157,-8.00e-04,
158,0.00e+00,
159,3.20e-03,
160,2.40e-03,
161,-8.00e-04,
162,3.20e-03,
163,-1.60e-03,
164,-8.00e-04,
165,2.40e-03,
166,2.40e-03,
167,-8.00e-04,
168,3.20e-03,
169,-1.60e-03,
170,2.40e-03,
171,0.00e+00,
172,-8.00e-04,
173,3.20e-03,
174,0.00e+00,
175,2.80e-03,
176,0.00e+00,
177,2.80e-03,
178,2.40e-03,
179,-8.00e-04,
180,0.00e+00,
181,3.20e-03,
182,0.00e+00,
183,3.20e-03,
184,2.40e-03,
185,-8.00e-04,
186,-8.00e-04,
187,2.40e-03,
188,0.00e+00,
189,2.40e-03,
190,0.00e+00,
191,2.40e-03,
192,-8.00e-04,
193,2.40e-03,
194,0.00e+00,
195,2.40e-03,
196,-8.00e-04,
197,3.20e-03,
198,2.40e-03,
199,0.00e+00,
200,2.40e-03,
201,0.00e+00,
202,0.00e+00,
203,3.20e-03,
204,-8.00e-04,
205,2.40e-03,
206,-1.60e-03,
207,3.20e-03,
208,2.40e-03,
209,-8.00e-04,
210,2.40e-03,
211,0.00e+00,
212,0.00e+00,
213,3.20e-03,
214,2.40e-03,
215,-8.00e-04,
216,-8.00e-04,
217,2.40e-03,
218,2.00e-03,
219,-1.60e-03,
220,0.00e+00,
221,2.40e-03,
222,-8.00e-04,
223,2.40e-03,
224,-8.00e-04,
225,1.60e-03,
226,-8.00e-04,
227,2.40e-03,
228,3.20e-03,
229,0.00e+00,
230,2.40e-03,
231,-8.00e-04,
232,-8.00e-04,
233,2.40e-03,
234,2.00e-03,
235,-1.60e-03,
236,2.40e-03,
237,-2.40e-03,
238,-8.00e-04,
239,2.00e-03,
240,-1.60e-03,
241,2.40e-03,
242,2.00e-03,
243,-8.00e-04,
244,-8.00e-04,
245,2.40e-03,
246,-8.00e-04,
247,2.40e-03,
248,-8.00e-04,
249,2.40e-03,
250,2.40e-03,
251,-8.00e-04,
252,2.40e-03,
253,-8.00e-04,
254,-8.00e-04,
255,2.40e-03,
256,-8.00e-04,
257,2.40e-03,
258,-8.00e-04,
259,1.60e-03,
260,2.40e-03,
261,-1.60e-03,
262,1.60e-03,
263,-1.60e-03,
264,1.60e-03,
265,-1.60e-03,
266,-1.60e-03,
267,1.60e-03,
268,2.40e-03,
269,-8.00e-04,
270,1.60e-03,
271,-1.60e-03,
272,1.60e-03,
273,-1.60e-03,
274,2.40e-03,
275,-8.00e-04,
276,1.60e-03,
277,-2.40e-03,
278,-1.60e-03,
279,2.00e-03,
280,-8.00e-04,
281,2.40e-03,
282,2.00e-03,
283,-1.60e-03,
284,-1.60e-03,
285,1.60e-03,
286,-8.00e-04,
287,2.00e-03,
288,1.60e-03,
289,-2.40e-03,
290,-1.60e-03,
291,2.40e-03,
292,1.60e-03,
293,-1.60e-03,
294,1.60e-03,
295,-1.60e-03,
296,-1.60e-03,
297,2.40e-03,
298,2.00e-03,
299,-1.60e-03,
300,-8.00e-04,
301,2.00e-03,
302,2.40e-03,
303,-2.40e-03,
304,2.40e-03,
305,-1.60e-03,
306,-8.00e-04,
307,2.40e-03,
308,2.00e-03,
309,-1.60e-03,
310,1.60e-03,
311,-8.00e-04,
312,1.60e-03,
313,-8.00e-04,
314,-8.00e-04,
315,2.40e-03,
316,2.40e-03,
317,-1.60e-03,
318,-1.60e-03,
319,3.20e-03,
320,-1.60e-03,
321,2.00e-03,
322,1.60e-03,
323,-1.60e-03,
324,1.60e-03,
325,-1.60e-03,
326,-8.00e-04,
327,1.60e-03,
328,-8.00e-04,
329,2.40e-03,
330,-8.00e-04,
331,2.40e-03,
332,1.60e-03,
333,-8.00e-04,
334,-1.60e-03,
335,1.20e-03,
336,-1.60e-03,
337,2.00e-03,
338,-1.60e-03,
339,1.60e-03,
340,1.60e-03,
341,-8.00e-04,
342,-8.00e-04,
343,2.00e-03,
344,1.60e-03,
345,-1.60e-03,
346,2.40e-03,
347,-8.00e-04,
348,-1.60e-03,
349,2.40e-03,
350,8.00e-04,
351,-2.40e-03,
352,-1.60e-03,
353,1.60e-03,
354,1.60e-03,
355,-1.60e-03,
356,1.60e-03,
357,-1.60e-03,
358,1.60e-03,
359,-8.00e-04,
360,1.60e-03,
361,-1.60e-03,
362,-1.60e-03,
363,1.60e-03,
364,-1.60e-03,
365,1.20e-03,
366,1.60e-03,
367,-1.60e-03,
368,-2.40e-03,
369,2.40e-03,
370,-1.60e-03,
371,2.00e-03,
372,-1.60e-03,
373,1.60e-03,
374,1.60e-03,
375,-2.40e-03,
376,-2.40e-03,
377,1.60e-03,
378,-8.00e-04,
379,2.00e-03,
380,1.60e-03,
381,-8.00e-04,
382,-8.00e-04,
383,2.40e-03,
384,1.60e-03,
385,-1.60e-03,
386,2.40e-03,
387,-1.60e-03,
388,-1.60e-03,
389,1.60e-03,
390,-8.00e-04,
391,2.40e-03,
392,2.00e-03,
393,-8.00e-04,
394,2.40e-03,
395,-8.00e-04,
396,2.40e-03,
397,-8.00e-04,
398,2.40e-03,
399,-8.00e-04,
400,-1.60e-03,
401,2.40e-03,
402,2.40e-03,
403,-8.00e-04,
404,-8.00e-04,
405,2.40e-03,
406,-8.00e-04,
407,2.40e-03,
408,-1.60e-03,
409,2.40e-03,
410,2.40e-03,
411,-8.00e-04,
412,1.60e-03,
413,-8.00e-04,
414,2.40e-03,
415,-1.60e-03,
416,-8.00e-04,
417,2.40e-03,
418,2.40e-03,
419,-8.00e-04,
420,-8.00e-04,
421,2.40e-03,
422,2.40e-03,
423,-1.60e-03,
424,-8.00e-04,
425,2.40e-03,
426,-1.60e-03,
427,2.40e-03,
428,-8.00e-04,
429,2.00e-03,
430,-8.00e-04,
431,2.40e-03,
432,2.40e-03,
433,-8.00e-04,
434,2.40e-03,
435,-8.00e-04,
436,-8.00e-04,
437,2.80e-03,
438,-8.00e-04,
439,2.40e-03,
440,0.00e+00,
441,2.40e-03,
442,2.40e-03,
443,-1.60e-03,
444,-8.00e-04,
445,2.40e-03,
446,0.00e+00,
447,2.40e-03,
448,-8.00e-04,
449,1.60e-03,
450,2.40e-03,
451,-1.60e-03,
452,1.60e-03,
453,-1.60e-03,
454,-8.00e-04,
455,2.00e-03,
456,-8.00e-04,
457,2.40e-03,
458,-8.00e-04,
459,2.40e-03,
460,-8.00e-04,
461,3.20e-03,
462,2.40e-03,
463,-8.00e-04,
464,-8.00e-04,
465,2.40e-03,
466,-8.00e-04,
467,3.20e-03,
468,2.40e-03,
469,-8.00e-04,
470,1.60e-03,
471,-8.00e-04,
472,-8.00e-04,
473,2.40e-03,
474,2.40e-03,
475,0.00e+00,
476,2.40e-03,
477,-8.00e-04,
478,-8.00e-04,
479,2.40e-03,
480,-8.00e-04,
481,2.80e-03,
482,0.00e+00,
483,4.00e-03,
484,2.40e-03,
485,-8.00e-04,
486,-8.00e-04,
487,2.80e-03,
488,2.40e-03,
489,-1.60e-03,
490,-8.00e-04,
491,2.40e-03,
492,2.40e-03,
493,-8.00e-04,
494,0.00e+00,
495,2.40e-03,
496,-8.00e-04,
497,2.00e-03,
498,2.40e-03,
499,-8.00e-04,
500,-8.00e-04,
501,2.40e-03,
502,-8.00e-04,
503,2.40e-03,
504,2.40e-03,
505,-8.00e-04,
506,-8.00e-04,
507,2.80e-03,
508,2.40e-03,
509,0.00e+00,
510,2.40e-03,
511,-8.00e-04,
512,-8.00e-04,
513,2.40e-03,
514,0.00e+00,
515,2.80e-03,
516,3.20e-03,
517,-8.00e-04,
518,-8.00e-04,
519,2.40e-03,
520,0.00e+00,
521,2.40e-03,
522,-8.00e-04,
523,2.40e-03,
524,3.20e-03,
525,-8.00e-04,
526,2.40e-03,
527,0.00e+00,
528,-8.00e-04,
529,2.40e-03,
530,2.40e-03,
531,0.00e+00,
532,0.00e+00,
533,2.80e-03,
534,-8.00e-04,
535,2.40e-03,
536,0.00e+00,
537,3.20e-03,
538,0.00e+00,
539,3.20e-03,
540,3.20e-03,
541,0.00e+00,
542,0.00e+00,
543,4.00e-03,
544,-8.00e-04,
545,3.20e-03,
546,3.20e-03,
547,0.00e+00,
548,-8.00e-04,
549,3.20e-03,
550,0.00e+00,
551,3.20e-03,
552,2.40e-03,
553,8.00e-04,
554,3.20e-03,
555,0.00e+00,
556,3.20e-03,
557,0.00e+00,
558,3.20e-03,
559,8.00e-04,
560,4.00e-03,
561,8.00e-04,
562,3.20e-03,
563,0.00e+00,
564,0.00e+00,
565,3.20e-03,
566,3.20e-03,
567,0.00e+00,
568,-8.00e-04,
569,3.20e-03,
570,3.20e-03,
571,0.00e+00,
572,0.00e+00,
573,2.80e-03,
574,3.20e-03,
575,8.00e-04,
576,3.20e-03,
577,0.00e+00,
578,8.00e-04,
579,4.00e-03,
580,3.20e-03,
581,0.00e+00,
582,0.00e+00,
583,3.20e-03,
584,4.00e-03,
585,0.00e+00,
586,0.00e+00,
587,4.00e-03,
588,8.00e-04,
589,4.00e-03,
590,4.00e-03,
591,8.00e-04,
592,1.20e-03,
593,4.00e-03,
594,3.20e-03,
595,4.00e-04,
596,4.00e-03,
597,0.00e+00,
598,3.20e-03,
599,-8.00e-04,
600,4.00e-03,
601,8.00e-04,
602,8.00e-04,
603,4.00e-03,
604,3.60e-03,
605,0.00e+00,
606,3.20e-03,
607,8.00e-04,
608,3.20e-03,
609,0.00e+00,
610,3.20e-03,
611,8.00e-04,
612,3.20e-03,
613,0.00e+00,
614,8.00e-04,
615,4.00e-03,
616,3.20e-03,
617,0.00e+00,
618,4.00e-03,
619,0.00e+00,
620,3.20e-03,
621,0.00e+00,
622,0.00e+00,
623,4.00e-03,
624,8.00e-04,
625,3.20e-03,
626,8.00e-04,
627,4.00e-03,
628,3.20e-03,
629,0.00e+00,
630,3.20e-03,
631,0.00e+00,
632,8.00e-04,
633,4.00e-03,
634,0.00e+00,
635,3.20e-03,
636,4.00e-03,
637,0.00e+00,
638,-8.00e-04,
639,4.00e-03,
640,-8.00e-04,
641,3.20e-03,
642,3.20e-03,
643,0.00e+00,
644,3.20e-03,
645,0.00e+00,
646,4.00e-03,
647,0.00e+00,
648,0.00e+00,
649,4.80e-03,
650,0.00e+00,
651,3.20e-03,
652,-8.00e-04,
653,3.20e-03,
654,3.20e-03,
655,0.00e+00,
656,4.00e-03,
657,0.00e+00,
658,0.00e+00,
659,4.00e-03,
660,2.40e-03,
661,0.00e+00,
662,0.00e+00,
663,3.20e-03,
664,8.00e-04,
665,4.00e-03,
666,4.00e-03,
667,0.00e+00,
668,8.00e-04,
669,4.00e-03,
670,0.00e+00,
671,4.00e-03,
672,1.60e-03,
673,4.00e-03,
674,4.00e-03,
675,4.00e-04,
676,0.00e+00,
677,4.00e-03,
678,-8.00e-04,
679,4.00e-03,
680,0.00e+00,
681,3.20e-03,
682,3.20e-03,
683,0.00e+00,
684,3.20e-03,
685,0.00e+00,
686,3.60e-03,
687,-8.00e-04,
688,3.20e-03,
689,-8.00e-04,
690,0.00e+00,
691,4.00e-03,
692,3.20e-03,
693,-8.00e-04,
694,3.20e-03,
695,0.00e+00,
696,0.00e+00,
697,3.20e-03,
698,3.20e-03,
699,0.00e+00,
700,0.00e+00,
701,3.20e-03,
702,4.00e-03,
703,-8.00e-04,
704,3.20e-03,
705,-8.00e-04,
706,0.00e+00,
707,3.20e-03,
708,0.00e+00,
709,3.20e-03,
710,2.40e-03,
711,8.00e-04,
712,3.20e-03,
713,0.00e+00,
714,3.20e-03,
715,0.00e+00,
716,3.20e-03,
717,0.00e+00,
718,3.20e-03,
719,0.00e+00,
720,2.80e-03,
721,0.00e+00,
722,0.00e+00,
723,3.20e-03,
724,-8.00e-04,
725,3.20e-03,
726,0.00e+00,
727,2.80e-03,
728,2.40e-03,
729,0.00e+00,
730,2.40e-03,
731,-8.00e-04,
732,-8.00e-04,
733,3.20e-03,
734,-8.00e-04,
735,3.20e-03,
736,3.20e-03,
737,-8.00e-04,
738,3.20e-03,
739,0.00e+00,
740,0.00e+00,
741,2.80e-03,
742,0.00e+00,
743,3.20e-03,
744,0.00e+00,
745,3.20e-03,
746,0.00e+00,
747,2.80e-03,
748,0.00e+00,
749,3.20e-03,
750,0.00e+00,
751,3.20e-03,
752,3.20e-03,
753,0.00e+00,
754,0.00e+00,
755,3.20e-03,
756,8.00e-04,
757,3.20e-03,
758,8.00e-04,
759,3.20e-03,
760,3.20e-03,
761,0.00e+00,
762,0.00e+00,
763,2.80e-03,
764,3.20e-03,
765,8.00e-04,
766,3.20e-03,
767,0.00e+00,
768,4.00e-04,
769,3.20e-03,
770,0.00e+00,
771,3.20e-03,
772,3.20e-03,
773,0.00e+00,
774,-8.00e-04,
775,3.20e-03,
776,3.20e-03,
777,0.00e+00,
778,3.20e-03,
779,0.00e+00,
780,3.20e-03,
781,0.00e+00,
782,3.20e-03,
783,-8.00e-04,
784,3.20e-03,
785,0.00e+00,
786,3.20e-03,
787,8.00e-04,
788,4.00e-03,
789,0.00e+00,
790,8.00e-04,
791,4.00e-03,
792,8.00e-04,
793,3.20e-03,
794,3.20e-03,
795,-8.00e-04,
796,3.20e-03,
797,8.00e-04,
798,0.00e+00,
799,3.20e-03,
800,3.20e-03,
801,0.00e+00,
802,3.20e-03,
803,0.00e+00,
804,8.00e-04,
805,4.00e-03,
806,3.20e-03,
807,0.00e+00,
808,8.00e-04,
809,2.80e-03,
810,0.00e+00,
811,4.00e-03,
812,0.00e+00,
813,4.00e-03,
814,2.40e-03,
815,0.00e+00,
816,0.00e+00,
817,3.20e-03,
818,0.00e+00,
819,3.20e-03,
820,2.40e-03,
821,-8.00e-04,
822,3.20e-03,
823,0.00e+00,
824,0.00e+00,
825,2.80e-03,
826,2.40e-03,
827,-8.00e-04,
828,0.00e+00,
829,2.80e-03,
830,2.40e-03,
831,-8.00e-04,
832,-8.00e-04,
833,2.40e-03,
834,0.00e+00,
835,2.40e-03,
836,-8.00e-04,
837,2.40e-03,
838,-8.00e-04,
839,2.40e-03,
840,-8.00e-04,
841,2.80e-03,
842,3.20e-03,
843,-8.00e-04,
844,-8.00e-04,
845,2.40e-03,
846,0.00e+00,
847,2.40e-03,
848,0.00e+00,
849,2.40e-03,
850,2.80e-03,
851,0.00e+00,
852,-4.00e-04,
853,3.20e-03,
854,0.00e+00,
855,2.40e-03,
856,4.00e-03,
857,-8.00e-04,
858,-8.00e-04,
859,2.40e-03,
860,0.00e+00,
861,2.40e-03,
862,2.40e-03,
863,-8.00e-04,
864,-8.00e-04,
865,3.20e-03,
866,2.40e-03,
867,-8.00e-04,
868,2.40e-03,
869,-8.00e-04,
870,2.40e-03,
871,-8.00e-04,
872,-8.00e-04,
873,2.40e-03,
874,2.40e-03,
875,-8.00e-04,
876,0.00e+00,
877,2.40e-03,
878,0.00e+00,
879,4.00e-03,
880,2.40e-03,
881,0.00e+00,
882,0.00e+00,
883,2.80e-03,
884,-8.00e-04,
885,2.40e-03,
886,-8.00e-04,
887,2.40e-03,
888,0.00e+00,
889,2.40e-03,
890,-8.00e-04,
891,2.00e-03,
892,2.00e-03,
893,-8.00e-04,
894,0.00e+00,
895,3.20e-03,
896,2.40e-03,
897,-8.00e-04,
898,-8.00e-04,
899,2.40e-03,
900,-2.40e-03,
901,2.40e-03,
902,1.60e-03,
903,-8.00e-04,
904,2.40e-03,
905,-8.00e-04,
906,0.00e+00,
907,2.40e-03,
908,2.40e-03,
909,-8.00e-04,
910,2.40e-03,
911,-8.00e-04,
912,0.00e+00,
913,3.20e-03,
914,3.20e-03,
915,-8.00e-04,
916,-8.00e-04,
917,2.40e-03,
918,0.00e+00,
919,2.40e-03,
920,-8.00e-04,
921,2.00e-03,
922,1.60e-03,
923,-8.00e-04,
924,-8.00e-04,
925,3.20e-03,
926,2.40e-03,
927,0.00e+00,
928,2.40e-03,
929,-8.00e-04,
930,-8.00e-04,
931,2.40e-03,
932,-8.00e-04,
933,3.20e-03,
934,3.20e-03,
935,-8.00e-04,
936,2.40e-03,
937,-8.00e-04,
938,0.00e+00,
939,3.20e-03,
940,3.20e-03,
941,-8.00e-04,
942,-1.60e-03,
943,3.20e-03,
944,2.40e-03,
945,0.00e+00,
946,2.40e-03,
947,-8.00e-04,
948,0.00e+00,
949,2.80e-03,
950,2.40e-03,
951,-8.00e-04,
952,0.00e+00,
953,3.20e-03,
954,0.00e+00,
955,3.20e-03,
956,0.00e+00,
957,3.20e-03,
958,2.40e-03,
959,-8.00e-04,
960,-8.00e-04,
961,2.40e-03,
962,-8.00e-04,
963,2.40e-03,
964,2.40e-03,
965,0.00e+00,
966,2.40e-03,
967,-8.00e-04,
968,2.40e-03,
969,-8.00e-04,
970,0.00e+00,
971,3.20e-03,
972,2.40e-03,
973,-8.00e-04,
974,2.40e-03,
975,-4.00e-04,
976,-8.00e-04,
977,3.20e-03,
978,0.00e+00,
979,2.40e-03,
980,0.00e+00,
981,2.00e-03,
982,2.00e-03,
983,0.00e+00,
984,-1.60e-03,
985,2.00e-03,
986,2.40e-03,
987,-8.00e-04,
988,-8.00e-04,
989,2.40e-03,
990,3.20e-03,
991,-8.00e-04,
992,2.40e-03,
993,-8.00e-04,
994,-8.00e-04,
995,2.00e-03,
996,-8.00e-04,
997,2.80e-03,
998,-8.00e-04,
999,2.40e-03,
1000,-8.00e-04,
1001,2.40e-03,
1002,0.00e+00,
1003,2.80e-03,
1004,2.40e-03,
1005,-8.00e-04,
1006,2.40e-03,
1007,-8.00e-04,
1008,-8.00e-04,
1009,4.00e-03,
1010,2.00e-03,
1011,-1.60e-03,
1012,0.00e+00,
1013,3.20e-03,
1014,-8.00e-04,
1015,2.40e-03,
1016,-8.00e-04,
1017,3.20e-03,
1018,2.40e-03,
1019,-8.00e-04,
1020,1.60e-03,
1021,-8.00e-04,
1022,0.00e+00,
1023,2.40e-03,
1024,2.80e-03,
1025,-8.00e-04,
1026,2.40e-03,
1027,-8.00e-04,
1028,0.00e+00,
1029,3.20e-03,
1030,2.40e-03,
1031,-8.00e-04,
1032,2.40e-03,
1033,-1.60e-03,
1034,-8.00e-04,
1035,2.00e-03,
1036,2.00e-03,
1037,-1.60e-03,
1038,2.00e-03,
1039,-1.60e-03,
1040,2.00e-03,
1041,-1.60e-03,
1042,2.40e-03,
1043,-1.60e-03,
1044,-8.00e-04,
1045,1.60e-03,
1046,-8.00e-04,
1047,2.40e-03,
1048,-8.00e-04,
1049,2.80e-03,
1050,1.60e-03,
1051,-1.60e-03,
1052,1.60e-03,
1053,-1.60e-03,
1054,2.00e-03,
1055,-1.60e-03,
1056,1.60e-03,
1057,-1.60e-03,
1058,1.60e-03,
1059,-1.60e-03,
1060,2.00e-03,
1061,-8.00e-04,
1062,1.60e-03,
1063,-8.00e-04,
1064,-8.00e-04,
1065,3.20e-03,
1066,1.60e-03,
1067,-8.00e-04,
1068,-8.00e-04,
1069,3.20e-03,
1070,-8.00e-04,
1071,2.40e-03,
1072,2.40e-03,
1073,-8.00e-04,
1074,-1.60e-03,
1075,2.00e-03,
1076,2.40e-03,
1077,-1.60e-03,
1078,1.60e-03,
1079,-1.60e-03,
1080,-8.00e-04,
1081,2.40e-03,
1082,-8.00e-04,
1083,1.60e-03,
1084,1.60e-03,
1085,-1.60e-03,
1086,-1.60e-03,
1087,2.00e-03,
1088,2.40e-03,
1089,-1.60e-03,
1090,-8.00e-04,
1091,2.00e-03,
1092,2.80e-03,
1093,-8.00e-04,
1094,-1.60e-03,
1095,2.00e-03,
1096,-8.00e-04,
1097,1.60e-03,
1098,-1.60e-03,
1099,2.80e-03,
1100,-8.00e-04,
1101,2.00e-03,
1102,-8.00e-04,
1103,2.40e-03,
1104,1.60e-03,
1105,-8.00e-04,
1106,-8.00e-04,
1107,2.40e-03,
1108,-8.00e-04,
1109,1.60e-03,
1110,-1.60e-03,
1111,2.00e-03,
1112,-8.00e-04,
1113,1.60e-03,
1114,2.40e-03,
1115,-1.60e-03,
1116,1.60e-03,
1117,-1.60e-03,
1118,2.40e-03,
1119,-1.60e-03,
1120,1.60e-03,
1121,-1.60e-03,
1122,-1.60e-03,
1123,1.60e-03,
1124,-8.00e-04,
1125,1.60e-03,
1126,1.60e-03,
1127,-1.60e-03,
1128,-1.60e-03,
1129,2.00e-03,
1130,1.60e-03,
1131,-1.60e-03,
1132,2.00e-03,
1133,-1.60e-03,
1134,-1.60e-03,
1135,1.20e-03,
1136,1.20e-03,
1137,-1.60e-03,
1138,-1.60e-03,
1139,1.20e-03,
1140,-2.40e-03,
1141,1.60e-03,
1142,8.00e-04,
1143,-1.60e-03,
1144,-1.60e-03,
1145,1.20e-03,
1146,1.20e-03,
1147,-1.60e-03,
1148,-1.60e-03,
1149,2.00e-03,
1150,-1.60e-03,
1151,1.60e-03,
1152,2.00e-03,
1153,-1.60e-03,
1154,-1.60e-03,
1155,1.60e-03,
1156,-8.00e-04,
1157,2.00e-03,
1158,-2.40e-03,
1159,1.60e-03,
1160,-1.60e-03,
1161,1.20e-03,
1162,1.60e-03,
1163,-1.60e-03,
1164,-1.60e-03,
1165,2.40e-03,
1166,-1.60e-03,
1167,2.00e-03,
1168,1.60e-03,
1169,-1.60e-03,
1170,1.60e-03,
1171,-2.40e-03,
1172,-1.60e-03,
1173,2.40e-03,
1174,8.00e-04,
1175,-2.40e-03,
1176,1.20e-03,
1177,-2.40e-03,
1178,8.00e-04,
1179,-2.40e-03,
1180,-1.60e-03,
1181,1.60e-03,
1182,-2.40e-03,
1183,1.20e-03,
1184,8.00e-04,
1185,-2.40e-03,
1186,-1.60e-03,
1187,1.60e-03,
1188,-3.20e-03,
1189,1.20e-03,
1190,-2.40e-03,
1191,1.60e-03,
1192,1.60e-03,
1193,-1.60e-03,
1194,-1.60e-03,
1195,1.20e-03,
1196,-2.40e-03,
1197,1.60e-03,
1198,8.00e-04,
1199,-2.40e-03,
