fastdiffamp/data-noise-set/8th/NewFile7.csv

X,CH1,Start,Increment,
Sequence,Volt,-1.200000e-02,2.000000e-05
0,2.40e-03,
1,-8.00e-04,
2,-8.00e-04,
3,1.60e-03,
4,2.80e-03,
5,-1.60e-03,
6,2.40e-03,
7,-8.00e-04,
8,-8.00e-04,
9,2.40e-03,
10,-1.60e-03,
11,2.40e-03,
12,-8.00e-04,
13,2.40e-03,
14,2.40e-03,
15,-8.00e-04,
16,3.20e-03,
17,-1.60e-03,
18,-8.00e-04,
19,2.40e-03,
20,2.40e-03,
21,-8.00e-04,
22,2.40e-03,
23,-8.00e-04,
24,2.40e-03,
25,-8.00e-04,
26,2.40e-03,
27,-8.00e-04,
28,2.00e-03,
29,-1.60e-03,
30,-8.00e-04,
31,2.40e-03,
32,2.40e-03,
33,-8.00e-04,
34,2.40e-03,
35,-8.00e-04,
36,2.40e-03,
37,-8.00e-04,
38,1.60e-03,
39,-8.00e-04,
40,-1.60e-03,
41,1.60e-03,
42,-8.00e-04,
43,2.40e-03,
44,-8.00e-04,
45,2.40e-03,
46,1.60e-03,
47,-8.00e-04,
48,2.80e-03,
49,-8.00e-04,
50,-1.60e-03,
51,2.40e-03,
52,2.40e-03,
53,-1.60e-03,
54,-1.60e-03,
55,2.40e-03,
56,-8.00e-04,
57,2.40e-03,
58,2.40e-03,
59,-8.00e-04,
60,-8.00e-04,
61,2.00e-03,
62,0.00e+00,
63,2.40e-03,
64,0.00e+00,
65,2.40e-03,
66,2.40e-03,
67,-4.00e-04,
68,2.40e-03,
69,-8.00e-04,
70,2.40e-03,
71,-8.00e-04,
72,2.40e-03,
73,-8.00e-04,
74,-8.00e-04,
75,3.20e-03,
76,0.00e+00,
77,2.40e-03,
78,-1.60e-03,
79,3.20e-03,
80,2.40e-03,
81,-8.00e-04,
82,3.20e-03,
83,-8.00e-04,
84,-1.60e-03,
85,2.40e-03,
86,-8.00e-04,
87,3.20e-03,
88,2.40e-03,
89,-8.00e-04,
90,2.40e-03,
91,-1.60e-03,
92,-8.00e-04,
93,3.20e-03,
94,2.40e-03,
95,-8.00e-04,
96,2.40e-03,
97,0.00e+00,
98,-8.00e-04,
99,2.40e-03,
100,-8.00e-04,
101,3.20e-03,
102,-8.00e-04,
103,2.40e-03,
104,0.00e+00,
105,3.20e-03,
106,3.20e-03,
107,0.00e+00,
108,0.00e+00,
109,3.20e-03,
110,2.40e-03,
111,0.00e+00,
112,-8.00e-04,
113,2.40e-03,
114,2.40e-03,
115,-8.00e-04,
116,-8.00e-04,
117,2.80e-03,
118,2.40e-03,
119,0.00e+00,
120,-1.60e-03,
121,2.40e-03,
122,2.40e-03,
123,-8.00e-04,
124,2.40e-03,
125,-8.00e-04,
126,-8.00e-04,
127,3.20e-03,
128,-8.00e-04,
129,2.40e-03,
130,2.40e-03,
131,0.00e+00,
132,-8.00e-04,
133,3.20e-03,
134,0.00e+00,
135,2.40e-03,
136,0.00e+00,
137,3.20e-03,
138,3.20e-03,
139,0.00e+00,
140,-8.00e-04,
141,3.20e-03,
142,2.40e-03,
143,-8.00e-04,
144,0.00e+00,
145,3.20e-03,
146,2.40e-03,
147,-8.00e-04,
148,3.20e-03,
149,-8.00e-04,
150,-1.60e-03,
151,2.40e-03,
152,2.40e-03,
153,-8.00e-04,
154,0.00e+00,
155,3.20e-03,
156,-8.00e-04,
157,3.20e-03,
158,2.40e-03,
159,-8.00e-04,
160,-1.60e-03,
161,2.40e-03,
162,3.20e-03,
163,-1.60e-03,
164,-1.60e-03,
165,2.80e-03,
166,-1.60e-03,
167,1.60e-03,
168,2.80e-03,
169,-8.00e-04,
170,-8.00e-04,
171,3.20e-03,
172,-8.00e-04,
173,2.40e-03,
174,2.40e-03,
175,-8.00e-04,
176,2.40e-03,
177,-1.60e-03,
178,3.20e-03,
179,-1.60e-03,
180,-8.00e-04,
181,2.40e-03,
182,-1.60e-03,
183,2.40e-03,
184,1.60e-03,
185,-1.60e-03,
186,-1.60e-03,
187,2.40e-03,
188,-1.60e-03,
189,2.40e-03,
190,2.40e-03,
191,-2.40e-03,
192,-1.60e-03,
193,2.40e-03,
194,-1.60e-03,
195,2.40e-03,
196,-8.00e-04,
197,2.00e-03,
198,2.00e-03,
199,-8.00e-04,
200,1.60e-03,
201,-8.00e-04,
202,-8.00e-04,
203,1.60e-03,
204,-1.60e-03,
205,2.00e-03,
206,2.40e-03,
207,-8.00e-04,
208,-8.00e-04,
209,2.40e-03,
210,1.60e-03,
211,-1.60e-03,
212,-1.60e-03,
213,1.60e-03,
214,1.60e-03,
215,-8.00e-04,
216,-8.00e-04,
217,3.20e-03,
218,2.00e-03,
219,-8.00e-04,
220,2.40e-03,
221,-8.00e-04,
222,-8.00e-04,
223,2.40e-03,
224,2.40e-03,
225,-1.60e-03,
226,-1.60e-03,
227,2.40e-03,
228,1.20e-03,
229,-8.00e-04,
230,2.40e-03,
231,-1.60e-03,
232,1.60e-03,
233,-8.00e-04,
234,-8.00e-04,
235,2.40e-03,
236,2.00e-03,
237,-1.60e-03,
238,-8.00e-04,
239,2.80e-03,
240,1.60e-03,
241,-1.60e-03,
242,-1.60e-03,
243,1.60e-03,
244,1.60e-03,
245,-1.60e-03,
246,-1.60e-03,
247,2.40e-03,
248,-1.60e-03,
249,2.00e-03,
250,-8.00e-04,
251,2.40e-03,
252,-1.60e-03,
253,2.00e-03,
254,1.60e-03,
255,-1.60e-03,
256,-1.60e-03,
257,2.00e-03,
258,-8.00e-04,
259,1.60e-03,
260,2.40e-03,
261,-1.60e-03,
262,1.60e-03,
263,-1.60e-03,
264,-2.40e-03,
265,2.40e-03,
266,-1.60e-03,
267,2.40e-03,
268,1.60e-03,
269,-1.60e-03,
270,2.40e-03,
271,-1.60e-03,
272,-8.00e-04,
273,1.60e-03,
274,8.00e-04,
275,-1.60e-03,
276,-1.60e-03,
277,2.00e-03,
278,1.60e-03,
279,-2.40e-03,
280,-1.60e-03,
281,2.40e-03,
282,1.60e-03,
283,-2.40e-03,
284,1.60e-03,
285,-1.60e-03,
286,-1.60e-03,
287,2.40e-03,
288,2.00e-03,
289,-1.60e-03,
290,2.80e-03,
291,-1.60e-03,
292,1.60e-03,
293,-1.60e-03,
294,2.40e-03,
295,-2.40e-03,
296,1.60e-03,
297,-1.60e-03,
298,1.60e-03,
299,-1.60e-03,
300,1.60e-03,
301,-2.40e-03,
302,-1.60e-03,
303,2.40e-03,
304,1.60e-03,
305,-3.20e-03,
306,-1.60e-03,
307,1.60e-03,
308,-2.40e-03,
309,2.40e-03,
310,8.00e-04,
311,-2.40e-03,
312,-1.60e-03,
313,2.40e-03,
314,1.60e-03,
315,-1.60e-03,
316,2.40e-03,
317,-2.40e-03,
318,-1.60e-03,
319,1.60e-03,
320,1.60e-03,
321,-1.60e-03,
322,1.60e-03,
323,-8.00e-04,
324,1.60e-03,
325,-1.60e-03,
326,-1.60e-03,
327,2.40e-03,
328,-1.60e-03,
329,2.00e-03,
330,-1.60e-03,
331,1.60e-03,
332,-8.00e-04,
333,2.40e-03,
334,-8.00e-04,
335,2.40e-03,
336,-8.00e-04,
337,1.60e-03,
338,-8.00e-04,
339,2.40e-03,
340,2.40e-03,
341,-8.00e-04,
342,-8.00e-04,
343,1.60e-03,
344,-1.60e-03,
345,2.40e-03,
346,2.40e-03,
347,-1.60e-03,
348,-8.00e-04,
349,2.00e-03,
350,1.60e-03,
351,-1.60e-03,
352,2.40e-03,
353,-1.60e-03,
354,1.60e-03,
355,-2.40e-03,
356,-1.60e-03,
357,2.40e-03,
358,-1.60e-03,
359,2.40e-03,
360,-2.40e-03,
361,2.40e-03,
362,-1.60e-03,
363,2.80e-03,
364,-1.60e-03,
365,2.00e-03,
366,2.40e-03,
367,-1.60e-03,
368,-1.60e-03,
369,2.40e-03,
370,-1.60e-03,
371,1.60e-03,
372,-8.00e-04,
373,2.40e-03,
374,-1.60e-03,
375,2.40e-03,
376,-8.00e-04,
377,1.60e-03,
378,-1.60e-03,
379,2.40e-03,
380,-8.00e-04,
381,1.60e-03,
382,-8.00e-04,
383,1.60e-03,
384,-8.00e-04,
385,2.40e-03,
386,-8.00e-04,
387,3.20e-03,
388,2.00e-03,
389,-2.40e-03,
390,2.40e-03,
391,-1.60e-03,
392,-1.60e-03,
393,3.20e-03,
394,-8.00e-04,
395,2.40e-03,
396,-8.00e-04,
397,2.40e-03,
398,2.00e-03,
399,-1.60e-03,
400,-8.00e-04,
401,2.40e-03,
402,-8.00e-04,
403,2.40e-03,
404,-8.00e-04,
405,3.20e-03,
406,2.40e-03,
407,0.00e+00,
408,1.60e-03,
409,-8.00e-04,
410,0.00e+00,
411,3.20e-03,
412,2.40e-03,
413,-1.60e-03,
414,2.00e-03,
415,-1.60e-03,
416,2.40e-03,
417,-1.60e-03,
418,0.00e+00,
419,2.40e-03,
420,3.20e-03,
421,-8.00e-04,
422,2.40e-03,
423,-8.00e-04,
424,3.20e-03,
425,-8.00e-04,
426,2.40e-03,
427,-8.00e-04,
428,2.40e-03,
429,-1.60e-03,
430,-8.00e-04,
431,2.40e-03,
432,-8.00e-04,
433,2.40e-03,
434,0.00e+00,
435,2.40e-03,
436,2.40e-03,
437,-8.00e-04,
438,2.40e-03,
439,-1.60e-03,
440,2.40e-03,
441,-8.00e-04,
442,-8.00e-04,
443,2.40e-03,
444,2.80e-03,
445,-8.00e-04,
446,-8.00e-04,
447,2.40e-03,
448,1.60e-03,
449,0.00e+00,
450,-8.00e-04,
451,2.80e-03,
452,2.40e-03,
453,-8.00e-04,
454,-8.00e-04,
455,2.40e-03,
456,3.20e-03,
457,-8.00e-04,
458,3.20e-03,
459,-8.00e-04,
460,2.80e-03,
461,-8.00e-04,
462,1.60e-03,
463,0.00e+00,
464,-1.60e-03,
465,2.00e-03,
466,2.40e-03,
467,-1.60e-03,
468,0.00e+00,
469,2.40e-03,
470,2.40e-03,
471,-1.60e-03,
472,-8.00e-04,
473,2.40e-03,
474,2.40e-03,
475,-8.00e-04,
476,2.40e-03,
477,-8.00e-04,
478,-8.00e-04,
479,3.20e-03,
480,0.00e+00,
481,3.20e-03,
482,2.40e-03,
483,-1.60e-03,
484,2.40e-03,
485,-8.00e-04,
486,2.40e-03,
487,-8.00e-04,
488,-8.00e-04,
489,1.60e-03,
490,2.40e-03,
491,-8.00e-04,
492,2.40e-03,
493,-1.60e-03,
494,2.40e-03,
495,-8.00e-04,
496,-8.00e-04,
497,3.20e-03,
498,-8.00e-04,
499,2.40e-03,
500,-8.00e-04,
501,2.40e-03,
502,-8.00e-04,
503,3.20e-03,
504,2.40e-03,
505,-8.00e-04,
506,2.40e-03,
507,-1.60e-03,
508,-8.00e-04,
509,2.40e-03,
510,-1.60e-03,
511,3.20e-03,
512,2.40e-03,
513,-8.00e-04,
514,-8.00e-04,
515,1.60e-03,
516,-1.60e-03,
517,1.60e-03,
518,2.40e-03,
519,-1.60e-03,
520,-8.00e-04,
521,2.40e-03,
522,2.40e-03,
523,-8.00e-04,
524,1.60e-03,
525,-8.00e-04,
526,-1.60e-03,
527,2.40e-03,
528,-8.00e-04,
529,2.40e-03,
530,-8.00e-04,
531,2.40e-03,
532,2.40e-03,
533,0.00e+00,
534,-8.00e-04,
535,2.40e-03,
536,2.40e-03,
537,-8.00e-04,
538,2.80e-03,
539,-8.00e-04,
540,2.40e-03,
541,-8.00e-04,
542,2.40e-03,
543,-8.00e-04,
544,2.40e-03,
545,-1.60e-03,
546,-1.60e-03,
547,2.40e-03,
548,-1.60e-03,
549,2.40e-03,
550,-8.00e-04,
551,2.40e-03,
552,0.00e+00,
553,2.80e-03,
554,-8.00e-04,
555,2.80e-03,
556,2.00e-03,
557,-8.00e-04,
558,2.40e-03,
559,-8.00e-04,
560,3.20e-03,
561,-8.00e-04,
562,-8.00e-04,
563,2.80e-03,
564,-1.60e-03,
565,2.40e-03,
566,-1.60e-03,
567,2.40e-03,
568,-1.60e-03,
569,2.80e-03,
570,2.40e-03,
571,-1.60e-03,
572,-1.60e-03,
573,3.20e-03,
574,-8.00e-04,
575,2.80e-03,
576,-1.60e-03,
577,3.20e-03,
578,2.40e-03,
579,-8.00e-04,
580,1.60e-03,
581,-1.60e-03,
582,-8.00e-04,
583,2.40e-03,
584,2.00e-03,
585,-8.00e-04,
586,-8.00e-04,
587,2.80e-03,
588,-1.60e-03,
589,2.40e-03,
590,-1.60e-03,
591,2.40e-03,
592,3.20e-03,
593,-8.00e-04,
594,-8.00e-04,
595,2.40e-03,
596,-8.00e-04,
597,1.60e-03,
598,2.40e-03,
599,-1.60e-03,
600,1.60e-03,
601,-1.60e-03,
602,2.40e-03,
603,-1.60e-03,
604,-8.00e-04,
605,2.40e-03,
606,-1.60e-03,
607,2.80e-03,
608,-8.00e-04,
609,2.80e-03,
610,1.60e-03,
611,-1.60e-03,
612,-1.60e-03,
613,2.40e-03,
614,-8.00e-04,
615,2.80e-03,
616,2.40e-03,
617,-1.60e-03,
618,1.60e-03,
619,-1.60e-03,
620,-8.00e-04,
621,3.20e-03,
622,-1.60e-03,
623,1.20e-03,
624,-8.00e-04,
625,2.00e-03,
626,-8.00e-04,
627,2.40e-03,
628,1.60e-03,
629,-8.00e-04,
630,1.60e-03,
631,-8.00e-04,
632,2.40e-03,
633,-8.00e-04,
634,-8.00e-04,
635,2.40e-03,
636,-8.00e-04,
637,2.40e-03,
638,-8.00e-04,
639,2.80e-03,
640,-8.00e-04,
641,2.40e-03,
642,-8.00e-04,
643,2.00e-03,
644,2.40e-03,
645,-1.60e-03,
646,-1.60e-03,
647,2.40e-03,
648,2.40e-03,
649,-8.00e-04,
650,-8.00e-04,
651,2.40e-03,
652,2.40e-03,
653,-1.60e-03,
654,2.40e-03,
655,-1.60e-03,
656,-8.00e-04,
657,2.40e-03,
658,-1.60e-03,
659,2.40e-03,
660,-1.60e-03,
661,2.00e-03,
662,2.00e-03,
663,-8.00e-04,
664,-8.00e-04,
665,2.80e-03,
666,-8.00e-04,
667,2.40e-03,
668,1.60e-03,
669,-8.00e-04,
670,1.60e-03,
671,-2.40e-03,
672,-1.60e-03,
673,1.60e-03,
674,-1.60e-03,
675,2.40e-03,
676,1.60e-03,
677,-2.40e-03,
678,-1.60e-03,
679,1.60e-03,
680,1.20e-03,
681,-2.00e-03,
682,-1.60e-03,
683,2.40e-03,
684,3.20e-03,
685,-1.60e-03,
686,-2.40e-03,
687,2.40e-03,
688,-1.60e-03,
689,2.40e-03,
690,-1.60e-03,
691,2.40e-03,
692,1.60e-03,
693,-1.60e-03,
694,-1.60e-03,
695,1.20e-03,
696,2.40e-03,
697,-1.60e-03,
698,-1.60e-03,
699,2.40e-03,
700,-1.60e-03,
701,2.40e-03,
702,-8.00e-04,
703,2.80e-03,
704,-8.00e-04,
705,2.40e-03,
706,2.40e-03,
707,-1.60e-03,
708,2.40e-03,
709,-1.60e-03,
710,1.60e-03,
711,-1.60e-03,
712,-1.60e-03,
713,2.40e-03,
714,-8.00e-04,
715,2.40e-03,
716,-8.00e-04,
717,2.40e-03,
718,2.40e-03,
719,-8.00e-04,
720,2.40e-03,
721,-1.60e-03,
722,1.60e-03,
723,-1.60e-03,
724,2.40e-03,
725,-1.60e-03,
726,-8.00e-04,
727,2.00e-03,
728,-1.60e-03,
729,2.40e-03,
730,1.60e-03,
731,-1.60e-03,
732,-1.60e-03,
733,1.60e-03,
734,-8.00e-04,
735,2.40e-03,
736,2.40e-03,
737,-1.20e-03,
738,-8.00e-04,
739,2.40e-03,
740,1.60e-03,
741,-8.00e-04,
742,-1.60e-03,
743,2.40e-03,
744,1.60e-03,
745,-1.60e-03,
746,-1.60e-03,
747,3.20e-03,
748,2.00e-03,
749,-1.60e-03,
750,-1.60e-03,
751,2.40e-03,
752,2.40e-03,
753,-1.60e-03,
754,2.00e-03,
755,-8.00e-04,
756,2.40e-03,
757,-1.60e-03,
758,2.00e-03,
759,-1.20e-03,
760,2.40e-03,
761,-1.60e-03,
762,2.40e-03,
763,-2.40e-03,
764,-1.60e-03,
765,3.20e-03,
766,1.60e-03,
767,-1.60e-03,
768,-8.00e-04,
769,2.00e-03,
770,-8.00e-04,
771,2.40e-03,
772,1.60e-03,
773,-8.00e-04,
774,-8.00e-04,
775,4.00e-03,
776,2.40e-03,
777,-1.60e-03,
778,-1.60e-03,
779,2.40e-03,
780,-8.00e-04,
781,2.40e-03,
782,-8.00e-04,
783,2.40e-03,
784,2.40e-03,
785,-8.00e-04,
786,-1.60e-03,
787,2.40e-03,
788,2.80e-03,
789,-1.60e-03,
790,2.40e-03,
791,-8.00e-04,
792,-8.00e-04,
793,2.40e-03,
794,-1.60e-03,
795,2.40e-03,
796,2.40e-03,
797,-8.00e-04,
798,-1.60e-03,
799,3.20e-03,
800,-8.00e-04,
801,2.40e-03,
802,0.00e+00,
803,2.40e-03,
804,-1.60e-03,
805,2.40e-03,
806,-8.00e-04,
807,2.40e-03,
808,-1.60e-03,
809,2.80e-03,
810,2.40e-03,
811,-8.00e-04,
812,-8.00e-04,
813,2.80e-03,
814,3.20e-03,
815,-1.60e-03,
816,2.40e-03,
817,-1.60e-03,
818,2.40e-03,
819,-8.00e-04,
820,-8.00e-04,
821,2.40e-03,
822,-8.00e-04,
823,4.00e-03,
824,2.40e-03,
825,-8.00e-04,
826,2.40e-03,
827,0.00e+00,
828,-1.60e-03,
829,2.40e-03,
830,-8.00e-04,
831,2.40e-03,
832,2.80e-03,
833,-8.00e-04,
834,3.20e-03,
835,-1.60e-03,
836,3.20e-03,
837,-8.00e-04,
838,2.40e-03,
839,-4.00e-04,
840,-1.60e-03,
841,2.40e-03,
842,3.20e-03,
843,-1.60e-03,
844,3.20e-03,
845,-1.60e-03,
846,-8.00e-04,
847,3.20e-03,
848,2.40e-03,
849,-8.00e-04,
850,2.80e-03,
851,-8.00e-04,
852,-8.00e-04,
853,2.40e-03,
854,2.40e-03,
855,-1.60e-03,
856,-8.00e-04,
857,3.20e-03,
858,2.40e-03,
859,-1.60e-03,
860,-8.00e-04,
861,2.40e-03,
862,2.40e-03,
863,-1.60e-03,
864,2.40e-03,
865,-2.40e-03,
866,-1.60e-03,
867,2.40e-03,
868,2.40e-03,
869,-1.60e-03,
870,-1.60e-03,
871,2.40e-03,
872,1.60e-03,
873,-1.60e-03,
874,2.40e-03,
875,-8.00e-04,
876,-8.00e-04,
877,3.20e-03,
878,-8.00e-04,
879,2.40e-03,
880,2.40e-03,
881,-1.60e-03,
882,-1.60e-03,
883,2.40e-03,
884,2.80e-03,
885,-8.00e-04,
886,2.00e-03,
887,-1.60e-03,
888,2.40e-03,
889,-1.60e-03,
890,-8.00e-04,
891,2.40e-03,
892,2.40e-03,
893,-8.00e-04,
894,-1.60e-03,
895,2.40e-03,
896,2.40e-03,
897,-8.00e-04,
898,2.40e-03,
899,-8.00e-04,
900,2.40e-03,
901,-8.00e-04,
902,1.60e-03,
903,-8.00e-04,
904,2.40e-03,
905,-8.00e-04,
906,2.40e-03,
907,-8.00e-04,
908,-8.00e-04,
909,2.40e-03,
910,-8.00e-04,
911,2.40e-03,
912,0.00e+00,
913,2.40e-03,
914,2.40e-03,
915,0.00e+00,
916,-8.00e-04,
917,2.00e-03,
918,2.40e-03,
919,-8.00e-04,
920,2.40e-03,
921,-8.00e-04,
922,-8.00e-04,
923,2.40e-03,
924,2.40e-03,
925,-1.60e-03,
926,0.00e+00,
927,2.40e-03,
928,2.40e-03,
929,-8.00e-04,
930,-1.60e-03,
931,2.40e-03,
932,-8.00e-04,
933,2.40e-03,
934,-4.00e-04,
935,3.20e-03,
936,2.40e-03,
937,0.00e+00,
938,2.40e-03,
939,-8.00e-04,
940,2.40e-03,
941,-8.00e-04,
942,3.20e-03,
943,0.00e+00,
944,-8.00e-04,
945,2.80e-03,
946,-8.00e-04,
947,3.20e-03,
948,0.00e+00,
949,3.20e-03,
950,-8.00e-04,
951,3.20e-03,
952,0.00e+00,
953,3.60e-03,
954,0.00e+00,
955,3.20e-03,
956,0.00e+00,
957,2.40e-03,
958,0.00e+00,
959,3.20e-03,
960,-8.00e-04,
961,3.20e-03,
962,2.80e-03,
963,0.00e+00,
964,-8.00e-04,
965,2.80e-03,
966,3.20e-03,
967,0.00e+00,
968,3.20e-03,
969,0.00e+00,
970,-8.00e-04,
971,3.20e-03,
972,0.00e+00,
973,3.20e-03,
974,-8.00e-04,
975,2.40e-03,
976,0.00e+00,
977,3.20e-03,
978,4.00e-03,
979,0.00e+00,
980,0.00e+00,
981,3.20e-03,
982,-8.00e-04,
983,3.20e-03,
984,3.20e-03,
985,-8.00e-04,
986,0.00e+00,
987,4.00e-03,
988,0.00e+00,
989,3.20e-03,
990,0.00e+00,
991,2.40e-03,
992,-8.00e-04,
993,2.40e-03,
994,0.00e+00,
995,3.20e-03,
996,0.00e+00,
997,2.40e-03,
998,3.20e-03,
999,-8.00e-04,
1000,3.20e-03,
1001,-8.00e-04,
1002,0.00e+00,
1003,3.20e-03,
1004,-8.00e-04,
1005,2.80e-03,
1006,0.00e+00,
1007,3.20e-03,
1008,-8.00e-04,
1009,3.20e-03,
1010,-8.00e-04,
1011,2.40e-03,
1012,3.20e-03,
1013,0.00e+00,
1014,-8.00e-04,
1015,3.20e-03,
1016,-8.00e-04,
1017,2.80e-03,
1018,2.40e-03,
1019,0.00e+00,
1020,3.20e-03,
1021,-8.00e-04,
1022,2.40e-03,
1023,-8.00e-04,
1024,-8.00e-04,
1025,3.20e-03,
1026,2.40e-03,
1027,0.00e+00,
1028,0.00e+00,
1029,2.80e-03,
1030,0.00e+00,
1031,3.20e-03,
1032,-8.00e-04,
1033,2.40e-03,
1034,0.00e+00,
1035,3.20e-03,
1036,3.20e-03,
1037,0.00e+00,
1038,0.00e+00,
1039,3.20e-03,
1040,0.00e+00,
1041,2.40e-03,
1042,3.20e-03,
1043,0.00e+00,
1044,3.20e-03,
1045,0.00e+00,
1046,3.20e-03,
1047,0.00e+00,
1048,2.40e-03,
1049,-8.00e-04,
1050,3.20e-03,
1051,-8.00e-04,
1052,3.20e-03,
1053,0.00e+00,
1054,3.60e-03,
1055,-8.00e-04,
1056,3.20e-03,
1057,0.00e+00,
1058,3.20e-03,
1059,0.00e+00,
1060,3.20e-03,
1061,8.00e-04,
1062,4.00e-03,
1063,0.00e+00,
1064,0.00e+00,
1065,3.20e-03,
1066,8.00e-04,
1067,3.20e-03,
1068,3.20e-03,
1069,0.00e+00,
1070,8.00e-04,
1071,3.20e-03,
1072,0.00e+00,
1073,3.20e-03,
1074,3.20e-03,
1075,0.00e+00,
1076,3.20e-03,
1077,0.00e+00,
1078,2.40e-03,
1079,0.00e+00,
1080,0.00e+00,
1081,2.40e-03,
1082,-8.00e-04,
1083,3.20e-03,
1084,0.00e+00,
1085,3.20e-03,
1086,0.00e+00,
1087,2.80e-03,
1088,2.40e-03,
1089,0.00e+00,
1090,2.40e-03,
1091,-8.00e-04,
1092,-8.00e-04,
1093,3.20e-03,
1094,3.20e-03,
1095,-8.00e-04,
1096,2.40e-03,
1097,-8.00e-04,
1098,2.40e-03,
1099,-8.00e-04,
1100,-8.00e-04,
1101,2.40e-03,
1102,0.00e+00,
1103,2.40e-03,
1104,2.40e-03,
1105,0.00e+00,
1106,3.20e-03,
1107,0.00e+00,
1108,2.40e-03,
1109,0.00e+00,
1110,2.80e-03,
1111,-8.00e-04,
1112,3.20e-03,
1113,0.00e+00,
1114,3.20e-03,
1115,0.00e+00,
1116,3.20e-03,
1117,0.00e+00,
1118,3.20e-03,
1119,0.00e+00,
1120,0.00e+00,
1121,2.40e-03,
1122,0.00e+00,
1123,3.20e-03,
1124,-1.60e-03,
1125,2.00e-03,
1126,0.00e+00,
1127,2.40e-03,
1128,-1.60e-03,
1129,2.00e-03,
1130,3.20e-03,
1131,-8.00e-04,
1132,-8.00e-04,
1133,2.40e-03,
1134,0.00e+00,
1135,2.40e-03,
1136,-8.00e-04,
1137,2.80e-03,
1138,2.40e-03,
1139,-8.00e-04,
1140,-8.00e-04,
1141,2.40e-03,
1142,2.40e-03,
1143,-8.00e-04,
1144,3.20e-03,
1145,-8.00e-04,
1146,-8.00e-04,
1147,3.20e-03,
1148,0.00e+00,
1149,2.40e-03,
1150,-8.00e-04,
1151,4.00e-03,
1152,-8.00e-04,
1153,2.40e-03,
1154,3.20e-03,
1155,-8.00e-04,
1156,2.80e-03,
1157,-1.60e-03,
1158,-1.60e-03,
1159,2.40e-03,
1160,2.40e-03,
1161,-8.00e-04,
1162,-1.60e-03,
1163,2.40e-03,
1164,2.40e-03,
1165,-1.60e-03,
1166,2.40e-03,
1167,-8.00e-04,
1168,2.40e-03,
1169,-1.60e-03,
1170,-1.60e-03,
1171,3.20e-03,
1172,3.20e-03,
1173,-8.00e-04,
1174,1.60e-03,
1175,-1.60e-03,
1176,-8.00e-04,
1177,1.60e-03,
1178,1.60e-03,
1179,-2.40e-03,
1180,2.40e-03,
1181,-8.00e-04,
1182,-8.00e-04,
1183,2.40e-03,
1184,2.80e-03,
1185,-8.00e-04,
1186,-8.00e-04,
1187,2.80e-03,
1188,-8.00e-04,
1189,2.40e-03,
1190,-8.00e-04,
1191,2.80e-03,
1192,2.40e-03,
1193,-1.60e-03,
1194,2.40e-03,
1195,-8.00e-04,
1196,-8.00e-04,
1197,2.40e-03,
1198,-8.00e-04,
1199,1.60e-03,
