fastdiffamp/data-noise-set/8th/NewFile8.csv

X,CH1,Start,Increment,
Sequence,Volt,-1.200000e-02,2.000000e-05
0,-8.00e-04,
1,2.40e-03,
2,-8.00e-04,
3,1.60e-03,
4,-8.00e-04,
5,2.40e-03,
6,3.20e-03,
7,-1.60e-03,
8,2.40e-03,
9,-1.60e-03,
10,-1.60e-03,
11,2.40e-03,
12,2.00e-03,
13,-8.00e-04,
14,-8.00e-04,
15,1.60e-03,
16,1.60e-03,
17,-1.60e-03,
18,2.40e-03,
19,-8.00e-04,
20,2.40e-03,
21,-1.60e-03,
22,-1.60e-03,
23,2.40e-03,
24,-8.00e-04,
25,2.40e-03,
26,-8.00e-04,
27,2.40e-03,
28,2.00e-03,
29,-1.60e-03,
30,0.00e+00,
31,2.00e-03,
32,-8.00e-04,
33,2.40e-03,
34,2.00e-03,
35,-8.00e-04,
36,2.40e-03,
37,-8.00e-04,
38,2.40e-03,
39,-8.00e-04,
40,2.00e-03,
41,-8.00e-04,
42,2.40e-03,
43,-8.00e-04,
44,-8.00e-04,
45,2.40e-03,
46,0.00e+00,
47,2.40e-03,
48,-8.00e-04,
49,2.80e-03,
50,-8.00e-04,
51,2.00e-03,
52,-8.00e-04,
53,2.80e-03,
54,2.40e-03,
55,-1.60e-03,
56,2.40e-03,
57,-8.00e-04,
58,2.40e-03,
59,-1.60e-03,
60,-1.60e-03,
61,2.40e-03,
62,2.40e-03,
63,-1.60e-03,
64,-8.00e-04,
65,1.60e-03,
66,2.40e-03,
67,-1.60e-03,
68,2.00e-03,
69,-8.00e-04,
70,2.00e-03,
71,-8.00e-04,
72,2.40e-03,
73,-1.60e-03,
74,1.60e-03,
75,-1.60e-03,
76,-8.00e-04,
77,1.60e-03,
78,2.00e-03,
79,-8.00e-04,
80,-1.20e-03,
81,2.40e-03,
82,-8.00e-04,
83,2.40e-03,
84,-8.00e-04,
85,2.00e-03,
86,0.00e+00,
87,2.40e-03,
88,1.60e-03,
89,-8.00e-04,
90,-1.60e-03,
91,2.40e-03,
92,-8.00e-04,
93,2.40e-03,
94,-1.60e-03,
95,2.40e-03,
96,3.20e-03,
97,-8.00e-04,
98,2.40e-03,
99,-8.00e-04,
100,-8.00e-04,
101,2.40e-03,
102,-8.00e-04,
103,2.40e-03,
104,2.40e-03,
105,-1.60e-03,
106,-8.00e-04,
107,1.60e-03,
108,1.60e-03,
109,-8.00e-04,
110,2.40e-03,
111,-8.00e-04,
112,-8.00e-04,
113,1.60e-03,
114,2.40e-03,
115,-8.00e-04,
116,-1.60e-03,
117,1.60e-03,
118,1.60e-03,
119,-1.60e-03,
120,-1.60e-03,
121,2.40e-03,
122,-2.40e-03,
123,2.40e-03,
124,1.60e-03,
125,-8.00e-04,
126,-1.60e-03,
127,1.60e-03,
128,1.60e-03,
129,-1.60e-03,
130,-1.60e-03,
131,2.40e-03,
132,2.00e-03,
133,-1.60e-03,
134,-1.60e-03,
135,1.60e-03,
136,-1.60e-03,
137,2.00e-03,
138,-1.60e-03,
139,1.60e-03,
140,-1.60e-03,
141,1.60e-03,
142,1.60e-03,
143,-1.60e-03,
144,1.60e-03,
145,-8.00e-04,
146,-1.60e-03,
147,1.60e-03,
148,-2.40e-03,
149,1.60e-03,
150,-1.60e-03,
151,2.80e-03,
152,1.60e-03,
153,-8.00e-04,
154,-8.00e-04,
155,2.40e-03,
156,-1.60e-03,
157,2.40e-03,
158,-1.60e-03,
159,1.60e-03,
160,2.40e-03,
161,-1.60e-03,
162,-1.60e-03,
163,2.00e-03,
164,-8.00e-04,
165,2.40e-03,
166,1.60e-03,
167,-1.60e-03,
168,-8.00e-04,
169,1.60e-03,
170,-8.00e-04,
171,1.60e-03,
172,-8.00e-04,
173,2.00e-03,
174,0.00e+00,
175,3.20e-03,
176,2.00e-03,
177,-1.60e-03,
178,-2.40e-03,
179,1.60e-03,
180,-1.60e-03,
181,1.60e-03,
182,-1.60e-03,
183,1.60e-03,
184,2.00e-03,
185,-8.00e-04,
186,-8.00e-04,
187,2.80e-03,
188,-8.00e-04,
189,2.80e-03,
190,2.00e-03,
191,-8.00e-04,
192,-1.60e-03,
193,2.40e-03,
194,1.60e-03,
195,-1.60e-03,
196,-8.00e-04,
197,1.60e-03,
198,-8.00e-04,
199,2.00e-03,
200,-8.00e-04,
201,2.00e-03,
202,-8.00e-04,
203,1.60e-03,
204,1.60e-03,
205,-8.00e-04,
206,-8.00e-04,
207,1.60e-03,
208,2.40e-03,
209,-1.60e-03,
210,1.60e-03,
211,-1.60e-03,
212,1.60e-03,
213,-8.00e-04,
214,1.20e-03,
215,-1.60e-03,
216,-8.00e-04,
217,2.40e-03,
218,-1.60e-03,
219,2.40e-03,
220,-8.00e-04,
221,2.40e-03,
222,2.00e-03,
223,-8.00e-04,
224,-8.00e-04,
225,2.40e-03,
226,-1.60e-03,
227,1.60e-03,
228,-8.00e-04,
229,2.00e-03,
230,1.60e-03,
231,-8.00e-04,
232,8.00e-04,
233,-1.60e-03,
234,-1.60e-03,
235,2.00e-03,
236,2.40e-03,
237,-2.40e-03,
238,2.00e-03,
239,-1.20e-03,
240,-8.00e-04,
241,1.60e-03,
242,-1.60e-03,
243,2.00e-03,
244,1.60e-03,
245,-2.40e-03,
246,-1.60e-03,
247,1.60e-03,
248,-8.00e-04,
249,2.00e-03,
250,1.60e-03,
251,-8.00e-04,
252,1.60e-03,
253,-1.60e-03,
254,2.00e-03,
255,-1.60e-03,
256,1.60e-03,
257,-8.00e-04,
258,8.00e-04,
259,-1.60e-03,
260,1.60e-03,
261,-2.40e-03,
262,8.00e-04,
263,-1.60e-03,
264,-2.40e-03,
265,1.20e-03,
266,-8.00e-04,
267,1.60e-03,
268,-1.60e-03,
269,1.60e-03,
270,2.40e-03,
271,-1.60e-03,
272,-8.00e-04,
273,2.40e-03,
274,-8.00e-04,
275,2.00e-03,
276,-8.00e-04,
277,2.40e-03,
278,1.60e-03,
279,-1.60e-03,
280,-8.00e-04,
281,2.40e-03,
282,-1.60e-03,
283,2.80e-03,
284,-8.00e-04,
285,1.60e-03,
286,2.40e-03,
287,-1.60e-03,
288,2.40e-03,
289,-1.60e-03,
290,0.00e+00,
291,2.00e-03,
292,-8.00e-04,
293,2.00e-03,
294,-8.00e-04,
295,2.40e-03,
296,-8.00e-04,
297,2.40e-03,
298,1.60e-03,
299,-1.60e-03,
300,-1.60e-03,
301,2.40e-03,
302,1.60e-03,
303,-1.60e-03,
304,-8.00e-04,
305,1.60e-03,
306,-1.60e-03,
307,2.80e-03,
308,-1.60e-03,
309,1.60e-03,
310,-8.00e-04,
311,1.60e-03,
312,-8.00e-04,
313,2.40e-03,
314,1.60e-03,
315,-8.00e-04,
316,-1.60e-03,
317,2.40e-03,
318,-1.60e-03,
319,1.60e-03,
320,2.40e-03,
321,-8.00e-04,
322,-1.60e-03,
323,1.60e-03,
324,-8.00e-04,
325,2.80e-03,
326,-1.60e-03,
327,2.00e-03,
328,-1.60e-03,
329,1.60e-03,
330,-8.00e-04,
331,1.60e-03,
332,-1.60e-03,
333,1.60e-03,
334,1.60e-03,
335,-1.60e-03,
336,2.00e-03,
337,-1.60e-03,
338,-1.60e-03,
339,2.40e-03,
340,-1.60e-03,
341,1.60e-03,
342,-1.60e-03,
343,1.60e-03,
344,2.40e-03,
345,-1.60e-03,
346,-1.60e-03,
347,1.60e-03,
348,-8.00e-04,
349,1.60e-03,
350,-1.60e-03,
351,1.60e-03,
352,-8.00e-04,
353,1.60e-03,
354,3.20e-03,
355,-8.00e-04,
356,2.40e-03,
357,-1.60e-03,
358,-8.00e-04,
359,2.40e-03,
360,-1.20e-03,
361,1.60e-03,
362,-1.60e-03,
363,2.00e-03,
364,-1.60e-03,
365,2.40e-03,
366,2.00e-03,
367,-1.60e-03,
368,2.40e-03,
369,-1.60e-03,
370,-1.60e-03,
371,2.00e-03,
372,-1.60e-03,
373,1.60e-03,
374,-1.60e-03,
375,2.40e-03,
376,-1.60e-03,
377,2.00e-03,
378,-1.60e-03,
379,1.60e-03,
380,2.40e-03,
381,-1.60e-03,
382,-1.60e-03,
383,2.40e-03,
384,-2.40e-03,
385,1.60e-03,
386,-8.00e-04,
387,2.00e-03,
388,-1.60e-03,
389,2.40e-03,
390,2.40e-03,
391,-1.60e-03,
392,2.80e-03,
393,-1.60e-03,
394,8.00e-04,
395,-1.60e-03,
396,-1.60e-03,
397,2.40e-03,
398,-1.60e-03,
399,2.80e-03,
400,-2.40e-03,
401,3.20e-03,
402,-2.40e-03,
403,1.60e-03,
404,-1.60e-03,
405,1.60e-03,
406,-8.00e-04,
407,2.00e-03,
408,-1.60e-03,
409,2.40e-03,
410,2.40e-03,
411,-1.60e-03,
412,-1.60e-03,
413,1.60e-03,
414,2.40e-03,
415,-1.60e-03,
416,2.40e-03,
417,-1.60e-03,
418,2.40e-03,
419,-1.60e-03,
420,-8.00e-04,
421,2.40e-03,
422,2.40e-03,
423,-1.60e-03,
424,2.40e-03,
425,-1.60e-03,
426,-1.60e-03,
427,2.00e-03,
428,-1.60e-03,
429,2.00e-03,
430,2.40e-03,
431,-1.60e-03,
432,-1.60e-03,
433,2.40e-03,
434,-1.60e-03,
435,2.40e-03,
436,2.40e-03,
437,-2.40e-03,
438,2.40e-03,
439,-8.00e-04,
440,1.60e-03,
441,-1.60e-03,
442,-1.60e-03,
443,2.00e-03,
444,-1.60e-03,
445,2.40e-03,
446,-8.00e-04,
447,2.40e-03,
448,-8.00e-04,
449,2.40e-03,
450,-1.60e-03,
451,2.40e-03,
452,2.40e-03,
453,-1.60e-03,
454,-1.60e-03,
455,2.40e-03,
456,-8.00e-04,
457,2.40e-03,
458,-1.60e-03,
459,2.40e-03,
460,-1.60e-03,
461,1.60e-03,
462,1.60e-03,
463,-1.60e-03,
464,-8.00e-04,
465,2.00e-03,
466,-1.60e-03,
467,1.60e-03,
468,1.60e-03,
469,-1.60e-03,
470,-8.00e-04,
471,1.60e-03,
472,1.60e-03,
473,-1.60e-03,
474,-1.60e-03,
475,1.60e-03,
476,2.40e-03,
477,-1.60e-03,
478,-2.40e-03,
479,1.60e-03,
480,2.40e-03,
481,-1.60e-03,
482,1.60e-03,
483,-1.60e-03,
484,2.00e-03,
485,-1.60e-03,
486,-1.60e-03,
487,2.00e-03,
488,1.60e-03,
489,-1.60e-03,
490,-8.00e-04,
491,2.40e-03,
492,2.40e-03,
493,-2.40e-03,
494,-8.00e-04,
495,2.40e-03,
496,-1.60e-03,
497,2.40e-03,
498,-1.60e-03,
499,2.40e-03,
500,2.40e-03,
501,-1.60e-03,
502,-8.00e-04,
503,1.60e-03,
504,-8.00e-04,
505,2.40e-03,
506,-8.00e-04,
507,2.40e-03,
508,1.60e-03,
509,-1.60e-03,
510,1.60e-03,
511,-1.60e-03,
512,-1.60e-03,
513,1.60e-03,
514,2.40e-03,
515,-1.60e-03,
516,1.60e-03,
517,-1.60e-03,
518,-8.00e-04,
519,2.40e-03,
520,-1.60e-03,
521,1.60e-03,
522,-1.60e-03,
523,1.60e-03,
524,-1.60e-03,
525,1.60e-03,
526,1.60e-03,
527,-1.60e-03,
528,2.40e-03,
529,-1.60e-03,
530,1.60e-03,
531,-1.60e-03,
532,-2.40e-03,
533,1.60e-03,
534,-1.60e-03,
535,2.40e-03,
536,2.00e-03,
537,-1.60e-03,
538,1.60e-03,
539,-1.60e-03,
540,8.00e-04,
541,-1.60e-03,
542,-1.60e-03,
543,1.20e-03,
544,-2.40e-03,
545,1.60e-03,
546,1.60e-03,
547,-2.40e-03,
548,-2.40e-03,
549,1.60e-03,
550,-2.40e-03,
551,1.20e-03,
552,1.60e-03,
553,-2.40e-03,
554,-1.60e-03,
555,1.60e-03,
556,1.60e-03,
557,-2.40e-03,
558,-1.60e-03,
559,2.40e-03,
560,1.60e-03,
561,-2.40e-03,
562,-1.60e-03,
563,2.40e-03,
564,-1.60e-03,
565,2.00e-03,
566,1.60e-03,
567,-1.60e-03,
568,-1.60e-03,
569,1.60e-03,
570,-1.60e-03,
571,1.60e-03,
572,2.40e-03,
573,-1.60e-03,
574,-8.00e-04,
575,2.40e-03,
576,-8.00e-04,
577,1.60e-03,
578,-1.60e-03,
579,2.00e-03,
580,-1.60e-03,
581,1.60e-03,
582,-8.00e-04,
583,1.60e-03,
584,-1.60e-03,
585,2.00e-03,
586,1.60e-03,
587,-1.60e-03,
588,1.60e-03,
589,-8.00e-04,
590,-1.60e-03,
591,2.40e-03,
592,1.60e-03,
593,-1.60e-03,
594,2.40e-03,
595,-1.60e-03,
596,-1.60e-03,
597,1.60e-03,
598,-1.60e-03,
599,2.40e-03,
600,-8.00e-04,
601,2.40e-03,
602,1.60e-03,
603,-1.60e-03,
604,1.60e-03,
605,-1.60e-03,
606,1.60e-03,
607,-1.60e-03,
608,1.60e-03,
609,-1.60e-03,
610,-1.60e-03,
611,2.00e-03,
612,-1.60e-03,
613,1.60e-03,
614,-8.00e-04,
615,1.60e-03,
616,-8.00e-04,
617,1.20e-03,
618,2.40e-03,
619,-1.60e-03,
620,-8.00e-04,
621,2.00e-03,
622,-8.00e-04,
623,1.60e-03,
624,-1.60e-03,
625,1.60e-03,
626,-8.00e-04,
627,2.40e-03,
628,-8.00e-04,
629,2.40e-03,
630,-1.60e-03,
631,2.40e-03,
632,-1.60e-03,
633,2.40e-03,
634,-1.60e-03,
635,1.60e-03,
636,-8.00e-04,
637,2.40e-03,
638,-8.00e-04,
639,2.40e-03,
640,4.00e-03,
641,-1.60e-03,
642,1.20e-03,
643,-1.60e-03,
644,1.60e-03,
645,-8.00e-04,
646,1.60e-03,
647,-8.00e-04,
648,-8.00e-04,
649,2.00e-03,
650,-1.60e-03,
651,2.40e-03,
652,1.60e-03,
653,-8.00e-04,
654,-8.00e-04,
655,2.40e-03,
656,2.00e-03,
657,-1.60e-03,
658,-1.60e-03,
659,2.40e-03,
660,-8.00e-04,
661,2.00e-03,
662,-1.60e-03,
663,2.40e-03,
664,1.60e-03,
665,-8.00e-04,
666,-8.00e-04,
667,1.60e-03,
668,-8.00e-04,
669,2.00e-03,
670,-8.00e-04,
671,2.40e-03,
672,-1.60e-03,
673,2.40e-03,
674,1.60e-03,
675,-1.60e-03,
676,-8.00e-04,
677,2.40e-03,
678,-1.60e-03,
679,2.40e-03,
680,1.60e-03,
681,-1.60e-03,
682,-8.00e-04,
683,2.40e-03,
684,-8.00e-04,
685,1.60e-03,
686,-8.00e-04,
687,2.40e-03,
688,-8.00e-04,
689,2.40e-03,
690,-8.00e-04,
691,1.60e-03,
692,2.40e-03,
693,-1.60e-03,
694,1.60e-03,
695,-8.00e-04,
696,1.60e-03,
697,-2.40e-03,
698,-8.00e-04,
699,2.40e-03,
700,-1.60e-03,
701,2.40e-03,
702,-1.60e-03,
703,2.40e-03,
704,2.40e-03,
705,0.00e+00,
706,-8.00e-04,
707,3.20e-03,
708,-8.00e-04,
709,1.60e-03,
710,2.40e-03,
711,-8.00e-04,
712,2.40e-03,
713,-8.00e-04,
714,-8.00e-04,
715,2.00e-03,
716,0.00e+00,
717,2.40e-03,
718,2.40e-03,
719,-1.60e-03,
720,3.20e-03,
721,-8.00e-04,
722,-4.00e-04,
723,2.40e-03,
724,2.40e-03,
725,-8.00e-04,
726,1.60e-03,
727,-8.00e-04,
728,-8.00e-04,
729,2.40e-03,
730,-8.00e-04,
731,2.40e-03,
732,-8.00e-04,
733,2.80e-03,
734,2.40e-03,
735,0.00e+00,
736,-8.00e-04,
737,3.20e-03,
738,-8.00e-04,
739,2.40e-03,
740,2.40e-03,
741,-8.00e-04,
742,-8.00e-04,
743,2.40e-03,
744,2.40e-03,
745,-8.00e-04,
746,-8.00e-04,
747,2.40e-03,
748,-8.00e-04,
749,2.40e-03,
750,-8.00e-04,
751,2.40e-03,
752,2.40e-03,
753,-8.00e-04,
754,2.40e-03,
755,-8.00e-04,
756,-8.00e-04,
757,2.40e-03,
758,-8.00e-04,
759,2.40e-03,
760,-1.60e-03,
761,2.80e-03,
762,2.40e-03,
763,-8.00e-04,
764,-8.00e-04,
765,2.40e-03,
766,-8.00e-04,
767,2.40e-03,
768,-8.00e-04,
769,2.40e-03,
770,3.20e-03,
771,-8.00e-04,
772,-8.00e-04,
773,2.00e-03,
774,2.80e-03,
775,-8.00e-04,
776,2.40e-03,
777,-8.00e-04,
778,0.00e+00,
779,2.40e-03,
780,-8.00e-04,
781,3.20e-03,
782,0.00e+00,
783,2.40e-03,
784,-8.00e-04,
785,2.40e-03,
786,2.40e-03,
787,-8.00e-04,
788,2.00e-03,
789,-8.00e-04,
790,0.00e+00,
791,2.80e-03,
792,2.40e-03,
793,-4.00e-04,
794,-8.00e-04,
795,2.40e-03,
796,2.40e-03,
797,-8.00e-04,
798,2.40e-03,
799,0.00e+00,
800,2.40e-03,
801,-8.00e-04,
802,0.00e+00,
803,2.40e-03,
804,3.20e-03,
805,-8.00e-04,
806,2.40e-03,
807,-8.00e-04,
808,-8.00e-04,
809,4.00e-03,
810,-8.00e-04,
811,3.20e-03,
812,2.80e-03,
813,0.00e+00,
814,0.00e+00,
815,2.40e-03,
816,2.40e-03,
817,-8.00e-04,
818,2.40e-03,
819,0.00e+00,
820,3.20e-03,
821,0.00e+00,
822,2.40e-03,
823,0.00e+00,
824,2.40e-03,
825,0.00e+00,
826,3.20e-03,
827,0.00e+00,
828,-8.00e-04,
829,3.20e-03,
830,2.40e-03,
831,-1.60e-03,
832,-8.00e-04,
833,2.40e-03,
834,3.20e-03,
835,0.00e+00,
836,2.40e-03,
837,0.00e+00,
838,2.80e-03,
839,-8.00e-04,
840,2.40e-03,
841,-8.00e-04,
842,2.80e-03,
843,-8.00e-04,
844,2.40e-03,
845,-8.00e-04,
846,-8.00e-04,
847,2.40e-03,
848,-8.00e-04,
849,2.40e-03,
850,-8.00e-04,
851,2.40e-03,
852,2.40e-03,
853,0.00e+00,
854,2.40e-03,
855,0.00e+00,
856,0.00e+00,
857,2.80e-03,
858,0.00e+00,
859,3.20e-03,
860,-8.00e-04,
861,3.20e-03,
862,0.00e+00,
863,2.40e-03,
864,-8.00e-04,
865,3.20e-03,
866,2.40e-03,
867,-8.00e-04,
868,3.20e-03,
869,-8.00e-04,
870,3.20e-03,
871,-8.00e-04,
872,3.20e-03,
873,-8.00e-04,
874,0.00e+00,
875,4.00e-03,
876,-8.00e-04,
877,3.20e-03,
878,3.20e-03,
879,0.00e+00,
880,0.00e+00,
881,2.40e-03,
882,0.00e+00,
883,3.20e-03,
884,0.00e+00,
885,2.40e-03,
886,2.40e-03,
887,-8.00e-04,
888,2.40e-03,
889,-8.00e-04,
890,-8.00e-04,
891,2.40e-03,
892,-1.60e-03,
893,2.40e-03,
894,-8.00e-04,
895,2.40e-03,
896,-8.00e-04,
897,2.40e-03,
898,3.20e-03,
899,-8.00e-04,
900,-8.00e-04,
901,2.40e-03,
902,-8.00e-04,
903,2.40e-03,
904,-8.00e-04,
905,2.40e-03,
906,2.40e-03,
907,-2.40e-03,
908,1.60e-03,
909,-8.00e-04,
910,2.00e-03,
911,-8.00e-04,
912,-8.00e-04,
913,2.40e-03,
914,-1.60e-03,
915,2.00e-03,
916,1.60e-03,
917,-1.60e-03,
918,-8.00e-04,
919,1.60e-03,
920,-8.00e-04,
921,2.40e-03,
922,-8.00e-04,
923,2.40e-03,
924,-8.00e-04,
925,2.00e-03,
926,-1.60e-03,
927,1.60e-03,
928,-1.60e-03,
929,2.40e-03,
930,2.80e-03,
931,-8.00e-04,
932,1.60e-03,
933,-1.60e-03,
934,2.00e-03,
935,-1.20e-03,
936,1.60e-03,
937,-8.00e-04,
938,1.60e-03,
939,-1.60e-03,
940,-8.00e-04,
941,1.60e-03,
942,2.40e-03,
943,-8.00e-04,
944,2.40e-03,
945,-3.20e-03,
946,-8.00e-04,
947,2.40e-03,
948,-2.40e-03,
949,2.40e-03,
950,2.40e-03,
951,-8.00e-04,
952,1.60e-03,
953,-1.60e-03,
954,-8.00e-04,
955,2.00e-03,
956,-8.00e-04,
957,2.40e-03,
958,-1.60e-03,
959,2.40e-03,
960,1.60e-03,
961,-1.60e-03,
962,-2.40e-03,
963,2.40e-03,
964,1.60e-03,
965,-8.00e-04,
966,1.60e-03,
967,-8.00e-04,
968,-1.60e-03,
969,2.00e-03,
970,-1.60e-03,
971,2.00e-03,
972,2.00e-03,
973,-1.60e-03,
974,-8.00e-04,
975,2.00e-03,
976,-1.60e-03,
977,2.00e-03,
978,1.60e-03,
979,-1.60e-03,
980,-1.60e-03,
981,2.80e-03,
982,3.20e-03,
983,-1.60e-03,
984,-8.00e-04,
985,1.60e-03,
986,-8.00e-04,
987,1.60e-03,
988,-8.00e-04,
989,2.00e-03,
990,1.20e-03,
991,-2.40e-03,
992,1.60e-03,
993,-1.60e-03,
994,-2.40e-03,
995,1.60e-03,
996,-1.60e-03,
997,2.40e-03,
998,1.60e-03,
999,-1.60e-03,
1000,1.60e-03,
1001,-1.60e-03,
1002,-1.60e-03,
1003,1.60e-03,
1004,1.60e-03,
1005,-1.60e-03,
1006,-1.60e-03,
1007,2.00e-03,
1008,2.40e-03,
1009,-1.60e-03,
1010,-8.00e-04,
1011,1.60e-03,
1012,-1.60e-03,
1013,3.20e-03,
1014,1.60e-03,
1015,-1.60e-03,
1016,1.60e-03,
1017,-1.60e-03,
1018,-1.60e-03,
1019,1.60e-03,
1020,1.60e-03,
1021,-8.00e-04,
1022,-1.60e-03,
1023,2.00e-03,
1024,-1.60e-03,
1025,1.60e-03,
1026,-8.00e-04,
1027,1.60e-03,
1028,-1.60e-03,
1029,1.60e-03,
1030,-1.60e-03,
1031,1.60e-03,
1032,1.60e-03,
1033,-1.60e-03,
1034,1.60e-03,
1035,-1.60e-03,
1036,-1.60e-03,
1037,2.00e-03,
1038,-1.60e-03,
1039,2.40e-03,
1040,2.00e-03,
1041,-1.60e-03,
1042,8.00e-04,
1043,-1.60e-03,
1044,-1.60e-03,
1045,2.40e-03,
1046,-1.60e-03,
1047,2.00e-03,
1048,-8.00e-04,
1049,1.60e-03,
1050,2.00e-03,
1051,-2.40e-03,
1052,-1.60e-03,
1053,2.40e-03,
1054,-1.60e-03,
1055,1.20e-03,
1056,1.20e-03,
1057,-1.60e-03,
1058,-2.40e-03,
1059,1.60e-03,
1060,-1.60e-03,
1061,1.60e-03,
1062,1.60e-03,
1063,-1.60e-03,
1064,-1.60e-03,
1065,1.60e-03,
1066,-1.60e-03,
1067,1.60e-03,
1068,-1.60e-03,
1069,1.60e-03,
1070,-1.60e-03,
1071,1.60e-03,
1072,2.00e-03,
1073,-2.00e-03,
1074,2.00e-03,
1075,-1.60e-03,
1076,1.60e-03,
1077,-1.60e-03,
1078,1.60e-03,
1079,-1.60e-03,
1080,-8.00e-04,
1081,2.40e-03,
1082,-1.60e-03,
1083,1.60e-03,
1084,1.60e-03,
1085,-2.40e-03,
1086,-1.60e-03,
1087,1.60e-03,
1088,2.00e-03,
1089,-1.60e-03,
1090,1.60e-03,
1091,-1.20e-03,
1092,1.60e-03,
1093,-1.60e-03,
1094,2.40e-03,
1095,-8.00e-04,
1096,-8.00e-04,
1097,2.00e-03,
1098,-1.60e-03,
1099,2.40e-03,
1100,-8.00e-04,
1101,2.40e-03,
1102,-8.00e-04,
1103,2.40e-03,
1104,-8.00e-04,
1105,2.40e-03,
1106,-8.00e-04,
1107,2.40e-03,
1108,-8.00e-04,
1109,3.20e-03,
1110,2.40e-03,
1111,-2.40e-03,
1112,-8.00e-04,
1113,3.20e-03,
1114,0.00e+00,
1115,2.40e-03,
1116,2.40e-03,
1117,-8.00e-04,
1118,2.40e-03,
1119,-8.00e-04,
1120,-8.00e-04,
1121,2.40e-03,
1122,1.60e-03,
1123,-8.00e-04,
1124,-8.00e-04,
1125,2.40e-03,
1126,-8.00e-04,
1127,2.40e-03,
1128,2.40e-03,
1129,-1.60e-03,
1130,2.40e-03,
1131,-1.60e-03,
1132,-8.00e-04,
1133,2.40e-03,
1134,2.40e-03,
1135,-1.60e-03,
1136,1.60e-03,
1137,-8.00e-04,
1138,1.60e-03,
1139,-8.00e-04,
1140,2.40e-03,
1141,-2.40e-03,
1142,-8.00e-04,
1143,2.40e-03,
1144,-8.00e-04,
1145,2.40e-03,
1146,1.60e-03,
1147,-1.60e-03,
1148,-8.00e-04,
1149,1.60e-03,
1150,2.40e-03,
1151,-1.60e-03,
1152,-8.00e-04,
1153,1.60e-03,
1154,-8.00e-04,
1155,2.40e-03,
1156,-8.00e-04,
1157,2.80e-03,
1158,1.60e-03,
1159,-8.00e-04,
1160,-1.60e-03,
1161,1.60e-03,
1162,2.00e-03,
1163,-8.00e-04,
1164,2.00e-03,
1165,-1.20e-03,
1166,2.00e-03,
1167,-1.60e-03,
1168,-1.60e-03,
1169,2.00e-03,
1170,2.80e-03,
1171,-1.60e-03,
1172,-1.60e-03,
1173,2.40e-03,
1174,1.60e-03,
1175,-1.60e-03,
1176,-8.00e-04,
1177,1.60e-03,
1178,1.60e-03,
1179,-8.00e-04,
1180,-8.00e-04,
1181,2.40e-03,
1182,1.60e-03,
1183,-2.40e-03,
1184,-1.60e-03,
1185,2.00e-03,
1186,-8.00e-04,
1187,1.60e-03,
1188,1.60e-03,
1189,-8.00e-04,
1190,2.40e-03,
1191,-8.00e-04,
1192,-1.60e-03,
1193,2.00e-03,
1194,-1.60e-03,
1195,2.40e-03,
1196,-8.00e-04,
1197,1.60e-03,
1198,1.60e-03,
1199,-1.60e-03,
