fastdiffamp/data-noise-set/8th/NewFile2.csv

X,CH1,Start,Increment,
Sequence,Volt,-1.200000e-02,2.000000e-05
0,3.20e-03,
1,-1.60e-03,
2,3.20e-03,
3,-8.00e-04,
4,-8.00e-04,
5,3.20e-03,
6,2.80e-03,
7,-1.60e-03,
8,-1.60e-03,
9,3.20e-03,
10,-1.60e-03,
11,3.20e-03,
12,3.20e-03,
13,-8.00e-04,
14,0.00e+00,
15,4.00e-03,
16,2.40e-03,
17,-8.00e-04,
18,2.40e-03,
19,-8.00e-04,
20,2.40e-03,
21,-1.60e-03,
22,-1.60e-03,
23,3.20e-03,
24,4.00e-03,
25,-8.00e-04,
26,2.80e-03,
27,-8.00e-04,
28,-8.00e-04,
29,3.20e-03,
30,-8.00e-04,
31,3.20e-03,
32,0.00e+00,
33,3.20e-03,
34,-8.00e-04,
35,3.20e-03,
36,-2.40e-03,
37,2.40e-03,
38,-8.00e-04,
39,4.00e-03,
40,4.00e-03,
41,-8.00e-04,
42,4.00e-03,
43,-1.60e-03,
44,-8.00e-04,
45,3.20e-03,
46,-1.60e-03,
47,4.00e-03,
48,0.00e+00,
49,4.00e-03,
50,3.20e-03,
51,0.00e+00,
52,-8.00e-04,
53,3.20e-03,
54,-8.00e-04,
55,3.20e-03,
56,3.20e-03,
57,-1.60e-03,
58,3.20e-03,
59,-8.00e-04,
60,-1.60e-03,
61,3.20e-03,
62,2.40e-03,
63,-8.00e-04,
64,-1.60e-03,
65,2.40e-03,
66,-8.00e-04,
67,3.20e-03,
68,-8.00e-04,
69,3.20e-03,
70,3.60e-03,
71,-8.00e-04,
72,2.40e-03,
73,-8.00e-04,
74,2.40e-03,
75,-8.00e-04,
76,-8.00e-04,
77,3.20e-03,
78,3.20e-03,
79,-8.00e-04,
80,-8.00e-04,
81,3.60e-03,
82,3.20e-03,
83,-1.60e-03,
84,-8.00e-04,
85,3.20e-03,
86,3.20e-03,
87,0.00e+00,
88,2.40e-03,
89,-2.40e-03,
90,2.00e-03,
91,-1.60e-03,
92,3.20e-03,
93,-2.40e-03,
94,2.40e-03,
95,-8.00e-04,
96,2.40e-03,
97,-8.00e-04,
98,-8.00e-04,
99,2.40e-03,
100,4.00e-03,
101,-1.60e-03,
102,3.20e-03,
103,-1.60e-03,
104,-1.60e-03,
105,4.00e-03,
106,-8.00e-04,
107,3.20e-03,
108,2.40e-03,
109,-8.00e-04,
110,3.20e-03,
111,-8.00e-04,
112,2.80e-03,
113,0.00e+00,
114,-1.60e-03,
115,3.20e-03,
116,2.40e-03,
117,-8.00e-04,
118,-8.00e-04,
119,2.40e-03,
120,4.00e-03,
121,-8.00e-04,
122,-8.00e-04,
123,2.40e-03,
124,-1.60e-03,
125,2.40e-03,
126,4.00e-03,
127,-8.00e-04,
128,-8.00e-04,
129,3.20e-03,
130,2.00e-03,
131,-8.00e-04,
132,-2.40e-03,
133,2.40e-03,
134,-8.00e-04,
135,2.40e-03,
136,-8.00e-04,
137,2.40e-03,
138,2.40e-03,
139,-8.00e-04,
140,2.40e-03,
141,-8.00e-04,
142,0.00e+00,
143,3.20e-03,
144,0.00e+00,
145,3.20e-03,
146,3.20e-03,
147,0.00e+00,
148,3.20e-03,
149,-8.00e-04,
150,-1.60e-03,
151,2.40e-03,
152,3.20e-03,
153,-1.60e-03,
154,2.40e-03,
155,-8.00e-04,
156,-1.60e-03,
157,2.40e-03,
158,-1.60e-03,
159,2.40e-03,
160,-8.00e-04,
161,3.20e-03,
162,2.40e-03,
163,-8.00e-04,
164,-8.00e-04,
165,4.00e-03,
166,-8.00e-04,
167,3.20e-03,
168,-1.60e-03,
169,3.20e-03,
170,-8.00e-04,
171,3.20e-03,
172,2.40e-03,
173,-8.00e-04,
174,-8.00e-04,
175,3.20e-03,
176,2.40e-03,
177,-8.00e-04,
178,2.40e-03,
179,0.00e+00,
180,3.20e-03,
181,-8.00e-04,
182,2.40e-03,
183,-8.00e-04,
184,3.20e-03,
185,-2.40e-03,
186,2.40e-03,
187,-2.40e-03,
188,-8.00e-04,
189,3.20e-03,
190,2.40e-03,
191,-8.00e-04,
192,2.40e-03,
193,-1.60e-03,
194,2.40e-03,
195,-1.60e-03,
196,-8.00e-04,
197,2.40e-03,
198,-1.60e-03,
199,3.20e-03,
200,3.20e-03,
201,-8.00e-04,
202,2.40e-03,
203,-1.60e-03,
204,3.20e-03,
205,-8.00e-04,
206,2.80e-03,
207,-8.00e-04,
208,2.40e-03,
209,-1.60e-03,
210,-1.60e-03,
211,4.00e-03,
212,-8.00e-04,
213,3.20e-03,
214,0.00e+00,
215,4.00e-03,
216,2.40e-03,
217,0.00e+00,
218,3.20e-03,
219,-8.00e-04,
220,-8.00e-04,
221,3.20e-03,
222,3.20e-03,
223,-1.60e-03,
224,-1.60e-03,
225,3.20e-03,
226,3.20e-03,
227,-1.60e-03,
228,-8.00e-04,
229,2.40e-03,
230,2.40e-03,
231,-1.60e-03,
232,3.20e-03,
233,-1.60e-03,
234,2.40e-03,
235,-4.00e-04,
236,-8.00e-04,
237,3.20e-03,
238,-8.00e-04,
239,2.40e-03,
240,2.80e-03,
241,-8.00e-04,
242,-8.00e-04,
243,4.00e-03,
244,-8.00e-04,
245,3.20e-03,
246,-8.00e-04,
247,3.20e-03,
248,2.40e-03,
249,-1.60e-03,
250,-1.60e-03,
251,2.80e-03,
252,2.40e-03,
253,0.00e+00,
254,-1.60e-03,
255,2.80e-03,
256,-8.00e-04,
257,3.20e-03,
258,0.00e+00,
259,3.20e-03,
260,0.00e+00,
261,2.80e-03,
262,3.20e-03,
263,-8.00e-04,
264,2.40e-03,
265,-2.40e-03,
266,2.40e-03,
267,-8.00e-04,
268,-1.60e-03,
269,2.40e-03,
270,0.00e+00,
271,3.20e-03,
272,3.20e-03,
273,-8.00e-04,
274,3.20e-03,
275,-1.60e-03,
276,-8.00e-04,
277,3.20e-03,
278,2.40e-03,
279,-8.00e-04,
280,3.20e-03,
281,-8.00e-04,
282,0.00e+00,
283,2.80e-03,
284,3.20e-03,
285,-8.00e-04,
286,0.00e+00,
287,3.20e-03,
288,-8.00e-04,
289,3.20e-03,
290,-8.00e-04,
291,3.20e-03,
292,3.20e-03,
293,-8.00e-04,
294,-8.00e-04,
295,3.20e-03,
296,4.00e-03,
297,-1.60e-03,
298,-1.60e-03,
299,4.00e-03,
300,-1.60e-03,
301,4.00e-03,
302,3.20e-03,
303,0.00e+00,
304,0.00e+00,
305,3.20e-03,
306,2.40e-03,
307,-8.00e-04,
308,-8.00e-04,
309,3.20e-03,
310,0.00e+00,
311,4.00e-03,
312,4.00e-03,
313,0.00e+00,
314,0.00e+00,
315,3.20e-03,
316,0.00e+00,
317,4.00e-03,
318,3.20e-03,
319,-8.00e-04,
320,3.20e-03,
321,8.00e-04,
322,3.20e-03,
323,0.00e+00,
324,3.20e-03,
325,0.00e+00,
326,0.00e+00,
327,3.20e-03,
328,4.00e-03,
329,0.00e+00,
330,-8.00e-04,
331,4.00e-03,
332,4.00e-03,
333,-1.20e-03,
334,4.00e-03,
335,-8.00e-04,
336,4.00e-03,
337,-8.00e-04,
338,4.00e-03,
339,0.00e+00,
340,4.00e-03,
341,0.00e+00,
342,0.00e+00,
343,3.20e-03,
344,0.00e+00,
345,3.20e-03,
346,4.00e-03,
347,0.00e+00,
348,0.00e+00,
349,4.00e-03,
350,-8.00e-04,
351,4.00e-03,
352,3.20e-03,
353,-8.00e-04,
354,4.00e-03,
355,8.00e-04,
356,8.00e-04,
357,4.80e-03,
358,0.00e+00,
359,4.00e-03,
360,0.00e+00,
361,4.00e-03,
362,4.00e-03,
363,0.00e+00,
364,4.80e-03,
365,0.00e+00,
366,0.00e+00,
367,3.60e-03,
368,8.00e-04,
369,4.00e-03,
370,-8.00e-04,
371,4.00e-03,
372,8.00e-04,
373,4.00e-03,
374,8.00e-04,
375,4.00e-03,
376,4.00e-03,
377,0.00e+00,
378,4.00e-03,
379,-8.00e-04,
380,0.00e+00,
381,4.00e-03,
382,4.00e-03,
383,0.00e+00,
384,4.80e-03,
385,0.00e+00,
386,4.80e-03,
387,0.00e+00,
388,0.00e+00,
389,4.00e-03,
390,-8.00e-04,
391,3.20e-03,
392,8.00e-04,
393,3.20e-03,
394,0.00e+00,
395,4.00e-03,
396,3.20e-03,
397,0.00e+00,
398,4.00e-03,
399,0.00e+00,
400,4.00e-03,
401,-8.00e-04,
402,4.00e-03,
403,0.00e+00,
404,0.00e+00,
405,4.00e-03,
406,3.20e-03,
407,-8.00e-04,
408,-8.00e-04,
409,3.20e-03,
410,3.20e-03,
411,-8.00e-04,
412,3.20e-03,
413,0.00e+00,
414,0.00e+00,
415,4.00e-03,
416,4.00e-03,
417,-8.00e-04,
418,3.20e-03,
419,-8.00e-04,
420,4.00e-03,
421,-8.00e-04,
422,0.00e+00,
423,2.80e-03,
424,3.20e-03,
425,-8.00e-04,
426,0.00e+00,
427,4.80e-03,
428,4.00e-03,
429,-8.00e-04,
430,-8.00e-04,
431,2.80e-03,
432,0.00e+00,
433,3.20e-03,
434,4.00e-03,
435,0.00e+00,
436,0.00e+00,
437,4.80e-03,
438,3.20e-03,
439,0.00e+00,
440,4.80e-03,
441,0.00e+00,
442,3.20e-03,
443,0.00e+00,
444,2.40e-03,
445,-8.00e-04,
446,3.20e-03,
447,-8.00e-04,
448,0.00e+00,
449,4.00e-03,
450,3.20e-03,
451,-8.00e-04,
452,0.00e+00,
453,3.20e-03,
454,0.00e+00,
455,3.20e-03,
456,3.20e-03,
457,0.00e+00,
458,2.40e-03,
459,-1.60e-03,
460,0.00e+00,
461,4.00e-03,
462,4.00e-03,
463,0.00e+00,
464,0.00e+00,
465,4.00e-03,
466,0.00e+00,
467,4.00e-03,
468,0.00e+00,
469,4.00e-03,
470,0.00e+00,
471,4.80e-03,
472,0.00e+00,
473,3.20e-03,
474,3.20e-03,
475,-8.00e-04,
476,-8.00e-04,
477,3.20e-03,
478,0.00e+00,
479,4.00e-03,
480,3.20e-03,
481,-8.00e-04,
482,0.00e+00,
483,3.20e-03,
484,4.00e-03,
485,-8.00e-04,
486,2.40e-03,
487,-8.00e-04,
488,0.00e+00,
489,4.00e-03,
490,3.20e-03,
491,0.00e+00,
492,0.00e+00,
493,4.00e-03,
494,0.00e+00,
495,4.80e-03,
496,4.00e-03,
497,-2.40e-03,
498,4.00e-03,
499,0.00e+00,
500,2.80e-03,
501,-8.00e-04,
502,0.00e+00,
503,2.40e-03,
504,0.00e+00,
505,3.20e-03,
506,-8.00e-04,
507,3.20e-03,
508,0.00e+00,
509,4.00e-03,
510,3.20e-03,
511,-8.00e-04,
512,3.20e-03,
513,0.00e+00,
514,0.00e+00,
515,3.20e-03,
516,3.20e-03,
517,0.00e+00,
518,4.00e-03,
519,0.00e+00,
520,0.00e+00,
521,3.60e-03,
522,3.20e-03,
523,0.00e+00,
524,-8.00e-04,
525,2.40e-03,
526,3.20e-03,
527,0.00e+00,
528,2.40e-03,
529,0.00e+00,
530,-8.00e-04,
531,4.00e-03,
532,-8.00e-04,
533,2.80e-03,
534,3.20e-03,
535,-8.00e-04,
536,-1.60e-03,
537,3.20e-03,
538,0.00e+00,
539,4.00e-03,
540,-8.00e-04,
541,4.00e-03,
542,3.20e-03,
543,0.00e+00,
544,3.20e-03,
545,-8.00e-04,
546,-8.00e-04,
547,2.40e-03,
548,-8.00e-04,
549,4.00e-03,
550,3.20e-03,
551,-8.00e-04,
552,3.20e-03,
553,-1.60e-03,
554,-1.60e-03,
555,3.20e-03,
556,0.00e+00,
557,3.20e-03,
558,0.00e+00,
559,2.40e-03,
560,3.60e-03,
561,-8.00e-04,
562,3.20e-03,
563,-8.00e-04,
564,0.00e+00,
565,3.20e-03,
566,-8.00e-04,
567,4.00e-03,
568,-8.00e-04,
569,3.20e-03,
570,-8.00e-04,
571,4.00e-03,
572,3.20e-03,
573,-8.00e-04,
574,-8.00e-04,
575,3.20e-03,
576,0.00e+00,
577,4.80e-03,
578,3.20e-03,
579,-8.00e-04,
580,-8.00e-04,
581,3.20e-03,
582,3.20e-03,
583,-1.60e-03,
584,3.20e-03,
585,-1.60e-03,
586,4.80e-03,
587,0.00e+00,
588,3.20e-03,
589,-8.00e-04,
590,3.20e-03,
591,-1.60e-03,
592,-4.00e-04,
593,4.80e-03,
594,4.80e-03,
595,0.00e+00,
596,2.80e-03,
597,-8.00e-04,
598,4.00e-03,
599,-8.00e-04,
600,0.00e+00,
601,3.20e-03,
602,-8.00e-04,
603,2.40e-03,
604,3.20e-03,
605,-8.00e-04,
606,3.20e-03,
607,0.00e+00,
608,-8.00e-04,
609,3.20e-03,
610,-8.00e-04,
611,3.20e-03,
612,-1.60e-03,
613,3.20e-03,
614,3.20e-03,
615,-8.00e-04,
616,-8.00e-04,
617,4.00e-03,
618,0.00e+00,
619,4.00e-03,
620,4.00e-03,
621,0.00e+00,
622,3.20e-03,
623,0.00e+00,
624,3.20e-03,
625,0.00e+00,
626,4.00e-03,
627,-8.00e-04,
628,4.00e-03,
629,-8.00e-04,
630,-8.00e-04,
631,4.00e-03,
632,4.00e-03,
633,-8.00e-04,
634,-4.00e-04,
635,3.20e-03,
636,2.40e-03,
637,-8.00e-04,
638,0.00e+00,
639,3.20e-03,
640,-8.00e-04,
641,3.20e-03,
642,3.20e-03,
643,0.00e+00,
644,3.20e-03,
645,-8.00e-04,
646,4.00e-03,
647,-8.00e-04,
648,-8.00e-04,
649,3.20e-03,
650,0.00e+00,
651,3.20e-03,
652,-8.00e-04,
653,4.00e-03,
654,-8.00e-04,
655,4.00e-03,
656,4.80e-03,
657,-2.40e-03,
658,3.20e-03,
659,-8.00e-04,
660,3.20e-03,
661,8.00e-04,
662,0.00e+00,
663,3.20e-03,
664,-8.00e-04,
665,3.20e-03,
666,4.00e-03,
667,8.00e-04,
668,4.00e-03,
669,-8.00e-04,
670,3.20e-03,
671,0.00e+00,
672,-8.00e-04,
673,4.00e-03,
674,-8.00e-04,
675,4.00e-03,
676,4.00e-03,
677,0.00e+00,
678,0.00e+00,
679,3.20e-03,
680,3.20e-03,
681,-1.60e-03,
682,4.00e-03,
683,-8.00e-04,
684,-8.00e-04,
685,3.20e-03,
686,3.20e-03,
687,-8.00e-04,
688,-1.60e-03,
689,3.20e-03,
690,3.20e-03,
691,-8.00e-04,
692,3.20e-03,
693,0.00e+00,
694,4.00e-03,
695,0.00e+00,
696,0.00e+00,
697,4.00e-03,
698,2.40e-03,
699,8.00e-04,
700,3.20e-03,
701,-8.00e-04,
702,3.20e-03,
703,0.00e+00,
704,3.20e-03,
705,-8.00e-04,
706,0.00e+00,
707,3.20e-03,
708,3.20e-03,
709,8.00e-04,
710,0.00e+00,
711,3.20e-03,
712,0.00e+00,
713,4.00e-03,
714,0.00e+00,
715,4.00e-03,
716,8.00e-04,
717,4.00e-03,
718,3.20e-03,
719,0.00e+00,
720,0.00e+00,
721,4.80e-03,
722,3.20e-03,
723,-8.00e-04,
724,0.00e+00,
725,3.20e-03,
726,4.00e-03,
727,0.00e+00,
728,0.00e+00,
729,3.20e-03,
730,4.00e-03,
731,0.00e+00,
732,0.00e+00,
733,4.00e-03,
734,4.00e-03,
735,8.00e-04,
736,8.00e-04,
737,4.00e-03,
738,3.20e-03,
739,0.00e+00,
740,0.00e+00,
741,4.00e-03,
742,0.00e+00,
743,4.00e-03,
744,0.00e+00,
745,4.00e-03,
746,-8.00e-04,
747,4.00e-03,
748,0.00e+00,
749,4.80e-03,
750,-1.60e-03,
751,4.00e-03,
752,8.00e-04,
753,4.80e-03,
754,3.20e-03,
755,-8.00e-04,
756,0.00e+00,
757,3.20e-03,
758,3.20e-03,
759,-8.00e-04,
760,-1.60e-03,
761,3.20e-03,
762,3.20e-03,
763,-8.00e-04,
764,3.20e-03,
765,0.00e+00,
766,3.20e-03,
767,-8.00e-04,
768,-8.00e-04,
769,4.00e-03,
770,3.20e-03,
771,0.00e+00,
772,3.20e-03,
773,0.00e+00,
774,3.20e-03,
775,0.00e+00,
776,-8.00e-04,
777,3.20e-03,
778,0.00e+00,
779,4.80e-03,
780,3.20e-03,
781,-8.00e-04,
782,4.00e-03,
783,-8.00e-04,
784,0.00e+00,
785,3.20e-03,
786,-8.00e-04,
787,3.20e-03,
788,3.20e-03,
789,0.00e+00,
790,4.80e-03,
791,-8.00e-04,
792,4.00e-03,
793,-8.00e-04,
794,-8.00e-04,
795,2.40e-03,
796,0.00e+00,
797,4.00e-03,
798,3.20e-03,
799,0.00e+00,
800,3.20e-03,
801,-8.00e-04,
802,4.00e-03,
803,-1.20e-03,
804,-8.00e-04,
805,3.20e-03,
806,-8.00e-04,
807,4.00e-03,
808,4.80e-03,
809,-4.00e-04,
810,2.40e-03,
811,-8.00e-04,
812,-8.00e-04,
813,2.40e-03,
814,3.20e-03,
815,-1.60e-03,
816,3.20e-03,
817,-1.60e-03,
818,-8.00e-04,
819,2.40e-03,
820,0.00e+00,
821,1.60e-03,
822,-8.00e-04,
823,3.20e-03,
824,-8.00e-04,
825,3.20e-03,
826,3.20e-03,
827,-8.00e-04,
828,3.20e-03,
829,-1.60e-03,
830,-4.00e-04,
831,3.20e-03,
832,-8.00e-04,
833,2.40e-03,
834,-8.00e-04,
835,2.80e-03,
836,-8.00e-04,
837,3.20e-03,
838,-8.00e-04,
839,2.80e-03,
840,3.20e-03,
841,-8.00e-04,
842,3.20e-03,
843,-8.00e-04,
844,-8.00e-04,
845,3.20e-03,
846,-8.00e-04,
847,2.40e-03,
848,-8.00e-04,
849,2.40e-03,
850,2.40e-03,
851,-1.60e-03,
852,-8.00e-04,
853,3.20e-03,
854,-8.00e-04,
855,3.20e-03,
856,-8.00e-04,
857,3.20e-03,
858,3.20e-03,
859,-8.00e-04,
860,2.40e-03,
861,-8.00e-04,
862,3.20e-03,
863,0.00e+00,
864,-2.40e-03,
865,3.20e-03,
866,-1.60e-03,
867,3.20e-03,
868,-8.00e-04,
869,2.40e-03,
870,2.40e-03,
871,-8.00e-04,
872,3.20e-03,
873,-8.00e-04,
874,2.00e-03,
875,0.00e+00,
876,4.00e-03,
877,-8.00e-04,
878,2.40e-03,
879,-8.00e-04,
880,2.40e-03,
881,-8.00e-04,
882,3.20e-03,
883,-1.60e-03,
884,-1.60e-03,
885,3.20e-03,
886,2.40e-03,
887,-8.00e-04,
888,0.00e+00,
889,2.40e-03,
890,3.20e-03,
891,-1.60e-03,
892,3.20e-03,
893,-1.60e-03,
894,2.00e-03,
895,-1.60e-03,
896,-1.60e-03,
897,2.40e-03,
898,2.40e-03,
899,-1.60e-03,
900,3.20e-03,
901,-1.60e-03,
902,-8.00e-04,
903,2.40e-03,
904,-1.60e-03,
905,2.80e-03,
906,3.20e-03,
907,-1.60e-03,
908,2.40e-03,
909,-1.60e-03,
910,3.20e-03,
911,-2.40e-03,
912,-1.60e-03,
913,2.40e-03,
914,-1.60e-03,
915,2.40e-03,
916,-8.00e-04,
917,2.40e-03,
918,-1.60e-03,
919,2.40e-03,
920,3.20e-03,
921,-1.60e-03,
922,3.20e-03,
923,-2.00e-03,
924,2.80e-03,
925,-2.40e-03,
926,-1.60e-03,
927,3.20e-03,
928,2.40e-03,
929,-8.00e-04,
930,2.40e-03,
931,-1.60e-03,
932,-1.60e-03,
933,3.20e-03,
934,2.40e-03,
935,-1.60e-03,
936,-1.60e-03,
937,2.40e-03,
938,-8.00e-04,
939,2.40e-03,
940,-3.20e-03,
941,2.40e-03,
942,-1.60e-03,
943,2.40e-03,
944,-1.60e-03,
945,2.40e-03,
946,-1.60e-03,
947,3.20e-03,
948,-8.00e-04,
949,2.40e-03,
950,2.00e-03,
951,-1.60e-03,
952,1.60e-03,
953,-1.60e-03,
954,3.20e-03,
955,-1.60e-03,
956,2.40e-03,
957,-1.60e-03,
958,3.20e-03,
959,-1.60e-03,
960,-1.60e-03,
961,2.00e-03,
962,-1.60e-03,
963,2.40e-03,
964,-2.40e-03,
965,2.00e-03,
966,-1.60e-03,
967,2.40e-03,
968,2.40e-03,
969,-2.40e-03,
970,2.40e-03,
971,-2.80e-03,
972,2.40e-03,
973,-3.20e-03,
974,2.40e-03,
975,-1.60e-03,
976,-1.60e-03,
977,2.00e-03,
978,-1.60e-03,
979,1.60e-03,
980,-1.60e-03,
981,3.20e-03,
982,3.20e-03,
983,-2.40e-03,
984,2.40e-03,
985,-1.60e-03,
986,-8.00e-04,
987,2.40e-03,
988,-1.60e-03,
989,3.20e-03,
990,-1.60e-03,
991,2.80e-03,
992,3.20e-03,
993,-1.60e-03,
994,3.20e-03,
995,-8.00e-04,
996,-1.60e-03,
997,2.40e-03,
998,1.60e-03,
999,-2.40e-03,
1000,1.60e-03,
1001,-1.60e-03,
1002,3.20e-03,
1003,-2.40e-03,
1004,-2.40e-03,
1005,1.60e-03,
1006,-8.00e-04,
1007,2.00e-03,
1008,-1.60e-03,
1009,1.60e-03,
1010,-1.60e-03,
1011,2.40e-03,
1012,2.40e-03,
1013,-1.60e-03,
1014,-1.60e-03,
1015,3.20e-03,
1016,2.40e-03,
1017,-1.60e-03,
1018,2.40e-03,
1019,-1.60e-03,
1020,-1.60e-03,
1021,1.60e-03,
1022,-2.40e-03,
1023,2.40e-03,
1024,1.60e-03,
1025,-1.60e-03,
1026,-8.00e-04,
1027,2.40e-03,
1028,-2.40e-03,
1029,2.40e-03,
1030,-1.60e-03,
1031,2.40e-03,
1032,-8.00e-04,
1033,2.00e-03,
1034,2.40e-03,
1035,-3.20e-03,
1036,1.60e-03,
1037,-1.60e-03,
1038,2.40e-03,
1039,-1.60e-03,
1040,-1.60e-03,
1041,2.40e-03,
1042,2.40e-03,
1043,-1.60e-03,
1044,3.20e-03,
1045,-1.60e-03,
1046,1.60e-03,
1047,-1.60e-03,
1048,3.20e-03,
1049,-8.00e-04,
1050,-1.60e-03,
1051,3.20e-03,
1052,-1.60e-03,
1053,2.00e-03,
1054,-8.00e-04,
1055,2.00e-03,
1056,-1.60e-03,
1057,2.40e-03,
1058,-2.40e-03,
1059,2.40e-03,
1060,3.20e-03,
1061,-8.00e-04,
1062,-8.00e-04,
1063,2.80e-03,
1064,-1.60e-03,
1065,2.80e-03,
1066,-8.00e-04,
1067,2.40e-03,
1068,2.40e-03,
1069,-8.00e-04,
1070,2.40e-03,
1071,-2.40e-03,
1072,2.80e-03,
1073,-2.40e-03,
1074,-1.60e-03,
1075,2.00e-03,
1076,2.40e-03,
1077,-1.60e-03,
1078,2.40e-03,
1079,-2.40e-03,
1080,-8.00e-04,
1081,2.40e-03,
1082,-1.60e-03,
1083,2.40e-03,
1084,2.80e-03,
1085,-1.60e-03,
1086,-8.00e-04,
1087,3.20e-03,
1088,0.00e+00,
1089,2.40e-03,
1090,-8.00e-04,
1091,2.40e-03,
1092,2.40e-03,
1093,-1.60e-03,
1094,-8.00e-04,
1095,2.40e-03,
1096,3.20e-03,
1097,-1.60e-03,
1098,3.20e-03,
1099,-1.60e-03,
1100,2.40e-03,
1101,-8.00e-04,
1102,-8.00e-04,
1103,3.20e-03,
1104,3.20e-03,
1105,-1.60e-03,
1106,-8.00e-04,
1107,3.20e-03,
1108,-1.60e-03,
1109,3.20e-03,
1110,2.40e-03,
1111,-2.40e-03,
1112,-1.60e-03,
1113,3.20e-03,
1114,-8.00e-04,
1115,2.80e-03,
1116,2.40e-03,
1117,-8.00e-04,
1118,-8.00e-04,
1119,3.20e-03,
1120,-8.00e-04,
1121,3.20e-03,
1122,3.20e-03,
1123,-8.00e-04,
1124,0.00e+00,
1125,3.20e-03,
1126,3.20e-03,
1127,-8.00e-04,
1128,-8.00e-04,
1129,3.20e-03,
1130,3.20e-03,
1131,-8.00e-04,
1132,-1.60e-03,
1133,2.40e-03,
1134,3.20e-03,
1135,0.00e+00,
1136,2.40e-03,
1137,-8.00e-04,
1138,-8.00e-04,
1139,3.20e-03,
1140,0.00e+00,
1141,4.00e-03,
1142,2.40e-03,
1143,-1.60e-03,
1144,3.20e-03,
1145,-8.00e-04,
1146,-8.00e-04,
1147,3.20e-03,
1148,-8.00e-04,
1149,3.20e-03,
1150,3.20e-03,
1151,-8.00e-04,
1152,0.00e+00,
1153,3.20e-03,
1154,2.80e-03,
1155,-1.60e-03,
1156,-8.00e-04,
1157,3.20e-03,
1158,3.20e-03,
1159,-8.00e-04,
1160,3.20e-03,
1161,-8.00e-04,
1162,-8.00e-04,
1163,3.20e-03,
1164,-1.60e-03,
1165,4.00e-03,
1166,-8.00e-04,
1167,3.20e-03,
1168,3.20e-03,
1169,-8.00e-04,
1170,2.40e-03,
1171,-8.00e-04,
1172,3.20e-03,
1173,-8.00e-04,
1174,2.40e-03,
1175,-1.60e-03,
1176,3.20e-03,
1177,-1.60e-03,
1178,2.40e-03,
1179,-8.00e-04,
1180,3.20e-03,
1181,-8.00e-04,
1182,-8.00e-04,
1183,3.20e-03,
1184,-8.00e-04,
1185,3.20e-03,
1186,3.20e-03,
1187,-8.00e-04,
1188,-8.00e-04,
1189,4.00e-03,
1190,2.40e-03,
1191,-8.00e-04,
1192,-1.60e-03,
1193,3.20e-03,
1194,-1.60e-03,
1195,3.20e-03,
1196,3.20e-03,
1197,0.00e+00,
1198,4.00e-03,
1199,-8.00e-04,
