fastdiffamp/data-noise-set/8th/NewFile5.csv

X,CH1,Start,Increment,
Sequence,Volt,-1.200000e-02,2.000000e-05
0,-8.00e-04,
1,2.40e-03,
2,2.40e-03,
3,-8.00e-04,
4,3.20e-03,
5,-8.00e-04,
6,-8.00e-04,
7,1.60e-03,
8,-1.60e-03,
9,3.20e-03,
10,2.40e-03,
11,-1.60e-03,
12,2.40e-03,
13,-8.00e-04,
14,2.40e-03,
15,-1.60e-03,
16,-8.00e-04,
17,2.40e-03,
18,2.40e-03,
19,-8.00e-04,
20,2.40e-03,
21,-8.00e-04,
22,2.40e-03,
23,-8.00e-04,
24,-8.00e-04,
25,2.40e-03,
26,3.20e-03,
27,-8.00e-04,
28,-1.60e-03,
29,2.40e-03,
30,-1.60e-03,
31,2.40e-03,
32,-8.00e-04,
33,3.20e-03,
34,-2.40e-03,
35,2.40e-03,
36,2.40e-03,
37,-1.60e-03,
38,2.40e-03,
39,-8.00e-04,
40,-8.00e-04,
41,2.40e-03,
42,-1.60e-03,
43,4.00e-03,
44,-8.00e-04,
45,2.40e-03,
46,-8.00e-04,
47,2.40e-03,
48,3.20e-03,
49,-1.60e-03,
50,-2.40e-03,
51,3.20e-03,
52,-8.00e-04,
53,2.80e-03,
54,2.40e-03,
55,0.00e+00,
56,1.60e-03,
57,-1.60e-03,
58,-8.00e-04,
59,2.80e-03,
60,2.40e-03,
61,-8.00e-04,
62,-8.00e-04,
63,3.20e-03,
64,-8.00e-04,
65,2.40e-03,
66,-8.00e-04,
67,2.80e-03,
68,-8.00e-04,
69,2.40e-03,
70,-8.00e-04,
71,3.20e-03,
72,-8.00e-04,
73,3.20e-03,
74,2.40e-03,
75,-1.60e-03,
76,2.40e-03,
77,-8.00e-04,
78,0.00e+00,
79,4.00e-03,
80,-8.00e-04,
81,3.20e-03,
82,-8.00e-04,
83,2.40e-03,
84,3.20e-03,
85,-8.00e-04,
86,4.00e-03,
87,-8.00e-04,
88,2.40e-03,
89,-8.00e-04,
90,3.20e-03,
91,-8.00e-04,
92,3.20e-03,
93,0.00e+00,
94,3.20e-03,
95,-8.00e-04,
96,-8.00e-04,
97,3.20e-03,
98,3.20e-03,
99,-8.00e-04,
100,3.20e-03,
101,-8.00e-04,
102,-8.00e-04,
103,2.40e-03,
104,2.40e-03,
105,-8.00e-04,
106,3.20e-03,
107,-8.00e-04,
108,2.40e-03,
109,-8.00e-04,
110,2.40e-03,
111,-1.60e-03,
112,2.40e-03,
113,-8.00e-04,
114,3.20e-03,
115,-1.60e-03,
116,-1.60e-03,
117,3.20e-03,
118,3.20e-03,
119,-1.60e-03,
120,3.20e-03,
121,-1.60e-03,
122,2.40e-03,
123,-1.60e-03,
124,3.20e-03,
125,-8.00e-04,
126,-8.00e-04,
127,3.20e-03,
128,-8.00e-04,
129,2.40e-03,
130,2.40e-03,
131,-8.00e-04,
132,2.40e-03,
133,-8.00e-04,
134,2.40e-03,
135,-8.00e-04,
136,-8.00e-04,
137,3.20e-03,
138,-8.00e-04,
139,3.20e-03,
140,-8.00e-04,
141,2.40e-03,
142,-8.00e-04,
143,2.40e-03,
144,2.40e-03,
145,-1.20e-03,
146,-8.00e-04,
147,2.40e-03,
148,2.40e-03,
149,-8.00e-04,
150,2.40e-03,
151,-1.60e-03,
152,2.40e-03,
153,-2.40e-03,
154,-8.00e-04,
155,3.20e-03,
156,-8.00e-04,
157,4.00e-03,
158,3.20e-03,
159,-1.60e-03,
160,0.00e+00,
161,2.40e-03,
162,-8.00e-04,
163,2.40e-03,
164,0.00e+00,
165,2.40e-03,
166,-8.00e-04,
167,2.40e-03,
168,-8.00e-04,
169,2.40e-03,
170,-8.00e-04,
171,3.20e-03,
172,3.20e-03,
173,-8.00e-04,
174,2.40e-03,
175,-1.20e-03,
176,0.00e+00,
177,2.80e-03,
178,0.00e+00,
179,3.20e-03,
180,3.20e-03,
181,0.00e+00,
182,-8.00e-04,
183,3.20e-03,
184,-8.00e-04,
185,3.20e-03,
186,3.20e-03,
187,0.00e+00,
188,3.20e-03,
189,-8.00e-04,
190,3.20e-03,
191,0.00e+00,
192,-8.00e-04,
193,3.20e-03,
194,3.20e-03,
195,0.00e+00,
196,3.20e-03,
197,-1.60e-03,
198,-8.00e-04,
199,4.00e-03,
200,3.20e-03,
201,-1.60e-03,
202,-8.00e-04,
203,2.80e-03,
204,2.40e-03,
205,0.00e+00,
206,-8.00e-04,
207,4.00e-03,
208,3.20e-03,
209,0.00e+00,
210,-8.00e-04,
211,4.00e-03,
212,-1.60e-03,
213,3.20e-03,
214,0.00e+00,
215,4.00e-03,
216,3.20e-03,
217,-8.00e-04,
218,0.00e+00,
219,3.20e-03,
220,3.20e-03,
221,-8.00e-04,
222,-2.40e-03,
223,3.20e-03,
224,2.40e-03,
225,-8.00e-04,
226,-1.60e-03,
227,2.40e-03,
228,3.20e-03,
229,-8.00e-04,
230,2.00e-03,
231,-8.00e-04,
232,2.00e-03,
233,-2.40e-03,
234,-1.60e-03,
235,1.60e-03,
236,0.00e+00,
237,3.20e-03,
238,0.00e+00,
239,4.00e-03,
240,3.20e-03,
241,-8.00e-04,
242,2.40e-03,
243,-8.00e-04,
244,2.40e-03,
245,-8.00e-04,
246,3.20e-03,
247,-8.00e-04,
248,-1.60e-03,
249,2.40e-03,
250,0.00e+00,
251,2.40e-03,
252,2.40e-03,
253,0.00e+00,
254,3.20e-03,
255,-8.00e-04,
256,-8.00e-04,
257,3.20e-03,
258,0.00e+00,
259,4.00e-03,
260,3.20e-03,
261,-8.00e-04,
262,-8.00e-04,
263,3.20e-03,
264,3.20e-03,
265,-1.60e-03,
266,-8.00e-04,
267,3.20e-03,
268,0.00e+00,
269,2.40e-03,
270,2.40e-03,
271,-8.00e-04,
272,3.20e-03,
273,-8.00e-04,
274,2.40e-03,
275,-1.60e-03,
276,2.40e-03,
277,-8.00e-04,
278,3.20e-03,
279,-8.00e-04,
280,4.00e-03,
281,-8.00e-04,
282,2.40e-03,
283,-8.00e-04,
284,2.80e-03,
285,-8.00e-04,
286,3.20e-03,
287,-8.00e-04,
288,-1.60e-03,
289,3.20e-03,
290,-1.60e-03,
291,2.00e-03,
292,-8.00e-04,
293,3.20e-03,
294,0.00e+00,
295,2.80e-03,
296,2.40e-03,
297,-8.00e-04,
298,0.00e+00,
299,2.40e-03,
300,3.20e-03,
301,-8.00e-04,
302,2.80e-03,
303,-8.00e-04,
304,3.20e-03,
305,-8.00e-04,
306,-1.60e-03,
307,2.40e-03,
308,2.40e-03,
309,-8.00e-04,
310,0.00e+00,
311,3.20e-03,
312,2.40e-03,
313,-1.60e-03,
314,-1.60e-03,
315,2.40e-03,
316,2.40e-03,
317,-8.00e-04,
318,3.20e-03,
319,-8.00e-04,
320,3.20e-03,
321,-8.00e-04,
322,3.20e-03,
323,-8.00e-04,
324,0.00e+00,
325,3.20e-03,
326,0.00e+00,
327,3.20e-03,
328,-8.00e-04,
329,3.20e-03,
330,3.20e-03,
331,0.00e+00,
332,-8.00e-04,
333,3.20e-03,
334,0.00e+00,
335,3.20e-03,
336,4.00e-03,
337,-8.00e-04,
338,2.40e-03,
339,-1.60e-03,
340,0.00e+00,
341,3.20e-03,
342,-8.00e-04,
343,3.20e-03,
344,2.40e-03,
345,-8.00e-04,
346,3.20e-03,
347,-8.00e-04,
348,3.20e-03,
349,-8.00e-04,
350,-8.00e-04,
351,2.40e-03,
352,2.40e-03,
353,-8.00e-04,
354,3.20e-03,
355,-8.00e-04,
356,2.40e-03,
357,-8.00e-04,
358,-1.60e-03,
359,2.40e-03,
360,0.00e+00,
361,3.20e-03,
362,-1.60e-03,
363,3.20e-03,
364,2.40e-03,
365,-2.40e-03,
366,-8.00e-04,
367,2.40e-03,
368,-8.00e-04,
369,2.40e-03,
370,-8.00e-04,
371,2.40e-03,
372,-8.00e-04,
373,3.20e-03,
374,3.20e-03,
375,-8.00e-04,
376,-8.00e-04,
377,2.80e-03,
378,-8.00e-04,
379,2.80e-03,
380,-8.00e-04,
381,2.40e-03,
382,2.40e-03,
383,-8.00e-04,
384,-8.00e-04,
385,3.20e-03,
386,0.00e+00,
387,4.00e-03,
388,2.40e-03,
389,-8.00e-04,
390,3.20e-03,
391,-8.00e-04,
392,-8.00e-04,
393,2.40e-03,
394,-8.00e-04,
395,3.20e-03,
396,-8.00e-04,
397,3.20e-03,
398,-8.00e-04,
399,3.20e-03,
400,2.40e-03,
401,0.00e+00,
402,-1.60e-03,
403,2.80e-03,
404,0.00e+00,
405,3.20e-03,
406,2.40e-03,
407,-8.00e-04,
408,-8.00e-04,
409,3.20e-03,
410,2.40e-03,
411,-8.00e-04,
412,3.20e-03,
413,-8.00e-04,
414,-8.00e-04,
415,2.40e-03,
416,-8.00e-04,
417,3.20e-03,
418,-1.60e-03,
419,2.40e-03,
420,4.00e-03,
421,-1.60e-03,
422,-1.60e-03,
423,4.00e-03,
424,2.40e-03,
425,-8.00e-04,
426,3.20e-03,
427,-8.00e-04,
428,3.20e-03,
429,0.00e+00,
430,-8.00e-04,
431,2.80e-03,
432,2.40e-03,
433,0.00e+00,
434,2.40e-03,
435,-8.00e-04,
436,2.40e-03,
437,-8.00e-04,
438,-8.00e-04,
439,3.20e-03,
440,2.40e-03,
441,0.00e+00,
442,3.20e-03,
443,0.00e+00,
444,3.20e-03,
445,-8.00e-04,
446,3.20e-03,
447,-8.00e-04,
448,-8.00e-04,
449,3.20e-03,
450,-8.00e-04,
451,2.40e-03,
452,-8.00e-04,
453,2.40e-03,
454,-8.00e-04,
455,3.20e-03,
456,-8.00e-04,
457,2.80e-03,
458,4.00e-03,
459,-8.00e-04,
460,-8.00e-04,
461,2.40e-03,
462,-1.60e-03,
463,2.40e-03,
464,2.40e-03,
465,-8.00e-04,
466,2.40e-03,
467,-8.00e-04,
468,-1.60e-03,
469,3.20e-03,
470,2.40e-03,
471,-4.00e-04,
472,2.40e-03,
473,-8.00e-04,
474,3.20e-03,
475,-8.00e-04,
476,-8.00e-04,
477,3.20e-03,
478,2.40e-03,
479,-1.60e-03,
480,-8.00e-04,
481,2.40e-03,
482,-8.00e-04,
483,2.80e-03,
484,-8.00e-04,
485,2.40e-03,
486,2.40e-03,
487,-8.00e-04,
488,2.40e-03,
489,-8.00e-04,
490,2.40e-03,
491,-8.00e-04,
492,-8.00e-04,
493,3.20e-03,
494,-8.00e-04,
495,4.00e-03,
496,-1.60e-03,
497,2.40e-03,
498,2.40e-03,
499,-1.60e-03,
500,3.20e-03,
501,0.00e+00,
502,-8.00e-04,
503,3.20e-03,
504,0.00e+00,
505,2.40e-03,
506,0.00e+00,
507,2.80e-03,
508,3.20e-03,
509,-8.00e-04,
510,2.80e-03,
511,0.00e+00,
512,2.40e-03,
513,-8.00e-04,
514,-8.00e-04,
515,2.40e-03,
516,2.40e-03,
517,-8.00e-04,
518,2.40e-03,
519,-1.60e-03,
520,-1.60e-03,
521,3.20e-03,
522,-8.00e-04,
523,3.20e-03,
524,3.20e-03,
525,0.00e+00,
526,3.20e-03,
527,0.00e+00,
528,-8.00e-04,
529,3.20e-03,
530,3.20e-03,
531,-8.00e-04,
532,-8.00e-04,
533,3.20e-03,
534,1.60e-03,
535,-8.00e-04,
536,-1.60e-03,
537,2.80e-03,
538,-8.00e-04,
539,2.40e-03,
540,3.20e-03,
541,0.00e+00,
542,-8.00e-04,
543,1.60e-03,
544,-1.60e-03,
545,2.40e-03,
546,1.60e-03,
547,-1.60e-03,
548,2.40e-03,
549,-8.00e-04,
550,-8.00e-04,
551,2.40e-03,
552,-8.00e-04,
553,2.40e-03,
554,-8.00e-04,
555,2.40e-03,
556,2.40e-03,
557,-8.00e-04,
558,-8.00e-04,
559,1.60e-03,
560,2.40e-03,
561,-1.60e-03,
562,1.60e-03,
563,-8.00e-04,
564,-1.20e-03,
565,2.40e-03,
566,-1.60e-03,
567,2.40e-03,
568,-1.60e-03,
569,2.40e-03,
570,0.00e+00,
571,2.40e-03,
572,-1.60e-03,
573,2.40e-03,
574,2.40e-03,
575,-8.00e-04,
576,-1.60e-03,
577,2.40e-03,
578,2.40e-03,
579,-1.60e-03,
580,2.40e-03,
581,-1.60e-03,
582,-8.00e-04,
583,2.40e-03,
584,-8.00e-04,
585,2.40e-03,
586,-8.00e-04,
587,1.60e-03,
588,1.60e-03,
589,-8.00e-04,
590,2.40e-03,
591,0.00e+00,
592,-8.00e-04,
593,3.20e-03,
594,2.40e-03,
595,-8.00e-04,
596,-1.60e-03,
597,2.40e-03,
598,2.40e-03,
599,-8.00e-04,
600,-1.60e-03,
601,2.40e-03,
602,2.40e-03,
603,-8.00e-04,
604,-2.40e-03,
605,1.60e-03,
606,-1.60e-03,
607,2.40e-03,
608,-2.40e-03,
609,2.80e-03,
610,2.40e-03,
611,-1.60e-03,
612,-8.00e-04,
613,2.40e-03,
614,2.40e-03,
615,-8.00e-04,
616,2.40e-03,
617,-1.60e-03,
618,2.40e-03,
619,-8.00e-04,
620,-8.00e-04,
621,2.80e-03,
622,-8.00e-04,
623,2.40e-03,
624,3.20e-03,
625,-1.60e-03,
626,2.80e-03,
627,-1.60e-03,
628,0.00e+00,
629,2.40e-03,
630,2.40e-03,
631,-8.00e-04,
632,2.40e-03,
633,-1.60e-03,
634,2.40e-03,
635,-8.00e-04,
636,-8.00e-04,
637,3.20e-03,
638,-1.60e-03,
639,3.20e-03,
640,-1.60e-03,
641,3.20e-03,
642,-8.00e-04,
643,3.20e-03,
644,2.40e-03,
645,-8.00e-04,
646,0.00e+00,
647,2.40e-03,
648,-8.00e-04,
649,3.20e-03,
650,-1.60e-03,
651,3.20e-03,
652,3.20e-03,
653,-1.60e-03,
654,3.20e-03,
655,-1.60e-03,
656,-8.00e-04,
657,2.40e-03,
658,2.40e-03,
659,-8.00e-04,
660,0.00e+00,
661,2.40e-03,
662,2.40e-03,
663,-1.60e-03,
664,-8.00e-04,
665,2.40e-03,
666,3.20e-03,
667,-1.60e-03,
668,3.20e-03,
669,-1.60e-03,
670,-2.40e-03,
671,4.00e-03,
672,-1.60e-03,
673,2.80e-03,
674,2.40e-03,
675,-1.60e-03,
676,3.20e-03,
677,-1.60e-03,
678,2.40e-03,
679,-1.60e-03,
680,-8.00e-04,
681,2.80e-03,
682,2.80e-03,
683,-8.00e-04,
684,-8.00e-04,
685,2.40e-03,
686,2.40e-03,
687,-1.60e-03,
688,-1.60e-03,
689,2.40e-03,
690,-1.60e-03,
691,2.40e-03,
692,-8.00e-04,
693,3.20e-03,
694,-1.20e-03,
695,2.40e-03,
696,-8.00e-04,
697,2.40e-03,
698,-8.00e-04,
699,3.20e-03,
700,2.40e-03,
701,-8.00e-04,
702,3.20e-03,
703,-8.00e-04,
704,-8.00e-04,
705,3.20e-03,
706,-8.00e-04,
707,3.20e-03,
708,2.80e-03,
709,-8.00e-04,
710,-8.00e-04,
711,3.20e-03,
712,-8.00e-04,
713,3.20e-03,
714,-1.60e-03,
715,2.40e-03,
716,-8.00e-04,
717,2.80e-03,
718,-8.00e-04,
719,3.20e-03,
720,2.80e-03,
721,-8.00e-04,
722,-8.00e-04,
723,2.40e-03,
724,-8.00e-04,
725,4.00e-03,
726,3.20e-03,
727,-2.40e-03,
728,3.60e-03,
729,-1.60e-03,
730,-8.00e-04,
731,2.40e-03,
732,-1.60e-03,
733,3.20e-03,
734,-8.00e-04,
735,2.40e-03,
736,2.40e-03,
737,-1.20e-03,
738,2.40e-03,
739,-1.60e-03,
740,2.40e-03,
741,-1.60e-03,
742,3.20e-03,
743,-8.00e-04,
744,-8.00e-04,
745,3.20e-03,
746,-8.00e-04,
747,3.20e-03,
748,2.40e-03,
749,0.00e+00,
750,-8.00e-04,
751,2.40e-03,
752,0.00e+00,
753,2.40e-03,
754,3.20e-03,
755,0.00e+00,
756,3.20e-03,
757,0.00e+00,
758,2.80e-03,
759,-8.00e-04,
760,4.00e-03,
761,-8.00e-04,
762,3.20e-03,
763,0.00e+00,
764,3.20e-03,
765,-8.00e-04,
766,3.20e-03,
767,0.00e+00,
768,8.00e-04,
769,3.20e-03,
770,0.00e+00,
771,3.20e-03,
772,3.20e-03,
773,0.00e+00,
774,2.40e-03,
775,-8.00e-04,
776,-8.00e-04,
777,2.40e-03,
778,-8.00e-04,
779,4.00e-03,
780,3.20e-03,
781,-8.00e-04,
782,3.20e-03,
783,-8.00e-04,
784,0.00e+00,
785,3.20e-03,
786,-8.00e-04,
787,4.00e-03,
788,3.20e-03,
789,0.00e+00,
790,0.00e+00,
791,3.20e-03,
792,8.00e-04,
793,3.20e-03,
794,3.20e-03,
795,-8.00e-04,
796,4.00e-03,
797,0.00e+00,
798,-8.00e-04,
799,3.20e-03,
800,2.40e-03,
801,-8.00e-04,
802,-1.60e-03,
803,3.20e-03,
804,4.00e-03,
805,-8.00e-04,
806,0.00e+00,
807,3.20e-03,
808,3.20e-03,
809,0.00e+00,
810,4.00e-03,
811,-8.00e-04,
812,-8.00e-04,
813,3.20e-03,
814,-1.60e-03,
815,2.40e-03,
816,3.20e-03,
817,-8.00e-04,
818,3.20e-03,
819,-8.00e-04,
820,3.60e-03,
821,0.00e+00,
822,4.00e-03,
823,-8.00e-04,
824,-8.00e-04,
825,3.20e-03,
826,-1.60e-03,
827,3.20e-03,
828,3.20e-03,
829,0.00e+00,
830,4.00e-03,
831,-8.00e-04,
832,0.00e+00,
833,3.20e-03,
834,0.00e+00,
835,3.20e-03,
836,-8.00e-04,
837,4.00e-03,
838,0.00e+00,
839,3.20e-03,
840,3.20e-03,
841,0.00e+00,
842,-1.60e-03,
843,3.20e-03,
844,3.20e-03,
845,-1.60e-03,
846,3.20e-03,
847,0.00e+00,
848,0.00e+00,
849,4.00e-03,
850,4.00e-03,
851,0.00e+00,
852,0.00e+00,
853,4.00e-03,
854,0.00e+00,
855,3.20e-03,
856,3.20e-03,
857,0.00e+00,
858,-8.00e-04,
859,3.20e-03,
860,-8.00e-04,
861,4.80e-03,
862,0.00e+00,
863,4.00e-03,
864,3.20e-03,
865,-8.00e-04,
866,-8.00e-04,
867,4.00e-03,
868,-8.00e-04,
869,4.00e-03,
870,-1.60e-03,
871,4.00e-03,
872,3.20e-03,
873,-1.60e-03,
874,3.20e-03,
875,-8.00e-04,
876,3.20e-03,
877,-8.00e-04,
878,4.00e-03,
879,-1.60e-03,
880,2.40e-03,
881,-8.00e-04,
882,-8.00e-04,
883,3.20e-03,
884,-8.00e-04,
885,2.80e-03,
886,2.40e-03,
887,-8.00e-04,
888,2.40e-03,
889,-8.00e-04,
890,0.00e+00,
891,3.20e-03,
892,3.20e-03,
893,0.00e+00,
894,2.40e-03,
895,-8.00e-04,
896,-8.00e-04,
897,2.40e-03,
898,0.00e+00,
899,3.20e-03,
900,-8.00e-04,
901,3.20e-03,
902,3.20e-03,
903,-8.00e-04,
904,2.40e-03,
905,-1.60e-03,
906,2.40e-03,
907,-8.00e-04,
908,-8.00e-04,
909,2.40e-03,
910,3.20e-03,
911,-8.00e-04,
912,-1.60e-03,
913,3.20e-03,
914,-8.00e-04,
915,3.20e-03,
916,-8.00e-04,
917,4.00e-03,
918,-8.00e-04,
919,2.80e-03,
920,0.00e+00,
921,2.40e-03,
922,2.80e-03,
923,-8.00e-04,
924,2.40e-03,
925,0.00e+00,
926,0.00e+00,
927,3.20e-03,
928,0.00e+00,
929,2.80e-03,
930,-8.00e-04,
931,3.20e-03,
932,3.20e-03,
933,-8.00e-04,
934,2.40e-03,
935,-8.00e-04,
936,0.00e+00,
937,2.80e-03,
938,3.20e-03,
939,-8.00e-04,
940,-8.00e-04,
941,3.20e-03,
942,-8.00e-04,
943,2.80e-03,
944,2.40e-03,
945,-8.00e-04,
946,2.40e-03,
947,-1.20e-03,
948,0.00e+00,
949,2.40e-03,
950,2.40e-03,
951,-8.00e-04,
952,-8.00e-04,
953,3.20e-03,
954,2.80e-03,
955,-8.00e-04,
956,2.40e-03,
957,-8.00e-04,
958,3.20e-03,
959,-1.60e-03,
960,2.40e-03,
961,-8.00e-04,
962,3.20e-03,
963,-8.00e-04,
964,-8.00e-04,
965,3.20e-03,
966,2.40e-03,
967,-1.60e-03,
968,1.60e-03,
969,-1.60e-03,
970,2.40e-03,
971,-8.00e-04,
972,-1.60e-03,
973,2.40e-03,
974,2.40e-03,
975,-8.00e-04,
976,2.40e-03,
977,-8.00e-04,
978,2.40e-03,
979,-1.60e-03,
980,-8.00e-04,
981,2.40e-03,
982,-1.60e-03,
983,1.60e-03,
984,-8.00e-04,
985,2.40e-03,
986,2.40e-03,
987,-1.60e-03,
988,3.20e-03,
989,-1.60e-03,
990,3.20e-03,
991,-2.40e-03,
992,-8.00e-04,
993,2.40e-03,
994,2.80e-03,
995,-1.60e-03,
996,2.40e-03,
997,-2.40e-03,
998,3.20e-03,
999,-8.00e-04,
1000,-8.00e-04,
1001,3.20e-03,
1002,-8.00e-04,
1003,2.40e-03,
1004,3.20e-03,
1005,-8.00e-04,
1006,3.20e-03,
1007,-1.60e-03,
1008,-8.00e-04,
1009,2.40e-03,
1010,3.20e-03,
1011,-1.60e-03,
1012,-1.60e-03,
1013,2.40e-03,
1014,-1.60e-03,
1015,3.20e-03,
1016,2.40e-03,
1017,-8.00e-04,
1018,-8.00e-04,
1019,3.20e-03,
1020,-8.00e-04,
1021,2.40e-03,
1022,-8.00e-04,
1023,2.40e-03,
1024,1.60e-03,
1025,-1.60e-03,
1026,3.20e-03,
1027,-8.00e-04,
1028,1.60e-03,
1029,-1.60e-03,
1030,3.20e-03,
1031,-1.60e-03,
1032,-1.60e-03,
1033,2.40e-03,
1034,3.20e-03,
1035,-1.20e-03,
1036,-8.00e-04,
1037,2.80e-03,
1038,-8.00e-04,
1039,2.40e-03,
1040,1.60e-03,
1041,-1.60e-03,
1042,2.40e-03,
1043,-8.00e-04,
1044,-1.60e-03,
1045,3.20e-03,
1046,-1.60e-03,
1047,3.20e-03,
1048,-1.60e-03,
1049,2.40e-03,
1050,1.60e-03,
1051,-1.60e-03,
1052,2.00e-03,
1053,-1.60e-03,
1054,2.40e-03,
1055,-8.00e-04,
1056,-8.00e-04,
1057,2.00e-03,
1058,-1.60e-03,
1059,1.60e-03,
1060,-2.40e-03,
1061,2.00e-03,
1062,-1.60e-03,
1063,1.60e-03,
1064,-1.60e-03,
1065,2.40e-03,
1066,-8.00e-04,
1067,2.00e-03,
1068,1.60e-03,
1069,-1.60e-03,
1070,-1.60e-03,
1071,2.40e-03,
1072,-2.40e-03,
1073,2.40e-03,
1074,-8.00e-04,
1075,2.40e-03,
1076,2.40e-03,
1077,-1.60e-03,
1078,2.40e-03,
1079,-1.60e-03,
1080,-1.60e-03,
1081,2.40e-03,
1082,2.40e-03,
1083,-1.60e-03,
1084,1.60e-03,
1085,-2.00e-03,
1086,2.40e-03,
1087,-2.40e-03,
1088,2.40e-03,
1089,-1.60e-03,
1090,1.60e-03,
1091,-2.40e-03,
1092,-8.00e-04,
1093,1.60e-03,
1094,2.40e-03,
1095,-1.60e-03,
1096,8.00e-04,
1097,-1.60e-03,
1098,2.40e-03,
1099,-1.60e-03,
1100,-1.60e-03,
1101,1.60e-03,
1102,-1.60e-03,
1103,8.00e-04,
1104,1.60e-03,
1105,-2.40e-03,
1106,1.60e-03,
1107,-2.40e-03,
1108,1.60e-03,
1109,-2.40e-03,
1110,1.60e-03,
1111,-2.40e-03,
1112,-8.00e-04,
1113,2.40e-03,
1114,-2.40e-03,
1115,2.40e-03,
1116,1.60e-03,
1117,-2.40e-03,
1118,2.00e-03,
1119,-1.60e-03,
1120,2.40e-03,
1121,-1.60e-03,
1122,-1.60e-03,
1123,2.00e-03,
1124,1.60e-03,
1125,-2.40e-03,
1126,-1.60e-03,
1127,2.00e-03,
1128,1.60e-03,
1129,-1.60e-03,
1130,1.60e-03,
1131,-2.40e-03,
1132,2.40e-03,
1133,-1.60e-03,
1134,-1.60e-03,
1135,1.60e-03,
1136,-1.60e-03,
1137,2.40e-03,
1138,8.00e-04,
1139,-1.60e-03,
1140,-1.60e-03,
1141,1.60e-03,
1142,2.40e-03,
1143,-2.40e-03,
1144,1.60e-03,
1145,-2.40e-03,
1146,-1.60e-03,
1147,2.00e-03,
1148,-1.60e-03,
1149,1.60e-03,
1150,-2.40e-03,
1151,1.60e-03,
1152,2.40e-03,
1153,-2.40e-03,
1154,-2.40e-03,
1155,2.40e-03,
1156,-2.40e-03,
1157,2.40e-03,
1158,2.00e-03,
1159,-1.60e-03,
1160,-2.40e-03,
1161,1.60e-03,
1162,-1.60e-03,
1163,1.60e-03,
1164,2.80e-03,
1165,-2.40e-03,
1166,-1.60e-03,
1167,2.40e-03,
1168,-1.60e-03,
1169,2.40e-03,
1170,1.60e-03,
1171,-3.20e-03,
1172,-1.60e-03,
1173,4.00e-03,
1174,-8.00e-04,
1175,2.40e-03,
1176,-1.60e-03,
1177,1.60e-03,
1178,-8.00e-04,
1179,2.40e-03,
1180,-1.60e-03,
1181,3.20e-03,
1182,2.00e-03,
1183,-1.60e-03,
1184,-2.40e-03,
1185,2.40e-03,
1186,-1.60e-03,
1187,2.40e-03,
1188,1.60e-03,
1189,-1.60e-03,
1190,-8.00e-04,
1191,2.40e-03,
1192,-1.60e-03,
1193,2.80e-03,
1194,2.40e-03,
1195,-2.40e-03,
1196,-1.60e-03,
1197,2.40e-03,
1198,-1.60e-03,
1199,1.60e-03,
