fastdiffamp/data-noise-set/8th/NewFile10.csv

X,CH1,Start,Increment,
Sequence,Volt,-1.200000e-02,2.000000e-05
0,3.20e-03,
1,0.00e+00,
2,3.20e-03,
3,0.00e+00,
4,3.20e-03,
5,0.00e+00,
6,8.00e-04,
7,3.20e-03,
8,3.60e-03,
9,0.00e+00,
10,0.00e+00,
11,3.20e-03,
12,0.00e+00,
13,3.20e-03,
14,0.00e+00,
15,3.20e-03,
16,2.40e-03,
17,0.00e+00,
18,0.00e+00,
19,2.40e-03,
20,0.00e+00,
21,2.40e-03,
22,2.80e-03,
23,8.00e-04,
24,0.00e+00,
25,3.20e-03,
26,-8.00e-04,
27,3.20e-03,
28,0.00e+00,
29,3.20e-03,
30,3.20e-03,
31,-8.00e-04,
32,-8.00e-04,
33,2.40e-03,
34,2.40e-03,
35,0.00e+00,
36,0.00e+00,
37,2.40e-03,
38,-8.00e-04,
39,2.40e-03,
40,0.00e+00,
41,3.20e-03,
42,2.40e-03,
43,0.00e+00,
44,-8.00e-04,
45,2.80e-03,
46,2.40e-03,
47,0.00e+00,
48,0.00e+00,
49,3.20e-03,
50,2.40e-03,
51,-8.00e-04,
52,8.00e-04,
53,3.20e-03,
54,0.00e+00,
55,3.20e-03,
56,2.40e-03,
57,0.00e+00,
58,0.00e+00,
59,2.40e-03,
60,2.40e-03,
61,-8.00e-04,
62,0.00e+00,
63,3.20e-03,
64,2.40e-03,
65,-8.00e-04,
66,2.80e-03,
67,0.00e+00,
68,2.40e-03,
69,-8.00e-04,
70,0.00e+00,
71,2.40e-03,
72,2.40e-03,
73,0.00e+00,
74,-8.00e-04,
75,3.20e-03,
76,0.00e+00,
77,2.40e-03,
78,2.40e-03,
79,-8.00e-04,
80,0.00e+00,
81,2.80e-03,
82,-8.00e-04,
83,2.40e-03,
84,-8.00e-04,
85,2.80e-03,
86,2.40e-03,
87,-8.00e-04,
88,2.40e-03,
89,-8.00e-04,
90,3.20e-03,
91,-1.60e-03,
92,-8.00e-04,
93,3.20e-03,
94,2.40e-03,
95,0.00e+00,
96,0.00e+00,
97,3.20e-03,
98,0.00e+00,
99,3.20e-03,
100,0.00e+00,
101,2.40e-03,
102,-8.00e-04,
103,2.40e-03,
104,2.00e-03,
105,-8.00e-04,
106,2.40e-03,
107,0.00e+00,
108,2.40e-03,
109,-8.00e-04,
110,-4.00e-04,
111,2.80e-03,
112,2.40e-03,
113,-1.60e-03,
114,-8.00e-04,
115,2.40e-03,
116,-8.00e-04,
117,3.20e-03,
118,3.20e-03,
119,-8.00e-04,
120,-8.00e-04,
121,2.40e-03,
122,-8.00e-04,
123,2.40e-03,
124,3.20e-03,
125,-4.00e-04,
126,0.00e+00,
127,3.20e-03,
128,0.00e+00,
129,3.20e-03,
130,0.00e+00,
131,2.80e-03,
132,-8.00e-04,
133,2.40e-03,
134,0.00e+00,
135,2.80e-03,
136,-8.00e-04,
137,2.40e-03,
138,3.20e-03,
139,-1.60e-03,
140,3.20e-03,
141,-1.60e-03,
142,-8.00e-04,
143,2.40e-03,
144,2.40e-03,
145,-1.20e-03,
146,3.20e-03,
147,-8.00e-04,
148,-8.00e-04,
149,2.40e-03,
150,-8.00e-04,
151,2.40e-03,
152,-8.00e-04,
153,2.40e-03,
154,-4.00e-04,
155,2.40e-03,
156,-8.00e-04,
157,2.40e-03,
158,-8.00e-04,
159,2.40e-03,
160,-8.00e-04,
161,2.00e-03,
162,-1.60e-03,
163,2.40e-03,
164,-8.00e-04,
165,3.20e-03,
166,1.60e-03,
167,-8.00e-04,
168,-8.00e-04,
169,2.40e-03,
170,-8.00e-04,
171,3.20e-03,
172,-1.60e-03,
173,2.40e-03,
174,-8.00e-04,
175,2.40e-03,
176,-1.60e-03,
177,2.00e-03,
178,-8.00e-04,
179,2.40e-03,
180,-8.00e-04,
181,2.80e-03,
182,2.40e-03,
183,-8.00e-04,
184,2.40e-03,
185,-8.00e-04,
186,2.40e-03,
187,-8.00e-04,
188,-8.00e-04,
189,2.40e-03,
190,2.40e-03,
191,-1.60e-03,
192,-8.00e-04,
193,2.40e-03,
194,0.00e+00,
195,3.20e-03,
196,3.20e-03,
197,-8.00e-04,
198,0.00e+00,
199,3.20e-03,
200,3.20e-03,
201,-8.00e-04,
202,0.00e+00,
203,2.80e-03,
204,0.00e+00,
205,2.40e-03,
206,-8.00e-04,
207,2.40e-03,
208,2.40e-03,
209,-8.00e-04,
210,0.00e+00,
211,2.40e-03,
212,2.40e-03,
213,-1.60e-03,
214,-8.00e-04,
215,2.40e-03,
216,-8.00e-04,
217,3.20e-03,
218,2.40e-03,
219,-8.00e-04,
220,1.60e-03,
221,0.00e+00,
222,2.40e-03,
223,-8.00e-04,
224,-8.00e-04,
225,2.00e-03,
226,-8.00e-04,
227,2.40e-03,
228,2.40e-03,
229,-8.00e-04,
230,-8.00e-04,
231,2.80e-03,
232,-8.00e-04,
233,2.00e-03,
234,-8.00e-04,
235,2.80e-03,
236,-8.00e-04,
237,2.40e-03,
238,2.40e-03,
239,-1.60e-03,
240,1.60e-03,
241,-8.00e-04,
242,1.60e-03,
243,-8.00e-04,
244,2.00e-03,
245,-8.00e-04,
246,-8.00e-04,
247,2.80e-03,
248,-8.00e-04,
249,2.40e-03,
250,0.00e+00,
251,2.40e-03,
252,0.00e+00,
253,2.40e-03,
254,-8.00e-04,
255,2.40e-03,
256,3.20e-03,
257,-8.00e-04,
258,3.20e-03,
259,-8.00e-04,
260,2.40e-03,
261,-8.00e-04,
262,-8.00e-04,
263,2.40e-03,
264,2.80e-03,
265,-8.00e-04,
266,2.40e-03,
267,-8.00e-04,
268,2.40e-03,
269,0.00e+00,
270,2.40e-03,
271,-8.00e-04,
272,1.60e-03,
273,-8.00e-04,
274,-8.00e-04,
275,2.40e-03,
276,-8.00e-04,
277,3.20e-03,
278,2.40e-03,
279,-8.00e-04,
280,2.40e-03,
281,-8.00e-04,
282,0.00e+00,
283,2.40e-03,
284,0.00e+00,
285,2.80e-03,
286,-8.00e-04,
287,2.40e-03,
288,1.60e-03,
289,-8.00e-04,
290,-8.00e-04,
291,3.20e-03,
292,0.00e+00,
293,3.20e-03,
294,-8.00e-04,
295,2.40e-03,
296,-8.00e-04,
297,2.40e-03,
298,2.40e-03,
299,0.00e+00,
300,0.00e+00,
301,2.00e-03,
302,-8.00e-04,
303,2.40e-03,
304,0.00e+00,
305,2.40e-03,
306,-8.00e-04,
307,2.80e-03,
308,2.40e-03,
309,-1.60e-03,
310,2.40e-03,
311,-8.00e-04,
312,3.20e-03,
313,-8.00e-04,
314,-8.00e-04,
315,2.40e-03,
316,1.60e-03,
317,-8.00e-04,
318,0.00e+00,
319,2.40e-03,
320,-8.00e-04,
321,3.20e-03,
322,-8.00e-04,
323,2.40e-03,
324,-8.00e-04,
325,2.80e-03,
326,0.00e+00,
327,2.40e-03,
328,-8.00e-04,
329,2.80e-03,
330,-8.00e-04,
331,2.40e-03,
332,0.00e+00,
333,2.40e-03,
334,0.00e+00,
335,2.40e-03,
336,-8.00e-04,
337,2.40e-03,
338,0.00e+00,
339,3.20e-03,
340,0.00e+00,
341,3.20e-03,
342,3.20e-03,
343,-8.00e-04,
344,-8.00e-04,
345,2.40e-03,
346,0.00e+00,
347,2.80e-03,
348,0.00e+00,
349,3.20e-03,
350,2.40e-03,
351,-8.00e-04,
352,-8.00e-04,
353,3.20e-03,
354,2.40e-03,
355,-8.00e-04,
356,-8.00e-04,
357,2.40e-03,
358,0.00e+00,
359,2.40e-03,
360,-8.00e-04,
361,2.00e-03,
362,-8.00e-04,
363,2.40e-03,
364,-8.00e-04,
365,2.40e-03,
366,-8.00e-04,
367,2.00e-03,
368,2.40e-03,
369,-8.00e-04,
370,2.40e-03,
371,-8.00e-04,
372,-8.00e-04,
373,2.40e-03,
374,3.20e-03,
375,-1.60e-03,
376,2.40e-03,
377,-4.00e-04,
378,-8.00e-04,
379,2.40e-03,
380,2.80e-03,
381,-8.00e-04,
382,-8.00e-04,
383,2.40e-03,
384,-8.00e-04,
385,2.40e-03,
386,-8.00e-04,
387,2.40e-03,
388,2.40e-03,
389,-1.60e-03,
390,-8.00e-04,
391,2.40e-03,
392,-8.00e-04,
393,2.00e-03,
394,2.00e-03,
395,-8.00e-04,
396,2.00e-03,
397,-8.00e-04,
398,-8.00e-04,
399,1.60e-03,
400,2.40e-03,
401,-8.00e-04,
402,2.40e-03,
403,-1.60e-03,
404,-8.00e-04,
405,3.20e-03,
406,2.00e-03,
407,-8.00e-04,
408,-8.00e-04,
409,2.00e-03,
410,1.60e-03,
411,-1.60e-03,
412,-1.60e-03,
413,2.40e-03,
414,1.60e-03,
415,-1.60e-03,
416,-8.00e-04,
417,1.60e-03,
418,1.60e-03,
419,-8.00e-04,
420,1.60e-03,
421,-1.60e-03,
422,1.60e-03,
423,-8.00e-04,
424,1.60e-03,
425,-8.00e-04,
426,2.40e-03,
427,-1.60e-03,
428,-8.00e-04,
429,2.40e-03,
430,-1.60e-03,
431,2.00e-03,
432,2.00e-03,
433,-1.60e-03,
434,-1.60e-03,
435,2.40e-03,
436,-8.00e-04,
437,2.00e-03,
438,1.60e-03,
439,-1.60e-03,
440,-1.60e-03,
441,2.80e-03,
442,-8.00e-04,
443,2.40e-03,
444,-1.60e-03,
445,2.40e-03,
446,2.40e-03,
447,-8.00e-04,
448,2.00e-03,
449,-1.60e-03,
450,-1.60e-03,
451,2.80e-03,
452,2.40e-03,
453,-8.00e-04,
454,-8.00e-04,
455,2.40e-03,
456,2.40e-03,
457,-8.00e-04,
458,1.60e-03,
459,-8.00e-04,
460,1.60e-03,
461,-1.60e-03,
462,1.60e-03,
463,-8.00e-04,
464,-8.00e-04,
465,2.40e-03,
466,-8.00e-04,
467,2.40e-03,
468,-1.60e-03,
469,2.40e-03,
470,-1.60e-03,
471,2.00e-03,
472,-1.60e-03,
473,2.00e-03,
474,-8.00e-04,
475,2.00e-03,
476,-1.60e-03,
477,2.40e-03,
478,1.60e-03,
479,-8.00e-04,
480,-8.00e-04,
481,2.00e-03,
482,1.60e-03,
483,-8.00e-04,
484,2.80e-03,
485,-1.60e-03,
486,-8.00e-04,
487,2.00e-03,
488,-8.00e-04,
489,2.80e-03,
490,2.00e-03,
491,-8.00e-04,
492,-8.00e-04,
493,2.00e-03,
494,-1.60e-03,
495,2.40e-03,
496,-8.00e-04,
497,2.40e-03,
498,2.40e-03,
499,-1.60e-03,
500,2.00e-03,
501,-1.60e-03,
502,2.40e-03,
503,-8.00e-04,
504,-8.00e-04,
505,1.60e-03,
506,2.00e-03,
507,-8.00e-04,
508,2.40e-03,
509,-1.60e-03,
510,0.00e+00,
511,2.40e-03,
512,-8.00e-04,
513,1.60e-03,
514,-8.00e-04,
515,1.60e-03,
516,-8.00e-04,
517,1.60e-03,
518,-1.60e-03,
519,1.60e-03,
520,1.20e-03,
521,-1.60e-03,
522,-8.00e-04,
523,2.00e-03,
524,1.60e-03,
525,-1.60e-03,
526,1.60e-03,
527,-1.60e-03,
528,-1.60e-03,
529,2.40e-03,
530,-8.00e-04,
531,1.60e-03,
532,-8.00e-04,
533,2.00e-03,
534,1.60e-03,
535,-1.60e-03,
536,-8.00e-04,
537,1.60e-03,
538,-8.00e-04,
539,2.40e-03,
540,-1.60e-03,
541,1.60e-03,
542,-8.00e-04,
543,1.20e-03,
544,1.60e-03,
545,-2.40e-03,
546,-1.60e-03,
547,1.60e-03,
548,1.60e-03,
549,-2.40e-03,
550,-1.60e-03,
551,2.40e-03,
552,-8.00e-04,
553,1.60e-03,
554,-1.60e-03,
555,1.60e-03,
556,-8.00e-04,
557,1.60e-03,
558,2.40e-03,
559,-8.00e-04,
560,-8.00e-04,
561,2.00e-03,
562,-1.60e-03,
563,2.00e-03,
564,-1.60e-03,
565,1.60e-03,
566,-1.60e-03,
567,2.40e-03,
568,-8.00e-04,
569,2.00e-03,
570,-8.00e-04,
571,1.60e-03,
572,-8.00e-04,
573,2.40e-03,
574,-8.00e-04,
575,2.40e-03,
576,2.40e-03,
577,-1.60e-03,
578,1.60e-03,
579,-1.60e-03,
580,1.60e-03,
581,-8.00e-04,
582,1.60e-03,
583,-1.60e-03,
584,1.60e-03,
585,-1.60e-03,
586,-8.00e-04,
587,2.40e-03,
588,-8.00e-04,
589,1.60e-03,
590,-8.00e-04,
591,2.40e-03,
592,-1.60e-03,
593,2.40e-03,
594,-8.00e-04,
595,2.40e-03,
596,2.40e-03,
597,-1.60e-03,
598,2.00e-03,
599,-8.00e-04,
600,-8.00e-04,
601,2.40e-03,
602,1.60e-03,
603,-8.00e-04,
604,-8.00e-04,
605,2.40e-03,
606,-8.00e-04,
607,2.40e-03,
608,0.00e+00,
609,3.20e-03,
610,0.00e+00,
611,2.00e-03,
612,-8.00e-04,
613,3.20e-03,
614,2.40e-03,
615,-8.00e-04,
616,2.40e-03,
617,-8.00e-04,
618,-8.00e-04,
619,2.40e-03,
620,-8.00e-04,
621,2.40e-03,
622,-8.00e-04,
623,2.40e-03,
624,0.00e+00,
625,2.40e-03,
626,2.40e-03,
627,-8.00e-04,
628,2.40e-03,
629,-8.00e-04,
630,2.40e-03,
631,0.00e+00,
632,2.40e-03,
633,0.00e+00,
634,2.40e-03,
635,0.00e+00,
636,2.40e-03,
637,-8.00e-04,
638,-8.00e-04,
639,2.80e-03,
640,-8.00e-04,
641,3.20e-03,
642,0.00e+00,
643,3.20e-03,
644,-8.00e-04,
645,3.20e-03,
646,-8.00e-04,
647,3.20e-03,
648,0.00e+00,
649,2.80e-03,
650,2.40e-03,
651,-8.00e-04,
652,3.20e-03,
653,0.00e+00,
654,2.40e-03,
655,-1.60e-03,
656,-8.00e-04,
657,2.80e-03,
658,0.00e+00,
659,2.40e-03,
660,0.00e+00,
661,2.40e-03,
662,0.00e+00,
663,2.00e-03,
664,2.40e-03,
665,-8.00e-04,
666,0.00e+00,
667,2.40e-03,
668,2.40e-03,
669,0.00e+00,
670,2.40e-03,
671,0.00e+00,
672,-8.00e-04,
673,2.40e-03,
674,0.00e+00,
675,3.20e-03,
676,0.00e+00,
677,2.80e-03,
678,2.40e-03,
679,-8.00e-04,
680,0.00e+00,
681,3.20e-03,
682,2.40e-03,
683,0.00e+00,
684,3.20e-03,
685,-8.00e-04,
686,2.40e-03,
687,-8.00e-04,
688,0.00e+00,
689,2.40e-03,
690,0.00e+00,
691,2.40e-03,
692,0.00e+00,
693,2.80e-03,
694,0.00e+00,
695,3.20e-03,
696,0.00e+00,
697,3.20e-03,
698,3.20e-03,
699,0.00e+00,
700,-8.00e-04,
701,4.00e-03,
702,0.00e+00,
703,3.20e-03,
704,3.20e-03,
705,-8.00e-04,
706,0.00e+00,
707,3.20e-03,
708,3.20e-03,
709,0.00e+00,
710,0.00e+00,
711,3.20e-03,
712,4.00e-03,
713,0.00e+00,
714,0.00e+00,
715,3.20e-03,
716,0.00e+00,
717,3.20e-03,
718,0.00e+00,
719,3.20e-03,
720,3.20e-03,
721,-8.00e-04,
722,3.20e-03,
723,0.00e+00,
724,3.20e-03,
725,0.00e+00,
726,4.00e-03,
727,0.00e+00,
728,3.20e-03,
729,0.00e+00,
730,2.80e-03,
731,0.00e+00,
732,-8.00e-04,
733,3.20e-03,
734,0.00e+00,
735,3.20e-03,
736,0.00e+00,
737,3.20e-03,
738,3.20e-03,
739,0.00e+00,
740,3.20e-03,
741,-8.00e-04,
742,0.00e+00,
743,2.40e-03,
744,3.20e-03,
745,-8.00e-04,
746,8.00e-04,
747,3.20e-03,
748,0.00e+00,
749,3.20e-03,
750,0.00e+00,
751,3.20e-03,
752,3.20e-03,
753,-8.00e-04,
754,0.00e+00,
755,3.20e-03,
756,2.40e-03,
757,0.00e+00,
758,2.40e-03,
759,0.00e+00,
760,3.20e-03,
761,0.00e+00,
762,3.20e-03,
763,0.00e+00,
764,3.20e-03,
765,-8.00e-04,
766,-8.00e-04,
767,2.40e-03,
768,0.00e+00,
769,3.20e-03,
770,0.00e+00,
771,2.40e-03,
772,-8.00e-04,
773,2.40e-03,
774,2.40e-03,
775,0.00e+00,
776,2.80e-03,
777,0.00e+00,
778,2.80e-03,
779,-8.00e-04,
780,2.40e-03,
781,0.00e+00,
782,0.00e+00,
783,2.80e-03,
784,-8.00e-04,
785,2.80e-03,
786,3.20e-03,
787,-8.00e-04,
788,3.20e-03,
789,0.00e+00,
790,0.00e+00,
791,3.20e-03,
792,3.20e-03,
793,-8.00e-04,
794,0.00e+00,
795,2.80e-03,
796,-8.00e-04,
797,3.20e-03,
798,3.20e-03,
799,-8.00e-04,
800,-8.00e-04,
801,3.20e-03,
802,3.20e-03,
803,0.00e+00,
804,8.00e-04,
805,3.20e-03,
806,0.00e+00,
807,3.20e-03,
808,0.00e+00,
809,3.20e-03,
810,0.00e+00,
811,3.20e-03,
812,2.40e-03,
813,-8.00e-04,
814,-8.00e-04,
815,2.80e-03,
816,2.80e-03,
817,-8.00e-04,
818,-8.00e-04,
819,3.20e-03,
820,2.40e-03,
821,-8.00e-04,
822,2.40e-03,
823,-8.00e-04,
824,-8.00e-04,
825,2.40e-03,
826,0.00e+00,
827,2.80e-03,
828,2.40e-03,
829,-8.00e-04,
830,2.40e-03,
831,-8.00e-04,
832,-8.00e-04,
833,2.40e-03,
834,-8.00e-04,
835,2.40e-03,
836,2.40e-03,
837,-8.00e-04,
838,-8.00e-04,
839,2.40e-03,
840,-8.00e-04,
841,2.40e-03,
842,2.40e-03,
843,-8.00e-04,
844,2.40e-03,
845,-1.60e-03,
846,2.40e-03,
847,-1.60e-03,
848,2.00e-03,
849,-8.00e-04,
850,1.60e-03,
851,-8.00e-04,
852,-8.00e-04,
853,3.20e-03,
854,-8.00e-04,
855,2.40e-03,
856,2.40e-03,
857,-8.00e-04,
858,-1.60e-03,
859,2.40e-03,
860,-8.00e-04,
861,1.60e-03,
862,-8.00e-04,
863,2.00e-03,
864,-8.00e-04,
865,2.40e-03,
866,-8.00e-04,
867,2.40e-03,
868,-8.00e-04,
869,2.40e-03,
870,-8.00e-04,
871,3.20e-03,
872,-8.00e-04,
873,2.80e-03,
874,-8.00e-04,
875,2.40e-03,
876,2.40e-03,
877,-8.00e-04,
878,-8.00e-04,
879,2.80e-03,
880,2.40e-03,
881,-1.60e-03,
882,2.40e-03,
883,-8.00e-04,
884,-8.00e-04,
885,2.40e-03,
886,2.40e-03,
887,-8.00e-04,
888,2.40e-03,
889,-8.00e-04,
890,0.00e+00,
891,2.40e-03,
892,-8.00e-04,
893,3.20e-03,
894,2.40e-03,
895,-8.00e-04,
896,-8.00e-04,
897,3.20e-03,
898,-8.00e-04,
899,2.40e-03,
900,-1.60e-03,
901,2.40e-03,
902,-8.00e-04,
903,2.40e-03,
904,2.40e-03,
905,-8.00e-04,
906,0.00e+00,
907,2.40e-03,
908,2.00e-03,
909,-8.00e-04,
910,0.00e+00,
911,2.40e-03,
912,-8.00e-04,
913,2.40e-03,
914,0.00e+00,
915,2.80e-03,
916,2.40e-03,
917,-8.00e-04,
918,0.00e+00,
919,2.80e-03,
920,-8.00e-04,
921,3.20e-03,
922,3.20e-03,
923,-8.00e-04,
924,3.20e-03,
925,-8.00e-04,
926,2.40e-03,
927,-8.00e-04,
928,-8.00e-04,
929,2.40e-03,
930,-8.00e-04,
931,2.40e-03,
932,-8.00e-04,
933,2.00e-03,
934,-8.00e-04,
935,2.40e-03,
936,-8.00e-04,
937,2.40e-03,
938,-8.00e-04,
939,3.20e-03,
940,2.40e-03,
941,0.00e+00,
942,0.00e+00,
943,2.40e-03,
944,2.40e-03,
945,-8.00e-04,
946,2.40e-03,
947,-8.00e-04,
948,1.60e-03,
949,-8.00e-04,
950,2.40e-03,
951,-2.40e-03,
952,-1.60e-03,
953,2.40e-03,
954,-8.00e-04,
955,1.60e-03,
956,2.80e-03,
957,-8.00e-04,
958,-8.00e-04,
959,2.80e-03,
960,-8.00e-04,
961,2.40e-03,
962,-1.60e-03,
963,2.40e-03,
964,2.40e-03,
965,-1.60e-03,
966,-1.60e-03,
967,2.00e-03,
968,-1.60e-03,
969,2.40e-03,
970,-8.00e-04,
971,1.60e-03,
972,-8.00e-04,
973,2.00e-03,
974,1.60e-03,
975,-8.00e-04,
976,2.40e-03,
977,0.00e+00,
978,1.60e-03,
979,-8.00e-04,
980,2.40e-03,
981,-1.60e-03,
982,2.40e-03,
983,-1.60e-03,
984,-1.60e-03,
985,2.40e-03,
986,2.80e-03,
987,0.00e+00,
988,0.00e+00,
989,2.40e-03,
990,2.80e-03,
991,-8.00e-04,
992,-8.00e-04,
993,2.40e-03,
994,-8.00e-04,
995,2.40e-03,
996,2.40e-03,
997,-1.60e-03,
998,2.40e-03,
999,-8.00e-04,
1000,-8.00e-04,
1001,2.40e-03,
1002,0.00e+00,
1003,2.40e-03,
1004,2.40e-03,
1005,-8.00e-04,
1006,2.40e-03,
1007,-8.00e-04,
1008,0.00e+00,
1009,1.60e-03,
1010,0.00e+00,
1011,2.80e-03,
1012,2.40e-03,
1013,0.00e+00,
1014,0.00e+00,
1015,3.20e-03,
1016,2.40e-03,
1017,-8.00e-04,
1018,0.00e+00,
1019,3.20e-03,
1020,2.40e-03,
1021,0.00e+00,
1022,0.00e+00,
1023,2.40e-03,
1024,-8.00e-04,
1025,2.40e-03,
1026,0.00e+00,
1027,3.20e-03,
1028,3.20e-03,
1029,-8.00e-04,
1030,2.40e-03,
1031,-8.00e-04,
1032,3.20e-03,
1033,-1.20e-03,
1034,0.00e+00,
1035,2.40e-03,
1036,2.40e-03,
1037,-8.00e-04,
1038,0.00e+00,
1039,2.40e-03,
1040,0.00e+00,
1041,2.40e-03,
1042,2.40e-03,
1043,-8.00e-04,
1044,2.80e-03,
1045,-1.60e-03,
1046,-8.00e-04,
1047,2.40e-03,
1048,2.40e-03,
1049,-8.00e-04,
1050,-8.00e-04,
1051,2.40e-03,
1052,2.80e-03,
1053,0.00e+00,
1054,0.00e+00,
1055,3.20e-03,
1056,2.40e-03,
1057,-8.00e-04,
1058,2.40e-03,
1059,-8.00e-04,
1060,2.40e-03,
1061,-1.60e-03,
1062,-8.00e-04,
1063,2.40e-03,
1064,2.40e-03,
1065,-8.00e-04,
1066,-8.00e-04,
1067,2.80e-03,
1068,2.40e-03,
1069,-8.00e-04,
1070,-8.00e-04,
1071,2.40e-03,
1072,2.40e-03,
1073,-8.00e-04,
1074,3.20e-03,
1075,0.00e+00,
1076,2.40e-03,
1077,-8.00e-04,
1078,2.40e-03,
1079,-8.00e-04,
1080,2.40e-03,
1081,-1.60e-03,
1082,2.40e-03,
1083,-8.00e-04,
1084,2.40e-03,
1085,0.00e+00,
1086,1.60e-03,
1087,-8.00e-04,
1088,0.00e+00,
1089,2.40e-03,
1090,1.60e-03,
1091,-8.00e-04,
1092,2.40e-03,
1093,-8.00e-04,
1094,0.00e+00,
1095,2.40e-03,
1096,1.60e-03,
1097,-8.00e-04,
1098,1.60e-03,
1099,-8.00e-04,
1100,-8.00e-04,
1101,2.40e-03,
1102,2.40e-03,
1103,-8.00e-04,
1104,1.60e-03,
1105,0.00e+00,
1106,3.20e-03,
1107,-8.00e-04,
1108,2.40e-03,
1109,-8.00e-04,
1110,-8.00e-04,
1111,2.40e-03,
1112,2.40e-03,
1113,-8.00e-04,
1114,2.40e-03,
1115,-8.00e-04,
1116,0.00e+00,
1117,3.20e-03,
1118,2.80e-03,
1119,0.00e+00,
1120,2.40e-03,
1121,0.00e+00,
1122,0.00e+00,
1123,2.40e-03,
1124,0.00e+00,
1125,2.40e-03,
1126,2.40e-03,
1127,0.00e+00,
1128,2.40e-03,
1129,-8.00e-04,
1130,0.00e+00,
1131,2.40e-03,
1132,2.40e-03,
1133,-8.00e-04,
1134,2.40e-03,
1135,-8.00e-04,
1136,0.00e+00,
1137,3.20e-03,
1138,3.20e-03,
1139,0.00e+00,
1140,2.40e-03,
1141,-8.00e-04,
1142,-8.00e-04,
1143,3.20e-03,
1144,0.00e+00,
1145,3.20e-03,
1146,3.20e-03,
1147,-8.00e-04,
1148,-8.00e-04,
1149,2.40e-03,
1150,3.20e-03,
1151,-8.00e-04,
1152,-8.00e-04,
1153,2.80e-03,
1154,3.20e-03,
1155,-8.00e-04,
1156,2.40e-03,
1157,-4.00e-04,
1158,2.40e-03,
1159,-8.00e-04,
1160,2.40e-03,
1161,0.00e+00,
1162,2.40e-03,
1163,-8.00e-04,
1164,2.40e-03,
1165,-8.00e-04,
1166,0.00e+00,
1167,3.20e-03,
1168,-8.00e-04,
1169,2.40e-03,
1170,0.00e+00,
1171,2.40e-03,
1172,2.40e-03,
1173,0.00e+00,
1174,0.00e+00,
1175,2.00e-03,
1176,2.40e-03,
1177,-8.00e-04,
1178,0.00e+00,
1179,2.80e-03,
1180,2.80e-03,
1181,-8.00e-04,
1182,2.40e-03,
1183,0.00e+00,
1184,3.20e-03,
1185,0.00e+00,
1186,0.00e+00,
1187,3.20e-03,
1188,2.40e-03,
1189,0.00e+00,
1190,2.40e-03,
1191,-8.00e-04,
1192,0.00e+00,
1193,3.20e-03,
1194,3.20e-03,
1195,-8.00e-04,
1196,3.20e-03,
1197,0.00e+00,
1198,0.00e+00,
1199,2.40e-03,
