fastdiffamp/data-noise-set/8th/NewFile3.csv

X,CH1,Start,Increment,
Sequence,Volt,-1.200000e-02,2.000000e-05
0,-2.40e-03,
1,1.60e-03,
2,-2.40e-03,
3,2.40e-03,
4,3.20e-03,
5,-3.20e-03,
6,-2.40e-03,
7,1.60e-03,
8,-2.40e-03,
9,1.60e-03,
10,-1.60e-03,
11,2.40e-03,
12,2.40e-03,
13,-1.60e-03,
14,-2.40e-03,
15,3.20e-03,
16,-2.40e-03,
17,8.00e-04,
18,-3.20e-03,
19,1.60e-03,
20,2.40e-03,
21,-2.40e-03,
22,1.60e-03,
23,-1.60e-03,
24,-2.40e-03,
25,2.40e-03,
26,1.60e-03,
27,-3.20e-03,
28,-2.40e-03,
29,2.80e-03,
30,-2.40e-03,
31,2.00e-03,
32,-2.40e-03,
33,1.60e-03,
34,1.60e-03,
35,-1.60e-03,
36,1.60e-03,
37,-2.40e-03,
38,1.60e-03,
39,-2.40e-03,
40,-1.60e-03,
41,1.60e-03,
42,2.40e-03,
43,-2.40e-03,
44,1.60e-03,
45,-1.60e-03,
46,-1.60e-03,
47,2.40e-03,
48,-8.00e-04,
49,2.80e-03,
50,2.00e-03,
51,-2.40e-03,
52,1.60e-03,
53,-1.60e-03,
54,1.60e-03,
55,-1.60e-03,
56,2.40e-03,
57,-1.60e-03,
58,2.00e-03,
59,-1.60e-03,
60,1.60e-03,
61,-1.60e-03,
62,-1.60e-03,
63,1.60e-03,
64,-1.60e-03,
65,2.40e-03,
66,-1.60e-03,
67,2.40e-03,
68,-1.60e-03,
69,2.40e-03,
70,2.40e-03,
71,-2.40e-03,
72,-2.40e-03,
73,2.40e-03,
74,-1.60e-03,
75,2.40e-03,
76,2.40e-03,
77,-1.60e-03,
78,1.60e-03,
79,-1.60e-03,
80,-1.60e-03,
81,2.80e-03,
82,2.40e-03,
83,-1.60e-03,
84,-8.00e-04,
85,1.60e-03,
86,2.00e-03,
87,-2.40e-03,
88,2.40e-03,
89,-1.20e-03,
90,-1.60e-03,
91,2.40e-03,
92,2.40e-03,
93,-1.60e-03,
94,-8.00e-04,
95,3.20e-03,
96,-1.60e-03,
97,2.40e-03,
98,2.40e-03,
99,-1.60e-03,
100,-1.60e-03,
101,2.40e-03,
102,1.60e-03,
103,-1.60e-03,
104,-2.40e-03,
105,2.40e-03,
106,2.00e-03,
107,-1.60e-03,
108,1.60e-03,
109,-1.60e-03,
110,2.40e-03,
111,-1.60e-03,
112,3.20e-03,
113,-2.40e-03,
114,-1.60e-03,
115,2.40e-03,
116,-1.60e-03,
117,2.40e-03,
118,1.60e-03,
119,-2.40e-03,
120,-2.40e-03,
121,1.60e-03,
122,-1.60e-03,
123,2.40e-03,
124,-8.00e-04,
125,2.40e-03,
126,-2.40e-03,
127,2.40e-03,
128,2.40e-03,
129,-2.40e-03,
130,-2.40e-03,
131,2.80e-03,
132,-1.60e-03,
133,2.40e-03,
134,-1.60e-03,
135,1.60e-03,
136,-1.60e-03,
137,2.40e-03,
138,-1.60e-03,
139,2.40e-03,
140,2.00e-03,
141,-2.40e-03,
142,-1.60e-03,
143,2.40e-03,
144,-1.60e-03,
145,1.60e-03,
146,-2.40e-03,
147,1.60e-03,
148,-1.60e-03,
149,2.40e-03,
150,3.20e-03,
151,-2.40e-03,
152,-8.00e-04,
153,3.20e-03,
154,-1.60e-03,
155,3.20e-03,
156,2.40e-03,
157,-1.60e-03,
158,-1.60e-03,
159,2.40e-03,
160,-1.60e-03,
161,2.40e-03,
162,2.40e-03,
163,-1.60e-03,
164,0.00e+00,
165,2.40e-03,
166,-1.60e-03,
167,2.40e-03,
168,3.20e-03,
169,-1.60e-03,
170,-8.00e-04,
171,3.20e-03,
172,-1.60e-03,
173,2.40e-03,
174,4.00e-03,
175,-1.60e-03,
176,-1.60e-03,
177,2.40e-03,
178,2.40e-03,
179,-8.00e-04,
180,0.00e+00,
181,2.40e-03,
182,-8.00e-04,
183,2.40e-03,
184,2.80e-03,
185,-8.00e-04,
186,2.40e-03,
187,-1.60e-03,
188,-8.00e-04,
189,2.40e-03,
190,3.20e-03,
191,0.00e+00,
192,-8.00e-04,
193,4.00e-03,
194,4.00e-03,
195,-8.00e-04,
196,3.20e-03,
197,-8.00e-04,
198,3.20e-03,
199,0.00e+00,
200,2.80e-03,
201,-8.00e-04,
202,3.20e-03,
203,-1.60e-03,
204,3.20e-03,
205,0.00e+00,
206,-1.60e-03,
207,2.80e-03,
208,2.40e-03,
209,8.00e-04,
210,2.40e-03,
211,-8.00e-04,
212,0.00e+00,
213,3.20e-03,
214,0.00e+00,
215,3.20e-03,
216,-8.00e-04,
217,4.00e-03,
218,3.20e-03,
219,-8.00e-04,
220,3.20e-03,
221,-8.00e-04,
222,3.20e-03,
223,0.00e+00,
224,3.20e-03,
225,-1.60e-03,
226,0.00e+00,
227,3.20e-03,
228,4.00e-03,
229,-8.00e-04,
230,0.00e+00,
231,3.20e-03,
232,2.80e-03,
233,-8.00e-04,
234,2.80e-03,
235,-8.00e-04,
236,-8.00e-04,
237,3.20e-03,
238,0.00e+00,
239,3.20e-03,
240,0.00e+00,
241,2.40e-03,
242,0.00e+00,
243,3.20e-03,
244,0.00e+00,
245,3.20e-03,
246,3.20e-03,
247,-8.00e-04,
248,-8.00e-04,
249,3.20e-03,
250,2.40e-03,
251,0.00e+00,
252,-8.00e-04,
253,2.80e-03,
254,2.40e-03,
255,-8.00e-04,
256,0.00e+00,
257,3.20e-03,
258,-8.00e-04,
259,2.80e-03,
260,3.20e-03,
261,-2.00e-03,
262,3.20e-03,
263,-8.00e-04,
264,2.40e-03,
265,-8.00e-04,
266,3.20e-03,
267,-8.00e-04,
268,2.80e-03,
269,-1.60e-03,
270,0.00e+00,
271,4.00e-03,
272,-1.60e-03,
273,3.20e-03,
274,-8.00e-04,
275,2.80e-03,
276,3.20e-03,
277,0.00e+00,
278,3.20e-03,
279,-8.00e-04,
280,3.20e-03,
281,-1.60e-03,
282,0.00e+00,
283,3.20e-03,
284,3.20e-03,
285,-8.00e-04,
286,-2.40e-03,
287,3.20e-03,
288,-2.40e-03,
289,3.20e-03,
290,0.00e+00,
291,3.20e-03,
292,2.80e-03,
293,-8.00e-04,
294,-8.00e-04,
295,3.20e-03,
296,0.00e+00,
297,3.20e-03,
298,0.00e+00,
299,3.20e-03,
300,3.20e-03,
301,-8.00e-04,
302,-8.00e-04,
303,3.20e-03,
304,-8.00e-04,
305,3.20e-03,
306,0.00e+00,
307,3.20e-03,
308,3.20e-03,
309,-8.00e-04,
310,3.20e-03,
311,-8.00e-04,
312,0.00e+00,
313,4.00e-03,
314,3.20e-03,
315,0.00e+00,
316,2.80e-03,
317,-8.00e-04,
318,2.40e-03,
319,-8.00e-04,
320,3.20e-03,
321,-8.00e-04,
322,2.40e-03,
323,-8.00e-04,
324,3.20e-03,
325,-8.00e-04,
326,4.00e-03,
327,-1.60e-03,
328,-8.00e-04,
329,4.00e-03,
330,3.20e-03,
331,0.00e+00,
332,-8.00e-04,
333,3.20e-03,
334,3.20e-03,
335,-8.00e-04,
336,4.00e-03,
337,-8.00e-04,
338,0.00e+00,
339,4.00e-03,
340,-8.00e-04,
341,3.20e-03,
342,-8.00e-04,
343,3.20e-03,
344,-8.00e-04,
345,3.20e-03,
346,3.20e-03,
347,-8.00e-04,
348,1.60e-03,
349,-1.60e-03,
350,3.20e-03,
351,-1.60e-03,
352,-8.00e-04,
353,2.40e-03,
354,-8.00e-04,
355,3.20e-03,
356,2.40e-03,
357,-8.00e-04,
358,-8.00e-04,
359,3.20e-03,
360,3.20e-03,
361,-1.60e-03,
362,3.20e-03,
363,-8.00e-04,
364,-8.00e-04,
365,2.40e-03,
366,4.00e-03,
367,-8.00e-04,
368,-8.00e-04,
369,4.00e-03,
370,3.20e-03,
371,-1.60e-03,
372,0.00e+00,
373,2.80e-03,
374,-8.00e-04,
375,3.20e-03,
376,0.00e+00,
377,3.20e-03,
378,0.00e+00,
379,3.20e-03,
380,3.20e-03,
381,-8.00e-04,
382,0.00e+00,
383,3.20e-03,
384,3.20e-03,
385,-8.00e-04,
386,0.00e+00,
387,3.20e-03,
388,4.00e-03,
389,-8.00e-04,
390,3.20e-03,
391,0.00e+00,
392,3.20e-03,
393,0.00e+00,
394,-8.00e-04,
395,4.00e-03,
396,0.00e+00,
397,4.80e-03,
398,3.20e-03,
399,0.00e+00,
400,0.00e+00,
401,4.00e-03,
402,4.00e-03,
403,-8.00e-04,
404,0.00e+00,
405,3.20e-03,
406,0.00e+00,
407,4.00e-03,
408,3.20e-03,
409,0.00e+00,
410,2.40e-03,
411,-8.00e-04,
412,2.40e-03,
413,-8.00e-04,
414,0.00e+00,
415,3.20e-03,
416,-8.00e-04,
417,2.40e-03,
418,0.00e+00,
419,3.20e-03,
420,2.40e-03,
421,-8.00e-04,
422,4.00e-03,
423,-1.20e-03,
424,3.20e-03,
425,-8.00e-04,
426,-8.00e-04,
427,4.00e-03,
428,4.00e-03,
429,-8.00e-04,
430,-8.00e-04,
431,2.40e-03,
432,3.20e-03,
433,-1.60e-03,
434,3.20e-03,
435,-1.60e-03,
436,-1.60e-03,
437,3.20e-03,
438,-8.00e-04,
439,2.80e-03,
440,3.20e-03,
441,-8.00e-04,
442,3.20e-03,
443,-8.00e-04,
444,-8.00e-04,
445,2.40e-03,
446,3.20e-03,
447,-8.00e-04,
448,2.40e-03,
449,-2.40e-03,
450,-2.00e-03,
451,3.20e-03,
452,2.40e-03,
453,-8.00e-04,
454,2.40e-03,
455,-8.00e-04,
456,2.80e-03,
457,-1.60e-03,
458,2.40e-03,
459,-1.60e-03,
460,3.20e-03,
461,-1.60e-03,
462,2.40e-03,
463,-1.60e-03,
464,-1.60e-03,
465,4.00e-03,
466,3.20e-03,
467,-8.00e-04,
468,3.20e-03,
469,-8.00e-04,
470,-8.00e-04,
471,3.20e-03,
472,-8.00e-04,
473,3.20e-03,
474,2.40e-03,
475,-8.00e-04,
476,-8.00e-04,
477,3.20e-03,
478,-8.00e-04,
479,2.40e-03,
480,-8.00e-04,
481,3.20e-03,
482,2.40e-03,
483,-8.00e-04,
484,3.20e-03,
485,-8.00e-04,
486,2.40e-03,
487,-1.60e-03,
488,-1.60e-03,
489,2.40e-03,
490,0.00e+00,
491,3.20e-03,
492,0.00e+00,
493,3.20e-03,
494,3.20e-03,
495,0.00e+00,
496,3.20e-03,
497,0.00e+00,
498,3.20e-03,
499,0.00e+00,
500,-8.00e-04,
501,2.80e-03,
502,2.40e-03,
503,-8.00e-04,
504,2.40e-03,
505,0.00e+00,
506,-8.00e-04,
507,3.20e-03,
508,2.40e-03,
509,-8.00e-04,
510,-8.00e-04,
511,3.20e-03,
512,2.40e-03,
513,-8.00e-04,
514,3.20e-03,
515,-8.00e-04,
516,2.40e-03,
517,-8.00e-04,
518,-8.00e-04,
519,3.20e-03,
520,-4.00e-04,
521,3.20e-03,
522,-8.00e-04,
523,3.20e-03,
524,-8.00e-04,
525,4.00e-03,
526,-8.00e-04,
527,3.20e-03,
528,0.00e+00,
529,3.20e-03,
530,-1.60e-03,
531,2.40e-03,
532,3.20e-03,
533,-1.60e-03,
534,2.40e-03,
535,-8.00e-04,
536,-8.00e-04,
537,3.20e-03,
538,4.00e-03,
539,0.00e+00,
540,2.40e-03,
541,-1.60e-03,
542,0.00e+00,
543,3.20e-03,
544,-8.00e-04,
545,2.40e-03,
546,2.80e-03,
547,-8.00e-04,
548,-8.00e-04,
549,3.20e-03,
550,-2.40e-03,
551,4.00e-03,
552,0.00e+00,
553,4.00e-03,
554,-8.00e-04,
555,4.00e-03,
556,-8.00e-04,
557,3.20e-03,
558,3.20e-03,
559,-8.00e-04,
560,-1.60e-03,
561,2.40e-03,
562,2.40e-03,
563,-8.00e-04,
564,0.00e+00,
565,3.20e-03,
566,3.20e-03,
567,-8.00e-04,
568,2.40e-03,
569,-8.00e-04,
570,1.60e-03,
571,-1.60e-03,
572,0.00e+00,
573,2.40e-03,
574,-1.60e-03,
575,2.40e-03,
576,2.40e-03,
577,-1.60e-03,
578,-1.60e-03,
579,1.60e-03,
580,2.40e-03,
581,-1.60e-03,
582,3.20e-03,
583,-8.00e-04,
584,2.40e-03,
585,-8.00e-04,
586,2.40e-03,
587,-8.00e-04,
588,-8.00e-04,
589,3.20e-03,
590,-1.60e-03,
591,3.20e-03,
592,3.20e-03,
593,-8.00e-04,
594,-8.00e-04,
595,3.20e-03,
596,2.40e-03,
597,-2.00e-03,
598,3.20e-03,
599,-2.40e-03,
600,-1.60e-03,
601,3.20e-03,
602,-1.60e-03,
603,3.20e-03,
604,2.40e-03,
605,-1.60e-03,
606,-8.00e-04,
607,2.40e-03,
608,-8.00e-04,
609,3.20e-03,
610,2.40e-03,
611,-8.00e-04,
612,2.40e-03,
613,-8.00e-04,
614,2.40e-03,
615,-2.40e-03,
616,3.20e-03,
617,-4.00e-04,
618,2.40e-03,
619,-1.60e-03,
620,-8.00e-04,
621,2.80e-03,
622,0.00e+00,
623,3.20e-03,
624,2.40e-03,
625,-8.00e-04,
626,3.20e-03,
627,-1.60e-03,
628,2.40e-03,
629,-2.40e-03,
630,0.00e+00,
631,3.20e-03,
632,2.40e-03,
633,-8.00e-04,
634,0.00e+00,
635,3.20e-03,
636,-8.00e-04,
637,2.80e-03,
638,2.40e-03,
639,-8.00e-04,
640,-8.00e-04,
641,2.40e-03,
642,3.20e-03,
643,-1.60e-03,
644,2.40e-03,
645,-1.60e-03,
646,2.40e-03,
647,-2.40e-03,
648,3.20e-03,
649,0.00e+00,
650,-1.60e-03,
651,3.20e-03,
652,-8.00e-04,
653,3.20e-03,
654,4.00e-03,
655,-1.60e-03,
656,-8.00e-04,
657,2.40e-03,
658,1.60e-03,
659,-4.00e-04,
660,-8.00e-04,
661,2.40e-03,
662,-1.20e-03,
663,2.40e-03,
664,-8.00e-04,
665,3.20e-03,
666,3.20e-03,
667,-8.00e-04,
668,-1.60e-03,
669,3.20e-03,
670,2.40e-03,
671,-1.60e-03,
672,2.40e-03,
673,-8.00e-04,
674,2.40e-03,
675,-8.00e-04,
676,-8.00e-04,
677,2.80e-03,
678,-8.00e-04,
679,2.80e-03,
680,-1.60e-03,
681,3.20e-03,
682,-1.60e-03,
683,3.20e-03,
684,2.40e-03,
685,-1.60e-03,
686,-1.60e-03,
687,3.20e-03,
688,2.80e-03,
689,-1.60e-03,
690,-8.00e-04,
691,2.40e-03,
692,-8.00e-04,
693,2.40e-03,
694,2.40e-03,
695,-2.40e-03,
696,3.20e-03,
697,-2.40e-03,
698,-8.00e-04,
699,3.20e-03,
700,-1.60e-03,
701,2.40e-03,
702,-1.60e-03,
703,2.40e-03,
704,-1.60e-03,
705,2.80e-03,
706,2.40e-03,
707,-8.00e-04,
708,-8.00e-04,
709,2.40e-03,
710,-8.00e-04,
711,3.20e-03,
712,3.20e-03,
713,-1.60e-03,
714,3.20e-03,
715,-8.00e-04,
716,-1.60e-03,
717,1.60e-03,
718,-1.60e-03,
719,2.40e-03,
720,1.60e-03,
721,-1.60e-03,
722,-8.00e-04,
723,3.20e-03,
724,3.20e-03,
725,-8.00e-04,
726,2.40e-03,
727,-1.60e-03,
728,-1.60e-03,
729,2.80e-03,
730,-1.60e-03,
731,2.40e-03,
732,-1.60e-03,
733,2.40e-03,
734,-8.00e-04,
735,2.40e-03,
736,-1.60e-03,
737,2.40e-03,
738,-8.00e-04,
739,2.40e-03,
740,-1.60e-03,
741,2.40e-03,
742,2.40e-03,
743,-8.00e-04,
744,2.40e-03,
745,-8.00e-04,
746,-8.00e-04,
747,3.20e-03,
748,2.40e-03,
749,-2.40e-03,
750,-2.40e-03,
751,2.40e-03,
752,1.60e-03,
753,-1.60e-03,
754,2.40e-03,
755,-2.40e-03,
756,-1.60e-03,
757,4.00e-03,
758,-8.00e-04,
759,2.40e-03,
760,-2.40e-03,
761,2.40e-03,
762,-1.60e-03,
763,2.40e-03,
764,2.40e-03,
765,-2.40e-03,
766,2.40e-03,
767,-8.00e-04,
768,-1.60e-03,
769,2.40e-03,
770,-1.60e-03,
771,2.40e-03,
772,-8.00e-04,
773,3.20e-03,
774,-1.60e-03,
775,2.40e-03,
776,-1.60e-03,
777,1.60e-03,
778,3.20e-03,
779,-2.40e-03,
780,-2.40e-03,
781,2.40e-03,
782,-2.40e-03,
783,2.40e-03,
784,2.40e-03,
785,-8.00e-04,
786,1.60e-03,
787,-1.60e-03,
788,2.40e-03,
789,-1.60e-03,
790,1.60e-03,
791,-1.60e-03,
792,2.40e-03,
793,-1.60e-03,
794,3.20e-03,
795,-2.40e-03,
796,2.80e-03,
797,-8.00e-04,
798,3.20e-03,
799,-1.60e-03,
800,3.20e-03,
801,-2.40e-03,
802,-8.00e-04,
803,3.20e-03,
804,-8.00e-04,
805,2.40e-03,
806,-8.00e-04,
807,2.40e-03,
808,3.20e-03,
809,-1.60e-03,
810,-1.60e-03,
811,4.00e-03,
812,2.40e-03,
813,-2.40e-03,
814,-1.60e-03,
815,2.40e-03,
816,-1.60e-03,
817,2.40e-03,
818,-8.00e-04,
819,2.40e-03,
820,2.80e-03,
821,-2.40e-03,
822,-1.60e-03,
823,2.40e-03,
824,-1.60e-03,
825,2.40e-03,
826,-1.60e-03,
827,2.40e-03,
828,2.40e-03,
829,-2.40e-03,
830,-8.00e-04,
831,2.80e-03,
832,-2.40e-03,
833,2.40e-03,
834,1.60e-03,
835,-1.60e-03,
836,2.40e-03,
837,-3.20e-03,
838,1.60e-03,
839,-1.60e-03,
840,2.80e-03,
841,-2.40e-03,
842,-1.60e-03,
843,3.20e-03,
844,-2.40e-03,
845,2.00e-03,
846,-1.60e-03,
847,2.40e-03,
848,2.40e-03,
849,-1.60e-03,
850,2.40e-03,
851,-2.40e-03,
852,3.20e-03,
853,-1.60e-03,
854,1.60e-03,
855,-1.60e-03,
856,2.40e-03,
857,-1.60e-03,
858,2.40e-03,
859,-2.40e-03,
860,-1.60e-03,
861,2.40e-03,
862,-1.60e-03,
863,2.40e-03,
864,2.40e-03,
865,-2.40e-03,
866,-1.60e-03,
867,3.20e-03,
868,-1.60e-03,
869,2.40e-03,
870,1.60e-03,
871,-2.40e-03,
872,2.00e-03,
873,-1.60e-03,
874,-1.60e-03,
875,3.20e-03,
876,2.40e-03,
877,-2.40e-03,
878,4.00e-03,
879,-1.60e-03,
880,1.60e-03,
881,-2.40e-03,
882,-8.00e-04,
883,2.40e-03,
884,-8.00e-04,
885,2.40e-03,
886,-1.60e-03,
887,3.20e-03,
888,3.20e-03,
889,-1.60e-03,
890,1.60e-03,
891,-1.60e-03,
892,-1.60e-03,
893,2.40e-03,
894,2.40e-03,
895,-2.40e-03,
896,1.60e-03,
897,-2.40e-03,
898,-2.40e-03,
899,1.60e-03,
900,-1.60e-03,
901,1.60e-03,
902,-8.00e-04,
903,1.60e-03,
904,-1.60e-03,
905,1.60e-03,
906,-1.60e-03,
907,2.40e-03,
908,2.40e-03,
909,-2.40e-03,
910,-1.60e-03,
911,3.20e-03,
912,-2.40e-03,
913,2.00e-03,
914,3.20e-03,
915,-2.40e-03,
916,2.40e-03,
917,-2.40e-03,
918,1.60e-03,
919,-2.40e-03,
920,2.00e-03,
921,-2.40e-03,
922,1.60e-03,
923,-1.60e-03,
924,-1.60e-03,
925,2.40e-03,
926,-1.60e-03,
927,1.60e-03,
928,1.60e-03,
929,-1.60e-03,
930,2.40e-03,
931,-1.60e-03,
932,2.40e-03,
933,-2.40e-03,
934,2.40e-03,
935,-8.00e-04,
936,-2.40e-03,
937,2.40e-03,
938,-1.60e-03,
939,1.60e-03,
940,-1.60e-03,
941,2.40e-03,
942,1.60e-03,
943,-2.40e-03,
944,1.60e-03,
945,-2.40e-03,
946,1.60e-03,
947,-2.40e-03,
948,1.60e-03,
949,-2.40e-03,
950,-2.40e-03,
951,2.80e-03,
952,1.60e-03,
953,-2.40e-03,
954,2.80e-03,
955,-2.40e-03,
956,1.60e-03,
957,-2.40e-03,
958,1.60e-03,
959,-1.60e-03,
960,-2.40e-03,
961,2.40e-03,
962,-8.00e-04,
963,2.40e-03,
964,-1.60e-03,
965,2.40e-03,
966,-1.60e-03,
967,1.20e-03,
968,1.60e-03,
969,-2.40e-03,
970,2.40e-03,
971,-2.40e-03,
972,-1.60e-03,
973,3.20e-03,
974,-2.40e-03,
975,1.60e-03,
976,-2.40e-03,
977,2.40e-03,
978,-1.60e-03,
979,2.40e-03,
980,2.40e-03,
981,-1.60e-03,
982,-2.40e-03,
983,3.20e-03,
984,-1.60e-03,
985,2.40e-03,
986,2.40e-03,
987,-2.40e-03,
988,3.20e-03,
989,-1.60e-03,
990,3.20e-03,
991,-1.60e-03,
992,2.00e-03,
993,-8.00e-04,
994,2.00e-03,
995,-2.40e-03,
996,2.00e-03,
997,-1.60e-03,
998,2.00e-03,
999,-2.40e-03,
1000,-1.60e-03,
1001,2.40e-03,
1002,-1.60e-03,
1003,3.20e-03,
1004,3.20e-03,
1005,-2.40e-03,
1006,-1.60e-03,
1007,2.40e-03,
1008,-1.60e-03,
1009,2.80e-03,
1010,3.20e-03,
1011,-1.60e-03,
1012,-1.60e-03,
1013,2.40e-03,
1014,3.20e-03,
1015,-8.00e-04,
1016,-2.40e-03,
1017,2.40e-03,
1018,-1.60e-03,
1019,2.00e-03,
1020,-8.00e-04,
1021,2.40e-03,
1022,-3.20e-03,
1023,2.40e-03,
1024,-8.00e-04,
1025,3.20e-03,
1026,3.20e-03,
1027,-8.00e-04,
1028,-1.60e-03,
1029,2.40e-03,
1030,4.00e-03,
1031,-2.40e-03,
1032,-2.40e-03,
1033,2.40e-03,
1034,-8.00e-04,
1035,2.40e-03,
1036,2.40e-03,
1037,-1.60e-03,
1038,-8.00e-04,
1039,2.40e-03,
1040,-8.00e-04,
1041,2.40e-03,
1042,2.40e-03,
1043,-8.00e-04,
1044,-8.00e-04,
1045,3.20e-03,
1046,2.40e-03,
1047,-8.00e-04,
1048,-1.60e-03,
1049,3.20e-03,
1050,-1.60e-03,
1051,3.20e-03,
1052,-8.00e-04,
1053,2.40e-03,
1054,-1.60e-03,
1055,3.20e-03,
1056,2.40e-03,
1057,-8.00e-04,
1058,-8.00e-04,
1059,1.60e-03,
1060,3.20e-03,
1061,-8.00e-04,
1062,-8.00e-04,
1063,3.20e-03,
1064,-1.60e-03,
1065,3.20e-03,
1066,-8.00e-04,
1067,3.20e-03,
1068,-8.00e-04,
1069,2.40e-03,
1070,2.40e-03,
1071,-1.60e-03,
1072,-1.60e-03,
1073,3.20e-03,
1074,-8.00e-04,
1075,4.00e-03,
1076,0.00e+00,
1077,2.80e-03,
1078,-8.00e-04,
1079,2.40e-03,
1080,-8.00e-04,
1081,2.80e-03,
1082,-1.60e-03,
1083,3.20e-03,
1084,3.20e-03,
1085,-8.00e-04,
1086,-1.60e-03,
1087,3.20e-03,
1088,2.40e-03,
1089,-1.60e-03,
1090,-1.60e-03,
1091,2.00e-03,
1092,-8.00e-04,
1093,2.40e-03,
1094,-8.00e-04,
1095,3.20e-03,
1096,2.80e-03,
1097,-1.60e-03,
1098,-1.60e-03,
1099,3.20e-03,
1100,2.40e-03,
1101,-8.00e-04,
1102,-8.00e-04,
1103,3.20e-03,
1104,3.20e-03,
1105,-1.60e-03,
1106,-8.00e-04,
1107,4.00e-03,
1108,2.40e-03,
1109,-1.60e-03,
1110,2.40e-03,
1111,-8.00e-04,
1112,-8.00e-04,
1113,3.20e-03,
1114,0.00e+00,
1115,3.20e-03,
1116,-8.00e-04,
1117,3.20e-03,
1118,2.40e-03,
1119,-8.00e-04,
1120,2.40e-03,
1121,-1.60e-03,
1122,-8.00e-04,
1123,3.20e-03,
1124,3.20e-03,
1125,-8.00e-04,
1126,-8.00e-04,
1127,2.40e-03,
1128,2.40e-03,
1129,-8.00e-04,
1130,-8.00e-04,
1131,3.20e-03,
1132,-8.00e-04,
1133,3.20e-03,
1134,-8.00e-04,
1135,3.20e-03,
1136,-8.00e-04,
1137,3.20e-03,
1138,-8.00e-04,
1139,3.20e-03,
1140,0.00e+00,
1141,2.80e-03,
1142,-1.60e-03,
1143,3.20e-03,
1144,-8.00e-04,
1145,3.20e-03,
1146,-8.00e-04,
1147,3.20e-03,
1148,-8.00e-04,
1149,2.40e-03,
1150,-8.00e-04,
1151,2.80e-03,
1152,3.20e-03,
1153,-8.00e-04,
1154,3.20e-03,
1155,-1.60e-03,
1156,-2.40e-03,
1157,3.20e-03,
1158,-8.00e-04,
1159,2.40e-03,
1160,3.20e-03,
1161,-8.00e-04,
1162,-8.00e-04,
1163,3.20e-03,
1164,-1.60e-03,
1165,3.20e-03,
1166,-1.60e-03,
1167,3.20e-03,
1168,3.20e-03,
1169,-1.60e-03,
1170,3.60e-03,
1171,0.00e+00,
1172,-8.00e-04,
1173,3.20e-03,
1174,-8.00e-04,
1175,2.40e-03,
1176,3.20e-03,
1177,-8.00e-04,
1178,-8.00e-04,
1179,2.40e-03,
1180,-8.00e-04,
1181,3.20e-03,
1182,-8.00e-04,
1183,3.20e-03,
1184,3.20e-03,
1185,-8.00e-04,
1186,-8.00e-04,
1187,3.20e-03,
1188,2.40e-03,
1189,-8.00e-04,
1190,2.40e-03,
1191,-2.40e-03,
1192,2.40e-03,
1193,-1.60e-03,
1194,3.20e-03,
1195,-8.00e-04,
1196,-8.00e-04,
1197,4.80e-03,
1198,4.80e-03,
1199,-1.60e-03,
