fastdiffamp/data-noise-set/8th/NewFile6.csv

X,CH1,Start,Increment,
Sequence,Volt,-1.200000e-02,2.000000e-05
0,4.00e-03,
1,-8.00e-04,
2,2.40e-03,
3,-8.00e-04,
4,-1.60e-03,
5,3.20e-03,
6,-8.00e-04,
7,3.20e-03,
8,-8.00e-04,
9,4.00e-03,
10,2.40e-03,
11,-1.60e-03,
12,4.00e-03,
13,-1.60e-03,
14,2.40e-03,
15,-1.60e-03,
16,-8.00e-04,
17,3.20e-03,
18,-8.00e-04,
19,2.40e-03,
20,-8.00e-04,
21,2.40e-03,
22,-1.60e-03,
23,2.00e-03,
24,-1.60e-03,
25,2.80e-03,
26,2.40e-03,
27,-8.00e-04,
28,-8.00e-04,
29,2.40e-03,
30,0.00e+00,
31,3.20e-03,
32,-8.00e-04,
33,4.00e-03,
34,2.80e-03,
35,-8.00e-04,
36,2.80e-03,
37,-8.00e-04,
38,3.20e-03,
39,-8.00e-04,
40,-8.00e-04,
41,1.60e-03,
42,2.40e-03,
43,-1.60e-03,
44,-1.60e-03,
45,2.40e-03,
46,-8.00e-04,
47,2.40e-03,
48,0.00e+00,
49,2.80e-03,
50,2.40e-03,
51,-8.00e-04,
52,-8.00e-04,
53,2.40e-03,
54,2.40e-03,
55,-1.60e-03,
56,2.40e-03,
57,-8.00e-04,
58,-8.00e-04,
59,2.40e-03,
60,2.40e-03,
61,-1.60e-03,
62,-8.00e-04,
63,3.20e-03,
64,-1.60e-03,
65,2.40e-03,
66,3.20e-03,
67,-8.00e-04,
68,2.80e-03,
69,-8.00e-04,
70,-8.00e-04,
71,2.00e-03,
72,2.40e-03,
73,-1.60e-03,
74,3.60e-03,
75,-1.60e-03,
76,-8.00e-04,
77,3.20e-03,
78,-8.00e-04,
79,3.20e-03,
80,-1.60e-03,
81,3.20e-03,
82,0.00e+00,
83,2.00e-03,
84,-8.00e-04,
85,3.20e-03,
86,3.20e-03,
87,-8.00e-04,
88,2.40e-03,
89,-1.60e-03,
90,2.00e-03,
91,-1.60e-03,
92,-8.00e-04,
93,3.20e-03,
94,-1.60e-03,
95,2.80e-03,
96,2.40e-03,
97,-1.60e-03,
98,2.40e-03,
99,-1.60e-03,
100,2.40e-03,
101,-1.60e-03,
102,1.60e-03,
103,-1.60e-03,
104,2.40e-03,
105,-8.00e-04,
106,2.40e-03,
107,-1.60e-03,
108,-2.40e-03,
109,2.40e-03,
110,2.40e-03,
111,-1.60e-03,
112,1.60e-03,
113,-1.60e-03,
114,2.40e-03,
115,-8.00e-04,
116,-8.00e-04,
117,2.40e-03,
118,-8.00e-04,
119,2.40e-03,
120,-8.00e-04,
121,2.40e-03,
122,2.40e-03,
123,-8.00e-04,
124,-8.00e-04,
125,2.40e-03,
126,-8.00e-04,
127,2.40e-03,
128,-8.00e-04,
129,2.40e-03,
130,-8.00e-04,
131,2.80e-03,
132,-1.60e-03,
133,2.80e-03,
134,-1.60e-03,
135,2.80e-03,
136,-8.00e-04,
137,2.40e-03,
138,-8.00e-04,
139,2.40e-03,
140,-8.00e-04,
141,2.40e-03,
142,-8.00e-04,
143,2.40e-03,
144,-8.00e-04,
145,2.40e-03,
146,-1.60e-03,
147,3.20e-03,
148,2.40e-03,
149,-8.00e-04,
150,-8.00e-04,
151,2.80e-03,
152,-8.00e-04,
153,1.60e-03,
154,2.40e-03,
155,-8.00e-04,
156,-8.00e-04,
157,2.40e-03,
158,2.40e-03,
159,-8.00e-04,
160,-8.00e-04,
161,1.60e-03,
162,-8.00e-04,
163,2.40e-03,
164,-8.00e-04,
165,2.40e-03,
166,-1.60e-03,
167,1.60e-03,
168,-1.60e-03,
169,2.40e-03,
170,-2.40e-03,
171,2.40e-03,
172,-8.00e-04,
173,2.80e-03,
174,2.40e-03,
175,-1.60e-03,
176,2.00e-03,
177,-1.60e-03,
178,1.60e-03,
179,-8.00e-04,
180,-8.00e-04,
181,2.00e-03,
182,2.40e-03,
183,-8.00e-04,
184,-8.00e-04,
185,2.40e-03,
186,-1.60e-03,
187,2.40e-03,
188,-8.00e-04,
189,1.60e-03,
190,-1.60e-03,
191,2.00e-03,
192,-8.00e-04,
193,2.40e-03,
194,-8.00e-04,
195,2.40e-03,
196,2.40e-03,
197,-1.60e-03,
198,-8.00e-04,
199,2.00e-03,
200,-8.00e-04,
201,1.60e-03,
202,-8.00e-04,
203,2.40e-03,
204,-8.00e-04,
205,2.40e-03,
206,-8.00e-04,
207,3.20e-03,
208,-8.00e-04,
209,2.40e-03,
210,-1.60e-03,
211,2.40e-03,
212,1.60e-03,
213,-1.60e-03,
214,-2.40e-03,
215,2.00e-03,
216,-8.00e-04,
217,2.40e-03,
218,0.00e+00,
219,2.40e-03,
220,-8.00e-04,
221,2.40e-03,
222,-8.00e-04,
223,3.20e-03,
224,2.40e-03,
225,-8.00e-04,
226,-8.00e-04,
227,2.40e-03,
228,-8.00e-04,
229,2.80e-03,
230,2.40e-03,
231,-1.60e-03,
232,2.40e-03,
233,-4.00e-04,
234,2.40e-03,
235,-1.60e-03,
236,0.00e+00,
237,2.40e-03,
238,-8.00e-04,
239,3.20e-03,
240,-8.00e-04,
241,3.20e-03,
242,2.80e-03,
243,-8.00e-04,
244,-8.00e-04,
245,3.20e-03,
246,2.40e-03,
247,-8.00e-04,
248,0.00e+00,
249,2.80e-03,
250,2.40e-03,
251,-8.00e-04,
252,2.80e-03,
253,0.00e+00,
254,0.00e+00,
255,3.20e-03,
256,2.40e-03,
257,-8.00e-04,
258,-8.00e-04,
259,2.40e-03,
260,2.40e-03,
261,-8.00e-04,
262,-1.60e-03,
263,3.20e-03,
264,-8.00e-04,
265,3.20e-03,
266,0.00e+00,
267,2.40e-03,
268,-8.00e-04,
269,3.20e-03,
270,2.40e-03,
271,-8.00e-04,
272,2.40e-03,
273,0.00e+00,
274,0.00e+00,
275,3.20e-03,
276,2.40e-03,
277,-1.60e-03,
278,-8.00e-04,
279,2.80e-03,
280,3.20e-03,
281,-8.00e-04,
282,0.00e+00,
283,3.20e-03,
284,-8.00e-04,
285,3.20e-03,
286,0.00e+00,
287,2.40e-03,
288,0.00e+00,
289,3.20e-03,
290,0.00e+00,
291,2.40e-03,
292,-8.00e-04,
293,2.80e-03,
294,3.20e-03,
295,0.00e+00,
296,0.00e+00,
297,4.00e-03,
298,0.00e+00,
299,4.00e-03,
300,-8.00e-04,
301,4.00e-03,
302,-8.00e-04,
303,3.20e-03,
304,3.20e-03,
305,0.00e+00,
306,-1.60e-03,
307,3.20e-03,
308,0.00e+00,
309,3.20e-03,
310,0.00e+00,
311,3.20e-03,
312,-8.00e-04,
313,3.20e-03,
314,3.20e-03,
315,0.00e+00,
316,0.00e+00,
317,3.20e-03,
318,0.00e+00,
319,3.20e-03,
320,-8.00e-04,
321,4.00e-03,
322,0.00e+00,
323,4.00e-03,
324,0.00e+00,
325,4.00e-03,
326,8.00e-04,
327,3.20e-03,
328,3.20e-03,
329,-8.00e-04,
330,2.40e-03,
331,0.00e+00,
332,3.20e-03,
333,0.00e+00,
334,0.00e+00,
335,3.20e-03,
336,2.80e-03,
337,0.00e+00,
338,0.00e+00,
339,3.20e-03,
340,0.00e+00,
341,3.20e-03,
342,0.00e+00,
343,3.20e-03,
344,2.40e-03,
345,-8.00e-04,
346,0.00e+00,
347,4.00e-03,
348,8.00e-04,
349,3.20e-03,
350,0.00e+00,
351,4.00e-03,
352,0.00e+00,
353,2.80e-03,
354,-8.00e-04,
355,3.20e-03,
356,0.00e+00,
357,3.20e-03,
358,3.20e-03,
359,-8.00e-04,
360,0.00e+00,
361,3.20e-03,
362,3.20e-03,
363,0.00e+00,
364,2.40e-03,
365,0.00e+00,
366,-8.00e-04,
367,3.20e-03,
368,-8.00e-04,
369,3.20e-03,
370,0.00e+00,
371,3.20e-03,
372,2.40e-03,
373,-8.00e-04,
374,2.40e-03,
375,-8.00e-04,
376,2.80e-03,
377,-8.00e-04,
378,4.00e-03,
379,0.00e+00,
380,-8.00e-04,
381,2.80e-03,
382,0.00e+00,
383,3.20e-03,
384,0.00e+00,
385,3.20e-03,
386,3.20e-03,
387,0.00e+00,
388,-8.00e-04,
389,2.40e-03,
390,0.00e+00,
391,3.20e-03,
392,0.00e+00,
393,3.20e-03,
394,4.00e-03,
395,8.00e-04,
396,-8.00e-04,
397,3.20e-03,
398,3.20e-03,
399,0.00e+00,
400,3.20e-03,
401,-8.00e-04,
402,0.00e+00,
403,3.20e-03,
404,0.00e+00,
405,4.00e-03,
406,0.00e+00,
407,3.20e-03,
408,0.00e+00,
409,2.80e-03,
410,2.40e-03,
411,0.00e+00,
412,3.20e-03,
413,0.00e+00,
414,0.00e+00,
415,3.20e-03,
416,3.20e-03,
417,0.00e+00,
418,0.00e+00,
419,3.20e-03,
420,0.00e+00,
421,4.00e-03,
422,0.00e+00,
423,3.60e-03,
424,3.20e-03,
425,0.00e+00,
426,3.20e-03,
427,0.00e+00,
428,3.20e-03,
429,0.00e+00,
430,4.00e-03,
431,0.00e+00,
432,3.20e-03,
433,8.00e-04,
434,8.00e-04,
435,3.20e-03,
436,8.00e-04,
437,3.20e-03,
438,3.20e-03,
439,0.00e+00,
440,0.00e+00,
441,3.20e-03,
442,0.00e+00,
443,4.00e-03,
444,3.20e-03,
445,0.00e+00,
446,0.00e+00,
447,3.20e-03,
448,3.20e-03,
449,-8.00e-04,
450,0.00e+00,
451,4.00e-03,
452,2.80e-03,
453,-8.00e-04,
454,2.40e-03,
455,0.00e+00,
456,0.00e+00,
457,3.20e-03,
458,0.00e+00,
459,4.00e-03,
460,3.20e-03,
461,0.00e+00,
462,2.40e-03,
463,0.00e+00,
464,2.80e-03,
465,0.00e+00,
466,2.40e-03,
467,0.00e+00,
468,2.80e-03,
469,-8.00e-04,
470,2.40e-03,
471,-8.00e-04,
472,-8.00e-04,
473,2.40e-03,
474,-8.00e-04,
475,3.20e-03,
476,2.80e-03,
477,-8.00e-04,
478,3.20e-03,
479,-1.60e-03,
480,2.40e-03,
481,-8.00e-04,
482,2.40e-03,
483,-8.00e-04,
484,2.40e-03,
485,0.00e+00,
486,3.20e-03,
487,-8.00e-04,
488,-8.00e-04,
489,2.40e-03,
490,-8.00e-04,
491,2.40e-03,
492,2.40e-03,
493,-8.00e-04,
494,-8.00e-04,
495,2.40e-03,
496,0.00e+00,
497,3.20e-03,
498,0.00e+00,
499,3.20e-03,
500,3.20e-03,
501,-1.60e-03,
502,-8.00e-04,
503,3.20e-03,
504,3.20e-03,
505,-8.00e-04,
506,2.40e-03,
507,-8.00e-04,
508,0.00e+00,
509,3.20e-03,
510,4.00e-03,
511,-1.60e-03,
512,3.20e-03,
513,-8.00e-04,
514,2.40e-03,
515,-1.60e-03,
516,-1.60e-03,
517,2.40e-03,
518,2.80e-03,
519,-8.00e-04,
520,-8.00e-04,
521,3.20e-03,
522,2.40e-03,
523,-1.60e-03,
524,2.40e-03,
525,-8.00e-04,
526,3.20e-03,
527,-8.00e-04,
528,-1.60e-03,
529,2.80e-03,
530,-8.00e-04,
531,2.40e-03,
532,-8.00e-04,
533,3.20e-03,
534,-8.00e-04,
535,3.20e-03,
536,-8.00e-04,
537,3.20e-03,
538,2.40e-03,
539,0.00e+00,
540,0.00e+00,
541,3.20e-03,
542,-8.00e-04,
543,3.20e-03,
544,0.00e+00,
545,4.00e-03,
546,0.00e+00,
547,3.20e-03,
548,-8.00e-04,
549,3.20e-03,
550,-8.00e-04,
551,3.20e-03,
552,3.20e-03,
553,-8.00e-04,
554,-8.00e-04,
555,3.60e-03,
556,-8.00e-04,
557,2.40e-03,
558,2.40e-03,
559,-8.00e-04,
560,-8.00e-04,
561,2.40e-03,
562,2.40e-03,
563,-8.00e-04,
564,-8.00e-04,
565,2.40e-03,
566,2.40e-03,
567,-1.60e-03,
568,-8.00e-04,
569,3.20e-03,
570,-8.00e-04,
571,3.20e-03,
572,2.40e-03,
573,-8.00e-04,
574,2.40e-03,
575,-8.00e-04,
576,0.00e+00,
577,2.40e-03,
578,-8.00e-04,
579,3.20e-03,
580,0.00e+00,
581,3.20e-03,
582,2.40e-03,
583,0.00e+00,
584,0.00e+00,
585,2.40e-03,
586,3.20e-03,
587,-8.00e-04,
588,2.40e-03,
589,-8.00e-04,
590,0.00e+00,
591,3.20e-03,
592,3.20e-03,
593,0.00e+00,
594,3.20e-03,
595,-8.00e-04,
596,3.20e-03,
597,-8.00e-04,
598,3.20e-03,
599,0.00e+00,
600,-8.00e-04,
601,3.20e-03,
602,0.00e+00,
603,4.00e-03,
604,8.00e-04,
605,3.20e-03,
606,8.00e-04,
607,3.20e-03,
608,3.20e-03,
609,0.00e+00,
610,3.20e-03,
611,0.00e+00,
612,3.20e-03,
613,-8.00e-04,
614,0.00e+00,
615,3.20e-03,
616,0.00e+00,
617,3.20e-03,
618,0.00e+00,
619,3.20e-03,
620,8.00e-04,
621,3.20e-03,
622,3.20e-03,
623,0.00e+00,
624,3.20e-03,
625,0.00e+00,
626,0.00e+00,
627,3.20e-03,
628,4.00e-03,
629,0.00e+00,
630,4.00e-03,
631,0.00e+00,
632,0.00e+00,
633,4.00e-03,
634,0.00e+00,
635,3.20e-03,
636,-8.00e-04,
637,4.00e-03,
638,0.00e+00,
639,3.20e-03,
640,3.20e-03,
641,0.00e+00,
642,0.00e+00,
643,3.20e-03,
644,3.20e-03,
645,0.00e+00,
646,0.00e+00,
647,3.20e-03,
648,0.00e+00,
649,3.20e-03,
650,3.20e-03,
651,0.00e+00,
652,4.00e-03,
653,0.00e+00,
654,0.00e+00,
655,3.20e-03,
656,0.00e+00,
657,3.20e-03,
658,0.00e+00,
659,4.00e-03,
660,3.20e-03,
661,8.00e-04,
662,2.40e-03,
663,-8.00e-04,
664,0.00e+00,
665,2.80e-03,
666,0.00e+00,
667,3.20e-03,
668,3.20e-03,
669,0.00e+00,
670,0.00e+00,
671,3.20e-03,
672,3.20e-03,
673,0.00e+00,
674,3.20e-03,
675,0.00e+00,
676,0.00e+00,
677,4.00e-03,
678,3.20e-03,
679,4.00e-04,
680,0.00e+00,
681,4.00e-03,
682,3.20e-03,
683,0.00e+00,
684,3.20e-03,
685,0.00e+00,
686,3.20e-03,
687,0.00e+00,
688,3.20e-03,
689,-8.00e-04,
690,0.00e+00,
691,4.00e-03,
692,-8.00e-04,
693,3.20e-03,
694,0.00e+00,
695,3.20e-03,
696,0.00e+00,
697,3.20e-03,
698,0.00e+00,
699,4.00e-03,
700,3.20e-03,
701,0.00e+00,
702,0.00e+00,
703,3.20e-03,
704,-8.00e-04,
705,4.00e-03,
706,3.20e-03,
707,0.00e+00,
708,3.60e-03,
709,0.00e+00,
710,3.20e-03,
711,0.00e+00,
712,0.00e+00,
713,3.20e-03,
714,3.20e-03,
715,0.00e+00,
716,0.00e+00,
717,2.40e-03,
718,0.00e+00,
719,3.20e-03,
720,0.00e+00,
721,3.20e-03,
722,3.20e-03,
723,0.00e+00,
724,4.00e-03,
725,0.00e+00,
726,0.00e+00,
727,3.20e-03,
728,3.20e-03,
729,-8.00e-04,
730,3.20e-03,
731,0.00e+00,
732,8.00e-04,
733,4.00e-03,
734,0.00e+00,
735,4.00e-03,
736,0.00e+00,
737,3.20e-03,
738,3.20e-03,
739,-8.00e-04,
740,0.00e+00,
741,4.00e-03,
742,3.20e-03,
743,0.00e+00,
744,0.00e+00,
745,3.20e-03,
746,2.80e-03,
747,0.00e+00,
748,-8.00e-04,
749,4.00e-03,
750,3.20e-03,
751,-8.00e-04,
752,2.40e-03,
753,0.00e+00,
754,2.40e-03,
755,-8.00e-04,
756,3.20e-03,
757,-8.00e-04,
758,3.20e-03,
759,-8.00e-04,
760,0.00e+00,
761,3.20e-03,
762,0.00e+00,
763,3.20e-03,
764,4.00e-03,
765,0.00e+00,
766,8.00e-04,
767,3.20e-03,
768,0.00e+00,
769,4.00e-03,
770,2.80e-03,
771,-8.00e-04,
772,2.40e-03,
773,-8.00e-04,
774,0.00e+00,
775,2.40e-03,
776,-8.00e-04,
777,3.20e-03,
778,0.00e+00,
779,3.20e-03,
780,3.20e-03,
781,-1.60e-03,
782,3.20e-03,
783,0.00e+00,
784,0.00e+00,
785,3.20e-03,
786,2.40e-03,
787,-8.00e-04,
788,2.40e-03,
789,-8.00e-04,
790,0.00e+00,
791,3.20e-03,
792,0.00e+00,
793,3.20e-03,
794,2.40e-03,
795,-1.60e-03,
796,-8.00e-04,
797,3.20e-03,
798,-8.00e-04,
799,4.00e-03,
800,-8.00e-04,
801,2.40e-03,
802,3.20e-03,
803,0.00e+00,
804,2.40e-03,
805,-8.00e-04,
806,2.40e-03,
807,0.00e+00,
808,0.00e+00,
809,2.40e-03,
810,-8.00e-04,
811,3.20e-03,
812,2.40e-03,
813,0.00e+00,
814,2.40e-03,
815,-8.00e-04,
816,0.00e+00,
817,2.80e-03,
818,0.00e+00,
819,3.20e-03,
820,-8.00e-04,
821,2.80e-03,
822,-8.00e-04,
823,3.20e-03,
824,0.00e+00,
825,2.80e-03,
826,-8.00e-04,
827,3.20e-03,
828,-8.00e-04,
829,2.40e-03,
830,0.00e+00,
831,3.20e-03,
832,3.20e-03,
833,0.00e+00,
834,4.00e-03,
835,-8.00e-04,
836,2.40e-03,
837,-8.00e-04,
838,-8.00e-04,
839,3.20e-03,
840,-1.60e-03,
841,2.40e-03,
842,3.60e-03,
843,-8.00e-04,
844,1.60e-03,
845,-8.00e-04,
846,3.20e-03,
847,-1.60e-03,
848,-8.00e-04,
849,3.20e-03,
850,2.40e-03,
851,-8.00e-04,
852,3.20e-03,
853,-8.00e-04,
854,2.40e-03,
855,-8.00e-04,
856,2.40e-03,
857,-1.60e-03,
858,2.80e-03,
859,-1.60e-03,
860,-8.00e-04,
861,3.20e-03,
862,0.00e+00,
863,2.40e-03,
864,2.40e-03,
865,-8.00e-04,
866,-8.00e-04,
867,2.40e-03,
868,2.40e-03,
869,-8.00e-04,
870,2.40e-03,
871,-8.00e-04,
872,-1.60e-03,
873,2.40e-03,
874,2.40e-03,
875,-8.00e-04,
876,-8.00e-04,
877,3.20e-03,
878,-8.00e-04,
879,2.80e-03,
880,2.40e-03,
881,-8.00e-04,
882,0.00e+00,
883,3.60e-03,
884,2.40e-03,
885,0.00e+00,
886,0.00e+00,
887,2.40e-03,
888,-8.00e-04,
889,2.40e-03,
890,-8.00e-04,
891,3.20e-03,
892,-8.00e-04,
893,2.80e-03,
894,2.40e-03,
895,-1.60e-03,
896,-8.00e-04,
897,2.40e-03,
898,2.40e-03,
899,-8.00e-04,
900,2.40e-03,
901,-8.00e-04,
902,3.20e-03,
903,0.00e+00,
904,2.40e-03,
905,-8.00e-04,
906,-8.00e-04,
907,2.40e-03,
908,-8.00e-04,
909,2.40e-03,
910,-1.60e-03,
911,2.40e-03,
912,3.20e-03,
913,-8.00e-04,
914,-8.00e-04,
915,4.00e-03,
916,3.20e-03,
917,-8.00e-04,
918,-8.00e-04,
919,2.40e-03,
920,2.80e-03,
921,-8.00e-04,
922,-8.00e-04,
923,2.40e-03,
924,-1.60e-03,
925,3.20e-03,
926,-8.00e-04,
927,2.40e-03,
928,0.00e+00,
929,3.20e-03,
930,0.00e+00,
931,3.20e-03,
932,2.40e-03,
933,-8.00e-04,
934,-8.00e-04,
935,2.40e-03,
936,2.40e-03,
937,-8.00e-04,
938,2.80e-03,
939,-8.00e-04,
940,2.40e-03,
941,-8.00e-04,
942,0.00e+00,
943,2.40e-03,
944,-8.00e-04,
945,2.80e-03,
946,2.40e-03,
947,-8.00e-04,
948,0.00e+00,
949,2.40e-03,
950,3.20e-03,
951,-8.00e-04,
952,-8.00e-04,
953,3.20e-03,
954,2.40e-03,
955,-8.00e-04,
956,2.40e-03,
957,-8.00e-04,
958,2.40e-03,
959,-8.00e-04,
960,0.00e+00,
961,4.00e-03,
962,3.20e-03,
963,-8.00e-04,
964,-8.00e-04,
965,2.40e-03,
966,0.00e+00,
967,2.40e-03,
968,2.40e-03,
969,-8.00e-04,
970,-8.00e-04,
971,4.00e-03,
972,2.40e-03,
973,0.00e+00,
974,2.40e-03,
975,-8.00e-04,
976,-8.00e-04,
977,2.40e-03,
978,2.40e-03,
979,-8.00e-04,
980,-8.00e-04,
981,4.00e-03,
982,2.40e-03,
983,-8.00e-04,
984,3.20e-03,
985,-8.00e-04,
986,2.40e-03,
987,-8.00e-04,
988,3.20e-03,
989,-8.00e-04,
990,0.00e+00,
991,3.20e-03,
992,2.40e-03,
993,-8.00e-04,
994,-8.00e-04,
995,2.40e-03,
996,-8.00e-04,
997,3.20e-03,
998,-1.60e-03,
999,2.40e-03,
1000,2.40e-03,
1001,-1.60e-03,
1002,-2.40e-03,
1003,3.20e-03,
1004,3.20e-03,
1005,-8.00e-04,
1006,2.80e-03,
1007,-1.60e-03,
1008,-8.00e-04,
1009,3.20e-03,
1010,0.00e+00,
1011,3.20e-03,
1012,2.40e-03,
1013,0.00e+00,
1014,3.20e-03,
1015,-8.00e-04,
1016,-8.00e-04,
1017,2.80e-03,
1018,2.80e-03,
1019,0.00e+00,
1020,2.40e-03,
1021,-8.00e-04,
1022,0.00e+00,
1023,2.40e-03,
1024,-8.00e-04,
1025,3.20e-03,
1026,3.20e-03,
1027,0.00e+00,
1028,-8.00e-04,
1029,3.20e-03,
1030,0.00e+00,
1031,3.20e-03,
1032,2.40e-03,
1033,-8.00e-04,
1034,0.00e+00,
1035,3.20e-03,
1036,3.20e-03,
1037,-8.00e-04,
1038,0.00e+00,
1039,3.20e-03,
1040,0.00e+00,
1041,3.20e-03,
1042,3.20e-03,
1043,-8.00e-04,
1044,-8.00e-04,
1045,4.00e-03,
1046,4.00e-03,
1047,0.00e+00,
1048,4.00e-03,
1049,-8.00e-04,
1050,0.00e+00,
1051,2.80e-03,
1052,0.00e+00,
1053,3.20e-03,
1054,0.00e+00,
1055,3.20e-03,
1056,2.40e-03,
1057,-8.00e-04,
1058,0.00e+00,
1059,3.20e-03,
1060,0.00e+00,
1061,3.20e-03,
1062,3.20e-03,
1063,0.00e+00,
1064,2.40e-03,
1065,-8.00e-04,
1066,3.20e-03,
1067,0.00e+00,
1068,0.00e+00,
1069,2.40e-03,
1070,0.00e+00,
1071,3.20e-03,
1072,3.20e-03,
1073,-8.00e-04,
1074,2.40e-03,
1075,0.00e+00,
1076,0.00e+00,
1077,3.20e-03,
1078,2.40e-03,
1079,-1.60e-03,
1080,-1.60e-03,
1081,3.20e-03,
1082,-8.00e-04,
1083,4.00e-03,
1084,0.00e+00,
1085,3.20e-03,
1086,3.20e-03,
1087,0.00e+00,
1088,2.40e-03,
1089,0.00e+00,
1090,0.00e+00,
1091,3.20e-03,
1092,-8.00e-04,
1093,2.40e-03,
1094,-8.00e-04,
1095,2.40e-03,
1096,0.00e+00,
1097,2.40e-03,
1098,2.40e-03,
1099,-8.00e-04,
1100,3.20e-03,
1101,-8.00e-04,
1102,-8.00e-04,
1103,3.20e-03,
1104,3.20e-03,
1105,0.00e+00,
1106,-8.00e-04,
1107,2.40e-03,
1108,-8.00e-04,
1109,4.00e-03,
1110,0.00e+00,
1111,3.20e-03,
1112,0.00e+00,
1113,4.00e-03,
1114,-8.00e-04,
1115,3.20e-03,
1116,0.00e+00,
1117,3.20e-03,
1118,0.00e+00,
1119,2.40e-03,
1120,2.40e-03,
1121,-8.00e-04,
1122,2.40e-03,
1123,-1.60e-03,
1124,2.40e-03,
1125,-1.60e-03,
1126,2.40e-03,
1127,-8.00e-04,
1128,4.00e-03,
1129,-8.00e-04,
1130,-8.00e-04,
1131,3.20e-03,
1132,3.20e-03,
1133,-8.00e-04,
1134,2.40e-03,
1135,-8.00e-04,
1136,0.00e+00,
1137,3.20e-03,
1138,2.40e-03,
1139,-1.60e-03,
1140,0.00e+00,
1141,2.80e-03,
1142,2.40e-03,
1143,-8.00e-04,
1144,2.40e-03,
1145,-8.00e-04,
1146,3.20e-03,
1147,-1.60e-03,
1148,3.20e-03,
1149,-8.00e-04,
1150,2.40e-03,
1151,0.00e+00,
1152,2.40e-03,
1153,-8.00e-04,
1154,2.40e-03,
1155,-8.00e-04,
1156,-8.00e-04,
1157,3.20e-03,
1158,3.20e-03,
1159,-8.00e-04,
1160,2.80e-03,
1161,-8.00e-04,
1162,-8.00e-04,
1163,2.40e-03,
1164,2.40e-03,
1165,-1.60e-03,
1166,-8.00e-04,
1167,2.40e-03,
1168,2.80e-03,
1169,-1.60e-03,
1170,2.40e-03,
1171,-1.60e-03,
1172,-1.60e-03,
1173,3.20e-03,
1174,-8.00e-04,
1175,1.60e-03,
1176,2.40e-03,
1177,-8.00e-04,
1178,-8.00e-04,
1179,2.40e-03,
1180,0.00e+00,
1181,3.20e-03,
1182,0.00e+00,
1183,3.20e-03,
1184,-1.60e-03,
1185,2.40e-03,
1186,2.80e-03,
1187,0.00e+00,
1188,-8.00e-04,
1189,2.80e-03,
1190,-8.00e-04,
1191,3.20e-03,
1192,3.20e-03,
1193,-8.00e-04,
1194,2.40e-03,
1195,-8.00e-04,
1196,3.20e-03,
1197,-8.00e-04,
1198,2.40e-03,
1199,-8.00e-04,
