fastdiffamp/data-noise-set/8th/NewFile1.csv

X,CH1,Start,Increment,
Sequence,Volt,-1.200000e-02,2.000000e-05
0,-1.60e-03,
1,3.20e-03,
2,-1.60e-03,
3,2.40e-03,
4,-1.60e-03,
5,3.20e-03,
6,2.40e-03,
7,-2.40e-03,
8,-3.20e-03,
9,2.00e-03,
10,2.80e-03,
11,-2.40e-03,
12,2.40e-03,
13,-2.40e-03,
14,-8.00e-04,
15,1.60e-03,
16,2.00e-03,
17,-8.00e-04,
18,2.40e-03,
19,-1.60e-03,
20,2.40e-03,
21,-1.60e-03,
22,-1.60e-03,
23,2.40e-03,
24,-1.60e-03,
25,2.40e-03,
26,-8.00e-04,
27,2.00e-03,
28,1.60e-03,
29,-1.60e-03,
30,1.60e-03,
31,-1.60e-03,
32,1.60e-03,
33,-1.60e-03,
34,-8.00e-04,
35,2.40e-03,
36,2.40e-03,
37,-2.40e-03,
38,2.40e-03,
39,-1.60e-03,
40,2.40e-03,
41,-1.60e-03,
42,-2.00e-03,
43,2.40e-03,
44,-1.60e-03,
45,2.80e-03,
46,1.60e-03,
47,-1.60e-03,
48,2.40e-03,
49,-2.40e-03,
50,2.40e-03,
51,-1.60e-03,
52,-8.00e-04,
53,3.20e-03,
54,-1.60e-03,
55,2.00e-03,
56,8.00e-04,
57,-1.60e-03,
58,2.40e-03,
59,-1.60e-03,
60,-1.60e-03,
61,2.00e-03,
62,-1.60e-03,
63,3.20e-03,
64,2.40e-03,
65,-1.60e-03,
66,1.60e-03,
67,-2.40e-03,
68,2.40e-03,
69,-1.60e-03,
70,-1.60e-03,
71,2.80e-03,
72,-1.60e-03,
73,2.40e-03,
74,-1.60e-03,
75,2.00e-03,
76,-2.40e-03,
77,3.20e-03,
78,-1.60e-03,
79,3.20e-03,
80,-8.00e-04,
81,2.00e-03,
82,-2.40e-03,
83,8.00e-04,
84,-2.40e-03,
85,2.80e-03,
86,3.20e-03,
87,-8.00e-04,
88,-2.40e-03,
89,2.40e-03,
90,2.40e-03,
91,-2.40e-03,
92,2.40e-03,
93,-1.60e-03,
94,-1.60e-03,
95,2.40e-03,
96,-8.00e-04,
97,2.40e-03,
98,-1.60e-03,
99,3.20e-03,
100,3.20e-03,
101,-1.60e-03,
102,-1.60e-03,
103,2.40e-03,
104,-1.60e-03,
105,3.20e-03,
106,3.20e-03,
107,-1.60e-03,
108,-8.00e-04,
109,3.20e-03,
110,-1.60e-03,
111,3.20e-03,
112,-8.00e-04,
113,3.20e-03,
114,-2.40e-03,
115,2.40e-03,
116,3.20e-03,
117,-1.60e-03,
118,1.60e-03,
119,-1.60e-03,
120,2.40e-03,
121,-8.00e-04,
122,2.00e-03,
123,-2.40e-03,
124,-1.60e-03,
125,2.40e-03,
126,-2.40e-03,
127,2.40e-03,
128,2.40e-03,
129,-1.60e-03,
130,-1.60e-03,
131,3.20e-03,
132,-8.00e-04,
133,3.20e-03,
134,3.20e-03,
135,-1.60e-03,
136,2.40e-03,
137,-1.60e-03,
138,2.40e-03,
139,-2.00e-03,
140,2.40e-03,
141,-2.40e-03,
142,-1.60e-03,
143,4.00e-03,
144,2.40e-03,
145,-1.60e-03,
146,2.40e-03,
147,-8.00e-04,
148,-1.60e-03,
149,3.20e-03,
150,-1.60e-03,
151,2.40e-03,
152,-8.00e-04,
153,2.40e-03,
154,-8.00e-04,
155,2.40e-03,
156,2.40e-03,
157,-1.60e-03,
158,3.20e-03,
159,-1.60e-03,
160,-1.60e-03,
161,3.20e-03,
162,-1.60e-03,
163,2.80e-03,
164,-8.00e-04,
165,2.40e-03,
166,2.40e-03,
167,-8.00e-04,
168,-8.00e-04,
169,3.20e-03,
170,-8.00e-04,
171,3.20e-03,
172,-8.00e-04,
173,2.40e-03,
174,3.60e-03,
175,-1.60e-03,
176,3.20e-03,
177,-8.00e-04,
178,3.20e-03,
179,-2.40e-03,
180,2.40e-03,
181,-1.60e-03,
182,3.20e-03,
183,-1.60e-03,
184,2.40e-03,
185,-1.60e-03,
186,-1.60e-03,
187,3.20e-03,
188,-1.60e-03,
189,2.40e-03,
190,2.40e-03,
191,-8.00e-04,
192,-1.60e-03,
193,2.80e-03,
194,-8.00e-04,
195,3.20e-03,
196,-8.00e-04,
197,3.20e-03,
198,-8.00e-04,
199,4.00e-03,
200,0.00e+00,
201,3.20e-03,
202,-8.00e-04,
203,3.20e-03,
204,-8.00e-04,
205,3.20e-03,
206,-8.00e-04,
207,3.20e-03,
208,3.20e-03,
209,-8.00e-04,
210,0.00e+00,
211,3.20e-03,
212,-8.00e-04,
213,4.00e-03,
214,-1.60e-03,
215,2.40e-03,
216,4.00e-03,
217,-8.00e-04,
218,2.40e-03,
219,-1.60e-03,
220,-2.40e-03,
221,2.80e-03,
222,2.40e-03,
223,0.00e+00,
224,3.20e-03,
225,-8.00e-04,
226,2.40e-03,
227,-8.00e-04,
228,4.00e-03,
229,-8.00e-04,
230,2.40e-03,
231,-8.00e-04,
232,-8.00e-04,
233,4.00e-03,
234,2.80e-03,
235,0.00e+00,
236,2.80e-03,
237,-8.00e-04,
238,5.60e-03,
239,0.00e+00,
240,3.20e-03,
241,-8.00e-04,
242,0.00e+00,
243,3.20e-03,
244,-8.00e-04,
245,4.00e-03,
246,0.00e+00,
247,4.00e-03,
248,3.20e-03,
249,0.00e+00,
250,0.00e+00,
251,4.00e-03,
252,3.20e-03,
253,0.00e+00,
254,3.20e-03,
255,0.00e+00,
256,3.20e-03,
257,0.00e+00,
258,4.80e-03,
259,-8.00e-04,
260,0.00e+00,
261,3.20e-03,
262,4.00e-03,
263,0.00e+00,
264,0.00e+00,
265,4.00e-03,
266,4.80e-03,
267,0.00e+00,
268,-8.00e-04,
269,3.20e-03,
270,-8.00e-04,
271,4.80e-03,
272,4.00e-03,
273,0.00e+00,
274,4.00e-03,
275,-8.00e-04,
276,0.00e+00,
277,3.20e-03,
278,-8.00e-04,
279,4.00e-03,
280,4.00e-03,
281,-8.00e-04,
282,-8.00e-04,
283,4.00e-03,
284,3.20e-03,
285,0.00e+00,
286,0.00e+00,
287,3.60e-03,
288,3.20e-03,
289,-8.00e-04,
290,4.00e-03,
291,-8.00e-04,
292,-8.00e-04,
293,4.00e-03,
294,3.20e-03,
295,-8.00e-04,
296,0.00e+00,
297,4.80e-03,
298,3.20e-03,
299,-8.00e-04,
300,0.00e+00,
301,4.00e-03,
302,8.00e-04,
303,4.00e-03,
304,8.00e-04,
305,4.00e-03,
306,4.00e-03,
307,0.00e+00,
308,-8.00e-04,
309,4.00e-03,
310,4.00e-03,
311,0.00e+00,
312,4.00e-03,
313,-8.00e-04,
314,2.80e-03,
315,0.00e+00,
316,-1.60e-03,
317,4.00e-03,
318,3.20e-03,
319,0.00e+00,
320,4.00e-03,
321,0.00e+00,
322,0.00e+00,
323,4.00e-03,
324,4.00e-03,
325,-8.00e-04,
326,-1.60e-03,
327,3.20e-03,
328,-8.00e-04,
329,3.20e-03,
330,3.20e-03,
331,-8.00e-04,
332,4.00e-03,
333,0.00e+00,
334,0.00e+00,
335,3.20e-03,
336,4.00e-03,
337,-8.00e-04,
338,4.00e-03,
339,-8.00e-04,
340,3.20e-03,
341,-8.00e-04,
342,3.20e-03,
343,0.00e+00,
344,3.20e-03,
345,0.00e+00,
346,0.00e+00,
347,4.00e-03,
348,8.00e-04,
349,3.20e-03,
350,4.00e-03,
351,-8.00e-04,
352,-8.00e-04,
353,3.20e-03,
354,4.80e-03,
355,0.00e+00,
356,4.00e-03,
357,-1.60e-03,
358,0.00e+00,
359,3.20e-03,
360,3.20e-03,
361,-8.00e-04,
362,3.20e-03,
363,-8.00e-04,
364,3.20e-03,
365,0.00e+00,
366,0.00e+00,
367,4.00e-03,
368,4.00e-03,
369,-8.00e-04,
370,0.00e+00,
371,3.20e-03,
372,4.00e-03,
373,-8.00e-04,
374,-8.00e-04,
375,3.20e-03,
376,-8.00e-04,
377,3.20e-03,
378,-8.00e-04,
379,3.20e-03,
380,0.00e+00,
381,3.20e-03,
382,0.00e+00,
383,4.00e-03,
384,0.00e+00,
385,4.00e-03,
386,0.00e+00,
387,3.20e-03,
388,-8.00e-04,
389,3.20e-03,
390,0.00e+00,
391,3.20e-03,
392,-8.00e-04,
393,2.80e-03,
394,3.20e-03,
395,-8.00e-04,
396,4.00e-03,
397,-1.60e-03,
398,-1.60e-03,
399,3.20e-03,
400,0.00e+00,
401,4.00e-03,
402,4.00e-03,
403,0.00e+00,
404,4.00e-03,
405,0.00e+00,
406,2.40e-03,
407,0.00e+00,
408,0.00e+00,
409,4.00e-03,
410,3.20e-03,
411,-8.00e-04,
412,-8.00e-04,
413,4.00e-03,
414,4.00e-03,
415,-8.00e-04,
416,3.20e-03,
417,0.00e+00,
418,3.20e-03,
419,-8.00e-04,
420,0.00e+00,
421,4.00e-03,
422,3.20e-03,
423,-8.00e-04,
424,3.20e-03,
425,-8.00e-04,
426,3.20e-03,
427,0.00e+00,
428,0.00e+00,
429,3.20e-03,
430,-8.00e-04,
431,3.20e-03,
432,4.00e-03,
433,-8.00e-04,
434,3.20e-03,
435,0.00e+00,
436,3.20e-03,
437,0.00e+00,
438,-8.00e-04,
439,3.60e-03,
440,-1.60e-03,
441,4.00e-03,
442,3.20e-03,
443,-8.00e-04,
444,4.00e-03,
445,-8.00e-04,
446,-8.00e-04,
447,3.20e-03,
448,2.40e-03,
449,0.00e+00,
450,0.00e+00,
451,3.60e-03,
452,-8.00e-04,
453,4.00e-03,
454,4.00e-03,
455,-1.60e-03,
456,-8.00e-04,
457,4.00e-03,
458,2.40e-03,
459,-8.00e-04,
460,-8.00e-04,
461,4.00e-03,
462,0.00e+00,
463,3.20e-03,
464,-8.00e-04,
465,3.20e-03,
466,4.00e-03,
467,-8.00e-04,
468,0.00e+00,
469,3.20e-03,
470,0.00e+00,
471,4.00e-03,
472,3.20e-03,
473,0.00e+00,
474,3.20e-03,
475,-8.00e-04,
476,3.20e-03,
477,-1.60e-03,
478,0.00e+00,
479,4.00e-03,
480,4.00e-03,
481,0.00e+00,
482,3.20e-03,
483,-8.00e-04,
484,3.20e-03,
485,-8.00e-04,
486,3.20e-03,
487,-8.00e-04,
488,4.80e-03,
489,0.00e+00,
490,3.20e-03,
491,-8.00e-04,
492,-8.00e-04,
493,3.20e-03,
494,0.00e+00,
495,3.20e-03,
496,4.00e-03,
497,0.00e+00,
498,-8.00e-04,
499,3.20e-03,
500,-8.00e-04,
501,3.20e-03,
502,0.00e+00,
503,4.00e-03,
504,0.00e+00,
505,4.00e-03,
506,0.00e+00,
507,4.00e-03,
508,3.20e-03,
509,-8.00e-04,
510,4.00e-03,
511,-8.00e-04,
512,4.00e-03,
513,-8.00e-04,
514,0.00e+00,
515,4.80e-03,
516,3.20e-03,
517,-8.00e-04,
518,-8.00e-04,
519,4.00e-03,
520,-8.00e-04,
521,3.20e-03,
522,2.80e-03,
523,-8.00e-04,
524,2.40e-03,
525,0.00e+00,
526,0.00e+00,
527,4.00e-03,
528,4.80e-03,
529,-8.00e-04,
530,3.20e-03,
531,-8.00e-04,
532,8.00e-04,
533,4.00e-03,
534,-8.00e-04,
535,4.00e-03,
536,4.00e-03,
537,8.00e-04,
538,4.00e-03,
539,-8.00e-04,
540,-8.00e-04,
541,3.20e-03,
542,0.00e+00,
543,3.20e-03,
544,4.00e-03,
545,8.00e-04,
546,3.20e-03,
547,-8.00e-04,
548,4.80e-03,
549,-8.00e-04,
550,3.20e-03,
551,-8.00e-04,
552,0.00e+00,
553,4.00e-03,
554,0.00e+00,
555,3.20e-03,
556,3.20e-03,
557,0.00e+00,
558,3.20e-03,
559,0.00e+00,
560,4.00e-03,
561,0.00e+00,
562,4.00e-03,
563,0.00e+00,
564,3.20e-03,
565,-8.00e-04,
566,4.80e-03,
567,8.00e-04,
568,4.00e-03,
569,0.00e+00,
570,3.20e-03,
571,-8.00e-04,
572,0.00e+00,
573,4.80e-03,
574,4.80e-03,
575,0.00e+00,
576,3.20e-03,
577,0.00e+00,
578,4.80e-03,
579,8.00e-04,
580,4.00e-03,
581,8.00e-04,
582,4.80e-03,
583,0.00e+00,
584,-8.00e-04,
585,4.00e-03,
586,4.00e-03,
587,0.00e+00,
588,4.80e-03,
589,0.00e+00,
590,3.20e-03,
591,0.00e+00,
592,4.80e-03,
593,0.00e+00,
594,0.00e+00,
595,4.00e-03,
596,3.20e-03,
597,0.00e+00,
598,4.00e-03,
599,-8.00e-04,
600,0.00e+00,
601,4.80e-03,
602,-8.00e-04,
603,4.00e-03,
604,3.20e-03,
605,0.00e+00,
606,3.20e-03,
607,-1.60e-03,
608,3.20e-03,
609,-8.00e-04,
610,4.00e-03,
611,0.00e+00,
612,0.00e+00,
613,4.00e-03,
614,0.00e+00,
615,4.00e-03,
616,0.00e+00,
617,4.00e-03,
618,-8.00e-04,
619,3.20e-03,
620,0.00e+00,
621,3.20e-03,
622,3.20e-03,
623,0.00e+00,
624,3.20e-03,
625,-8.00e-04,
626,0.00e+00,
627,3.20e-03,
628,4.80e-03,
629,0.00e+00,
630,0.00e+00,
631,4.00e-03,
632,-8.00e-04,
633,3.20e-03,
634,3.20e-03,
635,-8.00e-04,
636,0.00e+00,
637,3.20e-03,
638,0.00e+00,
639,4.00e-03,
640,0.00e+00,
641,3.20e-03,
642,3.20e-03,
643,-8.00e-04,
644,0.00e+00,
645,4.00e-03,
646,-8.00e-04,
647,3.20e-03,
648,3.20e-03,
649,0.00e+00,
650,-4.00e-04,
651,4.80e-03,
652,-8.00e-04,
653,4.00e-03,
654,-8.00e-04,
655,4.80e-03,
656,0.00e+00,
657,3.20e-03,
658,2.80e-03,
659,0.00e+00,
660,0.00e+00,
661,3.20e-03,
662,4.00e-03,
663,0.00e+00,
664,4.00e-03,
665,-8.00e-04,
666,3.20e-03,
667,0.00e+00,
668,3.20e-03,
669,-8.00e-04,
670,-8.00e-04,
671,3.20e-03,
672,0.00e+00,
673,4.00e-03,
674,4.00e-03,
675,-1.60e-03,
676,0.00e+00,
677,4.00e-03,
678,0.00e+00,
679,4.00e-03,
680,3.20e-03,
681,-8.00e-04,
682,0.00e+00,
683,3.20e-03,
684,8.00e-04,
685,4.00e-03,
686,3.20e-03,
687,-8.00e-04,
688,4.00e-03,
689,0.00e+00,
690,3.20e-03,
691,-8.00e-04,
692,4.00e-03,
693,0.00e+00,
694,4.00e-03,
695,0.00e+00,
696,0.00e+00,
697,3.20e-03,
698,4.80e-03,
699,-8.00e-04,
700,4.00e-03,
701,0.00e+00,
702,0.00e+00,
703,4.80e-03,
704,3.20e-03,
705,0.00e+00,
706,-1.60e-03,
707,4.00e-03,
708,-8.00e-04,
709,3.20e-03,
710,3.20e-03,
711,-8.00e-04,
712,4.00e-03,
713,-8.00e-04,
714,0.00e+00,
715,3.20e-03,
716,0.00e+00,
717,4.00e-03,
718,3.20e-03,
719,-8.00e-04,
720,3.20e-03,
721,-8.00e-04,
722,-8.00e-04,
723,3.20e-03,
724,3.20e-03,
725,-1.60e-03,
726,3.60e-03,
727,-8.00e-04,
728,3.20e-03,
729,-8.00e-04,
730,-8.00e-04,
731,3.20e-03,
732,-8.00e-04,
733,4.00e-03,
734,-8.00e-04,
735,3.20e-03,
736,3.20e-03,
737,0.00e+00,
738,-8.00e-04,
739,3.20e-03,
740,3.20e-03,
741,-8.00e-04,
742,3.20e-03,
743,-1.60e-03,
744,-8.00e-04,
745,4.00e-03,
746,4.00e-03,
747,-8.00e-04,
748,4.00e-03,
749,-8.00e-04,
750,3.20e-03,
751,-8.00e-04,
752,-1.60e-03,
753,3.20e-03,
754,3.20e-03,
755,-8.00e-04,
756,3.20e-03,
757,-8.00e-04,
758,-1.60e-03,
759,4.00e-03,
760,3.20e-03,
761,-8.00e-04,
762,2.40e-03,
763,-1.60e-03,
764,-8.00e-04,
765,3.20e-03,
766,0.00e+00,
767,3.20e-03,
768,-8.00e-04,
769,2.80e-03,
770,3.20e-03,
771,-8.00e-04,
772,-8.00e-04,
773,3.20e-03,
774,3.20e-03,
775,-8.00e-04,
776,4.00e-03,
777,-1.60e-03,
778,-8.00e-04,
779,3.20e-03,
780,3.20e-03,
781,-1.60e-03,
782,0.00e+00,
783,3.20e-03,
784,3.20e-03,
785,-8.00e-04,
786,-1.60e-03,
787,3.20e-03,
788,4.00e-03,
789,-1.60e-03,
790,-1.60e-03,
791,3.20e-03,
792,4.00e-03,
793,-8.00e-04,
794,-8.00e-04,
795,4.00e-03,
796,2.40e-03,
797,-8.00e-04,
798,-8.00e-04,
799,3.60e-03,
800,-8.00e-04,
801,4.00e-03,
802,-8.00e-04,
803,4.00e-03,
804,-8.00e-04,
805,4.00e-03,
806,0.00e+00,
807,3.20e-03,
808,3.20e-03,
809,-8.00e-04,
810,3.20e-03,
811,-1.60e-03,
812,3.20e-03,
813,-8.00e-04,
814,0.00e+00,
815,2.40e-03,
816,0.00e+00,
817,2.40e-03,
818,0.00e+00,
819,3.60e-03,
820,-8.00e-04,
821,3.20e-03,
822,-8.00e-04,
823,3.20e-03,
824,-8.00e-04,
825,3.20e-03,
826,2.40e-03,
827,-1.60e-03,
828,-8.00e-04,
829,3.20e-03,
830,3.20e-03,
831,-8.00e-04,
832,-1.60e-03,
833,3.20e-03,
834,3.20e-03,
835,-8.00e-04,
836,-8.00e-04,
837,2.80e-03,
838,3.20e-03,
839,-1.60e-03,
840,-8.00e-04,
841,4.00e-03,
842,-8.00e-04,
843,4.00e-03,
844,-8.00e-04,
845,3.20e-03,
846,2.40e-03,
847,-8.00e-04,
848,3.20e-03,
849,-1.60e-03,
850,0.00e+00,
851,3.20e-03,
852,-8.00e-04,
853,2.40e-03,
854,3.20e-03,
855,-1.60e-03,
856,-1.20e-03,
857,3.20e-03,
858,-8.00e-04,
859,4.00e-03,
860,0.00e+00,
861,4.00e-03,
862,2.40e-03,
863,-8.00e-04,
864,2.40e-03,
865,-1.60e-03,
866,-8.00e-04,
867,3.20e-03,
868,-8.00e-04,
869,3.60e-03,
870,4.00e-03,
871,-8.00e-04,
872,3.20e-03,
873,-8.00e-04,
874,3.20e-03,
875,-4.00e-04,
876,0.00e+00,
877,3.20e-03,
878,2.40e-03,
879,-8.00e-04,
880,-8.00e-04,
881,3.20e-03,
882,-8.00e-04,
883,4.00e-03,
884,-8.00e-04,
885,2.80e-03,
886,3.20e-03,
887,0.00e+00,
888,0.00e+00,
889,2.40e-03,
890,4.00e-03,
891,-8.00e-04,
892,3.20e-03,
893,0.00e+00,
894,-1.60e-03,
895,2.40e-03,
896,-8.00e-04,
897,4.00e-03,
898,3.20e-03,
899,-8.00e-04,
900,3.20e-03,
901,-1.60e-03,
902,4.80e-03,
903,0.00e+00,
904,-8.00e-04,
905,3.20e-03,
906,-8.00e-04,
907,3.20e-03,
908,4.00e-03,
909,-8.00e-04,
910,2.40e-03,
911,-1.60e-03,
912,-1.60e-03,
913,2.40e-03,
914,-8.00e-04,
915,3.20e-03,
916,-1.60e-03,
917,2.40e-03,
918,3.20e-03,
919,-1.60e-03,
920,3.20e-03,
921,-8.00e-04,
922,2.40e-03,
923,-8.00e-04,
924,-1.60e-03,
925,3.20e-03,
926,2.40e-03,
927,-1.60e-03,
928,3.20e-03,
929,0.00e+00,
930,3.20e-03,
931,-1.60e-03,
932,0.00e+00,
933,3.20e-03,
934,4.00e-03,
935,0.00e+00,
936,3.20e-03,
937,-8.00e-04,
938,3.20e-03,
939,-8.00e-04,
940,4.00e-03,
941,-8.00e-04,
942,-8.00e-04,
943,4.00e-03,
944,3.20e-03,
945,0.00e+00,
946,0.00e+00,
947,3.20e-03,
948,2.40e-03,
949,-1.60e-03,
950,3.20e-03,
951,-8.00e-04,
952,-8.00e-04,
953,3.20e-03,
954,-1.60e-03,
955,3.20e-03,
956,-8.00e-04,
957,3.20e-03,
958,-8.00e-04,
959,3.20e-03,
960,-8.00e-04,
961,2.80e-03,
962,2.40e-03,
963,-8.00e-04,
964,3.20e-03,
965,0.00e+00,
966,-8.00e-04,
967,4.00e-03,
968,-8.00e-04,
969,3.20e-03,
970,-8.00e-04,
971,2.40e-03,
972,0.00e+00,
973,3.20e-03,
974,2.40e-03,
975,-1.60e-03,
976,-8.00e-04,
977,3.20e-03,
978,2.40e-03,
979,-8.00e-04,
980,-8.00e-04,
981,3.20e-03,
982,2.40e-03,
983,-8.00e-04,
984,-8.00e-04,
985,3.20e-03,
986,4.00e-03,
987,-1.60e-03,
988,-8.00e-04,
989,3.20e-03,
990,4.00e-03,
991,-8.00e-04,
992,-8.00e-04,
993,3.60e-03,
994,2.40e-03,
995,0.00e+00,
996,3.20e-03,
997,-8.00e-04,
998,3.20e-03,
999,-1.60e-03,
1000,2.40e-03,
1001,-1.60e-03,
1002,-8.00e-04,
1003,3.20e-03,
1004,4.00e-03,
1005,-8.00e-04,
1006,-8.00e-04,
1007,3.20e-03,
1008,0.00e+00,
1009,2.80e-03,
1010,0.00e+00,
1011,3.20e-03,
1012,0.00e+00,
1013,3.60e-03,
1014,3.20e-03,
1015,-8.00e-04,
1016,3.20e-03,
1017,0.00e+00,
1018,4.00e-03,
1019,-8.00e-04,
1020,-8.00e-04,
1021,2.40e-03,
1022,-8.00e-04,
1023,3.20e-03,
1024,2.40e-03,
1025,-8.00e-04,
1026,-8.00e-04,
1027,2.40e-03,
1028,2.40e-03,
1029,-8.00e-04,
1030,2.40e-03,
1031,-1.60e-03,
1032,2.80e-03,
1033,-8.00e-04,
1034,2.40e-03,
1035,-8.00e-04,
1036,-1.60e-03,
1037,3.20e-03,
1038,-8.00e-04,
1039,2.40e-03,
1040,-1.60e-03,
1041,3.20e-03,
1042,3.20e-03,
1043,-1.60e-03,
1044,2.40e-03,
1045,-1.60e-03,
1046,2.40e-03,
1047,-1.60e-03,
1048,-1.60e-03,
1049,4.00e-03,
1050,-2.40e-03,
1051,2.40e-03,
1052,-8.00e-04,
1053,2.80e-03,
1054,3.20e-03,
1055,-1.60e-03,
1056,4.00e-03,
1057,-1.60e-03,
1058,-8.00e-04,
1059,3.20e-03,
1060,0.00e+00,
1061,3.20e-03,
1062,0.00e+00,
1063,2.80e-03,
1064,-1.20e-03,
1065,2.40e-03,
1066,0.00e+00,
1067,2.40e-03,
1068,3.20e-03,
1069,-8.00e-04,
1070,3.20e-03,
1071,-1.60e-03,
1072,2.40e-03,
1073,-1.60e-03,
1074,2.40e-03,
1075,-1.60e-03,
1076,-8.00e-04,
1077,3.20e-03,
1078,4.00e-03,
1079,-8.00e-04,
1080,4.00e-03,
1081,-1.60e-03,
1082,-8.00e-04,
1083,2.40e-03,
1084,3.20e-03,
1085,-1.60e-03,
1086,2.40e-03,
1087,-8.00e-04,
1088,3.20e-03,
1089,-1.60e-03,
1090,0.00e+00,
1091,3.20e-03,
1092,2.40e-03,
1093,-1.60e-03,
1094,0.00e+00,
1095,2.40e-03,
1096,2.40e-03,
1097,-8.00e-04,
1098,-8.00e-04,
1099,2.40e-03,
1100,-8.00e-04,
1101,3.20e-03,
1102,-1.60e-03,
1103,1.60e-03,
1104,-1.60e-03,
1105,3.20e-03,
1106,-8.00e-04,
1107,2.40e-03,
1108,2.00e-03,
1109,-1.60e-03,
1110,-8.00e-04,
1111,3.20e-03,
1112,3.20e-03,
1113,-1.60e-03,
1114,-8.00e-04,
1115,2.80e-03,
1116,0.00e+00,
1117,4.00e-03,
1118,2.40e-03,
1119,-2.40e-03,
1120,-1.60e-03,
1121,3.20e-03,
1122,-1.60e-03,
1123,2.40e-03,
1124,2.40e-03,
1125,-8.00e-04,
1126,-1.20e-03,
1127,3.20e-03,
1128,-2.40e-03,
1129,2.40e-03,
1130,4.00e-03,
1131,-8.00e-04,
1132,3.20e-03,
1133,-1.60e-03,
1134,-1.60e-03,
1135,3.20e-03,
1136,-1.60e-03,
1137,2.00e-03,
1138,-1.60e-03,
1139,2.40e-03,
1140,-2.40e-03,
1141,2.40e-03,
1142,2.40e-03,
1143,-2.40e-03,
1144,3.20e-03,
1145,-2.40e-03,
1146,2.40e-03,
1147,-3.20e-03,
1148,2.40e-03,
1149,-1.60e-03,
1150,1.60e-03,
1151,-1.60e-03,
1152,-2.40e-03,
1153,3.20e-03,
1154,2.40e-03,
1155,-1.60e-03,
1156,-1.60e-03,
1157,3.20e-03,
1158,-1.60e-03,
1159,2.00e-03,
1160,2.40e-03,
1161,-2.40e-03,
1162,2.00e-03,
1163,-1.60e-03,
1164,-1.60e-03,
1165,3.20e-03,
1166,-2.40e-03,
1167,3.20e-03,
1168,2.40e-03,
1169,-8.00e-04,
1170,2.40e-03,
1171,-1.60e-03,
1172,2.40e-03,
1173,-1.60e-03,
1174,-2.40e-03,
1175,3.20e-03,
1176,2.40e-03,
1177,-1.20e-03,
1178,2.40e-03,
1179,-1.60e-03,
1180,-1.60e-03,
1181,2.40e-03,
1182,1.60e-03,
1183,-1.60e-03,
1184,-1.60e-03,
1185,1.60e-03,
1186,-2.40e-03,
1187,2.40e-03,
1188,-8.00e-04,
1189,2.40e-03,
1190,3.20e-03,
1191,-8.00e-04,
1192,2.40e-03,
1193,-8.00e-04,
1194,-8.00e-04,
1195,2.40e-03,
1196,-2.40e-03,
1197,3.20e-03,
1198,2.40e-03,
1199,-2.40e-03,
