fastdiffamp/data-noise-set/strong-balanced/NewFile3.csv

X,CH1,Start,Increment,
Sequence,Volt,-1.198000e+01,2.000000e-02
0,-1.60e-03,
1,3.20e-03,
2,-1.60e-03,
3,2.40e-03,
4,-1.60e-03,
5,2.40e-03,
6,-2.40e-03,
7,3.20e-03,
8,-2.40e-03,
9,3.20e-03,
10,4.00e-03,
11,-2.40e-03,
12,-1.60e-03,
13,3.20e-03,
14,-2.00e-03,
15,3.20e-03,
16,-3.20e-03,
17,3.20e-03,
18,2.40e-03,
19,-2.40e-03,
20,-2.40e-03,
21,2.80e-03,
22,-2.40e-03,
23,2.40e-03,
24,-2.40e-03,
25,3.20e-03,
26,3.20e-03,
27,-1.60e-03,
28,3.20e-03,
29,-2.40e-03,
30,-2.40e-03,
31,3.20e-03,
32,-2.40e-03,
33,3.20e-03,
34,3.20e-03,
35,-2.40e-03,
36,2.80e-03,
37,-2.40e-03,
38,-2.40e-03,
39,3.20e-03,
40,-1.60e-03,
41,3.20e-03,
42,-3.20e-03,
43,2.80e-03,
44,2.40e-03,
45,-2.40e-03,
46,2.40e-03,
47,-2.40e-03,
48,-3.20e-03,
49,3.20e-03,
50,-2.40e-03,
51,2.80e-03,
52,-1.60e-03,
53,3.20e-03,
54,2.40e-03,
55,-3.20e-03,
56,-3.20e-03,
57,3.20e-03,
58,-2.40e-03,
59,2.40e-03,
60,-1.60e-03,
61,2.80e-03,
62,-1.60e-03,
63,4.00e-03,
64,-3.20e-03,
65,2.40e-03,
66,3.20e-03,
67,-2.40e-03,
68,3.20e-03,
69,-2.40e-03,
70,-1.60e-03,
71,2.40e-03,
72,-1.60e-03,
73,2.40e-03,
74,-2.40e-03,
75,2.40e-03,
76,-2.40e-03,
77,3.20e-03,
78,2.40e-03,
79,-2.40e-03,
80,2.40e-03,
81,-2.00e-03,
82,2.40e-03,
83,-1.60e-03,
84,-2.40e-03,
85,2.40e-03,
86,-1.60e-03,
87,2.40e-03,
88,-2.40e-03,
89,2.80e-03,
90,2.40e-03,
91,-2.40e-03,
92,2.80e-03,
93,-1.60e-03,
94,-1.60e-03,
95,3.20e-03,
96,3.20e-03,
97,-2.40e-03,
98,2.40e-03,
99,-2.40e-03,
100,-2.40e-03,
101,4.00e-03,
102,-1.60e-03,
103,2.80e-03,
104,2.40e-03,
105,-2.40e-03,
106,-1.60e-03,
107,3.20e-03,
108,-2.40e-03,
109,3.20e-03,
110,2.40e-03,
111,-1.60e-03,
112,-1.60e-03,
113,3.20e-03,
114,3.20e-03,
115,-2.40e-03,
116,2.40e-03,
117,-2.40e-03,
118,3.20e-03,
119,-2.40e-03,
120,2.40e-03,
121,-2.40e-03,
122,3.20e-03,
123,-3.20e-03,
124,2.80e-03,
125,-3.20e-03,
126,3.20e-03,
127,-2.40e-03,
128,-2.40e-03,
129,3.20e-03,
130,3.20e-03,
131,-2.40e-03,
132,2.40e-03,
133,-1.60e-03,
134,4.00e-03,
135,-2.80e-03,
136,-2.40e-03,
137,3.20e-03,
138,2.40e-03,
139,-2.40e-03,
140,3.20e-03,
141,-2.40e-03,
142,-2.40e-03,
143,2.40e-03,
144,-3.20e-03,
145,2.40e-03,
146,-2.40e-03,
147,3.20e-03,
148,2.40e-03,
149,-2.40e-03,
150,-2.40e-03,
151,3.20e-03,
152,-3.20e-03,
153,2.40e-03,
154,-2.40e-03,
155,2.40e-03,
156,-2.40e-03,
157,3.20e-03,
158,3.20e-03,
159,-2.40e-03,
160,2.80e-03,
161,-2.40e-03,
162,2.40e-03,
163,-2.40e-03,
164,-2.40e-03,
165,3.20e-03,
166,-2.40e-03,
167,3.20e-03,
168,-1.60e-03,
169,2.40e-03,
170,2.40e-03,
171,-1.60e-03,
172,-2.40e-03,
173,3.20e-03,
174,2.00e-03,
175,-3.20e-03,
176,2.40e-03,
177,-2.40e-03,
178,3.20e-03,
179,-1.60e-03,
180,-1.60e-03,
181,4.80e-03,
182,2.40e-03,
183,-1.60e-03,
184,2.40e-03,
185,-1.60e-03,
186,2.40e-03,
187,-2.40e-03,
188,-2.40e-03,
189,3.20e-03,
190,-2.40e-03,
191,2.80e-03,
192,3.20e-03,
193,-2.40e-03,
194,-2.40e-03,
195,2.40e-03,
196,-1.60e-03,
197,3.20e-03,
198,3.20e-03,
199,-2.40e-03,
200,2.40e-03,
201,-3.20e-03,
202,2.40e-03,
203,-3.20e-03,
204,-2.40e-03,
205,3.20e-03,
206,-1.60e-03,
207,2.40e-03,
208,-2.40e-03,
209,2.40e-03,
210,3.20e-03,
211,-2.40e-03,
212,-1.60e-03,
213,3.20e-03,
214,2.40e-03,
215,-2.40e-03,
216,-1.60e-03,
217,3.20e-03,
218,2.40e-03,
219,-2.40e-03,
220,-2.40e-03,
221,3.20e-03,
222,-1.60e-03,
223,3.20e-03,
224,2.80e-03,
225,-2.40e-03,
226,2.40e-03,
227,-2.40e-03,
228,3.20e-03,
229,-2.40e-03,
230,-2.40e-03,
231,3.20e-03,
232,-1.60e-03,
233,2.40e-03,
234,-1.60e-03,
235,3.20e-03,
236,2.40e-03,
237,-2.40e-03,
238,3.20e-03,
239,-1.60e-03,
240,-2.40e-03,
241,3.20e-03,
242,3.20e-03,
243,-3.20e-03,
244,-1.60e-03,
245,4.00e-03,
246,-1.60e-03,
247,3.20e-03,
248,-1.60e-03,
249,3.20e-03,
250,3.20e-03,
251,-1.60e-03,
252,2.40e-03,
253,-1.60e-03,
254,-2.80e-03,
255,2.40e-03,
256,2.40e-03,
257,-2.40e-03,
258,-2.40e-03,
259,3.20e-03,
260,4.00e-03,
261,-2.40e-03,
262,2.40e-03,
263,-2.40e-03,
264,-2.40e-03,
265,3.20e-03,
266,3.20e-03,
267,-2.40e-03,
268,-3.20e-03,
269,3.20e-03,
270,-2.40e-03,
271,3.20e-03,
272,-1.60e-03,
273,3.20e-03,
274,3.20e-03,
275,-1.60e-03,
276,-1.60e-03,
277,3.20e-03,
278,-3.20e-03,
279,2.80e-03,
280,-1.60e-03,
281,3.20e-03,
282,2.40e-03,
283,-2.40e-03,
284,3.20e-03,
285,-1.60e-03,
286,-1.60e-03,
287,2.80e-03,
288,-1.60e-03,
289,3.20e-03,
290,2.80e-03,
291,-2.40e-03,
292,-2.40e-03,
293,4.00e-03,
294,-2.40e-03,
295,3.20e-03,
296,-1.60e-03,
297,3.20e-03,
298,-1.60e-03,
299,3.20e-03,
300,2.80e-03,
301,-2.40e-03,
302,3.20e-03,
303,-1.60e-03,
304,2.40e-03,
305,-2.40e-03,
306,-1.60e-03,
307,2.40e-03,
308,2.40e-03,
309,-2.40e-03,
310,-1.60e-03,
311,3.20e-03,
312,-1.60e-03,
313,3.20e-03,
314,3.20e-03,
315,-2.40e-03,
316,3.20e-03,
317,-2.40e-03,
318,2.40e-03,
319,-2.40e-03,
320,-1.60e-03,
321,3.20e-03,
322,-2.40e-03,
323,3.20e-03,
324,2.40e-03,
325,-2.40e-03,
326,3.20e-03,
327,-2.40e-03,
328,3.20e-03,
329,-2.40e-03,
330,-1.60e-03,
331,2.40e-03,
332,-1.60e-03,
333,3.20e-03,
334,-2.40e-03,
335,3.20e-03,
336,-2.40e-03,
337,2.40e-03,
338,2.40e-03,
339,-2.40e-03,
340,2.40e-03,
341,-2.40e-03,
342,-2.40e-03,
343,3.20e-03,
344,-2.40e-03,
345,3.20e-03,
346,-1.60e-03,
347,2.40e-03,
348,-2.40e-03,
349,3.20e-03,
350,2.40e-03,
351,-2.40e-03,
352,-2.40e-03,
353,3.20e-03,
354,2.80e-03,
355,-2.40e-03,
356,-1.60e-03,
357,2.80e-03,
358,2.40e-03,
359,-2.80e-03,
360,4.00e-03,
361,-1.60e-03,
362,-1.60e-03,
363,3.20e-03,
364,2.40e-03,
365,-2.40e-03,
366,2.40e-03,
367,-1.60e-03,
368,-1.60e-03,
369,3.20e-03,
370,-2.40e-03,
371,3.20e-03,
372,-1.60e-03,
373,2.40e-03,
374,2.80e-03,
375,-1.60e-03,
376,2.40e-03,
377,-2.40e-03,
378,2.40e-03,
379,-2.40e-03,
380,-1.60e-03,
381,2.40e-03,
382,2.40e-03,
383,-2.40e-03,
384,-2.40e-03,
385,3.20e-03,
386,-1.60e-03,
387,3.20e-03,
388,-1.60e-03,
389,2.40e-03,
390,3.20e-03,
391,-2.40e-03,
392,-1.60e-03,
393,2.80e-03,
394,3.20e-03,
395,-2.40e-03,
396,-2.40e-03,
397,3.20e-03,
398,2.40e-03,
399,-1.60e-03,
400,3.20e-03,
401,-3.20e-03,
402,-1.60e-03,
403,2.40e-03,
404,-1.60e-03,
405,2.40e-03,
406,2.40e-03,
407,-2.40e-03,
408,-1.60e-03,
409,2.40e-03,
410,-2.40e-03,
411,2.80e-03,
412,2.40e-03,
413,-2.40e-03,
414,-3.20e-03,
415,2.40e-03,
416,3.20e-03,
417,-2.40e-03,
418,-1.60e-03,
419,2.40e-03,
420,-2.40e-03,
421,3.20e-03,
422,-1.60e-03,
423,3.20e-03,
424,-1.60e-03,
425,3.20e-03,
426,2.40e-03,
427,-2.40e-03,
428,2.40e-03,
429,-2.40e-03,
430,-2.40e-03,
431,2.80e-03,
432,-2.40e-03,
433,3.20e-03,
434,3.20e-03,
435,-2.40e-03,
436,-2.40e-03,
437,3.20e-03,
438,-2.40e-03,
439,2.40e-03,
440,-2.40e-03,
441,3.20e-03,
442,-2.40e-03,
443,3.20e-03,
444,-2.40e-03,
445,2.40e-03,
446,-1.60e-03,
447,4.00e-03,
448,-2.40e-03,
449,3.20e-03,
450,2.40e-03,
451,-2.00e-03,
452,3.20e-03,
453,-2.40e-03,
454,2.40e-03,
455,-2.40e-03,
456,-1.60e-03,
457,2.40e-03,
458,-1.60e-03,
459,2.40e-03,
460,-1.60e-03,
461,3.20e-03,
462,-2.80e-03,
463,3.20e-03,
464,-2.00e-03,
465,3.20e-03,
466,2.40e-03,
467,-2.40e-03,
468,3.20e-03,
469,-2.40e-03,
470,-2.40e-03,
471,2.40e-03,
472,-1.60e-03,
473,3.20e-03,
474,-1.60e-03,
475,3.20e-03,
476,-1.60e-03,
477,3.20e-03,
478,3.20e-03,
479,-1.60e-03,
480,-1.60e-03,
481,2.40e-03,
482,-2.40e-03,
483,3.20e-03,
484,-1.60e-03,
485,3.20e-03,
486,-2.00e-03,
487,3.20e-03,
488,2.40e-03,
489,-2.40e-03,
490,-1.60e-03,
491,2.40e-03,
492,-1.60e-03,
493,3.20e-03,
494,-2.40e-03,
495,3.20e-03,
496,-1.60e-03,
497,3.20e-03,
498,-1.60e-03,
499,3.20e-03,
500,2.40e-03,
501,-1.60e-03,
502,-1.60e-03,
503,4.00e-03,
504,3.20e-03,
505,-2.40e-03,
506,3.20e-03,
507,-2.40e-03,
508,-2.40e-03,
509,3.20e-03,
510,3.20e-03,
511,-1.60e-03,
512,-2.40e-03,
513,3.20e-03,
514,2.40e-03,
515,-1.60e-03,
516,-1.60e-03,
517,3.20e-03,
518,3.20e-03,
519,-1.60e-03,
520,-2.40e-03,
521,3.20e-03,
522,-1.60e-03,
523,3.20e-03,
524,-2.40e-03,
525,3.20e-03,
526,3.20e-03,
527,-1.60e-03,
528,2.80e-03,
529,-2.40e-03,
530,3.20e-03,
531,-2.40e-03,
532,3.20e-03,
533,-2.40e-03,
534,-2.40e-03,
535,3.20e-03,
536,3.20e-03,
537,-2.40e-03,
538,3.20e-03,
539,-1.60e-03,
540,-1.60e-03,
541,3.20e-03,
542,-2.40e-03,
543,4.00e-03,
544,3.20e-03,
545,-2.40e-03,
546,3.20e-03,
547,-1.60e-03,
548,-1.60e-03,
549,4.00e-03,
550,2.40e-03,
551,-2.40e-03,
552,-2.40e-03,
553,2.80e-03,
554,2.40e-03,
555,-2.40e-03,
556,-1.60e-03,
557,2.80e-03,
558,-1.60e-03,
559,3.20e-03,
560,-1.60e-03,
561,4.00e-03,
562,3.20e-03,
563,-2.40e-03,
564,-2.40e-03,
565,3.20e-03,
566,-1.60e-03,
567,2.80e-03,
568,3.20e-03,
569,-2.40e-03,
570,-1.60e-03,
571,3.20e-03,
572,3.20e-03,
573,-1.60e-03,
574,3.20e-03,
575,-1.60e-03,
576,-1.60e-03,
577,3.20e-03,
578,3.20e-03,
579,-2.40e-03,
580,-2.40e-03,
581,4.00e-03,
582,2.40e-03,
583,-2.40e-03,
584,-2.40e-03,
585,3.20e-03,
586,2.40e-03,
587,-2.40e-03,
588,-2.40e-03,
589,2.40e-03,
590,3.20e-03,
591,-1.60e-03,
592,2.40e-03,
593,-2.40e-03,
594,3.20e-03,
595,-2.40e-03,
596,-1.60e-03,
597,4.00e-03,
598,2.40e-03,
599,-2.40e-03,
600,-2.40e-03,
601,3.20e-03,
602,-1.60e-03,
603,3.20e-03,
604,-1.60e-03,
605,3.20e-03,
606,-2.40e-03,
607,3.20e-03,
608,-1.60e-03,
609,3.20e-03,
610,2.40e-03,
611,-2.40e-03,
612,-1.60e-03,
613,3.20e-03,
614,3.20e-03,
615,-3.20e-03,
616,3.20e-03,
617,-2.40e-03,
618,-2.40e-03,
619,3.20e-03,
620,3.20e-03,
621,-2.40e-03,
622,-2.40e-03,
623,3.20e-03,
624,-1.60e-03,
625,3.20e-03,
626,3.20e-03,
627,-1.60e-03,
628,-3.20e-03,
629,2.40e-03,
630,-2.40e-03,
631,2.40e-03,
632,-3.20e-03,
633,4.00e-03,
634,2.40e-03,
635,-2.40e-03,
636,-2.40e-03,
637,4.00e-03,
638,-2.40e-03,
639,3.20e-03,
640,-2.40e-03,
641,3.20e-03,
642,3.20e-03,
643,-2.40e-03,
644,-2.40e-03,
645,3.20e-03,
646,-2.40e-03,
647,3.20e-03,
648,-2.40e-03,
649,3.20e-03,
650,-3.20e-03,
651,3.20e-03,
652,-1.60e-03,
653,3.20e-03,
654,-1.60e-03,
655,3.20e-03,
656,3.20e-03,
657,-2.40e-03,
658,-1.60e-03,
659,4.00e-03,
660,-2.40e-03,
661,2.40e-03,
662,-1.60e-03,
663,3.20e-03,
664,-1.60e-03,
665,3.20e-03,
666,-2.40e-03,
667,3.20e-03,
668,3.20e-03,
669,-3.20e-03,
670,3.20e-03,
671,-2.40e-03,
672,3.20e-03,
673,-2.40e-03,
674,3.60e-03,
675,-1.60e-03,
676,-2.40e-03,
677,3.20e-03,
678,2.80e-03,
679,-3.20e-03,
680,-2.40e-03,
681,3.20e-03,
682,2.40e-03,
683,-2.40e-03,
684,2.40e-03,
685,-2.40e-03,
686,4.00e-03,
687,-1.60e-03,
688,3.20e-03,
689,-2.40e-03,
690,-2.40e-03,
691,3.20e-03,
692,2.40e-03,
693,-1.60e-03,
694,-1.60e-03,
695,3.20e-03,
696,4.00e-03,
697,-1.60e-03,
698,-1.60e-03,
699,3.20e-03,
700,2.40e-03,
701,-3.20e-03,
702,3.20e-03,
703,-2.80e-03,
704,-1.60e-03,
705,4.00e-03,
706,3.20e-03,
707,-2.40e-03,
708,3.20e-03,
709,-2.40e-03,
710,-1.60e-03,
711,3.20e-03,
712,2.40e-03,
713,-2.40e-03,
714,-2.80e-03,
715,3.20e-03,
716,3.20e-03,
717,-2.40e-03,
718,-2.40e-03,
719,3.20e-03,
720,3.20e-03,
721,-2.40e-03,
722,-1.60e-03,
723,3.20e-03,
724,2.80e-03,
725,-2.40e-03,
726,2.80e-03,
727,-1.60e-03,
728,3.20e-03,
729,-2.40e-03,
730,-1.60e-03,
731,4.00e-03,
732,3.20e-03,
733,-2.00e-03,
734,-1.60e-03,
735,3.20e-03,
736,2.40e-03,
737,-2.40e-03,
738,-2.40e-03,
739,4.00e-03,
740,-2.40e-03,
741,3.20e-03,
742,-1.60e-03,
743,3.20e-03,
744,2.40e-03,
745,-3.20e-03,
746,-2.40e-03,
747,3.20e-03,
748,-1.60e-03,
749,4.00e-03,
750,2.80e-03,
751,-2.40e-03,
752,-2.40e-03,
753,3.20e-03,
754,3.20e-03,
755,-2.40e-03,
756,-3.20e-03,
757,2.80e-03,
758,-2.40e-03,
759,3.20e-03,
760,-1.60e-03,
761,3.20e-03,
762,2.40e-03,
763,-2.40e-03,
764,3.20e-03,
765,-2.40e-03,
766,-2.40e-03,
767,3.20e-03,
768,3.20e-03,
769,-2.40e-03,
770,-2.40e-03,
771,3.20e-03,
772,-1.60e-03,
773,3.20e-03,
774,-2.40e-03,
775,4.00e-03,
776,-1.60e-03,
777,3.20e-03,
778,3.20e-03,
779,-2.40e-03,
780,-1.60e-03,
781,4.00e-03,
782,4.00e-03,
783,-1.60e-03,
784,-2.40e-03,
785,4.00e-03,
786,-3.20e-03,
787,3.20e-03,
788,-1.60e-03,
789,4.00e-03,
790,-2.40e-03,
791,4.00e-03,
792,-2.40e-03,
793,3.20e-03,
794,3.20e-03,
795,-2.40e-03,
796,-1.60e-03,
797,3.20e-03,
798,-1.60e-03,
799,4.00e-03,
800,3.20e-03,
801,-2.40e-03,
802,3.20e-03,
803,-1.60e-03,
804,-2.40e-03,
805,3.20e-03,
806,2.40e-03,
807,-2.40e-03,
808,-1.60e-03,
809,3.60e-03,
810,-2.40e-03,
811,3.20e-03,
812,-2.40e-03,
813,4.80e-03,
814,4.00e-03,
815,-1.60e-03,
816,-2.40e-03,
817,3.20e-03,
818,-1.60e-03,
819,4.00e-03,
820,3.20e-03,
821,-1.60e-03,
822,-1.60e-03,
823,3.20e-03,
824,3.20e-03,
825,-1.60e-03,
826,3.60e-03,
827,-2.40e-03,
828,2.40e-03,
829,-1.60e-03,
830,3.60e-03,
831,-1.60e-03,
832,3.20e-03,
833,-2.40e-03,
834,-2.40e-03,
835,4.00e-03,
836,-2.40e-03,
837,3.60e-03,
838,-2.40e-03,
839,3.20e-03,
840,3.20e-03,
841,-2.40e-03,
842,3.60e-03,
843,-2.40e-03,
844,-2.00e-03,
845,4.00e-03,
846,-2.40e-03,
847,3.20e-03,
848,-2.40e-03,
849,3.20e-03,
850,-1.60e-03,
851,3.20e-03,
852,-2.40e-03,
853,4.00e-03,
854,3.20e-03,
855,-1.60e-03,
856,-2.40e-03,
857,3.20e-03,
858,-1.60e-03,
859,2.40e-03,
860,-1.60e-03,
861,2.80e-03,
862,-2.40e-03,
863,3.20e-03,
864,-1.60e-03,
865,3.20e-03,
866,-2.40e-03,
867,3.20e-03,
868,-2.40e-03,
869,3.20e-03,
870,3.20e-03,
871,-2.40e-03,
872,-1.60e-03,
873,3.20e-03,
874,-2.40e-03,
875,3.20e-03,
876,-1.60e-03,
877,3.20e-03,
878,4.00e-03,
879,-2.40e-03,
880,-2.40e-03,
881,3.20e-03,
882,-2.40e-03,
883,2.40e-03,
884,2.40e-03,
885,-3.20e-03,
886,3.20e-03,
887,-2.00e-03,
888,-2.40e-03,
889,3.20e-03,
890,-2.40e-03,
891,4.00e-03,
892,3.20e-03,
893,-2.40e-03,
894,-1.60e-03,
895,3.20e-03,
896,-2.40e-03,
897,2.80e-03,
898,-2.40e-03,
899,3.20e-03,
900,2.40e-03,
901,-2.40e-03,
902,-1.60e-03,
903,3.20e-03,
904,-2.40e-03,
905,2.40e-03,
906,3.20e-03,
907,-2.40e-03,
908,2.40e-03,
909,-3.20e-03,
910,-2.40e-03,
911,3.20e-03,
912,-1.60e-03,
913,4.00e-03,
914,-1.60e-03,
915,3.20e-03,
916,3.20e-03,
917,-1.60e-03,
918,4.80e-03,
919,-1.60e-03,
920,3.20e-03,
921,-2.40e-03,
922,-2.40e-03,
923,3.20e-03,
924,4.00e-03,
925,-2.40e-03,
926,-2.40e-03,
927,2.80e-03,
928,-1.60e-03,
929,4.00e-03,
930,4.00e-03,
931,-2.40e-03,
932,2.40e-03,
933,-2.40e-03,
934,-2.00e-03,
935,3.20e-03,
936,-2.00e-03,
937,3.20e-03,
938,-2.40e-03,
939,3.20e-03,
940,-1.60e-03,
941,3.20e-03,
942,-2.40e-03,
943,3.20e-03,
944,3.20e-03,
945,-2.40e-03,
946,-3.20e-03,
947,3.20e-03,
948,3.20e-03,
949,-2.00e-03,
950,-2.40e-03,
951,3.20e-03,
952,3.20e-03,
953,-2.40e-03,
954,2.40e-03,
955,-2.40e-03,
956,4.00e-03,
957,-2.40e-03,
958,-2.40e-03,
959,2.80e-03,
960,-1.60e-03,
961,3.20e-03,
962,-1.60e-03,
963,3.20e-03,
964,-1.60e-03,
965,3.20e-03,
966,3.20e-03,
967,-1.60e-03,
968,3.20e-03,
969,-2.40e-03,
970,3.20e-03,
971,-1.60e-03,
972,-2.40e-03,
973,3.20e-03,
974,3.20e-03,
975,-1.60e-03,
976,3.20e-03,
977,-1.60e-03,
978,-1.60e-03,
979,4.00e-03,
980,-1.60e-03,
981,3.20e-03,
982,-1.60e-03,
983,4.00e-03,
984,4.00e-03,
985,-2.40e-03,
986,4.00e-03,
987,-1.60e-03,
988,-1.60e-03,
989,3.20e-03,
990,3.20e-03,
991,-2.40e-03,
992,-1.60e-03,
993,3.20e-03,
994,-2.00e-03,
995,4.00e-03,
996,-2.40e-03,
997,3.20e-03,
998,-1.60e-03,
999,4.00e-03,
1000,3.20e-03,
1001,-2.40e-03,
1002,-2.40e-03,
1003,3.20e-03,
1004,4.00e-03,
1005,-2.40e-03,
1006,3.20e-03,
1007,-2.40e-03,
1008,3.20e-03,
1009,-2.40e-03,
1010,3.20e-03,
1011,-2.40e-03,
1012,3.20e-03,
1013,-2.40e-03,
1014,4.00e-03,
1015,-2.40e-03,
1016,3.60e-03,
1017,-1.60e-03,
1018,-3.20e-03,
1019,3.20e-03,
1020,2.40e-03,
1021,-2.40e-03,
1022,3.20e-03,
1023,-2.40e-03,
1024,-2.40e-03,
1025,4.00e-03,
1026,-1.60e-03,
1027,2.80e-03,
1028,3.20e-03,
1029,-2.40e-03,
1030,-1.60e-03,
1031,2.40e-03,
1032,3.60e-03,
1033,-1.60e-03,
1034,-1.60e-03,
1035,4.00e-03,
1036,2.40e-03,
1037,-2.40e-03,
1038,-1.60e-03,
1039,3.20e-03,
1040,3.20e-03,
1041,-2.00e-03,
1042,2.40e-03,
1043,-2.40e-03,
1044,-1.60e-03,
1045,4.00e-03,
1046,3.20e-03,
1047,-2.40e-03,
1048,-1.60e-03,
1049,3.20e-03,
1050,2.40e-03,
1051,-3.20e-03,
1052,2.40e-03,
1053,-2.40e-03,
1054,-1.60e-03,
1055,4.00e-03,
1056,-2.40e-03,
1057,4.00e-03,
1058,-2.40e-03,
1059,3.20e-03,
1060,3.20e-03,
1061,-2.40e-03,
1062,3.20e-03,
1063,-1.60e-03,
1064,4.80e-03,
1065,-2.40e-03,
1066,3.20e-03,
1067,-2.00e-03,
1068,-2.40e-03,
1069,3.20e-03,
1070,3.20e-03,
1071,-2.40e-03,
1072,2.40e-03,
1073,-2.00e-03,
1074,3.20e-03,
1075,-2.40e-03,
1076,-2.40e-03,
1077,2.40e-03,
1078,-2.40e-03,
1079,3.20e-03,
1080,-2.40e-03,
1081,3.20e-03,
1082,-1.60e-03,
1083,2.40e-03,
1084,-2.40e-03,
1085,4.00e-03,
1086,4.00e-03,
1087,-3.20e-03,
1088,3.20e-03,
1089,-1.60e-03,
1090,-1.60e-03,
1091,4.80e-03,
1092,3.20e-03,
1093,-2.40e-03,
1094,-2.40e-03,
1095,3.20e-03,
1096,-1.60e-03,
1097,2.40e-03,
1098,-1.60e-03,
1099,3.20e-03,
1100,-2.40e-03,
1101,2.80e-03,
1102,-2.40e-03,
1103,4.40e-03,
1104,4.80e-03,
1105,-2.40e-03,
1106,-1.60e-03,
1107,3.20e-03,
1108,3.20e-03,
1109,-1.60e-03,
1110,3.20e-03,
1111,-1.60e-03,
