fastdiffamp/data-noise-set/strong-balanced/NewFile7.csv

X,CH1,Start,Increment,
Sequence,Volt,-1.148000e+01,2.000000e-02
0,-1.20e-03,
1,3.60e-03,
2,-1.60e-03,
3,2.00e-03,
4,-1.60e-03,
5,3.20e-03,
6,-1.60e-03,
7,2.80e-03,
8,-1.60e-03,
9,2.80e-03,
10,-2.40e-03,
11,3.20e-03,
12,-1.60e-03,
13,2.40e-03,
14,-1.60e-03,
15,3.20e-03,
16,-1.60e-03,
17,3.20e-03,
18,2.40e-03,
19,-1.60e-03,
20,-1.60e-03,
21,2.40e-03,
22,2.40e-03,
23,-2.40e-03,
24,-1.60e-03,
25,3.20e-03,
26,2.40e-03,
27,-8.00e-04,
28,3.20e-03,
29,-1.60e-03,
30,3.20e-03,
31,-8.00e-04,
32,-2.40e-03,
33,2.40e-03,
34,-1.60e-03,
35,2.40e-03,
36,2.40e-03,
37,-1.60e-03,
38,-1.60e-03,
39,3.20e-03,
40,-1.60e-03,
41,3.20e-03,
42,-1.60e-03,
43,3.20e-03,
44,2.40e-03,
45,-1.60e-03,
46,-1.60e-03,
47,3.20e-03,
48,2.40e-03,
49,-1.60e-03,
50,3.20e-03,
51,-2.40e-03,
52,-8.00e-04,
53,2.80e-03,
54,2.40e-03,
55,-1.60e-03,
56,2.40e-03,
57,-2.40e-03,
58,-1.60e-03,
59,2.40e-03,
60,-2.40e-03,
61,2.40e-03,
62,-1.60e-03,
63,1.60e-03,
64,2.40e-03,
65,-1.60e-03,
66,1.60e-03,
67,-1.60e-03,
68,-1.60e-03,
69,2.40e-03,
70,2.40e-03,
71,-1.60e-03,
72,1.60e-03,
73,-1.60e-03,
74,-1.60e-03,
75,2.40e-03,
76,2.40e-03,
77,-2.40e-03,
78,-1.60e-03,
79,2.40e-03,
80,-8.00e-04,
81,3.20e-03,
82,-2.40e-03,
83,2.80e-03,
84,-1.60e-03,
85,2.40e-03,
86,2.40e-03,
87,-2.40e-03,
88,-1.60e-03,
89,2.40e-03,
90,-1.20e-03,
91,3.20e-03,
92,-1.60e-03,
93,3.20e-03,
94,-1.60e-03,
95,3.20e-03,
96,2.40e-03,
97,-1.60e-03,
98,2.40e-03,
99,-1.60e-03,
100,3.20e-03,
101,-1.60e-03,
102,2.40e-03,
103,-1.60e-03,
104,-1.60e-03,
105,2.40e-03,
106,2.40e-03,
107,-1.60e-03,
108,-1.60e-03,
109,2.40e-03,
110,-1.60e-03,
111,2.40e-03,
112,-8.00e-04,
113,2.40e-03,
114,2.80e-03,
115,-1.60e-03,
116,3.20e-03,
117,-2.40e-03,
118,-2.40e-03,
119,3.20e-03,
120,-2.40e-03,
121,2.00e-03,
122,-1.60e-03,
123,3.20e-03,
124,-1.60e-03,
125,1.60e-03,
126,2.80e-03,
127,-1.60e-03,
128,-2.40e-03,
129,2.40e-03,
130,3.20e-03,
131,-1.60e-03,
132,-1.60e-03,
133,2.40e-03,
134,2.40e-03,
135,-2.40e-03,
136,2.40e-03,
137,-8.00e-04,
138,2.40e-03,
139,-1.60e-03,
140,-1.60e-03,
141,2.40e-03,
142,2.40e-03,
143,-1.60e-03,
144,2.40e-03,
145,-1.60e-03,
146,1.60e-03,
147,-2.40e-03,
148,-2.40e-03,
149,3.20e-03,
150,-2.40e-03,
151,2.40e-03,
152,-8.00e-04,
153,2.40e-03,
154,2.40e-03,
155,-1.20e-03,
156,-1.60e-03,
157,3.20e-03,
158,2.40e-03,
159,-1.60e-03,
160,2.40e-03,
161,-1.60e-03,
162,-1.60e-03,
163,3.20e-03,
164,-1.60e-03,
165,2.40e-03,
166,3.20e-03,
167,-2.40e-03,
168,-1.60e-03,
169,2.80e-03,
170,2.40e-03,
171,-1.60e-03,
172,-8.00e-04,
173,3.20e-03,
174,2.80e-03,
175,-1.60e-03,
176,2.40e-03,
177,-1.60e-03,
178,2.80e-03,
179,-1.60e-03,
180,2.40e-03,
181,-1.60e-03,
182,-1.60e-03,
183,2.00e-03,
184,-1.60e-03,
185,3.20e-03,
186,2.40e-03,
187,-2.40e-03,
188,2.40e-03,
189,-2.40e-03,
190,2.40e-03,
191,-2.40e-03,
192,2.40e-03,
193,-1.60e-03,
194,-1.60e-03,
195,2.00e-03,
196,2.40e-03,
197,-1.60e-03,
198,-1.60e-03,
199,1.60e-03,
200,-1.60e-03,
201,2.80e-03,
202,2.40e-03,
203,-2.40e-03,
204,-2.40e-03,
205,2.40e-03,
206,-1.60e-03,
207,2.00e-03,
208,3.20e-03,
209,-2.40e-03,
210,2.40e-03,
211,-1.60e-03,
212,-8.00e-04,
213,2.40e-03,
214,-1.60e-03,
215,3.20e-03,
216,2.80e-03,
217,-2.40e-03,
218,-1.60e-03,
219,2.40e-03,
220,2.40e-03,
221,-2.40e-03,
222,-2.40e-03,
223,2.00e-03,
224,2.40e-03,
225,-2.40e-03,
226,-1.60e-03,
227,3.20e-03,
228,2.80e-03,
229,-1.60e-03,
230,-1.60e-03,
231,3.20e-03,
232,2.40e-03,
233,-2.40e-03,
234,-1.60e-03,
235,3.20e-03,
236,2.40e-03,
237,-1.60e-03,
238,2.40e-03,
239,-2.40e-03,
240,2.40e-03,
241,-1.60e-03,
242,-1.60e-03,
243,2.40e-03,
244,-1.60e-03,
245,3.20e-03,
246,-1.60e-03,
247,2.40e-03,
248,-1.60e-03,
249,3.20e-03,
250,2.40e-03,
251,-1.60e-03,
252,2.00e-03,
253,-1.60e-03,
254,-1.60e-03,
255,3.20e-03,
256,3.20e-03,
257,-1.60e-03,
258,3.20e-03,
259,-1.60e-03,
260,-1.60e-03,
261,3.20e-03,
262,-8.00e-04,
263,2.40e-03,
264,-1.60e-03,
265,2.00e-03,
266,2.40e-03,
267,-1.60e-03,
268,-1.60e-03,
269,2.40e-03,
270,-1.60e-03,
271,3.20e-03,
272,-8.00e-04,
273,2.40e-03,
274,2.40e-03,
275,-2.40e-03,
276,-1.60e-03,
277,3.20e-03,
278,3.20e-03,
279,-2.40e-03,
280,-1.60e-03,
281,2.80e-03,
282,2.40e-03,
283,-1.60e-03,
284,-8.00e-04,
285,3.20e-03,
286,3.20e-03,
287,-2.40e-03,
288,-2.40e-03,
289,2.80e-03,
290,3.20e-03,
291,-1.60e-03,
292,2.40e-03,
293,-1.60e-03,
294,2.40e-03,
295,-1.60e-03,
296,3.20e-03,
297,-1.60e-03,
298,2.40e-03,
299,-8.00e-04,
300,-1.60e-03,
301,3.20e-03,
302,3.20e-03,
303,-8.00e-04,
304,2.40e-03,
305,-1.60e-03,
306,-1.60e-03,
307,2.40e-03,
308,-1.60e-03,
309,3.20e-03,
310,2.80e-03,
311,-8.00e-04,
312,2.80e-03,
313,-1.60e-03,
314,-1.60e-03,
315,2.80e-03,
316,3.20e-03,
317,-1.60e-03,
318,2.80e-03,
319,-1.60e-03,
320,-8.00e-04,
321,3.20e-03,
322,2.40e-03,
323,-1.60e-03,
324,-1.60e-03,
325,3.20e-03,
326,2.40e-03,
327,-1.60e-03,
328,-2.40e-03,
329,2.40e-03,
330,2.40e-03,
331,-8.00e-04,
332,-1.60e-03,
333,2.80e-03,
334,-8.00e-04,
335,2.40e-03,
336,2.40e-03,
337,-2.40e-03,
338,3.20e-03,
339,-1.60e-03,
340,-1.60e-03,
341,2.40e-03,
342,2.40e-03,
343,-1.60e-03,
344,2.40e-03,
345,-1.60e-03,
346,-8.00e-04,
347,2.40e-03,
348,2.40e-03,
349,-1.60e-03,
350,3.20e-03,
351,-1.60e-03,
352,-1.60e-03,
353,2.40e-03,
354,-1.60e-03,
355,2.40e-03,
356,-1.60e-03,
357,2.40e-03,
358,-1.60e-03,
359,2.40e-03,
360,2.40e-03,
361,-1.60e-03,
362,-1.60e-03,
363,1.60e-03,
364,-1.60e-03,
365,3.20e-03,
366,2.40e-03,
367,-1.60e-03,
368,2.40e-03,
369,-1.60e-03,
370,-8.00e-04,
371,4.00e-03,
372,-1.60e-03,
373,2.40e-03,
374,-1.60e-03,
375,2.40e-03,
376,2.80e-03,
377,-1.60e-03,
378,-2.40e-03,
379,3.20e-03,
380,2.40e-03,
381,-1.60e-03,
382,3.20e-03,
383,-1.60e-03,
384,2.40e-03,
385,-2.00e-03,
386,-1.60e-03,
387,2.40e-03,
388,-1.60e-03,
389,2.40e-03,
390,-1.60e-03,
391,2.40e-03,
392,-1.60e-03,
393,2.80e-03,
394,2.00e-03,
395,-1.60e-03,
396,2.40e-03,
397,-8.00e-04,
398,2.40e-03,
399,-1.20e-03,
400,-1.60e-03,
401,2.40e-03,
402,-1.60e-03,
403,3.20e-03,
404,4.00e-03,
405,-8.00e-04,
406,-1.60e-03,
407,2.40e-03,
408,2.40e-03,
409,-1.60e-03,
410,2.40e-03,
411,-1.60e-03,
412,2.00e-03,
413,-1.60e-03,
414,2.40e-03,
415,-8.00e-04,
416,2.40e-03,
417,-2.40e-03,
418,-1.60e-03,
419,2.40e-03,
420,-1.60e-03,
421,3.20e-03,
422,-1.60e-03,
423,2.40e-03,
424,-2.40e-03,
425,2.40e-03,
426,-1.60e-03,
427,2.40e-03,
428,-1.60e-03,
429,2.40e-03,
430,-1.60e-03,
431,2.40e-03,
432,-2.40e-03,
433,2.40e-03,
434,-8.00e-04,
435,2.40e-03,
436,-1.60e-03,
437,2.80e-03,
438,-8.00e-04,
439,3.20e-03,
440,-1.60e-03,
441,2.80e-03,
442,-8.00e-04,
443,2.80e-03,
444,-1.60e-03,
445,2.40e-03,
446,-2.40e-03,
447,2.40e-03,
448,2.40e-03,
449,-2.40e-03,
450,-1.60e-03,
451,2.40e-03,
452,2.40e-03,
453,-1.60e-03,
454,-2.40e-03,
455,2.00e-03,
456,-1.60e-03,
457,2.40e-03,
458,2.40e-03,
459,-2.40e-03,
460,-8.00e-04,
461,3.20e-03,
462,-1.60e-03,
463,2.40e-03,
464,2.40e-03,
465,-1.60e-03,
466,2.40e-03,
467,-1.60e-03,
468,2.40e-03,
469,-2.40e-03,
470,2.40e-03,
471,-1.60e-03,
472,3.20e-03,
473,-1.60e-03,
474,2.40e-03,
475,-1.60e-03,
476,-2.40e-03,
477,2.40e-03,
478,-2.40e-03,
479,2.00e-03,
480,2.40e-03,
481,-1.60e-03,
482,-1.20e-03,
483,2.40e-03,
484,2.40e-03,
485,-1.60e-03,
486,2.40e-03,
487,-1.60e-03,
488,2.40e-03,
489,-1.60e-03,
490,2.80e-03,
491,-1.60e-03,
492,2.40e-03,
493,-1.60e-03,
494,-8.00e-04,
495,2.40e-03,
496,-1.60e-03,
497,2.40e-03,
498,-1.60e-03,
499,3.20e-03,
500,-1.60e-03,
501,2.80e-03,
502,2.40e-03,
503,-1.60e-03,
504,2.40e-03,
505,-2.40e-03,
506,-1.60e-03,
507,2.40e-03,
508,-1.60e-03,
509,2.00e-03,
510,2.40e-03,
511,-2.40e-03,
512,-2.40e-03,
513,2.40e-03,
514,-1.60e-03,
515,2.80e-03,
516,-8.00e-04,
517,2.40e-03,
518,-2.40e-03,
519,2.40e-03,
520,-2.40e-03,
521,2.00e-03,
522,-2.40e-03,
523,2.40e-03,
524,3.20e-03,
525,-1.60e-03,
526,2.40e-03,
527,-1.60e-03,
528,2.40e-03,
529,-1.60e-03,
530,-1.60e-03,
531,2.40e-03,
532,2.00e-03,
533,-1.60e-03,
534,-1.60e-03,
535,2.00e-03,
536,1.60e-03,
537,-1.60e-03,
538,-2.40e-03,
539,2.40e-03,
540,-1.60e-03,
541,2.40e-03,
542,2.40e-03,
543,-1.60e-03,
544,2.40e-03,
545,-2.40e-03,
546,-1.60e-03,
547,3.20e-03,
548,-1.60e-03,
549,3.20e-03,
550,-1.60e-03,
551,2.40e-03,
552,2.40e-03,
553,-1.60e-03,
554,-2.40e-03,
555,2.40e-03,
556,-1.60e-03,
557,3.20e-03,
558,-1.60e-03,
559,2.40e-03,
560,-1.60e-03,
561,2.00e-03,
562,-1.60e-03,
563,2.40e-03,
564,2.40e-03,
565,-1.60e-03,
566,-1.60e-03,
567,2.80e-03,
568,2.00e-03,
569,-2.40e-03,
570,-1.60e-03,
571,3.20e-03,
572,-1.60e-03,
573,2.80e-03,
574,-2.40e-03,
575,2.40e-03,
576,2.40e-03,
577,-1.60e-03,
578,-1.60e-03,
579,2.80e-03,
580,2.40e-03,
581,-1.60e-03,
582,2.40e-03,
583,-2.40e-03,
584,-1.60e-03,
585,2.40e-03,
586,2.40e-03,
587,-2.40e-03,
588,-1.60e-03,
589,2.00e-03,
590,2.40e-03,
591,-1.60e-03,
592,2.40e-03,
593,-1.60e-03,
594,2.40e-03,
595,-1.60e-03,
596,-1.60e-03,
597,2.40e-03,
598,2.80e-03,
599,-1.60e-03,
600,2.00e-03,
601,-2.40e-03,
602,-2.40e-03,
603,2.40e-03,
604,-1.60e-03,
605,2.40e-03,
606,-1.60e-03,
607,2.00e-03,
608,2.40e-03,
609,-1.60e-03,
610,-1.60e-03,
611,2.40e-03,
612,-2.40e-03,
613,2.80e-03,
614,-1.60e-03,
615,2.40e-03,
616,-1.60e-03,
617,2.40e-03,
618,-1.60e-03,
619,3.20e-03,
620,3.20e-03,
621,-8.00e-04,
622,3.20e-03,
623,-1.60e-03,
624,-8.00e-04,
625,3.20e-03,
626,2.80e-03,
627,-1.60e-03,
628,-8.00e-04,
629,2.80e-03,
630,2.40e-03,
631,-2.40e-03,
632,-1.60e-03,
633,2.40e-03,
634,2.40e-03,
635,-1.60e-03,
636,3.20e-03,
637,-1.60e-03,
638,-1.60e-03,
639,2.40e-03,
640,2.40e-03,
641,-1.60e-03,
642,-1.60e-03,
643,2.40e-03,
644,-1.60e-03,
645,2.40e-03,
646,-1.60e-03,
647,2.40e-03,
648,-2.40e-03,
649,2.40e-03,
650,-1.60e-03,
651,2.00e-03,
652,-1.60e-03,
653,2.40e-03,
654,2.40e-03,
655,-1.60e-03,
656,2.40e-03,
657,-1.60e-03,
658,2.00e-03,
659,-1.60e-03,
660,2.40e-03,
661,-1.60e-03,
662,2.00e-03,
663,-1.60e-03,
664,-1.60e-03,
665,2.40e-03,
666,2.40e-03,
667,-1.60e-03,
668,2.40e-03,
669,-2.40e-03,
670,-8.00e-04,
671,2.40e-03,
672,-8.00e-04,
673,2.40e-03,
674,3.20e-03,
675,-2.40e-03,
676,-1.60e-03,
677,2.40e-03,
678,-1.60e-03,
679,3.20e-03,
680,-1.60e-03,
681,2.40e-03,
682,2.40e-03,
683,-1.60e-03,
684,-8.00e-04,
685,2.40e-03,
686,2.40e-03,
687,-1.60e-03,
688,-8.00e-04,
689,3.20e-03,
690,-1.60e-03,
691,2.40e-03,
692,2.40e-03,
693,-1.60e-03,
694,-8.00e-04,
695,3.20e-03,
696,-1.60e-03,
697,2.40e-03,
698,2.40e-03,
699,-1.60e-03,
700,2.40e-03,
701,-1.60e-03,
702,4.00e-03,
703,-1.60e-03,
704,2.40e-03,
705,-1.60e-03,
706,-1.60e-03,
707,2.40e-03,
708,2.40e-03,
709,-1.60e-03,
710,2.40e-03,
711,-1.60e-03,
712,-2.40e-03,
713,3.20e-03,
714,-1.60e-03,
715,3.20e-03,
716,2.40e-03,
717,-1.60e-03,
718,-1.60e-03,
719,2.40e-03,
720,-2.40e-03,
721,2.40e-03,
722,-2.40e-03,
723,2.40e-03,
724,-2.40e-03,
725,2.40e-03,
726,2.40e-03,
727,-1.60e-03,
728,-2.40e-03,
729,3.20e-03,
730,-2.40e-03,
731,2.40e-03,
732,3.20e-03,
733,-2.40e-03,
734,-1.60e-03,
735,3.20e-03,
736,-2.40e-03,
737,2.40e-03,
738,-1.60e-03,
739,2.40e-03,
740,-1.60e-03,
741,2.40e-03,
742,-1.60e-03,
743,2.40e-03,
744,-1.60e-03,
745,2.40e-03,
746,-1.60e-03,
747,3.20e-03,
748,-1.60e-03,
749,3.20e-03,
750,3.20e-03,
751,-1.60e-03,
752,-1.60e-03,
753,3.20e-03,
754,-1.60e-03,
755,2.80e-03,
756,-1.60e-03,
757,2.00e-03,
758,-1.60e-03,
759,2.40e-03,
760,-2.40e-03,
761,2.40e-03,
762,2.00e-03,
763,-3.20e-03,
764,-8.00e-04,
765,2.40e-03,
766,4.00e-03,
767,-1.60e-03,
768,-1.60e-03,
769,4.00e-03,
770,-1.60e-03,
771,2.40e-03,
772,-2.40e-03,
773,3.20e-03,
774,-1.60e-03,
775,3.20e-03,
776,3.20e-03,
777,-1.60e-03,
778,-1.60e-03,
779,2.80e-03,
780,-2.40e-03,
781,3.20e-03,
782,2.40e-03,
783,-1.60e-03,
784,-2.40e-03,
785,3.20e-03,
786,-1.60e-03,
787,3.20e-03,
788,-2.40e-03,
789,2.40e-03,
790,-1.60e-03,
791,2.40e-03,
792,2.40e-03,
793,-2.40e-03,
794,2.40e-03,
795,-2.40e-03,
796,-1.60e-03,
797,2.00e-03,
798,-1.60e-03,
799,3.20e-03,
800,2.40e-03,
801,-1.60e-03,
802,-1.60e-03,
803,3.20e-03,
804,1.60e-03,
805,-1.60e-03,
806,-2.40e-03,
807,2.40e-03,
808,2.40e-03,
809,-1.60e-03,
810,-2.40e-03,
811,2.40e-03,
812,1.60e-03,
813,-1.60e-03,
814,-8.00e-04,
815,2.40e-03,
816,2.40e-03,
817,-2.40e-03,
818,2.40e-03,
819,-1.20e-03,
820,-2.40e-03,
821,3.20e-03,
822,-1.60e-03,
823,4.80e-03,
824,3.20e-03,
825,-1.60e-03,
826,-2.40e-03,
827,2.00e-03,
828,2.40e-03,
829,-2.40e-03,
830,1.60e-03,
831,-2.40e-03,
832,-1.60e-03,
833,2.80e-03,
834,-1.60e-03,
835,3.20e-03,
836,-2.40e-03,
837,2.40e-03,
838,2.40e-03,
839,-2.40e-03,
840,-2.40e-03,
841,2.40e-03,
842,-1.60e-03,
843,3.20e-03,
844,-1.60e-03,
845,1.60e-03,
846,-1.60e-03,
847,2.40e-03,
848,2.40e-03,
849,-2.40e-03,
850,2.00e-03,
851,-2.40e-03,
852,2.40e-03,
853,-1.60e-03,
854,1.60e-03,
855,-2.40e-03,
856,-1.60e-03,
857,3.20e-03,
858,1.60e-03,
859,-1.60e-03,
860,2.40e-03,
861,-2.00e-03,
862,-3.20e-03,
863,2.40e-03,
864,2.40e-03,
865,-2.40e-03,
866,2.40e-03,
867,-2.40e-03,
868,-1.60e-03,
869,2.40e-03,
870,-1.60e-03,
871,2.40e-03,
872,-1.60e-03,
873,2.40e-03,
874,-1.60e-03,
875,2.00e-03,
876,3.20e-03,
877,-2.40e-03,
878,2.40e-03,
879,-2.40e-03,
880,2.40e-03,
881,-1.60e-03,
882,-2.40e-03,
883,2.40e-03,
884,-1.60e-03,
885,2.40e-03,
886,-1.60e-03,
887,3.20e-03,
888,-1.60e-03,
889,2.00e-03,
890,2.40e-03,
891,-1.60e-03,
892,-2.40e-03,
893,2.40e-03,
894,-2.40e-03,
895,2.40e-03,
896,-2.40e-03,
897,2.40e-03,
898,2.40e-03,
899,-1.60e-03,
900,-1.60e-03,
901,2.40e-03,
902,-1.60e-03,
903,2.40e-03,
904,2.80e-03,
905,-1.60e-03,
906,3.20e-03,
907,-2.40e-03,
908,-1.60e-03,
909,3.20e-03,
910,-2.40e-03,
911,3.20e-03,
912,-8.00e-04,
913,2.40e-03,
914,2.40e-03,
915,-2.40e-03,
916,2.40e-03,
917,-1.60e-03,
918,-2.40e-03,
919,2.40e-03,
920,-1.60e-03,
921,3.20e-03,
922,3.20e-03,
923,-1.60e-03,
924,2.40e-03,
925,-2.40e-03,
926,1.60e-03,
927,-2.40e-03,
928,2.40e-03,
929,-2.40e-03,
930,-1.60e-03,
931,2.40e-03,
932,2.40e-03,
933,-1.60e-03,
934,-1.60e-03,
935,2.00e-03,
936,2.40e-03,
937,-2.40e-03,
938,2.40e-03,
939,-1.60e-03,
940,2.40e-03,
941,-2.40e-03,
942,2.40e-03,
943,-1.60e-03,
944,-1.60e-03,
945,2.80e-03,
946,-2.40e-03,
947,2.40e-03,
948,-1.60e-03,
949,3.20e-03,
950,-1.60e-03,
951,2.00e-03,
952,2.40e-03,
953,-2.40e-03,
954,2.40e-03,
955,-1.60e-03,
956,-1.60e-03,
957,3.20e-03,
958,-1.60e-03,
959,2.40e-03,
960,2.40e-03,
961,-2.80e-03,
962,1.60e-03,
963,-2.40e-03,
964,-1.60e-03,
965,4.00e-03,
966,1.60e-03,
967,-1.60e-03,
968,4.00e-03,
969,-1.60e-03,
970,1.60e-03,
971,-1.60e-03,
972,-1.60e-03,
973,2.40e-03,
974,2.40e-03,
975,-2.40e-03,
976,3.20e-03,
977,-1.60e-03,
978,-1.60e-03,
979,2.40e-03,
980,-1.60e-03,
981,2.40e-03,
982,-1.60e-03,
983,3.20e-03,
984,-1.60e-03,
985,2.40e-03,
986,2.80e-03,
987,-1.60e-03,
988,-1.60e-03,
989,2.00e-03,
990,2.40e-03,
991,-1.60e-03,
992,2.40e-03,
993,-2.40e-03,
994,2.40e-03,
995,-2.40e-03,
996,3.20e-03,
997,-1.60e-03,
998,-1.60e-03,
999,3.20e-03,
1000,2.40e-03,
1001,-2.40e-03,
1002,3.20e-03,
1003,-1.60e-03,
1004,-1.60e-03,
1005,2.40e-03,
1006,-1.60e-03,
1007,2.40e-03,
1008,2.80e-03,
1009,-3.20e-03,
1010,-2.40e-03,
1011,2.40e-03,
1012,-2.40e-03,
1013,2.00e-03,
1014,-1.60e-03,
1015,2.40e-03,
1016,-1.60e-03,
1017,2.80e-03,
1018,-1.60e-03,
1019,2.40e-03,
1020,-1.60e-03,
1021,2.40e-03,
1022,-2.40e-03,
1023,4.00e-03,
1024,-1.60e-03,
1025,2.40e-03,
1026,-1.60e-03,
1027,2.80e-03,
1028,-1.60e-03,
1029,3.20e-03,
1030,-2.40e-03,
1031,2.40e-03,
1032,-2.40e-03,
1033,2.80e-03,
1034,2.40e-03,
1035,-2.40e-03,
1036,-1.60e-03,
1037,2.80e-03,
1038,3.20e-03,
1039,-1.60e-03,
1040,-1.60e-03,
1041,2.40e-03,
1042,-1.60e-03,
1043,2.00e-03,
1044,-2.40e-03,
1045,3.20e-03,
1046,-1.60e-03,
1047,3.20e-03,
1048,-1.60e-03,
1049,2.40e-03,
1050,-1.60e-03,
1051,2.40e-03,
1052,3.20e-03,
1053,-1.60e-03,
1054,2.80e-03,
1055,-1.60e-03,
1056,-1.60e-03,
1057,2.40e-03,
1058,-1.60e-03,
1059,3.20e-03,
1060,-2.40e-03,
1061,2.00e-03,
1062,2.40e-03,
1063,-2.40e-03,
1064,1.60e-03,
1065,-1.60e-03,
1066,2.40e-03,
1067,-2.40e-03,
1068,-1.60e-03,
1069,3.20e-03,
1070,-2.40e-03,
1071,2.00e-03,
1072,-1.60e-03,
1073,2.00e-03,
1074,-1.60e-03,
1075,2.00e-03,
1076,-2.40e-03,
1077,2.00e-03,
1078,-1.60e-03,
1079,2.40e-03,
1080,2.40e-03,
1081,-1.60e-03,
1082,1.60e-03,
1083,-1.60e-03,
1084,-2.40e-03,
1085,2.00e-03,
1086,-2.40e-03,
1087,2.80e-03,
1088,-1.60e-03,
1089,2.00e-03,
1090,-2.40e-03,
1091,2.40e-03,
1092,-1.60e-03,
1093,3.20e-03,
1094,-1.60e-03,
1095,3.20e-03,
1096,2.40e-03,
1097,-1.60e-03,
1098,-1.60e-03,
1099,2.80e-03,
1100,-1.60e-03,
1101,2.40e-03,
1102,2.40e-03,
1103,-1.60e-03,
1104,-1.60e-03,
1105,2.40e-03,
1106,-1.60e-03,
1107,2.40e-03,
1108,2.40e-03,
1109,-1.60e-03,
1110,-1.60e-03,
1111,2.40e-03,
1112,-1.60e-03,
1113,4.00e-03,
1114,-2.40e-03,
1115,2.40e-03,
1116,2.40e-03,
1117,-1.60e-03,
1118,3.20e-03,
1119,-2.40e-03,
1120,2.40e-03,
1121,-2.40e-03,
1122,1.60e-03,
1123,-2.40e-03,
1124,2.80e-03,
1125,-1.60e-03,
1126,2.40e-03,
1127,-1.60e-03,
1128,-1.60e-03,
1129,2.80e-03,
1130,-1.60e-03,
1131,2.40e-03,
1132,-2.40e-03,
1133,4.00e-03,
1134,2.40e-03,
1135,-1.60e-03,
1136,-1.60e-03,
1137,2.40e-03,
1138,-1.60e-03,
1139,3.20e-03,
1140,3.20e-03,
1141,-1.60e-03,
1142,2.40e-03,
1143,-1.60e-03,
1144,-2.40e-03,
1145,2.40e-03,
1146,2.40e-03,
1147,-1.60e-03,
1148,1.60e-03,
1149,-2.40e-03,
1150,-1.60e-03,
1151,2.40e-03,
1152,-1.60e-03,
1153,3.20e-03,
1154,3.20e-03,
1155,-1.60e-03,
1156,3.20e-03,
1157,-1.60e-03,
1158,-1.60e-03,
1159,2.80e-03,
1160,2.80e-03,
1161,-2.40e-03,
1162,1.60e-03,
1163,-1.60e-03,
1164,-1.60e-03,
1165,2.40e-03,
1166,2.40e-03,
1167,-3.20e-03,
1168,-1.60e-03,
1169,2.40e-03,
1170,2.40e-03,
1171,-2.40e-03,
1172,-2.40e-03,
1173,3.20e-03,
1174,2.40e-03,
1175,-1.60e-03,
1176,-2.40e-03,
1177,2.40e-03,
1178,2.80e-03,
1179,-2.40e-03,
1180,-2.40e-03,
1181,2.40e-03,
1182,2.80e-03,
1183,-2.40e-03,
1184,-1.60e-03,
1185,2.00e-03,
1186,-1.60e-03,
1187,2.40e-03,
1188,-1.60e-03,
1189,2.40e-03,
1190,2.40e-03,
1191,-2.40e-03,
1192,2.40e-03,
1193,-1.60e-03,
1194,-1.60e-03,
1195,3.20e-03,
1196,-2.40e-03,
1197,2.40e-03,
1198,2.40e-03,
1199,-2.40e-03,
