fastdiffamp/data-noise-set/strong-balanced/NewFile1.csv

X,CH1,Start,Increment,
Sequence,Volt,-1.148000e+01,2.000000e-02
0,-2.40e-03,
1,2.40e-03,
2,3.20e-03,
3,-3.20e-03,
4,3.20e-03,
5,-2.40e-03,
6,-2.40e-03,
7,2.40e-03,
8,2.40e-03,
9,-2.40e-03,
10,3.20e-03,
11,-2.40e-03,
12,3.20e-03,
13,-2.40e-03,
14,-2.40e-03,
15,2.80e-03,
16,2.40e-03,
17,-4.00e-03,
18,2.40e-03,
19,-3.20e-03,
20,3.20e-03,
21,-1.60e-03,
22,3.20e-03,
23,-2.40e-03,
24,-1.60e-03,
25,2.40e-03,
26,-2.40e-03,
27,2.80e-03,
28,-1.60e-03,
29,3.20e-03,
30,3.20e-03,
31,-2.40e-03,
32,3.20e-03,
33,-1.60e-03,
34,3.20e-03,
35,-1.60e-03,
36,-1.60e-03,
37,3.20e-03,
38,2.40e-03,
39,-3.20e-03,
40,-3.20e-03,
41,3.20e-03,
42,-2.40e-03,
43,3.20e-03,
44,-2.40e-03,
45,3.20e-03,
46,2.80e-03,
47,-2.40e-03,
48,3.20e-03,
49,-3.20e-03,
50,3.20e-03,
51,-1.60e-03,
52,-2.40e-03,
53,3.20e-03,
54,-2.40e-03,
55,3.20e-03,
56,-1.60e-03,
57,4.00e-03,
58,-2.40e-03,
59,2.40e-03,
60,2.40e-03,
61,-3.20e-03,
62,-2.40e-03,
63,3.20e-03,
64,-3.20e-03,
65,3.20e-03,
66,-2.40e-03,
67,2.40e-03,
68,-1.60e-03,
69,3.20e-03,
70,-3.20e-03,
71,2.80e-03,
72,-2.40e-03,
73,2.80e-03,
74,-2.40e-03,
75,3.20e-03,
76,-2.40e-03,
77,4.00e-03,
78,2.40e-03,
79,-3.20e-03,
80,2.40e-03,
81,-3.20e-03,
82,-2.40e-03,
83,2.40e-03,
84,-2.40e-03,
85,2.80e-03,
86,-2.40e-03,
87,3.20e-03,
88,3.20e-03,
89,-3.20e-03,
90,-2.40e-03,
91,2.40e-03,
92,2.40e-03,
93,-2.40e-03,
94,-2.40e-03,
95,2.40e-03,
96,3.20e-03,
97,-3.20e-03,
98,-2.40e-03,
99,3.20e-03,
100,4.00e-03,
101,-2.40e-03,
102,-2.40e-03,
103,4.00e-03,
104,3.20e-03,
105,-2.40e-03,
106,-3.20e-03,
107,3.20e-03,
108,3.20e-03,
109,-2.40e-03,
110,-1.60e-03,
111,4.00e-03,
112,-1.60e-03,
113,3.20e-03,
114,-1.60e-03,
115,4.00e-03,
116,-2.40e-03,
117,3.20e-03,
118,3.20e-03,
119,-2.40e-03,
120,3.60e-03,
121,-2.40e-03,
122,-2.40e-03,
123,3.20e-03,
124,-2.40e-03,
125,4.00e-03,
126,3.20e-03,
127,-1.60e-03,
128,2.40e-03,
129,-2.40e-03,
130,-2.40e-03,
131,3.20e-03,
132,3.20e-03,
133,-2.40e-03,
134,3.20e-03,
135,-2.40e-03,
136,3.20e-03,
137,-2.40e-03,
138,-1.60e-03,
139,3.20e-03,
140,-1.60e-03,
141,4.00e-03,
142,-1.60e-03,
143,3.20e-03,
144,-2.40e-03,
145,2.40e-03,
146,-3.20e-03,
147,3.20e-03,
148,2.40e-03,
149,-2.40e-03,
150,3.20e-03,
151,-2.40e-03,
152,-2.40e-03,
153,4.00e-03,
154,-2.40e-03,
155,2.40e-03,
156,3.20e-03,
157,-2.40e-03,
158,-2.80e-03,
159,2.40e-03,
160,-2.40e-03,
161,3.20e-03,
162,-1.60e-03,
163,4.00e-03,
164,-2.40e-03,
165,4.00e-03,
166,-3.20e-03,
167,4.00e-03,
168,-2.40e-03,
169,3.20e-03,
170,4.00e-03,
171,-2.40e-03,
172,-1.60e-03,
173,4.00e-03,
174,2.40e-03,
175,-4.00e-03,
176,3.20e-03,
177,-2.40e-03,
178,-2.40e-03,
179,3.20e-03,
180,3.20e-03,
181,-2.40e-03,
182,-8.00e-04,
183,3.60e-03,
184,3.20e-03,
185,-2.40e-03,
186,2.80e-03,
187,-1.60e-03,
188,-2.40e-03,
189,2.40e-03,
190,-2.40e-03,
191,3.20e-03,
192,3.20e-03,
193,-2.40e-03,
194,-1.60e-03,
195,3.20e-03,
196,2.40e-03,
197,-2.40e-03,
198,-2.40e-03,
199,3.20e-03,
200,-2.40e-03,
201,3.20e-03,
202,3.20e-03,
203,-3.20e-03,
204,2.40e-03,
205,-2.40e-03,
206,3.20e-03,
207,-2.40e-03,
208,2.80e-03,
209,-2.40e-03,
210,4.00e-03,
211,-2.40e-03,
212,-1.60e-03,
213,3.20e-03,
214,-1.60e-03,
215,3.20e-03,
216,-2.40e-03,
217,3.20e-03,
218,-2.40e-03,
219,2.40e-03,
220,-2.40e-03,
221,3.20e-03,
222,2.40e-03,
223,-2.40e-03,
224,3.20e-03,
225,-2.40e-03,
226,2.40e-03,
227,-2.40e-03,
228,-1.60e-03,
229,3.20e-03,
230,-2.40e-03,
231,3.20e-03,
232,-1.60e-03,
233,3.20e-03,
234,-2.40e-03,
235,2.40e-03,
236,2.40e-03,
237,-2.40e-03,
238,-2.40e-03,
239,3.20e-03,
240,-2.40e-03,
241,3.20e-03,
242,3.20e-03,
243,-3.20e-03,
244,3.20e-03,
245,-1.60e-03,
246,3.20e-03,
247,-2.40e-03,
248,-2.40e-03,
249,3.20e-03,
250,-1.60e-03,
251,3.20e-03,
252,2.80e-03,
253,-2.40e-03,
254,-2.40e-03,
255,3.20e-03,
256,3.20e-03,
257,-2.40e-03,
258,2.40e-03,
259,-2.40e-03,
260,3.20e-03,
261,-2.40e-03,
262,-2.40e-03,
263,2.40e-03,
264,-2.40e-03,
265,3.20e-03,
266,3.20e-03,
267,-2.40e-03,
268,3.20e-03,
269,-2.40e-03,
270,3.20e-03,
271,-2.40e-03,
272,3.20e-03,
273,-2.40e-03,
274,-2.40e-03,
275,3.20e-03,
276,-2.40e-03,
277,3.20e-03,
278,2.40e-03,
279,-2.40e-03,
280,2.80e-03,
281,-2.40e-03,
282,3.20e-03,
283,-2.40e-03,
284,3.20e-03,
285,-1.60e-03,
286,3.20e-03,
287,-2.40e-03,
288,-1.60e-03,
289,3.20e-03,
290,-2.40e-03,
291,3.20e-03,
292,4.00e-03,
293,-2.40e-03,
294,-2.40e-03,
295,2.80e-03,
296,-1.60e-03,
297,3.20e-03,
298,-2.40e-03,
299,3.20e-03,
300,-2.80e-03,
301,3.20e-03,
302,3.20e-03,
303,-2.40e-03,
304,3.20e-03,
305,-3.20e-03,
306,-1.60e-03,
307,3.20e-03,
308,3.20e-03,
309,-2.40e-03,
310,3.20e-03,
311,-3.20e-03,
312,-1.60e-03,
313,2.80e-03,
314,-2.40e-03,
315,3.20e-03,
316,-2.40e-03,
317,3.20e-03,
318,-1.60e-03,
319,3.20e-03,
320,3.20e-03,
321,-2.40e-03,
322,-2.40e-03,
323,2.40e-03,
324,-2.40e-03,
325,4.00e-03,
326,3.20e-03,
327,-2.40e-03,
328,-1.60e-03,
329,3.20e-03,
330,-3.20e-03,
331,3.20e-03,
332,-2.40e-03,
333,2.40e-03,
334,-1.60e-03,
335,3.20e-03,
336,-1.60e-03,
337,4.80e-03,
338,3.20e-03,
339,-1.60e-03,
340,3.20e-03,
341,-1.60e-03,
342,2.40e-03,
343,-2.40e-03,
344,-2.40e-03,
345,3.20e-03,
346,-3.20e-03,
347,3.20e-03,
348,3.20e-03,
349,-2.40e-03,
350,-2.40e-03,
351,3.20e-03,
352,-2.40e-03,
353,4.00e-03,
354,-3.20e-03,
355,3.20e-03,
356,4.00e-03,
357,-2.40e-03,
358,-3.20e-03,
359,3.20e-03,
360,3.20e-03,
361,-2.40e-03,
362,3.20e-03,
363,-1.60e-03,
364,3.20e-03,
365,-2.40e-03,
366,-2.40e-03,
367,3.20e-03,
368,3.20e-03,
369,-2.40e-03,
370,-1.60e-03,
371,4.00e-03,
372,2.40e-03,
373,-2.40e-03,
374,3.20e-03,
375,-2.40e-03,
376,-4.00e-03,
377,2.80e-03,
378,-2.40e-03,
379,3.20e-03,
380,2.80e-03,
381,-2.40e-03,
382,3.20e-03,
383,-2.40e-03,
384,3.20e-03,
385,-3.20e-03,
386,-2.40e-03,
387,3.20e-03,
388,-2.40e-03,
389,3.20e-03,
390,-2.40e-03,
391,3.20e-03,
392,-1.60e-03,
393,3.20e-03,
394,-2.40e-03,
395,3.20e-03,
396,-2.40e-03,
397,2.40e-03,
398,-3.20e-03,
399,2.40e-03,
400,2.40e-03,
401,-3.20e-03,
402,3.20e-03,
403,-3.20e-03,
404,-2.40e-03,
405,3.20e-03,
406,-2.40e-03,
407,4.00e-03,
408,2.40e-03,
409,-2.40e-03,
410,-3.20e-03,
411,2.80e-03,
412,3.20e-03,
413,-2.40e-03,
414,-3.20e-03,
415,3.20e-03,
416,2.40e-03,
417,-2.40e-03,
418,-3.20e-03,
419,2.40e-03,
420,3.20e-03,
421,-2.40e-03,
422,-2.40e-03,
423,2.40e-03,
424,-2.40e-03,
425,3.20e-03,
426,-3.20e-03,
427,3.20e-03,
428,3.20e-03,
429,-2.40e-03,
430,-2.40e-03,
431,3.20e-03,
432,3.20e-03,
433,-3.20e-03,
434,3.20e-03,
435,-2.40e-03,
436,-2.40e-03,
437,2.80e-03,
438,2.40e-03,
439,-2.00e-03,
440,2.40e-03,
441,-2.40e-03,
442,-2.40e-03,
443,3.20e-03,
444,-2.40e-03,
445,3.20e-03,
446,-2.40e-03,
447,2.40e-03,
448,-3.20e-03,
449,3.20e-03,
450,-2.40e-03,
451,3.20e-03,
452,-4.00e-03,
453,3.20e-03,
454,2.40e-03,
455,-2.40e-03,
456,2.40e-03,
457,-2.40e-03,
458,2.40e-03,
459,-3.20e-03,
460,-2.40e-03,
461,2.40e-03,
462,-3.20e-03,
463,2.80e-03,
464,3.20e-03,
465,-2.40e-03,
466,-2.40e-03,
467,3.20e-03,
468,2.40e-03,
469,-3.20e-03,
470,2.40e-03,
471,-2.40e-03,
472,-2.40e-03,
473,2.40e-03,
474,-2.40e-03,
475,4.00e-03,
476,3.20e-03,
477,-2.40e-03,
478,-2.40e-03,
479,3.20e-03,
480,3.20e-03,
481,-3.20e-03,
482,-3.20e-03,
483,3.20e-03,
484,2.40e-03,
485,-3.20e-03,
486,-2.40e-03,
487,2.40e-03,
488,-2.40e-03,
489,3.20e-03,
490,2.40e-03,
491,-3.20e-03,
492,2.40e-03,
493,-3.20e-03,
494,-3.20e-03,
495,2.80e-03,
496,2.80e-03,
497,-3.20e-03,
498,2.40e-03,
499,-3.20e-03,
500,-2.40e-03,
501,3.20e-03,
502,2.40e-03,
503,-3.20e-03,
504,-2.40e-03,
505,3.20e-03,
506,3.20e-03,
507,-2.40e-03,
508,-2.40e-03,
509,2.40e-03,
510,-2.40e-03,
511,2.40e-03,
512,-3.20e-03,
513,4.00e-03,
514,-2.40e-03,
515,3.20e-03,
516,2.40e-03,
517,-2.40e-03,
518,-2.40e-03,
519,2.40e-03,
520,3.20e-03,
521,-2.40e-03,
522,3.20e-03,
523,-2.40e-03,
524,-2.40e-03,
525,3.20e-03,
526,3.20e-03,
527,-2.40e-03,
528,-2.00e-03,
529,3.20e-03,
530,-2.40e-03,
531,3.20e-03,
532,3.20e-03,
533,-2.40e-03,
534,3.20e-03,
535,-3.20e-03,
536,2.40e-03,
537,-2.40e-03,
538,2.40e-03,
539,-2.40e-03,
540,-2.40e-03,
541,3.20e-03,
542,-3.20e-03,
543,3.20e-03,
544,-1.60e-03,
545,3.20e-03,
546,2.40e-03,
547,-3.20e-03,
548,-2.40e-03,
549,2.40e-03,
550,-2.40e-03,
551,2.80e-03,
552,-2.40e-03,
553,3.20e-03,
554,3.20e-03,
555,-2.40e-03,
556,2.40e-03,
557,-2.40e-03,
558,3.20e-03,
559,-3.20e-03,
560,-2.40e-03,
561,3.20e-03,
562,2.40e-03,
563,-2.40e-03,
564,-2.40e-03,
565,2.40e-03,
566,-3.20e-03,
567,4.00e-03,
568,3.20e-03,
569,-2.40e-03,
570,-2.40e-03,
571,3.20e-03,
572,-2.40e-03,
573,2.80e-03,
574,-3.20e-03,
575,4.00e-03,
576,2.40e-03,
577,-2.40e-03,
578,-2.40e-03,
579,3.20e-03,
580,-1.60e-03,
581,2.80e-03,
582,-2.40e-03,
583,3.20e-03,
584,-2.40e-03,
585,3.20e-03,
586,-2.40e-03,
587,3.20e-03,
588,2.80e-03,
589,-2.40e-03,
590,2.40e-03,
591,-3.20e-03,
592,2.40e-03,
593,-2.40e-03,
594,-3.20e-03,
595,3.20e-03,
596,-2.40e-03,
597,2.40e-03,
598,3.20e-03,
599,-2.40e-03,
600,-2.40e-03,
601,3.20e-03,
602,-3.20e-03,
603,3.20e-03,
604,-2.40e-03,
605,3.20e-03,
606,-2.40e-03,
607,3.20e-03,
608,3.20e-03,
609,-1.60e-03,
610,-2.40e-03,
611,3.20e-03,
612,-2.40e-03,
613,4.00e-03,
614,3.20e-03,
615,-3.20e-03,
616,3.20e-03,
617,-2.40e-03,
618,-2.40e-03,
619,3.20e-03,
620,3.20e-03,
621,-3.20e-03,
622,3.20e-03,
623,-3.20e-03,
624,3.20e-03,
625,-2.40e-03,
626,3.20e-03,
627,-2.40e-03,
628,-2.40e-03,
629,3.20e-03,
630,3.20e-03,
631,-3.20e-03,
632,-2.40e-03,
633,3.20e-03,
634,-2.40e-03,
635,3.20e-03,
636,3.20e-03,
637,-3.20e-03,
638,-2.40e-03,
639,3.20e-03,
640,-3.20e-03,
641,3.20e-03,
642,3.20e-03,
643,-3.20e-03,
644,-3.20e-03,
645,3.20e-03,
646,-2.40e-03,
647,3.20e-03,
648,3.20e-03,
649,-2.40e-03,
650,-2.40e-03,
651,2.40e-03,
652,-2.40e-03,
653,4.80e-03,
654,-2.40e-03,
655,4.00e-03,
656,-3.20e-03,
657,4.00e-03,
658,-1.60e-03,
659,4.00e-03,
660,-2.40e-03,
661,4.00e-03,
662,4.00e-03,
663,-2.40e-03,
664,3.20e-03,
665,-3.20e-03,
666,-2.40e-03,
667,3.20e-03,
668,-3.20e-03,
669,4.00e-03,
670,-2.40e-03,
671,4.00e-03,
672,-2.40e-03,
673,4.00e-03,
674,4.00e-03,
675,-2.40e-03,
676,-2.40e-03,
677,3.20e-03,
678,3.20e-03,
679,-2.40e-03,
680,-2.40e-03,
681,3.20e-03,
682,3.20e-03,
683,-2.40e-03,
684,-2.40e-03,
685,3.20e-03,
686,4.00e-03,
687,-2.40e-03,
688,3.20e-03,
689,-3.20e-03,
690,3.20e-03,
691,-2.40e-03,
692,-3.20e-03,
693,3.20e-03,
694,3.20e-03,
695,-2.40e-03,
696,3.20e-03,
697,-2.40e-03,
698,-2.40e-03,
699,4.00e-03,
700,-2.40e-03,
701,3.20e-03,
702,-2.40e-03,
703,4.00e-03,
704,3.20e-03,
705,-1.60e-03,
706,3.20e-03,
707,-1.60e-03,
708,4.00e-03,
709,-3.20e-03,
710,4.00e-03,
711,-2.40e-03,
712,-2.40e-03,
713,3.20e-03,
714,-3.20e-03,
715,3.20e-03,
716,-3.20e-03,
717,3.20e-03,
718,2.40e-03,
719,-3.20e-03,
720,-2.40e-03,
721,4.00e-03,
722,2.40e-03,
723,-2.40e-03,
724,2.40e-03,
725,-3.20e-03,
726,-2.40e-03,
727,4.00e-03,
728,-2.40e-03,
729,4.80e-03,
730,-3.20e-03,
731,3.20e-03,
732,-2.40e-03,
733,3.20e-03,
734,-1.60e-03,
735,3.20e-03,
736,-1.60e-03,
737,3.20e-03,
738,3.20e-03,
739,-2.40e-03,
740,3.20e-03,
741,-3.20e-03,
742,-2.40e-03,
743,3.20e-03,
744,-3.20e-03,
745,4.00e-03,
746,3.20e-03,
747,-2.40e-03,
748,-1.60e-03,
749,3.20e-03,
750,3.20e-03,
751,-3.20e-03,
752,-3.20e-03,
753,2.80e-03,
754,-2.40e-03,
755,3.20e-03,
756,2.40e-03,
757,-2.40e-03,
758,-3.20e-03,
759,3.20e-03,
760,2.40e-03,
761,-2.40e-03,
762,-2.40e-03,
763,3.20e-03,
764,-2.40e-03,
765,2.40e-03,
766,2.40e-03,
767,-2.40e-03,
768,-2.40e-03,
769,2.80e-03,
770,-2.00e-03,
771,3.20e-03,
772,-2.40e-03,
773,4.00e-03,
774,-3.20e-03,
775,4.00e-03,
776,3.20e-03,
777,-2.40e-03,
778,3.20e-03,
779,-1.60e-03,
780,-2.40e-03,
781,3.20e-03,
782,3.20e-03,
783,-2.40e-03,
784,3.20e-03,
785,-2.40e-03,
786,2.40e-03,
787,-2.40e-03,
788,-3.20e-03,
789,2.80e-03,
790,-4.00e-03,
791,3.20e-03,
792,-1.60e-03,
793,3.20e-03,
794,-3.20e-03,
795,4.00e-03,
796,3.20e-03,
797,-2.40e-03,
798,-1.60e-03,
799,3.60e-03,
800,-1.60e-03,
801,4.00e-03,
802,-2.40e-03,
803,3.20e-03,
804,2.40e-03,
805,-2.40e-03,
806,-3.20e-03,
807,3.20e-03,
808,-2.40e-03,
809,2.80e-03,
810,-2.40e-03,
811,3.20e-03,
812,3.20e-03,
813,-2.40e-03,
814,-3.20e-03,
815,2.80e-03,
816,-2.40e-03,
817,3.20e-03,
818,3.20e-03,
819,-3.20e-03,
820,-2.40e-03,
821,3.20e-03,
822,3.20e-03,
823,-2.40e-03,
824,-2.40e-03,
825,2.40e-03,
826,-2.40e-03,
827,3.20e-03,
828,-2.40e-03,
829,3.20e-03,
830,3.20e-03,
831,-2.40e-03,
832,2.40e-03,
833,-3.20e-03,
834,-2.40e-03,
835,3.20e-03,
836,3.20e-03,
837,-2.40e-03,
838,-3.20e-03,
839,3.20e-03,
840,-3.20e-03,
841,3.20e-03,
842,-2.40e-03,
843,3.20e-03,
844,2.40e-03,
845,-2.40e-03,
846,2.40e-03,
847,-3.20e-03,
848,-3.20e-03,
849,2.80e-03,
850,-2.40e-03,
851,4.00e-03,
852,3.20e-03,
853,-3.20e-03,
854,2.40e-03,
855,-3.20e-03,
856,3.20e-03,
857,-2.40e-03,
858,2.40e-03,
859,-2.40e-03,
860,-3.20e-03,
861,3.20e-03,
862,-4.00e-03,
863,3.20e-03,
864,2.40e-03,
865,-2.40e-03,
866,-3.20e-03,
867,3.20e-03,
868,2.40e-03,
869,-3.20e-03,
870,2.40e-03,
871,-3.20e-03,
872,-3.20e-03,
873,2.40e-03,
874,-3.20e-03,
875,2.40e-03,
876,3.20e-03,
877,-2.40e-03,
878,-3.20e-03,
879,3.20e-03,
880,-2.40e-03,
881,3.20e-03,
882,-2.40e-03,
883,2.80e-03,
884,2.40e-03,
885,-3.20e-03,
886,2.40e-03,
887,-3.20e-03,
888,-2.40e-03,
889,2.40e-03,
890,-3.20e-03,
891,3.20e-03,
892,3.20e-03,
893,-2.40e-03,
894,2.40e-03,
895,-3.20e-03,
896,2.40e-03,
897,-3.20e-03,
898,-2.40e-03,
899,4.00e-03,
900,-3.20e-03,
901,3.20e-03,
902,-3.20e-03,
903,3.20e-03,
904,-2.40e-03,
905,3.20e-03,
906,4.00e-03,
907,-3.20e-03,
908,3.20e-03,
909,-2.40e-03,
910,2.40e-03,
911,-2.40e-03,
912,-2.40e-03,
913,2.40e-03,
914,-2.40e-03,
915,3.20e-03,
916,-3.20e-03,
917,4.80e-03,
918,-2.40e-03,
919,3.20e-03,
920,-2.40e-03,
921,2.80e-03,
922,2.80e-03,
923,-2.40e-03,
924,4.00e-03,
925,-2.40e-03,
926,-2.40e-03,
927,3.20e-03,
928,3.20e-03,
929,-2.40e-03,
930,3.20e-03,
931,-4.00e-03,
932,3.20e-03,
933,-2.40e-03,
934,-4.00e-03,
935,3.20e-03,
936,-3.20e-03,
937,2.40e-03,
938,2.40e-03,
939,-2.40e-03,
940,4.00e-03,
941,-2.40e-03,
942,3.20e-03,
943,-2.40e-03,
944,-2.40e-03,
945,3.20e-03,
946,-1.60e-03,
947,3.20e-03,
948,3.20e-03,
949,-1.60e-03,
950,3.20e-03,
951,-3.20e-03,
952,3.20e-03,
953,-2.40e-03,
954,4.00e-03,
955,-2.40e-03,
956,3.20e-03,
957,-3.20e-03,
958,2.40e-03,
959,-2.40e-03,
960,-2.40e-03,
961,3.20e-03,
962,-2.40e-03,
963,3.20e-03,
964,2.40e-03,
965,-3.20e-03,
966,3.20e-03,
967,-1.60e-03,
968,3.20e-03,
969,-2.40e-03,
970,4.00e-03,
971,-3.20e-03,
972,-2.40e-03,
973,2.40e-03,
974,3.20e-03,
975,-2.80e-03,
976,3.20e-03,
977,-1.60e-03,
978,3.20e-03,
979,-2.40e-03,
980,-2.40e-03,
981,2.40e-03,
982,-1.60e-03,
983,3.20e-03,
984,3.20e-03,
985,-2.40e-03,
986,-1.60e-03,
987,2.80e-03,
988,-3.20e-03,
989,3.20e-03,
990,2.40e-03,
991,-2.40e-03,
992,-1.60e-03,
993,3.20e-03,
994,3.20e-03,
995,-2.40e-03,
996,4.00e-03,
997,-3.20e-03,
998,-2.40e-03,
999,3.20e-03,
1000,3.20e-03,
1001,-4.00e-03,
1002,-1.60e-03,
1003,3.20e-03,
1004,-1.60e-03,
1005,3.20e-03,
1006,-2.00e-03,
1007,2.40e-03,
1008,-1.60e-03,
1009,3.20e-03,
1010,-2.40e-03,
1011,3.20e-03,
1012,-3.20e-03,
1013,3.20e-03,
1014,3.20e-03,
1015,-1.60e-03,
1016,4.00e-03,
1017,-1.60e-03,
1018,-2.40e-03,
1019,4.00e-03,
1020,-2.40e-03,
1021,3.20e-03,
1022,-3.20e-03,
1023,3.20e-03,
1024,4.00e-03,
1025,-2.40e-03,
1026,4.00e-03,
1027,-2.40e-03,
1028,4.00e-03,
1029,-2.40e-03,
1030,-1.60e-03,
1031,2.40e-03,
1032,-2.40e-03,
1033,3.20e-03,
1034,-1.60e-03,
1035,4.00e-03,
1036,3.20e-03,
1037,-2.40e-03,
1038,-1.60e-03,
1039,2.40e-03,
1040,3.20e-03,
1041,-2.40e-03,
1042,3.20e-03,
1043,-2.40e-03,
1044,-2.40e-03,
1045,3.20e-03,
1046,-2.00e-03,
1047,3.20e-03,
1048,3.20e-03,
1049,-2.40e-03,
1050,-2.40e-03,
1051,3.20e-03,
1052,-2.40e-03,
1053,4.00e-03,
1054,-1.60e-03,
1055,3.20e-03,
1056,2.80e-03,
1057,-2.40e-03,
1058,3.20e-03,
1059,-2.40e-03,
1060,-1.60e-03,
1061,4.00e-03,
1062,-2.40e-03,
1063,4.00e-03,
1064,-2.40e-03,
1065,2.80e-03,
1066,-1.60e-03,
1067,3.20e-03,
1068,4.80e-03,
1069,-2.40e-03,
1070,2.40e-03,
1071,-2.40e-03,
1072,3.20e-03,
1073,-2.40e-03,
1074,3.20e-03,
1075,-2.40e-03,
1076,-1.60e-03,
1077,4.00e-03,
1078,-3.20e-03,
1079,3.20e-03,
1080,-3.20e-03,
1081,3.20e-03,
1082,3.20e-03,
1083,-2.40e-03,
1084,-1.60e-03,
1085,2.80e-03,
1086,-2.40e-03,
1087,4.00e-03,
1088,3.20e-03,
1089,-2.40e-03,
1090,-2.40e-03,
1091,3.20e-03,
1092,-1.60e-03,
1093,3.20e-03,
1094,-3.20e-03,
1095,4.00e-03,
1096,-1.60e-03,
1097,2.40e-03,
1098,-2.40e-03,
1099,4.80e-03,
1100,3.20e-03,
1101,-1.60e-03,
1102,3.20e-03,
1103,-2.40e-03,
1104,-2.40e-03,
1105,4.00e-03,
1106,4.00e-03,
1107,-2.40e-03,
1108,-2.40e-03,
1109,3.20e-03,
1110,2.40e-03,
1111,-2.40e-03,
1112,-1.60e-03,
1113,3.20e-03,
1114,-2.40e-03,
1115,3.20e-03,
1116,2.40e-03,
1117,-2.40e-03,
1118,-2.40e-03,
1119,4.80e-03,
1120,-1.60e-03,
1121,3.20e-03,
1122,-1.60e-03,
1123,3.20e-03,
1124,3.20e-03,
1125,-2.40e-03,
1126,4.00e-03,
1127,-2.40e-03,
1128,4.00e-03,
1129,-1.60e-03,
1130,-3.20e-03,
1131,3.20e-03,
1132,-2.40e-03,
1133,3.20e-03,
1134,-2.40e-03,
1135,4.00e-03,
1136,-1.60e-03,
1137,4.00e-03,
1138,-1.60e-03,
1139,4.00e-03,
1140,3.20e-03,
1141,-2.40e-03,
1142,-2.40e-03,
1143,3.20e-03,
1144,3.20e-03,
1145,-2.40e-03,
1146,3.20e-03,
1147,-2.40e-03,
1148,3.20e-03,
1149,-2.40e-03,
1150,-2.40e-03,
1151,2.40e-03,
1152,-1.60e-03,
1153,3.20e-03,
1154,3.20e-03,
1155,-2.40e-03,
1156,-1.60e-03,
1157,3.20e-03,
1158,3.20e-03,
1159,-2.40e-03,
1160,-2.40e-03,
1161,3.20e-03,
1162,4.00e-03,
1163,-2.40e-03,
1164,-1.60e-03,
1165,3.20e-03,
1166,2.40e-03,
1167,-2.40e-03,
1168,-2.40e-03,
1169,3.20e-03,
1170,-2.80e-03,
1171,3.20e-03,
1172,3.20e-03,
1173,-3.20e-03,
1174,3.20e-03,
1175,-1.60e-03,
1176,-1.60e-03,
1177,3.20e-03,
1178,4.00e-03,
1179,-2.40e-03,
1180,-1.60e-03,
1181,3.60e-03,
1182,3.20e-03,
1183,-1.60e-03,
1184,2.40e-03,
1185,-2.40e-03,
1186,-2.40e-03,
1187,3.20e-03,
1188,3.20e-03,
1189,-2.40e-03,
1190,-1.60e-03,
1191,3.20e-03,
1192,-1.60e-03,
1193,3.20e-03,
1194,2.40e-03,
1195,-2.40e-03,
1196,-2.40e-03,
1197,4.80e-03,
1198,-2.40e-03,
1199,3.20e-03,
