fastdiffamp/data-noise-set/strong-balanced/NewFile9.csv

X,CH1,Start,Increment,
Sequence,Volt,-1.148000e+01,2.000000e-02
0,2.40e-03,
1,-8.00e-04,
2,2.00e-03,
3,-8.00e-04,
4,-1.60e-03,
5,3.20e-03,
6,-8.00e-04,
7,2.80e-03,
8,-1.60e-03,
9,2.40e-03,
10,-8.00e-04,
11,2.40e-03,
12,-8.00e-04,
13,3.20e-03,
14,2.40e-03,
15,-1.60e-03,
16,2.40e-03,
17,-8.00e-04,
18,-8.00e-04,
19,2.40e-03,
20,2.40e-03,
21,-1.60e-03,
22,2.40e-03,
23,-1.60e-03,
24,3.20e-03,
25,-1.60e-03,
26,-2.40e-03,
27,1.60e-03,
28,2.40e-03,
29,-8.00e-04,
30,2.40e-03,
31,-1.60e-03,
32,-8.00e-04,
33,2.40e-03,
34,-1.60e-03,
35,2.40e-03,
36,-8.00e-04,
37,2.40e-03,
38,2.40e-03,
39,-8.00e-04,
40,2.40e-03,
41,-8.00e-04,
42,-1.60e-03,
43,2.80e-03,
44,-8.00e-04,
45,2.40e-03,
46,-8.00e-04,
47,2.40e-03,
48,-1.60e-03,
49,2.40e-03,
50,-1.60e-03,
51,2.00e-03,
52,-8.00e-04,
53,2.40e-03,
54,2.40e-03,
55,-1.60e-03,
56,-1.60e-03,
57,2.40e-03,
58,-1.60e-03,
59,3.20e-03,
60,-1.60e-03,
61,2.40e-03,
62,-8.00e-04,
63,2.40e-03,
64,2.40e-03,
65,-8.00e-04,
66,2.40e-03,
67,-1.60e-03,
68,2.80e-03,
69,-1.60e-03,
70,2.40e-03,
71,-1.60e-03,
72,-8.00e-04,
73,2.40e-03,
74,-1.60e-03,
75,3.20e-03,
76,-8.00e-04,
77,3.20e-03,
78,2.80e-03,
79,-8.00e-04,
80,-8.00e-04,
81,2.80e-03,
82,-1.60e-03,
83,2.40e-03,
84,2.00e-03,
85,-1.60e-03,
86,-1.60e-03,
87,3.20e-03,
88,1.60e-03,
89,-1.60e-03,
90,-1.60e-03,
91,2.40e-03,
92,-8.00e-04,
93,3.20e-03,
94,2.40e-03,
95,-1.60e-03,
96,-1.60e-03,
97,2.40e-03,
98,-1.60e-03,
99,2.40e-03,
100,2.40e-03,
101,-1.60e-03,
102,-8.00e-04,
103,2.40e-03,
104,-8.00e-04,
105,2.40e-03,
106,-1.60e-03,
107,3.20e-03,
108,-8.00e-04,
109,3.20e-03,
110,-8.00e-04,
111,3.20e-03,
112,-8.00e-04,
113,2.40e-03,
114,-8.00e-04,
115,2.40e-03,
116,-8.00e-04,
117,2.40e-03,
118,-8.00e-04,
119,2.40e-03,
120,-8.00e-04,
121,2.80e-03,
122,-1.60e-03,
123,3.20e-03,
124,-8.00e-04,
125,2.80e-03,
126,-8.00e-04,
127,2.80e-03,
128,2.80e-03,
129,-1.60e-03,
130,2.40e-03,
131,-1.60e-03,
132,2.40e-03,
133,-1.60e-03,
134,-8.00e-04,
135,2.80e-03,
136,2.80e-03,
137,-8.00e-04,
138,2.40e-03,
139,-8.00e-04,
140,2.40e-03,
141,-1.60e-03,
142,2.40e-03,
143,-1.60e-03,
144,2.80e-03,
145,-1.60e-03,
146,2.40e-03,
147,-8.00e-04,
148,-1.60e-03,
149,3.20e-03,
150,2.40e-03,
151,-1.60e-03,
152,2.40e-03,
153,-1.60e-03,
154,-8.00e-04,
155,2.40e-03,
156,2.40e-03,
157,-2.40e-03,
158,-1.60e-03,
159,2.40e-03,
160,2.40e-03,
161,-8.00e-04,
162,2.40e-03,
163,-8.00e-04,
164,2.40e-03,
165,-8.00e-04,
166,2.40e-03,
167,-1.60e-03,
168,2.40e-03,
169,-8.00e-04,
170,3.20e-03,
171,-1.60e-03,
172,2.40e-03,
173,-8.00e-04,
174,2.40e-03,
175,-8.00e-04,
176,2.40e-03,
177,-1.60e-03,
178,2.40e-03,
179,-1.60e-03,
180,2.40e-03,
181,-8.00e-04,
182,2.40e-03,
183,-8.00e-04,
184,-1.60e-03,
185,2.40e-03,
186,2.40e-03,
187,-1.60e-03,
188,3.20e-03,
189,-8.00e-04,
190,-8.00e-04,
191,3.20e-03,
192,2.40e-03,
193,-1.60e-03,
194,-8.00e-04,
195,2.80e-03,
196,-1.60e-03,
197,2.80e-03,
198,-1.60e-03,
199,2.40e-03,
200,-1.60e-03,
201,2.40e-03,
202,-1.60e-03,
203,2.80e-03,
204,-1.60e-03,
205,3.20e-03,
206,-1.60e-03,
207,2.40e-03,
208,-1.60e-03,
209,2.40e-03,
210,-8.00e-04,
211,2.40e-03,
212,-1.60e-03,
213,4.00e-03,
214,2.40e-03,
215,-8.00e-04,
216,-1.60e-03,
217,2.40e-03,
218,-1.60e-03,
219,2.40e-03,
220,-8.00e-04,
221,2.80e-03,
222,2.40e-03,
223,-8.00e-04,
224,-1.60e-03,
225,2.80e-03,
226,-8.00e-04,
227,2.40e-03,
228,2.00e-03,
229,-1.60e-03,
230,-8.00e-04,
231,2.40e-03,
232,2.40e-03,
233,-8.00e-04,
234,-8.00e-04,
235,2.40e-03,
236,-8.00e-04,
237,2.80e-03,
238,-8.00e-04,
239,2.40e-03,
240,-1.60e-03,
241,2.40e-03,
242,2.40e-03,
243,-1.60e-03,
244,2.40e-03,
245,-8.00e-04,
246,-1.60e-03,
247,2.80e-03,
248,-8.00e-04,
249,3.20e-03,
250,2.40e-03,
251,-1.60e-03,
252,-1.60e-03,
253,2.40e-03,
254,-8.00e-04,
255,2.40e-03,
256,-1.60e-03,
257,2.40e-03,
258,-2.40e-03,
259,2.80e-03,
260,2.40e-03,
261,-1.60e-03,
262,2.40e-03,
263,-2.40e-03,
264,2.00e-03,
265,-1.60e-03,
266,3.20e-03,
267,-1.60e-03,
268,-8.00e-04,
269,2.40e-03,
270,-1.60e-03,
271,2.40e-03,
272,2.40e-03,
273,-8.00e-04,
274,2.40e-03,
275,-2.40e-03,
276,-1.60e-03,
277,2.40e-03,
278,3.20e-03,
279,-8.00e-04,
280,-8.00e-04,
281,2.80e-03,
282,3.20e-03,
283,-1.60e-03,
284,2.40e-03,
285,-8.00e-04,
286,2.80e-03,
287,-1.60e-03,
288,2.40e-03,
289,-8.00e-04,
290,-8.00e-04,
291,2.40e-03,
292,3.20e-03,
293,-1.60e-03,
294,3.20e-03,
295,-1.60e-03,
296,2.40e-03,
297,-1.60e-03,
298,2.40e-03,
299,-1.60e-03,
300,2.40e-03,
301,-8.00e-04,
302,2.00e-03,
303,-2.40e-03,
304,-1.60e-03,
305,2.40e-03,
306,2.40e-03,
307,-1.60e-03,
308,-2.40e-03,
309,2.00e-03,
310,2.80e-03,
311,-1.60e-03,
312,-8.00e-04,
313,2.40e-03,
314,2.40e-03,
315,-8.00e-04,
316,2.40e-03,
317,-8.00e-04,
318,3.20e-03,
319,-1.60e-03,
320,-1.60e-03,
321,2.80e-03,
322,-8.00e-04,
323,3.20e-03,
324,-1.60e-03,
325,2.40e-03,
326,2.40e-03,
327,-2.00e-03,
328,-1.60e-03,
329,2.40e-03,
330,-1.60e-03,
331,2.80e-03,
332,2.40e-03,
333,-2.40e-03,
334,-2.40e-03,
335,2.40e-03,
336,-8.00e-04,
337,2.80e-03,
338,3.20e-03,
339,-8.00e-04,
340,-8.00e-04,
341,2.40e-03,
342,-8.00e-04,
343,2.80e-03,
344,2.80e-03,
345,-1.60e-03,
346,2.80e-03,
347,-1.60e-03,
348,2.40e-03,
349,-1.60e-03,
350,-2.40e-03,
351,2.40e-03,
352,2.40e-03,
353,-1.60e-03,
354,-1.60e-03,
355,2.40e-03,
356,-1.60e-03,
357,2.40e-03,
358,-8.00e-04,
359,2.40e-03,
360,-1.60e-03,
361,2.40e-03,
362,-1.60e-03,
363,3.20e-03,
364,2.40e-03,
365,-8.00e-04,
366,2.80e-03,
367,-1.60e-03,
368,2.80e-03,
369,-8.00e-04,
370,-1.60e-03,
371,2.40e-03,
372,-8.00e-04,
373,2.40e-03,
374,3.20e-03,
375,-1.60e-03,
376,-1.60e-03,
377,2.40e-03,
378,2.40e-03,
379,-1.60e-03,
380,2.40e-03,
381,-8.00e-04,
382,3.20e-03,
383,-1.60e-03,
384,-8.00e-04,
385,2.40e-03,
386,2.40e-03,
387,-1.60e-03,
388,-8.00e-04,
389,4.00e-03,
390,2.40e-03,
391,-8.00e-04,
392,2.40e-03,
393,-1.60e-03,
394,3.20e-03,
395,-1.60e-03,
396,3.20e-03,
397,-1.60e-03,
398,2.40e-03,
399,-2.40e-03,
400,-8.00e-04,
401,2.00e-03,
402,2.40e-03,
403,-1.60e-03,
404,-1.60e-03,
405,2.40e-03,
406,-1.60e-03,
407,2.80e-03,
408,-8.00e-04,
409,2.40e-03,
410,2.40e-03,
411,-1.60e-03,
412,2.00e-03,
413,-1.60e-03,
414,2.40e-03,
415,-1.60e-03,
416,-8.00e-04,
417,2.40e-03,
418,-1.60e-03,
419,2.80e-03,
420,-8.00e-04,
421,2.80e-03,
422,2.80e-03,
423,-1.60e-03,
424,2.40e-03,
425,-1.60e-03,
426,-8.00e-04,
427,3.20e-03,
428,-1.60e-03,
429,3.20e-03,
430,2.80e-03,
431,-1.60e-03,
432,-1.60e-03,
433,2.40e-03,
434,-1.60e-03,
435,2.40e-03,
436,2.80e-03,
437,-8.00e-04,
438,2.80e-03,
439,-1.60e-03,
440,1.60e-03,
441,-2.40e-03,
442,-1.60e-03,
443,2.00e-03,
444,2.40e-03,
445,-8.00e-04,
446,2.80e-03,
447,-1.60e-03,
448,-1.60e-03,
449,3.20e-03,
450,-1.60e-03,
451,2.80e-03,
452,3.20e-03,
453,-1.60e-03,
454,2.40e-03,
455,-8.00e-04,
456,2.80e-03,
457,-8.00e-04,
458,-1.60e-03,
459,3.20e-03,
460,2.40e-03,
461,-1.60e-03,
462,-1.60e-03,
463,2.40e-03,
464,3.60e-03,
465,-8.00e-04,
466,-2.40e-03,
467,2.40e-03,
468,-1.60e-03,
469,3.20e-03,
470,2.80e-03,
471,-1.60e-03,
472,-8.00e-04,
473,2.00e-03,
474,2.40e-03,
475,-8.00e-04,
476,2.80e-03,
477,-1.60e-03,
478,-1.60e-03,
479,2.40e-03,
480,-8.00e-04,
481,2.40e-03,
482,-1.60e-03,
483,2.40e-03,
484,2.40e-03,
485,-1.60e-03,
486,-1.60e-03,
487,2.40e-03,
488,-8.00e-04,
489,3.20e-03,
490,-1.60e-03,
491,2.40e-03,
492,2.40e-03,
493,-8.00e-04,
494,-1.60e-03,
495,2.80e-03,
496,-1.60e-03,
497,2.80e-03,
498,-1.60e-03,
499,3.20e-03,
500,-2.40e-03,
501,4.00e-03,
502,2.40e-03,
503,-8.00e-04,
504,2.40e-03,
505,-1.60e-03,
506,2.80e-03,
507,-1.60e-03,
508,3.20e-03,
509,-8.00e-04,
510,-8.00e-04,
511,2.80e-03,
512,2.40e-03,
513,-1.20e-03,
514,-1.60e-03,
515,3.20e-03,
516,2.40e-03,
517,-1.60e-03,
518,-8.00e-04,
519,2.40e-03,
520,-1.60e-03,
521,2.00e-03,
522,2.40e-03,
523,-1.60e-03,
524,3.20e-03,
525,-1.60e-03,
526,2.40e-03,
527,-8.00e-04,
528,-8.00e-04,
529,2.80e-03,
530,2.40e-03,
531,-1.60e-03,
532,2.40e-03,
533,-8.00e-04,
534,-8.00e-04,
535,2.40e-03,
536,2.40e-03,
537,-1.60e-03,
538,2.40e-03,
539,-1.60e-03,
540,-1.60e-03,
541,2.40e-03,
542,-1.60e-03,
543,2.40e-03,
544,2.40e-03,
545,-8.00e-04,
546,2.40e-03,
547,-1.60e-03,
548,2.40e-03,
549,-2.40e-03,
550,-8.00e-04,
551,2.40e-03,
552,2.40e-03,
553,-1.60e-03,
554,-1.60e-03,
555,2.00e-03,
556,-8.00e-04,
557,4.00e-03,
558,3.20e-03,
559,-8.00e-04,
560,2.00e-03,
561,-1.60e-03,
562,-8.00e-04,
563,2.40e-03,
564,2.80e-03,
565,-1.60e-03,
566,-1.60e-03,
567,3.20e-03,
568,-8.00e-04,
569,3.20e-03,
570,-8.00e-04,
571,2.80e-03,
572,3.20e-03,
573,-8.00e-04,
574,-1.60e-03,
575,3.20e-03,
576,-8.00e-04,
577,3.20e-03,
578,-8.00e-04,
579,2.40e-03,
580,-1.60e-03,
581,2.40e-03,
582,1.60e-03,
583,-1.60e-03,
584,2.40e-03,
585,-1.60e-03,
586,2.40e-03,
587,-1.60e-03,
588,-1.60e-03,
589,1.60e-03,
590,1.60e-03,
591,-1.60e-03,
592,-2.40e-03,
593,3.20e-03,
594,1.60e-03,
595,-2.40e-03,
596,-1.60e-03,
597,2.40e-03,
598,1.60e-03,
599,-1.60e-03,
600,2.40e-03,
601,-2.40e-03,
602,2.40e-03,
603,-1.60e-03,
604,3.20e-03,
605,-2.40e-03,
606,2.80e-03,
607,-1.60e-03,
608,3.20e-03,
609,-1.60e-03,
610,-8.00e-04,
611,2.40e-03,
612,-1.60e-03,
613,2.80e-03,
614,3.20e-03,
615,-2.40e-03,
616,3.20e-03,
617,-1.60e-03,
618,-1.60e-03,
619,3.20e-03,
620,-8.00e-04,
621,2.40e-03,
622,-8.00e-04,
623,2.40e-03,
624,-2.40e-03,
625,2.40e-03,
626,-8.00e-04,
627,2.40e-03,
628,4.00e-03,
629,-1.60e-03,
630,2.40e-03,
631,-1.60e-03,
632,2.40e-03,
633,-1.60e-03,
634,3.20e-03,
635,-2.40e-03,
636,2.40e-03,
637,-1.60e-03,
638,-8.00e-04,
639,2.40e-03,
640,-1.60e-03,
641,3.20e-03,
642,-8.00e-04,
643,3.20e-03,
644,2.40e-03,
645,-2.40e-03,
646,3.20e-03,
647,-2.40e-03,
648,-8.00e-04,
649,2.40e-03,
650,-1.60e-03,
651,2.80e-03,
652,2.40e-03,
653,-1.60e-03,
654,-8.00e-04,
655,2.40e-03,
656,-2.40e-03,
657,1.60e-03,
658,2.40e-03,
659,-1.60e-03,
660,3.20e-03,
661,-1.60e-03,
662,-1.60e-03,
663,2.40e-03,
664,3.20e-03,
665,-1.60e-03,
666,3.20e-03,
667,-1.60e-03,
668,-8.00e-04,
669,2.80e-03,
670,-1.60e-03,
671,3.20e-03,
672,-1.60e-03,
673,3.20e-03,
674,2.40e-03,
675,-1.60e-03,
676,-1.60e-03,
677,3.20e-03,
678,3.20e-03,
679,-8.00e-04,
680,2.40e-03,
681,-1.60e-03,
682,-1.60e-03,
683,2.40e-03,
684,-8.00e-04,
685,4.00e-03,
686,-8.00e-04,
687,2.80e-03,
688,-8.00e-04,
689,2.80e-03,
690,-1.60e-03,
691,2.80e-03,
692,3.20e-03,
693,-1.60e-03,
694,-8.00e-04,
695,3.20e-03,
696,-8.00e-04,
697,3.20e-03,
698,3.20e-03,
699,-1.60e-03,
700,-1.60e-03,
701,3.20e-03,
702,3.20e-03,
703,-1.60e-03,
704,-8.00e-04,
705,3.20e-03,
706,4.00e-03,
707,-1.60e-03,
708,3.20e-03,
709,-1.60e-03,
710,2.40e-03,
711,-8.00e-04,
712,3.20e-03,
713,-1.60e-03,
714,-1.60e-03,
715,3.20e-03,
716,-8.00e-04,
717,2.40e-03,
718,2.40e-03,
719,-8.00e-04,
720,3.20e-03,
721,-1.60e-03,
722,2.40e-03,
723,-1.60e-03,
724,-8.00e-04,
725,2.40e-03,
726,-1.60e-03,
727,2.40e-03,
728,2.40e-03,
729,-1.60e-03,
730,4.00e-03,
731,-8.00e-04,
732,-8.00e-04,
733,2.80e-03,
734,3.20e-03,
735,-1.60e-03,
736,-8.00e-04,
737,2.40e-03,
738,2.40e-03,
739,-1.60e-03,
740,2.40e-03,
741,-8.00e-04,
742,-1.60e-03,
743,3.20e-03,
744,2.00e-03,
745,-1.60e-03,
746,2.40e-03,
747,-1.60e-03,
748,-1.60e-03,
749,2.40e-03,
750,-1.60e-03,
751,3.20e-03,
752,3.20e-03,
753,-1.60e-03,
754,4.00e-03,
755,-8.00e-04,
756,2.40e-03,
757,-2.40e-03,
758,4.00e-03,
759,-1.60e-03,
760,2.40e-03,
761,-1.60e-03,
762,2.40e-03,
763,-1.60e-03,
764,3.20e-03,
765,-2.40e-03,
766,-1.20e-03,
767,4.00e-03,
768,3.20e-03,
769,-1.60e-03,
770,2.40e-03,
771,-2.40e-03,
772,-1.60e-03,
773,3.20e-03,
774,-1.60e-03,
775,2.40e-03,
776,-1.60e-03,
777,2.80e-03,
778,2.40e-03,
779,-1.60e-03,
780,3.20e-03,
781,-1.60e-03,
782,2.40e-03,
783,-2.40e-03,
784,2.40e-03,
785,-1.60e-03,
786,-8.00e-04,
787,3.20e-03,
788,3.20e-03,
789,-1.60e-03,
790,2.40e-03,
791,-1.60e-03,
792,-8.00e-04,
793,3.20e-03,
794,-1.60e-03,
795,2.80e-03,
796,-1.60e-03,
797,3.20e-03,
798,-1.60e-03,
799,2.80e-03,
800,3.20e-03,
801,-2.40e-03,
802,2.80e-03,
803,-8.00e-04,
804,-1.60e-03,
805,2.80e-03,
806,4.00e-03,
807,-1.60e-03,
808,3.20e-03,
809,-1.60e-03,
810,2.40e-03,
811,-1.60e-03,
812,4.00e-03,
813,-8.00e-04,
814,3.20e-03,
815,-8.00e-04,
816,-1.60e-03,
817,2.80e-03,
818,2.40e-03,
819,-1.60e-03,
820,2.80e-03,
821,-1.60e-03,
822,-8.00e-04,
823,3.20e-03,
824,-8.00e-04,
825,2.40e-03,
826,-1.60e-03,
827,2.40e-03,
828,-8.00e-04,
829,3.20e-03,
830,2.40e-03,
831,-1.60e-03,
832,2.40e-03,
833,-1.60e-03,
834,3.20e-03,
835,-1.60e-03,
836,2.40e-03,
837,-1.60e-03,
838,-1.60e-03,
839,2.40e-03,
840,2.80e-03,
841,-8.00e-04,
842,3.20e-03,
843,-1.60e-03,
844,3.20e-03,
845,-1.60e-03,
846,-1.60e-03,
847,2.40e-03,
848,2.40e-03,
849,-1.60e-03,
850,-8.00e-04,
851,2.40e-03,
852,3.20e-03,
853,-2.40e-03,
854,-1.60e-03,
855,3.20e-03,
856,-1.60e-03,
857,2.40e-03,
858,-1.60e-03,
859,2.40e-03,
860,-8.00e-04,
861,3.20e-03,
862,-1.60e-03,
863,4.00e-03,
864,-1.60e-03,
865,2.80e-03,
866,2.40e-03,
867,-8.00e-04,
868,-8.00e-04,
869,3.20e-03,
870,-1.60e-03,
871,2.40e-03,
872,-8.00e-04,
873,3.20e-03,
874,2.40e-03,
875,-2.40e-03,
876,-8.00e-04,
877,3.20e-03,
878,-8.00e-04,
879,3.20e-03,
880,3.60e-03,
881,-1.60e-03,
882,3.20e-03,
883,-1.60e-03,
884,-1.60e-03,
885,3.20e-03,
886,-8.00e-04,
887,3.20e-03,
888,-8.00e-04,
889,3.20e-03,
890,2.40e-03,
891,-1.60e-03,
892,3.20e-03,
893,-2.40e-03,
894,2.40e-03,
895,-1.60e-03,
896,-1.60e-03,
897,2.40e-03,
898,-1.60e-03,
899,2.40e-03,
900,-1.60e-03,
901,3.20e-03,
902,-8.00e-04,
903,2.40e-03,
904,2.00e-03,
905,-1.60e-03,
906,2.40e-03,
907,-1.60e-03,
908,3.20e-03,
909,-1.60e-03,
910,2.00e-03,
911,-1.60e-03,
912,-1.60e-03,
913,2.40e-03,
914,2.40e-03,
915,-8.00e-04,
916,3.20e-03,
917,-1.60e-03,
918,3.20e-03,
919,-1.60e-03,
920,3.20e-03,
921,-8.00e-04,
922,-1.60e-03,
923,3.20e-03,
924,2.80e-03,
925,-1.60e-03,
926,-8.00e-04,
927,3.20e-03,
928,2.40e-03,
929,-1.60e-03,
930,-1.60e-03,
931,2.40e-03,
932,2.80e-03,
933,-8.00e-04,
934,-1.60e-03,
935,3.20e-03,
936,4.00e-03,
937,-2.40e-03,
938,2.80e-03,
939,-8.00e-04,
940,-8.00e-04,
941,2.00e-03,
942,3.60e-03,
943,-2.40e-03,
944,-1.60e-03,
945,2.40e-03,
946,2.40e-03,
947,-8.00e-04,
948,2.00e-03,
949,-1.60e-03,
950,3.60e-03,
951,-8.00e-04,
952,-1.60e-03,
953,2.40e-03,
954,2.40e-03,
955,-1.60e-03,
956,-1.60e-03,
957,2.80e-03,
958,-1.60e-03,
959,1.60e-03,
960,-1.60e-03,
961,3.20e-03,
962,3.20e-03,
963,-1.60e-03,
964,2.40e-03,
965,-1.60e-03,
966,-8.00e-04,
967,2.00e-03,
968,2.40e-03,
969,-1.60e-03,
970,-1.60e-03,
971,2.80e-03,
972,3.20e-03,
973,-1.60e-03,
974,2.40e-03,
975,-1.60e-03,
976,-1.60e-03,
977,2.40e-03,
978,3.20e-03,
979,-1.60e-03,
980,2.40e-03,
981,-2.40e-03,
982,2.40e-03,
983,-1.60e-03,
984,-1.60e-03,
985,3.20e-03,
986,-1.60e-03,
987,2.40e-03,
988,2.40e-03,
989,-1.60e-03,
990,2.40e-03,
991,-1.60e-03,
992,1.60e-03,
993,-2.40e-03,
994,-1.60e-03,
995,2.40e-03,
996,-1.60e-03,
997,2.40e-03,
998,-1.60e-03,
999,2.40e-03,
1000,-2.40e-03,
1001,2.40e-03,
1002,-1.60e-03,
1003,2.00e-03,
1004,1.60e-03,
1005,-1.60e-03,
1006,2.40e-03,
1007,-1.60e-03,
1008,-1.20e-03,
1009,2.40e-03,
1010,2.40e-03,
1011,-1.60e-03,
1012,-8.00e-04,
1013,2.40e-03,
1014,2.80e-03,
1015,-8.00e-04,
1016,3.20e-03,
1017,-1.60e-03,
1018,-8.00e-04,
1019,3.20e-03,
1020,-1.60e-03,
1021,2.80e-03,
1022,2.80e-03,
1023,-8.00e-04,
1024,2.40e-03,
1025,-1.60e-03,
1026,2.40e-03,
1027,-1.60e-03,
1028,1.60e-03,
1029,-1.60e-03,
1030,2.40e-03,
1031,-1.60e-03,
1032,2.40e-03,
1033,-1.60e-03,
1034,-1.60e-03,
1035,2.40e-03,
1036,2.40e-03,
1037,-1.60e-03,
1038,-1.60e-03,
1039,2.00e-03,
1040,-1.60e-03,
1041,2.00e-03,
1042,-1.60e-03,
1043,2.40e-03,
1044,-1.60e-03,
1045,2.40e-03,
1046,-1.60e-03,
1047,2.40e-03,
1048,-1.60e-03,
1049,2.40e-03,
1050,-8.00e-04,
1051,2.40e-03,
1052,-8.00e-04,
1053,3.20e-03,
1054,2.40e-03,
1055,-1.60e-03,
1056,2.40e-03,
1057,-1.60e-03,
1058,-8.00e-04,
1059,3.20e-03,
1060,2.40e-03,
1061,-8.00e-04,
1062,2.40e-03,
1063,-1.60e-03,
1064,2.40e-03,
1065,-1.60e-03,
1066,-8.00e-04,
1067,3.20e-03,
1068,2.40e-03,
1069,-8.00e-04,
1070,-1.60e-03,
1071,3.20e-03,
1072,-1.60e-03,
1073,2.80e-03,
1074,2.40e-03,
1075,-1.60e-03,
1076,2.40e-03,
1077,-1.60e-03,
1078,3.20e-03,
1079,-8.00e-04,
1080,1.60e-03,
1081,-1.60e-03,
1082,3.20e-03,
1083,-8.00e-04,
1084,-1.60e-03,
1085,2.80e-03,
1086,2.40e-03,
1087,-8.00e-04,
1088,4.00e-03,
1089,-1.60e-03,
1090,2.40e-03,
1091,-1.60e-03,
1092,2.40e-03,
1093,-1.60e-03,
1094,-8.00e-04,
1095,4.80e-03,
1096,3.20e-03,
1097,-1.60e-03,
1098,2.40e-03,
1099,-1.60e-03,
1100,-1.60e-03,
1101,2.00e-03,
1102,2.40e-03,
1103,-1.60e-03,
1104,-2.40e-03,
1105,2.40e-03,
1106,2.40e-03,
1107,-1.60e-03,
1108,3.20e-03,
1109,-1.60e-03,
1110,2.40e-03,
1111,-8.00e-04,
1112,-1.60e-03,
1113,2.00e-03,
1114,-1.20e-03,
1115,2.40e-03,
1116,2.40e-03,
1117,-8.00e-04,
1118,-1.60e-03,
1119,2.40e-03,
1120,-8.00e-04,
1121,2.40e-03,
1122,2.40e-03,
1123,-1.60e-03,
1124,2.40e-03,
1125,-8.00e-04,
1126,2.40e-03,
1127,-1.60e-03,
1128,2.00e-03,
1129,-1.60e-03,
1130,2.40e-03,
1131,-1.60e-03,
1132,2.40e-03,
1133,-8.00e-04,
1134,2.00e-03,
1135,-1.60e-03,
1136,-1.60e-03,
1137,2.80e-03,
1138,1.60e-03,
1139,-1.60e-03,
1140,2.40e-03,
1141,-1.60e-03,
1142,2.40e-03,
1143,-1.60e-03,
1144,2.40e-03,
1145,-1.60e-03,
1146,2.40e-03,
1147,-1.60e-03,
1148,-8.00e-04,
1149,2.80e-03,
1150,-1.60e-03,
1151,2.40e-03,
1152,-8.00e-04,
1153,2.40e-03,
1154,-1.60e-03,
1155,2.00e-03,
1156,2.40e-03,
1157,-1.60e-03,
1158,3.20e-03,
1159,-1.60e-03,
1160,-1.60e-03,
1161,2.40e-03,
1162,-1.60e-03,
1163,2.40e-03,
1164,-1.60e-03,
1165,2.80e-03,
1166,2.40e-03,
1167,-1.60e-03,
1168,-8.00e-04,
1169,2.40e-03,
1170,2.80e-03,
1171,-8.00e-04,
1172,3.20e-03,
1173,-1.60e-03,
1174,2.40e-03,
1175,-1.60e-03,
1176,2.40e-03,
1177,-1.60e-03,
1178,2.40e-03,
1179,-8.00e-04,
1180,2.40e-03,
1181,-8.00e-04,
1182,2.40e-03,
1183,-1.60e-03,
1184,2.40e-03,
1185,-1.60e-03,
1186,-8.00e-04,
1187,2.40e-03,
1188,2.40e-03,
1189,-2.40e-03,
1190,-1.60e-03,
1191,2.80e-03,
1192,2.40e-03,
1193,-8.00e-04,
1194,3.20e-03,
1195,-1.60e-03,
1196,2.40e-03,
1197,-2.40e-03,
1198,-8.00e-04,
1199,2.80e-03,
