fastdiffamp/data-noise-set/5th/NewFile8.csv

X,CH1,Start,Increment,
Sequence,Volt,-1.200000e-02,2.000000e-05
0,-8.00e-04,
1,2.40e-03,
2,-8.00e-04,
3,2.40e-03,
4,-8.00e-04,
5,2.80e-03,
6,2.40e-03,
7,0.00e+00,
8,-8.00e-04,
9,2.80e-03,
10,2.40e-03,
11,-8.00e-04,
12,2.80e-03,
13,-8.00e-04,
14,-8.00e-04,
15,2.40e-03,
16,-8.00e-04,
17,1.60e-03,
18,-8.00e-04,
19,2.40e-03,
20,2.40e-03,
21,-1.60e-03,
22,2.80e-03,
23,-8.00e-04,
24,2.40e-03,
25,0.00e+00,
26,0.00e+00,
27,3.20e-03,
28,0.00e+00,
29,2.40e-03,
30,2.40e-03,
31,0.00e+00,
32,2.40e-03,
33,-8.00e-04,
34,-8.00e-04,
35,3.20e-03,
36,2.40e-03,
37,-8.00e-04,
38,2.40e-03,
39,-1.60e-03,
40,2.40e-03,
41,-8.00e-04,
42,-8.00e-04,
43,2.40e-03,
44,0.00e+00,
45,2.40e-03,
46,-8.00e-04,
47,2.40e-03,
48,2.40e-03,
49,-8.00e-04,
50,2.80e-03,
51,-8.00e-04,
52,2.40e-03,
53,-8.00e-04,
54,1.60e-03,
55,-8.00e-04,
56,2.80e-03,
57,-8.00e-04,
58,1.60e-03,
59,-8.00e-04,
60,2.00e-03,
61,-1.20e-03,
62,1.60e-03,
63,-8.00e-04,
64,-8.00e-04,
65,2.00e-03,
66,-1.60e-03,
67,1.60e-03,
68,-8.00e-04,
69,2.00e-03,
70,2.00e-03,
71,-8.00e-04,
72,-8.00e-04,
73,2.40e-03,
74,-8.00e-04,
75,2.40e-03,
76,2.40e-03,
77,-8.00e-04,
78,-8.00e-04,
79,2.40e-03,
80,-8.00e-04,
81,2.00e-03,
82,-1.60e-03,
83,3.20e-03,
84,-8.00e-04,
85,2.40e-03,
86,-8.00e-04,
87,2.40e-03,
88,2.40e-03,
89,0.00e+00,
90,2.80e-03,
91,-1.60e-03,
92,-8.00e-04,
93,3.20e-03,
94,2.40e-03,
95,-8.00e-04,
96,-8.00e-04,
97,2.40e-03,
98,-1.60e-03,
99,2.40e-03,
100,0.00e+00,
101,2.40e-03,
102,0.00e+00,
103,3.20e-03,
104,-8.00e-04,
105,2.40e-03,
106,2.40e-03,
107,0.00e+00,
108,1.60e-03,
109,-8.00e-04,
110,3.60e-03,
111,-8.00e-04,
112,2.40e-03,
113,-8.00e-04,
114,2.40e-03,
115,-8.00e-04,
116,-8.00e-04,
117,3.20e-03,
118,2.40e-03,
119,-8.00e-04,
120,2.80e-03,
121,-8.00e-04,
122,2.40e-03,
123,-8.00e-04,
124,0.00e+00,
125,2.40e-03,
126,2.40e-03,
127,0.00e+00,
128,-8.00e-04,
129,2.40e-03,
130,2.40e-03,
131,-8.00e-04,
132,2.00e-03,
133,-8.00e-04,
134,-8.00e-04,
135,2.40e-03,
136,-8.00e-04,
137,2.80e-03,
138,-8.00e-04,
139,2.40e-03,
140,0.00e+00,
141,2.80e-03,
142,3.20e-03,
143,-8.00e-04,
144,-8.00e-04,
145,3.20e-03,
146,2.40e-03,
147,0.00e+00,
148,0.00e+00,
149,2.40e-03,
150,-4.00e-04,
151,3.20e-03,
152,0.00e+00,
153,2.40e-03,
154,2.40e-03,
155,-8.00e-04,
156,2.40e-03,
157,-8.00e-04,
158,0.00e+00,
159,2.40e-03,
160,-8.00e-04,
161,2.40e-03,
162,0.00e+00,
163,2.40e-03,
164,2.40e-03,
165,-8.00e-04,
166,0.00e+00,
167,2.40e-03,
168,2.40e-03,
169,-8.00e-04,
170,-8.00e-04,
171,2.00e-03,
172,2.40e-03,
173,-8.00e-04,
174,0.00e+00,
175,2.40e-03,
176,0.00e+00,
177,2.80e-03,
178,2.80e-03,
179,-8.00e-04,
180,0.00e+00,
181,3.20e-03,
182,2.40e-03,
183,0.00e+00,
184,0.00e+00,
185,3.20e-03,
186,0.00e+00,
187,3.20e-03,
188,2.40e-03,
189,-8.00e-04,
190,2.40e-03,
191,0.00e+00,
192,2.40e-03,
193,0.00e+00,
194,3.20e-03,
195,0.00e+00,
196,-8.00e-04,
197,2.40e-03,
198,0.00e+00,
199,2.80e-03,
200,0.00e+00,
201,2.40e-03,
202,2.40e-03,
203,-8.00e-04,
204,2.40e-03,
205,-8.00e-04,
206,3.20e-03,
207,0.00e+00,
208,-1.60e-03,
209,2.40e-03,
210,-8.00e-04,
211,3.20e-03,
212,0.00e+00,
213,2.40e-03,
214,-8.00e-04,
215,2.80e-03,
216,-8.00e-04,
217,2.40e-03,
218,-8.00e-04,
219,2.80e-03,
220,-1.60e-03,
221,3.20e-03,
222,0.00e+00,
223,2.80e-03,
224,-8.00e-04,
225,2.40e-03,
226,-8.00e-04,
227,2.40e-03,
228,2.40e-03,
229,-8.00e-04,
230,2.40e-03,
231,0.00e+00,
232,1.60e-03,
233,-8.00e-04,
234,0.00e+00,
235,2.00e-03,
236,2.40e-03,
237,-8.00e-04,
238,0.00e+00,
239,2.40e-03,
240,2.40e-03,
241,0.00e+00,
242,2.40e-03,
243,0.00e+00,
244,2.40e-03,
245,-8.00e-04,
246,-8.00e-04,
247,2.40e-03,
248,2.40e-03,
249,-1.60e-03,
250,2.40e-03,
251,-8.00e-04,
252,2.40e-03,
253,-8.00e-04,
254,3.20e-03,
255,-8.00e-04,
256,2.40e-03,
257,-8.00e-04,
258,0.00e+00,
259,2.40e-03,
260,3.20e-03,
261,-8.00e-04,
262,2.40e-03,
263,-8.00e-04,
264,2.40e-03,
265,-1.60e-03,
266,2.40e-03,
267,-8.00e-04,
268,0.00e+00,
269,2.40e-03,
270,2.40e-03,
271,0.00e+00,
272,0.00e+00,
273,2.00e-03,
274,-8.00e-04,
275,2.40e-03,
276,-1.60e-03,
277,3.20e-03,
278,3.20e-03,
279,-8.00e-04,
280,2.40e-03,
281,0.00e+00,
282,0.00e+00,
283,2.40e-03,
284,8.00e-04,
285,3.20e-03,
286,-8.00e-04,
287,3.20e-03,
288,0.00e+00,
289,2.40e-03,
290,2.80e-03,
291,-8.00e-04,
292,-1.60e-03,
293,2.40e-03,
294,0.00e+00,
295,2.80e-03,
296,2.40e-03,
297,-8.00e-04,
298,2.40e-03,
299,-8.00e-04,
300,2.40e-03,
301,0.00e+00,
302,2.00e-03,
303,-8.00e-04,
304,0.00e+00,
305,2.80e-03,
306,3.20e-03,
307,-8.00e-04,
308,2.40e-03,
309,0.00e+00,
310,0.00e+00,
311,2.40e-03,
312,2.40e-03,
313,-8.00e-04,
314,-8.00e-04,
315,2.40e-03,
316,-8.00e-04,
317,2.40e-03,
318,2.40e-03,
319,-8.00e-04,
320,-8.00e-04,
321,3.20e-03,
322,2.00e-03,
323,-8.00e-04,
324,-2.40e-03,
325,1.60e-03,
326,1.60e-03,
327,-8.00e-04,
328,2.80e-03,
329,-8.00e-04,
330,-1.60e-03,
331,1.60e-03,
332,-8.00e-04,
333,2.00e-03,
334,-8.00e-04,
335,3.20e-03,
336,-8.00e-04,
337,3.20e-03,
338,-1.60e-03,
339,2.40e-03,
340,-1.60e-03,
341,2.00e-03,
342,3.20e-03,
343,-8.00e-04,
344,-8.00e-04,
345,2.40e-03,
346,2.40e-03,
347,-1.60e-03,
348,-1.60e-03,
349,2.40e-03,
350,2.00e-03,
351,-1.60e-03,
352,-8.00e-04,
353,1.60e-03,
354,2.40e-03,
355,-8.00e-04,
356,-8.00e-04,
357,2.00e-03,
358,-1.60e-03,
359,2.00e-03,
360,-1.60e-03,
361,1.60e-03,
362,-2.40e-03,
363,2.00e-03,
364,1.60e-03,
365,-1.60e-03,
366,-8.00e-04,
367,1.20e-03,
368,8.00e-04,
369,-1.60e-03,
370,-1.60e-03,
371,1.60e-03,
372,2.40e-03,
373,-8.00e-04,
374,-1.60e-03,
375,2.00e-03,
376,2.00e-03,
377,-1.60e-03,
378,1.60e-03,
379,-8.00e-04,
380,-1.60e-03,
381,1.60e-03,
382,-8.00e-04,
383,2.40e-03,
384,1.60e-03,
385,-8.00e-04,
386,-8.00e-04,
387,2.00e-03,
388,-1.60e-03,
389,2.00e-03,
390,1.60e-03,
391,-2.40e-03,
392,-2.40e-03,
393,1.60e-03,
394,1.60e-03,
395,-1.60e-03,
396,2.00e-03,
397,-1.60e-03,
398,-1.60e-03,
399,1.60e-03,
400,-1.60e-03,
401,2.40e-03,
402,-8.00e-04,
403,1.60e-03,
404,-1.60e-03,
405,2.40e-03,
406,-2.40e-03,
407,1.60e-03,
408,1.60e-03,
409,-1.60e-03,
410,-8.00e-04,
411,1.60e-03,
412,1.60e-03,
413,-1.60e-03,
414,2.40e-03,
415,-1.60e-03,
416,-8.00e-04,
417,2.40e-03,
418,2.00e-03,
419,-8.00e-04,
420,-8.00e-04,
421,1.60e-03,
422,1.60e-03,
423,-1.60e-03,
424,1.60e-03,
425,-1.60e-03,
426,-1.60e-03,
427,2.80e-03,
428,2.40e-03,
429,-1.60e-03,
430,-1.60e-03,
431,2.40e-03,
432,-8.00e-04,
433,2.00e-03,
434,-8.00e-04,
435,2.40e-03,
436,-8.00e-04,
437,2.00e-03,
438,2.40e-03,
439,-8.00e-04,
440,2.40e-03,
441,-8.00e-04,
442,2.40e-03,
443,-8.00e-04,
444,2.00e-03,
445,-8.00e-04,
446,1.60e-03,
447,-8.00e-04,
448,2.00e-03,
449,-8.00e-04,
450,1.60e-03,
451,-8.00e-04,
452,-1.60e-03,
453,1.60e-03,
454,0.00e+00,
455,2.40e-03,
456,-8.00e-04,
457,1.60e-03,
458,1.60e-03,
459,-8.00e-04,
460,1.60e-03,
461,-8.00e-04,
462,-8.00e-04,
463,1.60e-03,
464,-8.00e-04,
465,1.60e-03,
466,-1.60e-03,
467,1.60e-03,
468,1.60e-03,
469,-1.60e-03,
470,1.60e-03,
471,-1.60e-03,
472,2.40e-03,
473,-1.60e-03,
474,-1.60e-03,
475,1.60e-03,
476,2.00e-03,
477,-8.00e-04,
478,-1.60e-03,
479,2.00e-03,
480,-1.60e-03,
481,1.20e-03,
482,-8.00e-04,
483,1.60e-03,
484,1.60e-03,
485,-1.60e-03,
486,-1.60e-03,
487,1.60e-03,
488,2.00e-03,
489,-8.00e-04,
490,-1.60e-03,
491,1.60e-03,
492,-8.00e-04,
493,1.20e-03,
494,2.00e-03,
495,-1.60e-03,
496,-1.60e-03,
497,1.60e-03,
498,1.60e-03,
499,-1.60e-03,
500,2.00e-03,
501,-1.60e-03,
502,1.60e-03,
503,-8.00e-04,
504,1.60e-03,
505,-1.60e-03,
506,1.20e-03,
507,-1.60e-03,
508,1.60e-03,
509,-1.60e-03,
510,-1.60e-03,
511,1.60e-03,
512,-8.00e-04,
513,2.00e-03,
514,1.60e-03,
515,-1.60e-03,
516,-8.00e-04,
517,2.40e-03,
518,1.60e-03,
519,-1.60e-03,
520,-8.00e-04,
521,2.40e-03,
522,-8.00e-04,
523,2.00e-03,
524,-8.00e-04,
525,2.00e-03,
526,1.20e-03,
527,-1.60e-03,
528,-1.60e-03,
529,2.40e-03,
530,1.60e-03,
531,-1.60e-03,
532,-8.00e-04,
533,2.40e-03,
534,-1.60e-03,
535,1.60e-03,
536,2.00e-03,
537,-1.60e-03,
538,2.40e-03,
539,-8.00e-04,
540,-8.00e-04,
541,2.00e-03,
542,-1.60e-03,
543,1.60e-03,
544,-8.00e-04,
545,1.60e-03,
546,1.60e-03,
547,-8.00e-04,
548,-1.60e-03,
549,2.40e-03,
550,-1.60e-03,
551,2.80e-03,
552,1.60e-03,
553,-1.60e-03,
554,-8.00e-04,
555,1.60e-03,
556,1.60e-03,
557,-8.00e-04,
558,-1.60e-03,
559,3.20e-03,
560,1.60e-03,
561,-1.60e-03,
562,1.60e-03,
563,-1.60e-03,
564,2.40e-03,
565,-8.00e-04,
566,1.60e-03,
567,-1.60e-03,
568,-1.60e-03,
569,2.40e-03,
570,2.40e-03,
571,-1.60e-03,
572,1.60e-03,
573,-1.60e-03,
574,1.60e-03,
575,-1.60e-03,
576,-8.00e-04,
577,1.60e-03,
578,-1.60e-03,
579,1.60e-03,
580,-8.00e-04,
581,2.40e-03,
582,2.40e-03,
583,-1.60e-03,
584,-2.40e-03,
585,2.40e-03,
586,-8.00e-04,
587,1.60e-03,
588,-1.60e-03,
589,1.60e-03,
590,-8.00e-04,
591,2.40e-03,
592,2.00e-03,
593,-8.00e-04,
594,-8.00e-04,
595,2.00e-03,
596,-8.00e-04,
597,1.60e-03,
598,2.40e-03,
599,-8.00e-04,
600,-8.00e-04,
601,2.40e-03,
602,2.40e-03,
603,-1.60e-03,
604,1.60e-03,
605,-8.00e-04,
606,2.40e-03,
607,-1.60e-03,
608,1.60e-03,
609,-1.60e-03,
610,-8.00e-04,
611,2.40e-03,
612,2.40e-03,
613,-1.60e-03,
614,-8.00e-04,
615,2.40e-03,
616,-8.00e-04,
617,2.00e-03,
618,-8.00e-04,
619,2.40e-03,
620,-8.00e-04,
621,1.60e-03,
622,1.60e-03,
623,-1.60e-03,
624,1.60e-03,
625,-8.00e-04,
626,1.60e-03,
627,-8.00e-04,
628,-8.00e-04,
629,1.60e-03,
630,1.60e-03,
631,-1.60e-03,
632,1.60e-03,
633,-8.00e-04,
634,-8.00e-04,
635,2.40e-03,
636,-8.00e-04,
637,2.40e-03,
638,1.60e-03,
639,-1.60e-03,
640,2.40e-03,
641,-8.00e-04,
642,-8.00e-04,
643,2.00e-03,
644,-8.00e-04,
645,1.60e-03,
646,-1.60e-03,
647,1.20e-03,
648,2.00e-03,
649,-1.60e-03,
650,-8.00e-04,
651,1.60e-03,
652,2.40e-03,
653,-8.00e-04,
654,1.60e-03,
655,-8.00e-04,
656,2.00e-03,
657,-1.20e-03,
658,-8.00e-04,
659,2.00e-03,
660,-8.00e-04,
661,1.60e-03,
662,2.00e-03,
663,-1.60e-03,
664,2.00e-03,
665,-2.40e-03,
666,-8.00e-04,
667,2.40e-03,
668,-8.00e-04,
669,1.60e-03,
670,-8.00e-04,
671,2.40e-03,
672,2.40e-03,
673,-8.00e-04,
674,-8.00e-04,
675,2.40e-03,
676,1.60e-03,
677,-1.60e-03,
678,-1.60e-03,
679,2.40e-03,
680,-2.40e-03,
681,8.00e-04,
682,1.60e-03,
683,-2.40e-03,
684,1.60e-03,
685,-1.60e-03,
686,8.00e-04,
687,-2.40e-03,
688,-2.40e-03,
689,8.00e-04,
690,1.20e-03,
691,-1.60e-03,
692,-1.60e-03,
693,1.60e-03,
694,1.60e-03,
695,-2.40e-03,
696,-1.60e-03,
697,1.60e-03,
698,1.60e-03,
699,-1.60e-03,
700,-2.40e-03,
701,1.60e-03,
702,8.00e-04,
703,-2.40e-03,
704,-2.40e-03,
705,2.00e-03,
706,-1.60e-03,
707,8.00e-04,
708,-1.60e-03,
709,8.00e-04,
710,-1.60e-03,
711,8.00e-04,
712,-1.60e-03,
713,1.60e-03,
714,-1.60e-03,
715,1.20e-03,
716,-1.60e-03,
717,1.60e-03,
718,1.20e-03,
719,-1.60e-03,
720,8.00e-04,
721,-1.60e-03,
722,-2.40e-03,
723,1.60e-03,
724,-2.40e-03,
725,1.20e-03,
726,8.00e-04,
727,-2.40e-03,
728,8.00e-04,
729,-1.60e-03,
730,1.60e-03,
731,-3.20e-03,
732,-1.60e-03,
733,2.40e-03,
734,-1.60e-03,
735,1.60e-03,
736,-2.40e-03,
737,1.60e-03,
738,-1.60e-03,
739,8.00e-04,
740,-2.40e-03,
741,1.60e-03,
742,-1.60e-03,
743,1.20e-03,
744,1.60e-03,
745,-2.40e-03,
746,-2.40e-03,
747,1.60e-03,
748,-2.40e-03,
749,2.00e-03,
750,8.00e-04,
751,-1.60e-03,
752,-1.60e-03,
753,1.60e-03,
754,-2.00e-03,
755,2.00e-03,
756,1.60e-03,
757,-2.40e-03,
758,8.00e-04,
759,-2.40e-03,
760,-1.60e-03,
761,1.20e-03,
762,-1.60e-03,
763,1.60e-03,
764,-1.60e-03,
765,1.60e-03,
766,1.60e-03,
767,-2.40e-03,
768,-2.40e-03,
769,2.40e-03,
770,1.60e-03,
771,-2.40e-03,
772,1.60e-03,
773,-2.40e-03,
774,-1.60e-03,
775,1.60e-03,
776,-1.60e-03,
777,8.00e-04,
778,1.20e-03,
779,-2.40e-03,
780,8.00e-04,
781,-2.40e-03,
782,8.00e-04,
783,-1.60e-03,
784,-1.60e-03,
785,1.60e-03,
786,1.20e-03,
787,-1.60e-03,
788,8.00e-04,
789,-1.60e-03,
790,-1.60e-03,
791,1.60e-03,
792,-1.60e-03,
793,1.60e-03,
794,1.60e-03,
795,-1.60e-03,
796,-1.60e-03,
797,2.00e-03,
798,-2.40e-03,
799,1.20e-03,
800,-1.60e-03,
801,1.60e-03,
802,1.20e-03,
803,-2.40e-03,
804,-8.00e-04,
805,1.20e-03,
806,-1.60e-03,
807,1.20e-03,
808,1.60e-03,
809,-3.20e-03,
810,-1.60e-03,
811,1.60e-03,
812,-1.60e-03,
813,8.00e-04,
814,-2.40e-03,
815,1.60e-03,
816,-1.60e-03,
817,2.00e-03,
818,1.60e-03,
819,-1.60e-03,
820,-1.60e-03,
821,1.20e-03,
822,-1.60e-03,
823,2.00e-03,
824,1.60e-03,
825,-1.60e-03,
826,-1.60e-03,
827,8.00e-04,
828,-3.20e-03,
829,8.00e-04,
830,-8.00e-04,
831,1.60e-03,
832,1.60e-03,
833,-2.40e-03,
834,-1.60e-03,
835,1.60e-03,
836,-8.00e-04,
837,1.60e-03,
838,8.00e-04,
839,-1.60e-03,
840,8.00e-04,
841,-1.60e-03,
842,-1.60e-03,
843,1.60e-03,
844,-1.60e-03,
845,1.60e-03,
846,-1.60e-03,
847,2.00e-03,
848,-1.60e-03,
849,1.60e-03,
850,8.00e-04,
851,-1.60e-03,
852,1.60e-03,
853,-1.60e-03,
854,-1.60e-03,
855,1.60e-03,
856,2.40e-03,
857,-1.60e-03,
858,1.60e-03,
859,-1.60e-03,
860,-1.60e-03,
861,1.60e-03,
862,-1.60e-03,
863,1.60e-03,
864,8.00e-04,
865,-1.60e-03,
866,-1.60e-03,
867,1.60e-03,
868,1.60e-03,
869,-1.60e-03,
870,-1.60e-03,
871,8.00e-04,
872,-1.60e-03,
873,2.00e-03,
874,-2.40e-03,
875,1.60e-03,
876,1.60e-03,
877,-1.60e-03,
878,-1.60e-03,
879,1.60e-03,
880,1.60e-03,
881,-1.60e-03,
882,-1.60e-03,
883,1.60e-03,
884,-8.00e-04,
885,1.60e-03,
886,-1.20e-03,
887,1.20e-03,
888,-1.60e-03,
889,2.00e-03,
890,-2.40e-03,
891,1.60e-03,
892,-1.60e-03,
893,1.60e-03,
894,1.60e-03,
895,-1.60e-03,
896,1.60e-03,
897,-1.60e-03,
898,-2.40e-03,
899,2.00e-03,
900,-1.60e-03,
901,2.00e-03,
902,-1.60e-03,
903,1.60e-03,
904,2.00e-03,
905,-1.60e-03,
906,1.60e-03,
907,-1.60e-03,
908,2.00e-03,
909,-1.60e-03,
910,-2.40e-03,
911,1.60e-03,
912,-1.60e-03,
913,1.60e-03,
914,1.60e-03,
915,-1.60e-03,
916,8.00e-04,
917,-1.60e-03,
918,-1.60e-03,
919,8.00e-04,
920,-1.60e-03,
921,2.40e-03,
922,2.00e-03,
923,-1.60e-03,
924,-1.60e-03,
925,1.60e-03,
926,1.60e-03,
927,-1.60e-03,
928,-1.60e-03,
929,2.40e-03,
930,1.60e-03,
931,-2.40e-03,
932,-8.00e-04,
933,2.00e-03,
934,-2.40e-03,
935,2.40e-03,
936,-1.60e-03,
937,2.40e-03,
938,-1.60e-03,
939,1.60e-03,
940,1.60e-03,
941,-2.40e-03,
942,-1.60e-03,
943,1.20e-03,
944,-1.60e-03,
945,1.60e-03,
946,-8.00e-04,
947,2.40e-03,
948,2.40e-03,
949,-1.60e-03,
950,1.60e-03,
951,-1.60e-03,
952,1.60e-03,
953,-1.60e-03,
954,-1.60e-03,
955,2.40e-03,
956,-2.40e-03,
957,1.60e-03,
958,1.60e-03,
959,-8.00e-04,
960,2.00e-03,
961,-1.60e-03,
962,-1.60e-03,
963,1.20e-03,
964,1.60e-03,
965,-1.60e-03,
966,1.60e-03,
967,-2.40e-03,
968,-1.60e-03,
969,8.00e-04,
970,1.20e-03,
971,-1.60e-03,
972,1.60e-03,
973,-2.40e-03,
974,-2.40e-03,
975,2.00e-03,
976,-1.60e-03,
977,2.00e-03,
978,-2.40e-03,
979,1.20e-03,
980,1.20e-03,
981,-2.40e-03,
982,-1.60e-03,
983,1.60e-03,
984,2.40e-03,
985,-1.60e-03,
986,1.20e-03,
987,-2.40e-03,
988,-8.00e-04,
989,1.20e-03,
990,-1.60e-03,
991,1.60e-03,
992,1.60e-03,
993,-8.00e-04,
994,1.60e-03,
995,-1.60e-03,
996,2.40e-03,
997,-1.60e-03,
998,1.60e-03,
999,-1.60e-03,
1000,-1.60e-03,
1001,1.60e-03,
1002,1.60e-03,
1003,-1.60e-03,
1004,1.60e-03,
1005,-1.60e-03,
1006,1.60e-03,
1007,-1.60e-03,
1008,1.20e-03,
1009,-1.60e-03,
1010,-1.60e-03,
1011,2.80e-03,
1012,-1.60e-03,
1013,2.40e-03,
1014,1.60e-03,
1015,-1.60e-03,
1016,1.60e-03,
1017,-1.60e-03,
1018,2.40e-03,
1019,-1.60e-03,
1020,-8.00e-04,
1021,2.00e-03,
1022,1.60e-03,
1023,-1.60e-03,
1024,-1.60e-03,
1025,1.60e-03,
1026,1.20e-03,
1027,-1.60e-03,
1028,-1.60e-03,
1029,1.60e-03,
1030,-1.60e-03,
1031,1.20e-03,
1032,1.60e-03,
1033,-1.60e-03,
1034,1.60e-03,
1035,-2.40e-03,
1036,1.60e-03,
1037,-2.40e-03,
1038,-1.60e-03,
1039,1.60e-03,
1040,1.20e-03,
1041,-1.60e-03,
1042,-1.60e-03,
1043,1.60e-03,
1044,1.60e-03,
1045,-2.40e-03,
1046,-2.40e-03,
1047,1.60e-03,
1048,-1.60e-03,
1049,1.60e-03,
1050,-1.60e-03,
1051,8.00e-04,
1052,-1.60e-03,
1053,8.00e-04,
1054,1.20e-03,
1055,-2.40e-03,
1056,-1.60e-03,
1057,1.60e-03,
1058,1.60e-03,
1059,-2.40e-03,
1060,1.20e-03,
1061,-2.40e-03,
1062,-1.60e-03,
1063,1.60e-03,
1064,-1.60e-03,
1065,1.60e-03,
1066,1.60e-03,
1067,-2.00e-03,
1068,-1.60e-03,
1069,8.00e-04,
1070,-1.60e-03,
1071,1.20e-03,
1072,-8.00e-04,
1073,1.60e-03,
1074,-8.00e-04,
1075,1.60e-03,
1076,1.60e-03,
1077,-8.00e-04,
1078,-8.00e-04,
1079,2.40e-03,
1080,1.60e-03,
1081,-1.60e-03,
1082,-8.00e-04,
1083,1.60e-03,
1084,-8.00e-04,
1085,1.60e-03,
1086,-8.00e-04,
1087,1.60e-03,
1088,-8.00e-04,
1089,1.60e-03,
1090,-1.60e-03,
1091,2.40e-03,
1092,-8.00e-04,
1093,1.60e-03,
1094,1.60e-03,
1095,-1.60e-03,
1096,8.00e-04,
1097,-1.60e-03,
1098,-1.60e-03,
1099,2.40e-03,
1100,-8.00e-04,
1101,1.60e-03,
1102,-8.00e-04,
1103,2.40e-03,
1104,1.60e-03,
1105,-8.00e-04,
1106,-1.60e-03,
1107,2.40e-03,
1108,1.60e-03,
1109,-8.00e-04,
1110,-8.00e-04,
1111,2.40e-03,
1112,2.40e-03,
1113,-1.60e-03,
1114,8.00e-04,
1115,-1.60e-03,
1116,1.60e-03,
1117,-1.60e-03,
1118,1.60e-03,
1119,-1.60e-03,
1120,-1.60e-03,
1121,1.20e-03,
1122,-1.60e-03,
1123,2.00e-03,
1124,2.00e-03,
1125,-8.00e-04,
1126,-8.00e-04,
1127,2.40e-03,
1128,-1.60e-03,
1129,1.60e-03,
1130,1.60e-03,
1131,-1.60e-03,
1132,2.40e-03,
1133,-1.60e-03,
1134,-1.60e-03,
1135,1.60e-03,
1136,1.60e-03,
1137,-2.40e-03,
1138,-1.60e-03,
1139,1.60e-03,
1140,-8.00e-04,
1141,1.60e-03,
1142,2.40e-03,
1143,-1.60e-03,
1144,-1.60e-03,
1145,1.60e-03,
1146,2.00e-03,
1147,-8.00e-04,
1148,2.00e-03,
1149,-1.60e-03,
1150,2.00e-03,
1151,-1.60e-03,
1152,1.60e-03,
1153,-1.60e-03,
1154,1.60e-03,
1155,-1.60e-03,
1156,-8.00e-04,
1157,1.60e-03,
1158,-1.60e-03,
1159,1.60e-03,
1160,1.60e-03,
1161,-2.40e-03,
1162,-8.00e-04,
1163,1.60e-03,
1164,-8.00e-04,
1165,1.60e-03,
1166,-1.60e-03,
1167,1.60e-03,
1168,-8.00e-04,
1169,1.20e-03,
1170,-1.60e-03,
1171,1.20e-03,
1172,-1.60e-03,
1173,2.40e-03,
1174,-1.60e-03,
1175,1.60e-03,
1176,-8.00e-04,
1177,1.60e-03,
1178,2.40e-03,
1179,-1.60e-03,
1180,-8.00e-04,
1181,2.00e-03,
1182,-1.60e-03,
1183,1.60e-03,
1184,-8.00e-04,
1185,2.40e-03,
1186,2.40e-03,
1187,-1.60e-03,
1188,2.40e-03,
1189,-1.60e-03,
1190,-8.00e-04,
1191,1.60e-03,
1192,-8.00e-04,
1193,8.00e-04,
1194,-8.00e-04,
1195,2.00e-03,
1196,1.20e-03,
1197,-1.60e-03,
1198,-8.00e-04,
1199,1.60e-03,
