fastdiffamp/data-noise-set/5th/NewFile1.csv

X,CH1,Start,Increment,
Sequence,Volt,-1.200000e-02,2.000000e-05
0,3.20e-03,
1,-1.60e-03,
2,-8.00e-04,
3,2.40e-03,
4,2.40e-03,
5,-2.40e-03,
6,-1.60e-03,
7,3.20e-03,
8,-2.40e-03,
9,3.20e-03,
10,-8.00e-04,
11,2.40e-03,
12,3.20e-03,
13,-1.60e-03,
14,-8.00e-04,
15,2.40e-03,
16,1.60e-03,
17,-1.60e-03,
18,1.60e-03,
19,-1.60e-03,
20,-8.00e-04,
21,3.20e-03,
22,-2.40e-03,
23,2.80e-03,
24,2.40e-03,
25,-8.00e-04,
26,-8.00e-04,
27,2.40e-03,
28,-8.00e-04,
29,2.00e-03,
30,1.60e-03,
31,-2.40e-03,
32,2.40e-03,
33,-2.40e-03,
34,2.80e-03,
35,-2.40e-03,
36,-1.60e-03,
37,3.20e-03,
38,-2.40e-03,
39,2.40e-03,
40,-1.60e-03,
41,1.60e-03,
42,-1.60e-03,
43,2.80e-03,
44,3.20e-03,
45,-2.40e-03,
46,2.80e-03,
47,-1.60e-03,
48,1.20e-03,
49,-1.60e-03,
50,2.00e-03,
51,-1.60e-03,
52,2.40e-03,
53,-2.40e-03,
54,-2.40e-03,
55,3.20e-03,
56,-1.60e-03,
57,2.40e-03,
58,-1.60e-03,
59,2.40e-03,
60,-2.40e-03,
61,1.60e-03,
62,-1.60e-03,
63,2.40e-03,
64,3.20e-03,
65,-1.60e-03,
66,-8.00e-04,
67,2.40e-03,
68,3.20e-03,
69,-1.60e-03,
70,2.40e-03,
71,-8.00e-04,
72,-1.60e-03,
73,2.00e-03,
74,-1.60e-03,
75,2.80e-03,
76,-8.00e-04,
77,2.40e-03,
78,1.60e-03,
79,-1.60e-03,
80,-8.00e-04,
81,2.40e-03,
82,-1.60e-03,
83,3.20e-03,
84,1.60e-03,
85,-2.40e-03,
86,-1.60e-03,
87,2.40e-03,
88,3.20e-03,
89,-8.00e-04,
90,2.40e-03,
91,-1.60e-03,
92,-8.00e-04,
93,3.20e-03,
94,-1.60e-03,
95,2.80e-03,
96,-2.40e-03,
97,2.40e-03,
98,2.40e-03,
99,-1.60e-03,
100,4.00e-03,
101,-1.60e-03,
102,-8.00e-04,
103,3.20e-03,
104,-8.00e-04,
105,2.80e-03,
106,3.20e-03,
107,-1.60e-03,
108,-8.00e-04,
109,2.40e-03,
110,2.40e-03,
111,-1.60e-03,
112,-8.00e-04,
113,3.20e-03,
114,-8.00e-04,
115,2.40e-03,
116,2.40e-03,
117,-1.60e-03,
118,-8.00e-04,
119,2.40e-03,
120,-1.60e-03,
121,2.40e-03,
122,2.40e-03,
123,-1.60e-03,
124,-1.60e-03,
125,4.80e-03,
126,3.20e-03,
127,-1.60e-03,
128,3.20e-03,
129,-1.60e-03,
130,1.60e-03,
131,-3.20e-03,
132,2.40e-03,
133,-1.60e-03,
134,2.40e-03,
135,-8.00e-04,
136,3.20e-03,
137,-1.60e-03,
138,1.60e-03,
139,-1.60e-03,
140,-1.60e-03,
141,2.40e-03,
142,3.20e-03,
143,-8.00e-04,
144,-1.60e-03,
145,2.40e-03,
146,-8.00e-04,
147,2.80e-03,
148,2.40e-03,
149,-1.60e-03,
150,-1.60e-03,
151,2.40e-03,
152,2.00e-03,
153,-8.00e-04,
154,2.40e-03,
155,-1.60e-03,
156,-1.60e-03,
157,2.40e-03,
158,2.40e-03,
159,-8.00e-04,
160,1.60e-03,
161,-1.60e-03,
162,2.40e-03,
163,-1.60e-03,
164,2.40e-03,
165,-1.60e-03,
166,-2.40e-03,
167,2.80e-03,
168,2.40e-03,
169,-1.60e-03,
170,-1.60e-03,
171,2.40e-03,
172,2.40e-03,
173,-8.00e-04,
174,2.40e-03,
175,-8.00e-04,
176,2.40e-03,
177,-8.00e-04,
178,-8.00e-04,
179,2.40e-03,
180,2.40e-03,
181,-1.60e-03,
182,-8.00e-04,
183,2.40e-03,
184,-1.60e-03,
185,3.20e-03,
186,2.40e-03,
187,-2.40e-03,
188,-8.00e-04,
189,2.40e-03,
190,-8.00e-04,
191,4.00e-03,
192,4.00e-03,
193,-1.60e-03,
194,2.40e-03,
195,-1.60e-03,
196,-2.40e-03,
197,2.40e-03,
198,-1.60e-03,
199,3.20e-03,
200,-2.40e-03,
201,1.60e-03,
202,-8.00e-04,
203,2.40e-03,
204,3.20e-03,
205,-2.40e-03,
206,2.40e-03,
207,-8.00e-04,
208,2.40e-03,
209,-1.60e-03,
210,3.20e-03,
211,-8.00e-04,
212,2.40e-03,
213,-1.60e-03,
214,-1.60e-03,
215,2.40e-03,
216,3.20e-03,
217,-1.60e-03,
218,3.20e-03,
219,-1.60e-03,
220,-1.60e-03,
221,3.20e-03,
222,-1.60e-03,
223,4.00e-03,
224,-1.60e-03,
225,3.20e-03,
226,-8.00e-04,
227,3.20e-03,
228,-1.60e-03,
229,3.20e-03,
230,3.20e-03,
231,-8.00e-04,
232,-1.60e-03,
233,4.00e-03,
234,4.00e-03,
235,0.00e+00,
236,-8.00e-04,
237,3.20e-03,
238,-8.00e-04,
239,3.20e-03,
240,-1.60e-03,
241,3.20e-03,
242,-2.40e-03,
243,3.20e-03,
244,3.20e-03,
245,-8.00e-04,
246,0.00e+00,
247,3.20e-03,
248,2.40e-03,
249,0.00e+00,
250,-8.00e-04,
251,3.20e-03,
252,-8.00e-04,
253,3.20e-03,
254,-8.00e-04,
255,3.20e-03,
256,-8.00e-04,
257,3.20e-03,
258,3.20e-03,
259,-8.00e-04,
260,-8.00e-04,
261,3.20e-03,
262,-1.60e-03,
263,3.20e-03,
264,4.00e-03,
265,-1.60e-03,
266,3.20e-03,
267,0.00e+00,
268,-8.00e-04,
269,4.00e-03,
270,-1.60e-03,
271,4.00e-03,
272,0.00e+00,
273,3.20e-03,
274,-1.60e-03,
275,3.20e-03,
276,-8.00e-04,
277,2.40e-03,
278,2.80e-03,
279,-8.00e-04,
280,1.60e-03,
281,-2.00e-03,
282,-8.00e-04,
283,3.20e-03,
284,-8.00e-04,
285,4.00e-03,
286,-8.00e-04,
287,3.20e-03,
288,-8.00e-04,
289,1.60e-03,
290,1.60e-03,
291,-8.00e-04,
292,-2.40e-03,
293,2.40e-03,
294,2.40e-03,
295,-1.60e-03,
296,-8.00e-04,
297,3.20e-03,
298,3.20e-03,
299,-1.60e-03,
300,-1.60e-03,
301,2.40e-03,
302,2.40e-03,
303,0.00e+00,
304,-1.60e-03,
305,2.40e-03,
306,-2.40e-03,
307,3.20e-03,
308,3.20e-03,
309,-2.40e-03,
310,-8.00e-04,
311,2.80e-03,
312,-1.60e-03,
313,3.20e-03,
314,-8.00e-04,
315,2.40e-03,
316,3.20e-03,
317,-8.00e-04,
318,-8.00e-04,
319,2.40e-03,
320,-8.00e-04,
321,4.00e-03,
322,-8.00e-04,
323,3.20e-03,
324,-8.00e-04,
325,2.40e-03,
326,3.20e-03,
327,-1.60e-03,
328,-8.00e-04,
329,3.20e-03,
330,3.20e-03,
331,-8.00e-04,
332,-8.00e-04,
333,2.00e-03,
334,-1.60e-03,
335,2.40e-03,
336,-8.00e-04,
337,4.00e-03,
338,-8.00e-04,
339,3.20e-03,
340,-8.00e-04,
341,3.20e-03,
342,3.20e-03,
343,-2.40e-03,
344,1.60e-03,
345,-1.60e-03,
346,1.60e-03,
347,-1.60e-03,
348,2.40e-03,
349,-2.40e-03,
350,2.00e-03,
351,-1.60e-03,
352,-1.60e-03,
353,3.20e-03,
354,-1.60e-03,
355,2.40e-03,
356,-1.60e-03,
357,2.40e-03,
358,-2.40e-03,
359,3.20e-03,
360,2.40e-03,
361,-1.60e-03,
362,-1.60e-03,
363,2.80e-03,
364,0.00e+00,
365,2.40e-03,
366,-2.40e-03,
367,3.20e-03,
368,3.20e-03,
369,-3.20e-03,
370,-1.60e-03,
371,3.20e-03,
372,2.40e-03,
373,-1.60e-03,
374,-8.00e-04,
375,2.40e-03,
376,4.00e-03,
377,-1.60e-03,
378,2.40e-03,
379,0.00e+00,
380,2.40e-03,
381,-8.00e-04,
382,-1.60e-03,
383,2.40e-03,
384,2.40e-03,
385,-8.00e-04,
386,-1.60e-03,
387,2.40e-03,
388,2.40e-03,
389,-8.00e-04,
390,2.80e-03,
391,-1.60e-03,
392,-1.60e-03,
393,2.40e-03,
394,1.60e-03,
395,-1.60e-03,
396,-8.00e-04,
397,3.20e-03,
398,2.40e-03,
399,-1.60e-03,
400,3.20e-03,
401,-2.40e-03,
402,4.00e-03,
403,-8.00e-04,
404,2.40e-03,
405,-8.00e-04,
406,-8.00e-04,
407,3.20e-03,
408,-8.00e-04,
409,2.40e-03,
410,3.20e-03,
411,-8.00e-04,
412,-8.00e-04,
413,2.80e-03,
414,3.20e-03,
415,-8.00e-04,
416,-8.00e-04,
417,4.00e-03,
418,2.40e-03,
419,-1.60e-03,
420,-8.00e-04,
421,2.80e-03,
422,-1.60e-03,
423,3.20e-03,
424,2.40e-03,
425,-2.40e-03,
426,2.40e-03,
427,-1.60e-03,
428,2.40e-03,
429,-1.60e-03,
430,-8.00e-04,
431,3.20e-03,
432,-1.60e-03,
433,2.00e-03,
434,2.40e-03,
435,-2.40e-03,
436,-1.60e-03,
437,2.40e-03,
438,2.40e-03,
439,-8.00e-04,
440,2.40e-03,
441,-1.60e-03,
442,2.80e-03,
443,-1.60e-03,
444,-1.60e-03,
445,2.40e-03,
446,-1.60e-03,
447,3.20e-03,
448,-1.60e-03,
449,2.40e-03,
450,-8.00e-04,
451,2.40e-03,
452,-1.60e-03,
453,2.80e-03,
454,2.40e-03,
455,-2.40e-03,
456,-8.00e-04,
457,3.20e-03,
458,-1.60e-03,
459,2.80e-03,
460,2.40e-03,
461,-2.40e-03,
462,-1.60e-03,
463,2.80e-03,
464,-1.60e-03,
465,2.40e-03,
466,2.40e-03,
467,-8.00e-04,
468,1.60e-03,
469,-8.00e-04,
470,2.40e-03,
471,-1.60e-03,
472,-8.00e-04,
473,3.20e-03,
474,2.40e-03,
475,-1.60e-03,
476,-8.00e-04,
477,3.20e-03,
478,-1.60e-03,
479,2.80e-03,
480,-2.40e-03,
481,3.20e-03,
482,-1.60e-03,
483,2.00e-03,
484,-8.00e-04,
485,2.40e-03,
486,2.40e-03,
487,-8.00e-04,
488,-1.60e-03,
489,2.40e-03,
490,2.40e-03,
491,-8.00e-04,
492,-1.60e-03,
493,3.20e-03,
494,-8.00e-04,
495,2.40e-03,
496,-8.00e-04,
497,3.20e-03,
498,4.00e-03,
499,-1.60e-03,
500,-1.60e-03,
501,4.00e-03,
502,-8.00e-04,
503,2.80e-03,
504,-1.60e-03,
505,3.20e-03,
506,2.40e-03,
507,-2.40e-03,
508,2.80e-03,
509,-2.40e-03,
510,-1.60e-03,
511,2.40e-03,
512,2.40e-03,
513,-1.60e-03,
514,-2.40e-03,
515,2.40e-03,
516,2.40e-03,
517,-2.40e-03,
518,-8.00e-04,
519,2.80e-03,
520,-8.00e-04,
521,3.20e-03,
522,1.60e-03,
523,-1.60e-03,
524,2.40e-03,
525,-2.40e-03,
526,2.40e-03,
527,-1.60e-03,
528,-1.60e-03,
529,2.40e-03,
530,2.40e-03,
531,-2.40e-03,
532,2.40e-03,
533,-1.60e-03,
534,-1.60e-03,
535,2.40e-03,
536,-8.00e-04,
537,2.40e-03,
538,2.00e-03,
539,-1.60e-03,
540,1.60e-03,
541,-3.20e-03,
542,-1.60e-03,
543,2.40e-03,
544,-8.00e-04,
545,2.40e-03,
546,2.40e-03,
547,-1.60e-03,
548,3.20e-03,
549,-2.40e-03,
550,-8.00e-04,
551,2.40e-03,
552,1.60e-03,
553,-2.40e-03,
554,-1.60e-03,
555,2.40e-03,
556,-8.00e-04,
557,2.40e-03,
558,-8.00e-04,
559,2.40e-03,
560,1.60e-03,
561,-8.00e-04,
562,-1.60e-03,
563,2.40e-03,
564,3.20e-03,
565,-2.40e-03,
566,-1.60e-03,
567,1.60e-03,
568,2.00e-03,
569,-1.60e-03,
570,-8.00e-04,
571,2.40e-03,
572,-8.00e-04,
573,2.40e-03,
574,-1.60e-03,
575,3.20e-03,
576,-1.60e-03,
577,2.40e-03,
578,2.80e-03,
579,-1.60e-03,
580,-1.60e-03,
581,2.40e-03,
582,2.40e-03,
583,-1.60e-03,
584,2.40e-03,
585,-2.40e-03,
586,2.40e-03,
587,-2.40e-03,
588,1.60e-03,
589,-1.60e-03,
590,-1.60e-03,
591,3.20e-03,
592,2.40e-03,
593,-1.60e-03,
594,-1.60e-03,
595,3.20e-03,
596,-8.00e-04,
597,2.00e-03,
598,2.40e-03,
599,-1.60e-03,
600,-8.00e-04,
601,2.40e-03,
602,3.20e-03,
603,-1.60e-03,
604,-2.40e-03,
605,2.40e-03,
606,2.40e-03,
607,0.00e+00,
608,-1.60e-03,
609,2.40e-03,
610,3.20e-03,
611,-1.60e-03,
612,-8.00e-04,
613,2.40e-03,
614,-8.00e-04,
615,2.40e-03,
616,-1.60e-03,
617,2.80e-03,
618,-1.60e-03,
619,4.00e-03,
620,-2.40e-03,
621,3.20e-03,
622,2.40e-03,
623,-8.00e-04,
624,-8.00e-04,
625,2.40e-03,
626,2.40e-03,
627,-2.40e-03,
628,-8.00e-04,
629,2.40e-03,
630,2.40e-03,
631,-8.00e-04,
632,3.20e-03,
633,-1.60e-03,
634,-2.40e-03,
635,3.20e-03,
636,-1.60e-03,
637,2.80e-03,
638,3.20e-03,
639,-1.60e-03,
640,2.00e-03,
641,-2.40e-03,
642,2.40e-03,
643,-1.60e-03,
644,3.20e-03,
645,-1.60e-03,
646,3.20e-03,
647,-8.00e-04,
648,2.40e-03,
649,-8.00e-04,
650,1.60e-03,
651,-8.00e-04,
652,-2.40e-03,
653,2.40e-03,
654,2.40e-03,
655,-8.00e-04,
656,1.60e-03,
657,-2.40e-03,
658,4.00e-03,
659,-1.60e-03,
660,-1.60e-03,
661,3.20e-03,
662,-1.60e-03,
663,2.40e-03,
664,3.20e-03,
665,-1.60e-03,
666,3.20e-03,
667,-3.20e-03,
668,-8.00e-04,
669,2.80e-03,
670,2.40e-03,
671,-1.60e-03,
672,-8.00e-04,
673,2.80e-03,
674,2.40e-03,
675,-2.40e-03,
676,-1.60e-03,
677,2.40e-03,
678,-2.40e-03,
679,2.40e-03,
680,-8.00e-04,
681,2.00e-03,
682,-1.60e-03,
683,2.40e-03,
684,-8.00e-04,
685,2.40e-03,
686,-8.00e-04,
687,2.40e-03,
688,2.40e-03,
689,-8.00e-04,
690,-8.00e-04,
691,2.80e-03,
692,2.40e-03,
693,-1.60e-03,
694,-1.60e-03,
695,2.40e-03,
696,-1.60e-03,
697,2.40e-03,
698,2.40e-03,
699,-1.60e-03,
700,2.40e-03,
701,-8.00e-04,
702,-8.00e-04,
703,3.20e-03,
704,3.20e-03,
705,-8.00e-04,
706,2.40e-03,
707,-1.60e-03,
708,-1.60e-03,
709,3.20e-03,
710,-8.00e-04,
711,3.20e-03,
712,3.20e-03,
713,-1.60e-03,
714,2.40e-03,
715,-8.00e-04,
716,-1.60e-03,
717,3.20e-03,
718,-1.60e-03,
719,2.80e-03,
720,2.40e-03,
721,-1.60e-03,
722,-1.60e-03,
723,2.40e-03,
724,2.40e-03,
725,-1.60e-03,
726,-2.40e-03,
727,2.40e-03,
728,2.40e-03,
729,-2.40e-03,
730,2.40e-03,
731,-1.60e-03,
732,-8.00e-04,
733,2.40e-03,
734,2.40e-03,
735,-1.60e-03,
736,3.20e-03,
737,-1.60e-03,
738,2.40e-03,
739,-2.40e-03,
740,2.00e-03,
741,-1.60e-03,
742,1.60e-03,
743,-2.40e-03,
744,-1.60e-03,
745,1.60e-03,
746,-8.00e-04,
747,2.40e-03,
748,2.40e-03,
749,-8.00e-04,
750,-2.40e-03,
751,2.40e-03,
752,-1.60e-03,
753,2.40e-03,
754,2.40e-03,
755,-1.60e-03,
756,-8.00e-04,
757,2.80e-03,
758,-2.40e-03,
759,2.00e-03,
760,-1.60e-03,
761,2.40e-03,
762,2.40e-03,
763,-1.60e-03,
764,2.40e-03,
765,-8.00e-04,
766,-8.00e-04,
767,3.20e-03,
768,-2.40e-03,
769,4.00e-03,
770,3.20e-03,
771,-2.40e-03,
772,-1.60e-03,
773,1.60e-03,
774,-1.60e-03,
775,2.40e-03,
776,1.60e-03,
777,-1.60e-03,
778,-8.00e-04,
779,2.40e-03,
780,4.00e-03,
781,-8.00e-04,
782,2.40e-03,
783,-8.00e-04,
784,1.60e-03,
785,-8.00e-04,
786,-1.60e-03,
787,2.40e-03,
788,-1.60e-03,
789,2.40e-03,
790,3.20e-03,
791,-1.60e-03,
792,-2.40e-03,
793,2.40e-03,
794,2.40e-03,
795,-8.00e-04,
796,-8.00e-04,
797,2.00e-03,
798,-8.00e-04,
799,2.40e-03,
800,1.60e-03,
801,-1.60e-03,
802,-1.60e-03,
803,4.00e-03,
804,-1.60e-03,
805,2.40e-03,
806,2.40e-03,
807,-8.00e-04,
808,2.40e-03,
809,-1.60e-03,
810,-8.00e-04,
811,2.80e-03,
812,-8.00e-04,
813,3.20e-03,
814,2.40e-03,
815,-1.60e-03,
816,3.20e-03,
817,-1.60e-03,
818,3.20e-03,
819,-1.60e-03,
820,-1.60e-03,
821,3.20e-03,
822,-8.00e-04,
823,2.40e-03,
824,-8.00e-04,
825,2.80e-03,
826,-8.00e-04,
827,2.40e-03,
828,-1.60e-03,
829,3.20e-03,
830,-2.40e-03,
831,3.20e-03,
832,-8.00e-04,
833,3.20e-03,
834,2.40e-03,
835,-1.60e-03,
836,3.20e-03,
837,-1.60e-03,
838,3.20e-03,
839,-2.40e-03,
840,-1.60e-03,
841,3.20e-03,
842,3.20e-03,
843,-1.60e-03,
844,3.20e-03,
845,-8.00e-04,
846,-1.60e-03,
847,4.00e-03,
848,-8.00e-04,
849,4.00e-03,
850,-8.00e-04,
851,3.20e-03,
852,2.40e-03,
853,-1.60e-03,
854,2.40e-03,
855,-1.60e-03,
856,2.40e-03,
857,-1.60e-03,
858,-1.60e-03,
859,3.20e-03,
860,-1.60e-03,
861,3.20e-03,
862,-8.00e-04,
863,3.20e-03,
864,3.20e-03,
865,-1.60e-03,
866,-1.60e-03,
867,2.40e-03,
868,-8.00e-04,
869,2.40e-03,
870,-8.00e-04,
871,2.40e-03,
872,-8.00e-04,
873,2.40e-03,
874,-8.00e-04,
875,3.20e-03,
876,2.40e-03,
877,-8.00e-04,
878,-8.00e-04,
879,3.20e-03,
880,3.20e-03,
881,-1.60e-03,
882,-1.60e-03,
883,3.20e-03,
884,-1.60e-03,
885,3.20e-03,
886,-1.60e-03,
887,2.40e-03,
888,-8.00e-04,
889,2.40e-03,
890,1.20e-03,
891,-8.00e-04,
892,2.40e-03,
893,-1.60e-03,
894,-1.60e-03,
895,1.60e-03,
896,-1.60e-03,
897,3.20e-03,
898,2.40e-03,
899,-8.00e-04,
900,-2.40e-03,
901,3.20e-03,
902,-8.00e-04,
903,2.40e-03,
904,2.40e-03,
905,-1.60e-03,
906,1.60e-03,
907,-1.60e-03,
908,3.20e-03,
909,-1.60e-03,
910,-1.60e-03,
911,2.40e-03,
912,-8.00e-04,
913,3.20e-03,
914,3.20e-03,
915,-8.00e-04,
916,-8.00e-04,
917,3.20e-03,
918,3.20e-03,
919,-1.60e-03,
920,-8.00e-04,
921,3.20e-03,
922,-8.00e-04,
923,2.40e-03,
924,-8.00e-04,
925,2.40e-03,
926,0.00e+00,
927,3.20e-03,
928,0.00e+00,
929,4.00e-03,
930,-8.00e-04,
931,2.80e-03,
932,-1.60e-03,
933,2.40e-03,
934,3.20e-03,
935,-8.00e-04,
936,3.20e-03,
937,-8.00e-04,
938,-8.00e-04,
939,3.20e-03,
940,3.20e-03,
941,-8.00e-04,
942,-8.00e-04,
943,2.40e-03,
944,-1.60e-03,
945,2.40e-03,
946,-8.00e-04,
947,3.20e-03,
948,-8.00e-04,
949,3.20e-03,
950,2.00e-03,
951,-8.00e-04,
952,2.40e-03,
953,-2.40e-03,
954,2.40e-03,
955,-8.00e-04,
956,-8.00e-04,
957,4.00e-03,
958,-8.00e-04,
959,3.20e-03,
960,2.40e-03,
961,-8.00e-04,
962,2.40e-03,
963,-3.20e-03,
964,3.20e-03,
965,-1.60e-03,
966,3.20e-03,
967,-2.40e-03,
968,-2.40e-03,
969,2.40e-03,
970,-2.40e-03,
971,2.80e-03,
972,-8.00e-04,
973,3.20e-03,
974,-8.00e-04,
975,2.80e-03,
976,-2.40e-03,
977,3.20e-03,
978,3.20e-03,
979,-8.00e-04,
980,-8.00e-04,
981,3.20e-03,
982,-8.00e-04,
983,2.40e-03,
984,2.40e-03,
985,-1.60e-03,
986,-1.60e-03,
987,3.20e-03,
988,2.40e-03,
989,-8.00e-04,
990,2.40e-03,
991,-8.00e-04,
992,-8.00e-04,
993,3.20e-03,
994,2.40e-03,
995,-1.60e-03,
996,-1.60e-03,
997,1.60e-03,
998,-1.60e-03,
999,3.20e-03,
1000,3.20e-03,
1001,-1.60e-03,
1002,-1.60e-03,
1003,2.40e-03,
1004,-8.00e-04,
1005,3.20e-03,
1006,0.00e+00,
1007,3.20e-03,
1008,2.40e-03,
1009,-8.00e-04,
1010,-1.60e-03,
1011,2.40e-03,
1012,2.40e-03,
1013,-2.40e-03,
1014,1.60e-03,
1015,-1.60e-03,
1016,3.20e-03,
1017,-1.60e-03,
1018,3.20e-03,
1019,-1.60e-03,
1020,-8.00e-04,
1021,3.20e-03,
1022,-2.40e-03,
1023,3.20e-03,
1024,-8.00e-04,
1025,3.20e-03,
1026,-8.00e-04,
1027,2.40e-03,
1028,-8.00e-04,
1029,2.80e-03,
1030,4.00e-03,
1031,-8.00e-04,
1032,-1.60e-03,
1033,3.20e-03,
1034,3.20e-03,
1035,-8.00e-04,
1036,2.40e-03,
1037,-1.60e-03,
1038,-8.00e-04,
1039,3.20e-03,
1040,-8.00e-04,
1041,4.00e-03,
1042,3.20e-03,
1043,-8.00e-04,
1044,-8.00e-04,
1045,3.20e-03,
1046,-8.00e-04,
1047,2.40e-03,
1048,2.40e-03,
1049,-1.60e-03,
1050,-1.60e-03,
1051,4.80e-03,
1052,2.40e-03,
1053,-8.00e-04,
1054,3.20e-03,
1055,-8.00e-04,
1056,-8.00e-04,
1057,2.80e-03,
1058,3.20e-03,
1059,-1.60e-03,
1060,3.20e-03,
1061,-8.00e-04,
1062,0.00e+00,
1063,3.20e-03,
1064,3.20e-03,
1065,-8.00e-04,
1066,-8.00e-04,
1067,3.20e-03,
1068,-8.00e-04,
1069,3.20e-03,
1070,-8.00e-04,
1071,4.00e-03,
1072,-1.60e-03,
1073,3.20e-03,
1074,3.20e-03,
1075,-8.00e-04,
1076,4.00e-03,
1077,-8.00e-04,
1078,3.20e-03,
1079,-8.00e-04,
1080,3.20e-03,
1081,-1.60e-03,
1082,3.20e-03,
1083,-2.40e-03,
1084,-8.00e-04,
1085,3.20e-03,
1086,0.00e+00,
1087,3.20e-03,
1088,-8.00e-04,
1089,4.00e-03,
1090,3.20e-03,
1091,-8.00e-04,
1092,0.00e+00,
1093,3.20e-03,
1094,3.20e-03,
1095,-8.00e-04,
1096,0.00e+00,
1097,2.80e-03,
1098,2.80e-03,
1099,-8.00e-04,
1100,0.00e+00,
1101,2.80e-03,
1102,0.00e+00,
1103,3.20e-03,
1104,4.00e-03,
1105,-8.00e-04,
1106,-8.00e-04,
1107,2.80e-03,
1108,-8.00e-04,
1109,3.20e-03,
1110,2.40e-03,
1111,-1.60e-03,
1112,3.20e-03,
1113,-8.00e-04,
1114,3.20e-03,
1115,-8.00e-04,
1116,3.20e-03,
1117,-1.60e-03,
1118,-8.00e-04,
1119,2.40e-03,
1120,2.40e-03,
1121,-2.00e-03,
1122,0.00e+00,
1123,3.20e-03,
1124,-8.00e-04,
1125,4.00e-03,
1126,-8.00e-04,
1127,2.40e-03,
1128,3.20e-03,
1129,-8.00e-04,
1130,2.40e-03,
1131,-8.00e-04,
1132,-8.00e-04,
1133,3.20e-03,
1134,3.20e-03,
1135,-2.40e-03,
1136,-8.00e-04,
1137,1.60e-03,
1138,2.40e-03,
1139,-1.60e-03,
1140,4.00e-03,
1141,-1.60e-03,
1142,-8.00e-04,
1143,3.20e-03,
1144,-1.60e-03,
1145,2.80e-03,
1146,-1.60e-03,
1147,2.40e-03,
1148,-1.60e-03,
1149,2.40e-03,
1150,-2.40e-03,
1151,2.40e-03,
1152,-8.00e-04,
1153,2.40e-03,
1154,1.60e-03,
1155,0.00e+00,
1156,4.00e-03,
1157,-1.60e-03,
1158,2.40e-03,
1159,-8.00e-04,
1160,-8.00e-04,
1161,2.40e-03,
1162,-8.00e-04,
1163,4.00e-03,
1164,3.20e-03,
1165,-2.40e-03,
1166,-1.60e-03,
1167,3.20e-03,
1168,-1.60e-03,
1169,2.80e-03,
1170,2.40e-03,
1171,-8.00e-04,
1172,2.40e-03,
1173,-1.60e-03,
1174,-2.40e-03,
1175,3.20e-03,
1176,-1.60e-03,
1177,2.80e-03,
1178,-8.00e-04,
1179,2.40e-03,
1180,2.40e-03,
1181,-2.40e-03,
1182,2.40e-03,
1183,-1.60e-03,
1184,-8.00e-04,
1185,3.20e-03,
1186,-1.60e-03,
1187,3.20e-03,
1188,-8.00e-04,
1189,2.40e-03,
1190,-8.00e-04,
1191,2.40e-03,
1192,3.20e-03,
1193,-8.00e-04,
1194,2.40e-03,
1195,-1.60e-03,
1196,-1.60e-03,
1197,3.20e-03,
1198,4.00e-03,
1199,-1.60e-03,
