fastdiffamp/data-noise-set/5th/NewFile10.csv

X,CH1,Start,Increment,
Sequence,Volt,-1.200000e-02,2.000000e-05
0,-8.00e-04,
1,2.80e-03,
2,3.20e-03,
3,-8.00e-04,
4,2.80e-03,
5,0.00e+00,
6,2.40e-03,
7,-1.60e-03,
8,-8.00e-04,
9,2.40e-03,
10,0.00e+00,
11,2.40e-03,
12,2.40e-03,
13,0.00e+00,
14,-8.00e-04,
15,2.40e-03,
16,-1.20e-03,
17,1.60e-03,
18,3.20e-03,
19,-8.00e-04,
20,-8.00e-04,
21,2.40e-03,
22,2.40e-03,
23,0.00e+00,
24,2.40e-03,
25,0.00e+00,
26,0.00e+00,
27,2.40e-03,
28,0.00e+00,
29,2.40e-03,
30,2.40e-03,
31,-8.00e-04,
32,1.60e-03,
33,-8.00e-04,
34,0.00e+00,
35,2.80e-03,
36,2.40e-03,
37,0.00e+00,
38,2.40e-03,
39,0.00e+00,
40,0.00e+00,
41,2.40e-03,
42,0.00e+00,
43,2.80e-03,
44,2.40e-03,
45,0.00e+00,
46,1.60e-03,
47,-8.00e-04,
48,2.40e-03,
49,-8.00e-04,
50,0.00e+00,
51,2.40e-03,
52,2.80e-03,
53,-8.00e-04,
54,0.00e+00,
55,1.60e-03,
56,2.40e-03,
57,0.00e+00,
58,-8.00e-04,
59,2.00e-03,
60,-8.00e-04,
61,1.60e-03,
62,-8.00e-04,
63,2.40e-03,
64,2.40e-03,
65,0.00e+00,
66,0.00e+00,
67,2.40e-03,
68,2.40e-03,
69,-8.00e-04,
70,0.00e+00,
71,2.40e-03,
72,2.40e-03,
73,-8.00e-04,
74,2.40e-03,
75,-8.00e-04,
76,0.00e+00,
77,2.40e-03,
78,2.40e-03,
79,0.00e+00,
80,0.00e+00,
81,2.40e-03,
82,0.00e+00,
83,2.40e-03,
84,-8.00e-04,
85,2.40e-03,
86,2.40e-03,
87,0.00e+00,
88,0.00e+00,
89,2.40e-03,
90,-8.00e-04,
91,2.40e-03,
92,-8.00e-04,
93,2.40e-03,
94,0.00e+00,
95,2.40e-03,
96,2.80e-03,
97,0.00e+00,
98,0.00e+00,
99,2.40e-03,
100,0.00e+00,
101,2.40e-03,
102,-8.00e-04,
103,3.20e-03,
104,0.00e+00,
105,3.20e-03,
106,0.00e+00,
107,2.80e-03,
108,8.00e-04,
109,3.20e-03,
110,0.00e+00,
111,3.20e-03,
112,-8.00e-04,
113,3.20e-03,
114,2.40e-03,
115,0.00e+00,
116,2.80e-03,
117,0.00e+00,
118,0.00e+00,
119,1.60e-03,
120,2.40e-03,
121,0.00e+00,
122,1.60e-03,
123,-8.00e-04,
124,2.80e-03,
125,0.00e+00,
126,0.00e+00,
127,2.40e-03,
128,0.00e+00,
129,2.40e-03,
130,3.20e-03,
131,0.00e+00,
132,2.40e-03,
133,0.00e+00,
134,0.00e+00,
135,3.20e-03,
136,-8.00e-04,
137,2.40e-03,
138,2.40e-03,
139,-8.00e-04,
140,2.00e-03,
141,0.00e+00,
142,0.00e+00,
143,2.80e-03,
144,0.00e+00,
145,2.40e-03,
146,-8.00e-04,
147,2.40e-03,
148,-8.00e-04,
149,2.40e-03,
150,-8.00e-04,
151,2.40e-03,
152,0.00e+00,
153,2.40e-03,
154,2.00e-03,
155,-8.00e-04,
156,-8.00e-04,
157,2.40e-03,
158,0.00e+00,
159,3.20e-03,
160,3.20e-03,
161,0.00e+00,
162,0.00e+00,
163,2.40e-03,
164,-4.00e-04,
165,2.40e-03,
166,-8.00e-04,
167,2.40e-03,
168,-8.00e-04,
169,2.40e-03,
170,2.40e-03,
171,0.00e+00,
172,2.40e-03,
173,0.00e+00,
174,0.00e+00,
175,2.80e-03,
176,2.40e-03,
177,0.00e+00,
178,0.00e+00,
179,2.40e-03,
180,0.00e+00,
181,2.40e-03,
182,0.00e+00,
183,2.40e-03,
184,2.40e-03,
185,-8.00e-04,
186,2.40e-03,
187,0.00e+00,
188,0.00e+00,
189,3.20e-03,
190,0.00e+00,
191,2.80e-03,
192,2.00e-03,
193,0.00e+00,
194,0.00e+00,
195,2.40e-03,
196,0.00e+00,
197,2.40e-03,
198,3.20e-03,
199,8.00e-04,
200,3.20e-03,
201,0.00e+00,
202,0.00e+00,
203,3.20e-03,
204,0.00e+00,
205,3.20e-03,
206,2.80e-03,
207,0.00e+00,
208,0.00e+00,
209,2.40e-03,
210,0.00e+00,
211,3.20e-03,
212,2.40e-03,
213,-8.00e-04,
214,2.40e-03,
215,0.00e+00,
216,2.40e-03,
217,0.00e+00,
218,0.00e+00,
219,2.80e-03,
220,0.00e+00,
221,2.40e-03,
222,0.00e+00,
223,3.20e-03,
224,2.80e-03,
225,-8.00e-04,
226,0.00e+00,
227,2.40e-03,
228,0.00e+00,
229,2.40e-03,
230,2.40e-03,
231,-8.00e-04,
232,2.40e-03,
233,0.00e+00,
234,3.20e-03,
235,0.00e+00,
236,0.00e+00,
237,2.40e-03,
238,3.20e-03,
239,-8.00e-04,
240,0.00e+00,
241,3.20e-03,
242,-8.00e-04,
243,2.80e-03,
244,-8.00e-04,
245,2.00e-03,
246,0.00e+00,
247,2.00e-03,
248,3.20e-03,
249,-8.00e-04,
250,-8.00e-04,
251,2.40e-03,
252,0.00e+00,
253,2.40e-03,
254,0.00e+00,
255,3.20e-03,
256,-8.00e-04,
257,2.40e-03,
258,2.40e-03,
259,-8.00e-04,
260,0.00e+00,
261,2.40e-03,
262,2.40e-03,
263,0.00e+00,
264,0.00e+00,
265,2.40e-03,
266,-8.00e-04,
267,2.80e-03,
268,2.40e-03,
269,-8.00e-04,
270,1.60e-03,
271,0.00e+00,
272,2.40e-03,
273,-1.60e-03,
274,0.00e+00,
275,2.40e-03,
276,3.20e-03,
277,-8.00e-04,
278,2.40e-03,
279,-8.00e-04,
280,2.40e-03,
281,-8.00e-04,
282,-8.00e-04,
283,2.00e-03,
284,1.60e-03,
285,-8.00e-04,
286,2.40e-03,
287,-8.00e-04,
288,0.00e+00,
289,2.40e-03,
290,2.40e-03,
291,-8.00e-04,
292,-8.00e-04,
293,2.40e-03,
294,2.80e-03,
295,-8.00e-04,
296,2.40e-03,
297,-8.00e-04,
298,0.00e+00,
299,2.40e-03,
300,2.00e-03,
301,-8.00e-04,
302,0.00e+00,
303,2.40e-03,
304,-8.00e-04,
305,2.40e-03,
306,-8.00e-04,
307,2.00e-03,
308,0.00e+00,
309,2.00e-03,
310,2.40e-03,
311,-8.00e-04,
312,0.00e+00,
313,2.80e-03,
314,2.40e-03,
315,-8.00e-04,
316,-8.00e-04,
317,3.20e-03,
318,3.20e-03,
319,-8.00e-04,
320,0.00e+00,
321,2.40e-03,
322,2.40e-03,
323,-8.00e-04,
324,0.00e+00,
325,2.40e-03,
326,2.40e-03,
327,0.00e+00,
328,2.80e-03,
329,0.00e+00,
330,0.00e+00,
331,2.40e-03,
332,2.40e-03,
333,0.00e+00,
334,2.40e-03,
335,0.00e+00,
336,2.40e-03,
337,-8.00e-04,
338,2.40e-03,
339,0.00e+00,
340,-8.00e-04,
341,3.20e-03,
342,1.60e-03,
343,-8.00e-04,
344,0.00e+00,
345,2.80e-03,
346,2.40e-03,
347,-8.00e-04,
348,-8.00e-04,
349,3.20e-03,
350,-8.00e-04,
351,3.20e-03,
352,2.40e-03,
353,-8.00e-04,
354,-8.00e-04,
355,2.40e-03,
356,-8.00e-04,
357,1.60e-03,
358,2.80e-03,
359,-8.00e-04,
360,0.00e+00,
361,2.40e-03,
362,2.40e-03,
363,-8.00e-04,
364,-8.00e-04,
365,3.20e-03,
366,0.00e+00,
367,3.20e-03,
368,-1.60e-03,
369,2.00e-03,
370,-8.00e-04,
371,2.40e-03,
372,2.00e-03,
373,-8.00e-04,
374,0.00e+00,
375,2.00e-03,
376,2.40e-03,
377,0.00e+00,
378,3.20e-03,
379,0.00e+00,
380,1.60e-03,
381,-8.00e-04,
382,0.00e+00,
383,2.40e-03,
384,-8.00e-04,
385,2.80e-03,
386,2.40e-03,
387,-8.00e-04,
388,0.00e+00,
389,2.40e-03,
390,2.40e-03,
391,0.00e+00,
392,-8.00e-04,
393,2.80e-03,
394,0.00e+00,
395,2.40e-03,
396,2.40e-03,
397,-8.00e-04,
398,0.00e+00,
399,2.40e-03,
400,2.40e-03,
401,0.00e+00,
402,2.40e-03,
403,0.00e+00,
404,0.00e+00,
405,2.40e-03,
406,2.40e-03,
407,-8.00e-04,
408,2.40e-03,
409,0.00e+00,
410,0.00e+00,
411,2.40e-03,
412,2.40e-03,
413,0.00e+00,
414,0.00e+00,
415,3.20e-03,
416,2.40e-03,
417,0.00e+00,
418,0.00e+00,
419,3.20e-03,
420,0.00e+00,
421,3.20e-03,
422,2.40e-03,
423,0.00e+00,
424,3.20e-03,
425,0.00e+00,
426,2.40e-03,
427,0.00e+00,
428,-8.00e-04,
429,3.20e-03,
430,0.00e+00,
431,2.40e-03,
432,2.40e-03,
433,-8.00e-04,
434,0.00e+00,
435,2.40e-03,
436,2.40e-03,
437,0.00e+00,
438,0.00e+00,
439,2.40e-03,
440,8.00e-04,
441,3.20e-03,
442,0.00e+00,
443,2.40e-03,
444,2.40e-03,
445,0.00e+00,
446,2.40e-03,
447,0.00e+00,
448,2.40e-03,
449,0.00e+00,
450,-4.00e-04,
451,2.40e-03,
452,-8.00e-04,
453,2.40e-03,
454,2.40e-03,
455,-8.00e-04,
456,2.00e-03,
457,0.00e+00,
458,2.40e-03,
459,-8.00e-04,
460,2.40e-03,
461,-8.00e-04,
462,2.40e-03,
463,0.00e+00,
464,3.20e-03,
465,-8.00e-04,
466,-8.00e-04,
467,2.40e-03,
468,0.00e+00,
469,1.60e-03,
470,2.40e-03,
471,0.00e+00,
472,2.40e-03,
473,0.00e+00,
474,-8.00e-04,
475,2.40e-03,
476,2.40e-03,
477,-8.00e-04,
478,-8.00e-04,
479,2.40e-03,
480,-8.00e-04,
481,2.00e-03,
482,-8.00e-04,
483,2.40e-03,
484,2.00e-03,
485,-8.00e-04,
486,2.40e-03,
487,-8.00e-04,
488,2.40e-03,
489,-8.00e-04,
490,0.00e+00,
491,2.80e-03,
492,0.00e+00,
493,2.80e-03,
494,-1.60e-03,
495,2.00e-03,
496,0.00e+00,
497,2.40e-03,
498,2.40e-03,
499,-8.00e-04,
500,-8.00e-04,
501,2.40e-03,
502,2.40e-03,
503,-8.00e-04,
504,-8.00e-04,
505,2.00e-03,
506,2.00e-03,
507,-8.00e-04,
508,0.00e+00,
509,3.20e-03,
510,2.40e-03,
511,-8.00e-04,
512,0.00e+00,
513,2.80e-03,
514,0.00e+00,
515,2.40e-03,
516,2.40e-03,
517,0.00e+00,
518,2.40e-03,
519,-8.00e-04,
520,2.40e-03,
521,-8.00e-04,
522,0.00e+00,
523,2.80e-03,
524,0.00e+00,
525,2.40e-03,
526,2.40e-03,
527,0.00e+00,
528,0.00e+00,
529,2.80e-03,
530,-8.00e-04,
531,2.40e-03,
532,2.40e-03,
533,0.00e+00,
534,0.00e+00,
535,2.40e-03,
536,0.00e+00,
537,2.80e-03,
538,0.00e+00,
539,2.40e-03,
540,2.80e-03,
541,-8.00e-04,
542,2.80e-03,
543,0.00e+00,
544,0.00e+00,
545,3.20e-03,
546,1.60e-03,
547,-8.00e-04,
548,2.00e-03,
549,-8.00e-04,
550,-8.00e-04,
551,2.40e-03,
552,2.40e-03,
553,-8.00e-04,
554,0.00e+00,
555,2.00e-03,
556,0.00e+00,
557,2.40e-03,
558,2.40e-03,
559,-8.00e-04,
560,2.40e-03,
561,-8.00e-04,
562,-8.00e-04,
563,2.40e-03,
564,2.00e-03,
565,0.00e+00,
566,2.80e-03,
567,-8.00e-04,
568,2.40e-03,
569,-8.00e-04,
570,-1.60e-03,
571,2.40e-03,
572,2.40e-03,
573,-8.00e-04,
574,0.00e+00,
575,2.40e-03,
576,-8.00e-04,
577,2.40e-03,
578,1.60e-03,
579,-8.00e-04,
580,2.40e-03,
581,-8.00e-04,
582,1.60e-03,
583,-8.00e-04,
584,-8.00e-04,
585,2.40e-03,
586,2.00e-03,
587,-8.00e-04,
588,0.00e+00,
589,2.40e-03,
590,-1.60e-03,
591,2.00e-03,
592,-8.00e-04,
593,2.00e-03,
594,0.00e+00,
595,2.00e-03,
596,-8.00e-04,
597,2.00e-03,
598,-1.60e-03,
599,1.60e-03,
600,1.60e-03,
601,-1.60e-03,
602,-8.00e-04,
603,2.40e-03,
604,-8.00e-04,
605,1.60e-03,
606,-8.00e-04,
607,2.40e-03,
608,-8.00e-04,
609,1.60e-03,
610,1.60e-03,
611,-8.00e-04,
612,-8.00e-04,
613,1.60e-03,
614,-8.00e-04,
615,2.40e-03,
616,2.40e-03,
617,-1.60e-03,
618,-8.00e-04,
619,2.40e-03,
620,2.40e-03,
621,-8.00e-04,
622,1.60e-03,
623,-8.00e-04,
624,-8.00e-04,
625,2.40e-03,
626,1.60e-03,
627,-1.60e-03,
628,2.40e-03,
629,-1.60e-03,
630,2.40e-03,
631,-8.00e-04,
632,2.40e-03,
633,-8.00e-04,
634,2.40e-03,
635,-8.00e-04,
636,1.60e-03,
637,-8.00e-04,
638,-8.00e-04,
639,1.60e-03,
640,-8.00e-04,
641,2.00e-03,
642,1.60e-03,
643,-8.00e-04,
644,2.00e-03,
645,-1.60e-03,
646,1.60e-03,
647,-8.00e-04,
648,2.00e-03,
649,-1.60e-03,
650,-8.00e-04,
651,2.00e-03,
652,1.60e-03,
653,-8.00e-04,
654,-8.00e-04,
655,2.40e-03,
656,2.80e-03,
657,-8.00e-04,
658,-8.00e-04,
659,2.00e-03,
660,0.00e+00,
661,2.00e-03,
662,-8.00e-04,
663,1.60e-03,
664,-1.60e-03,
665,2.00e-03,
666,-8.00e-04,
667,2.00e-03,
668,2.40e-03,
669,-8.00e-04,
670,1.60e-03,
671,-8.00e-04,
672,-8.00e-04,
673,2.40e-03,
674,-1.60e-03,
675,2.00e-03,
676,-8.00e-04,
677,1.60e-03,
678,-8.00e-04,
679,2.00e-03,
680,-8.00e-04,
681,2.80e-03,
682,-8.00e-04,
683,2.40e-03,
684,2.40e-03,
685,0.00e+00,
686,-8.00e-04,
687,2.40e-03,
688,-8.00e-04,
689,2.40e-03,
690,-8.00e-04,
691,2.00e-03,
692,2.40e-03,
693,-8.00e-04,
694,2.40e-03,
695,-8.00e-04,
696,-8.00e-04,
697,2.00e-03,
698,2.40e-03,
699,-1.60e-03,
700,1.60e-03,
701,0.00e+00,
702,-8.00e-04,
703,2.40e-03,
704,0.00e+00,
705,1.60e-03,
706,-8.00e-04,
707,2.40e-03,
708,-8.00e-04,
709,1.60e-03,
710,-8.00e-04,
711,1.60e-03,
712,-8.00e-04,
713,1.60e-03,
714,-8.00e-04,
715,2.40e-03,
716,2.40e-03,
717,-1.60e-03,
718,-1.20e-03,
719,1.60e-03,
720,-8.00e-04,
721,3.20e-03,
722,-1.60e-03,
723,2.40e-03,
724,2.40e-03,
725,0.00e+00,
726,-8.00e-04,
727,1.60e-03,
728,-8.00e-04,
729,2.00e-03,
730,0.00e+00,
731,3.20e-03,
732,0.00e+00,
733,2.40e-03,
734,-8.00e-04,
735,2.40e-03,
736,2.40e-03,
737,-8.00e-04,
738,2.80e-03,
739,-8.00e-04,
740,1.60e-03,
741,-8.00e-04,
742,-8.00e-04,
743,2.00e-03,
744,2.40e-03,
745,-8.00e-04,
746,2.40e-03,
747,-8.00e-04,
748,0.00e+00,
749,2.40e-03,
750,-8.00e-04,
751,2.00e-03,
752,1.60e-03,
753,-8.00e-04,
754,-8.00e-04,
755,2.80e-03,
756,2.40e-03,
757,-8.00e-04,
758,2.00e-03,
759,0.00e+00,
760,1.60e-03,
761,-8.00e-04,
762,0.00e+00,
763,2.40e-03,
764,2.00e-03,
765,-8.00e-04,
766,1.60e-03,
767,0.00e+00,
768,-8.00e-04,
769,3.20e-03,
770,2.40e-03,
771,0.00e+00,
772,-8.00e-04,
773,2.00e-03,
774,-8.00e-04,
775,2.40e-03,
776,-8.00e-04,
777,2.40e-03,
778,-8.00e-04,
779,2.40e-03,
780,0.00e+00,
781,2.40e-03,
782,-8.00e-04,
783,2.40e-03,
784,1.60e-03,
785,-1.60e-03,
786,2.40e-03,
787,-8.00e-04,
788,2.40e-03,
789,-8.00e-04,
790,2.40e-03,
791,0.00e+00,
792,-8.00e-04,
793,2.40e-03,
794,0.00e+00,
795,2.00e-03,
796,0.00e+00,
797,2.40e-03,
798,2.40e-03,
799,-8.00e-04,
800,2.40e-03,
801,0.00e+00,
802,2.40e-03,
803,-8.00e-04,
804,1.60e-03,
805,-8.00e-04,
806,2.40e-03,
807,0.00e+00,
808,2.40e-03,
809,0.00e+00,
810,2.40e-03,
811,-8.00e-04,
812,-8.00e-04,
813,2.80e-03,
814,0.00e+00,
815,2.40e-03,
816,3.20e-03,
817,-4.00e-04,
818,2.40e-03,
819,0.00e+00,
820,2.00e-03,
821,0.00e+00,
822,2.40e-03,
823,0.00e+00,
824,0.00e+00,
825,2.40e-03,
826,0.00e+00,
827,3.20e-03,
828,2.80e-03,
829,-8.00e-04,
830,0.00e+00,
831,2.40e-03,
832,3.20e-03,
833,-8.00e-04,
834,2.40e-03,
835,-8.00e-04,
836,0.00e+00,
837,2.40e-03,
838,-8.00e-04,
839,2.40e-03,
840,2.00e-03,
841,-8.00e-04,
842,-8.00e-04,
843,2.40e-03,
844,1.60e-03,
845,-8.00e-04,
846,-8.00e-04,
847,2.40e-03,
848,2.40e-03,
849,-8.00e-04,
850,0.00e+00,
851,2.40e-03,
852,0.00e+00,
853,2.80e-03,
854,2.40e-03,
855,0.00e+00,
856,0.00e+00,
857,2.00e-03,
858,2.00e-03,
859,-8.00e-04,
860,-8.00e-04,
861,2.00e-03,
862,1.60e-03,
863,-8.00e-04,
864,-8.00e-04,
865,1.60e-03,
866,2.00e-03,
867,-8.00e-04,
868,2.40e-03,
869,-8.00e-04,
870,1.60e-03,
871,-8.00e-04,
872,2.40e-03,
873,-8.00e-04,
874,2.40e-03,
875,-1.60e-03,
876,-8.00e-04,
877,2.00e-03,
878,0.00e+00,
879,2.40e-03,
880,-8.00e-04,
881,2.40e-03,
882,2.40e-03,
883,-8.00e-04,
884,2.80e-03,
885,-8.00e-04,
886,0.00e+00,
887,2.80e-03,
888,-8.00e-04,
889,2.40e-03,
890,-8.00e-04,
891,2.40e-03,
892,-8.00e-04,
893,2.40e-03,
894,2.40e-03,
895,0.00e+00,
896,0.00e+00,
897,3.20e-03,
898,-8.00e-04,
899,2.40e-03,
900,-8.00e-04,
901,2.80e-03,
902,2.40e-03,
903,0.00e+00,
904,0.00e+00,
905,2.40e-03,
906,3.20e-03,
907,-8.00e-04,
908,2.40e-03,
909,0.00e+00,
910,0.00e+00,
911,2.80e-03,
912,2.40e-03,
913,0.00e+00,
914,3.20e-03,
915,0.00e+00,
916,0.00e+00,
917,2.40e-03,
918,0.00e+00,
919,2.40e-03,
920,2.40e-03,
921,-8.00e-04,
922,0.00e+00,
923,2.40e-03,
924,0.00e+00,
925,3.20e-03,
926,2.40e-03,
927,0.00e+00,
928,2.40e-03,
929,-8.00e-04,
930,2.40e-03,
931,0.00e+00,
932,-8.00e-04,
933,2.40e-03,
934,2.40e-03,
935,-8.00e-04,
936,0.00e+00,
937,2.40e-03,
938,0.00e+00,
939,2.40e-03,
940,0.00e+00,
941,2.40e-03,
942,3.20e-03,
943,0.00e+00,
944,2.80e-03,
945,0.00e+00,
946,2.40e-03,
947,0.00e+00,
948,2.80e-03,
949,0.00e+00,
950,2.40e-03,
951,-8.00e-04,
952,2.40e-03,
953,-8.00e-04,
954,2.80e-03,
955,-8.00e-04,
956,0.00e+00,
957,2.40e-03,
958,-8.00e-04,
959,2.40e-03,
960,0.00e+00,
961,2.40e-03,
962,2.80e-03,
963,-8.00e-04,
964,-8.00e-04,
965,2.40e-03,
966,0.00e+00,
967,2.40e-03,
968,0.00e+00,
969,2.40e-03,
970,2.40e-03,
971,-8.00e-04,
972,0.00e+00,
973,2.00e-03,
974,2.40e-03,
975,-8.00e-04,
976,2.40e-03,
977,-8.00e-04,
978,2.40e-03,
979,-8.00e-04,
980,2.00e-03,
981,-8.00e-04,
982,2.40e-03,
983,-8.00e-04,
984,2.40e-03,
985,-8.00e-04,
986,0.00e+00,
987,2.00e-03,
988,-8.00e-04,
989,3.20e-03,
990,2.40e-03,
991,0.00e+00,
992,0.00e+00,
993,2.00e-03,
994,2.40e-03,
995,-8.00e-04,
996,2.40e-03,
997,-8.00e-04,
998,-8.00e-04,
999,1.60e-03,
1000,-8.00e-04,
1001,2.40e-03,
1002,-8.00e-04,
1003,1.60e-03,
1004,2.40e-03,
1005,-8.00e-04,
1006,1.60e-03,
1007,-1.60e-03,
1008,2.00e-03,
1009,-8.00e-04,
1010,-8.00e-04,
1011,2.40e-03,
1012,1.60e-03,
1013,-8.00e-04,
1014,1.60e-03,
1015,-8.00e-04,
1016,2.40e-03,
1017,-8.00e-04,
1018,-8.00e-04,
1019,2.40e-03,
1020,2.00e-03,
1021,-8.00e-04,
1022,0.00e+00,
1023,2.00e-03,
1024,2.40e-03,
1025,-8.00e-04,
1026,-8.00e-04,
1027,2.40e-03,
1028,-8.00e-04,
1029,2.40e-03,
1030,2.40e-03,
1031,-8.00e-04,
1032,2.40e-03,
1033,-1.60e-03,
1034,0.00e+00,
1035,2.40e-03,
1036,-8.00e-04,
1037,1.60e-03,
1038,-8.00e-04,
1039,2.00e-03,
1040,-8.00e-04,
1041,1.60e-03,
1042,0.00e+00,
1043,2.40e-03,
1044,2.00e-03,
1045,-8.00e-04,
1046,0.00e+00,
1047,2.40e-03,
1048,2.40e-03,
1049,0.00e+00,
1050,0.00e+00,
1051,2.40e-03,
1052,2.40e-03,
1053,0.00e+00,
1054,-8.00e-04,
1055,2.40e-03,
1056,2.40e-03,
1057,-8.00e-04,
1058,1.60e-03,
1059,-8.00e-04,
1060,1.60e-03,
1061,-1.60e-03,
1062,-8.00e-04,
1063,2.00e-03,
1064,2.40e-03,
1065,-8.00e-04,
1066,0.00e+00,
1067,2.40e-03,
1068,-8.00e-04,
1069,2.00e-03,
1070,2.00e-03,
1071,-8.00e-04,
1072,1.60e-03,
1073,-8.00e-04,
1074,-8.00e-04,
1075,2.00e-03,
1076,0.00e+00,
1077,2.40e-03,
1078,-8.00e-04,
1079,2.40e-03,
1080,2.40e-03,
1081,-8.00e-04,
1082,-8.00e-04,
1083,2.40e-03,
1084,2.40e-03,
1085,-8.00e-04,
1086,2.00e-03,
1087,-8.00e-04,
1088,0.00e+00,
1089,1.60e-03,
1090,2.40e-03,
1091,-8.00e-04,
1092,-8.00e-04,
1093,2.40e-03,
1094,0.00e+00,
1095,2.40e-03,
1096,-8.00e-04,
1097,2.40e-03,
1098,0.00e+00,
1099,2.00e-03,
1100,1.60e-03,
1101,-8.00e-04,
1102,2.00e-03,
1103,-8.00e-04,
1104,2.40e-03,
1105,-8.00e-04,
1106,1.60e-03,
1107,-1.60e-03,
1108,-8.00e-04,
1109,2.00e-03,
1110,-8.00e-04,
1111,1.60e-03,
1112,-8.00e-04,
1113,1.60e-03,
1114,-8.00e-04,
1115,1.60e-03,
1116,-8.00e-04,
1117,2.80e-03,
1118,1.60e-03,
1119,-1.60e-03,
1120,1.60e-03,
1121,-8.00e-04,
1122,-8.00e-04,
1123,2.40e-03,
1124,1.60e-03,
1125,-8.00e-04,
1126,-8.00e-04,
1127,2.40e-03,
1128,0.00e+00,
1129,2.00e-03,
1130,-8.00e-04,
1131,2.00e-03,
1132,-8.00e-04,
1133,1.60e-03,
1134,-1.60e-03,
1135,2.00e-03,
1136,1.60e-03,
1137,-1.60e-03,
1138,1.60e-03,
1139,-8.00e-04,
1140,-8.00e-04,
1141,2.40e-03,
1142,-8.00e-04,
1143,1.60e-03,
1144,2.40e-03,
1145,-8.00e-04,
1146,1.60e-03,
1147,-1.60e-03,
1148,1.60e-03,
1149,-8.00e-04,
1150,-8.00e-04,
1151,1.60e-03,
1152,-8.00e-04,
1153,1.60e-03,
1154,1.60e-03,
1155,-8.00e-04,
1156,-8.00e-04,
1157,2.40e-03,
1158,-8.00e-04,
1159,1.60e-03,
1160,2.40e-03,
1161,-8.00e-04,
1162,-8.00e-04,
1163,2.40e-03,
1164,2.40e-03,
1165,-8.00e-04,
1166,2.00e-03,
1167,0.00e+00,
1168,1.60e-03,
1169,-8.00e-04,
1170,0.00e+00,
1171,2.40e-03,
1172,2.00e-03,
1173,-8.00e-04,
1174,0.00e+00,
1175,2.40e-03,
1176,2.40e-03,
1177,0.00e+00,
1178,2.00e-03,
1179,-1.60e-03,
1180,2.40e-03,
1181,-8.00e-04,
1182,2.40e-03,
1183,-8.00e-04,
1184,2.00e-03,
1185,-8.00e-04,
1186,-8.00e-04,
1187,1.60e-03,
1188,2.40e-03,
1189,-8.00e-04,
1190,1.60e-03,
1191,-8.00e-04,
1192,2.00e-03,
1193,-8.00e-04,
1194,1.60e-03,
1195,-8.00e-04,
1196,-8.00e-04,
1197,2.40e-03,
1198,-8.00e-04,
1199,2.40e-03,
