fastdiffamp/data-noise-set/5th/NewFile3.csv

X,CH1,Start,Increment,
Sequence,Volt,-1.200000e-02,2.000000e-05
0,-1.60e-03,
1,2.40e-03,
2,3.20e-03,
3,-1.60e-03,
4,-2.40e-03,
5,2.40e-03,
6,-1.60e-03,
7,3.20e-03,
8,-1.60e-03,
9,2.40e-03,
10,2.00e-03,
11,-2.40e-03,
12,-1.60e-03,
13,3.20e-03,
14,-1.60e-03,
15,2.80e-03,
16,-8.00e-04,
17,2.40e-03,
18,-1.60e-03,
19,3.20e-03,
20,-8.00e-04,
21,2.40e-03,
22,-8.00e-04,
23,2.00e-03,
24,2.40e-03,
25,-1.60e-03,
26,2.40e-03,
27,0.00e+00,
28,-2.40e-03,
29,2.80e-03,
30,-1.60e-03,
31,3.20e-03,
32,-8.00e-04,
33,3.20e-03,
34,-1.60e-03,
35,4.80e-03,
36,3.20e-03,
37,-8.00e-04,
38,-8.00e-04,
39,3.20e-03,
40,-1.60e-03,
41,3.20e-03,
42,3.20e-03,
43,-8.00e-04,
44,-8.00e-04,
45,2.40e-03,
46,3.20e-03,
47,-1.60e-03,
48,-8.00e-04,
49,2.40e-03,
50,3.20e-03,
51,0.00e+00,
52,-1.60e-03,
53,3.20e-03,
54,2.40e-03,
55,-1.60e-03,
56,-8.00e-04,
57,2.40e-03,
58,-1.60e-03,
59,3.20e-03,
60,-1.60e-03,
61,2.40e-03,
62,2.40e-03,
63,-1.60e-03,
64,2.00e-03,
65,-1.60e-03,
66,-8.00e-04,
67,3.20e-03,
68,-8.00e-04,
69,2.40e-03,
70,-8.00e-04,
71,2.40e-03,
72,-1.60e-03,
73,4.80e-03,
74,-8.00e-04,
75,4.00e-03,
76,4.00e-03,
77,-8.00e-04,
78,-1.60e-03,
79,2.40e-03,
80,-8.00e-04,
81,2.40e-03,
82,2.40e-03,
83,-1.60e-03,
84,-1.60e-03,
85,4.00e-03,
86,2.40e-03,
87,-1.60e-03,
88,-8.00e-04,
89,2.40e-03,
90,2.40e-03,
91,-1.60e-03,
92,2.40e-03,
93,-1.60e-03,
94,-8.00e-04,
95,2.40e-03,
96,-4.00e-04,
97,2.40e-03,
98,-8.00e-04,
99,3.20e-03,
100,4.00e-03,
101,-1.60e-03,
102,-1.60e-03,
103,2.40e-03,
104,2.40e-03,
105,-1.60e-03,
106,2.40e-03,
107,-1.60e-03,
108,3.20e-03,
109,-2.40e-03,
110,2.40e-03,
111,-1.60e-03,
112,-8.00e-04,
113,2.40e-03,
114,2.40e-03,
115,-1.60e-03,
116,-8.00e-04,
117,2.40e-03,
118,3.20e-03,
119,-2.40e-03,
120,-1.60e-03,
121,1.60e-03,
122,-2.00e-03,
123,2.40e-03,
124,-2.40e-03,
125,3.20e-03,
126,2.40e-03,
127,-4.00e-03,
128,-2.40e-03,
129,2.80e-03,
130,-1.60e-03,
131,2.40e-03,
132,2.00e-03,
133,-1.60e-03,
134,-8.00e-04,
135,2.80e-03,
136,2.40e-03,
137,-1.60e-03,
138,2.40e-03,
139,-1.60e-03,
140,2.40e-03,
141,-1.60e-03,
142,3.20e-03,
143,-1.60e-03,
144,-1.60e-03,
145,2.40e-03,
146,-8.00e-04,
147,2.00e-03,
148,-1.60e-03,
149,2.00e-03,
150,1.60e-03,
151,-2.00e-03,
152,-1.60e-03,
153,2.00e-03,
154,1.60e-03,
155,-2.40e-03,
156,2.40e-03,
157,-2.40e-03,
158,-2.40e-03,
159,2.40e-03,
160,-2.40e-03,
161,3.20e-03,
162,-2.40e-03,
163,2.40e-03,
164,3.20e-03,
165,-2.40e-03,
166,-1.60e-03,
167,2.00e-03,
168,3.20e-03,
169,-2.40e-03,
170,2.40e-03,
171,-1.60e-03,
172,-8.00e-04,
173,2.40e-03,
174,2.40e-03,
175,-1.60e-03,
176,2.40e-03,
177,-2.40e-03,
178,3.20e-03,
179,-2.40e-03,
180,-1.60e-03,
181,3.20e-03,
182,3.20e-03,
183,-1.60e-03,
184,3.20e-03,
185,-1.60e-03,
186,2.40e-03,
187,-1.60e-03,
188,2.40e-03,
189,-8.00e-04,
190,-8.00e-04,
191,3.20e-03,
192,2.40e-03,
193,-8.00e-04,
194,-1.60e-03,
195,3.20e-03,
196,-1.60e-03,
197,1.60e-03,
198,2.00e-03,
199,-1.60e-03,
200,-1.60e-03,
201,2.40e-03,
202,2.40e-03,
203,-1.60e-03,
204,-1.60e-03,
205,2.40e-03,
206,-1.20e-03,
207,2.40e-03,
208,2.40e-03,
209,-1.60e-03,
210,-8.00e-04,
211,3.20e-03,
212,-1.60e-03,
213,2.40e-03,
214,-1.60e-03,
215,3.20e-03,
216,-1.60e-03,
217,4.00e-03,
218,3.20e-03,
219,-8.00e-04,
220,-8.00e-04,
221,4.00e-03,
222,2.40e-03,
223,-1.60e-03,
224,-2.40e-03,
225,3.20e-03,
226,2.40e-03,
227,-1.60e-03,
228,2.40e-03,
229,-1.60e-03,
230,2.40e-03,
231,-8.00e-04,
232,-1.60e-03,
233,2.40e-03,
234,2.40e-03,
235,-8.00e-04,
236,-1.60e-03,
237,3.20e-03,
238,2.00e-03,
239,-8.00e-04,
240,2.40e-03,
241,-8.00e-04,
242,2.40e-03,
243,-2.40e-03,
244,-1.60e-03,
245,2.80e-03,
246,3.20e-03,
247,-1.60e-03,
248,-8.00e-04,
249,4.00e-03,
250,-1.60e-03,
251,3.20e-03,
252,4.00e-03,
253,-8.00e-04,
254,3.20e-03,
255,-1.60e-03,
256,-8.00e-04,
257,3.20e-03,
258,-8.00e-04,
259,2.40e-03,
260,-1.60e-03,
261,3.20e-03,
262,2.40e-03,
263,-8.00e-04,
264,2.40e-03,
265,-1.60e-03,
266,-1.60e-03,
267,3.20e-03,
268,3.20e-03,
269,0.00e+00,
270,2.40e-03,
271,-1.60e-03,
272,1.60e-03,
273,-8.00e-04,
274,-8.00e-04,
275,2.40e-03,
276,-1.60e-03,
277,2.40e-03,
278,-8.00e-04,
279,3.20e-03,
280,-8.00e-04,
281,2.40e-03,
282,1.60e-03,
283,-1.60e-03,
284,-8.00e-04,
285,3.20e-03,
286,2.40e-03,
287,-1.60e-03,
288,2.40e-03,
289,-2.40e-03,
290,2.40e-03,
291,-1.60e-03,
292,-8.00e-04,
293,2.40e-03,
294,2.40e-03,
295,-8.00e-04,
296,-8.00e-04,
297,3.20e-03,
298,2.40e-03,
299,-8.00e-04,
300,-8.00e-04,
301,2.40e-03,
302,-8.00e-04,
303,3.20e-03,
304,3.20e-03,
305,-1.60e-03,
306,3.20e-03,
307,-1.60e-03,
308,2.40e-03,
309,-1.60e-03,
310,3.20e-03,
311,-4.00e-04,
312,-1.60e-03,
313,3.20e-03,
314,-8.00e-04,
315,3.20e-03,
316,-8.00e-04,
317,4.00e-03,
318,-8.00e-04,
319,3.20e-03,
320,-1.60e-03,
321,3.20e-03,
322,-8.00e-04,
323,4.00e-03,
324,4.00e-03,
325,-1.60e-03,
326,3.20e-03,
327,-1.60e-03,
328,-8.00e-04,
329,3.20e-03,
330,-1.60e-03,
331,2.80e-03,
332,3.20e-03,
333,-8.00e-04,
334,-1.60e-03,
335,4.00e-03,
336,2.40e-03,
337,-8.00e-04,
338,-8.00e-04,
339,4.00e-03,
340,-8.00e-04,
341,3.20e-03,
342,-8.00e-04,
343,3.20e-03,
344,-1.60e-03,
345,3.20e-03,
346,2.40e-03,
347,-2.40e-03,
348,3.20e-03,
349,-1.60e-03,
350,-8.00e-04,
351,3.20e-03,
352,3.20e-03,
353,-8.00e-04,
354,2.40e-03,
355,-8.00e-04,
356,3.20e-03,
357,-1.60e-03,
358,-8.00e-04,
359,3.20e-03,
360,-8.00e-04,
361,2.40e-03,
362,2.80e-03,
363,-1.60e-03,
364,2.40e-03,
365,-1.60e-03,
366,-8.00e-04,
367,2.40e-03,
368,-2.40e-03,
369,2.40e-03,
370,2.40e-03,
371,-1.20e-03,
372,2.00e-03,
373,-8.00e-04,
374,-1.60e-03,
375,2.40e-03,
376,-1.60e-03,
377,3.20e-03,
378,-8.00e-04,
379,2.80e-03,
380,1.60e-03,
381,-2.40e-03,
382,-1.60e-03,
383,3.20e-03,
384,2.40e-03,
385,-1.60e-03,
386,-1.60e-03,
387,1.60e-03,
388,1.60e-03,
389,-2.40e-03,
390,-2.40e-03,
391,1.60e-03,
392,-8.00e-04,
393,2.00e-03,
394,1.60e-03,
395,-1.60e-03,
396,-1.60e-03,
397,4.00e-03,
398,3.20e-03,
399,-2.40e-03,
400,1.60e-03,
401,-4.00e-03,
402,3.20e-03,
403,-2.40e-03,
404,-1.60e-03,
405,3.20e-03,
406,2.00e-03,
407,-1.60e-03,
408,-8.00e-04,
409,2.40e-03,
410,-1.60e-03,
411,1.60e-03,
412,2.40e-03,
413,-1.60e-03,
414,2.00e-03,
415,-1.60e-03,
416,2.40e-03,
417,-1.60e-03,
418,-2.40e-03,
419,1.60e-03,
420,2.40e-03,
421,-1.60e-03,
422,1.60e-03,
423,-8.00e-04,
424,-1.60e-03,
425,2.40e-03,
426,1.60e-03,
427,-1.60e-03,
428,2.40e-03,
429,-1.60e-03,
430,1.60e-03,
431,-1.60e-03,
432,-8.00e-04,
433,3.60e-03,
434,3.20e-03,
435,-1.60e-03,
436,-8.00e-04,
437,2.40e-03,
438,2.40e-03,
439,-8.00e-04,
440,2.40e-03,
441,-8.00e-04,
442,-8.00e-04,
443,2.40e-03,
444,-8.00e-04,
445,2.80e-03,
446,2.40e-03,
447,-1.60e-03,
448,-2.40e-03,
449,3.20e-03,
450,-2.40e-03,
451,2.80e-03,
452,-3.20e-03,
453,1.60e-03,
454,-1.60e-03,
455,2.40e-03,
456,2.40e-03,
457,-2.40e-03,
458,3.20e-03,
459,-2.40e-03,
460,-8.00e-04,
461,2.80e-03,
462,-8.00e-04,
463,2.40e-03,
464,2.40e-03,
465,-1.60e-03,
466,-1.60e-03,
467,2.80e-03,
468,-1.60e-03,
469,1.60e-03,
470,-1.60e-03,
471,1.60e-03,
472,-1.60e-03,
473,2.40e-03,
474,2.40e-03,
475,-1.60e-03,
476,1.60e-03,
477,-1.60e-03,
478,-1.60e-03,
479,3.20e-03,
480,2.40e-03,
481,-1.60e-03,
482,-8.00e-04,
483,1.60e-03,
484,2.40e-03,
485,-2.40e-03,
486,-2.40e-03,
487,2.40e-03,
488,-1.60e-03,
489,1.60e-03,
490,2.40e-03,
491,-2.40e-03,
492,-1.60e-03,
493,2.40e-03,
494,-3.20e-03,
495,2.00e-03,
496,2.40e-03,
497,-1.60e-03,
498,-8.00e-04,
499,3.20e-03,
500,-2.40e-03,
501,2.00e-03,
502,1.60e-03,
503,-2.40e-03,
504,-8.00e-04,
505,2.80e-03,
506,3.20e-03,
507,-1.60e-03,
508,1.60e-03,
509,-1.60e-03,
510,2.00e-03,
511,-1.60e-03,
512,-2.40e-03,
513,2.00e-03,
514,-2.40e-03,
515,2.40e-03,
516,2.00e-03,
517,-1.60e-03,
518,-1.60e-03,
519,1.60e-03,
520,-2.40e-03,
521,2.40e-03,
522,2.80e-03,
523,-1.60e-03,
524,2.40e-03,
525,-2.40e-03,
526,-1.60e-03,
527,1.60e-03,
528,-1.60e-03,
529,1.60e-03,
530,8.00e-04,
531,-3.20e-03,
532,2.40e-03,
533,-1.60e-03,
534,1.60e-03,
535,-2.40e-03,
536,1.60e-03,
537,-1.60e-03,
538,-1.60e-03,
539,1.60e-03,
540,-1.60e-03,
541,2.40e-03,
542,1.60e-03,
543,-2.40e-03,
544,1.60e-03,
545,-2.40e-03,
546,-1.60e-03,
547,2.40e-03,
548,1.60e-03,
549,-2.40e-03,
550,-3.20e-03,
551,2.40e-03,
552,-1.60e-03,
553,2.40e-03,
554,2.40e-03,
555,-2.40e-03,
556,2.40e-03,
557,-2.40e-03,
558,-1.60e-03,
559,3.20e-03,
560,1.60e-03,
561,-1.60e-03,
562,-1.60e-03,
563,2.40e-03,
564,-8.00e-04,
565,2.40e-03,
566,1.60e-03,
567,-1.60e-03,
568,-1.60e-03,
569,2.40e-03,
570,2.40e-03,
571,-1.60e-03,
572,-1.60e-03,
573,1.60e-03,
574,-1.60e-03,
575,2.40e-03,
576,1.60e-03,
577,-1.60e-03,
578,2.40e-03,
579,-2.40e-03,
580,2.40e-03,
581,-1.60e-03,
582,-2.40e-03,
583,2.00e-03,
584,3.20e-03,
585,-2.40e-03,
586,-1.60e-03,
587,2.40e-03,
588,-2.40e-03,
589,2.40e-03,
590,-1.60e-03,
591,3.20e-03,
592,-1.60e-03,
593,2.00e-03,
594,-8.00e-04,
595,3.20e-03,
596,3.20e-03,
597,-2.40e-03,
598,-3.20e-03,
599,2.40e-03,
600,-1.60e-03,
601,3.20e-03,
602,3.20e-03,
603,-1.60e-03,
604,-1.60e-03,
605,3.20e-03,
606,-8.00e-04,
607,3.20e-03,
608,2.40e-03,
609,-1.60e-03,
610,-8.00e-04,
611,2.40e-03,
612,1.60e-03,
613,-1.60e-03,
614,2.40e-03,
615,-1.60e-03,
616,-8.00e-04,
617,2.80e-03,
618,3.20e-03,
619,-1.60e-03,
620,3.20e-03,
621,-2.40e-03,
622,2.80e-03,
623,-2.40e-03,
624,-2.40e-03,
625,2.40e-03,
626,2.40e-03,
627,-1.60e-03,
628,-8.00e-04,
629,2.40e-03,
630,2.40e-03,
631,-8.00e-04,
632,3.20e-03,
633,-1.60e-03,
634,-1.60e-03,
635,3.20e-03,
636,-1.60e-03,
637,2.00e-03,
638,-2.40e-03,
639,1.60e-03,
640,-1.60e-03,
641,3.20e-03,
642,-8.00e-04,
643,2.00e-03,
644,3.20e-03,
645,-2.40e-03,
646,3.20e-03,
647,-3.20e-03,
648,-1.60e-03,
649,3.20e-03,
650,2.40e-03,
651,-1.60e-03,
652,2.40e-03,
653,-2.40e-03,
654,2.40e-03,
655,-2.40e-03,
656,2.40e-03,
657,-2.40e-03,
658,-1.60e-03,
659,2.80e-03,
660,-1.60e-03,
661,1.60e-03,
662,-8.00e-04,
663,2.40e-03,
664,2.40e-03,
665,-1.60e-03,
666,-8.00e-04,
667,2.40e-03,
668,-8.00e-04,
669,2.40e-03,
670,1.60e-03,
671,-1.60e-03,
672,2.40e-03,
673,-1.60e-03,
674,-1.60e-03,
675,3.20e-03,
676,3.20e-03,
677,-2.40e-03,
678,-2.40e-03,
679,3.20e-03,
680,-2.40e-03,
681,3.20e-03,
682,2.40e-03,
683,-1.60e-03,
684,-2.40e-03,
685,2.40e-03,
686,-1.60e-03,
687,3.20e-03,
688,2.40e-03,
689,-8.00e-04,
690,-8.00e-04,
691,2.40e-03,
692,-2.40e-03,
693,3.20e-03,
694,3.20e-03,
695,-8.00e-04,
696,-1.60e-03,
697,2.40e-03,
698,2.40e-03,
699,-1.60e-03,
700,2.40e-03,
701,-1.60e-03,
702,-1.60e-03,
703,3.20e-03,
704,1.60e-03,
705,-1.60e-03,
706,2.40e-03,
707,-1.60e-03,
708,3.20e-03,
709,-8.00e-04,
710,-1.60e-03,
711,2.00e-03,
712,2.80e-03,
713,-1.60e-03,
714,2.40e-03,
715,-8.00e-04,
716,-1.60e-03,
717,3.20e-03,
718,-1.60e-03,
719,3.20e-03,
720,-1.60e-03,
721,3.20e-03,
722,-8.00e-04,
723,3.20e-03,
724,3.20e-03,
725,-8.00e-04,
726,4.00e-03,
727,-2.40e-03,
728,-8.00e-04,
729,3.20e-03,
730,2.40e-03,
731,-8.00e-04,
732,0.00e+00,
733,4.80e-03,
734,2.40e-03,
735,-8.00e-04,
736,3.20e-03,
737,-1.60e-03,
738,-8.00e-04,
739,2.40e-03,
740,-8.00e-04,
741,2.80e-03,
742,0.00e+00,
743,3.20e-03,
744,0.00e+00,
745,4.00e-03,
746,2.40e-03,
747,-1.60e-03,
748,3.20e-03,
749,-1.60e-03,
750,3.20e-03,
751,-2.40e-03,
752,-1.60e-03,
753,3.20e-03,
754,0.00e+00,
755,3.20e-03,
756,0.00e+00,
757,2.40e-03,
758,8.00e-04,
759,2.40e-03,
760,3.20e-03,
761,-8.00e-04,
762,-8.00e-04,
763,3.20e-03,
764,0.00e+00,
765,4.00e-03,
766,-8.00e-04,
767,3.20e-03,
768,2.40e-03,
769,0.00e+00,
770,-8.00e-04,
771,4.00e-03,
772,0.00e+00,
773,3.20e-03,
774,3.20e-03,
775,-8.00e-04,
776,-8.00e-04,
777,4.00e-03,
778,3.20e-03,
779,0.00e+00,
780,3.20e-03,
781,0.00e+00,
782,3.60e-03,
783,-1.60e-03,
784,-1.60e-03,
785,4.00e-03,
786,2.40e-03,
787,0.00e+00,
788,3.20e-03,
789,-8.00e-04,
790,3.20e-03,
791,-8.00e-04,
792,-8.00e-04,
793,3.20e-03,
794,0.00e+00,
795,2.80e-03,
796,-8.00e-04,
797,4.00e-03,
798,4.80e-03,
799,-8.00e-04,
800,-8.00e-04,
801,4.00e-03,
802,3.20e-03,
803,0.00e+00,
804,0.00e+00,
805,3.20e-03,
806,-8.00e-04,
807,4.00e-03,
808,0.00e+00,
809,3.20e-03,
810,3.20e-03,
811,-8.00e-04,
812,1.60e-03,
813,-1.60e-03,
814,-8.00e-04,
815,3.20e-03,
816,-2.40e-03,
817,4.00e-03,
818,-8.00e-04,
819,3.20e-03,
820,-8.00e-04,
821,4.00e-03,
822,3.20e-03,
823,-8.00e-04,
824,2.40e-03,
825,-1.60e-03,
826,4.00e-03,
827,-8.00e-04,
828,3.20e-03,
829,0.00e+00,
830,-1.60e-03,
831,4.80e-03,
832,0.00e+00,
833,4.00e-03,
834,0.00e+00,
835,3.20e-03,
836,-8.00e-04,
837,4.00e-03,
838,0.00e+00,
839,2.40e-03,
840,0.00e+00,
841,3.20e-03,
842,0.00e+00,
843,4.00e-03,
844,0.00e+00,
845,3.20e-03,
846,-8.00e-04,
847,4.80e-03,
848,3.20e-03,
849,-8.00e-04,
850,-8.00e-04,
851,4.00e-03,
852,3.60e-03,
853,0.00e+00,
854,0.00e+00,
855,4.00e-03,
856,2.40e-03,
857,-8.00e-04,
858,-8.00e-04,
859,2.80e-03,
860,-8.00e-04,
861,3.20e-03,
862,3.20e-03,
863,0.00e+00,
864,3.20e-03,
865,-8.00e-04,
866,-8.00e-04,
867,4.00e-03,
868,-8.00e-04,
869,4.00e-03,
870,0.00e+00,
871,4.80e-03,
872,-8.00e-04,
873,4.00e-03,
874,3.20e-03,
875,-8.00e-04,
876,0.00e+00,
877,2.80e-03,
878,-8.00e-04,
879,4.00e-03,
880,2.80e-03,
881,0.00e+00,
882,0.00e+00,
883,3.60e-03,
884,-8.00e-04,
885,3.20e-03,
886,3.20e-03,
887,-8.00e-04,
888,3.20e-03,
889,-8.00e-04,
890,3.20e-03,
891,-1.60e-03,
892,4.00e-03,
893,-8.00e-04,
894,3.20e-03,
895,-8.00e-04,
896,-8.00e-04,
897,2.40e-03,
898,2.40e-03,
899,-8.00e-04,
900,2.40e-03,
901,-8.00e-04,
902,-8.00e-04,
903,3.20e-03,
904,-8.00e-04,
905,2.40e-03,
906,3.20e-03,
907,-8.00e-04,
908,-8.00e-04,
909,2.80e-03,
910,0.00e+00,
911,3.20e-03,
912,2.40e-03,
913,-8.00e-04,
914,-8.00e-04,
915,4.00e-03,
916,2.40e-03,
917,-1.60e-03,
918,2.40e-03,
919,-8.00e-04,
920,2.40e-03,
921,-8.00e-04,
922,2.40e-03,
923,-1.60e-03,
924,-8.00e-04,
925,2.80e-03,
926,0.00e+00,
927,4.00e-03,
928,2.40e-03,
929,-8.00e-04,
930,-2.40e-03,
931,3.20e-03,
932,3.20e-03,
933,-8.00e-04,
934,3.20e-03,
935,-8.00e-04,
936,-8.00e-04,
937,3.20e-03,
938,-8.00e-04,
939,2.40e-03,
940,2.40e-03,
941,-8.00e-04,
942,2.40e-03,
943,-1.60e-03,
944,-1.60e-03,
945,3.60e-03,
946,3.20e-03,
947,-8.00e-04,
948,3.20e-03,
949,0.00e+00,
950,3.20e-03,
951,-8.00e-04,
952,-1.60e-03,
953,3.20e-03,
954,0.00e+00,
955,3.20e-03,
956,3.20e-03,
957,-8.00e-04,
958,3.20e-03,
959,-1.60e-03,
960,0.00e+00,
961,4.00e-03,
962,3.20e-03,
963,-8.00e-04,
964,0.00e+00,
965,4.00e-03,
966,3.20e-03,
967,-8.00e-04,
968,3.20e-03,
969,-2.40e-03,
970,-1.60e-03,
971,3.20e-03,
972,3.20e-03,
973,-8.00e-04,
974,-8.00e-04,
975,2.00e-03,
976,2.40e-03,
977,0.00e+00,
978,3.20e-03,
979,-1.60e-03,
980,-8.00e-04,
981,3.20e-03,
982,-1.60e-03,
983,3.20e-03,
984,3.20e-03,
985,-8.00e-04,
986,2.80e-03,
987,-8.00e-04,
988,-1.60e-03,
989,2.80e-03,
990,0.00e+00,
991,4.00e-03,
992,2.40e-03,
993,-1.60e-03,
994,0.00e+00,
995,2.80e-03,
996,-8.00e-04,
997,3.20e-03,
998,3.20e-03,
999,-8.00e-04,
1000,3.20e-03,
1001,-8.00e-04,
1002,4.00e-03,
1003,-8.00e-04,
1004,-8.00e-04,
1005,3.20e-03,
1006,4.00e-03,
1007,-2.40e-03,
1008,4.00e-03,
1009,-1.60e-03,
1010,3.20e-03,
1011,-1.60e-03,
1012,3.20e-03,
1013,-1.60e-03,
1014,-2.40e-03,
1015,4.00e-03,
1016,-1.60e-03,
1017,3.20e-03,
1018,2.40e-03,
1019,-1.60e-03,
1020,-8.00e-04,
1021,4.00e-03,
1022,3.20e-03,
1023,-3.20e-03,
1024,-8.00e-04,
1025,3.20e-03,
1026,3.20e-03,
1027,-1.60e-03,
1028,4.00e-03,
1029,-2.40e-03,
1030,-1.60e-03,
1031,3.20e-03,
1032,0.00e+00,
1033,2.40e-03,
1034,-1.60e-03,
1035,4.00e-03,
1036,4.00e-03,
1037,-8.00e-04,
1038,3.20e-03,
1039,-8.00e-04,
1040,4.00e-03,
1041,0.00e+00,
1042,-8.00e-04,
1043,3.20e-03,
1044,3.20e-03,
1045,-4.00e-04,
1046,4.00e-03,
1047,-8.00e-04,
1048,-1.60e-03,
1049,2.80e-03,
1050,0.00e+00,
1051,3.20e-03,
1052,-8.00e-04,
1053,4.00e-03,
1054,-8.00e-04,
1055,3.20e-03,
1056,0.00e+00,
1057,3.20e-03,
1058,3.60e-03,
1059,-8.00e-04,
1060,-1.60e-03,
1061,3.20e-03,
1062,2.40e-03,
1063,-2.40e-03,
1064,-8.00e-04,
1065,4.00e-03,
1066,3.20e-03,
1067,-2.40e-03,
1068,-1.60e-03,
1069,3.20e-03,
1070,3.20e-03,
1071,-1.60e-03,
1072,-1.60e-03,
1073,3.20e-03,
1074,3.20e-03,
1075,-1.60e-03,
1076,-8.00e-04,
1077,4.00e-03,
1078,-8.00e-04,
1079,3.20e-03,
1080,2.40e-03,
1081,-8.00e-04,
1082,-1.60e-03,
1083,3.20e-03,
1084,2.40e-03,
1085,-1.60e-03,
1086,-8.00e-04,
1087,2.40e-03,
1088,2.40e-03,
1089,-8.00e-04,
1090,2.40e-03,
1091,-8.00e-04,
1092,3.20e-03,
1093,-1.60e-03,
1094,2.40e-03,
1095,-1.60e-03,
1096,-8.00e-04,
1097,2.40e-03,
1098,-1.60e-03,
1099,2.40e-03,
1100,-2.40e-03,
1101,3.20e-03,
1102,0.00e+00,
1103,3.20e-03,
1104,-1.60e-03,
1105,3.20e-03,
1106,-8.00e-04,
1107,3.20e-03,
1108,-8.00e-04,
1109,2.80e-03,
1110,0.00e+00,
1111,3.20e-03,
1112,-8.00e-04,
1113,2.40e-03,
1114,-8.00e-04,
1115,2.80e-03,
1116,2.40e-03,
1117,-8.00e-04,
1118,3.20e-03,
1119,-1.60e-03,
1120,3.20e-03,
1121,-1.60e-03,
1122,-8.00e-04,
1123,3.20e-03,
1124,2.40e-03,
1125,-1.60e-03,
1126,4.00e-03,
1127,-8.00e-04,
1128,3.20e-03,
1129,-1.60e-03,
1130,-8.00e-04,
1131,3.20e-03,
1132,-1.60e-03,
1133,3.20e-03,
1134,3.20e-03,
1135,-8.00e-04,
1136,2.40e-03,
1137,-2.40e-03,
1138,1.60e-03,
1139,-1.20e-03,
1140,-8.00e-04,
1141,2.40e-03,
1142,-1.60e-03,
1143,2.40e-03,
1144,2.40e-03,
1145,-1.60e-03,
1146,-2.40e-03,
1147,2.40e-03,
1148,-1.60e-03,
1149,2.40e-03,
1150,2.40e-03,
1151,-1.60e-03,
1152,2.40e-03,
1153,-2.40e-03,
1154,-3.20e-03,
1155,2.00e-03,
1156,2.40e-03,
1157,-8.00e-04,
1158,3.20e-03,
1159,-1.60e-03,
1160,-8.00e-04,
1161,3.20e-03,
1162,-1.60e-03,
1163,2.80e-03,
1164,-8.00e-04,
1165,3.20e-03,
1166,-1.60e-03,
1167,3.20e-03,
1168,2.40e-03,
1169,-1.60e-03,
1170,-2.40e-03,
1171,2.40e-03,
1172,-1.60e-03,
1173,2.80e-03,
1174,3.20e-03,
1175,-1.60e-03,
1176,-8.00e-04,
1177,2.40e-03,
1178,2.40e-03,
1179,-1.60e-03,
1180,2.80e-03,
1181,-2.40e-03,
1182,-3.20e-03,
1183,3.20e-03,
1184,2.40e-03,
1185,-1.60e-03,
1186,-1.60e-03,
1187,2.40e-03,
1188,2.40e-03,
1189,-3.20e-03,
1190,-1.60e-03,
1191,3.60e-03,
1192,-2.40e-03,
1193,2.40e-03,
1194,-1.60e-03,
1195,3.20e-03,
1196,2.40e-03,
1197,-1.20e-03,
1198,2.40e-03,
1199,-1.60e-03,
