fastdiffamp/data-noise-set/5th/NewFile9.csv

X,CH1,Start,Increment,
Sequence,Volt,-1.200000e-02,2.000000e-05
0,0.00e+00,
1,2.80e-03,
2,2.40e-03,
3,0.00e+00,
4,0.00e+00,
5,2.40e-03,
6,0.00e+00,
7,2.80e-03,
8,2.40e-03,
9,0.00e+00,
10,2.40e-03,
11,0.00e+00,
12,2.80e-03,
13,-8.00e-04,
14,0.00e+00,
15,2.40e-03,
16,2.40e-03,
17,-8.00e-04,
18,0.00e+00,
19,2.40e-03,
20,2.40e-03,
21,0.00e+00,
22,-8.00e-04,
23,2.40e-03,
24,0.00e+00,
25,3.20e-03,
26,2.40e-03,
27,0.00e+00,
28,2.40e-03,
29,-8.00e-04,
30,8.00e-04,
31,2.80e-03,
32,3.20e-03,
33,0.00e+00,
34,2.40e-03,
35,0.00e+00,
36,2.40e-03,
37,-8.00e-04,
38,2.40e-03,
39,-8.00e-04,
40,1.60e-03,
41,-8.00e-04,
42,0.00e+00,
43,2.40e-03,
44,2.40e-03,
45,-8.00e-04,
46,2.40e-03,
47,-8.00e-04,
48,-8.00e-04,
49,2.00e-03,
50,2.40e-03,
51,-8.00e-04,
52,-1.60e-03,
53,1.60e-03,
54,0.00e+00,
55,1.60e-03,
56,0.00e+00,
57,2.40e-03,
58,-8.00e-04,
59,2.40e-03,
60,-8.00e-04,
61,2.40e-03,
62,0.00e+00,
63,2.40e-03,
64,-8.00e-04,
65,3.20e-03,
66,2.40e-03,
67,-8.00e-04,
68,-8.00e-04,
69,2.40e-03,
70,-8.00e-04,
71,1.60e-03,
72,0.00e+00,
73,2.00e-03,
74,1.60e-03,
75,-8.00e-04,
76,2.00e-03,
77,-8.00e-04,
78,2.40e-03,
79,-8.00e-04,
80,-8.00e-04,
81,2.40e-03,
82,0.00e+00,
83,3.20e-03,
84,2.40e-03,
85,-8.00e-04,
86,3.20e-03,
87,-8.00e-04,
88,2.00e-03,
89,0.00e+00,
90,-8.00e-04,
91,3.20e-03,
92,3.20e-03,
93,-8.00e-04,
94,2.80e-03,
95,0.00e+00,
96,0.00e+00,
97,2.80e-03,
98,-8.00e-04,
99,2.40e-03,
100,2.40e-03,
101,-8.00e-04,
102,-8.00e-04,
103,2.40e-03,
104,0.00e+00,
105,3.20e-03,
106,0.00e+00,
107,3.20e-03,
108,0.00e+00,
109,2.80e-03,
110,0.00e+00,
111,2.80e-03,
112,2.40e-03,
113,0.00e+00,
114,0.00e+00,
115,2.40e-03,
116,0.00e+00,
117,2.80e-03,
118,8.00e-04,
119,3.20e-03,
120,2.80e-03,
121,0.00e+00,
122,2.40e-03,
123,0.00e+00,
124,-8.00e-04,
125,3.20e-03,
126,3.20e-03,
127,0.00e+00,
128,2.40e-03,
129,0.00e+00,
130,2.40e-03,
131,0.00e+00,
132,8.00e-04,
133,2.40e-03,
134,2.40e-03,
135,0.00e+00,
136,0.00e+00,
137,3.20e-03,
138,0.00e+00,
139,2.80e-03,
140,0.00e+00,
141,2.80e-03,
142,2.40e-03,
143,0.00e+00,
144,2.40e-03,
145,0.00e+00,
146,2.40e-03,
147,0.00e+00,
148,2.40e-03,
149,0.00e+00,
150,2.40e-03,
151,0.00e+00,
152,2.40e-03,
153,-8.00e-04,
154,0.00e+00,
155,3.20e-03,
156,4.00e-03,
157,-8.00e-04,
158,3.20e-03,
159,0.00e+00,
160,-8.00e-04,
161,2.40e-03,
162,2.40e-03,
163,-8.00e-04,
164,-8.00e-04,
165,2.80e-03,
166,2.40e-03,
167,-8.00e-04,
168,2.40e-03,
169,-8.00e-04,
170,0.00e+00,
171,2.80e-03,
172,2.40e-03,
173,0.00e+00,
174,2.40e-03,
175,0.00e+00,
176,2.40e-03,
177,-8.00e-04,
178,0.00e+00,
179,2.80e-03,
180,2.80e-03,
181,0.00e+00,
182,0.00e+00,
183,2.40e-03,
184,0.00e+00,
185,2.80e-03,
186,2.80e-03,
187,-8.00e-04,
188,-8.00e-04,
189,2.40e-03,
190,0.00e+00,
191,2.40e-03,
192,2.40e-03,
193,0.00e+00,
194,0.00e+00,
195,2.40e-03,
196,0.00e+00,
197,3.20e-03,
198,3.20e-03,
199,4.00e-04,
200,2.40e-03,
201,-4.00e-04,
202,2.40e-03,
203,0.00e+00,
204,2.40e-03,
205,0.00e+00,
206,0.00e+00,
207,3.20e-03,
208,3.20e-03,
209,0.00e+00,
210,2.40e-03,
211,-8.00e-04,
212,0.00e+00,
213,2.80e-03,
214,2.40e-03,
215,0.00e+00,
216,2.80e-03,
217,-8.00e-04,
218,2.40e-03,
219,0.00e+00,
220,2.40e-03,
221,-8.00e-04,
222,2.80e-03,
223,-8.00e-04,
224,3.20e-03,
225,-8.00e-04,
226,-8.00e-04,
227,2.00e-03,
228,-8.00e-04,
229,2.40e-03,
230,2.80e-03,
231,-8.00e-04,
232,-8.00e-04,
233,2.00e-03,
234,2.40e-03,
235,-8.00e-04,
236,0.00e+00,
237,3.20e-03,
238,1.60e-03,
239,-1.60e-03,
240,-8.00e-04,
241,1.60e-03,
242,2.40e-03,
243,-8.00e-04,
244,-8.00e-04,
245,2.40e-03,
246,2.40e-03,
247,-8.00e-04,
248,2.00e-03,
249,-8.00e-04,
250,-1.60e-03,
251,2.40e-03,
252,-8.00e-04,
253,2.40e-03,
254,-1.60e-03,
255,1.60e-03,
256,-8.00e-04,
257,2.40e-03,
258,-8.00e-04,
259,1.60e-03,
260,2.40e-03,
261,-8.00e-04,
262,-8.00e-04,
263,1.60e-03,
264,-8.00e-04,
265,2.40e-03,
266,2.40e-03,
267,-8.00e-04,
268,-8.00e-04,
269,2.00e-03,
270,-8.00e-04,
271,1.20e-03,
272,-8.00e-04,
273,2.40e-03,
274,-8.00e-04,
275,2.00e-03,
276,1.60e-03,
277,-1.20e-03,
278,1.60e-03,
279,-1.60e-03,
280,-8.00e-04,
281,2.00e-03,
282,1.60e-03,
283,-8.00e-04,
284,2.40e-03,
285,-8.00e-04,
286,-8.00e-04,
287,2.40e-03,
288,1.60e-03,
289,-8.00e-04,
290,-8.00e-04,
291,2.40e-03,
292,1.60e-03,
293,-8.00e-04,
294,-8.00e-04,
295,2.40e-03,
296,1.60e-03,
297,-8.00e-04,
298,2.40e-03,
299,-8.00e-04,
300,0.00e+00,
301,1.60e-03,
302,0.00e+00,
303,2.40e-03,
304,2.00e-03,
305,0.00e+00,
306,-8.00e-04,
307,2.40e-03,
308,2.80e-03,
309,-1.60e-03,
310,-8.00e-04,
311,2.40e-03,
312,1.60e-03,
313,-1.60e-03,
314,2.40e-03,
315,-8.00e-04,
316,2.40e-03,
317,-8.00e-04,
318,2.40e-03,
319,-8.00e-04,
320,2.40e-03,
321,-8.00e-04,
322,-8.00e-04,
323,2.40e-03,
324,-8.00e-04,
325,2.80e-03,
326,-8.00e-04,
327,2.40e-03,
328,0.00e+00,
329,2.40e-03,
330,-8.00e-04,
331,2.40e-03,
332,-1.60e-03,
333,2.40e-03,
334,2.40e-03,
335,-8.00e-04,
336,0.00e+00,
337,3.20e-03,
338,-8.00e-04,
339,2.00e-03,
340,0.00e+00,
341,2.40e-03,
342,2.40e-03,
343,-8.00e-04,
344,-8.00e-04,
345,2.80e-03,
346,2.40e-03,
347,-1.60e-03,
348,2.00e-03,
349,-1.60e-03,
350,1.60e-03,
351,-8.00e-04,
352,-8.00e-04,
353,2.40e-03,
354,-8.00e-04,
355,2.40e-03,
356,1.60e-03,
357,-8.00e-04,
358,1.60e-03,
359,-8.00e-04,
360,-8.00e-04,
361,2.40e-03,
362,-8.00e-04,
363,1.60e-03,
364,-1.60e-03,
365,2.40e-03,
366,2.40e-03,
367,-1.60e-03,
368,2.40e-03,
369,-8.00e-04,
370,2.00e-03,
371,-1.60e-03,
372,-1.60e-03,
373,2.40e-03,
374,1.60e-03,
375,-8.00e-04,
376,-8.00e-04,
377,2.00e-03,
378,-8.00e-04,
379,2.00e-03,
380,2.40e-03,
381,-8.00e-04,
382,-8.00e-04,
383,2.40e-03,
384,-1.60e-03,
385,2.40e-03,
386,2.40e-03,
387,-8.00e-04,
388,-8.00e-04,
389,2.40e-03,
390,0.00e+00,
391,2.40e-03,
392,3.20e-03,
393,0.00e+00,
394,-8.00e-04,
395,2.40e-03,
396,1.60e-03,
397,-8.00e-04,
398,-8.00e-04,
399,2.40e-03,
400,-8.00e-04,
401,2.40e-03,
402,0.00e+00,
403,2.40e-03,
404,-8.00e-04,
405,2.80e-03,
406,-8.00e-04,
407,2.40e-03,
408,1.60e-03,
409,-8.00e-04,
410,0.00e+00,
411,2.40e-03,
412,0.00e+00,
413,2.40e-03,
414,-8.00e-04,
415,2.40e-03,
416,4.00e-03,
417,-8.00e-04,
418,2.40e-03,
419,0.00e+00,
420,-8.00e-04,
421,2.40e-03,
422,1.60e-03,
423,-8.00e-04,
424,1.60e-03,
425,-8.00e-04,
426,-8.00e-04,
427,2.40e-03,
428,1.60e-03,
429,-1.60e-03,
430,-8.00e-04,
431,1.60e-03,
432,-8.00e-04,
433,2.00e-03,
434,-8.00e-04,
435,2.00e-03,
436,1.60e-03,
437,-8.00e-04,
438,-8.00e-04,
439,1.60e-03,
440,2.00e-03,
441,-1.20e-03,
442,2.00e-03,
443,-1.60e-03,
444,2.00e-03,
445,-1.60e-03,
446,-1.60e-03,
447,1.60e-03,
448,-8.00e-04,
449,1.60e-03,
450,-8.00e-04,
451,2.40e-03,
452,-8.00e-04,
453,1.60e-03,
454,1.60e-03,
455,-1.60e-03,
456,-1.60e-03,
457,1.60e-03,
458,-1.60e-03,
459,1.20e-03,
460,2.40e-03,
461,-1.60e-03,
462,1.60e-03,
463,-1.60e-03,
464,-8.00e-04,
465,1.60e-03,
466,2.00e-03,
467,-1.60e-03,
468,0.00e+00,
469,1.60e-03,
470,1.60e-03,
471,-1.60e-03,
472,-8.00e-04,
473,2.00e-03,
474,1.60e-03,
475,-1.60e-03,
476,-8.00e-04,
477,2.40e-03,
478,2.40e-03,
479,-8.00e-04,
480,-8.00e-04,
481,1.60e-03,
482,2.40e-03,
483,-8.00e-04,
484,0.00e+00,
485,2.40e-03,
486,1.60e-03,
487,-8.00e-04,
488,-8.00e-04,
489,2.40e-03,
490,-1.60e-03,
491,1.20e-03,
492,-1.60e-03,
493,1.60e-03,
494,-1.60e-03,
495,2.00e-03,
496,1.60e-03,
497,-8.00e-04,
498,-8.00e-04,
499,1.60e-03,
500,-8.00e-04,
501,2.00e-03,
502,2.00e-03,
503,-8.00e-04,
504,-8.00e-04,
505,1.60e-03,
506,-8.00e-04,
507,1.60e-03,
508,-1.60e-03,
509,1.60e-03,
510,-8.00e-04,
511,1.60e-03,
512,1.60e-03,
513,-8.00e-04,
514,2.00e-03,
515,-8.00e-04,
516,2.00e-03,
517,-8.00e-04,
518,1.60e-03,
519,-1.20e-03,
520,-8.00e-04,
521,2.40e-03,
522,2.40e-03,
523,-1.60e-03,
524,-8.00e-04,
525,1.60e-03,
526,-8.00e-04,
527,2.40e-03,
528,2.40e-03,
529,-8.00e-04,
530,-8.00e-04,
531,2.40e-03,
532,-1.60e-03,
533,2.00e-03,
534,1.60e-03,
535,-8.00e-04,
536,1.60e-03,
537,-8.00e-04,
538,-1.60e-03,
539,2.00e-03,
540,-8.00e-04,
541,2.40e-03,
542,2.00e-03,
543,-1.60e-03,
544,2.00e-03,
545,-1.60e-03,
546,1.60e-03,
547,-1.60e-03,
548,-8.00e-04,
549,1.20e-03,
550,1.60e-03,
551,-1.60e-03,
552,-1.60e-03,
553,1.60e-03,
554,1.60e-03,
555,-8.00e-04,
556,1.60e-03,
557,-1.60e-03,
558,-8.00e-04,
559,1.60e-03,
560,1.60e-03,
561,-1.60e-03,
562,-1.60e-03,
563,1.20e-03,
564,1.60e-03,
565,-8.00e-04,
566,-8.00e-04,
567,1.60e-03,
568,-1.60e-03,
569,2.80e-03,
570,-8.00e-04,
571,1.60e-03,
572,1.60e-03,
573,-1.60e-03,
574,-8.00e-04,
575,1.60e-03,
576,-8.00e-04,
577,1.20e-03,
578,1.60e-03,
579,-1.60e-03,
580,-8.00e-04,
581,1.60e-03,
582,1.20e-03,
583,-1.60e-03,
584,-1.60e-03,
585,1.20e-03,
586,-1.60e-03,
587,1.60e-03,
588,1.60e-03,
589,-1.60e-03,
590,-1.60e-03,
591,1.60e-03,
592,1.60e-03,
593,-1.60e-03,
594,-8.00e-04,
595,2.00e-03,
596,1.60e-03,
597,-1.60e-03,
598,-8.00e-04,
599,2.00e-03,
600,-8.00e-04,
601,1.60e-03,
602,2.00e-03,
603,-1.60e-03,
604,2.00e-03,
605,-1.60e-03,
606,1.60e-03,
607,-1.60e-03,
608,1.60e-03,
609,-2.40e-03,
610,-1.60e-03,
611,2.40e-03,
612,8.00e-04,
613,-8.00e-04,
614,1.60e-03,
615,-1.60e-03,
616,-8.00e-04,
617,1.60e-03,
618,8.00e-04,
619,-1.60e-03,
620,1.60e-03,
621,-1.60e-03,
622,-1.60e-03,
623,1.60e-03,
624,-8.00e-04,
625,2.00e-03,
626,2.00e-03,
627,-1.60e-03,
628,2.00e-03,
629,-2.40e-03,
630,1.60e-03,
631,-1.60e-03,
632,-1.60e-03,
633,2.40e-03,
634,-1.60e-03,
635,1.60e-03,
636,2.00e-03,
637,-8.00e-04,
638,-8.00e-04,
639,1.60e-03,
640,-8.00e-04,
641,1.60e-03,
642,-1.60e-03,
643,1.60e-03,
644,-8.00e-04,
645,2.00e-03,
646,1.60e-03,
647,-1.60e-03,
648,1.60e-03,
649,-8.00e-04,
650,-8.00e-04,
651,1.60e-03,
652,-8.00e-04,
653,1.60e-03,
654,-8.00e-04,
655,2.40e-03,
656,-8.00e-04,
657,2.00e-03,
658,-8.00e-04,
659,2.40e-03,
660,-1.60e-03,
661,2.40e-03,
662,1.60e-03,
663,-1.60e-03,
664,1.20e-03,
665,-2.40e-03,
666,-1.60e-03,
667,1.60e-03,
668,1.60e-03,
669,-8.00e-04,
670,-8.00e-04,
671,1.60e-03,
672,-1.60e-03,
673,2.00e-03,
674,1.60e-03,
675,-1.60e-03,
676,1.60e-03,
677,-1.60e-03,
678,1.60e-03,
679,-1.60e-03,
680,-8.00e-04,
681,1.60e-03,
682,-8.00e-04,
683,1.60e-03,
684,-8.00e-04,
685,1.60e-03,
686,2.40e-03,
687,-1.60e-03,
688,-8.00e-04,
689,8.00e-04,
690,1.20e-03,
691,-1.60e-03,
692,-1.60e-03,
693,1.60e-03,
694,-8.00e-04,
695,1.60e-03,
696,-8.00e-04,
697,2.40e-03,
698,-8.00e-04,
699,1.60e-03,
700,-1.60e-03,
701,2.40e-03,
702,-8.00e-04,
703,2.40e-03,
704,2.40e-03,
705,-8.00e-04,
706,-8.00e-04,
707,2.00e-03,
708,-8.00e-04,
709,1.60e-03,
710,-8.00e-04,
711,1.60e-03,
712,-1.60e-03,
713,1.60e-03,
714,-8.00e-04,
715,1.60e-03,
716,1.60e-03,
717,-1.60e-03,
718,-8.00e-04,
719,1.60e-03,
720,1.60e-03,
721,-8.00e-04,
722,1.60e-03,
723,-8.00e-04,
724,1.60e-03,
725,-1.60e-03,
726,-8.00e-04,
727,1.60e-03,
728,-8.00e-04,
729,2.00e-03,
730,2.40e-03,
731,-1.60e-03,
732,-8.00e-04,
733,2.80e-03,
734,-1.60e-03,
735,1.60e-03,
736,-8.00e-04,
737,1.60e-03,
738,1.60e-03,
739,-1.60e-03,
740,-8.00e-04,
741,2.40e-03,
742,-1.60e-03,
743,2.40e-03,
744,-8.00e-04,
745,2.40e-03,
746,-8.00e-04,
747,2.40e-03,
748,-1.20e-03,
749,2.40e-03,
750,0.00e+00,
751,2.00e-03,
752,2.40e-03,
753,-1.60e-03,
754,2.00e-03,
755,-8.00e-04,
756,0.00e+00,
757,2.00e-03,
758,0.00e+00,
759,2.00e-03,
760,-8.00e-04,
761,1.60e-03,
762,-8.00e-04,
763,1.60e-03,
764,-8.00e-04,
765,2.40e-03,
766,2.00e-03,
767,-8.00e-04,
768,2.40e-03,
769,-8.00e-04,
770,-8.00e-04,
771,2.40e-03,
772,-8.00e-04,
773,2.80e-03,
774,2.40e-03,
775,-8.00e-04,
776,1.60e-03,
777,-8.00e-04,
778,0.00e+00,
779,2.40e-03,
780,2.00e-03,
781,-8.00e-04,
782,-8.00e-04,
783,2.40e-03,
784,-8.00e-04,
785,2.80e-03,
786,0.00e+00,
787,2.00e-03,
788,0.00e+00,
789,1.60e-03,
790,2.40e-03,
791,-1.60e-03,
792,-1.60e-03,
793,2.40e-03,
794,0.00e+00,
795,2.40e-03,
796,0.00e+00,
797,2.40e-03,
798,2.80e-03,
799,-8.00e-04,
800,-8.00e-04,
801,3.20e-03,
802,2.40e-03,
803,0.00e+00,
804,0.00e+00,
805,2.80e-03,
806,2.80e-03,
807,0.00e+00,
808,0.00e+00,
809,2.40e-03,
810,2.80e-03,
811,0.00e+00,
812,2.40e-03,
813,0.00e+00,
814,0.00e+00,
815,2.40e-03,
816,3.20e-03,
817,0.00e+00,
818,2.40e-03,
819,0.00e+00,
820,3.20e-03,
821,0.00e+00,
822,0.00e+00,
823,2.80e-03,
824,2.40e-03,
825,-8.00e-04,
826,0.00e+00,
827,2.40e-03,
828,0.00e+00,
829,3.20e-03,
830,2.80e-03,
831,-8.00e-04,
832,-8.00e-04,
833,2.80e-03,
834,2.80e-03,
835,-8.00e-04,
836,0.00e+00,
837,3.20e-03,
838,2.40e-03,
839,0.00e+00,
840,-8.00e-04,
841,3.20e-03,
842,2.40e-03,
843,0.00e+00,
844,2.80e-03,
845,-8.00e-04,
846,0.00e+00,
847,2.40e-03,
848,2.40e-03,
849,0.00e+00,
850,-8.00e-04,
851,2.40e-03,
852,2.40e-03,
853,0.00e+00,
854,0.00e+00,
855,1.60e-03,
856,0.00e+00,
857,3.20e-03,
858,-8.00e-04,
859,3.20e-03,
860,0.00e+00,
861,3.20e-03,
862,-8.00e-04,
863,3.20e-03,
864,3.20e-03,
865,-8.00e-04,
866,0.00e+00,
867,3.20e-03,
868,3.20e-03,
869,0.00e+00,
870,3.20e-03,
871,0.00e+00,
872,3.20e-03,
873,-8.00e-04,
874,0.00e+00,
875,3.20e-03,
876,8.00e-04,
877,3.20e-03,
878,0.00e+00,
879,3.20e-03,
880,2.40e-03,
881,0.00e+00,
882,2.40e-03,
883,-8.00e-04,
884,0.00e+00,
885,3.20e-03,
886,2.80e-03,
887,8.00e-04,
888,3.20e-03,
889,8.00e-04,
890,0.00e+00,
891,2.80e-03,
892,2.40e-03,
893,0.00e+00,
894,8.00e-04,
895,3.20e-03,
896,2.40e-03,
897,-8.00e-04,
898,2.40e-03,
899,0.00e+00,
900,0.00e+00,
901,3.20e-03,
902,3.20e-03,
903,0.00e+00,
904,3.20e-03,
905,8.00e-04,
906,8.00e-04,
907,2.40e-03,
908,-8.00e-04,
909,2.80e-03,
910,2.40e-03,
911,0.00e+00,
912,0.00e+00,
913,3.20e-03,
914,0.00e+00,
915,3.20e-03,
916,0.00e+00,
917,3.20e-03,
918,-8.00e-04,
919,3.20e-03,
920,0.00e+00,
921,3.20e-03,
922,2.80e-03,
923,0.00e+00,
924,0.00e+00,
925,2.40e-03,
926,0.00e+00,
927,2.40e-03,
928,2.40e-03,
929,-8.00e-04,
930,2.40e-03,
931,-8.00e-04,
932,0.00e+00,
933,3.20e-03,
934,2.40e-03,
935,0.00e+00,
936,2.40e-03,
937,0.00e+00,
938,2.80e-03,
939,0.00e+00,
940,2.40e-03,
941,0.00e+00,
942,0.00e+00,
943,2.80e-03,
944,3.20e-03,
945,0.00e+00,
946,8.00e-04,
947,3.20e-03,
948,0.00e+00,
949,2.40e-03,
950,2.80e-03,
951,0.00e+00,
952,0.00e+00,
953,2.80e-03,
954,0.00e+00,
955,3.20e-03,
956,0.00e+00,
957,3.20e-03,
958,3.20e-03,
959,-8.00e-04,
960,-8.00e-04,
961,2.40e-03,
962,2.00e-03,
963,-8.00e-04,
964,-8.00e-04,
965,2.40e-03,
966,0.00e+00,
967,3.20e-03,
968,2.40e-03,
969,-8.00e-04,
970,-8.00e-04,
971,2.40e-03,
972,-8.00e-04,
973,2.80e-03,
974,3.20e-03,
975,-8.00e-04,
976,2.80e-03,
977,0.00e+00,
978,0.00e+00,
979,2.40e-03,
980,3.20e-03,
981,8.00e-04,
982,2.80e-03,
983,0.00e+00,
984,0.00e+00,
985,3.20e-03,
986,2.40e-03,
987,0.00e+00,
988,2.80e-03,
989,0.00e+00,
990,3.20e-03,
991,0.00e+00,
992,3.20e-03,
993,8.00e-04,
994,8.00e-04,
995,3.20e-03,
996,8.00e-04,
997,3.20e-03,
998,4.00e-03,
999,0.00e+00,
1000,0.00e+00,
1001,2.40e-03,
1002,0.00e+00,
1003,3.20e-03,
1004,-8.00e-04,
1005,2.40e-03,
1006,0.00e+00,
1007,2.40e-03,
1008,0.00e+00,
1009,3.20e-03,
1010,0.00e+00,
1011,3.20e-03,
1012,0.00e+00,
1013,3.20e-03,
1014,0.00e+00,
1015,3.20e-03,
1016,3.20e-03,
1017,8.00e-04,
1018,8.00e-04,
1019,3.20e-03,
1020,2.40e-03,
1021,0.00e+00,
1022,0.00e+00,
1023,2.40e-03,
1024,2.80e-03,
1025,-8.00e-04,
1026,0.00e+00,
1027,3.20e-03,
1028,2.40e-03,
1029,0.00e+00,
1030,0.00e+00,
1031,2.80e-03,
1032,2.40e-03,
1033,0.00e+00,
1034,2.40e-03,
1035,-8.00e-04,
1036,2.40e-03,
1037,-8.00e-04,
1038,-8.00e-04,
1039,2.40e-03,
1040,0.00e+00,
1041,2.40e-03,
1042,3.20e-03,
1043,-8.00e-04,
1044,-8.00e-04,
1045,2.00e-03,
1046,0.00e+00,
1047,2.40e-03,
1048,0.00e+00,
1049,3.20e-03,
1050,3.20e-03,
1051,0.00e+00,
1052,-8.00e-04,
1053,3.20e-03,
1054,0.00e+00,
1055,2.40e-03,
1056,-8.00e-04,
1057,2.40e-03,
1058,-8.00e-04,
1059,2.40e-03,
1060,0.00e+00,
1061,2.40e-03,
1062,-8.00e-04,
1063,2.00e-03,
1064,0.00e+00,
1065,2.00e-03,
1066,-8.00e-04,
1067,2.40e-03,
1068,2.40e-03,
1069,-8.00e-04,
1070,-8.00e-04,
1071,2.40e-03,
1072,2.00e-03,
1073,-8.00e-04,
1074,2.40e-03,
1075,-8.00e-04,
1076,-8.00e-04,
1077,2.40e-03,
1078,2.00e-03,
1079,-1.60e-03,
1080,0.00e+00,
1081,2.00e-03,
1082,-8.00e-04,
1083,3.20e-03,
1084,-8.00e-04,
1085,2.80e-03,
1086,0.00e+00,
1087,2.40e-03,
1088,-8.00e-04,
1089,2.40e-03,
1090,1.60e-03,
1091,-1.60e-03,
1092,-8.00e-04,
1093,2.40e-03,
1094,1.60e-03,
1095,-8.00e-04,
1096,-1.60e-03,
1097,2.40e-03,
1098,-8.00e-04,
1099,2.40e-03,
1100,2.80e-03,
1101,-1.60e-03,
1102,2.80e-03,
1103,-8.00e-04,
1104,-8.00e-04,
1105,2.80e-03,
1106,2.00e-03,
1107,-8.00e-04,
1108,2.40e-03,
1109,-8.00e-04,
1110,2.40e-03,
1111,-8.00e-04,
1112,2.00e-03,
1113,-8.00e-04,
1114,0.00e+00,
1115,2.00e-03,
1116,2.40e-03,
1117,0.00e+00,
1118,8.00e-04,
1119,2.40e-03,
1120,2.40e-03,
1121,-8.00e-04,
1122,-8.00e-04,
1123,2.40e-03,
1124,2.40e-03,
1125,-8.00e-04,
1126,-8.00e-04,
1127,2.80e-03,
1128,-8.00e-04,
1129,2.40e-03,
1130,-8.00e-04,
1131,4.00e-03,
1132,2.40e-03,
1133,-8.00e-04,
1134,-8.00e-04,
1135,2.40e-03,
1136,2.40e-03,
1137,-8.00e-04,
1138,2.00e-03,
1139,0.00e+00,
1140,2.40e-03,
1141,-8.00e-04,
1142,1.60e-03,
1143,-8.00e-04,
1144,1.60e-03,
1145,-8.00e-04,
1146,3.20e-03,
1147,-8.00e-04,
1148,0.00e+00,
1149,2.40e-03,
1150,-8.00e-04,
1151,2.40e-03,
1152,2.00e-03,
1153,-8.00e-04,
1154,-8.00e-04,
1155,1.60e-03,
1156,2.40e-03,
1157,-8.00e-04,
1158,-8.00e-04,
1159,1.60e-03,
1160,2.40e-03,
1161,0.00e+00,
1162,2.40e-03,
1163,-8.00e-04,
1164,0.00e+00,
1165,2.80e-03,
1166,1.60e-03,
1167,-8.00e-04,
1168,-8.00e-04,
1169,1.60e-03,
1170,3.20e-03,
1171,-1.60e-03,
1172,2.40e-03,
1173,-8.00e-04,
1174,-8.00e-04,
1175,2.40e-03,
1176,-1.60e-03,
1177,2.40e-03,
1178,-8.00e-04,
1179,2.40e-03,
1180,-8.00e-04,
1181,3.20e-03,
1182,2.40e-03,
1183,-8.00e-04,
1184,-8.00e-04,
1185,2.00e-03,
1186,0.00e+00,
1187,2.40e-03,
1188,1.60e-03,
1189,-8.00e-04,
1190,-8.00e-04,
1191,2.40e-03,
1192,0.00e+00,
1193,2.40e-03,
1194,-8.00e-04,
1195,2.00e-03,
1196,-1.60e-03,
1197,2.00e-03,
1198,-8.00e-04,
1199,2.40e-03,
