fastdiffamp/data-noise-set/5th/NewFile4.csv

X,CH1,Start,Increment,
Sequence,Volt,-1.200000e-02,2.000000e-05
0,2.40e-03,
1,-8.00e-04,
2,2.40e-03,
3,-8.00e-04,
4,-8.00e-04,
5,3.20e-03,
6,3.20e-03,
7,-1.60e-03,
8,4.00e-03,
9,0.00e+00,
10,2.40e-03,
11,-2.40e-03,
12,-1.60e-03,
13,2.80e-03,
14,-1.60e-03,
15,3.20e-03,
16,-1.60e-03,
17,3.20e-03,
18,3.20e-03,
19,0.00e+00,
20,-1.60e-03,
21,2.40e-03,
22,2.40e-03,
23,-8.00e-04,
24,-8.00e-04,
25,3.20e-03,
26,2.40e-03,
27,-8.00e-04,
28,2.40e-03,
29,-8.00e-04,
30,2.40e-03,
31,0.00e+00,
32,2.40e-03,
33,-1.60e-03,
34,2.40e-03,
35,-8.00e-04,
36,-8.00e-04,
37,3.20e-03,
38,-8.00e-04,
39,3.20e-03,
40,2.40e-03,
41,-8.00e-04,
42,-8.00e-04,
43,3.20e-03,
44,-1.60e-03,
45,2.40e-03,
46,-8.00e-04,
47,2.40e-03,
48,-8.00e-04,
49,3.20e-03,
50,-1.60e-03,
51,4.00e-03,
52,3.20e-03,
53,-8.00e-04,
54,-1.60e-03,
55,4.00e-03,
56,3.20e-03,
57,-1.60e-03,
58,3.20e-03,
59,-2.40e-03,
60,-1.60e-03,
61,2.40e-03,
62,2.40e-03,
63,-8.00e-04,
64,3.20e-03,
65,-8.00e-04,
66,-1.60e-03,
67,3.20e-03,
68,2.40e-03,
69,-8.00e-04,
70,-8.00e-04,
71,2.80e-03,
72,3.20e-03,
73,-1.60e-03,
74,-1.60e-03,
75,2.80e-03,
76,4.00e-03,
77,-1.60e-03,
78,-8.00e-04,
79,2.40e-03,
80,2.40e-03,
81,-1.60e-03,
82,3.20e-03,
83,-1.60e-03,
84,3.20e-03,
85,-8.00e-04,
86,-8.00e-04,
87,3.20e-03,
88,3.20e-03,
89,-8.00e-04,
90,-8.00e-04,
91,2.40e-03,
92,2.40e-03,
93,-8.00e-04,
94,-2.40e-03,
95,2.40e-03,
96,-1.60e-03,
97,1.60e-03,
98,2.40e-03,
99,-1.60e-03,
100,2.40e-03,
101,-2.40e-03,
102,-8.00e-04,
103,3.20e-03,
104,3.20e-03,
105,-1.60e-03,
106,3.20e-03,
107,-8.00e-04,
108,-1.60e-03,
109,2.40e-03,
110,3.20e-03,
111,-8.00e-04,
112,-8.00e-04,
113,2.40e-03,
114,2.40e-03,
115,-8.00e-04,
116,2.40e-03,
117,-8.00e-04,
118,-2.40e-03,
119,3.20e-03,
120,-1.60e-03,
121,3.20e-03,
122,-8.00e-04,
123,2.40e-03,
124,3.20e-03,
125,-8.00e-04,
126,3.20e-03,
127,-8.00e-04,
128,2.40e-03,
129,-1.60e-03,
130,2.40e-03,
131,-1.60e-03,
132,2.40e-03,
133,-8.00e-04,
134,3.20e-03,
135,-8.00e-04,
136,-8.00e-04,
137,2.40e-03,
138,2.40e-03,
139,-8.00e-04,
140,3.20e-03,
141,-1.60e-03,
142,-8.00e-04,
143,2.40e-03,
144,3.20e-03,
145,-1.60e-03,
146,1.60e-03,
147,-1.60e-03,
148,3.20e-03,
149,-2.40e-03,
150,2.40e-03,
151,-8.00e-04,
152,4.00e-03,
153,-8.00e-04,
154,2.40e-03,
155,-1.60e-03,
156,-1.60e-03,
157,2.40e-03,
158,3.20e-03,
159,-2.40e-03,
160,1.60e-03,
161,-8.00e-04,
162,-1.60e-03,
163,2.40e-03,
164,-1.60e-03,
165,2.40e-03,
166,2.40e-03,
167,-1.60e-03,
168,0.00e+00,
169,3.20e-03,
170,2.40e-03,
171,-8.00e-04,
172,-8.00e-04,
173,2.00e-03,
174,2.40e-03,
175,-1.60e-03,
176,-8.00e-04,
177,1.60e-03,
178,-8.00e-04,
179,2.00e-03,
180,-1.60e-03,
181,4.00e-03,
182,-1.60e-03,
183,3.20e-03,
184,3.20e-03,
185,-1.60e-03,
186,3.20e-03,
187,-2.40e-03,
188,2.00e-03,
189,-1.60e-03,
190,4.00e-03,
191,-8.00e-04,
192,-8.00e-04,
193,2.80e-03,
194,-1.60e-03,
195,2.40e-03,
196,-1.60e-03,
197,2.80e-03,
198,2.40e-03,
199,-2.40e-03,
200,-1.60e-03,
201,2.40e-03,
202,-2.40e-03,
203,2.40e-03,
204,2.40e-03,
205,-1.60e-03,
206,2.40e-03,
207,-1.60e-03,
208,-1.60e-03,
209,2.00e-03,
210,-8.00e-04,
211,2.40e-03,
212,-8.00e-04,
213,2.40e-03,
214,2.40e-03,
215,-1.60e-03,
216,3.20e-03,
217,-1.60e-03,
218,2.40e-03,
219,-8.00e-04,
220,3.20e-03,
221,-1.60e-03,
222,-1.60e-03,
223,2.80e-03,
224,2.40e-03,
225,-1.60e-03,
226,-8.00e-04,
227,3.20e-03,
228,1.60e-03,
229,-1.60e-03,
230,-1.60e-03,
231,2.40e-03,
232,-1.60e-03,
233,2.80e-03,
234,1.60e-03,
235,-2.40e-03,
236,2.00e-03,
237,-8.00e-04,
238,3.20e-03,
239,-8.00e-04,
240,2.40e-03,
241,-8.00e-04,
242,-8.00e-04,
243,2.40e-03,
244,-8.00e-04,
245,3.20e-03,
246,2.40e-03,
247,-8.00e-04,
248,-8.00e-04,
249,2.40e-03,
250,-1.60e-03,
251,3.20e-03,
252,-2.40e-03,
253,4.00e-03,
254,3.20e-03,
255,-1.60e-03,
256,-1.60e-03,
257,3.20e-03,
258,2.40e-03,
259,-8.00e-04,
260,3.20e-03,
261,-8.00e-04,
262,2.40e-03,
263,-1.60e-03,
264,-1.60e-03,
265,3.20e-03,
266,2.40e-03,
267,-8.00e-04,
268,2.40e-03,
269,-8.00e-04,
270,-2.40e-03,
271,2.40e-03,
272,3.20e-03,
273,-1.60e-03,
274,2.40e-03,
275,-2.40e-03,
276,-1.60e-03,
277,2.40e-03,
278,3.20e-03,
279,-1.60e-03,
280,-1.60e-03,
281,3.20e-03,
282,-1.60e-03,
283,3.20e-03,
284,2.40e-03,
285,-8.00e-04,
286,2.40e-03,
287,-8.00e-04,
288,-8.00e-04,
289,2.40e-03,
290,-1.60e-03,
291,2.40e-03,
292,1.60e-03,
293,-1.60e-03,
294,-1.60e-03,
295,2.40e-03,
296,3.20e-03,
297,-1.60e-03,
298,-8.00e-04,
299,2.40e-03,
300,2.00e-03,
301,-1.60e-03,
302,2.40e-03,
303,-2.40e-03,
304,-1.60e-03,
305,4.00e-03,
306,0.00e+00,
307,2.40e-03,
308,2.40e-03,
309,-8.00e-04,
310,-1.60e-03,
311,1.60e-03,
312,-1.60e-03,
313,2.40e-03,
314,-8.00e-04,
315,1.60e-03,
316,-2.40e-03,
317,2.40e-03,
318,2.80e-03,
319,-1.60e-03,
320,-8.00e-04,
321,3.20e-03,
322,3.20e-03,
323,-2.40e-03,
324,2.40e-03,
325,-8.00e-04,
326,-8.00e-04,
327,1.60e-03,
328,-1.60e-03,
329,3.20e-03,
330,2.40e-03,
331,-1.60e-03,
332,-2.40e-03,
333,2.80e-03,
334,-1.60e-03,
335,3.20e-03,
336,-8.00e-04,
337,2.40e-03,
338,-8.00e-04,
339,3.20e-03,
340,3.20e-03,
341,-1.60e-03,
342,-8.00e-04,
343,3.20e-03,
344,3.20e-03,
345,-8.00e-04,
346,2.40e-03,
347,-1.60e-03,
348,-8.00e-04,
349,2.40e-03,
350,2.00e-03,
351,-8.00e-04,
352,-8.00e-04,
353,3.20e-03,
354,-8.00e-04,
355,2.40e-03,
356,3.20e-03,
357,-2.40e-03,
358,2.40e-03,
359,-8.00e-04,
360,2.80e-03,
361,-1.60e-03,
362,2.40e-03,
363,-1.60e-03,
364,-8.00e-04,
365,3.20e-03,
366,2.40e-03,
367,-1.60e-03,
368,-1.60e-03,
369,2.40e-03,
370,-8.00e-04,
371,2.80e-03,
372,2.00e-03,
373,-1.60e-03,
374,3.20e-03,
375,-8.00e-04,
376,-8.00e-04,
377,2.40e-03,
378,-2.40e-03,
379,2.40e-03,
380,-1.60e-03,
381,2.40e-03,
382,2.40e-03,
383,-1.60e-03,
384,-2.40e-03,
385,2.40e-03,
386,-1.60e-03,
387,2.40e-03,
388,-2.40e-03,
389,2.40e-03,
390,-1.60e-03,
391,2.40e-03,
392,-8.00e-04,
393,2.40e-03,
394,-8.00e-04,
395,2.40e-03,
396,2.40e-03,
397,-1.60e-03,
398,-8.00e-04,
399,2.40e-03,
400,-8.00e-04,
401,2.40e-03,
402,-8.00e-04,
403,2.40e-03,
404,2.40e-03,
405,-8.00e-04,
406,1.60e-03,
407,-1.60e-03,
408,-8.00e-04,
409,2.00e-03,
410,2.40e-03,
411,-8.00e-04,
412,-1.60e-03,
413,2.40e-03,
414,-8.00e-04,
415,2.40e-03,
416,3.20e-03,
417,-1.60e-03,
418,-1.60e-03,
419,2.80e-03,
420,-1.60e-03,
421,2.40e-03,
422,-1.60e-03,
423,2.40e-03,
424,2.40e-03,
425,-2.40e-03,
426,-1.60e-03,
427,2.40e-03,
428,2.00e-03,
429,-3.20e-03,
430,-2.40e-03,
431,1.60e-03,
432,1.60e-03,
433,-1.60e-03,
434,-1.60e-03,
435,1.60e-03,
436,-1.60e-03,
437,2.40e-03,
438,-8.00e-04,
439,2.40e-03,
440,-8.00e-04,
441,3.20e-03,
442,-1.60e-03,
443,2.80e-03,
444,2.40e-03,
445,-1.60e-03,
446,-8.00e-04,
447,2.40e-03,
448,2.00e-03,
449,-1.60e-03,
450,-8.00e-04,
451,2.40e-03,
452,2.00e-03,
453,-1.60e-03,
454,1.60e-03,
455,-8.00e-04,
456,2.40e-03,
457,-1.60e-03,
458,2.40e-03,
459,-1.60e-03,
460,-1.60e-03,
461,2.40e-03,
462,2.40e-03,
463,-1.60e-03,
464,-8.00e-04,
465,1.60e-03,
466,2.40e-03,
467,-8.00e-04,
468,2.40e-03,
469,-2.40e-03,
470,-1.60e-03,
471,1.60e-03,
472,2.40e-03,
473,-2.40e-03,
474,-1.60e-03,
475,2.00e-03,
476,3.20e-03,
477,0.00e+00,
478,2.40e-03,
479,-2.40e-03,
480,-1.60e-03,
481,2.40e-03,
482,-1.60e-03,
483,3.20e-03,
484,-8.00e-04,
485,2.40e-03,
486,2.80e-03,
487,-1.60e-03,
488,-2.40e-03,
489,2.40e-03,
490,-2.40e-03,
491,2.40e-03,
492,-1.60e-03,
493,2.40e-03,
494,-8.00e-04,
495,2.40e-03,
496,3.20e-03,
497,-8.00e-04,
498,2.40e-03,
499,-1.60e-03,
500,-1.60e-03,
501,1.60e-03,
502,2.80e-03,
503,-1.60e-03,
504,2.40e-03,
505,-8.00e-04,
506,2.40e-03,
507,-1.60e-03,
508,-1.60e-03,
509,2.00e-03,
510,-1.60e-03,
511,2.00e-03,
512,-8.00e-04,
513,2.40e-03,
514,1.60e-03,
515,-1.60e-03,
516,2.40e-03,
517,-1.60e-03,
518,-1.60e-03,
519,2.40e-03,
520,2.40e-03,
521,-1.60e-03,
522,2.40e-03,
523,-1.60e-03,
524,-8.00e-04,
525,3.20e-03,
526,-1.60e-03,
527,2.80e-03,
528,2.40e-03,
529,-8.00e-04,
530,3.20e-03,
531,-2.40e-03,
532,3.20e-03,
533,-1.60e-03,
534,2.40e-03,
535,-2.40e-03,
536,2.40e-03,
537,-1.60e-03,
538,-1.60e-03,
539,1.60e-03,
540,3.20e-03,
541,-1.60e-03,
542,-1.60e-03,
543,2.00e-03,
544,2.40e-03,
545,-1.60e-03,
546,-1.60e-03,
547,2.00e-03,
548,2.40e-03,
549,-1.60e-03,
550,3.20e-03,
551,-2.40e-03,
552,1.60e-03,
553,-8.00e-04,
554,2.40e-03,
555,-2.40e-03,
556,2.00e-03,
557,-1.60e-03,
558,-8.00e-04,
559,1.60e-03,
560,-2.40e-03,
561,3.20e-03,
562,1.60e-03,
563,-2.40e-03,
564,-2.40e-03,
565,2.40e-03,
566,2.40e-03,
567,-1.60e-03,
568,-1.60e-03,
569,2.40e-03,
570,1.60e-03,
571,-1.60e-03,
572,2.40e-03,
573,-2.40e-03,
574,2.40e-03,
575,-2.40e-03,
576,-1.60e-03,
577,3.20e-03,
578,-1.60e-03,
579,2.40e-03,
580,-8.00e-04,
581,2.80e-03,
582,-8.00e-04,
583,2.80e-03,
584,-8.00e-04,
585,3.20e-03,
586,-1.60e-03,
587,2.40e-03,
588,1.60e-03,
589,-8.00e-04,
590,-1.60e-03,
591,2.40e-03,
592,-1.60e-03,
593,2.40e-03,
594,-2.40e-03,
595,2.40e-03,
596,2.00e-03,
597,-1.60e-03,
598,1.60e-03,
599,-2.40e-03,
600,-1.60e-03,
601,3.20e-03,
602,-2.40e-03,
603,2.40e-03,
604,3.20e-03,
605,-3.20e-03,
606,-2.40e-03,
607,3.20e-03,
608,2.40e-03,
609,-2.00e-03,
610,1.60e-03,
611,-1.60e-03,
612,2.00e-03,
613,-3.20e-03,
614,1.60e-03,
615,-1.60e-03,
616,-1.60e-03,
617,1.60e-03,
618,-2.40e-03,
619,2.00e-03,
620,-1.60e-03,
621,1.60e-03,
622,-3.20e-03,
623,2.40e-03,
624,-1.60e-03,
625,2.40e-03,
626,-8.00e-04,
627,2.40e-03,
628,-1.60e-03,
629,3.20e-03,
630,-2.40e-03,
631,3.20e-03,
632,-1.60e-03,
633,1.60e-03,
634,-1.60e-03,
635,2.00e-03,
636,1.60e-03,
637,-2.40e-03,
638,2.40e-03,
639,-1.60e-03,
640,2.40e-03,
641,-1.60e-03,
642,2.40e-03,
643,-1.60e-03,
644,-8.00e-04,
645,1.60e-03,
646,1.60e-03,
647,-1.60e-03,
648,2.40e-03,
649,-1.60e-03,
650,-8.00e-04,
651,2.40e-03,
652,2.00e-03,
653,-2.40e-03,
654,3.20e-03,
655,-2.40e-03,
656,-1.60e-03,
657,2.00e-03,
658,-1.60e-03,
659,1.60e-03,
660,-8.00e-04,
661,1.60e-03,
662,2.40e-03,
663,-8.00e-04,
664,-2.00e-03,
665,1.60e-03,
666,2.40e-03,
667,-1.60e-03,
668,1.60e-03,
669,-1.60e-03,
670,1.60e-03,
671,-2.40e-03,
672,-1.60e-03,
673,2.80e-03,
674,-1.60e-03,
675,2.40e-03,
676,-1.60e-03,
677,2.40e-03,
678,-8.00e-04,
679,1.60e-03,
680,2.00e-03,
681,-8.00e-04,
682,-2.40e-03,
683,2.00e-03,
684,-1.60e-03,
685,3.20e-03,
686,2.40e-03,
687,-1.60e-03,
688,1.60e-03,
689,-8.00e-04,
690,-8.00e-04,
691,1.60e-03,
692,2.00e-03,
693,-1.60e-03,
694,1.60e-03,
695,-1.60e-03,
696,-1.60e-03,
697,1.60e-03,
698,2.40e-03,
699,-1.60e-03,
700,2.40e-03,
701,-8.00e-04,
702,-1.60e-03,
703,2.40e-03,
704,-2.40e-03,
705,2.40e-03,
706,-1.60e-03,
707,1.60e-03,
708,-1.60e-03,
709,1.60e-03,
710,2.40e-03,
711,-1.60e-03,
712,-1.60e-03,
713,1.60e-03,
714,-1.60e-03,
715,1.60e-03,
716,1.60e-03,
717,-1.60e-03,
718,-1.60e-03,
719,2.40e-03,
720,-8.00e-04,
721,3.20e-03,
722,2.40e-03,
723,-1.60e-03,
724,-1.60e-03,
725,2.00e-03,
726,1.60e-03,
727,-1.60e-03,
728,3.20e-03,
729,-1.60e-03,
730,-8.00e-04,
731,2.00e-03,
732,2.40e-03,
733,-1.60e-03,
734,2.40e-03,
735,-1.60e-03,
736,-2.80e-03,
737,1.60e-03,
738,-8.00e-04,
739,2.00e-03,
740,1.60e-03,
741,-1.60e-03,
742,-1.60e-03,
743,2.40e-03,
744,-1.60e-03,
745,2.00e-03,
746,2.40e-03,
747,-1.60e-03,
748,1.60e-03,
749,-1.60e-03,
750,2.00e-03,
751,-8.00e-04,
752,-8.00e-04,
753,2.40e-03,
754,2.80e-03,
755,-1.60e-03,
756,-1.60e-03,
757,2.40e-03,
758,-1.60e-03,
759,2.40e-03,
760,-8.00e-04,
761,3.20e-03,
762,-1.60e-03,
763,2.40e-03,
764,-8.00e-04,
765,3.20e-03,
766,-1.60e-03,
767,2.40e-03,
768,-1.60e-03,
769,3.20e-03,
770,1.60e-03,
771,-8.00e-04,
772,3.20e-03,
773,-1.60e-03,
774,-8.00e-04,
775,1.20e-03,
776,-1.60e-03,
777,2.40e-03,
778,2.00e-03,
779,-2.40e-03,
780,1.60e-03,
781,-1.60e-03,
782,-1.60e-03,
783,2.40e-03,
784,-1.60e-03,
785,2.40e-03,
786,2.40e-03,
787,-1.60e-03,
788,2.40e-03,
789,-8.00e-04,
790,1.60e-03,
791,-8.00e-04,
792,-8.00e-04,
793,2.80e-03,
794,2.40e-03,
795,-8.00e-04,
796,-8.00e-04,
797,3.20e-03,
798,-1.60e-03,
799,2.40e-03,
800,1.60e-03,
801,-1.60e-03,
802,-1.60e-03,
803,2.40e-03,
804,2.40e-03,
805,-1.60e-03,
806,-1.60e-03,
807,2.00e-03,
808,-8.00e-04,
809,2.40e-03,
810,-8.00e-04,
811,2.00e-03,
812,-1.60e-03,
813,2.00e-03,
814,2.40e-03,
815,-1.60e-03,
816,-8.00e-04,
817,2.40e-03,
818,1.60e-03,
819,-1.60e-03,
820,-2.40e-03,
821,2.40e-03,
822,2.40e-03,
823,-1.60e-03,
824,2.40e-03,
825,-1.60e-03,
826,2.40e-03,
827,-1.60e-03,
828,2.00e-03,
829,-1.60e-03,
830,-1.60e-03,
831,2.00e-03,
832,3.20e-03,
833,-2.40e-03,
834,-2.40e-03,
835,2.40e-03,
836,-2.40e-03,
837,2.40e-03,
838,2.80e-03,
839,-8.00e-04,
840,-8.00e-04,
841,2.40e-03,
842,1.20e-03,
843,-1.60e-03,
844,3.20e-03,
845,-2.40e-03,
846,-8.00e-04,
847,2.00e-03,
848,-1.60e-03,
849,1.60e-03,
850,-1.60e-03,
851,1.60e-03,
852,-8.00e-04,
853,2.40e-03,
854,1.60e-03,
855,-8.00e-04,
856,2.80e-03,
857,-2.40e-03,
858,3.60e-03,
859,-1.60e-03,
860,2.40e-03,
861,-8.00e-04,
862,-8.00e-04,
863,3.20e-03,
864,2.40e-03,
865,-1.60e-03,
866,-8.00e-04,
867,2.40e-03,
868,-8.00e-04,
869,3.20e-03,
870,2.40e-03,
871,-8.00e-04,
872,0.00e+00,
873,3.20e-03,
874,-1.60e-03,
875,3.20e-03,
876,2.40e-03,
877,-8.00e-04,
878,2.40e-03,
879,-8.00e-04,
880,-8.00e-04,
881,3.20e-03,
882,3.20e-03,
883,-8.00e-04,
884,-8.00e-04,
885,3.20e-03,
886,2.40e-03,
887,-8.00e-04,
888,0.00e+00,
889,2.40e-03,
890,-8.00e-04,
891,3.20e-03,
892,3.20e-03,
893,-8.00e-04,
894,3.20e-03,
895,-8.00e-04,
896,3.20e-03,
897,-8.00e-04,
898,2.80e-03,
899,-8.00e-04,
900,3.20e-03,
901,0.00e+00,
902,2.40e-03,
903,0.00e+00,
904,0.00e+00,
905,3.20e-03,
906,3.20e-03,
907,-1.60e-03,
908,-8.00e-04,
909,2.40e-03,
910,2.40e-03,
911,-8.00e-04,
912,3.20e-03,
913,-8.00e-04,
914,-8.00e-04,
915,4.00e-03,
916,3.20e-03,
917,-8.00e-04,
918,3.20e-03,
919,0.00e+00,
920,0.00e+00,
921,3.20e-03,
922,0.00e+00,
923,3.20e-03,
924,2.40e-03,
925,-8.00e-04,
926,2.40e-03,
927,-8.00e-04,
928,2.40e-03,
929,-8.00e-04,
930,0.00e+00,
931,3.20e-03,
932,3.20e-03,
933,-8.00e-04,
934,-8.00e-04,
935,3.20e-03,
936,2.40e-03,
937,-8.00e-04,
938,-8.00e-04,
939,3.20e-03,
940,2.80e-03,
941,-8.00e-04,
942,2.40e-03,
943,-8.00e-04,
944,2.40e-03,
945,-1.60e-03,
946,2.40e-03,
947,-8.00e-04,
948,-8.00e-04,
949,3.20e-03,
950,2.80e-03,
951,-8.00e-04,
952,3.20e-03,
953,-8.00e-04,
954,2.40e-03,
955,-8.00e-04,
956,2.80e-03,
957,0.00e+00,
958,-1.60e-03,
959,3.20e-03,
960,-1.60e-03,
961,3.60e-03,
962,-1.60e-03,
963,3.20e-03,
964,3.20e-03,
965,-8.00e-04,
966,2.40e-03,
967,-1.60e-03,
968,-8.00e-04,
969,3.20e-03,
970,-1.20e-03,
971,3.20e-03,
972,-1.60e-03,
973,3.20e-03,
974,-8.00e-04,
975,3.20e-03,
976,0.00e+00,
977,3.20e-03,
978,0.00e+00,
979,2.40e-03,
980,2.40e-03,
981,0.00e+00,
982,0.00e+00,
983,3.20e-03,
984,-1.60e-03,
985,3.20e-03,
986,2.40e-03,
987,-8.00e-04,
988,4.00e-03,
989,-1.60e-03,
990,0.00e+00,
991,3.60e-03,
992,-8.00e-04,
993,2.40e-03,
994,-1.60e-03,
995,3.20e-03,
996,0.00e+00,
997,2.40e-03,
998,-8.00e-04,
999,3.20e-03,
1000,2.40e-03,
1001,-8.00e-04,
1002,2.40e-03,
1003,-8.00e-04,
1004,-8.00e-04,
1005,2.40e-03,
1006,-1.60e-03,
1007,2.40e-03,
1008,3.20e-03,
1009,-1.60e-03,
1010,-1.60e-03,
1011,3.20e-03,
1012,0.00e+00,
1013,3.20e-03,
1014,-8.00e-04,
1015,3.20e-03,
1016,3.20e-03,
1017,-8.00e-04,
1018,-8.00e-04,
1019,3.20e-03,
1020,3.20e-03,
1021,-1.60e-03,
1022,-8.00e-04,
1023,3.20e-03,
1024,-8.00e-04,
1025,3.20e-03,
1026,3.20e-03,
1027,-8.00e-04,
1028,3.20e-03,
1029,-8.00e-04,
1030,-2.40e-03,
1031,2.80e-03,
1032,-8.00e-04,
1033,2.40e-03,
1034,0.00e+00,
1035,3.20e-03,
1036,-8.00e-04,
1037,2.00e-03,
1038,2.40e-03,
1039,-8.00e-04,
1040,2.40e-03,
1041,-8.00e-04,
1042,0.00e+00,
1043,2.80e-03,
1044,3.20e-03,
1045,-1.60e-03,
1046,-8.00e-04,
1047,3.20e-03,
1048,4.00e-03,
1049,-8.00e-04,
1050,2.40e-03,
1051,-8.00e-04,
1052,3.60e-03,
1053,0.00e+00,
1054,3.20e-03,
1055,-8.00e-04,
1056,3.20e-03,
1057,-8.00e-04,
1058,4.00e-03,
1059,-8.00e-04,
1060,3.20e-03,
1061,0.00e+00,
1062,-8.00e-04,
1063,3.20e-03,
1064,0.00e+00,
1065,3.20e-03,
1066,3.20e-03,
1067,-1.60e-03,
1068,0.00e+00,
1069,3.20e-03,
1070,0.00e+00,
1071,3.20e-03,
1072,-8.00e-04,
1073,2.40e-03,
1074,-8.00e-04,
1075,4.00e-03,
1076,4.00e-03,
1077,0.00e+00,
1078,2.40e-03,
1079,0.00e+00,
1080,3.20e-03,
1081,0.00e+00,
1082,2.80e-03,
1083,-8.00e-04,
1084,0.00e+00,
1085,3.20e-03,
1086,-1.60e-03,
1087,3.20e-03,
1088,0.00e+00,
1089,3.20e-03,
1090,2.40e-03,
1091,-1.60e-03,
1092,2.40e-03,
1093,-8.00e-04,
1094,3.20e-03,
1095,-1.60e-03,
1096,2.40e-03,
1097,-8.00e-04,
1098,0.00e+00,
1099,3.20e-03,
1100,2.40e-03,
1101,-8.00e-04,
1102,-8.00e-04,
1103,2.40e-03,
1104,-8.00e-04,
1105,2.40e-03,
1106,-8.00e-04,
1107,3.20e-03,
1108,2.40e-03,
1109,-8.00e-04,
1110,-8.00e-04,
1111,3.20e-03,
1112,4.00e-03,
1113,-8.00e-04,
1114,3.20e-03,
1115,-8.00e-04,
1116,2.40e-03,
1117,-8.00e-04,
1118,0.00e+00,
1119,3.20e-03,
1120,2.40e-03,
1121,-1.60e-03,
1122,0.00e+00,
1123,3.20e-03,
1124,-8.00e-04,
1125,3.20e-03,
1126,3.20e-03,
1127,-1.60e-03,
1128,-8.00e-04,
1129,3.20e-03,
1130,2.40e-03,
1131,-1.60e-03,
1132,3.20e-03,
1133,-8.00e-04,
1134,-1.60e-03,
1135,2.40e-03,
1136,2.40e-03,
1137,-2.40e-03,
1138,3.20e-03,
1139,-1.60e-03,
1140,2.40e-03,
1141,-8.00e-04,
1142,-8.00e-04,
1143,2.40e-03,
1144,-1.60e-03,
1145,2.40e-03,
1146,-8.00e-04,
1147,3.20e-03,
1148,2.40e-03,
1149,-1.60e-03,
1150,-8.00e-04,
1151,2.40e-03,
1152,3.20e-03,
1153,-8.00e-04,
1154,2.40e-03,
1155,-8.00e-04,
1156,2.40e-03,
1157,-8.00e-04,
1158,4.00e-03,
1159,-8.00e-04,
1160,-1.60e-03,
1161,2.80e-03,
1162,-8.00e-04,
1163,3.20e-03,
1164,-1.60e-03,
1165,2.80e-03,
1166,2.40e-03,
1167,-1.60e-03,
1168,2.40e-03,
1169,-8.00e-04,
1170,-8.00e-04,
1171,2.40e-03,
1172,-8.00e-04,
1173,2.40e-03,
1174,2.40e-03,
1175,-1.60e-03,
1176,-1.60e-03,
1177,2.40e-03,
1178,-2.40e-03,
1179,2.80e-03,
1180,2.40e-03,
1181,-1.60e-03,
1182,-8.00e-04,
1183,3.20e-03,
1184,2.00e-03,
1185,-1.60e-03,
1186,2.00e-03,
1187,-8.00e-04,
1188,-8.00e-04,
1189,1.60e-03,
1190,2.40e-03,
1191,-1.60e-03,
1192,-1.60e-03,
1193,2.40e-03,
1194,3.20e-03,
1195,-1.60e-03,
1196,2.40e-03,
1197,-8.00e-04,
1198,-1.60e-03,
1199,2.00e-03,
