fastdiffamp/data-noise-set/5th/NewFile2.csv

X,CH1,Start,Increment,
Sequence,Volt,-1.200000e-02,2.000000e-05
0,2.40e-03,
1,-8.00e-04,
2,2.40e-03,
3,-8.00e-04,
4,-1.60e-03,
5,4.00e-03,
6,3.20e-03,
7,-1.60e-03,
8,3.20e-03,
9,-1.60e-03,
10,1.60e-03,
11,-2.40e-03,
12,1.60e-03,
13,-1.60e-03,
14,-1.60e-03,
15,2.00e-03,
16,2.40e-03,
17,-1.60e-03,
18,2.40e-03,
19,-1.60e-03,
20,2.40e-03,
21,-1.60e-03,
22,-2.40e-03,
23,3.20e-03,
24,1.60e-03,
25,-8.00e-04,
26,-8.00e-04,
27,3.20e-03,
28,-2.40e-03,
29,3.20e-03,
30,1.60e-03,
31,-8.00e-04,
32,2.40e-03,
33,-1.60e-03,
34,-8.00e-04,
35,3.20e-03,
36,-1.60e-03,
37,2.40e-03,
38,-8.00e-04,
39,2.40e-03,
40,-1.60e-03,
41,2.40e-03,
42,-1.60e-03,
43,3.20e-03,
44,2.40e-03,
45,-8.00e-04,
46,3.20e-03,
47,-8.00e-04,
48,3.20e-03,
49,-1.60e-03,
50,-8.00e-04,
51,3.20e-03,
52,-8.00e-04,
53,3.20e-03,
54,2.40e-03,
55,-1.60e-03,
56,-2.40e-03,
57,3.20e-03,
58,-2.40e-03,
59,4.00e-03,
60,4.00e-03,
61,-1.60e-03,
62,-1.60e-03,
63,2.40e-03,
64,3.20e-03,
65,-1.60e-03,
66,2.40e-03,
67,-8.00e-04,
68,-8.00e-04,
69,2.40e-03,
70,3.20e-03,
71,-1.60e-03,
72,-1.60e-03,
73,3.20e-03,
74,3.20e-03,
75,-1.60e-03,
76,2.40e-03,
77,-2.40e-03,
78,-2.40e-03,
79,2.00e-03,
80,2.40e-03,
81,-8.00e-04,
82,-8.00e-04,
83,3.20e-03,
84,-2.40e-03,
85,3.20e-03,
86,-8.00e-04,
87,2.40e-03,
88,2.40e-03,
89,-1.60e-03,
90,2.00e-03,
91,-1.60e-03,
92,-1.60e-03,
93,3.20e-03,
94,2.40e-03,
95,-1.60e-03,
96,-8.00e-04,
97,3.20e-03,
98,2.40e-03,
99,-1.60e-03,
100,-1.60e-03,
101,2.40e-03,
102,-8.00e-04,
103,1.60e-03,
104,3.20e-03,
105,-3.20e-03,
106,2.40e-03,
107,-2.00e-03,
108,-1.60e-03,
109,2.40e-03,
110,2.40e-03,
111,-1.60e-03,
112,-1.60e-03,
113,3.20e-03,
114,2.40e-03,
115,-1.60e-03,
116,-2.40e-03,
117,2.40e-03,
118,2.00e-03,
119,-1.60e-03,
120,-1.60e-03,
121,2.40e-03,
122,1.60e-03,
123,-2.40e-03,
124,2.80e-03,
125,-2.40e-03,
126,-2.40e-03,
127,2.40e-03,
128,2.80e-03,
129,-2.00e-03,
130,1.60e-03,
131,-2.40e-03,
132,-2.40e-03,
133,2.40e-03,
134,3.20e-03,
135,-1.60e-03,
136,-1.60e-03,
137,3.20e-03,
138,-2.40e-03,
139,1.60e-03,
140,2.40e-03,
141,-1.60e-03,
142,2.40e-03,
143,-2.40e-03,
144,2.40e-03,
145,-2.40e-03,
146,2.40e-03,
147,-1.60e-03,
148,1.60e-03,
149,-1.60e-03,
150,3.20e-03,
151,-3.20e-03,
152,-1.60e-03,
153,2.40e-03,
154,3.20e-03,
155,-1.60e-03,
156,1.60e-03,
157,-1.60e-03,
158,-1.60e-03,
159,3.20e-03,
160,-8.00e-04,
161,1.60e-03,
162,-8.00e-04,
163,2.40e-03,
164,-8.00e-04,
165,2.40e-03,
166,-2.40e-03,
167,2.40e-03,
168,3.20e-03,
169,-8.00e-04,
170,-1.60e-03,
171,2.40e-03,
172,1.60e-03,
173,-2.40e-03,
174,1.60e-03,
175,-1.60e-03,
176,1.60e-03,
177,-1.60e-03,
178,-8.00e-04,
179,2.00e-03,
180,-8.00e-04,
181,3.20e-03,
182,2.40e-03,
183,-8.00e-04,
184,-8.00e-04,
185,3.20e-03,
186,-8.00e-04,
187,3.20e-03,
188,-8.00e-04,
189,3.20e-03,
190,-1.60e-03,
191,2.40e-03,
192,2.40e-03,
193,-8.00e-04,
194,-1.60e-03,
195,4.00e-03,
196,-1.60e-03,
197,3.20e-03,
198,-2.00e-03,
199,2.40e-03,
200,-1.60e-03,
201,2.00e-03,
202,-1.60e-03,
203,2.40e-03,
204,1.60e-03,
205,-2.40e-03,
206,-8.00e-04,
207,2.40e-03,
208,-2.40e-03,
209,1.60e-03,
210,-1.60e-03,
211,2.40e-03,
212,-8.00e-04,
213,2.00e-03,
214,3.20e-03,
215,-1.60e-03,
216,-1.60e-03,
217,2.40e-03,
218,3.20e-03,
219,-2.40e-03,
220,4.00e-03,
221,-8.00e-04,
222,2.40e-03,
223,-1.60e-03,
224,3.20e-03,
225,-1.60e-03,
226,-2.40e-03,
227,3.20e-03,
228,-8.00e-04,
229,2.40e-03,
230,-2.40e-03,
231,2.40e-03,
232,-8.00e-04,
233,3.20e-03,
234,-1.60e-03,
235,3.20e-03,
236,-8.00e-04,
237,2.40e-03,
238,2.40e-03,
239,-1.60e-03,
240,-1.60e-03,
241,2.40e-03,
242,-1.60e-03,
243,2.40e-03,
244,-1.60e-03,
245,3.20e-03,
246,2.40e-03,
247,-1.60e-03,
248,-8.00e-04,
249,2.40e-03,
250,2.40e-03,
251,-1.60e-03,
252,2.40e-03,
253,-8.00e-04,
254,2.40e-03,
255,-1.60e-03,
256,-1.60e-03,
257,2.40e-03,
258,-2.40e-03,
259,2.40e-03,
260,-8.00e-04,
261,2.80e-03,
262,1.60e-03,
263,-8.00e-04,
264,2.00e-03,
265,-2.40e-03,
266,-8.00e-04,
267,3.20e-03,
268,-2.40e-03,
269,3.20e-03,
270,-1.60e-03,
271,3.20e-03,
272,-8.00e-04,
273,3.20e-03,
274,-2.40e-03,
275,3.20e-03,
276,-1.60e-03,
277,3.20e-03,
278,-8.00e-04,
279,2.40e-03,
280,2.40e-03,
281,-1.60e-03,
282,-2.40e-03,
283,3.20e-03,
284,3.20e-03,
285,0.00e+00,
286,0.00e+00,
287,3.20e-03,
288,3.20e-03,
289,-1.60e-03,
290,2.40e-03,
291,-1.60e-03,
292,-1.60e-03,
293,3.20e-03,
294,2.40e-03,
295,-8.00e-04,
296,2.40e-03,
297,-8.00e-04,
298,-1.60e-03,
299,3.20e-03,
300,-8.00e-04,
301,3.20e-03,
302,-1.60e-03,
303,3.20e-03,
304,2.40e-03,
305,-1.60e-03,
306,2.40e-03,
307,-1.60e-03,
308,2.00e-03,
309,-2.40e-03,
310,1.60e-03,
311,-2.40e-03,
312,2.40e-03,
313,-1.60e-03,
314,0.00e+00,
315,4.00e-03,
316,3.20e-03,
317,-1.60e-03,
318,-1.60e-03,
319,3.20e-03,
320,2.40e-03,
321,-8.00e-04,
322,-8.00e-04,
323,3.20e-03,
324,-2.40e-03,
325,2.40e-03,
326,-2.40e-03,
327,2.40e-03,
328,3.20e-03,
329,-8.00e-04,
330,-8.00e-04,
331,3.20e-03,
332,3.20e-03,
333,-3.20e-03,
334,-8.00e-04,
335,2.40e-03,
336,4.00e-03,
337,-1.60e-03,
338,3.20e-03,
339,-1.60e-03,
340,-1.60e-03,
341,3.20e-03,
342,-8.00e-04,
343,4.00e-03,
344,0.00e+00,
345,3.20e-03,
346,2.40e-03,
347,-1.60e-03,
348,3.20e-03,
349,-8.00e-04,
350,-2.40e-03,
351,2.40e-03,
352,0.00e+00,
353,2.40e-03,
354,3.20e-03,
355,-1.60e-03,
356,-8.00e-04,
357,3.20e-03,
358,-8.00e-04,
359,3.20e-03,
360,3.20e-03,
361,-1.60e-03,
362,2.80e-03,
363,-1.60e-03,
364,2.40e-03,
365,-1.60e-03,
366,2.40e-03,
367,-1.60e-03,
368,3.20e-03,
369,-8.00e-04,
370,-8.00e-04,
371,2.40e-03,
372,2.40e-03,
373,-2.40e-03,
374,2.80e-03,
375,-8.00e-04,
376,2.40e-03,
377,-8.00e-04,
378,2.80e-03,
379,-1.60e-03,
380,-8.00e-04,
381,3.20e-03,
382,3.20e-03,
383,-1.60e-03,
384,-1.60e-03,
385,2.40e-03,
386,-1.60e-03,
387,4.00e-03,
388,4.00e-03,
389,-8.00e-04,
390,-8.00e-04,
391,3.20e-03,
392,2.40e-03,
393,-8.00e-04,
394,-1.60e-03,
395,2.40e-03,
396,2.40e-03,
397,-8.00e-04,
398,4.00e-03,
399,-1.60e-03,
400,3.20e-03,
401,-8.00e-04,
402,2.40e-03,
403,-8.00e-04,
404,-1.60e-03,
405,3.20e-03,
406,2.40e-03,
407,-1.60e-03,
408,-1.60e-03,
409,2.40e-03,
410,-8.00e-04,
411,2.80e-03,
412,1.60e-03,
413,-8.00e-04,
414,-8.00e-04,
415,2.40e-03,
416,0.00e+00,
417,3.20e-03,
418,-8.00e-04,
419,4.00e-03,
420,3.20e-03,
421,-1.60e-03,
422,-1.60e-03,
423,3.20e-03,
424,-1.60e-03,
425,4.00e-03,
426,2.40e-03,
427,-1.60e-03,
428,2.80e-03,
429,-1.60e-03,
430,4.00e-03,
431,-1.60e-03,
432,0.00e+00,
433,3.20e-03,
434,3.20e-03,
435,-1.60e-03,
436,3.20e-03,
437,-1.60e-03,
438,0.00e+00,
439,2.40e-03,
440,-8.00e-04,
441,2.80e-03,
442,2.40e-03,
443,-8.00e-04,
444,-8.00e-04,
445,3.20e-03,
446,3.20e-03,
447,-8.00e-04,
448,4.00e-03,
449,-8.00e-04,
450,-8.00e-04,
451,2.40e-03,
452,-1.60e-03,
453,4.00e-03,
454,3.20e-03,
455,0.00e+00,
456,0.00e+00,
457,3.20e-03,
458,-1.60e-03,
459,3.20e-03,
460,3.20e-03,
461,-1.60e-03,
462,3.20e-03,
463,-1.60e-03,
464,2.40e-03,
465,0.00e+00,
466,1.60e-03,
467,-8.00e-04,
468,4.00e-03,
469,-1.20e-03,
470,-8.00e-04,
471,3.20e-03,
472,2.40e-03,
473,-8.00e-04,
474,3.20e-03,
475,-2.40e-03,
476,-1.60e-03,
477,3.20e-03,
478,-1.60e-03,
479,2.40e-03,
480,-8.00e-04,
481,2.40e-03,
482,-8.00e-04,
483,2.80e-03,
484,-8.00e-04,
485,2.80e-03,
486,2.80e-03,
487,-1.60e-03,
488,2.40e-03,
489,-1.60e-03,
490,0.00e+00,
491,3.20e-03,
492,-1.60e-03,
493,3.20e-03,
494,-2.40e-03,
495,3.20e-03,
496,3.20e-03,
497,-1.60e-03,
498,2.40e-03,
499,-1.60e-03,
500,-8.00e-04,
501,2.40e-03,
502,2.40e-03,
503,-1.60e-03,
504,-1.60e-03,
505,2.40e-03,
506,3.20e-03,
507,-1.60e-03,
508,-1.60e-03,
509,2.40e-03,
510,3.20e-03,
511,0.00e+00,
512,2.40e-03,
513,-8.00e-04,
514,-1.60e-03,
515,3.20e-03,
516,3.20e-03,
517,-8.00e-04,
518,3.20e-03,
519,-1.60e-03,
520,2.40e-03,
521,-8.00e-04,
522,-1.60e-03,
523,3.20e-03,
524,3.20e-03,
525,-1.60e-03,
526,-8.00e-04,
527,2.00e-03,
528,-8.00e-04,
529,3.20e-03,
530,-1.60e-03,
531,2.40e-03,
532,2.40e-03,
533,-1.60e-03,
534,1.60e-03,
535,-2.40e-03,
536,-8.00e-04,
537,4.00e-03,
538,3.20e-03,
539,-2.40e-03,
540,-8.00e-04,
541,2.40e-03,
542,3.20e-03,
543,-2.40e-03,
544,4.00e-03,
545,-8.00e-04,
546,0.00e+00,
547,2.40e-03,
548,-8.00e-04,
549,3.20e-03,
550,-8.00e-04,
551,3.20e-03,
552,0.00e+00,
553,3.20e-03,
554,-1.60e-03,
555,3.20e-03,
556,3.20e-03,
557,-1.60e-03,
558,-8.00e-04,
559,2.40e-03,
560,2.40e-03,
561,-1.60e-03,
562,-8.00e-04,
563,2.40e-03,
564,2.40e-03,
565,-8.00e-04,
566,1.60e-03,
567,-2.40e-03,
568,-8.00e-04,
569,2.40e-03,
570,2.40e-03,
571,-1.60e-03,
572,-8.00e-04,
573,3.20e-03,
574,2.00e-03,
575,-1.60e-03,
576,3.20e-03,
577,-8.00e-04,
578,-2.40e-03,
579,2.40e-03,
580,2.40e-03,
581,-3.20e-03,
582,-1.60e-03,
583,3.20e-03,
584,3.20e-03,
585,-8.00e-04,
586,2.40e-03,
587,-8.00e-04,
588,-1.60e-03,
589,2.40e-03,
590,-1.60e-03,
591,2.40e-03,
592,1.60e-03,
593,-8.00e-04,
594,-8.00e-04,
595,2.40e-03,
596,2.40e-03,
597,-8.00e-04,
598,-2.40e-03,
599,3.20e-03,
600,-8.00e-04,
601,1.60e-03,
602,-1.60e-03,
603,2.40e-03,
604,-2.40e-03,
605,3.20e-03,
606,3.20e-03,
607,-8.00e-04,
608,3.20e-03,
609,-8.00e-04,
610,-1.60e-03,
611,2.40e-03,
612,2.40e-03,
613,-1.60e-03,
614,-2.40e-03,
615,2.40e-03,
616,-8.00e-04,
617,3.20e-03,
618,3.20e-03,
619,-2.40e-03,
620,3.20e-03,
621,-2.40e-03,
622,2.40e-03,
623,-1.60e-03,
624,2.40e-03,
625,-2.40e-03,
626,-3.20e-03,
627,2.40e-03,
628,-2.40e-03,
629,2.80e-03,
630,1.60e-03,
631,-1.60e-03,
632,2.40e-03,
633,-1.60e-03,
634,-1.60e-03,
635,2.00e-03,
636,-2.40e-03,
637,3.20e-03,
638,-2.40e-03,
639,2.40e-03,
640,2.40e-03,
641,-1.60e-03,
642,-1.60e-03,
643,2.80e-03,
644,-1.60e-03,
645,2.40e-03,
646,-2.40e-03,
647,3.20e-03,
648,1.60e-03,
649,-1.60e-03,
650,-1.60e-03,
651,1.60e-03,
652,-1.60e-03,
653,1.20e-03,
654,2.40e-03,
655,-2.40e-03,
656,-1.60e-03,
657,3.20e-03,
658,2.00e-03,
659,-1.60e-03,
660,1.60e-03,
661,-8.00e-04,
662,2.40e-03,
663,-1.60e-03,
664,-8.00e-04,
665,3.20e-03,
666,3.20e-03,
667,-2.40e-03,
668,2.40e-03,
669,-8.00e-04,
670,-1.60e-03,
671,3.20e-03,
672,-8.00e-04,
673,2.40e-03,
674,3.20e-03,
675,-1.20e-03,
676,-8.00e-04,
677,2.40e-03,
678,3.20e-03,
679,-1.60e-03,
680,3.60e-03,
681,-1.60e-03,
682,3.20e-03,
683,0.00e+00,
684,-8.00e-04,
685,2.40e-03,
686,2.80e-03,
687,-1.60e-03,
688,3.20e-03,
689,-1.60e-03,
690,-1.60e-03,
691,3.20e-03,
692,2.40e-03,
693,-8.00e-04,
694,3.20e-03,
695,-8.00e-04,
696,-1.60e-03,
697,3.20e-03,
698,4.00e-03,
699,-8.00e-04,
700,3.20e-03,
701,-8.00e-04,
702,-8.00e-04,
703,3.20e-03,
704,3.20e-03,
705,0.00e+00,
706,0.00e+00,
707,3.20e-03,
708,-8.00e-04,
709,4.00e-03,
710,3.20e-03,
711,-8.00e-04,
712,0.00e+00,
713,4.00e-03,
714,3.20e-03,
715,-8.00e-04,
716,3.20e-03,
717,-8.00e-04,
718,-8.00e-04,
719,3.20e-03,
720,2.40e-03,
721,-3.20e-03,
722,2.40e-03,
723,-1.60e-03,
724,2.40e-03,
725,-1.60e-03,
726,-8.00e-04,
727,2.00e-03,
728,0.00e+00,
729,3.20e-03,
730,-8.00e-04,
731,3.20e-03,
732,3.20e-03,
733,-8.00e-04,
734,2.80e-03,
735,0.00e+00,
736,2.40e-03,
737,-8.00e-04,
738,-8.00e-04,
739,1.60e-03,
740,2.40e-03,
741,-1.60e-03,
742,-2.40e-03,
743,2.40e-03,
744,-8.00e-04,
745,2.40e-03,
746,-1.60e-03,
747,2.40e-03,
748,2.40e-03,
749,-1.60e-03,
750,2.40e-03,
751,-8.00e-04,
752,-1.60e-03,
753,2.40e-03,
754,4.00e-03,
755,-1.60e-03,
756,-8.00e-04,
757,3.20e-03,
758,-2.40e-03,
759,1.60e-03,
760,2.40e-03,
761,-1.60e-03,
762,2.40e-03,
763,-8.00e-04,
764,2.40e-03,
765,-1.60e-03,
766,2.40e-03,
767,-1.60e-03,
768,2.40e-03,
769,-8.00e-04,
770,2.40e-03,
771,-1.60e-03,
772,0.00e+00,
773,3.20e-03,
774,-1.60e-03,
775,3.20e-03,
776,-8.00e-04,
777,2.40e-03,
778,4.00e-03,
779,-1.60e-03,
780,1.60e-03,
781,-1.60e-03,
782,-1.60e-03,
783,2.40e-03,
784,2.40e-03,
785,-1.60e-03,
786,2.40e-03,
787,-1.60e-03,
788,3.20e-03,
789,-1.60e-03,
790,3.20e-03,
791,-1.60e-03,
792,-8.00e-04,
793,3.60e-03,
794,3.20e-03,
795,-1.60e-03,
796,-8.00e-04,
797,3.20e-03,
798,2.40e-03,
799,-8.00e-04,
800,-8.00e-04,
801,2.40e-03,
802,3.20e-03,
803,-8.00e-04,
804,-8.00e-04,
805,4.00e-03,
806,2.40e-03,
807,-8.00e-04,
808,-8.00e-04,
809,2.80e-03,
810,-8.00e-04,
811,3.20e-03,
812,3.20e-03,
813,-8.00e-04,
814,2.40e-03,
815,-1.60e-03,
816,-8.00e-04,
817,2.40e-03,
818,2.40e-03,
819,-8.00e-04,
820,3.20e-03,
821,-8.00e-04,
822,-8.00e-04,
823,2.40e-03,
824,2.80e-03,
825,-1.60e-03,
826,-8.00e-04,
827,3.20e-03,
828,-1.60e-03,
829,3.20e-03,
830,2.40e-03,
831,-8.00e-04,
832,3.20e-03,
833,-1.60e-03,
834,3.20e-03,
835,0.00e+00,
836,2.80e-03,
837,-1.60e-03,
838,3.20e-03,
839,-8.00e-04,
840,0.00e+00,
841,2.80e-03,
842,2.40e-03,
843,-8.00e-04,
844,-8.00e-04,
845,2.40e-03,
846,-2.40e-03,
847,2.80e-03,
848,3.20e-03,
849,-8.00e-04,
850,-8.00e-04,
851,3.20e-03,
852,-8.00e-04,
853,3.20e-03,
854,4.80e-03,
855,-8.00e-04,
856,-8.00e-04,
857,3.20e-03,
858,3.20e-03,
859,-1.60e-03,
860,0.00e+00,
861,3.20e-03,
862,2.80e-03,
863,-1.60e-03,
864,-8.00e-04,
865,2.40e-03,
866,3.20e-03,
867,-1.60e-03,
868,2.40e-03,
869,-1.60e-03,
870,3.20e-03,
871,-1.60e-03,
872,2.40e-03,
873,-8.00e-04,
874,-8.00e-04,
875,4.00e-03,
876,3.20e-03,
877,-8.00e-04,
878,1.60e-03,
879,-1.60e-03,
880,3.20e-03,
881,-1.60e-03,
882,-1.60e-03,
883,3.20e-03,
884,0.00e+00,
885,3.20e-03,
886,2.40e-03,
887,-8.00e-04,
888,2.40e-03,
889,-1.60e-03,
890,2.40e-03,
891,-1.60e-03,
892,-8.00e-04,
893,3.20e-03,
894,3.20e-03,
895,-8.00e-04,
896,-8.00e-04,
897,2.80e-03,
898,-1.60e-03,
899,3.20e-03,
900,-1.60e-03,
901,2.40e-03,
902,3.20e-03,
903,-1.60e-03,
904,-1.60e-03,
905,3.20e-03,
906,3.20e-03,
907,-1.60e-03,
908,-1.60e-03,
909,3.20e-03,
910,-1.60e-03,
911,2.40e-03,
912,-2.40e-03,
913,3.20e-03,
914,-1.60e-03,
915,3.20e-03,
916,2.40e-03,
917,-1.60e-03,
918,-8.00e-04,
919,2.40e-03,
920,0.00e+00,
921,2.40e-03,
922,2.40e-03,
923,-1.60e-03,
924,2.40e-03,
925,-1.60e-03,
926,-1.60e-03,
927,3.20e-03,
928,2.40e-03,
929,-8.00e-04,
930,2.40e-03,
931,-1.60e-03,
932,-2.40e-03,
933,3.20e-03,
934,3.20e-03,
935,-1.60e-03,
936,-1.60e-03,
937,2.40e-03,
938,-8.00e-04,
939,1.20e-03,
940,1.60e-03,
941,-8.00e-04,
942,2.40e-03,
943,-8.00e-04,
944,2.40e-03,
945,-2.40e-03,
946,2.40e-03,
947,-2.40e-03,
948,2.40e-03,
949,-1.60e-03,
950,2.40e-03,
951,-1.60e-03,
952,-8.00e-04,
953,2.40e-03,
954,-1.60e-03,
955,1.20e-03,
956,2.00e-03,
957,-1.60e-03,
958,-8.00e-04,
959,2.40e-03,
960,2.40e-03,
961,-1.60e-03,
962,-1.60e-03,
963,2.40e-03,
964,-8.00e-04,
965,2.40e-03,
966,-8.00e-04,
967,3.20e-03,
968,2.40e-03,
969,-1.60e-03,
970,1.60e-03,
971,-2.40e-03,
972,-2.40e-03,
973,4.00e-03,
974,-2.40e-03,
975,3.20e-03,
976,-2.40e-03,
977,3.20e-03,
978,-2.40e-03,
979,2.80e-03,
980,-2.40e-03,
981,2.40e-03,
982,-3.20e-03,
983,3.20e-03,
984,2.40e-03,
985,-1.60e-03,
986,-8.00e-04,
987,2.40e-03,
988,2.40e-03,
989,-2.40e-03,
990,-2.40e-03,
991,2.80e-03,
992,1.60e-03,
993,-2.40e-03,
994,3.20e-03,
995,-2.40e-03,
996,2.40e-03,
997,-1.60e-03,
998,1.60e-03,
999,-1.60e-03,
1000,-1.60e-03,
1001,1.60e-03,
1002,3.20e-03,
1003,-2.40e-03,
1004,-2.40e-03,
1005,1.60e-03,
1006,-2.40e-03,
1007,2.00e-03,
1008,2.80e-03,
1009,-2.40e-03,
1010,2.40e-03,
1011,-2.40e-03,
1012,2.40e-03,
1013,-1.60e-03,
1014,-2.40e-03,
1015,2.40e-03,
1016,2.40e-03,
1017,-1.60e-03,
1018,-2.40e-03,
1019,2.00e-03,
1020,1.60e-03,
1021,-1.60e-03,
1022,-1.60e-03,
1023,1.60e-03,
1024,3.20e-03,
1025,-2.40e-03,
1026,-1.60e-03,
1027,3.20e-03,
1028,1.60e-03,
1029,-3.20e-03,
1030,-1.60e-03,
1031,2.40e-03,
1032,-2.40e-03,
1033,3.20e-03,
1034,2.40e-03,
1035,-2.40e-03,
1036,2.40e-03,
1037,-2.40e-03,
1038,2.40e-03,
1039,-2.40e-03,
1040,-2.40e-03,
1041,3.20e-03,
1042,-1.60e-03,
1043,3.20e-03,
1044,-2.40e-03,
1045,1.60e-03,
1046,-1.60e-03,
1047,3.20e-03,
1048,2.00e-03,
1049,-1.60e-03,
1050,-1.60e-03,
1051,1.60e-03,
1052,-8.00e-04,
1053,1.60e-03,
1054,3.20e-03,
1055,-1.60e-03,
1056,-8.00e-04,
1057,3.20e-03,
1058,-1.60e-03,
1059,1.60e-03,
1060,2.40e-03,
1061,-2.40e-03,
1062,-8.00e-04,
1063,2.40e-03,
1064,-1.60e-03,
1065,2.40e-03,
1066,-1.60e-03,
1067,2.40e-03,
1068,2.40e-03,
1069,-1.60e-03,
1070,1.60e-03,
1071,-1.60e-03,
1072,-8.00e-04,
1073,1.60e-03,
1074,-8.00e-04,
1075,2.40e-03,
1076,3.20e-03,
1077,-2.40e-03,
1078,2.40e-03,
1079,-2.40e-03,
1080,-8.00e-04,
1081,2.40e-03,
1082,-8.00e-04,
1083,2.40e-03,
1084,-1.60e-03,
1085,1.60e-03,
1086,0.00e+00,
1087,2.40e-03,
1088,3.20e-03,
1089,-1.60e-03,
1090,2.40e-03,
1091,-1.60e-03,
1092,2.00e-03,
1093,-2.40e-03,
1094,-8.00e-04,
1095,2.80e-03,
1096,-1.60e-03,
1097,2.40e-03,
1098,2.40e-03,
1099,-8.00e-04,
1100,-8.00e-04,
1101,2.00e-03,
1102,-8.00e-04,
1103,2.00e-03,
1104,2.40e-03,
1105,-8.00e-04,
1106,-2.40e-03,
1107,2.40e-03,
1108,-8.00e-04,
1109,2.40e-03,
1110,-1.60e-03,
1111,2.40e-03,
1112,-1.60e-03,
1113,3.20e-03,
1114,-1.60e-03,
1115,3.20e-03,
1116,2.40e-03,
1117,-2.40e-03,
1118,-8.00e-04,
1119,2.40e-03,
1120,-8.00e-04,
1121,3.20e-03,
1122,2.40e-03,
1123,-8.00e-04,
1124,3.20e-03,
1125,-8.00e-04,
1126,-8.00e-04,
1127,3.20e-03,
1128,2.40e-03,
1129,-3.20e-03,
1130,-8.00e-04,
1131,2.40e-03,
1132,2.40e-03,
1133,-2.40e-03,
1134,2.40e-03,
1135,-2.40e-03,
1136,-1.60e-03,
1137,2.00e-03,
1138,2.40e-03,
1139,-8.00e-04,
1140,3.20e-03,
1141,-8.00e-04,
1142,-8.00e-04,
1143,3.20e-03,
1144,-8.00e-04,
1145,3.20e-03,
1146,2.40e-03,
1147,-8.00e-04,
1148,2.80e-03,
1149,-1.60e-03,
1150,-8.00e-04,
1151,2.80e-03,
1152,1.60e-03,
1153,-1.60e-03,
1154,-1.60e-03,
1155,2.40e-03,
1156,-1.60e-03,
1157,2.00e-03,
1158,-1.60e-03,
1159,2.40e-03,
1160,-1.60e-03,
1161,2.40e-03,
1162,-1.60e-03,
1163,3.20e-03,
1164,-2.40e-03,
1165,2.40e-03,
1166,1.60e-03,
1167,-3.20e-03,
1168,-2.40e-03,
1169,1.60e-03,
1170,-1.60e-03,
1171,2.40e-03,
1172,2.80e-03,
1173,-1.60e-03,
1174,-2.40e-03,
1175,2.40e-03,
1176,-2.40e-03,
1177,1.60e-03,
1178,-1.60e-03,
1179,2.40e-03,
1180,1.60e-03,
1181,-3.20e-03,
1182,2.40e-03,
1183,-2.40e-03,
1184,-1.60e-03,
1185,2.40e-03,
1186,2.40e-03,
1187,-1.60e-03,
1188,1.20e-03,
1189,-1.60e-03,
1190,-2.40e-03,
1191,2.00e-03,
1192,1.60e-03,
1193,-2.40e-03,
1194,2.40e-03,
1195,-1.60e-03,
1196,-1.60e-03,
1197,2.80e-03,
1198,2.40e-03,
1199,-1.60e-03,
