fastdiffamp/data-noise-set/5th/NewFile11.csv

X,CH1,Start,Increment,
Sequence,Volt,-1.200000e-02,2.000000e-05
0,0.00e+00,
1,2.40e-03,
2,2.40e-03,
3,0.00e+00,
4,3.20e-03,
5,-8.00e-04,
6,2.40e-03,
7,0.00e+00,
8,0.00e+00,
9,2.80e-03,
10,1.60e-03,
11,0.00e+00,
12,2.40e-03,
13,-8.00e-04,
14,0.00e+00,
15,2.00e-03,
16,0.00e+00,
17,2.00e-03,
18,2.40e-03,
19,0.00e+00,
20,2.80e-03,
21,0.00e+00,
22,0.00e+00,
23,2.80e-03,
24,0.00e+00,
25,3.20e-03,
26,0.00e+00,
27,2.80e-03,
28,2.40e-03,
29,-8.00e-04,
30,-8.00e-04,
31,2.40e-03,
32,-8.00e-04,
33,1.60e-03,
34,-8.00e-04,
35,2.00e-03,
36,0.00e+00,
37,2.40e-03,
38,0.00e+00,
39,2.40e-03,
40,0.00e+00,
41,2.40e-03,
42,0.00e+00,
43,2.40e-03,
44,2.40e-03,
45,0.00e+00,
46,0.00e+00,
47,2.40e-03,
48,2.40e-03,
49,0.00e+00,
50,3.20e-03,
51,0.00e+00,
52,0.00e+00,
53,3.20e-03,
54,2.40e-03,
55,0.00e+00,
56,-8.00e-04,
57,2.40e-03,
58,0.00e+00,
59,3.20e-03,
60,0.00e+00,
61,2.40e-03,
62,0.00e+00,
63,3.20e-03,
64,3.20e-03,
65,0.00e+00,
66,0.00e+00,
67,2.40e-03,
68,-8.00e-04,
69,2.40e-03,
70,0.00e+00,
71,3.20e-03,
72,-8.00e-04,
73,2.40e-03,
74,-8.00e-04,
75,2.40e-03,
76,-8.00e-04,
77,2.40e-03,
78,2.40e-03,
79,0.00e+00,
80,0.00e+00,
81,2.40e-03,
82,2.40e-03,
83,0.00e+00,
84,2.40e-03,
85,-8.00e-04,
86,0.00e+00,
87,2.40e-03,
88,-8.00e-04,
89,3.20e-03,
90,0.00e+00,
91,2.40e-03,
92,2.40e-03,
93,0.00e+00,
94,0.00e+00,
95,2.40e-03,
96,1.60e-03,
97,-8.00e-04,
98,0.00e+00,
99,2.40e-03,
100,2.40e-03,
101,0.00e+00,
102,2.40e-03,
103,-8.00e-04,
104,2.00e-03,
105,0.00e+00,
106,0.00e+00,
107,2.40e-03,
108,0.00e+00,
109,2.80e-03,
110,0.00e+00,
111,2.40e-03,
112,0.00e+00,
113,2.00e-03,
114,2.40e-03,
115,0.00e+00,
116,2.40e-03,
117,-8.00e-04,
118,2.40e-03,
119,0.00e+00,
120,2.40e-03,
121,-8.00e-04,
122,-1.60e-03,
123,3.20e-03,
124,-8.00e-04,
125,2.80e-03,
126,-1.60e-03,
127,1.60e-03,
128,0.00e+00,
129,2.40e-03,
130,2.40e-03,
131,-8.00e-04,
132,0.00e+00,
133,3.20e-03,
134,-8.00e-04,
135,3.20e-03,
136,3.20e-03,
137,-8.00e-04,
138,-8.00e-04,
139,2.40e-03,
140,0.00e+00,
141,2.40e-03,
142,2.40e-03,
143,-8.00e-04,
144,-8.00e-04,
145,2.40e-03,
146,2.40e-03,
147,-8.00e-04,
148,2.40e-03,
149,-8.00e-04,
150,-8.00e-04,
151,2.40e-03,
152,2.40e-03,
153,0.00e+00,
154,-8.00e-04,
155,2.40e-03,
156,2.40e-03,
157,0.00e+00,
158,2.40e-03,
159,0.00e+00,
160,2.40e-03,
161,0.00e+00,
162,0.00e+00,
163,2.40e-03,
164,2.40e-03,
165,0.00e+00,
166,2.40e-03,
167,-8.00e-04,
168,2.40e-03,
169,0.00e+00,
170,2.80e-03,
171,0.00e+00,
172,0.00e+00,
173,2.40e-03,
174,0.00e+00,
175,2.40e-03,
176,0.00e+00,
177,2.40e-03,
178,3.20e-03,
179,-8.00e-04,
180,2.40e-03,
181,-8.00e-04,
182,2.40e-03,
183,-8.00e-04,
184,2.40e-03,
185,-8.00e-04,
186,2.00e-03,
187,0.00e+00,
188,1.60e-03,
189,0.00e+00,
190,0.00e+00,
191,2.40e-03,
192,0.00e+00,
193,2.40e-03,
194,-8.00e-04,
195,2.40e-03,
196,-8.00e-04,
197,2.00e-03,
198,-8.00e-04,
199,2.40e-03,
200,0.00e+00,
201,2.00e-03,
202,2.40e-03,
203,-8.00e-04,
204,2.40e-03,
205,-1.60e-03,
206,2.00e-03,
207,-8.00e-04,
208,1.60e-03,
209,-8.00e-04,
210,2.00e-03,
211,-8.00e-04,
212,0.00e+00,
213,2.40e-03,
214,-8.00e-04,
215,2.40e-03,
216,2.00e-03,
217,-8.00e-04,
218,-1.60e-03,
219,2.40e-03,
220,-8.00e-04,
221,2.40e-03,
222,2.40e-03,
223,-8.00e-04,
224,1.60e-03,
225,-8.00e-04,
226,-8.00e-04,
227,1.60e-03,
228,0.00e+00,
229,3.20e-03,
230,2.80e-03,
231,0.00e+00,
232,0.00e+00,
233,2.40e-03,
234,2.40e-03,
235,0.00e+00,
236,-8.00e-04,
237,2.40e-03,
238,0.00e+00,
239,2.00e-03,
240,0.00e+00,
241,2.40e-03,
242,-8.00e-04,
243,2.40e-03,
244,2.40e-03,
245,-8.00e-04,
246,2.40e-03,
247,0.00e+00,
248,1.60e-03,
249,-8.00e-04,
250,-8.00e-04,
251,2.00e-03,
252,-8.00e-04,
253,2.40e-03,
254,-8.00e-04,
255,2.40e-03,
256,0.00e+00,
257,2.80e-03,
258,-8.00e-04,
259,1.60e-03,
260,-8.00e-04,
261,2.40e-03,
262,0.00e+00,
263,2.40e-03,
264,2.40e-03,
265,0.00e+00,
266,2.40e-03,
267,0.00e+00,
268,-8.00e-04,
269,2.40e-03,
270,0.00e+00,
271,2.40e-03,
272,0.00e+00,
273,2.40e-03,
274,2.00e-03,
275,-8.00e-04,
276,0.00e+00,
277,2.40e-03,
278,2.40e-03,
279,-8.00e-04,
280,-8.00e-04,
281,2.40e-03,
282,0.00e+00,
283,2.00e-03,
284,-8.00e-04,
285,2.00e-03,
286,0.00e+00,
287,2.40e-03,
288,-8.00e-04,
289,2.40e-03,
290,1.60e-03,
291,-8.00e-04,
292,2.00e-03,
293,-1.60e-03,
294,2.00e-03,
295,-1.60e-03,
296,2.40e-03,
297,-1.60e-03,
298,-8.00e-04,
299,2.40e-03,
300,1.60e-03,
301,-8.00e-04,
302,1.60e-03,
303,-8.00e-04,
304,-8.00e-04,
305,1.60e-03,
306,-8.00e-04,
307,1.60e-03,
308,1.60e-03,
309,-8.00e-04,
310,-8.00e-04,
311,2.40e-03,
312,1.60e-03,
313,0.00e+00,
314,-1.60e-03,
315,1.60e-03,
316,1.60e-03,
317,-8.00e-04,
318,2.40e-03,
319,-8.00e-04,
320,-8.00e-04,
321,2.40e-03,
322,-8.00e-04,
323,2.40e-03,
324,2.00e-03,
325,-1.60e-03,
326,-8.00e-04,
327,2.40e-03,
328,-8.00e-04,
329,2.00e-03,
330,1.60e-03,
331,-8.00e-04,
332,1.60e-03,
333,-8.00e-04,
334,-8.00e-04,
335,2.40e-03,
336,1.60e-03,
337,-8.00e-04,
338,-8.00e-04,
339,1.60e-03,
340,2.40e-03,
341,-8.00e-04,
342,2.40e-03,
343,-8.00e-04,
344,1.60e-03,
345,-8.00e-04,
346,-1.60e-03,
347,2.00e-03,
348,1.60e-03,
349,-8.00e-04,
350,2.00e-03,
351,-8.00e-04,
352,-8.00e-04,
353,2.00e-03,
354,-8.00e-04,
355,2.40e-03,
356,1.60e-03,
357,-8.00e-04,
358,-8.00e-04,
359,1.60e-03,
360,-8.00e-04,
361,1.60e-03,
362,0.00e+00,
363,2.80e-03,
364,2.40e-03,
365,-8.00e-04,
366,2.00e-03,
367,-8.00e-04,
368,1.60e-03,
369,-8.00e-04,
370,-1.60e-03,
371,1.60e-03,
372,0.00e+00,
373,2.40e-03,
374,0.00e+00,
375,2.80e-03,
376,2.40e-03,
377,-8.00e-04,
378,0.00e+00,
379,2.40e-03,
380,-1.60e-03,
381,1.60e-03,
382,-1.60e-03,
383,3.20e-03,
384,2.40e-03,
385,-8.00e-04,
386,1.60e-03,
387,-1.60e-03,
388,-8.00e-04,
389,2.40e-03,
390,2.40e-03,
391,-8.00e-04,
392,1.60e-03,
393,-8.00e-04,
394,-8.00e-04,
395,2.00e-03,
396,2.40e-03,
397,-8.00e-04,
398,1.60e-03,
399,-8.00e-04,
400,1.60e-03,
401,-8.00e-04,
402,-1.60e-03,
403,1.60e-03,
404,-1.60e-03,
405,1.60e-03,
406,2.00e-03,
407,-1.60e-03,
408,2.00e-03,
409,-1.60e-03,
410,-1.60e-03,
411,2.40e-03,
412,-1.60e-03,
413,2.40e-03,
414,-8.00e-04,
415,1.60e-03,
416,-8.00e-04,
417,1.60e-03,
418,8.00e-04,
419,-1.60e-03,
420,-1.60e-03,
421,1.60e-03,
422,-8.00e-04,
423,1.60e-03,
424,-1.60e-03,
425,1.60e-03,
426,-1.60e-03,
427,1.60e-03,
428,1.60e-03,
429,-1.60e-03,
430,1.60e-03,
431,-2.40e-03,
432,-8.00e-04,
433,1.60e-03,
434,2.40e-03,
435,-8.00e-04,
436,-8.00e-04,
437,2.00e-03,
438,1.20e-03,
439,-1.60e-03,
440,-8.00e-04,
441,1.60e-03,
442,1.60e-03,
443,-1.60e-03,
444,-8.00e-04,
445,1.60e-03,
446,-8.00e-04,
447,1.20e-03,
448,-8.00e-04,
449,1.20e-03,
450,-8.00e-04,
451,1.60e-03,
452,-8.00e-04,
453,1.60e-03,
454,1.60e-03,
455,-1.60e-03,
456,2.00e-03,
457,-1.60e-03,
458,-1.60e-03,
459,1.60e-03,
460,2.00e-03,
461,-2.40e-03,
462,-1.60e-03,
463,2.00e-03,
464,-1.60e-03,
465,2.40e-03,
466,1.60e-03,
467,-1.60e-03,
468,-1.60e-03,
469,2.00e-03,
470,1.60e-03,
471,-1.60e-03,
472,-1.60e-03,
473,1.60e-03,
474,1.20e-03,
475,-1.60e-03,
476,1.60e-03,
477,-1.60e-03,
478,-1.60e-03,
479,2.00e-03,
480,2.40e-03,
481,-1.60e-03,
482,1.60e-03,
483,-1.60e-03,
484,-8.00e-04,
485,2.40e-03,
486,-8.00e-04,
487,2.40e-03,
488,2.00e-03,
489,-8.00e-04,
490,2.40e-03,
491,-8.00e-04,
492,1.60e-03,
493,-1.60e-03,
494,0.00e+00,
495,2.00e-03,
496,-8.00e-04,
497,2.00e-03,
498,1.60e-03,
499,-1.60e-03,
500,-1.60e-03,
501,3.20e-03,
502,1.60e-03,
503,-8.00e-04,
504,-1.60e-03,
505,1.60e-03,
506,2.00e-03,
507,-1.60e-03,
508,-8.00e-04,
509,1.60e-03,
510,1.60e-03,
511,-8.00e-04,
512,-8.00e-04,
513,2.40e-03,
514,-8.00e-04,
515,2.00e-03,
516,1.60e-03,
517,-8.00e-04,
518,1.60e-03,
519,-8.00e-04,
520,1.60e-03,
521,-8.00e-04,
522,-1.60e-03,
523,2.00e-03,
524,1.60e-03,
525,-8.00e-04,
526,-1.60e-03,
527,1.60e-03,
528,1.20e-03,
529,-1.60e-03,
530,8.00e-04,
531,-1.20e-03,
532,1.20e-03,
533,-8.00e-04,
534,1.60e-03,
535,-8.00e-04,
536,-8.00e-04,
537,2.00e-03,
538,1.60e-03,
539,-1.60e-03,
540,1.60e-03,
541,-1.60e-03,
542,-8.00e-04,
543,1.60e-03,
544,-8.00e-04,
545,2.00e-03,
546,1.60e-03,
547,-1.60e-03,
548,1.60e-03,
549,-1.60e-03,
550,-8.00e-04,
551,1.60e-03,
552,-8.00e-04,
553,2.00e-03,
554,1.60e-03,
555,-8.00e-04,
556,-8.00e-04,
557,2.00e-03,
558,-8.00e-04,
559,1.20e-03,
560,-8.00e-04,
561,1.60e-03,
562,-8.00e-04,
563,2.40e-03,
564,2.40e-03,
565,-8.00e-04,
566,-8.00e-04,
567,1.60e-03,
568,-1.60e-03,
569,2.40e-03,
570,1.60e-03,
571,-8.00e-04,
572,1.60e-03,
573,-8.00e-04,
574,-8.00e-04,
575,2.40e-03,
576,-8.00e-04,
577,1.60e-03,
578,-8.00e-04,
579,2.80e-03,
580,-8.00e-04,
581,1.60e-03,
582,2.00e-03,
583,-8.00e-04,
584,1.60e-03,
585,-8.00e-04,
586,2.40e-03,
587,-8.00e-04,
588,-8.00e-04,
589,2.40e-03,
590,-8.00e-04,
591,2.40e-03,
592,-8.00e-04,
593,2.40e-03,
594,-8.00e-04,
595,1.60e-03,
596,-8.00e-04,
597,2.40e-03,
598,-1.60e-03,
599,2.40e-03,
600,2.40e-03,
601,-8.00e-04,
602,1.60e-03,
603,-8.00e-04,
604,-8.00e-04,
605,2.40e-03,
606,1.60e-03,
607,-1.60e-03,
608,-8.00e-04,
609,2.40e-03,
610,-8.00e-04,
611,1.60e-03,
612,1.60e-03,
613,-8.00e-04,
614,-8.00e-04,
615,1.60e-03,
616,-8.00e-04,
617,1.60e-03,
618,-8.00e-04,
619,2.40e-03,
620,2.00e-03,
621,-8.00e-04,
622,1.60e-03,
623,-8.00e-04,
624,2.80e-03,
625,-8.00e-04,
626,2.40e-03,
627,-8.00e-04,
628,2.40e-03,
629,-8.00e-04,
630,2.40e-03,
631,-1.60e-03,
632,-8.00e-04,
633,2.40e-03,
634,1.60e-03,
635,-8.00e-04,
636,1.60e-03,
637,-8.00e-04,
638,2.40e-03,
639,-8.00e-04,
640,-8.00e-04,
641,2.40e-03,
642,0.00e+00,
643,2.40e-03,
644,0.00e+00,
645,2.40e-03,
646,2.40e-03,
647,-8.00e-04,
648,0.00e+00,
649,2.40e-03,
650,2.00e-03,
651,0.00e+00,
652,0.00e+00,
653,2.40e-03,
654,-8.00e-04,
655,2.00e-03,
656,0.00e+00,
657,2.40e-03,
658,-8.00e-04,
659,2.40e-03,
660,2.00e-03,
661,-8.00e-04,
662,-8.00e-04,
663,2.40e-03,
664,2.00e-03,
665,-8.00e-04,
666,1.60e-03,
667,-1.60e-03,
668,-8.00e-04,
669,2.40e-03,
670,-8.00e-04,
671,1.60e-03,
672,1.60e-03,
673,-8.00e-04,
674,2.40e-03,
675,-8.00e-04,
676,-8.00e-04,
677,2.40e-03,
678,1.60e-03,
679,-8.00e-04,
680,-8.00e-04,
681,1.60e-03,
682,2.40e-03,
683,-8.00e-04,
684,-8.00e-04,
685,1.60e-03,
686,-1.60e-03,
687,1.60e-03,
688,2.00e-03,
689,-1.60e-03,
690,1.60e-03,
691,-1.60e-03,
692,1.60e-03,
693,-1.60e-03,
694,-1.60e-03,
695,1.60e-03,
696,1.20e-03,
697,-1.60e-03,
698,-8.00e-04,
699,2.00e-03,
700,-8.00e-04,
701,1.60e-03,
702,-8.00e-04,
703,1.60e-03,
704,-1.60e-03,
705,2.40e-03,
706,-8.00e-04,
707,1.60e-03,
708,-1.60e-03,
709,1.60e-03,
710,-8.00e-04,
711,2.40e-03,
712,-8.00e-04,
713,2.40e-03,
714,-1.60e-03,
715,1.60e-03,
716,-1.60e-03,
717,1.20e-03,
718,1.60e-03,
719,-1.60e-03,
720,2.40e-03,
721,-8.00e-04,
722,-4.00e-04,
723,2.40e-03,
724,-8.00e-04,
725,2.40e-03,
726,1.60e-03,
727,-8.00e-04,
728,1.60e-03,
729,-1.60e-03,
730,1.60e-03,
731,-8.00e-04,
732,2.40e-03,
733,-8.00e-04,
734,0.00e+00,
735,1.60e-03,
736,2.00e-03,
737,-8.00e-04,
738,2.40e-03,
739,-8.00e-04,
740,2.40e-03,
741,-8.00e-04,
742,0.00e+00,
743,2.00e-03,
744,1.60e-03,
745,-8.00e-04,
746,1.60e-03,
747,-8.00e-04,
748,-8.00e-04,
749,2.40e-03,
750,2.40e-03,
751,-8.00e-04,
752,-8.00e-04,
753,2.40e-03,
754,1.60e-03,
755,-8.00e-04,
756,-8.00e-04,
757,2.00e-03,
758,-8.00e-04,
759,2.40e-03,
760,1.60e-03,
761,-8.00e-04,
762,2.40e-03,
763,-8.00e-04,
764,1.60e-03,
765,-8.00e-04,
766,1.60e-03,
767,-8.00e-04,
768,2.40e-03,
769,-8.00e-04,
770,1.60e-03,
771,-8.00e-04,
772,1.20e-03,
773,-1.60e-03,
774,-1.60e-03,
775,1.60e-03,
776,-8.00e-04,
777,1.60e-03,
778,-8.00e-04,
779,2.00e-03,
780,-8.00e-04,
781,2.40e-03,
782,1.60e-03,
783,-1.60e-03,
784,-8.00e-04,
785,2.40e-03,
786,2.40e-03,
787,-8.00e-04,
788,2.40e-03,
789,-1.60e-03,
790,1.60e-03,
791,-8.00e-04,
792,-8.00e-04,
793,2.40e-03,
794,2.40e-03,
795,-8.00e-04,
796,2.80e-03,
797,-8.00e-04,
798,0.00e+00,
799,2.40e-03,
800,2.80e-03,
801,-8.00e-04,
802,2.00e-03,
803,-8.00e-04,
804,2.40e-03,
805,-8.00e-04,
806,-8.00e-04,
807,2.00e-03,
808,-8.00e-04,
809,1.60e-03,
810,1.60e-03,
811,-8.00e-04,
812,0.00e+00,
813,1.60e-03,
814,-8.00e-04,
815,2.40e-03,
816,-8.00e-04,
817,2.00e-03,
818,-8.00e-04,
819,2.00e-03,
820,1.60e-03,
821,-8.00e-04,
822,-8.00e-04,
823,2.40e-03,
824,0.00e+00,
825,2.80e-03,
826,-8.00e-04,
827,2.40e-03,
828,0.00e+00,
829,3.20e-03,
830,-8.00e-04,
831,2.80e-03,
832,2.40e-03,
833,-8.00e-04,
834,-8.00e-04,
835,2.40e-03,
836,2.40e-03,
837,-8.00e-04,
838,0.00e+00,
839,2.40e-03,
840,0.00e+00,
841,2.40e-03,
842,0.00e+00,
843,2.40e-03,
844,-1.60e-03,
845,2.40e-03,
846,2.40e-03,
847,-8.00e-04,
848,-8.00e-04,
849,2.40e-03,
850,-8.00e-04,
851,2.40e-03,
852,-8.00e-04,
853,1.60e-03,
854,1.60e-03,
855,-8.00e-04,
856,8.00e-04,
857,-1.60e-03,
858,-8.00e-04,
859,1.60e-03,
860,2.40e-03,
861,-1.60e-03,
862,1.60e-03,
863,-1.60e-03,
864,1.60e-03,
865,-1.60e-03,
866,1.60e-03,
867,-1.60e-03,
868,1.60e-03,
869,-8.00e-04,
870,1.60e-03,
871,-8.00e-04,
872,-1.60e-03,
873,1.60e-03,
874,1.60e-03,
875,-1.60e-03,
876,2.00e-03,
877,-8.00e-04,
878,-8.00e-04,
879,1.60e-03,
880,2.40e-03,
881,-1.60e-03,
882,-1.60e-03,
883,1.60e-03,
884,2.40e-03,
885,-1.60e-03,
886,2.00e-03,
887,-8.00e-04,
888,1.60e-03,
889,-1.60e-03,
890,1.60e-03,
891,-8.00e-04,
892,-1.60e-03,
893,1.60e-03,
894,2.40e-03,
895,-1.60e-03,
896,-1.60e-03,
897,1.60e-03,
898,-1.60e-03,
899,2.40e-03,
900,-8.00e-04,
901,1.60e-03,
902,-8.00e-04,
903,2.40e-03,
904,2.40e-03,
905,-4.00e-04,
906,0.00e+00,
907,2.80e-03,
908,2.40e-03,
909,-1.60e-03,
910,1.60e-03,
911,-8.00e-04,
912,-8.00e-04,
913,2.80e-03,
914,-8.00e-04,
915,2.40e-03,
916,2.00e-03,
917,-8.00e-04,
918,-8.00e-04,
919,2.80e-03,
920,-8.00e-04,
921,2.40e-03,
922,2.40e-03,
923,-8.00e-04,
924,2.40e-03,
925,-8.00e-04,
926,2.00e-03,
927,-8.00e-04,
928,-8.00e-04,
929,2.40e-03,
930,0.00e+00,
931,2.40e-03,
932,2.40e-03,
933,-8.00e-04,
934,-8.00e-04,
935,2.40e-03,
936,-8.00e-04,
937,2.40e-03,
938,2.00e-03,
939,-8.00e-04,
940,-8.00e-04,
941,2.40e-03,
942,-8.00e-04,
943,2.40e-03,
944,1.60e-03,
945,-8.00e-04,
946,-8.00e-04,
947,2.40e-03,
948,0.00e+00,
949,2.40e-03,
950,0.00e+00,
951,2.40e-03,
952,2.40e-03,
953,-8.00e-04,
954,3.20e-03,
955,0.00e+00,
956,-8.00e-04,
957,2.40e-03,
958,2.80e-03,
959,0.00e+00,
960,1.60e-03,
961,-8.00e-04,
962,0.00e+00,
963,2.40e-03,
964,2.40e-03,
965,-8.00e-04,
966,0.00e+00,
967,2.40e-03,
968,2.00e-03,
969,-8.00e-04,
970,2.40e-03,
971,-8.00e-04,
972,2.40e-03,
973,-8.00e-04,
974,0.00e+00,
975,2.40e-03,
976,2.40e-03,
977,-8.00e-04,
978,2.40e-03,
979,0.00e+00,
980,0.00e+00,
981,2.40e-03,
982,2.40e-03,
983,-8.00e-04,
984,2.40e-03,
985,-8.00e-04,
986,1.60e-03,
987,-8.00e-04,
988,2.40e-03,
989,0.00e+00,
990,0.00e+00,
991,2.40e-03,
992,-8.00e-04,
993,2.40e-03,
994,-8.00e-04,
995,3.20e-03,
996,1.60e-03,
997,-8.00e-04,
998,0.00e+00,
999,2.40e-03,
1000,0.00e+00,
1001,2.40e-03,
1002,0.00e+00,
1003,2.80e-03,
1004,2.00e-03,
1005,-8.00e-04,
1006,0.00e+00,
1007,2.40e-03,
1008,0.00e+00,
1009,2.40e-03,
1010,-8.00e-04,
1011,2.40e-03,
1012,-8.00e-04,
1013,2.00e-03,
1014,0.00e+00,
1015,2.40e-03,
1016,2.40e-03,
1017,0.00e+00,
1018,2.40e-03,
1019,0.00e+00,
1020,0.00e+00,
1021,2.40e-03,
1022,1.60e-03,
1023,-8.00e-04,
1024,2.40e-03,
1025,-8.00e-04,
1026,2.40e-03,
1027,-8.00e-04,
1028,2.40e-03,
1029,-8.00e-04,
1030,-8.00e-04,
1031,2.40e-03,
1032,2.40e-03,
1033,0.00e+00,
1034,-8.00e-04,
1035,2.40e-03,
1036,1.60e-03,
1037,-8.00e-04,
1038,0.00e+00,
1039,2.80e-03,
1040,-1.60e-03,
1041,3.20e-03,
1042,2.40e-03,
1043,-8.00e-04,
1044,-8.00e-04,
1045,2.00e-03,
1046,-8.00e-04,
1047,2.40e-03,
1048,2.40e-03,
1049,0.00e+00,
1050,0.00e+00,
1051,2.40e-03,
1052,0.00e+00,
1053,2.40e-03,
1054,0.00e+00,
1055,1.60e-03,
1056,-8.00e-04,
1057,2.40e-03,
1058,-8.00e-04,
1059,2.40e-03,
1060,0.00e+00,
1061,2.80e-03,
1062,0.00e+00,
1063,2.80e-03,
1064,2.40e-03,
1065,-8.00e-04,
1066,2.40e-03,
1067,-8.00e-04,
1068,-8.00e-04,
1069,2.00e-03,
1070,-8.00e-04,
1071,1.60e-03,
1072,2.40e-03,
1073,-8.00e-04,
1074,2.00e-03,
1075,-8.00e-04,
1076,1.60e-03,
1077,-8.00e-04,
1078,1.60e-03,
1079,0.00e+00,
1080,2.40e-03,
1081,-8.00e-04,
1082,1.60e-03,
1083,-8.00e-04,
1084,-8.00e-04,
1085,2.40e-03,
1086,-8.00e-04,
1087,2.00e-03,
1088,0.00e+00,
1089,1.60e-03,
1090,2.40e-03,
1091,-1.60e-03,
1092,1.60e-03,
1093,-8.00e-04,
1094,2.00e-03,
1095,-8.00e-04,
1096,2.00e-03,
1097,-8.00e-04,
1098,0.00e+00,
1099,2.40e-03,
1100,2.40e-03,
1101,-8.00e-04,
1102,2.40e-03,
1103,-8.00e-04,
1104,-8.00e-04,
1105,2.40e-03,
1106,-8.00e-04,
1107,2.00e-03,
1108,2.40e-03,
1109,-1.60e-03,
1110,2.40e-03,
1111,-8.00e-04,
1112,-8.00e-04,
1113,2.40e-03,
1114,0.00e+00,
1115,2.00e-03,
1116,1.60e-03,
1117,-8.00e-04,
1118,2.40e-03,
1119,-8.00e-04,
1120,0.00e+00,
1121,2.40e-03,
1122,2.40e-03,
1123,-8.00e-04,
1124,2.00e-03,
1125,-8.00e-04,
1126,-8.00e-04,
1127,2.40e-03,
1128,1.60e-03,
1129,0.00e+00,
1130,2.40e-03,
1131,-8.00e-04,
1132,-8.00e-04,
1133,2.40e-03,
1134,0.00e+00,
1135,2.40e-03,
1136,2.00e-03,
1137,-8.00e-04,
1138,0.00e+00,
1139,2.40e-03,
1140,2.40e-03,
1141,-8.00e-04,
1142,0.00e+00,
1143,2.40e-03,
1144,2.40e-03,
1145,0.00e+00,
1146,2.40e-03,
1147,0.00e+00,
1148,2.40e-03,
1149,0.00e+00,
1150,0.00e+00,
1151,2.40e-03,
1152,2.40e-03,
1153,0.00e+00,
1154,0.00e+00,
1155,2.40e-03,
1156,2.40e-03,
1157,-8.00e-04,
1158,3.20e-03,
1159,-8.00e-04,
1160,2.40e-03,
1161,-8.00e-04,
1162,-8.00e-04,
1163,2.40e-03,
1164,0.00e+00,
1165,2.40e-03,
1166,0.00e+00,
1167,2.40e-03,
1168,2.40e-03,
1169,-8.00e-04,
1170,2.40e-03,
1171,0.00e+00,
1172,-8.00e-04,
1173,2.40e-03,
1174,0.00e+00,
1175,2.40e-03,
1176,3.20e-03,
1177,-8.00e-04,
1178,0.00e+00,
1179,3.20e-03,
1180,2.40e-03,
1181,8.00e-04,
1182,3.20e-03,
1183,8.00e-04,
1184,0.00e+00,
1185,2.80e-03,
1186,2.40e-03,
1187,0.00e+00,
1188,0.00e+00,
1189,2.40e-03,
1190,1.60e-03,
1191,0.00e+00,
1192,0.00e+00,
1193,2.00e-03,
1194,1.60e-03,
1195,0.00e+00,
1196,0.00e+00,
1197,3.20e-03,
1198,2.00e-03,
1199,-8.00e-04,
