fastdiffamp/data-noise-set/5th/NewFile7.csv

X,CH1,Start,Increment,
Sequence,Volt,-1.200000e-02,2.000000e-05
0,-1.60e-03,
1,1.60e-03,
2,-8.00e-04,
3,2.40e-03,
4,-8.00e-04,
5,2.40e-03,
6,1.20e-03,
7,-1.60e-03,
8,-1.60e-03,
9,2.40e-03,
10,1.60e-03,
11,-1.60e-03,
12,1.60e-03,
13,-8.00e-04,
14,1.60e-03,
15,-1.60e-03,
16,2.40e-03,
17,-8.00e-04,
18,-1.60e-03,
19,1.60e-03,
20,2.40e-03,
21,-1.60e-03,
22,1.60e-03,
23,-1.60e-03,
24,1.60e-03,
25,-1.60e-03,
26,-2.40e-03,
27,2.40e-03,
28,1.60e-03,
29,-2.40e-03,
30,8.00e-04,
31,-1.60e-03,
32,1.60e-03,
33,-1.60e-03,
34,2.00e-03,
35,-1.60e-03,
36,-1.60e-03,
37,1.60e-03,
38,-1.60e-03,
39,2.40e-03,
40,-2.40e-03,
41,1.60e-03,
42,-1.60e-03,
43,1.60e-03,
44,-1.60e-03,
45,1.60e-03,
46,-1.60e-03,
47,1.60e-03,
48,-2.40e-03,
49,2.40e-03,
50,1.60e-03,
51,-1.60e-03,
52,-8.00e-04,
53,2.40e-03,
54,-1.60e-03,
55,2.40e-03,
56,1.60e-03,
57,-1.60e-03,
58,-1.60e-03,
59,2.00e-03,
60,-1.60e-03,
61,1.20e-03,
62,1.60e-03,
63,-2.40e-03,
64,1.60e-03,
65,-2.40e-03,
66,-1.60e-03,
67,2.40e-03,
68,-1.60e-03,
69,1.60e-03,
70,-1.60e-03,
71,2.00e-03,
72,2.00e-03,
73,-1.60e-03,
74,-1.60e-03,
75,1.60e-03,
76,2.40e-03,
77,-1.60e-03,
78,1.60e-03,
79,-1.60e-03,
80,2.40e-03,
81,-8.00e-04,
82,1.60e-03,
83,-1.60e-03,
84,-1.60e-03,
85,2.40e-03,
86,-8.00e-04,
87,1.60e-03,
88,-1.60e-03,
89,2.00e-03,
90,1.60e-03,
91,-8.00e-04,
92,-1.60e-03,
93,2.00e-03,
94,-1.60e-03,
95,2.00e-03,
96,-8.00e-04,
97,1.60e-03,
98,-8.00e-04,
99,2.00e-03,
100,1.60e-03,
101,-1.60e-03,
102,-1.60e-03,
103,3.20e-03,
104,2.40e-03,
105,-1.60e-03,
106,-1.60e-03,
107,2.80e-03,
108,1.60e-03,
109,-1.20e-03,
110,-8.00e-04,
111,2.40e-03,
112,2.40e-03,
113,-8.00e-04,
114,2.40e-03,
115,-1.60e-03,
116,2.40e-03,
117,-8.00e-04,
118,-8.00e-04,
119,2.40e-03,
120,2.40e-03,
121,-1.60e-03,
122,2.40e-03,
123,-8.00e-04,
124,-1.60e-03,
125,2.40e-03,
126,-1.60e-03,
127,2.40e-03,
128,1.60e-03,
129,-8.00e-04,
130,8.00e-04,
131,-1.60e-03,
132,-8.00e-04,
133,2.00e-03,
134,-2.40e-03,
135,1.60e-03,
136,-8.00e-04,
137,2.00e-03,
138,1.60e-03,
139,-1.60e-03,
140,-1.60e-03,
141,1.20e-03,
142,-8.00e-04,
143,1.60e-03,
144,-8.00e-04,
145,1.60e-03,
146,-1.60e-03,
147,2.40e-03,
148,1.60e-03,
149,-8.00e-04,
150,2.40e-03,
151,-1.60e-03,
152,1.60e-03,
153,-1.60e-03,
154,2.40e-03,
155,-8.00e-04,
156,-1.60e-03,
157,1.60e-03,
158,2.40e-03,
159,-1.60e-03,
160,-8.00e-04,
161,1.60e-03,
162,-8.00e-04,
163,1.60e-03,
164,-1.60e-03,
165,2.40e-03,
166,2.00e-03,
167,-1.60e-03,
168,1.60e-03,
169,-1.60e-03,
170,1.60e-03,
171,-1.60e-03,
172,2.40e-03,
173,-8.00e-04,
174,-1.60e-03,
175,2.00e-03,
176,-8.00e-04,
177,1.60e-03,
178,-8.00e-04,
179,1.60e-03,
180,1.60e-03,
181,-8.00e-04,
182,-1.60e-03,
183,2.40e-03,
184,-8.00e-04,
185,2.00e-03,
186,-8.00e-04,
187,2.00e-03,
188,2.40e-03,
189,-8.00e-04,
190,-8.00e-04,
191,2.40e-03,
192,-8.00e-04,
193,2.40e-03,
194,2.80e-03,
195,-8.00e-04,
196,1.60e-03,
197,-8.00e-04,
198,-8.00e-04,
199,3.20e-03,
200,3.20e-03,
201,-8.00e-04,
202,-1.60e-03,
203,3.20e-03,
204,2.40e-03,
205,-1.20e-03,
206,2.40e-03,
207,-8.00e-04,
208,3.20e-03,
209,-8.00e-04,
210,2.40e-03,
211,-1.60e-03,
212,-8.00e-04,
213,2.40e-03,
214,1.60e-03,
215,-1.60e-03,
216,2.40e-03,
217,-8.00e-04,
218,1.60e-03,
219,-1.60e-03,
220,-8.00e-04,
221,1.60e-03,
222,1.60e-03,
223,-1.60e-03,
224,-8.00e-04,
225,3.20e-03,
226,1.60e-03,
227,-8.00e-04,
228,-8.00e-04,
229,3.20e-03,
230,2.40e-03,
231,-8.00e-04,
232,2.40e-03,
233,-1.60e-03,
234,-8.00e-04,
235,2.40e-03,
236,-1.60e-03,
237,1.60e-03,
238,0.00e+00,
239,2.40e-03,
240,-8.00e-04,
241,2.40e-03,
242,2.40e-03,
243,-8.00e-04,
244,2.40e-03,
245,-8.00e-04,
246,-8.00e-04,
247,2.40e-03,
248,-8.00e-04,
249,2.40e-03,
250,1.60e-03,
251,-8.00e-04,
252,2.40e-03,
253,-1.60e-03,
254,2.40e-03,
255,-8.00e-04,
256,2.00e-03,
257,-1.60e-03,
258,1.60e-03,
259,-1.60e-03,
260,1.60e-03,
261,-8.00e-04,
262,-8.00e-04,
263,2.40e-03,
264,-8.00e-04,
265,2.40e-03,
266,2.00e-03,
267,-8.00e-04,
268,1.60e-03,
269,-8.00e-04,
270,-1.60e-03,
271,1.60e-03,
272,8.00e-04,
273,-1.60e-03,
274,1.60e-03,
275,-8.00e-04,
276,-8.00e-04,
277,2.40e-03,
278,2.40e-03,
279,-1.60e-03,
280,-8.00e-04,
281,2.40e-03,
282,2.00e-03,
283,-8.00e-04,
284,-8.00e-04,
285,2.40e-03,
286,-1.60e-03,
287,2.40e-03,
288,-8.00e-04,
289,1.60e-03,
290,0.00e+00,
291,2.40e-03,
292,1.60e-03,
293,-8.00e-04,
294,-8.00e-04,
295,2.40e-03,
296,-1.60e-03,
297,1.60e-03,
298,-8.00e-04,
299,2.40e-03,
300,0.00e+00,
301,2.40e-03,
302,2.40e-03,
303,-1.60e-03,
304,-8.00e-04,
305,2.40e-03,
306,2.00e-03,
307,-1.60e-03,
308,2.40e-03,
309,-1.60e-03,
310,1.60e-03,
311,-8.00e-04,
312,1.60e-03,
313,-1.60e-03,
314,1.60e-03,
315,-8.00e-04,
316,-1.60e-03,
317,3.20e-03,
318,2.00e-03,
319,-8.00e-04,
320,-1.60e-03,
321,1.60e-03,
322,-1.60e-03,
323,2.40e-03,
324,-1.60e-03,
325,2.80e-03,
326,2.40e-03,
327,-3.20e-03,
328,1.60e-03,
329,-2.40e-03,
330,1.20e-03,
331,-1.60e-03,
332,1.60e-03,
333,-1.60e-03,
334,-1.60e-03,
335,1.60e-03,
336,-1.60e-03,
337,1.20e-03,
338,1.60e-03,
339,-2.40e-03,
340,-8.00e-04,
341,2.40e-03,
342,-1.60e-03,
343,2.40e-03,
344,-8.00e-04,
345,2.40e-03,
346,1.60e-03,
347,-8.00e-04,
348,-8.00e-04,
349,2.40e-03,
350,-8.00e-04,
351,3.20e-03,
352,-8.00e-04,
353,2.00e-03,
354,2.00e-03,
355,-8.00e-04,
356,-8.00e-04,
357,2.40e-03,
358,-8.00e-04,
359,2.40e-03,
360,2.40e-03,
361,-8.00e-04,
362,-8.00e-04,
363,2.40e-03,
364,-1.60e-03,
365,2.00e-03,
366,-1.60e-03,
367,3.20e-03,
368,-8.00e-04,
369,1.60e-03,
370,1.60e-03,
371,-1.60e-03,
372,2.40e-03,
373,-1.60e-03,
374,-8.00e-04,
375,2.40e-03,
376,-1.60e-03,
377,1.20e-03,
378,2.80e-03,
379,-8.00e-04,
380,-1.60e-03,
381,1.60e-03,
382,-8.00e-04,
383,1.60e-03,
384,-8.00e-04,
385,2.80e-03,
386,-8.00e-04,
387,2.40e-03,
388,8.00e-04,
389,-1.60e-03,
390,2.40e-03,
391,-2.40e-03,
392,1.60e-03,
393,-8.00e-04,
394,-8.00e-04,
395,1.60e-03,
396,-1.60e-03,
397,1.60e-03,
398,-8.00e-04,
399,2.00e-03,
400,1.60e-03,
401,-8.00e-04,
402,-8.00e-04,
403,2.40e-03,
404,1.60e-03,
405,-1.60e-03,
406,-1.60e-03,
407,2.40e-03,
408,-1.60e-03,
409,2.80e-03,
410,-8.00e-04,
411,2.00e-03,
412,-8.00e-04,
413,1.60e-03,
414,-8.00e-04,
415,2.00e-03,
416,-2.40e-03,
417,2.40e-03,
418,-1.60e-03,
419,2.40e-03,
420,2.80e-03,
421,-1.60e-03,
422,2.40e-03,
423,-8.00e-04,
424,-8.00e-04,
425,2.40e-03,
426,-8.00e-04,
427,3.20e-03,
428,-8.00e-04,
429,2.80e-03,
430,0.00e+00,
431,2.80e-03,
432,2.00e-03,
433,-8.00e-04,
434,0.00e+00,
435,2.00e-03,
436,2.40e-03,
437,-8.00e-04,
438,0.00e+00,
439,2.40e-03,
440,-8.00e-04,
441,2.40e-03,
442,2.00e-03,
443,-8.00e-04,
444,2.40e-03,
445,-8.00e-04,
446,-8.00e-04,
447,2.40e-03,
448,-8.00e-04,
449,2.40e-03,
450,2.80e-03,
451,-8.00e-04,
452,3.20e-03,
453,-1.60e-03,
454,3.20e-03,
455,-8.00e-04,
456,-8.00e-04,
457,2.40e-03,
458,-8.00e-04,
459,2.40e-03,
460,0.00e+00,
461,2.40e-03,
462,-8.00e-04,
463,2.40e-03,
464,1.60e-03,
465,-8.00e-04,
466,-8.00e-04,
467,2.40e-03,
468,0.00e+00,
469,2.40e-03,
470,2.80e-03,
471,-8.00e-04,
472,2.40e-03,
473,-1.60e-03,
474,2.40e-03,
475,-8.00e-04,
476,-8.00e-04,
477,2.40e-03,
478,2.40e-03,
479,-8.00e-04,
480,3.20e-03,
481,0.00e+00,
482,2.00e-03,
483,-8.00e-04,
484,0.00e+00,
485,2.00e-03,
486,2.40e-03,
487,-8.00e-04,
488,2.40e-03,
489,0.00e+00,
490,-8.00e-04,
491,2.40e-03,
492,-8.00e-04,
493,2.40e-03,
494,1.60e-03,
495,-1.60e-03,
496,-8.00e-04,
497,2.40e-03,
498,-8.00e-04,
499,2.40e-03,
500,2.40e-03,
501,-8.00e-04,
502,0.00e+00,
503,2.40e-03,
504,1.60e-03,
505,-8.00e-04,
506,-8.00e-04,
507,1.60e-03,
508,-8.00e-04,
509,2.80e-03,
510,3.20e-03,
511,-8.00e-04,
512,-8.00e-04,
513,2.40e-03,
514,-8.00e-04,
515,2.80e-03,
516,-8.00e-04,
517,3.20e-03,
518,2.40e-03,
519,-8.00e-04,
520,2.40e-03,
521,-8.00e-04,
522,3.20e-03,
523,-8.00e-04,
524,-1.60e-03,
525,2.40e-03,
526,0.00e+00,
527,2.40e-03,
528,2.00e-03,
529,-8.00e-04,
530,-8.00e-04,
531,2.40e-03,
532,2.40e-03,
533,-8.00e-04,
534,2.40e-03,
535,-8.00e-04,
536,-8.00e-04,
537,1.60e-03,
538,-8.00e-04,
539,2.40e-03,
540,2.40e-03,
541,-1.60e-03,
542,2.80e-03,
543,-8.00e-04,
544,-8.00e-04,
545,1.60e-03,
546,2.00e-03,
547,-1.60e-03,
548,-8.00e-04,
549,2.00e-03,
550,0.00e+00,
551,2.40e-03,
552,2.40e-03,
553,-8.00e-04,
554,3.20e-03,
555,-8.00e-04,
556,-8.00e-04,
557,2.80e-03,
558,-8.00e-04,
559,2.80e-03,
560,2.40e-03,
561,-8.00e-04,
562,-8.00e-04,
563,3.60e-03,
564,2.40e-03,
565,-8.00e-04,
566,-8.00e-04,
567,2.40e-03,
568,0.00e+00,
569,2.80e-03,
570,-8.00e-04,
571,2.40e-03,
572,-8.00e-04,
573,2.80e-03,
574,3.20e-03,
575,-8.00e-04,
576,-1.60e-03,
577,2.40e-03,
578,3.20e-03,
579,-8.00e-04,
580,1.60e-03,
581,-1.60e-03,
582,-1.60e-03,
583,2.80e-03,
584,-8.00e-04,
585,2.40e-03,
586,2.40e-03,
587,0.00e+00,
588,0.00e+00,
589,3.20e-03,
590,2.40e-03,
591,-8.00e-04,
592,2.40e-03,
593,-8.00e-04,
594,2.40e-03,
595,-8.00e-04,
596,-8.00e-04,
597,2.80e-03,
598,2.40e-03,
599,-8.00e-04,
600,-1.60e-03,
601,2.40e-03,
602,-8.00e-04,
603,2.00e-03,
604,2.40e-03,
605,-8.00e-04,
606,2.40e-03,
607,-1.60e-03,
608,0.00e+00,
609,2.40e-03,
610,0.00e+00,
611,3.20e-03,
612,3.20e-03,
613,0.00e+00,
614,-8.00e-04,
615,2.40e-03,
616,2.40e-03,
617,-8.00e-04,
618,2.40e-03,
619,-8.00e-04,
620,-8.00e-04,
621,2.40e-03,
622,-8.00e-04,
623,2.40e-03,
624,2.40e-03,
625,-1.60e-03,
626,0.00e+00,
627,2.80e-03,
628,-8.00e-04,
629,2.40e-03,
630,-8.00e-04,
631,2.40e-03,
632,0.00e+00,
633,2.40e-03,
634,2.40e-03,
635,-8.00e-04,
636,2.40e-03,
637,-8.00e-04,
638,2.40e-03,
639,-8.00e-04,
640,2.80e-03,
641,-8.00e-04,
642,-8.00e-04,
643,2.40e-03,
644,-8.00e-04,
645,4.00e-03,
646,-8.00e-04,
647,3.20e-03,
648,2.40e-03,
649,-8.00e-04,
650,2.40e-03,
651,-8.00e-04,
652,1.60e-03,
653,-8.00e-04,
654,1.60e-03,
655,-8.00e-04,
656,0.00e+00,
657,2.80e-03,
658,2.40e-03,
659,0.00e+00,
660,-1.60e-03,
661,3.20e-03,
662,0.00e+00,
663,3.20e-03,
664,2.40e-03,
665,-8.00e-04,
666,3.20e-03,
667,-8.00e-04,
668,2.00e-03,
669,-8.00e-04,
670,2.40e-03,
671,-2.40e-03,
672,2.40e-03,
673,-8.00e-04,
674,2.00e-03,
675,-8.00e-04,
676,-8.00e-04,
677,2.40e-03,
678,-1.60e-03,
679,3.20e-03,
680,2.40e-03,
681,-8.00e-04,
682,1.60e-03,
683,-1.60e-03,
684,-8.00e-04,
685,2.40e-03,
686,2.00e-03,
687,-1.60e-03,
688,-1.60e-03,
689,2.40e-03,
690,2.40e-03,
691,-8.00e-04,
692,1.60e-03,
693,-8.00e-04,
694,1.60e-03,
695,-8.00e-04,
696,3.60e-03,
697,-1.60e-03,
698,-1.60e-03,
699,2.40e-03,
700,2.40e-03,
701,-1.60e-03,
702,2.40e-03,
703,-1.20e-03,
704,-8.00e-04,
705,2.40e-03,
706,2.80e-03,
707,-1.60e-03,
708,2.40e-03,
709,-1.60e-03,
710,-8.00e-04,
711,2.40e-03,
712,2.40e-03,
713,-8.00e-04,
714,2.40e-03,
715,-1.60e-03,
716,2.40e-03,
717,-1.60e-03,
718,2.40e-03,
719,-2.40e-03,
720,2.40e-03,
721,-8.00e-04,
722,-8.00e-04,
723,2.40e-03,
724,-8.00e-04,
725,2.40e-03,
726,2.00e-03,
727,-8.00e-04,
728,2.40e-03,
729,0.00e+00,
730,-2.40e-03,
731,3.20e-03,
732,-8.00e-04,
733,3.20e-03,
734,0.00e+00,
735,2.40e-03,
736,-1.60e-03,
737,3.20e-03,
738,2.40e-03,
739,-8.00e-04,
740,-8.00e-04,
741,2.00e-03,
742,2.80e-03,
743,-8.00e-04,
744,-1.60e-03,
745,2.40e-03,
746,-8.00e-04,
747,2.40e-03,
748,-1.60e-03,
749,2.40e-03,
750,-8.00e-04,
751,2.40e-03,
752,2.40e-03,
753,-8.00e-04,
754,-8.00e-04,
755,1.60e-03,
756,0.00e+00,
757,2.40e-03,
758,-8.00e-04,
759,2.40e-03,
760,-8.00e-04,
761,1.60e-03,
762,-2.40e-03,
763,3.20e-03,
764,-8.00e-04,
765,3.20e-03,
766,-2.40e-03,
767,2.00e-03,
768,2.40e-03,
769,-8.00e-04,
770,2.40e-03,
771,-1.60e-03,
772,0.00e+00,
773,2.40e-03,
774,1.60e-03,
775,-1.60e-03,
776,-1.60e-03,
777,2.00e-03,
778,2.40e-03,
779,-8.00e-04,
780,2.40e-03,
781,-1.60e-03,
782,1.60e-03,
783,-8.00e-04,
784,0.00e+00,
785,2.40e-03,
786,2.40e-03,
787,-8.00e-04,
788,-8.00e-04,
789,2.40e-03,
790,2.40e-03,
791,-8.00e-04,
792,-8.00e-04,
793,2.40e-03,
794,0.00e+00,
795,2.40e-03,
796,2.00e-03,
797,-8.00e-04,
798,2.40e-03,
799,-1.60e-03,
800,-8.00e-04,
801,2.40e-03,
802,-8.00e-04,
803,2.00e-03,
804,-2.40e-03,
805,2.40e-03,
806,-1.60e-03,
807,2.00e-03,
808,-8.00e-04,
809,2.40e-03,
810,2.40e-03,
811,-1.60e-03,
812,1.60e-03,
813,-1.60e-03,
814,2.40e-03,
815,-8.00e-04,
816,-8.00e-04,
817,2.40e-03,
818,2.40e-03,
819,-8.00e-04,
820,1.60e-03,
821,-1.60e-03,
822,0.00e+00,
823,2.40e-03,
824,1.60e-03,
825,-1.60e-03,
826,1.60e-03,
827,-1.60e-03,
828,2.40e-03,
829,-1.60e-03,
830,1.60e-03,
831,-8.00e-04,
832,2.00e-03,
833,-1.60e-03,
834,-8.00e-04,
835,1.60e-03,
836,2.00e-03,
837,-1.60e-03,
838,-8.00e-04,
839,2.80e-03,
840,2.40e-03,
841,-8.00e-04,
842,3.20e-03,
843,-8.00e-04,
844,-8.00e-04,
845,2.40e-03,
846,-8.00e-04,
847,3.20e-03,
848,3.20e-03,
849,-1.60e-03,
850,-8.00e-04,
851,2.40e-03,
852,-8.00e-04,
853,2.80e-03,
854,-8.00e-04,
855,3.20e-03,
856,3.20e-03,
857,-8.00e-04,
858,0.00e+00,
859,3.20e-03,
860,3.60e-03,
861,-8.00e-04,
862,2.40e-03,
863,0.00e+00,
864,-8.00e-04,
865,3.20e-03,
866,2.40e-03,
867,-8.00e-04,
868,2.40e-03,
869,-8.00e-04,
870,2.40e-03,
871,-8.00e-04,
872,2.40e-03,
873,-8.00e-04,
874,2.40e-03,
875,-1.60e-03,
876,0.00e+00,
877,2.80e-03,
878,-8.00e-04,
879,3.20e-03,
880,0.00e+00,
881,2.80e-03,
882,-1.60e-03,
883,2.40e-03,
884,2.40e-03,
885,-1.60e-03,
886,-8.00e-04,
887,1.60e-03,
888,3.20e-03,
889,-8.00e-04,
890,2.00e-03,
891,-8.00e-04,
892,-8.00e-04,
893,1.60e-03,
894,-8.00e-04,
895,2.40e-03,
896,0.00e+00,
897,2.40e-03,
898,-8.00e-04,
899,2.40e-03,
900,-8.00e-04,
901,2.00e-03,
902,2.40e-03,
903,-8.00e-04,
904,3.20e-03,
905,-8.00e-04,
906,-8.00e-04,
907,3.20e-03,
908,-1.60e-03,
909,3.20e-03,
910,2.40e-03,
911,-4.00e-04,
912,2.40e-03,
913,-8.00e-04,
914,-8.00e-04,
915,2.40e-03,
916,-8.00e-04,
917,2.00e-03,
918,2.40e-03,
919,-8.00e-04,
920,-2.40e-03,
921,2.40e-03,
922,-8.00e-04,
923,3.20e-03,
924,2.80e-03,
925,-8.00e-04,
926,-8.00e-04,
927,2.40e-03,
928,-1.60e-03,
929,2.40e-03,
930,1.60e-03,
931,-1.60e-03,
932,-1.60e-03,
933,1.60e-03,
934,1.60e-03,
935,-1.60e-03,
936,-1.60e-03,
937,2.00e-03,
938,-8.00e-04,
939,2.40e-03,
940,2.40e-03,
941,-8.00e-04,
942,1.60e-03,
943,-1.60e-03,
944,1.60e-03,
945,-8.00e-04,
946,-8.00e-04,
947,1.60e-03,
948,2.00e-03,
949,-2.40e-03,
950,0.00e+00,
951,1.60e-03,
952,2.40e-03,
953,-8.00e-04,
954,-8.00e-04,
955,2.40e-03,
956,2.40e-03,
957,-1.60e-03,
958,-8.00e-04,
959,1.60e-03,
960,2.40e-03,
961,-8.00e-04,
962,-8.00e-04,
963,3.20e-03,
964,-2.40e-03,
965,2.40e-03,
966,2.40e-03,
967,-8.00e-04,
968,-8.00e-04,
969,2.40e-03,
970,-8.00e-04,
971,2.00e-03,
972,-8.00e-04,
973,2.80e-03,
974,-8.00e-04,
975,2.40e-03,
976,1.60e-03,
977,-8.00e-04,
978,2.00e-03,
979,-8.00e-04,
980,-8.00e-04,
981,2.40e-03,
982,2.40e-03,
983,-1.60e-03,
984,-8.00e-04,
985,2.40e-03,
986,2.40e-03,
987,-8.00e-04,
988,2.40e-03,
989,-8.00e-04,
990,-8.00e-04,
991,2.80e-03,
992,1.60e-03,
993,-8.00e-04,
994,2.40e-03,
995,-8.00e-04,
996,-8.00e-04,
997,2.00e-03,
998,-1.60e-03,
999,2.80e-03,
1000,-8.00e-04,
1001,2.40e-03,
1002,-1.60e-03,
1003,1.60e-03,
1004,-8.00e-04,
1005,2.40e-03,
1006,2.40e-03,
1007,-1.60e-03,
1008,2.40e-03,
1009,-8.00e-04,
1010,-8.00e-04,
1011,2.40e-03,
1012,1.60e-03,
1013,-8.00e-04,
1014,-8.00e-04,
1015,2.00e-03,
1016,-1.60e-03,
1017,2.40e-03,
1018,-1.60e-03,
1019,2.40e-03,
1020,-8.00e-04,
1021,2.40e-03,
1022,1.60e-03,
1023,-1.60e-03,
1024,-8.00e-04,
1025,2.40e-03,
1026,-8.00e-04,
1027,2.40e-03,
1028,-8.00e-04,
1029,2.00e-03,
1030,2.40e-03,
1031,-8.00e-04,
1032,2.40e-03,
1033,0.00e+00,
1034,-8.00e-04,
1035,3.20e-03,
1036,-8.00e-04,
1037,3.20e-03,
1038,3.20e-03,
1039,-8.00e-04,
1040,2.40e-03,
1041,-8.00e-04,
1042,2.40e-03,
1043,-8.00e-04,
1044,-8.00e-04,
1045,3.20e-03,
1046,-1.60e-03,
1047,3.20e-03,
1048,1.60e-03,
1049,-8.00e-04,
1050,-8.00e-04,
1051,3.20e-03,
1052,-1.60e-03,
1053,3.20e-03,
1054,1.60e-03,
1055,-8.00e-04,
1056,2.40e-03,
1057,-8.00e-04,
1058,-8.00e-04,
1059,2.00e-03,
1060,1.60e-03,
1061,-1.60e-03,
1062,-1.60e-03,
1063,2.40e-03,
1064,2.00e-03,
1065,-1.60e-03,
1066,-1.60e-03,
1067,2.40e-03,
1068,-1.60e-03,
1069,4.00e-03,
1070,-8.00e-04,
1071,2.40e-03,
1072,1.60e-03,
1073,-8.00e-04,
1074,-8.00e-04,
1075,1.60e-03,
1076,-8.00e-04,
1077,1.60e-03,
1078,2.40e-03,
1079,-1.60e-03,
1080,-1.60e-03,
1081,2.40e-03,
1082,-1.60e-03,
1083,2.40e-03,
1084,-1.60e-03,
1085,2.40e-03,
1086,-1.60e-03,
1087,2.40e-03,
1088,1.60e-03,
1089,-1.60e-03,
1090,-1.60e-03,
1091,2.00e-03,
1092,8.00e-04,
1093,-1.60e-03,
1094,-8.00e-04,
1095,2.00e-03,
1096,-1.60e-03,
1097,1.60e-03,
1098,1.60e-03,
1099,-1.60e-03,
1100,-1.60e-03,
1101,1.20e-03,
1102,-1.60e-03,
1103,1.60e-03,
1104,-8.00e-04,
1105,1.60e-03,
1106,1.60e-03,
1107,-1.60e-03,
1108,1.60e-03,
1109,-1.60e-03,
1110,-1.60e-03,
1111,2.40e-03,
1112,-8.00e-04,
1113,1.60e-03,
1114,1.60e-03,
1115,-1.60e-03,
1116,-1.60e-03,
1117,1.60e-03,
1118,-1.60e-03,
1119,1.60e-03,
1120,1.60e-03,
1121,-2.40e-03,
1122,-1.60e-03,
1123,1.60e-03,
1124,-1.60e-03,
1125,1.60e-03,
1126,-8.00e-04,
1127,1.60e-03,
1128,-1.60e-03,
1129,2.40e-03,
1130,-1.60e-03,
1131,1.60e-03,
1132,1.60e-03,
1133,-1.60e-03,
1134,1.60e-03,
1135,-1.60e-03,
1136,-1.60e-03,
1137,1.60e-03,
1138,-8.00e-04,
1139,2.40e-03,
1140,-1.60e-03,
1141,1.20e-03,
1142,-1.60e-03,
1143,1.60e-03,
1144,-1.60e-03,
1145,1.20e-03,
1146,-1.60e-03,
1147,1.60e-03,
1148,-1.60e-03,
1149,1.60e-03,
1150,-2.40e-03,
1151,2.40e-03,
1152,-2.40e-03,
1153,2.00e-03,
1154,-1.60e-03,
1155,1.60e-03,
1156,-1.60e-03,
1157,1.60e-03,
1158,8.00e-04,
1159,-1.60e-03,
1160,-1.60e-03,
1161,1.60e-03,
1162,-8.00e-04,
1163,2.00e-03,
1164,1.60e-03,
1165,-1.20e-03,
1166,1.20e-03,
1167,-1.60e-03,
1168,2.40e-03,
1169,-2.40e-03,
1170,-1.60e-03,
1171,2.40e-03,
1172,2.80e-03,
1173,-2.40e-03,
1174,1.60e-03,
1175,-2.40e-03,
1176,1.60e-03,
1177,-1.60e-03,
1178,-8.00e-04,
1179,1.60e-03,
1180,1.60e-03,
1181,-2.40e-03,
1182,-1.60e-03,
1183,2.40e-03,
1184,1.60e-03,
1185,-8.00e-04,
1186,-8.00e-04,
1187,2.40e-03,
1188,1.20e-03,
1189,-1.60e-03,
1190,-2.40e-03,
1191,2.00e-03,
1192,-1.60e-03,
1193,1.60e-03,
1194,-1.60e-03,
1195,1.20e-03,
1196,1.60e-03,
1197,-1.60e-03,
1198,2.00e-03,
1199,-1.60e-03,
