fastdiffamp/data-noise-set/5th/NewFile5.csv

X,CH1,Start,Increment,
Sequence,Volt,-1.200000e-02,2.000000e-05
0,-1.60e-03,
1,2.40e-03,
2,2.40e-03,
3,-1.60e-03,
4,2.40e-03,
5,-1.60e-03,
6,1.60e-03,
7,-3.20e-03,
8,1.20e-03,
9,-2.40e-03,
10,8.00e-04,
11,-2.40e-03,
12,2.40e-03,
13,-2.40e-03,
14,2.00e-03,
15,-1.60e-03,
16,-1.60e-03,
17,1.60e-03,
18,-1.60e-03,
19,2.40e-03,
20,2.80e-03,
21,-1.60e-03,
22,-1.60e-03,
23,1.60e-03,
24,3.20e-03,
25,-2.40e-03,
26,-1.60e-03,
27,1.60e-03,
28,-1.60e-03,
29,2.40e-03,
30,1.60e-03,
31,-1.60e-03,
32,-8.00e-04,
33,2.40e-03,
34,2.40e-03,
35,-2.40e-03,
36,-1.60e-03,
37,2.40e-03,
38,3.20e-03,
39,-2.40e-03,
40,-2.40e-03,
41,2.00e-03,
42,-8.00e-04,
43,2.00e-03,
44,-1.60e-03,
45,2.40e-03,
46,1.60e-03,
47,-1.60e-03,
48,2.40e-03,
49,-1.60e-03,
50,-1.60e-03,
51,2.40e-03,
52,1.60e-03,
53,-1.60e-03,
54,-1.60e-03,
55,1.20e-03,
56,2.40e-03,
57,-1.60e-03,
58,1.60e-03,
59,-2.40e-03,
60,-2.40e-03,
61,2.00e-03,
62,2.00e-03,
63,-1.60e-03,
64,-1.60e-03,
65,2.40e-03,
66,-1.60e-03,
67,1.60e-03,
68,3.20e-03,
69,-1.60e-03,
70,-2.40e-03,
71,1.60e-03,
72,-1.60e-03,
73,1.60e-03,
74,-2.40e-03,
75,1.60e-03,
76,-1.60e-03,
77,1.60e-03,
78,-1.60e-03,
79,2.40e-03,
80,2.40e-03,
81,-1.60e-03,
82,2.40e-03,
83,-3.20e-03,
84,2.40e-03,
85,-1.60e-03,
86,2.40e-03,
87,-8.00e-04,
88,-1.60e-03,
89,2.40e-03,
90,2.40e-03,
91,-8.00e-04,
92,2.40e-03,
93,-2.40e-03,
94,2.40e-03,
95,-2.40e-03,
96,1.60e-03,
97,-1.60e-03,
98,1.60e-03,
99,-2.40e-03,
100,-8.00e-04,
101,1.20e-03,
102,-1.60e-03,
103,3.20e-03,
104,-8.00e-04,
105,1.60e-03,
106,-8.00e-04,
107,2.00e-03,
108,-8.00e-04,
109,3.20e-03,
110,-8.00e-04,
111,1.60e-03,
112,-1.60e-03,
113,2.40e-03,
114,-1.60e-03,
115,2.40e-03,
116,2.40e-03,
117,-1.60e-03,
118,-1.60e-03,
119,3.20e-03,
120,2.00e-03,
121,-2.40e-03,
122,-1.60e-03,
123,2.40e-03,
124,-1.60e-03,
125,3.20e-03,
126,-1.60e-03,
127,2.40e-03,
128,-8.00e-04,
129,2.40e-03,
130,-8.00e-04,
131,2.40e-03,
132,2.40e-03,
133,-1.60e-03,
134,1.60e-03,
135,-1.60e-03,
136,-8.00e-04,
137,2.40e-03,
138,3.20e-03,
139,-8.00e-04,
140,-8.00e-04,
141,2.40e-03,
142,1.60e-03,
143,-1.60e-03,
144,-1.60e-03,
145,2.00e-03,
146,-1.20e-03,
147,2.40e-03,
148,-8.00e-04,
149,2.40e-03,
150,2.40e-03,
151,-1.60e-03,
152,2.80e-03,
153,-1.60e-03,
154,2.40e-03,
155,-8.00e-04,
156,-8.00e-04,
157,2.40e-03,
158,-8.00e-04,
159,2.40e-03,
160,2.40e-03,
161,-1.60e-03,
162,-1.60e-03,
163,2.40e-03,
164,-1.60e-03,
165,2.80e-03,
166,-8.00e-04,
167,3.20e-03,
168,-8.00e-04,
169,2.80e-03,
170,-8.00e-04,
171,2.40e-03,
172,-8.00e-04,
173,3.20e-03,
174,2.80e-03,
175,-8.00e-04,
176,-8.00e-04,
177,3.20e-03,
178,-1.60e-03,
179,1.60e-03,
180,-8.00e-04,
181,2.40e-03,
182,-1.60e-03,
183,4.00e-03,
184,2.40e-03,
185,-1.60e-03,
186,-8.00e-04,
187,2.40e-03,
188,-8.00e-04,
189,3.20e-03,
190,2.40e-03,
191,-8.00e-04,
192,-2.40e-03,
193,2.40e-03,
194,-8.00e-04,
195,3.20e-03,
196,0.00e+00,
197,3.20e-03,
198,2.80e-03,
199,-1.60e-03,
200,-8.00e-04,
201,3.20e-03,
202,2.80e-03,
203,-8.00e-04,
204,-1.60e-03,
205,3.20e-03,
206,2.40e-03,
207,-1.60e-03,
208,-8.00e-04,
209,3.20e-03,
210,0.00e+00,
211,4.00e-03,
212,3.20e-03,
213,0.00e+00,
214,-8.00e-04,
215,3.20e-03,
216,2.80e-03,
217,-8.00e-04,
218,2.40e-03,
219,-8.00e-04,
220,2.40e-03,
221,-8.00e-04,
222,3.20e-03,
223,-8.00e-04,
224,0.00e+00,
225,3.20e-03,
226,1.60e-03,
227,-1.60e-03,
228,2.40e-03,
229,-1.60e-03,
230,-1.60e-03,
231,2.40e-03,
232,-1.60e-03,
233,2.40e-03,
234,-1.60e-03,
235,2.40e-03,
236,3.20e-03,
237,-8.00e-04,
238,-1.60e-03,
239,2.00e-03,
240,-8.00e-04,
241,3.20e-03,
242,-1.60e-03,
243,2.40e-03,
244,2.40e-03,
245,-1.60e-03,
246,2.40e-03,
247,-8.00e-04,
248,-8.00e-04,
249,2.40e-03,
250,-2.40e-03,
251,2.40e-03,
252,2.40e-03,
253,-2.40e-03,
254,-2.40e-03,
255,3.20e-03,
256,2.40e-03,
257,-8.00e-04,
258,-8.00e-04,
259,2.40e-03,
260,-8.00e-04,
261,1.60e-03,
262,-8.00e-04,
263,2.40e-03,
264,2.40e-03,
265,-1.60e-03,
266,3.20e-03,
267,-8.00e-04,
268,2.40e-03,
269,-1.60e-03,
270,-8.00e-04,
271,3.20e-03,
272,3.20e-03,
273,-2.40e-03,
274,-1.60e-03,
275,2.40e-03,
276,-8.00e-04,
277,2.40e-03,
278,-2.40e-03,
279,2.40e-03,
280,2.40e-03,
281,-8.00e-04,
282,2.80e-03,
283,-8.00e-04,
284,3.20e-03,
285,-1.60e-03,
286,-8.00e-04,
287,2.40e-03,
288,-1.60e-03,
289,2.40e-03,
290,-8.00e-04,
291,3.20e-03,
292,-1.60e-03,
293,3.20e-03,
294,-1.20e-03,
295,2.40e-03,
296,1.60e-03,
297,-1.60e-03,
298,-2.40e-03,
299,1.60e-03,
300,0.00e+00,
301,3.20e-03,
302,2.40e-03,
303,-8.00e-04,
304,-1.60e-03,
305,2.40e-03,
306,2.40e-03,
307,-8.00e-04,
308,3.20e-03,
309,-1.60e-03,
310,-1.60e-03,
311,2.40e-03,
312,-1.60e-03,
313,3.20e-03,
314,-8.00e-04,
315,2.80e-03,
316,2.40e-03,
317,-2.40e-03,
318,-1.60e-03,
319,2.40e-03,
320,2.40e-03,
321,-1.60e-03,
322,-8.00e-04,
323,3.20e-03,
324,-8.00e-04,
325,3.20e-03,
326,-1.60e-03,
327,1.60e-03,
328,-3.20e-03,
329,3.20e-03,
330,2.40e-03,
331,-1.60e-03,
332,2.40e-03,
333,-1.60e-03,
334,2.00e-03,
335,-1.60e-03,
336,-8.00e-04,
337,3.20e-03,
338,2.40e-03,
339,-2.40e-03,
340,-1.60e-03,
341,2.40e-03,
342,-1.60e-03,
343,2.40e-03,
344,-8.00e-04,
345,2.40e-03,
346,2.40e-03,
347,0.00e+00,
348,-1.60e-03,
349,3.20e-03,
350,-8.00e-04,
351,2.40e-03,
352,3.20e-03,
353,-8.00e-04,
354,-8.00e-04,
355,3.20e-03,
356,3.20e-03,
357,-8.00e-04,
358,2.40e-03,
359,-1.60e-03,
360,1.60e-03,
361,-8.00e-04,
362,-1.60e-03,
363,2.80e-03,
364,3.20e-03,
365,-8.00e-04,
366,3.20e-03,
367,-8.00e-04,
368,0.00e+00,
369,2.40e-03,
370,2.40e-03,
371,-8.00e-04,
372,-8.00e-04,
373,2.40e-03,
374,2.40e-03,
375,-1.60e-03,
376,3.20e-03,
377,-1.60e-03,
378,-8.00e-04,
379,2.40e-03,
380,2.40e-03,
381,-8.00e-04,
382,2.40e-03,
383,-8.00e-04,
384,2.40e-03,
385,0.00e+00,
386,3.20e-03,
387,-8.00e-04,
388,-1.60e-03,
389,2.80e-03,
390,-8.00e-04,
391,2.40e-03,
392,-1.60e-03,
393,2.40e-03,
394,-8.00e-04,
395,2.40e-03,
396,2.40e-03,
397,-1.60e-03,
398,2.40e-03,
399,-1.60e-03,
400,-8.00e-04,
401,2.40e-03,
402,-8.00e-04,
403,2.00e-03,
404,-1.60e-03,
405,2.80e-03,
406,3.20e-03,
407,-1.60e-03,
408,-8.00e-04,
409,2.40e-03,
410,-2.40e-03,
411,2.40e-03,
412,3.20e-03,
413,-8.00e-04,
414,2.40e-03,
415,-8.00e-04,
416,-8.00e-04,
417,3.20e-03,
418,2.40e-03,
419,-8.00e-04,
420,3.20e-03,
421,-1.60e-03,
422,-1.60e-03,
423,2.40e-03,
424,-1.60e-03,
425,2.40e-03,
426,2.40e-03,
427,-1.60e-03,
428,-1.60e-03,
429,2.40e-03,
430,-8.00e-04,
431,3.20e-03,
432,-8.00e-04,
433,1.60e-03,
434,-1.60e-03,
435,2.00e-03,
436,-1.60e-03,
437,2.00e-03,
438,-8.00e-04,
439,2.80e-03,
440,2.40e-03,
441,-8.00e-04,
442,-1.60e-03,
443,2.40e-03,
444,-8.00e-04,
445,3.20e-03,
446,2.40e-03,
447,-8.00e-04,
448,2.40e-03,
449,-1.60e-03,
450,3.20e-03,
451,-8.00e-04,
452,2.80e-03,
453,-1.60e-03,
454,2.40e-03,
455,-2.40e-03,
456,-8.00e-04,
457,2.40e-03,
458,-1.60e-03,
459,2.40e-03,
460,0.00e+00,
461,3.20e-03,
462,2.40e-03,
463,-8.00e-04,
464,-8.00e-04,
465,3.20e-03,
466,-8.00e-04,
467,4.00e-03,
468,2.40e-03,
469,-8.00e-04,
470,-1.20e-03,
471,2.40e-03,
472,2.40e-03,
473,-8.00e-04,
474,2.80e-03,
475,-8.00e-04,
476,3.20e-03,
477,-8.00e-04,
478,-8.00e-04,
479,2.40e-03,
480,0.00e+00,
481,3.20e-03,
482,0.00e+00,
483,2.40e-03,
484,-1.60e-03,
485,2.40e-03,
486,2.40e-03,
487,-8.00e-04,
488,3.20e-03,
489,-8.00e-04,
490,-8.00e-04,
491,2.00e-03,
492,0.00e+00,
493,2.40e-03,
494,-8.00e-04,
495,3.20e-03,
496,3.20e-03,
497,-8.00e-04,
498,2.40e-03,
499,-1.60e-03,
500,0.00e+00,
501,2.40e-03,
502,2.40e-03,
503,-8.00e-04,
504,-8.00e-04,
505,2.40e-03,
506,-8.00e-04,
507,2.80e-03,
508,2.40e-03,
509,0.00e+00,
510,2.40e-03,
511,-1.60e-03,
512,-8.00e-04,
513,3.20e-03,
514,2.40e-03,
515,-1.60e-03,
516,3.20e-03,
517,-1.60e-03,
518,0.00e+00,
519,3.20e-03,
520,-1.60e-03,
521,3.20e-03,
522,-8.00e-04,
523,2.40e-03,
524,3.20e-03,
525,-1.60e-03,
526,3.20e-03,
527,-8.00e-04,
528,-8.00e-04,
529,2.40e-03,
530,3.20e-03,
531,-2.40e-03,
532,2.80e-03,
533,-1.60e-03,
534,-1.60e-03,
535,2.40e-03,
536,-8.00e-04,
537,2.40e-03,
538,3.20e-03,
539,-1.60e-03,
540,-1.60e-03,
541,4.00e-03,
542,3.20e-03,
543,-8.00e-04,
544,1.60e-03,
545,-1.60e-03,
546,-8.00e-04,
547,2.00e-03,
548,-8.00e-04,
549,3.20e-03,
550,3.20e-03,
551,-1.60e-03,
552,1.60e-03,
553,-1.60e-03,
554,-1.60e-03,
555,2.40e-03,
556,3.20e-03,
557,-8.00e-04,
558,2.00e-03,
559,-2.40e-03,
560,-1.60e-03,
561,3.20e-03,
562,4.00e-03,
563,-1.60e-03,
564,-2.40e-03,
565,2.40e-03,
566,-8.00e-04,
567,2.40e-03,
568,-8.00e-04,
569,3.20e-03,
570,2.40e-03,
571,-1.60e-03,
572,3.20e-03,
573,-1.60e-03,
574,2.80e-03,
575,-8.00e-04,
576,0.00e+00,
577,2.40e-03,
578,-8.00e-04,
579,3.20e-03,
580,-8.00e-04,
581,3.20e-03,
582,0.00e+00,
583,2.40e-03,
584,3.20e-03,
585,0.00e+00,
586,-8.00e-04,
587,2.40e-03,
588,2.80e-03,
589,-1.60e-03,
590,-1.60e-03,
591,2.40e-03,
592,4.00e-03,
593,-8.00e-04,
594,3.20e-03,
595,-8.00e-04,
596,0.00e+00,
597,2.80e-03,
598,2.40e-03,
599,-8.00e-04,
600,-8.00e-04,
601,2.40e-03,
602,-8.00e-04,
603,3.20e-03,
604,2.40e-03,
605,0.00e+00,
606,0.00e+00,
607,2.40e-03,
608,3.20e-03,
609,0.00e+00,
610,2.40e-03,
611,-1.60e-03,
612,4.00e-03,
613,-1.60e-03,
614,-8.00e-04,
615,4.00e-03,
616,-8.00e-04,
617,3.20e-03,
618,3.20e-03,
619,-1.60e-03,
620,-8.00e-04,
621,2.80e-03,
622,3.20e-03,
623,0.00e+00,
624,3.20e-03,
625,-4.00e-04,
626,-1.60e-03,
627,2.40e-03,
628,2.40e-03,
629,-8.00e-04,
630,-8.00e-04,
631,4.00e-03,
632,-8.00e-04,
633,2.40e-03,
634,2.40e-03,
635,-8.00e-04,
636,-8.00e-04,
637,2.40e-03,
638,-8.00e-04,
639,2.80e-03,
640,2.80e-03,
641,-8.00e-04,
642,-1.60e-03,
643,4.00e-03,
644,-1.60e-03,
645,3.20e-03,
646,-1.60e-03,
647,3.20e-03,
648,3.20e-03,
649,-1.60e-03,
650,3.20e-03,
651,-1.60e-03,
652,3.20e-03,
653,-1.60e-03,
654,3.20e-03,
655,-8.00e-04,
656,0.00e+00,
657,3.20e-03,
658,4.00e-03,
659,-8.00e-04,
660,3.60e-03,
661,-1.60e-03,
662,2.40e-03,
663,-8.00e-04,
664,3.20e-03,
665,-8.00e-04,
666,3.20e-03,
667,-8.00e-04,
668,2.40e-03,
669,-1.60e-03,
670,-8.00e-04,
671,2.40e-03,
672,2.40e-03,
673,-4.00e-04,
674,-8.00e-04,
675,2.40e-03,
676,0.00e+00,
677,2.40e-03,
678,-8.00e-04,
679,1.60e-03,
680,-1.60e-03,
681,2.00e-03,
682,3.20e-03,
683,-1.60e-03,
684,1.60e-03,
685,-1.60e-03,
686,-1.60e-03,
687,2.40e-03,
688,2.40e-03,
689,-1.60e-03,
690,2.40e-03,
691,-2.40e-03,
692,-2.40e-03,
693,2.00e-03,
694,-1.60e-03,
695,1.60e-03,
696,-1.60e-03,
697,2.40e-03,
698,-1.60e-03,
699,1.60e-03,
700,-8.00e-04,
701,2.80e-03,
702,2.40e-03,
703,-8.00e-04,
704,-1.60e-03,
705,2.80e-03,
706,-1.60e-03,
707,2.40e-03,
708,1.60e-03,
709,-8.00e-04,
710,2.00e-03,
711,-1.60e-03,
712,-1.60e-03,
713,2.40e-03,
714,2.40e-03,
715,-1.60e-03,
716,-1.60e-03,
717,1.60e-03,
718,-1.60e-03,
719,3.20e-03,
720,2.40e-03,
721,-2.40e-03,
722,-1.60e-03,
723,3.20e-03,
724,-1.60e-03,
725,2.40e-03,
726,-1.60e-03,
727,3.20e-03,
728,2.40e-03,
729,-8.00e-04,
730,2.40e-03,
731,-1.20e-03,
732,-1.60e-03,
733,1.60e-03,
734,2.40e-03,
735,-1.60e-03,
736,1.60e-03,
737,-1.60e-03,
738,-8.00e-04,
739,1.60e-03,
740,2.00e-03,
741,-1.60e-03,
742,0.00e+00,
743,2.40e-03,
744,-8.00e-04,
745,2.40e-03,
746,-8.00e-04,
747,2.00e-03,
748,-8.00e-04,
749,2.40e-03,
750,2.40e-03,
751,-1.60e-03,
752,-1.60e-03,
753,2.40e-03,
754,-8.00e-04,
755,2.40e-03,
756,1.60e-03,
757,-1.60e-03,
758,-1.60e-03,
759,1.60e-03,
760,-1.60e-03,
761,2.40e-03,
762,2.00e-03,
763,-2.40e-03,
764,-2.40e-03,
765,2.80e-03,
766,1.60e-03,
767,-2.40e-03,
768,-1.60e-03,
769,2.00e-03,
770,-1.60e-03,
771,2.40e-03,
772,2.40e-03,
773,-8.00e-04,
774,1.60e-03,
775,-1.60e-03,
776,-2.40e-03,
777,1.60e-03,
778,2.40e-03,
779,-8.00e-04,
780,2.40e-03,
781,-1.60e-03,
782,1.60e-03,
783,-8.00e-04,
784,-1.60e-03,
785,3.20e-03,
786,3.20e-03,
787,-1.60e-03,
788,-8.00e-04,
789,2.40e-03,
790,3.20e-03,
791,-8.00e-04,
792,-8.00e-04,
793,2.80e-03,
794,3.20e-03,
795,-1.60e-03,
796,-1.60e-03,
797,3.20e-03,
798,2.80e-03,
799,-1.60e-03,
800,-8.00e-04,
801,2.40e-03,
802,-1.60e-03,
803,2.80e-03,
804,3.20e-03,
805,-8.00e-04,
806,-8.00e-04,
807,1.60e-03,
808,-8.00e-04,
809,1.60e-03,
810,1.60e-03,
811,-2.40e-03,
812,1.60e-03,
813,-2.40e-03,
814,2.40e-03,
815,-2.40e-03,
816,-2.40e-03,
817,2.40e-03,
818,1.60e-03,
819,-8.00e-04,
820,1.60e-03,
821,-2.40e-03,
822,-1.60e-03,
823,2.40e-03,
824,-8.00e-04,
825,2.40e-03,
826,-1.60e-03,
827,1.60e-03,
828,2.40e-03,
829,-2.40e-03,
830,1.60e-03,
831,-1.60e-03,
832,3.20e-03,
833,-1.60e-03,
834,2.40e-03,
835,-1.60e-03,
836,2.80e-03,
837,-1.60e-03,
838,-2.40e-03,
839,2.40e-03,
840,-2.40e-03,
841,2.40e-03,
842,1.60e-03,
843,-2.40e-03,
844,-1.60e-03,
845,1.60e-03,
846,1.60e-03,
847,-2.00e-03,
848,2.40e-03,
849,-8.00e-04,
850,-1.60e-03,
851,1.60e-03,
852,2.40e-03,
853,-1.60e-03,
854,-2.00e-03,
855,1.60e-03,
856,2.40e-03,
857,-2.80e-03,
858,-2.40e-03,
859,2.00e-03,
860,-2.40e-03,
861,2.40e-03,
862,1.60e-03,
863,-2.40e-03,
864,-1.60e-03,
865,2.00e-03,
866,-1.60e-03,
867,1.60e-03,
868,-1.60e-03,
869,2.40e-03,
870,2.40e-03,
871,-1.60e-03,
872,-8.00e-04,
873,2.00e-03,
874,-8.00e-04,
875,2.40e-03,
876,1.60e-03,
877,-1.60e-03,
878,-8.00e-04,
879,1.60e-03,
880,2.40e-03,
881,-2.40e-03,
882,-1.60e-03,
883,2.40e-03,
884,2.40e-03,
885,-1.60e-03,
886,1.60e-03,
887,-1.60e-03,
888,1.60e-03,
889,-1.60e-03,
890,-1.60e-03,
891,3.20e-03,
892,-2.40e-03,
893,3.20e-03,
894,1.60e-03,
895,-2.40e-03,
896,-1.60e-03,
897,3.20e-03,
898,1.60e-03,
899,-2.40e-03,
900,2.00e-03,
901,-2.40e-03,
902,2.40e-03,
903,-2.40e-03,
904,-1.60e-03,
905,1.60e-03,
906,1.60e-03,
907,-1.60e-03,
908,-1.60e-03,
909,2.80e-03,
910,2.40e-03,
911,-2.40e-03,
912,1.60e-03,
913,-1.60e-03,
914,1.60e-03,
915,-3.20e-03,
916,-8.00e-04,
917,1.60e-03,
918,-1.60e-03,
919,1.60e-03,
920,1.60e-03,
921,-2.40e-03,
922,1.60e-03,
923,-1.60e-03,
924,-1.60e-03,
925,1.60e-03,
926,-1.60e-03,
927,2.40e-03,
928,1.60e-03,
929,-1.60e-03,
930,3.20e-03,
931,-1.60e-03,
932,-1.60e-03,
933,1.60e-03,
934,-1.60e-03,
935,2.40e-03,
936,1.60e-03,
937,-2.40e-03,
938,-2.40e-03,
939,1.60e-03,
940,-8.00e-04,
941,1.60e-03,
942,3.20e-03,
943,-2.40e-03,
944,2.40e-03,
945,-8.00e-04,
946,2.40e-03,
947,-2.40e-03,
948,2.40e-03,
949,-1.60e-03,
950,1.60e-03,
951,-2.40e-03,
952,-1.60e-03,
953,1.60e-03,
954,3.20e-03,
955,-1.60e-03,
956,-2.40e-03,
957,8.00e-04,
958,-8.00e-04,
959,1.60e-03,
960,-1.60e-03,
961,2.00e-03,
962,2.00e-03,
963,-2.40e-03,
964,1.60e-03,
965,-1.60e-03,
966,-2.40e-03,
967,1.60e-03,
968,-2.40e-03,
969,2.40e-03,
970,2.00e-03,
971,-1.60e-03,
972,-1.60e-03,
973,2.40e-03,
974,-8.00e-04,
975,2.40e-03,
976,2.40e-03,
977,-1.60e-03,
978,-2.40e-03,
979,1.60e-03,
980,-1.60e-03,
981,3.20e-03,
982,-1.60e-03,
983,1.60e-03,
984,-1.60e-03,
985,1.60e-03,
986,2.00e-03,
987,-1.60e-03,
988,2.40e-03,
989,-1.60e-03,
990,-8.00e-04,
991,1.60e-03,
992,2.80e-03,
993,-1.60e-03,
994,-8.00e-04,
995,1.60e-03,
996,-2.00e-03,
997,2.00e-03,
998,2.40e-03,
999,-1.60e-03,
1000,1.60e-03,
1001,-3.20e-03,
1002,-1.60e-03,
1003,1.60e-03,
1004,8.00e-04,
1005,-2.40e-03,
1006,1.60e-03,
1007,-1.60e-03,
1008,-2.40e-03,
1009,1.60e-03,
1010,1.60e-03,
1011,-2.40e-03,
1012,2.40e-03,
1013,-2.40e-03,
1014,2.40e-03,
1015,-2.40e-03,
1016,-2.40e-03,
1017,2.00e-03,
1018,2.80e-03,
1019,-1.60e-03,
1020,-2.40e-03,
1021,1.60e-03,
1022,2.40e-03,
1023,-2.40e-03,
1024,-2.40e-03,
1025,1.60e-03,
1026,1.60e-03,
1027,-1.60e-03,
1028,-3.20e-03,
1029,1.60e-03,
1030,-1.60e-03,
1031,2.40e-03,
1032,-8.00e-04,
1033,1.60e-03,
1034,-1.60e-03,
1035,1.60e-03,
1036,-1.60e-03,
1037,1.60e-03,
1038,-1.60e-03,
1039,1.60e-03,
1040,-8.00e-04,
1041,1.60e-03,
1042,1.60e-03,
1043,-1.60e-03,
1044,-1.60e-03,
1045,1.60e-03,
1046,-2.40e-03,
1047,2.40e-03,
1048,1.60e-03,
1049,-1.60e-03,
1050,-1.60e-03,
1051,2.00e-03,
1052,-1.60e-03,
1053,2.40e-03,
1054,1.60e-03,
1055,-1.60e-03,
1056,-1.60e-03,
1057,2.40e-03,
1058,2.40e-03,
1059,-1.60e-03,
1060,1.60e-03,
1061,-2.40e-03,
1062,-2.40e-03,
1063,1.60e-03,
1064,1.60e-03,
1065,-1.60e-03,
1066,-1.60e-03,
1067,2.40e-03,
1068,-2.40e-03,
1069,2.40e-03,
1070,3.20e-03,
1071,-1.60e-03,
1072,-1.60e-03,
1073,3.20e-03,
1074,3.20e-03,
1075,-1.60e-03,
1076,-3.20e-03,
1077,2.40e-03,
1078,-1.20e-03,
1079,2.40e-03,
1080,2.40e-03,
1081,-2.40e-03,
1082,2.40e-03,
1083,-8.00e-04,
1084,3.20e-03,
1085,-1.60e-03,
1086,-1.60e-03,
1087,2.40e-03,
1088,2.40e-03,
1089,-8.00e-04,
1090,1.60e-03,
1091,-1.60e-03,
1092,2.40e-03,
1093,-1.60e-03,
1094,-1.60e-03,
1095,1.60e-03,
1096,-8.00e-04,
1097,2.40e-03,
1098,-8.00e-04,
1099,2.40e-03,
1100,-1.60e-03,
1101,2.80e-03,
1102,1.60e-03,
1103,-1.60e-03,
1104,-1.60e-03,
1105,2.40e-03,
1106,-8.00e-04,
1107,2.40e-03,
1108,2.40e-03,
1109,-1.60e-03,
1110,-8.00e-04,
1111,2.40e-03,
1112,1.60e-03,
1113,-1.60e-03,
1114,1.60e-03,
1115,-1.60e-03,
1116,2.40e-03,
1117,-1.60e-03,
1118,-2.40e-03,
1119,1.20e-03,
1120,2.00e-03,
1121,-2.40e-03,
1122,-2.40e-03,
1123,1.60e-03,
1124,1.60e-03,
1125,-2.40e-03,
1126,1.60e-03,
1127,-1.60e-03,
1128,-2.40e-03,
1129,2.40e-03,
1130,-1.60e-03,
1131,1.20e-03,
1132,-1.60e-03,
1133,2.40e-03,
1134,2.40e-03,
1135,-2.40e-03,
1136,-2.40e-03,
1137,1.60e-03,
1138,1.60e-03,
1139,-1.60e-03,
1140,-1.60e-03,
1141,2.00e-03,
1142,-1.60e-03,
1143,2.40e-03,
1144,1.60e-03,
1145,-1.60e-03,
1146,-1.60e-03,
1147,1.60e-03,
1148,3.20e-03,
1149,-2.40e-03,
1150,-1.60e-03,
1151,2.40e-03,
1152,-1.60e-03,
1153,2.40e-03,
1154,1.60e-03,
1155,-8.00e-04,
1156,1.60e-03,
1157,-1.60e-03,
1158,-1.60e-03,
1159,1.60e-03,
1160,-8.00e-04,
1161,2.00e-03,
1162,2.00e-03,
1163,-1.60e-03,
1164,1.60e-03,
1165,-1.60e-03,
1166,2.40e-03,
1167,-2.40e-03,
1168,2.40e-03,
1169,-2.40e-03,
1170,2.40e-03,
1171,-1.60e-03,
1172,2.40e-03,
1173,-1.60e-03,
1174,1.60e-03,
1175,-1.60e-03,
1176,2.40e-03,
1177,-2.40e-03,
1178,-8.00e-04,
1179,2.40e-03,
1180,-1.60e-03,
1181,2.40e-03,
1182,2.80e-03,
1183,-1.60e-03,
1184,2.80e-03,
1185,-1.60e-03,
1186,2.40e-03,
1187,-1.60e-03,
1188,2.80e-03,
1189,-1.60e-03,
1190,-1.60e-03,
1191,1.20e-03,
1192,1.60e-03,
1193,-2.40e-03,
1194,1.20e-03,
1195,-1.60e-03,
1196,1.60e-03,
1197,-1.60e-03,
1198,-1.60e-03,
1199,2.40e-03,
