fastdiffamp/data-noise-set/6th/NewFile2.csv

X,CH1,Start,Increment,
Sequence,Volt,-1.200000e-02,2.000000e-05
0,4.00e-04,
1,4.00e-03,
2,8.00e-04,
3,4.00e-03,
4,3.20e-03,
5,0.00e+00,
6,4.00e-03,
7,0.00e+00,
8,4.00e-03,
9,8.00e-04,
10,8.00e-04,
11,4.80e-03,
12,0.00e+00,
13,4.00e-03,
14,3.20e-03,
15,0.00e+00,
16,4.00e-03,
17,0.00e+00,
18,0.00e+00,
19,4.00e-03,
20,8.00e-04,
21,4.00e-03,
22,0.00e+00,
23,4.80e-03,
24,8.00e-04,
25,4.00e-03,
26,4.00e-03,
27,8.00e-04,
28,0.00e+00,
29,4.00e-03,
30,8.00e-04,
31,4.00e-03,
32,0.00e+00,
33,4.00e-03,
34,8.00e-04,
35,4.00e-03,
36,3.20e-03,
37,8.00e-04,
38,8.00e-04,
39,4.00e-03,
40,4.00e-03,
41,0.00e+00,
42,4.00e-03,
43,8.00e-04,
44,8.00e-04,
45,4.80e-03,
46,4.00e-03,
47,8.00e-04,
48,0.00e+00,
49,3.60e-03,
50,0.00e+00,
51,4.80e-03,
52,3.20e-03,
53,0.00e+00,
54,8.00e-04,
55,4.00e-03,
56,1.60e-03,
57,3.20e-03,
58,8.00e-04,
59,4.00e-03,
60,8.00e-04,
61,4.00e-03,
62,4.00e-03,
63,0.00e+00,
64,3.20e-03,
65,8.00e-04,
66,0.00e+00,
67,4.00e-03,
68,8.00e-04,
69,3.60e-03,
70,3.20e-03,
71,0.00e+00,
72,4.00e-03,
73,8.00e-04,
74,0.00e+00,
75,3.20e-03,
76,8.00e-04,
77,4.00e-03,
78,3.20e-03,
79,0.00e+00,
80,8.00e-04,
81,3.20e-03,
82,3.20e-03,
83,0.00e+00,
84,3.20e-03,
85,0.00e+00,
86,4.00e-03,
87,8.00e-04,
88,8.00e-04,
89,4.00e-03,
90,4.00e-03,
91,8.00e-04,
92,3.20e-03,
93,8.00e-04,
94,3.20e-03,
95,0.00e+00,
96,4.00e-03,
97,8.00e-04,
98,8.00e-04,
99,4.00e-03,
100,3.20e-03,
101,0.00e+00,
102,3.20e-03,
103,0.00e+00,
104,3.20e-03,
105,8.00e-04,
106,3.20e-03,
107,0.00e+00,
108,0.00e+00,
109,4.00e-03,
110,3.20e-03,
111,8.00e-04,
112,3.20e-03,
113,0.00e+00,
114,4.00e-03,
115,0.00e+00,
116,8.00e-04,
117,4.00e-03,
118,3.20e-03,
119,8.00e-04,
120,0.00e+00,
121,3.60e-03,
122,3.20e-03,
123,8.00e-04,
124,8.00e-04,
125,4.80e-03,
126,8.00e-04,
127,3.20e-03,
128,8.00e-04,
129,3.20e-03,
130,3.20e-03,
131,0.00e+00,
132,3.20e-03,
133,0.00e+00,
134,3.20e-03,
135,-8.00e-04,
136,0.00e+00,
137,3.20e-03,
138,8.00e-04,
139,4.00e-03,
140,8.00e-04,
141,4.00e-03,
142,3.20e-03,
143,0.00e+00,
144,4.00e-03,
145,-8.00e-04,
146,4.80e-03,
147,0.00e+00,
148,8.00e-04,
149,3.20e-03,
150,3.60e-03,
151,0.00e+00,
152,4.00e-03,
153,0.00e+00,
154,8.00e-04,
155,3.20e-03,
156,3.20e-03,
157,0.00e+00,
158,0.00e+00,
159,3.20e-03,
160,-8.00e-04,
161,4.00e-03,
162,4.00e-03,
163,0.00e+00,
164,8.00e-04,
165,3.20e-03,
166,2.80e-03,
167,0.00e+00,
168,0.00e+00,
169,3.20e-03,
170,3.20e-03,
171,8.00e-04,
172,3.20e-03,
173,0.00e+00,
174,0.00e+00,
175,4.00e-03,
176,4.00e-03,
177,0.00e+00,
178,4.00e-03,
179,8.00e-04,
180,0.00e+00,
181,3.20e-03,
182,3.20e-03,
183,0.00e+00,
184,3.20e-03,
185,8.00e-04,
186,0.00e+00,
187,2.80e-03,
188,3.20e-03,
189,0.00e+00,
190,0.00e+00,
191,3.20e-03,
192,0.00e+00,
193,4.00e-03,
194,0.00e+00,
195,4.00e-03,
196,0.00e+00,
197,4.00e-03,
198,3.20e-03,
199,0.00e+00,
200,3.20e-03,
201,8.00e-04,
202,2.40e-03,
203,0.00e+00,
204,8.00e-04,
205,3.20e-03,
206,3.20e-03,
207,-8.00e-04,
208,0.00e+00,
209,2.40e-03,
210,0.00e+00,
211,4.00e-03,
212,0.00e+00,
213,3.20e-03,
214,3.20e-03,
215,0.00e+00,
216,0.00e+00,
217,2.40e-03,
218,2.40e-03,
219,0.00e+00,
220,0.00e+00,
221,3.20e-03,
222,0.00e+00,
223,3.60e-03,
224,-8.00e-04,
225,3.20e-03,
226,0.00e+00,
227,3.20e-03,
228,3.20e-03,
229,-8.00e-04,
230,0.00e+00,
231,3.20e-03,
232,-8.00e-04,
233,3.20e-03,
234,3.20e-03,
235,0.00e+00,
236,2.40e-03,
237,0.00e+00,
238,2.40e-03,
239,-8.00e-04,
240,3.20e-03,
241,-8.00e-04,
242,0.00e+00,
243,2.40e-03,
244,-8.00e-04,
245,2.40e-03,
246,-8.00e-04,
247,2.40e-03,
248,2.40e-03,
249,-8.00e-04,
250,0.00e+00,
251,2.40e-03,
252,0.00e+00,
253,2.40e-03,
254,2.40e-03,
255,0.00e+00,
256,-8.00e-04,
257,2.80e-03,
258,0.00e+00,
259,2.40e-03,
260,-8.00e-04,
261,3.20e-03,
262,-2.00e-03,
263,2.80e-03,
264,0.00e+00,
265,3.20e-03,
266,2.40e-03,
267,-8.00e-04,
268,-8.00e-04,
269,2.40e-03,
270,2.80e-03,
271,-8.00e-04,
272,1.60e-03,
273,-8.00e-04,
274,-8.00e-04,
275,3.20e-03,
276,-8.00e-04,
277,2.40e-03,
278,2.40e-03,
279,-4.00e-04,
280,-8.00e-04,
281,2.40e-03,
282,2.40e-03,
283,-8.00e-04,
284,2.40e-03,
285,0.00e+00,
286,2.40e-03,
287,-8.00e-04,
288,2.40e-03,
289,0.00e+00,
290,-8.00e-04,
291,3.20e-03,
292,-1.60e-03,
293,2.40e-03,
294,0.00e+00,
295,2.40e-03,
296,-8.00e-04,
297,2.80e-03,
298,0.00e+00,
299,2.40e-03,
300,3.20e-03,
301,-8.00e-04,
302,3.20e-03,
303,-8.00e-04,
304,-8.00e-04,
305,2.00e-03,
306,-8.00e-04,
307,2.40e-03,
308,-8.00e-04,
309,2.40e-03,
310,2.40e-03,
311,-8.00e-04,
312,-8.00e-04,
313,1.60e-03,
314,-8.00e-04,
315,2.40e-03,
316,-8.00e-04,
317,3.20e-03,
318,0.00e+00,
319,2.40e-03,
320,1.60e-03,
321,-8.00e-04,
322,-8.00e-04,
323,2.40e-03,
324,0.00e+00,
325,2.40e-03,
326,-8.00e-04,
327,1.60e-03,
328,-8.00e-04,
329,2.40e-03,
330,0.00e+00,
331,3.20e-03,
332,-8.00e-04,
333,2.40e-03,
334,0.00e+00,
335,2.40e-03,
336,-8.00e-04,
337,2.40e-03,
338,2.40e-03,
339,0.00e+00,
340,0.00e+00,
341,2.40e-03,
342,2.40e-03,
343,-8.00e-04,
344,3.20e-03,
345,-8.00e-04,
346,0.00e+00,
347,3.20e-03,
348,3.20e-03,
349,-8.00e-04,
350,0.00e+00,
351,3.20e-03,
352,-8.00e-04,
353,2.40e-03,
354,2.40e-03,
355,-8.00e-04,
356,2.40e-03,
357,-8.00e-04,
358,3.20e-03,
359,0.00e+00,
360,-8.00e-04,
361,3.20e-03,
362,0.00e+00,
363,2.40e-03,
364,3.20e-03,
365,0.00e+00,
366,0.00e+00,
367,2.40e-03,
368,2.80e-03,
369,0.00e+00,
370,2.40e-03,
371,-1.60e-03,
372,0.00e+00,
373,3.20e-03,
374,2.40e-03,
375,-8.00e-04,
376,-8.00e-04,
377,2.40e-03,
378,-8.00e-04,
379,2.40e-03,
380,-8.00e-04,
381,3.20e-03,
382,2.40e-03,
383,-8.00e-04,
384,2.40e-03,
385,-8.00e-04,
386,2.40e-03,
387,-1.60e-03,
388,-8.00e-04,
389,2.40e-03,
390,1.60e-03,
391,-8.00e-04,
392,2.40e-03,
393,-8.00e-04,
394,-8.00e-04,
395,2.00e-03,
396,2.40e-03,
397,-1.60e-03,
398,-8.00e-04,
399,2.40e-03,
400,-8.00e-04,
401,2.40e-03,
402,2.40e-03,
403,-8.00e-04,
404,-1.60e-03,
405,1.60e-03,
406,-8.00e-04,
407,2.40e-03,
408,2.40e-03,
409,-8.00e-04,
410,3.20e-03,
411,-8.00e-04,
412,3.20e-03,
413,-8.00e-04,
414,2.40e-03,
415,-8.00e-04,
416,-1.60e-03,
417,2.00e-03,
418,-1.60e-03,
419,2.40e-03,
420,-8.00e-04,
421,2.40e-03,
422,-8.00e-04,
423,2.40e-03,
424,0.00e+00,
425,2.40e-03,
426,2.40e-03,
427,0.00e+00,
428,2.40e-03,
429,-8.00e-04,
430,2.40e-03,
431,-8.00e-04,
432,2.40e-03,
433,-8.00e-04,
434,2.40e-03,
435,-8.00e-04,
436,-8.00e-04,
437,3.20e-03,
438,2.40e-03,
439,-8.00e-04,
440,3.20e-03,
441,-8.00e-04,
442,-8.00e-04,
443,2.40e-03,
444,-8.00e-04,
445,2.40e-03,
446,2.40e-03,
447,-8.00e-04,
448,2.40e-03,
449,0.00e+00,
450,-8.00e-04,
451,2.40e-03,
452,0.00e+00,
453,2.80e-03,
454,2.40e-03,
455,-8.00e-04,
456,2.40e-03,
457,-8.00e-04,
458,-1.60e-03,
459,2.40e-03,
460,0.00e+00,
461,2.80e-03,
462,1.60e-03,
463,-1.60e-03,
464,2.40e-03,
465,-8.00e-04,
466,-8.00e-04,
467,2.40e-03,
468,2.40e-03,
469,-1.60e-03,
470,-8.00e-04,
471,2.40e-03,
472,1.60e-03,
473,-8.00e-04,
474,-1.60e-03,
475,3.20e-03,
476,-8.00e-04,
477,3.20e-03,
478,2.00e-03,
479,-8.00e-04,
480,-1.60e-03,
481,3.20e-03,
482,-8.00e-04,
483,2.40e-03,
484,2.40e-03,
485,-8.00e-04,
486,-8.00e-04,
487,2.40e-03,
488,0.00e+00,
489,3.20e-03,
490,-8.00e-04,
491,2.40e-03,
492,2.80e-03,
493,0.00e+00,
494,0.00e+00,
495,2.40e-03,
496,2.40e-03,
497,-8.00e-04,
498,-1.60e-03,
499,3.20e-03,
500,2.40e-03,
501,-1.60e-03,
502,-8.00e-04,
503,2.40e-03,
504,-8.00e-04,
505,2.40e-03,
506,-8.00e-04,
507,2.40e-03,
508,-8.00e-04,
509,3.20e-03,
510,-8.00e-04,
511,2.40e-03,
512,2.40e-03,
513,0.00e+00,
514,0.00e+00,
515,3.20e-03,
516,2.40e-03,
517,-8.00e-04,
518,2.00e-03,
519,-1.60e-03,
520,2.40e-03,
521,-8.00e-04,
522,1.60e-03,
523,-4.00e-04,
524,-8.00e-04,
525,2.40e-03,
526,-1.60e-03,
527,2.40e-03,
528,1.60e-03,
529,-1.60e-03,
530,2.00e-03,
531,-8.00e-04,
532,1.60e-03,
533,-1.60e-03,
534,-1.60e-03,
535,2.40e-03,
536,-1.60e-03,
537,2.40e-03,
538,-8.00e-04,
539,2.40e-03,
540,-8.00e-04,
541,3.20e-03,
542,-1.60e-03,
543,2.80e-03,
544,-1.20e-03,
545,2.40e-03,
546,2.40e-03,
547,-1.60e-03,
548,2.40e-03,
549,-1.20e-03,
550,-1.60e-03,
551,2.40e-03,
552,-1.60e-03,
553,2.40e-03,
554,2.00e-03,
555,-8.00e-04,
556,3.20e-03,
557,-8.00e-04,
558,2.40e-03,
559,-8.00e-04,
560,2.40e-03,
561,0.00e+00,
562,2.40e-03,
563,0.00e+00,
564,0.00e+00,
565,2.40e-03,
566,-1.60e-03,
567,2.40e-03,
568,2.40e-03,
569,-1.60e-03,
570,-8.00e-04,
571,2.40e-03,
572,-8.00e-04,
573,2.40e-03,
574,-8.00e-04,
575,2.80e-03,
576,2.40e-03,
577,-8.00e-04,
578,-8.00e-04,
579,3.20e-03,
580,-8.00e-04,
581,2.40e-03,
582,2.40e-03,
583,-8.00e-04,
584,-8.00e-04,
585,3.20e-03,
586,2.40e-03,
587,-8.00e-04,
588,0.00e+00,
589,3.20e-03,
590,-8.00e-04,
591,2.80e-03,
592,2.40e-03,
593,-8.00e-04,
594,-8.00e-04,
595,2.40e-03,
596,0.00e+00,
597,2.40e-03,
598,2.40e-03,
599,-8.00e-04,
600,-8.00e-04,
601,2.40e-03,
602,0.00e+00,
603,3.20e-03,
604,-8.00e-04,
605,2.40e-03,
606,2.40e-03,
607,-8.00e-04,
608,2.40e-03,
609,-8.00e-04,
610,-1.60e-03,
611,2.40e-03,
612,2.80e-03,
613,-1.60e-03,
614,2.40e-03,
615,-8.00e-04,
616,-8.00e-04,
617,2.40e-03,
618,2.40e-03,
619,-8.00e-04,
620,2.40e-03,
621,-8.00e-04,
622,-8.00e-04,
623,2.40e-03,
624,2.40e-03,
625,-8.00e-04,
626,0.00e+00,
627,2.40e-03,
628,0.00e+00,
629,2.40e-03,
630,-8.00e-04,
631,2.40e-03,
632,0.00e+00,
633,3.20e-03,
634,2.40e-03,
635,0.00e+00,
636,0.00e+00,
637,3.20e-03,
638,0.00e+00,
639,3.20e-03,
640,-8.00e-04,
641,2.80e-03,
642,2.40e-03,
643,-8.00e-04,
644,0.00e+00,
645,3.20e-03,
646,0.00e+00,
647,4.00e-03,
648,0.00e+00,
649,3.20e-03,
650,4.00e-03,
651,0.00e+00,
652,0.00e+00,
653,3.20e-03,
654,3.20e-03,
655,-8.00e-04,
656,2.40e-03,
657,-8.00e-04,
658,-8.00e-04,
659,2.40e-03,
660,2.40e-03,
661,-8.00e-04,
662,0.00e+00,
663,3.20e-03,
664,2.40e-03,
665,-8.00e-04,
666,-1.60e-03,
667,3.20e-03,
668,2.40e-03,
669,-8.00e-04,
670,-8.00e-04,
671,3.20e-03,
672,0.00e+00,
673,2.40e-03,
674,-8.00e-04,
675,3.20e-03,
676,0.00e+00,
677,2.40e-03,
678,2.40e-03,
679,-8.00e-04,
680,0.00e+00,
681,2.40e-03,
682,2.40e-03,
683,-8.00e-04,
684,2.40e-03,
685,0.00e+00,
686,2.40e-03,
687,-8.00e-04,
688,0.00e+00,
689,2.40e-03,
690,-8.00e-04,
691,2.40e-03,
692,2.40e-03,
693,0.00e+00,
694,2.40e-03,
695,-8.00e-04,
696,3.20e-03,
697,-1.60e-03,
698,3.20e-03,
699,-1.60e-03,
700,-8.00e-04,
701,2.40e-03,
702,-8.00e-04,
703,3.20e-03,
704,0.00e+00,
705,2.80e-03,
706,-8.00e-04,
707,2.40e-03,
708,0.00e+00,
709,2.40e-03,
710,-8.00e-04,
711,2.40e-03,
712,3.20e-03,
713,-8.00e-04,
714,-8.00e-04,
715,2.40e-03,
716,0.00e+00,
717,2.40e-03,
718,0.00e+00,
719,4.00e-03,
720,2.80e-03,
721,-8.00e-04,
722,0.00e+00,
723,3.20e-03,
724,-8.00e-04,
725,3.20e-03,
726,2.40e-03,
727,0.00e+00,
728,3.20e-03,
729,0.00e+00,
730,-8.00e-04,
731,2.40e-03,
732,2.40e-03,
733,0.00e+00,
734,2.40e-03,
735,-8.00e-04,
736,-8.00e-04,
737,2.40e-03,
738,2.00e-03,
739,-8.00e-04,
740,-1.60e-03,
741,2.80e-03,
742,0.00e+00,
743,2.40e-03,
744,3.20e-03,
745,-4.00e-04,
746,-8.00e-04,
747,2.40e-03,
748,2.40e-03,
749,-8.00e-04,
750,0.00e+00,
751,2.80e-03,
752,2.40e-03,
753,-1.60e-03,
754,-8.00e-04,
755,3.20e-03,
756,3.20e-03,
757,0.00e+00,
758,-8.00e-04,
759,3.20e-03,
760,-8.00e-04,
761,2.40e-03,
762,3.20e-03,
763,-8.00e-04,
764,0.00e+00,
765,3.20e-03,
766,3.20e-03,
767,0.00e+00,
768,0.00e+00,
769,3.20e-03,
770,0.00e+00,
771,2.80e-03,
772,0.00e+00,
773,3.20e-03,
774,2.40e-03,
775,0.00e+00,
776,0.00e+00,
777,3.20e-03,
778,0.00e+00,
779,3.20e-03,
780,3.20e-03,
781,-8.00e-04,
782,0.00e+00,
783,2.40e-03,
784,0.00e+00,
785,2.80e-03,
786,2.40e-03,
787,-8.00e-04,
788,0.00e+00,
789,3.20e-03,
790,0.00e+00,
791,2.40e-03,
792,0.00e+00,
793,2.40e-03,
794,2.40e-03,
795,0.00e+00,
796,0.00e+00,
797,2.80e-03,
798,0.00e+00,
799,3.20e-03,
800,3.20e-03,
801,0.00e+00,
802,0.00e+00,
803,3.20e-03,
804,0.00e+00,
805,3.20e-03,
806,2.40e-03,
807,-8.00e-04,
808,2.40e-03,
809,0.00e+00,
810,3.20e-03,
811,-8.00e-04,
812,0.00e+00,
813,3.20e-03,
814,8.00e-04,
815,4.00e-03,
816,8.00e-04,
817,3.20e-03,
818,0.00e+00,
819,3.20e-03,
820,2.40e-03,
821,0.00e+00,
822,0.00e+00,
823,2.40e-03,
824,0.00e+00,
825,3.20e-03,
826,3.20e-03,
827,-8.00e-04,
828,0.00e+00,
829,3.20e-03,
830,0.00e+00,
831,3.20e-03,
832,0.00e+00,
833,3.20e-03,
834,0.00e+00,
835,4.00e-03,
836,0.00e+00,
837,3.20e-03,
838,2.40e-03,
839,-8.00e-04,
840,0.00e+00,
841,3.20e-03,
842,2.80e-03,
843,0.00e+00,
844,3.20e-03,
845,0.00e+00,
846,3.20e-03,
847,0.00e+00,
848,-8.00e-04,
849,3.20e-03,
850,-8.00e-04,
851,3.20e-03,
852,3.20e-03,
853,-8.00e-04,
854,-8.00e-04,
855,2.40e-03,
856,0.00e+00,
857,3.20e-03,
858,3.20e-03,
859,0.00e+00,
860,2.80e-03,
861,-8.00e-04,
862,3.20e-03,
863,-8.00e-04,
864,-8.00e-04,
865,3.20e-03,
866,-8.00e-04,
867,2.40e-03,
868,-8.00e-04,
869,3.20e-03,
870,-8.00e-04,
871,3.20e-03,
872,0.00e+00,
873,2.00e-03,
874,2.40e-03,
875,-8.00e-04,
876,-8.00e-04,
877,2.00e-03,
878,2.40e-03,
879,-8.00e-04,
880,-8.00e-04,
881,2.40e-03,
882,0.00e+00,
883,2.80e-03,
884,0.00e+00,
885,2.40e-03,
886,3.20e-03,
887,4.00e-04,
888,0.00e+00,
889,3.20e-03,
890,-8.00e-04,
891,3.20e-03,
892,0.00e+00,
893,3.20e-03,
894,0.00e+00,
895,2.00e-03,
896,-8.00e-04,
897,2.40e-03,
898,-8.00e-04,
899,3.20e-03,
900,3.20e-03,
901,-8.00e-04,
902,0.00e+00,
903,3.20e-03,
904,-8.00e-04,
905,2.40e-03,
906,0.00e+00,
907,3.20e-03,
908,-8.00e-04,
909,3.20e-03,
910,-8.00e-04,
911,4.00e-03,
912,2.40e-03,
913,-8.00e-04,
914,-8.00e-04,
915,3.20e-03,
916,3.20e-03,
917,-8.00e-04,
918,0.00e+00,
919,2.80e-03,
920,2.40e-03,
921,-8.00e-04,
922,2.40e-03,
923,-8.00e-04,
924,0.00e+00,
925,3.20e-03,
926,3.20e-03,
927,-8.00e-04,
928,0.00e+00,
929,2.80e-03,
930,0.00e+00,
931,3.20e-03,
932,3.20e-03,
933,0.00e+00,
934,2.80e-03,
935,-8.00e-04,
936,2.40e-03,
937,0.00e+00,
938,0.00e+00,
939,3.20e-03,
940,2.40e-03,
941,-8.00e-04,
942,-8.00e-04,
943,2.00e-03,
944,2.40e-03,
945,0.00e+00,
946,0.00e+00,
947,2.40e-03,
948,-8.00e-04,
949,2.40e-03,
950,0.00e+00,
951,2.80e-03,
952,3.20e-03,
953,0.00e+00,
954,0.00e+00,
955,2.80e-03,
956,4.00e-03,
957,-8.00e-04,
958,-8.00e-04,
959,2.80e-03,
960,3.20e-03,
961,-8.00e-04,
962,0.00e+00,
963,2.40e-03,
964,2.40e-03,
965,-8.00e-04,
966,2.40e-03,
967,0.00e+00,
968,3.20e-03,
969,-8.00e-04,
970,0.00e+00,
971,2.40e-03,
972,0.00e+00,
973,2.40e-03,
974,0.00e+00,
975,3.20e-03,
976,0.00e+00,
977,3.20e-03,
978,2.40e-03,
979,0.00e+00,
980,3.20e-03,
981,0.00e+00,
982,0.00e+00,
983,3.20e-03,
984,2.40e-03,
985,0.00e+00,
986,2.40e-03,
987,0.00e+00,
988,0.00e+00,
989,4.00e-03,
990,3.60e-03,
991,0.00e+00,
992,2.40e-03,
993,0.00e+00,
994,0.00e+00,
995,2.40e-03,
996,2.40e-03,
997,0.00e+00,
998,0.00e+00,
999,2.40e-03,
1000,3.20e-03,
1001,0.00e+00,
1002,3.20e-03,
1003,0.00e+00,
1004,0.00e+00,
1005,3.20e-03,
1006,0.00e+00,
1007,3.20e-03,
1008,-8.00e-04,
1009,3.20e-03,
1010,0.00e+00,
1011,2.40e-03,
1012,3.20e-03,
1013,-8.00e-04,
1014,3.20e-03,
1015,-8.00e-04,
1016,2.40e-03,
1017,0.00e+00,
1018,0.00e+00,
1019,2.40e-03,
1020,0.00e+00,
1021,3.20e-03,
1022,2.40e-03,
1023,0.00e+00,
1024,3.20e-03,
1025,0.00e+00,
1026,0.00e+00,
1027,3.20e-03,
1028,2.40e-03,
1029,0.00e+00,
1030,8.00e-04,
1031,3.60e-03,
1032,3.20e-03,
1033,-8.00e-04,
1034,3.20e-03,
1035,0.00e+00,
1036,2.40e-03,
1037,0.00e+00,
1038,2.40e-03,
1039,0.00e+00,
1040,3.20e-03,
1041,0.00e+00,
1042,-8.00e-04,
1043,2.40e-03,
1044,0.00e+00,
1045,4.00e-03,
1046,3.20e-03,
1047,-8.00e-04,
1048,0.00e+00,
1049,4.00e-03,
1050,3.20e-03,
1051,0.00e+00,
1052,0.00e+00,
1053,3.20e-03,
1054,0.00e+00,
1055,4.00e-03,
1056,3.20e-03,
1057,0.00e+00,
1058,8.00e-04,
1059,3.20e-03,
1060,8.00e-04,
1061,3.20e-03,
1062,0.00e+00,
1063,3.20e-03,
1064,0.00e+00,
1065,3.20e-03,
1066,0.00e+00,
1067,3.20e-03,
1068,2.40e-03,
1069,0.00e+00,
1070,0.00e+00,
1071,3.20e-03,
1072,0.00e+00,
1073,3.20e-03,
1074,0.00e+00,
1075,2.40e-03,
1076,0.00e+00,
1077,3.20e-03,
1078,0.00e+00,
1079,3.20e-03,
1080,0.00e+00,
1081,2.40e-03,
1082,3.20e-03,
1083,0.00e+00,
1084,2.80e-03,
1085,0.00e+00,
1086,0.00e+00,
1087,2.80e-03,
1088,0.00e+00,
1089,2.80e-03,
1090,8.00e-04,
1091,3.20e-03,
1092,0.00e+00,
1093,2.80e-03,
1094,3.20e-03,
1095,0.00e+00,
1096,2.40e-03,
1097,-8.00e-04,
1098,0.00e+00,
1099,3.20e-03,
1100,3.20e-03,
1101,0.00e+00,
1102,2.40e-03,
1103,0.00e+00,
1104,0.00e+00,
1105,3.20e-03,
1106,0.00e+00,
1107,2.40e-03,
1108,0.00e+00,
1109,3.20e-03,
1110,0.00e+00,
1111,3.20e-03,
1112,3.20e-03,
1113,-8.00e-04,
1114,3.20e-03,
1115,0.00e+00,
1116,0.00e+00,
1117,4.00e-03,
1118,3.20e-03,
1119,0.00e+00,
1120,3.20e-03,
1121,0.00e+00,
1122,0.00e+00,
1123,2.80e-03,
1124,8.00e-04,
1125,3.20e-03,
1126,4.00e-03,
1127,0.00e+00,
1128,0.00e+00,
1129,4.00e-03,
1130,3.20e-03,
1131,0.00e+00,
1132,0.00e+00,
1133,3.20e-03,
1134,4.00e-03,
1135,8.00e-04,
1136,0.00e+00,
1137,4.00e-03,
1138,8.00e-04,
1139,3.20e-03,
1140,4.00e-03,
1141,0.00e+00,
1142,3.20e-03,
1143,0.00e+00,
1144,4.00e-03,
1145,8.00e-04,
1146,3.20e-03,
1147,0.00e+00,
1148,2.40e-03,
1149,0.00e+00,
1150,0.00e+00,
1151,3.20e-03,
1152,0.00e+00,
1153,3.20e-03,
1154,3.20e-03,
1155,0.00e+00,
1156,0.00e+00,
1157,3.20e-03,
1158,0.00e+00,
1159,3.20e-03,
1160,0.00e+00,
1161,4.00e-03,
1162,0.00e+00,
1163,3.20e-03,
1164,0.00e+00,
1165,3.20e-03,
1166,3.20e-03,
1167,0.00e+00,
1168,0.00e+00,
1169,4.00e-03,
1170,0.00e+00,
1171,3.20e-03,
1172,8.00e-04,
1173,3.20e-03,
1174,3.20e-03,
1175,8.00e-04,
1176,3.20e-03,
1177,0.00e+00,
1178,2.40e-03,
1179,0.00e+00,
1180,8.00e-04,
1181,4.00e-03,
1182,3.20e-03,
1183,0.00e+00,
1184,4.00e-03,
1185,0.00e+00,
1186,8.00e-04,
1187,3.20e-03,
1188,3.20e-03,
1189,0.00e+00,
1190,0.00e+00,
1191,3.20e-03,
1192,3.20e-03,
1193,0.00e+00,
1194,4.00e-03,
1195,0.00e+00,
1196,3.20e-03,
1197,0.00e+00,
1198,8.00e-04,
1199,3.20e-03,
