fastdiffamp/data-noise-set/6th/NewFile8.csv

X,CH1,Start,Increment,
Sequence,Volt,-1.200000e-02,2.000000e-05
0,2.40e-03,
1,0.00e+00,
2,0.00e+00,
3,3.20e-03,
4,0.00e+00,
5,3.20e-03,
6,2.40e-03,
7,0.00e+00,
8,2.80e-03,
9,0.00e+00,
10,2.40e-03,
11,0.00e+00,
12,0.00e+00,
13,3.20e-03,
14,2.40e-03,
15,-8.00e-04,
16,3.20e-03,
17,-4.00e-04,
18,2.40e-03,
19,0.00e+00,
20,0.00e+00,
21,3.20e-03,
22,-8.00e-04,
23,2.40e-03,
24,0.00e+00,
25,3.20e-03,
26,2.40e-03,
27,0.00e+00,
28,0.00e+00,
29,2.80e-03,
30,0.00e+00,
31,3.20e-03,
32,3.20e-03,
33,-8.00e-04,
34,-8.00e-04,
35,3.20e-03,
36,2.40e-03,
37,-8.00e-04,
38,-8.00e-04,
39,2.40e-03,
40,-8.00e-04,
41,3.20e-03,
42,0.00e+00,
43,2.40e-03,
44,0.00e+00,
45,2.80e-03,
46,0.00e+00,
47,2.40e-03,
48,3.20e-03,
49,-4.00e-04,
50,3.20e-03,
51,-8.00e-04,
52,3.20e-03,
53,0.00e+00,
54,0.00e+00,
55,2.40e-03,
56,0.00e+00,
57,3.20e-03,
58,2.80e-03,
59,0.00e+00,
60,-8.00e-04,
61,2.80e-03,
62,2.40e-03,
63,4.00e-04,
64,0.00e+00,
65,3.20e-03,
66,0.00e+00,
67,3.20e-03,
68,2.80e-03,
69,0.00e+00,
70,3.20e-03,
71,0.00e+00,
72,8.00e-04,
73,3.20e-03,
74,8.00e-04,
75,2.80e-03,
76,0.00e+00,
77,3.20e-03,
78,0.00e+00,
79,3.20e-03,
80,2.80e-03,
81,0.00e+00,
82,2.40e-03,
83,0.00e+00,
84,-8.00e-04,
85,3.20e-03,
86,0.00e+00,
87,4.00e-03,
88,0.00e+00,
89,3.20e-03,
90,3.20e-03,
91,8.00e-04,
92,2.80e-03,
93,-8.00e-04,
94,3.20e-03,
95,-8.00e-04,
96,0.00e+00,
97,3.20e-03,
98,2.40e-03,
99,-8.00e-04,
100,0.00e+00,
101,3.20e-03,
102,3.20e-03,
103,-8.00e-04,
104,0.00e+00,
105,2.80e-03,
106,2.40e-03,
107,0.00e+00,
108,0.00e+00,
109,3.20e-03,
110,0.00e+00,
111,2.80e-03,
112,3.20e-03,
113,-8.00e-04,
114,3.20e-03,
115,-8.00e-04,
116,2.40e-03,
117,-8.00e-04,
118,1.60e-03,
119,0.00e+00,
120,-8.00e-04,
121,3.20e-03,
122,2.40e-03,
123,-8.00e-04,
124,0.00e+00,
125,2.40e-03,
126,2.40e-03,
127,-8.00e-04,
128,-8.00e-04,
129,2.40e-03,
130,3.20e-03,
131,-8.00e-04,
132,2.40e-03,
133,-8.00e-04,
134,-8.00e-04,
135,3.20e-03,
136,-8.00e-04,
137,2.80e-03,
138,-8.00e-04,
139,2.40e-03,
140,-8.00e-04,
141,2.40e-03,
142,0.00e+00,
143,2.40e-03,
144,-8.00e-04,
145,2.40e-03,
146,2.40e-03,
147,-8.00e-04,
148,2.40e-03,
149,-8.00e-04,
150,0.00e+00,
151,3.20e-03,
152,2.40e-03,
153,-8.00e-04,
154,0.00e+00,
155,2.40e-03,
156,2.40e-03,
157,-8.00e-04,
158,2.40e-03,
159,-8.00e-04,
160,0.00e+00,
161,2.40e-03,
162,-8.00e-04,
163,2.40e-03,
164,-8.00e-04,
165,2.40e-03,
166,-8.00e-04,
167,3.20e-03,
168,-8.00e-04,
169,2.00e-03,
170,-8.00e-04,
171,2.40e-03,
172,-1.60e-03,
173,2.40e-03,
174,1.60e-03,
175,-8.00e-04,
176,2.40e-03,
177,-8.00e-04,
178,-8.00e-04,
179,2.40e-03,
180,1.60e-03,
181,-8.00e-04,
182,-8.00e-04,
183,2.40e-03,
184,-1.60e-03,
185,2.40e-03,
186,2.00e-03,
187,-1.60e-03,
188,0.00e+00,
189,2.00e-03,
190,-8.00e-04,
191,2.40e-03,
192,-8.00e-04,
193,2.40e-03,
194,-8.00e-04,
195,2.40e-03,
196,2.00e-03,
197,-1.60e-03,
198,-8.00e-04,
199,2.40e-03,
200,-1.60e-03,
201,2.40e-03,
202,2.40e-03,
203,-8.00e-04,
204,2.40e-03,
205,-8.00e-04,
206,2.40e-03,
207,-8.00e-04,
208,-8.00e-04,
209,1.60e-03,
210,-8.00e-04,
211,2.00e-03,
212,-8.00e-04,
213,2.00e-03,
214,1.60e-03,
215,-1.20e-03,
216,-1.60e-03,
217,3.20e-03,
218,0.00e+00,
219,3.20e-03,
220,3.20e-03,
221,-8.00e-04,
222,-8.00e-04,
223,2.40e-03,
224,2.40e-03,
225,-1.60e-03,
226,2.00e-03,
227,-8.00e-04,
228,2.40e-03,
229,-8.00e-04,
230,-1.60e-03,
231,2.40e-03,
232,-8.00e-04,
233,1.60e-03,
234,2.40e-03,
235,-1.60e-03,
236,-8.00e-04,
237,2.00e-03,
238,-8.00e-04,
239,2.40e-03,
240,2.00e-03,
241,-8.00e-04,
242,-8.00e-04,
243,2.80e-03,
244,-8.00e-04,
245,2.40e-03,
246,-8.00e-04,
247,1.60e-03,
248,2.40e-03,
249,-8.00e-04,
250,-8.00e-04,
251,2.40e-03,
252,-8.00e-04,
253,2.40e-03,
254,-8.00e-04,
255,1.60e-03,
256,2.00e-03,
257,-8.00e-04,
258,2.40e-03,
259,-8.00e-04,
260,2.40e-03,
261,-8.00e-04,
262,-8.00e-04,
263,2.00e-03,
264,2.40e-03,
265,-1.60e-03,
266,-1.60e-03,
267,2.80e-03,
268,-8.00e-04,
269,2.00e-03,
270,2.00e-03,
271,-8.00e-04,
272,-1.60e-03,
273,2.40e-03,
274,2.00e-03,
275,-8.00e-04,
276,-2.40e-03,
277,2.80e-03,
278,2.00e-03,
279,-1.20e-03,
280,-8.00e-04,
281,2.40e-03,
282,1.60e-03,
283,-1.60e-03,
284,-8.00e-04,
285,2.40e-03,
286,-1.60e-03,
287,1.60e-03,
288,-8.00e-04,
289,2.40e-03,
290,1.60e-03,
291,-8.00e-04,
292,1.60e-03,
293,-1.60e-03,
294,-8.00e-04,
295,2.00e-03,
296,-8.00e-04,
297,2.00e-03,
298,2.40e-03,
299,-2.40e-03,
300,2.40e-03,
301,-1.60e-03,
302,-8.00e-04,
303,2.40e-03,
304,-8.00e-04,
305,2.00e-03,
306,-8.00e-04,
307,2.40e-03,
308,1.60e-03,
309,-8.00e-04,
310,2.40e-03,
311,-1.60e-03,
312,-8.00e-04,
313,2.00e-03,
314,3.20e-03,
315,-8.00e-04,
316,-1.60e-03,
317,2.40e-03,
318,-8.00e-04,
319,1.60e-03,
320,1.60e-03,
321,-1.60e-03,
322,-8.00e-04,
323,2.40e-03,
324,-8.00e-04,
325,2.40e-03,
326,1.60e-03,
327,-1.60e-03,
328,1.60e-03,
329,-8.00e-04,
330,1.60e-03,
331,-8.00e-04,
332,2.40e-03,
333,-1.60e-03,
334,-8.00e-04,
335,2.00e-03,
336,-1.60e-03,
337,2.40e-03,
338,-1.60e-03,
339,2.80e-03,
340,-1.60e-03,
341,3.20e-03,
342,-1.60e-03,
343,2.40e-03,
344,-8.00e-04,
345,2.40e-03,
346,2.00e-03,
347,0.00e+00,
348,-8.00e-04,
349,2.40e-03,
350,2.40e-03,
351,-1.60e-03,
352,2.00e-03,
353,-1.60e-03,
354,1.60e-03,
355,-8.00e-04,
356,-1.60e-03,
357,2.40e-03,
358,-8.00e-04,
359,2.40e-03,
360,1.60e-03,
361,-8.00e-04,
362,2.40e-03,
363,-8.00e-04,
364,-8.00e-04,
365,2.00e-03,
366,-8.00e-04,
367,2.40e-03,
368,2.40e-03,
369,-8.00e-04,
370,1.60e-03,
371,-8.00e-04,
372,2.40e-03,
373,-1.60e-03,
374,-1.60e-03,
375,2.40e-03,
376,-8.00e-04,
377,2.40e-03,
378,-8.00e-04,
379,3.20e-03,
380,2.40e-03,
381,0.00e+00,
382,2.40e-03,
383,-8.00e-04,
384,2.40e-03,
385,-8.00e-04,
386,1.60e-03,
387,-8.00e-04,
388,2.40e-03,
389,-8.00e-04,
390,-8.00e-04,
391,2.00e-03,
392,-8.00e-04,
393,2.40e-03,
394,-8.00e-04,
395,2.40e-03,
396,-8.00e-04,
397,2.40e-03,
398,-8.00e-04,
399,2.40e-03,
400,2.40e-03,
401,-8.00e-04,
402,0.00e+00,
403,2.80e-03,
404,3.20e-03,
405,-8.00e-04,
406,2.40e-03,
407,-8.00e-04,
408,3.20e-03,
409,-1.60e-03,
410,2.80e-03,
411,-1.60e-03,
412,0.00e+00,
413,3.20e-03,
414,0.00e+00,
415,2.40e-03,
416,0.00e+00,
417,3.20e-03,
418,3.20e-03,
419,-8.00e-04,
420,-1.60e-03,
421,3.20e-03,
422,-8.00e-04,
423,2.40e-03,
424,2.40e-03,
425,-8.00e-04,
426,0.00e+00,
427,3.60e-03,
428,2.40e-03,
429,4.00e-04,
430,0.00e+00,
431,3.20e-03,
432,2.40e-03,
433,0.00e+00,
434,2.40e-03,
435,0.00e+00,
436,0.00e+00,
437,2.80e-03,
438,2.40e-03,
439,0.00e+00,
440,3.20e-03,
441,0.00e+00,
442,2.80e-03,
443,0.00e+00,
444,3.20e-03,
445,0.00e+00,
446,2.40e-03,
447,0.00e+00,
448,2.80e-03,
449,0.00e+00,
450,-8.00e-04,
451,3.20e-03,
452,-8.00e-04,
453,3.20e-03,
454,0.00e+00,
455,2.80e-03,
456,3.20e-03,
457,-8.00e-04,
458,2.40e-03,
459,-8.00e-04,
460,0.00e+00,
461,3.20e-03,
462,2.40e-03,
463,-8.00e-04,
464,2.40e-03,
465,-8.00e-04,
466,0.00e+00,
467,3.20e-03,
468,0.00e+00,
469,2.40e-03,
470,0.00e+00,
471,3.20e-03,
472,0.00e+00,
473,3.20e-03,
474,-8.00e-04,
475,2.40e-03,
476,0.00e+00,
477,4.00e-03,
478,3.20e-03,
479,-8.00e-04,
480,-8.00e-04,
481,3.20e-03,
482,3.20e-03,
483,-8.00e-04,
484,-8.00e-04,
485,4.00e-03,
486,0.00e+00,
487,3.20e-03,
488,0.00e+00,
489,2.80e-03,
490,0.00e+00,
491,3.20e-03,
492,0.00e+00,
493,3.20e-03,
494,2.40e-03,
495,0.00e+00,
496,3.20e-03,
497,-8.00e-04,
498,0.00e+00,
499,3.20e-03,
500,3.20e-03,
501,-8.00e-04,
502,0.00e+00,
503,3.20e-03,
504,0.00e+00,
505,3.20e-03,
506,3.20e-03,
507,-8.00e-04,
508,0.00e+00,
509,4.00e-03,
510,0.00e+00,
511,3.20e-03,
512,4.00e-03,
513,0.00e+00,
514,8.00e-04,
515,3.20e-03,
516,0.00e+00,
517,3.20e-03,
518,3.20e-03,
519,-8.00e-04,
520,3.20e-03,
521,0.00e+00,
522,0.00e+00,
523,3.20e-03,
524,0.00e+00,
525,3.20e-03,
526,0.00e+00,
527,2.80e-03,
528,8.00e-04,
529,3.20e-03,
530,0.00e+00,
531,3.20e-03,
532,8.00e-04,
533,3.20e-03,
534,8.00e-04,
535,2.40e-03,
536,0.00e+00,
537,3.20e-03,
538,3.20e-03,
539,0.00e+00,
540,2.40e-03,
541,8.00e-04,
542,8.00e-04,
543,3.20e-03,
544,3.20e-03,
545,0.00e+00,
546,0.00e+00,
547,2.80e-03,
548,8.00e-04,
549,3.60e-03,
550,4.00e-03,
551,8.00e-04,
552,0.00e+00,
553,3.20e-03,
554,3.20e-03,
555,0.00e+00,
556,0.00e+00,
557,3.20e-03,
558,3.20e-03,
559,0.00e+00,
560,0.00e+00,
561,3.20e-03,
562,4.00e-03,
563,0.00e+00,
564,0.00e+00,
565,3.20e-03,
566,0.00e+00,
567,3.20e-03,
568,3.20e-03,
569,0.00e+00,
570,0.00e+00,
571,3.20e-03,
572,8.00e-04,
573,3.20e-03,
574,3.20e-03,
575,0.00e+00,
576,3.20e-03,
577,8.00e-04,
578,4.00e-03,
579,0.00e+00,
580,8.00e-04,
581,4.00e-03,
582,2.40e-03,
583,8.00e-04,
584,3.20e-03,
585,0.00e+00,
586,3.20e-03,
587,0.00e+00,
588,0.00e+00,
589,3.20e-03,
590,3.20e-03,
591,8.00e-04,
592,8.00e-04,
593,3.20e-03,
594,3.20e-03,
595,0.00e+00,
596,0.00e+00,
597,3.20e-03,
598,2.40e-03,
599,0.00e+00,
600,0.00e+00,
601,2.40e-03,
602,8.00e-04,
603,3.20e-03,
604,8.00e-04,
605,3.20e-03,
606,3.20e-03,
607,0.00e+00,
608,3.20e-03,
609,-8.00e-04,
610,0.00e+00,
611,3.20e-03,
612,0.00e+00,
613,3.20e-03,
614,0.00e+00,
615,2.80e-03,
616,0.00e+00,
617,3.20e-03,
618,8.00e-04,
619,3.20e-03,
620,0.00e+00,
621,3.20e-03,
622,2.80e-03,
623,0.00e+00,
624,2.40e-03,
625,-8.00e-04,
626,8.00e-04,
627,3.20e-03,
628,8.00e-04,
629,3.20e-03,
630,3.20e-03,
631,0.00e+00,
632,3.20e-03,
633,0.00e+00,
634,0.00e+00,
635,3.20e-03,
636,0.00e+00,
637,2.40e-03,
638,0.00e+00,
639,3.20e-03,
640,3.20e-03,
641,0.00e+00,
642,3.20e-03,
643,0.00e+00,
644,0.00e+00,
645,3.20e-03,
646,8.00e-04,
647,3.20e-03,
648,2.40e-03,
649,0.00e+00,
650,0.00e+00,
651,3.20e-03,
652,3.20e-03,
653,0.00e+00,
654,3.20e-03,
655,0.00e+00,
656,2.40e-03,
657,0.00e+00,
658,2.80e-03,
659,0.00e+00,
660,0.00e+00,
661,2.80e-03,
662,0.00e+00,
663,2.40e-03,
664,3.20e-03,
665,-8.00e-04,
666,0.00e+00,
667,2.40e-03,
668,0.00e+00,
669,2.40e-03,
670,0.00e+00,
671,3.20e-03,
672,0.00e+00,
673,2.40e-03,
674,-1.60e-03,
675,2.40e-03,
676,-8.00e-04,
677,1.60e-03,
678,-8.00e-04,
679,2.40e-03,
680,2.40e-03,
681,0.00e+00,
682,-8.00e-04,
683,2.80e-03,
684,2.40e-03,
685,-8.00e-04,
686,0.00e+00,
687,2.40e-03,
688,-8.00e-04,
689,2.40e-03,
690,3.20e-03,
691,0.00e+00,
692,2.40e-03,
693,0.00e+00,
694,8.00e-04,
695,3.20e-03,
696,-8.00e-04,
697,3.20e-03,
698,3.20e-03,
699,-8.00e-04,
700,0.00e+00,
701,2.40e-03,
702,2.40e-03,
703,0.00e+00,
704,2.40e-03,
705,-8.00e-04,
706,-8.00e-04,
707,3.20e-03,
708,0.00e+00,
709,3.20e-03,
710,2.40e-03,
711,-8.00e-04,
712,3.20e-03,
713,0.00e+00,
714,2.80e-03,
715,0.00e+00,
716,0.00e+00,
717,3.20e-03,
718,2.40e-03,
719,0.00e+00,
720,0.00e+00,
721,3.20e-03,
722,2.40e-03,
723,0.00e+00,
724,2.40e-03,
725,-8.00e-04,
726,2.40e-03,
727,0.00e+00,
728,2.40e-03,
729,-8.00e-04,
730,2.40e-03,
731,0.00e+00,
732,-8.00e-04,
733,3.20e-03,
734,0.00e+00,
735,4.00e-03,
736,0.00e+00,
737,3.20e-03,
738,3.20e-03,
739,0.00e+00,
740,0.00e+00,
741,2.40e-03,
742,2.40e-03,
743,0.00e+00,
744,3.20e-03,
745,-8.00e-04,
746,-8.00e-04,
747,2.40e-03,
748,-1.60e-03,
749,2.40e-03,
750,-8.00e-04,
751,3.20e-03,
752,4.00e-03,
753,0.00e+00,
754,2.80e-03,
755,-4.00e-04,
756,2.40e-03,
757,0.00e+00,
758,0.00e+00,
759,2.00e-03,
760,0.00e+00,
761,2.40e-03,
762,-8.00e-04,
763,2.40e-03,
764,2.40e-03,
765,-8.00e-04,
766,-8.00e-04,
767,2.00e-03,
768,0.00e+00,
769,2.40e-03,
770,2.40e-03,
771,-8.00e-04,
772,-8.00e-04,
773,2.40e-03,
774,2.40e-03,
775,-8.00e-04,
776,2.40e-03,
777,-8.00e-04,
778,-8.00e-04,
779,2.40e-03,
780,-8.00e-04,
781,2.40e-03,
782,2.40e-03,
783,-8.00e-04,
784,-8.00e-04,
785,2.80e-03,
786,-8.00e-04,
787,2.40e-03,
788,-8.00e-04,
789,3.20e-03,
790,-8.00e-04,
791,2.00e-03,
792,2.40e-03,
793,-1.60e-03,
794,0.00e+00,
795,3.20e-03,
796,2.40e-03,
797,-1.60e-03,
798,-8.00e-04,
799,2.00e-03,
800,-8.00e-04,
801,2.00e-03,
802,2.40e-03,
803,-8.00e-04,
804,-8.00e-04,
805,2.40e-03,
806,-8.00e-04,
807,1.60e-03,
808,0.00e+00,
809,2.40e-03,
810,3.20e-03,
811,0.00e+00,
812,-8.00e-04,
813,2.40e-03,
814,2.40e-03,
815,-8.00e-04,
816,2.40e-03,
817,-8.00e-04,
818,2.40e-03,
819,-8.00e-04,
820,2.40e-03,
821,-8.00e-04,
822,-8.00e-04,
823,2.40e-03,
824,-8.00e-04,
825,2.40e-03,
826,3.20e-03,
827,-8.00e-04,
828,1.60e-03,
829,-8.00e-04,
830,-8.00e-04,
831,2.40e-03,
832,2.00e-03,
833,-8.00e-04,
834,-8.00e-04,
835,2.40e-03,
836,-8.00e-04,
837,1.60e-03,
838,-1.60e-03,
839,2.40e-03,
840,-1.60e-03,
841,2.40e-03,
842,-8.00e-04,
843,2.00e-03,
844,0.00e+00,
845,2.40e-03,
846,-8.00e-04,
847,2.80e-03,
848,-8.00e-04,
849,2.40e-03,
850,0.00e+00,
851,2.40e-03,
852,-8.00e-04,
853,3.20e-03,
854,2.40e-03,
855,0.00e+00,
856,2.40e-03,
857,-8.00e-04,
858,0.00e+00,
859,2.40e-03,
860,-1.60e-03,
861,2.40e-03,
862,-8.00e-04,
863,2.40e-03,
864,0.00e+00,
865,2.40e-03,
866,2.80e-03,
867,-8.00e-04,
868,-1.60e-03,
869,3.20e-03,
870,-8.00e-04,
871,3.20e-03,
872,2.40e-03,
873,-8.00e-04,
874,-8.00e-04,
875,2.40e-03,
876,-8.00e-04,
877,2.80e-03,
878,0.00e+00,
879,3.20e-03,
880,-8.00e-04,
881,2.40e-03,
882,2.40e-03,
883,-8.00e-04,
884,2.40e-03,
885,0.00e+00,
886,0.00e+00,
887,2.40e-03,
888,2.80e-03,
889,0.00e+00,
890,0.00e+00,
891,3.20e-03,
892,-4.00e-04,
893,2.80e-03,
894,0.00e+00,
895,2.40e-03,
896,0.00e+00,
897,2.40e-03,
898,0.00e+00,
899,2.40e-03,
900,-8.00e-04,
901,2.40e-03,
902,0.00e+00,
903,2.40e-03,
904,2.40e-03,
905,0.00e+00,
906,0.00e+00,
907,3.20e-03,
908,2.40e-03,
909,-8.00e-04,
910,2.40e-03,
911,0.00e+00,
912,3.20e-03,
913,0.00e+00,
914,0.00e+00,
915,3.20e-03,
916,3.20e-03,
917,0.00e+00,
918,0.00e+00,
919,3.20e-03,
920,2.00e-03,
921,-8.00e-04,
922,-8.00e-04,
923,2.40e-03,
924,0.00e+00,
925,2.40e-03,
926,3.20e-03,
927,-1.60e-03,
928,-8.00e-04,
929,2.80e-03,
930,0.00e+00,
931,2.40e-03,
932,-8.00e-04,
933,2.40e-03,
934,2.40e-03,
935,-8.00e-04,
936,-1.60e-03,
937,2.40e-03,
938,1.60e-03,
939,-8.00e-04,
940,1.60e-03,
941,-1.20e-03,
942,2.40e-03,
943,-1.60e-03,
944,-8.00e-04,
945,2.40e-03,
946,-8.00e-04,
947,3.20e-03,
948,-8.00e-04,
949,2.40e-03,
950,-8.00e-04,
951,2.00e-03,
952,-8.00e-04,
953,2.40e-03,
954,2.40e-03,
955,-8.00e-04,
956,2.40e-03,
957,-1.60e-03,
958,0.00e+00,
959,3.60e-03,
960,-8.00e-04,
961,3.20e-03,
962,-8.00e-04,
963,2.40e-03,
964,-8.00e-04,
965,2.40e-03,
966,1.60e-03,
967,-8.00e-04,
968,0.00e+00,
969,3.20e-03,
970,2.80e-03,
971,-8.00e-04,
972,2.40e-03,
973,-8.00e-04,
974,0.00e+00,
975,2.40e-03,
976,2.00e-03,
977,-8.00e-04,
978,0.00e+00,
979,2.40e-03,
980,2.40e-03,
981,-8.00e-04,
982,0.00e+00,
983,2.40e-03,
984,2.00e-03,
985,-8.00e-04,
986,0.00e+00,
987,3.20e-03,
988,2.40e-03,
989,-8.00e-04,
990,0.00e+00,
991,3.20e-03,
992,2.40e-03,
993,-8.00e-04,
994,0.00e+00,
995,2.40e-03,
996,-1.60e-03,
997,2.00e-03,
998,-8.00e-04,
999,2.80e-03,
1000,-8.00e-04,
1001,2.40e-03,
1002,2.40e-03,
1003,-4.00e-04,
1004,-8.00e-04,
1005,2.40e-03,
1006,3.20e-03,
1007,-8.00e-04,
1008,0.00e+00,
1009,2.40e-03,
1010,-8.00e-04,
1011,2.40e-03,
1012,2.40e-03,
1013,-8.00e-04,
1014,-8.00e-04,
1015,2.80e-03,
1016,0.00e+00,
1017,2.40e-03,
1018,-8.00e-04,
1019,2.00e-03,
1020,-8.00e-04,
1021,2.00e-03,
1022,1.60e-03,
1023,-8.00e-04,
1024,0.00e+00,
1025,2.40e-03,
1026,2.40e-03,
1027,-8.00e-04,
1028,-8.00e-04,
1029,2.40e-03,
1030,-8.00e-04,
1031,3.20e-03,
1032,-8.00e-04,
1033,2.40e-03,
1034,-4.00e-04,
1035,2.40e-03,
1036,2.40e-03,
1037,-8.00e-04,
1038,2.40e-03,
1039,-8.00e-04,
1040,-8.00e-04,
1041,2.40e-03,
1042,2.40e-03,
1043,-8.00e-04,
1044,2.40e-03,
1045,-8.00e-04,
1046,2.40e-03,
1047,-1.60e-03,
1048,-8.00e-04,
1049,2.40e-03,
1050,2.00e-03,
1051,-8.00e-04,
1052,-1.60e-03,
1053,2.40e-03,
1054,2.40e-03,
1055,-8.00e-04,
1056,3.20e-03,
1057,-8.00e-04,
1058,2.40e-03,
1059,-8.00e-04,
1060,-8.00e-04,
1061,2.80e-03,
1062,2.80e-03,
1063,-8.00e-04,
1064,2.40e-03,
1065,-8.00e-04,
1066,2.00e-03,
1067,-8.00e-04,
1068,-8.00e-04,
1069,2.40e-03,
1070,-8.00e-04,
1071,2.40e-03,
1072,2.00e-03,
1073,-8.00e-04,
1074,2.00e-03,
1075,-8.00e-04,
1076,1.60e-03,
1077,-8.00e-04,
1078,-8.00e-04,
1079,2.00e-03,
1080,2.80e-03,
1081,-8.00e-04,
1082,2.00e-03,
1083,-1.60e-03,
1084,2.00e-03,
1085,-8.00e-04,
1086,-1.60e-03,
1087,2.40e-03,
1088,-8.00e-04,
1089,2.80e-03,
1090,-8.00e-04,
1091,2.40e-03,
1092,-8.00e-04,
1093,2.40e-03,
1094,1.60e-03,
1095,-1.60e-03,
1096,-8.00e-04,
1097,2.40e-03,
1098,0.00e+00,
1099,2.00e-03,
1100,-1.60e-03,
1101,2.40e-03,
1102,2.40e-03,
1103,-8.00e-04,
1104,-1.60e-03,
1105,2.40e-03,
1106,-8.00e-04,
1107,2.40e-03,
1108,2.00e-03,
1109,-8.00e-04,
1110,2.40e-03,
1111,-8.00e-04,
1112,-8.00e-04,
1113,2.40e-03,
1114,1.60e-03,
1115,-8.00e-04,
1116,2.40e-03,
1117,-8.00e-04,
1118,1.60e-03,
1119,-8.00e-04,
1120,2.40e-03,
1121,-8.00e-04,
1122,0.00e+00,
1123,2.40e-03,
1124,0.00e+00,
1125,3.20e-03,
1126,-8.00e-04,
1127,2.40e-03,
1128,1.60e-03,
1129,-8.00e-04,
1130,-1.60e-03,
1131,3.20e-03,
1132,2.40e-03,
1133,-8.00e-04,
1134,-8.00e-04,
1135,2.40e-03,
1136,2.40e-03,
1137,-8.00e-04,
1138,-8.00e-04,
1139,2.00e-03,
1140,-8.00e-04,
1141,2.40e-03,
1142,-8.00e-04,
1143,2.00e-03,
1144,3.20e-03,
1145,-8.00e-04,
1146,-8.00e-04,
1147,1.60e-03,
1148,-8.00e-04,
1149,2.00e-03,
1150,0.00e+00,
1151,2.40e-03,
1152,1.60e-03,
1153,-8.00e-04,
1154,0.00e+00,
1155,2.80e-03,
1156,-8.00e-04,
1157,1.60e-03,
1158,-8.00e-04,
1159,2.00e-03,
1160,-8.00e-04,
1161,2.40e-03,
1162,2.40e-03,
1163,-8.00e-04,
1164,2.40e-03,
1165,-8.00e-04,
1166,2.00e-03,
1167,-8.00e-04,
1168,-1.60e-03,
1169,2.40e-03,
1170,-8.00e-04,
1171,2.40e-03,
1172,2.40e-03,
1173,0.00e+00,
1174,2.00e-03,
1175,-8.00e-04,
1176,0.00e+00,
1177,2.40e-03,
1178,-8.00e-04,
1179,2.00e-03,
1180,1.60e-03,
1181,-8.00e-04,
1182,3.20e-03,
1183,-1.60e-03,
1184,2.00e-03,
1185,-8.00e-04,
1186,1.60e-03,
1187,-8.00e-04,
1188,1.60e-03,
1189,-2.40e-03,
1190,-8.00e-04,
1191,2.40e-03,
1192,-1.60e-03,
1193,2.40e-03,
1194,-1.60e-03,
1195,2.80e-03,
1196,-8.00e-04,
1197,2.80e-03,
1198,1.60e-03,
1199,-1.60e-03,
