fastdiffamp/data-noise-set/6th/NewFile1.csv

X,CH1,Start,Increment,
Sequence,Volt,-1.200000e-02,2.000000e-05
0,8.00e-04,
1,4.00e-03,
2,8.00e-04,
3,3.20e-03,
4,0.00e+00,
5,3.20e-03,
6,4.00e-03,
7,0.00e+00,
8,3.20e-03,
9,4.00e-04,
10,8.00e-04,
11,4.00e-03,
12,8.00e-04,
13,4.00e-03,
14,-8.00e-04,
15,3.20e-03,
16,3.20e-03,
17,0.00e+00,
18,0.00e+00,
19,3.20e-03,
20,2.40e-03,
21,0.00e+00,
22,4.00e-03,
23,0.00e+00,
24,3.20e-03,
25,8.00e-04,
26,4.00e-03,
27,0.00e+00,
28,8.00e-04,
29,4.00e-03,
30,8.00e-04,
31,4.00e-03,
32,8.00e-04,
33,4.00e-03,
34,0.00e+00,
35,3.20e-03,
36,3.20e-03,
37,8.00e-04,
38,8.00e-04,
39,4.00e-03,
40,4.00e-03,
41,8.00e-04,
42,-8.00e-04,
43,4.00e-03,
44,0.00e+00,
45,4.00e-03,
46,0.00e+00,
47,4.00e-03,
48,4.00e-03,
49,8.00e-04,
50,8.00e-04,
51,4.00e-03,
52,8.00e-04,
53,3.20e-03,
54,3.20e-03,
55,4.00e-04,
56,8.00e-04,
57,3.20e-03,
58,3.20e-03,
59,8.00e-04,
60,3.20e-03,
61,0.00e+00,
62,4.00e-03,
63,0.00e+00,
64,0.00e+00,
65,3.20e-03,
66,3.20e-03,
67,8.00e-04,
68,3.20e-03,
69,0.00e+00,
70,8.00e-04,
71,4.00e-03,
72,3.20e-03,
73,0.00e+00,
74,8.00e-04,
75,3.20e-03,
76,3.20e-03,
77,8.00e-04,
78,3.20e-03,
79,0.00e+00,
80,3.60e-03,
81,-8.00e-04,
82,3.20e-03,
83,0.00e+00,
84,8.00e-04,
85,4.00e-03,
86,3.20e-03,
87,0.00e+00,
88,4.00e-03,
89,0.00e+00,
90,8.00e-04,
91,4.00e-03,
92,8.00e-04,
93,4.00e-03,
94,8.00e-04,
95,3.20e-03,
96,8.00e-04,
97,3.20e-03,
98,3.20e-03,
99,8.00e-04,
100,3.20e-03,
101,0.00e+00,
102,3.20e-03,
103,0.00e+00,
104,4.00e-03,
105,-8.00e-04,
106,-8.00e-04,
107,2.40e-03,
108,8.00e-04,
109,2.40e-03,
110,0.00e+00,
111,3.20e-03,
112,3.20e-03,
113,0.00e+00,
114,0.00e+00,
115,3.20e-03,
116,0.00e+00,
117,4.00e-03,
118,3.20e-03,
119,0.00e+00,
120,0.00e+00,
121,2.80e-03,
122,0.00e+00,
123,3.20e-03,
124,0.00e+00,
125,2.80e-03,
126,0.00e+00,
127,3.20e-03,
128,2.40e-03,
129,0.00e+00,
130,2.40e-03,
131,0.00e+00,
132,0.00e+00,
133,3.20e-03,
134,-8.00e-04,
135,2.80e-03,
136,3.20e-03,
137,-8.00e-04,
138,3.20e-03,
139,0.00e+00,
140,2.40e-03,
141,-1.60e-03,
142,-8.00e-04,
143,2.40e-03,
144,-8.00e-04,
145,2.40e-03,
146,3.20e-03,
147,-8.00e-04,
148,2.40e-03,
149,-8.00e-04,
150,0.00e+00,
151,2.40e-03,
152,2.40e-03,
153,0.00e+00,
154,0.00e+00,
155,2.80e-03,
156,-8.00e-04,
157,3.20e-03,
158,2.40e-03,
159,0.00e+00,
160,2.40e-03,
161,0.00e+00,
162,2.80e-03,
163,0.00e+00,
164,0.00e+00,
165,2.40e-03,
166,3.20e-03,
167,-8.00e-04,
168,3.20e-03,
169,0.00e+00,
170,0.00e+00,
171,2.40e-03,
172,2.40e-03,
173,0.00e+00,
174,4.00e-03,
175,-8.00e-04,
176,0.00e+00,
177,3.20e-03,
178,0.00e+00,
179,3.20e-03,
180,0.00e+00,
181,4.00e-03,
182,0.00e+00,
183,3.60e-03,
184,2.40e-03,
185,-8.00e-04,
186,0.00e+00,
187,2.80e-03,
188,3.20e-03,
189,-8.00e-04,
190,2.40e-03,
191,0.00e+00,
192,0.00e+00,
193,3.20e-03,
194,-8.00e-04,
195,3.20e-03,
196,2.80e-03,
197,-8.00e-04,
198,3.20e-03,
199,-8.00e-04,
200,-8.00e-04,
201,3.20e-03,
202,0.00e+00,
203,3.20e-03,
204,2.40e-03,
205,-8.00e-04,
206,2.40e-03,
207,-8.00e-04,
208,2.40e-03,
209,-1.60e-03,
210,-1.60e-03,
211,3.20e-03,
212,0.00e+00,
213,2.40e-03,
214,0.00e+00,
215,2.40e-03,
216,-8.00e-04,
217,2.40e-03,
218,-1.60e-03,
219,3.20e-03,
220,2.40e-03,
221,-8.00e-04,
222,0.00e+00,
223,2.80e-03,
224,2.40e-03,
225,-8.00e-04,
226,2.40e-03,
227,0.00e+00,
228,-8.00e-04,
229,3.20e-03,
230,2.40e-03,
231,-8.00e-04,
232,3.20e-03,
233,-1.60e-03,
234,0.00e+00,
235,1.60e-03,
236,2.00e-03,
237,-8.00e-04,
238,-8.00e-04,
239,2.40e-03,
240,-8.00e-04,
241,2.40e-03,
242,-8.00e-04,
243,3.20e-03,
244,-8.00e-04,
245,2.40e-03,
246,2.40e-03,
247,-8.00e-04,
248,1.60e-03,
249,-8.00e-04,
250,-8.00e-04,
251,2.40e-03,
252,-8.00e-04,
253,2.40e-03,
254,2.40e-03,
255,-8.00e-04,
256,1.60e-03,
257,-1.60e-03,
258,1.60e-03,
259,-1.60e-03,
260,2.40e-03,
261,-1.60e-03,
262,-8.00e-04,
263,2.00e-03,
264,3.20e-03,
265,-8.00e-04,
266,3.20e-03,
267,-1.60e-03,
268,-8.00e-04,
269,2.40e-03,
270,-8.00e-04,
271,1.60e-03,
272,2.40e-03,
273,-8.00e-04,
274,-8.00e-04,
275,2.00e-03,
276,2.40e-03,
277,-8.00e-04,
278,0.00e+00,
279,2.40e-03,
280,-8.00e-04,
281,2.00e-03,
282,-8.00e-04,
283,4.00e-03,
284,-8.00e-04,
285,2.40e-03,
286,2.40e-03,
287,-8.00e-04,
288,1.60e-03,
289,-8.00e-04,
290,-8.00e-04,
291,2.40e-03,
292,-8.00e-04,
293,2.40e-03,
294,2.40e-03,
295,0.00e+00,
296,-8.00e-04,
297,3.20e-03,
298,-8.00e-04,
299,2.40e-03,
300,2.00e-03,
301,0.00e+00,
302,-8.00e-04,
303,2.40e-03,
304,-8.00e-04,
305,2.40e-03,
306,2.40e-03,
307,-8.00e-04,
308,-1.60e-03,
309,3.20e-03,
310,1.60e-03,
311,-8.00e-04,
312,-8.00e-04,
313,1.60e-03,
314,-8.00e-04,
315,2.80e-03,
316,-8.00e-04,
317,1.60e-03,
318,1.60e-03,
319,-8.00e-04,
320,-8.00e-04,
321,2.40e-03,
322,-1.60e-03,
323,1.60e-03,
324,-8.00e-04,
325,2.40e-03,
326,1.60e-03,
327,-8.00e-04,
328,1.60e-03,
329,-1.60e-03,
330,-8.00e-04,
331,2.00e-03,
332,-8.00e-04,
333,1.60e-03,
334,2.00e-03,
335,-1.60e-03,
336,-1.60e-03,
337,2.00e-03,
338,2.40e-03,
339,-1.60e-03,
340,-1.60e-03,
341,1.60e-03,
342,-1.60e-03,
343,2.40e-03,
344,2.40e-03,
345,-8.00e-04,
346,-8.00e-04,
347,2.00e-03,
348,-8.00e-04,
349,2.40e-03,
350,-1.60e-03,
351,2.00e-03,
352,2.40e-03,
353,-1.60e-03,
354,2.00e-03,
355,-8.00e-04,
356,-8.00e-04,
357,2.00e-03,
358,-8.00e-04,
359,1.60e-03,
360,-1.60e-03,
361,1.60e-03,
362,-8.00e-04,
363,2.80e-03,
364,2.40e-03,
365,-8.00e-04,
366,-8.00e-04,
367,3.20e-03,
368,0.00e+00,
369,2.40e-03,
370,2.40e-03,
371,-8.00e-04,
372,2.40e-03,
373,-8.00e-04,
374,2.40e-03,
375,-8.00e-04,
376,2.40e-03,
377,-8.00e-04,
378,0.00e+00,
379,3.20e-03,
380,3.20e-03,
381,-8.00e-04,
382,3.20e-03,
383,-8.00e-04,
384,-8.00e-04,
385,4.00e-03,
386,2.40e-03,
387,-8.00e-04,
388,-8.00e-04,
389,3.20e-03,
390,-8.00e-04,
391,2.40e-03,
392,0.00e+00,
393,2.40e-03,
394,-8.00e-04,
395,1.60e-03,
396,-1.60e-03,
397,2.80e-03,
398,-8.00e-04,
399,2.40e-03,
400,2.40e-03,
401,-8.00e-04,
402,2.40e-03,
403,-1.60e-03,
404,-1.60e-03,
405,2.40e-03,
406,-8.00e-04,
407,2.00e-03,
408,-8.00e-04,
409,3.20e-03,
410,0.00e+00,
411,2.40e-03,
412,3.20e-03,
413,-8.00e-04,
414,-8.00e-04,
415,2.40e-03,
416,0.00e+00,
417,2.40e-03,
418,-8.00e-04,
419,2.40e-03,
420,2.40e-03,
421,-8.00e-04,
422,0.00e+00,
423,3.20e-03,
424,-8.00e-04,
425,2.40e-03,
426,2.40e-03,
427,0.00e+00,
428,0.00e+00,
429,2.40e-03,
430,-8.00e-04,
431,2.40e-03,
432,-8.00e-04,
433,2.40e-03,
434,0.00e+00,
435,3.20e-03,
436,-8.00e-04,
437,3.20e-03,
438,2.00e-03,
439,0.00e+00,
440,2.40e-03,
441,-8.00e-04,
442,0.00e+00,
443,2.40e-03,
444,-1.60e-03,
445,3.20e-03,
446,-8.00e-04,
447,2.40e-03,
448,-8.00e-04,
449,2.80e-03,
450,-8.00e-04,
451,3.20e-03,
452,2.40e-03,
453,0.00e+00,
454,2.40e-03,
455,-1.20e-03,
456,0.00e+00,
457,2.40e-03,
458,3.20e-03,
459,-8.00e-04,
460,2.40e-03,
461,-8.00e-04,
462,2.40e-03,
463,-8.00e-04,
464,2.40e-03,
465,-8.00e-04,
466,-1.60e-03,
467,1.60e-03,
468,2.80e-03,
469,-8.00e-04,
470,2.40e-03,
471,-8.00e-04,
472,-8.00e-04,
473,3.20e-03,
474,2.40e-03,
475,-8.00e-04,
476,2.40e-03,
477,-8.00e-04,
478,2.40e-03,
479,-1.60e-03,
480,2.40e-03,
481,-8.00e-04,
482,-8.00e-04,
483,2.40e-03,
484,-8.00e-04,
485,2.80e-03,
486,-8.00e-04,
487,2.40e-03,
488,-1.60e-03,
489,2.80e-03,
490,2.00e-03,
491,-8.00e-04,
492,-8.00e-04,
493,2.40e-03,
494,-8.00e-04,
495,2.40e-03,
496,2.40e-03,
497,-8.00e-04,
498,-8.00e-04,
499,2.40e-03,
500,-1.60e-03,
501,2.40e-03,
502,1.60e-03,
503,-1.60e-03,
504,2.40e-03,
505,-8.00e-04,
506,2.40e-03,
507,-8.00e-04,
508,-8.00e-04,
509,1.60e-03,
510,1.60e-03,
511,-8.00e-04,
512,0.00e+00,
513,2.00e-03,
514,-8.00e-04,
515,2.40e-03,
516,-8.00e-04,
517,2.40e-03,
518,-1.60e-03,
519,2.40e-03,
520,-8.00e-04,
521,2.40e-03,
522,-8.00e-04,
523,2.80e-03,
524,2.40e-03,
525,-1.60e-03,
526,-8.00e-04,
527,2.40e-03,
528,-1.60e-03,
529,2.40e-03,
530,-8.00e-04,
531,2.40e-03,
532,2.40e-03,
533,-8.00e-04,
534,-8.00e-04,
535,2.40e-03,
536,-1.60e-03,
537,2.80e-03,
538,0.00e+00,
539,2.40e-03,
540,3.20e-03,
541,-8.00e-04,
542,2.40e-03,
543,-8.00e-04,
544,0.00e+00,
545,2.40e-03,
546,2.40e-03,
547,-8.00e-04,
548,0.00e+00,
549,2.40e-03,
550,-1.60e-03,
551,2.00e-03,
552,0.00e+00,
553,2.40e-03,
554,-8.00e-04,
555,2.40e-03,
556,2.40e-03,
557,-8.00e-04,
558,2.40e-03,
559,-1.60e-03,
560,-8.00e-04,
561,2.80e-03,
562,2.40e-03,
563,-1.60e-03,
564,2.40e-03,
565,-8.00e-04,
566,-8.00e-04,
567,2.40e-03,
568,2.40e-03,
569,-8.00e-04,
570,-8.00e-04,
571,2.80e-03,
572,-8.00e-04,
573,2.40e-03,
574,-8.00e-04,
575,2.40e-03,
576,1.60e-03,
577,-8.00e-04,
578,1.60e-03,
579,-8.00e-04,
580,-8.00e-04,
581,2.40e-03,
582,2.40e-03,
583,-8.00e-04,
584,2.40e-03,
585,-8.00e-04,
586,-8.00e-04,
587,2.40e-03,
588,0.00e+00,
589,3.20e-03,
590,-8.00e-04,
591,2.40e-03,
592,-8.00e-04,
593,2.40e-03,
594,2.40e-03,
595,-8.00e-04,
596,-8.00e-04,
597,3.20e-03,
598,-8.00e-04,
599,2.40e-03,
600,2.00e-03,
601,-8.00e-04,
602,-8.00e-04,
603,2.00e-03,
604,-1.60e-03,
605,2.40e-03,
606,1.60e-03,
607,-1.60e-03,
608,1.60e-03,
609,-8.00e-04,
610,1.60e-03,
611,-1.60e-03,
612,2.00e-03,
613,-1.60e-03,
614,-8.00e-04,
615,3.20e-03,
616,-1.60e-03,
617,2.40e-03,
618,-8.00e-04,
619,2.00e-03,
620,-1.60e-03,
621,1.60e-03,
622,-8.00e-04,
623,2.40e-03,
624,-8.00e-04,
625,2.40e-03,
626,1.60e-03,
627,-8.00e-04,
628,-8.00e-04,
629,2.40e-03,
630,-8.00e-04,
631,2.00e-03,
632,1.60e-03,
633,-1.60e-03,
634,-8.00e-04,
635,2.40e-03,
636,1.60e-03,
637,-8.00e-04,
638,1.60e-03,
639,-8.00e-04,
640,-8.00e-04,
641,2.40e-03,
642,2.40e-03,
643,-8.00e-04,
644,2.00e-03,
645,-8.00e-04,
646,-8.00e-04,
647,2.40e-03,
648,-1.60e-03,
649,1.60e-03,
650,2.80e-03,
651,-8.00e-04,
652,-8.00e-04,
653,2.40e-03,
654,2.40e-03,
655,-8.00e-04,
656,-8.00e-04,
657,2.40e-03,
658,-8.00e-04,
659,3.20e-03,
660,2.40e-03,
661,-8.00e-04,
662,-1.60e-03,
663,2.40e-03,
664,2.40e-03,
665,-8.00e-04,
666,0.00e+00,
667,2.40e-03,
668,0.00e+00,
669,2.40e-03,
670,2.40e-03,
671,-1.60e-03,
672,2.40e-03,
673,-8.00e-04,
674,1.60e-03,
675,-1.60e-03,
676,2.80e-03,
677,-1.60e-03,
678,2.40e-03,
679,-8.00e-04,
680,2.40e-03,
681,-1.60e-03,
682,-1.60e-03,
683,2.40e-03,
684,-8.00e-04,
685,2.40e-03,
686,2.80e-03,
687,-8.00e-04,
688,-8.00e-04,
689,2.40e-03,
690,-8.00e-04,
691,2.40e-03,
692,2.40e-03,
693,-8.00e-04,
694,2.00e-03,
695,-8.00e-04,
696,-8.00e-04,
697,2.40e-03,
698,-8.00e-04,
699,2.40e-03,
700,2.40e-03,
701,-8.00e-04,
702,-8.00e-04,
703,3.20e-03,
704,2.40e-03,
705,-8.00e-04,
706,0.00e+00,
707,3.20e-03,
708,0.00e+00,
709,3.20e-03,
710,0.00e+00,
711,2.40e-03,
712,2.40e-03,
713,-8.00e-04,
714,2.00e-03,
715,-8.00e-04,
716,2.40e-03,
717,-8.00e-04,
718,2.40e-03,
719,0.00e+00,
720,0.00e+00,
721,2.40e-03,
722,-8.00e-04,
723,2.40e-03,
724,-8.00e-04,
725,2.00e-03,
726,-8.00e-04,
727,2.00e-03,
728,2.40e-03,
729,-8.00e-04,
730,2.40e-03,
731,-8.00e-04,
732,2.40e-03,
733,0.00e+00,
734,-8.00e-04,
735,2.00e-03,
736,2.40e-03,
737,-1.60e-03,
738,3.20e-03,
739,-8.00e-04,
740,2.40e-03,
741,-8.00e-04,
742,2.40e-03,
743,-8.00e-04,
744,0.00e+00,
745,2.40e-03,
746,0.00e+00,
747,3.20e-03,
748,-1.60e-03,
749,2.80e-03,
750,0.00e+00,
751,2.80e-03,
752,2.40e-03,
753,-8.00e-04,
754,0.00e+00,
755,2.80e-03,
756,-8.00e-04,
757,3.20e-03,
758,2.80e-03,
759,-8.00e-04,
760,-8.00e-04,
761,2.40e-03,
762,-8.00e-04,
763,3.20e-03,
764,2.40e-03,
765,-1.60e-03,
766,2.80e-03,
767,-8.00e-04,
768,2.40e-03,
769,-8.00e-04,
770,3.20e-03,
771,-8.00e-04,
772,0.00e+00,
773,2.80e-03,
774,0.00e+00,
775,3.20e-03,
776,4.00e-03,
777,0.00e+00,
778,0.00e+00,
779,3.20e-03,
780,-8.00e-04,
781,3.20e-03,
782,2.80e-03,
783,-8.00e-04,
784,3.20e-03,
785,-8.00e-04,
786,2.40e-03,
787,0.00e+00,
788,0.00e+00,
789,2.40e-03,
790,0.00e+00,
791,3.20e-03,
792,3.20e-03,
793,-8.00e-04,
794,0.00e+00,
795,2.40e-03,
796,0.00e+00,
797,3.20e-03,
798,2.40e-03,
799,-8.00e-04,
800,2.40e-03,
801,-8.00e-04,
802,-8.00e-04,
803,2.40e-03,
804,3.20e-03,
805,0.00e+00,
806,3.20e-03,
807,-8.00e-04,
808,0.00e+00,
809,4.00e-03,
810,2.40e-03,
811,-1.60e-03,
812,3.20e-03,
813,0.00e+00,
814,2.40e-03,
815,0.00e+00,
816,3.20e-03,
817,0.00e+00,
818,2.40e-03,
819,0.00e+00,
820,-8.00e-04,
821,2.40e-03,
822,0.00e+00,
823,2.40e-03,
824,2.40e-03,
825,0.00e+00,
826,2.40e-03,
827,-1.60e-03,
828,0.00e+00,
829,3.20e-03,
830,0.00e+00,
831,2.40e-03,
832,0.00e+00,
833,2.40e-03,
834,2.40e-03,
835,0.00e+00,
836,0.00e+00,
837,2.40e-03,
838,2.40e-03,
839,-8.00e-04,
840,-8.00e-04,
841,2.40e-03,
842,0.00e+00,
843,2.40e-03,
844,2.40e-03,
845,0.00e+00,
846,0.00e+00,
847,2.40e-03,
848,2.40e-03,
849,-8.00e-04,
850,-8.00e-04,
851,2.40e-03,
852,2.40e-03,
853,-8.00e-04,
854,-8.00e-04,
855,3.20e-03,
856,-1.60e-03,
857,2.80e-03,
858,2.40e-03,
859,-8.00e-04,
860,-8.00e-04,
861,2.40e-03,
862,0.00e+00,
863,2.40e-03,
864,2.40e-03,
865,-8.00e-04,
866,2.40e-03,
867,-1.60e-03,
868,2.40e-03,
869,-8.00e-04,
870,0.00e+00,
871,3.20e-03,
872,2.40e-03,
873,-8.00e-04,
874,-8.00e-04,
875,2.40e-03,
876,2.40e-03,
877,-8.00e-04,
878,2.00e-03,
879,-8.00e-04,
880,2.40e-03,
881,-1.60e-03,
882,2.80e-03,
883,-1.60e-03,
884,3.20e-03,
885,-8.00e-04,
886,2.40e-03,
887,0.00e+00,
888,2.40e-03,
889,-8.00e-04,
890,-8.00e-04,
891,2.80e-03,
892,0.00e+00,
893,2.40e-03,
894,0.00e+00,
895,2.80e-03,
896,-8.00e-04,
897,2.40e-03,
898,2.40e-03,
899,-8.00e-04,
900,-1.60e-03,
901,3.20e-03,
902,-8.00e-04,
903,2.40e-03,
904,-8.00e-04,
905,2.00e-03,
906,2.40e-03,
907,-8.00e-04,
908,2.40e-03,
909,-1.60e-03,
910,-8.00e-04,
911,2.00e-03,
912,-8.00e-04,
913,2.40e-03,
914,2.40e-03,
915,-1.60e-03,
916,2.40e-03,
917,-8.00e-04,
918,-8.00e-04,
919,2.40e-03,
920,2.40e-03,
921,-8.00e-04,
922,-8.00e-04,
923,3.20e-03,
924,2.40e-03,
925,-8.00e-04,
926,-8.00e-04,
927,2.40e-03,
928,-8.00e-04,
929,2.40e-03,
930,2.00e-03,
931,-8.00e-04,
932,-8.00e-04,
933,2.40e-03,
934,-8.00e-04,
935,3.20e-03,
936,0.00e+00,
937,2.40e-03,
938,-8.00e-04,
939,3.20e-03,
940,2.40e-03,
941,0.00e+00,
942,0.00e+00,
943,3.20e-03,
944,2.40e-03,
945,-8.00e-04,
946,-8.00e-04,
947,2.80e-03,
948,-8.00e-04,
949,2.80e-03,
950,2.40e-03,
951,-8.00e-04,
952,0.00e+00,
953,2.40e-03,
954,2.40e-03,
955,-8.00e-04,
956,-8.00e-04,
957,2.40e-03,
958,-8.00e-04,
959,2.40e-03,
960,0.00e+00,
961,2.80e-03,
962,0.00e+00,
963,2.80e-03,
964,0.00e+00,
965,2.40e-03,
966,-8.00e-04,
967,2.40e-03,
968,0.00e+00,
969,2.40e-03,
970,2.00e-03,
971,-8.00e-04,
972,2.40e-03,
973,-8.00e-04,
974,-8.00e-04,
975,3.20e-03,
976,2.40e-03,
977,-8.00e-04,
978,-8.00e-04,
979,2.40e-03,
980,2.40e-03,
981,-8.00e-04,
982,-8.00e-04,
983,2.40e-03,
984,0.00e+00,
985,2.40e-03,
986,-8.00e-04,
987,2.40e-03,
988,0.00e+00,
989,2.40e-03,
990,-8.00e-04,
991,2.40e-03,
992,-8.00e-04,
993,2.40e-03,
994,3.20e-03,
995,-8.00e-04,
996,-8.00e-04,
997,3.20e-03,
998,2.40e-03,
999,-8.00e-04,
1000,-8.00e-04,
1001,2.40e-03,
1002,3.20e-03,
1003,-8.00e-04,
1004,-1.60e-03,
1005,3.20e-03,
1006,0.00e+00,
1007,2.40e-03,
1008,2.40e-03,
1009,-8.00e-04,
1010,2.80e-03,
1011,-8.00e-04,
1012,2.40e-03,
1013,0.00e+00,
1014,2.40e-03,
1015,-8.00e-04,
1016,2.80e-03,
1017,-8.00e-04,
1018,-8.00e-04,
1019,2.40e-03,
1020,0.00e+00,
1021,2.40e-03,
1022,2.40e-03,
1023,-8.00e-04,
1024,-8.00e-04,
1025,3.20e-03,
1026,0.00e+00,
1027,2.40e-03,
1028,2.00e-03,
1029,-8.00e-04,
1030,2.40e-03,
1031,-8.00e-04,
1032,2.00e-03,
1033,-8.00e-04,
1034,0.00e+00,
1035,2.40e-03,
1036,0.00e+00,
1037,3.20e-03,
1038,0.00e+00,
1039,3.20e-03,
1040,-8.00e-04,
1041,3.20e-03,
1042,0.00e+00,
1043,3.20e-03,
1044,0.00e+00,
1045,3.20e-03,
1046,0.00e+00,
1047,2.40e-03,
1048,2.40e-03,
1049,-8.00e-04,
1050,0.00e+00,
1051,2.80e-03,
1052,2.80e-03,
1053,-8.00e-04,
1054,3.20e-03,
1055,-8.00e-04,
1056,2.40e-03,
1057,-8.00e-04,
1058,-8.00e-04,
1059,2.40e-03,
1060,0.00e+00,
1061,4.00e-03,
1062,3.60e-03,
1063,-8.00e-04,
1064,0.00e+00,
1065,4.00e-03,
1066,3.20e-03,
1067,0.00e+00,
1068,0.00e+00,
1069,3.20e-03,
1070,3.20e-03,
1071,0.00e+00,
1072,0.00e+00,
1073,3.20e-03,
1074,2.40e-03,
1075,-8.00e-04,
1076,2.40e-03,
1077,0.00e+00,
1078,2.40e-03,
1079,0.00e+00,
1080,3.20e-03,
1081,-8.00e-04,
1082,0.00e+00,
1083,3.20e-03,
1084,0.00e+00,
1085,2.40e-03,
1086,3.20e-03,
1087,-8.00e-04,
1088,-8.00e-04,
1089,3.20e-03,
1090,-8.00e-04,
1091,3.20e-03,
1092,3.20e-03,
1093,-8.00e-04,
1094,3.20e-03,
1095,0.00e+00,
1096,0.00e+00,
1097,3.20e-03,
1098,0.00e+00,
1099,2.40e-03,
1100,-8.00e-04,
1101,2.40e-03,
1102,2.40e-03,
1103,-8.00e-04,
1104,0.00e+00,
1105,3.20e-03,
1106,3.20e-03,
1107,0.00e+00,
1108,3.20e-03,
1109,-8.00e-04,
1110,3.20e-03,
1111,0.00e+00,
1112,0.00e+00,
1113,3.20e-03,
1114,2.80e-03,
1115,0.00e+00,
1116,0.00e+00,
1117,2.80e-03,
1118,3.20e-03,
1119,0.00e+00,
1120,0.00e+00,
1121,3.20e-03,
1122,3.20e-03,
1123,8.00e-04,
1124,4.00e-03,
1125,-8.00e-04,
1126,0.00e+00,
1127,3.20e-03,
1128,-8.00e-04,
1129,3.20e-03,
1130,-8.00e-04,
1131,3.20e-03,
1132,2.40e-03,
1133,-8.00e-04,
1134,0.00e+00,
1135,3.20e-03,
1136,-8.00e-04,
1137,3.20e-03,
1138,-8.00e-04,
1139,3.20e-03,
1140,-8.00e-04,
1141,3.20e-03,
1142,0.00e+00,
1143,3.20e-03,
1144,0.00e+00,
1145,3.20e-03,
1146,0.00e+00,
1147,2.40e-03,
1148,3.20e-03,
1149,-8.00e-04,
1150,-8.00e-04,
1151,3.20e-03,
1152,2.40e-03,
1153,-8.00e-04,
1154,0.00e+00,
1155,2.80e-03,
1156,-8.00e-04,
1157,2.40e-03,
1158,0.00e+00,
1159,2.80e-03,
1160,-8.00e-04,
1161,3.20e-03,
1162,-8.00e-04,
1163,3.20e-03,
1164,0.00e+00,
1165,2.80e-03,
1166,2.40e-03,
1167,-8.00e-04,
1168,1.60e-03,
1169,-8.00e-04,
1170,-8.00e-04,
1171,2.40e-03,
1172,2.40e-03,
1173,-8.00e-04,
1174,2.40e-03,
1175,-8.00e-04,
1176,0.00e+00,
1177,2.40e-03,
1178,0.00e+00,
1179,2.40e-03,
1180,-4.00e-04,
1181,3.20e-03,
1182,-8.00e-04,
1183,2.40e-03,
1184,0.00e+00,
1185,2.40e-03,
1186,2.40e-03,
1187,-8.00e-04,
1188,2.40e-03,
1189,-8.00e-04,
1190,-8.00e-04,
1191,2.40e-03,
1192,0.00e+00,
1193,2.40e-03,
1194,0.00e+00,
1195,3.20e-03,
1196,0.00e+00,
1197,3.20e-03,
1198,2.40e-03,
1199,0.00e+00,
