fastdiffamp/data-noise-set/6th/NewFile4.csv

X,CH1,Start,Increment,
Sequence,Volt,-1.200000e-02,2.000000e-05
0,2.40e-03,
1,-8.00e-04,
2,-8.00e-04,
3,2.00e-03,
4,-8.00e-04,
5,2.40e-03,
6,2.00e-03,
7,-8.00e-04,
8,-8.00e-04,
9,2.00e-03,
10,0.00e+00,
11,1.60e-03,
12,2.40e-03,
13,-1.60e-03,
14,2.40e-03,
15,-8.00e-04,
16,1.60e-03,
17,-8.00e-04,
18,2.40e-03,
19,-8.00e-04,
20,-8.00e-04,
21,3.20e-03,
22,-8.00e-04,
23,2.40e-03,
24,2.40e-03,
25,-8.00e-04,
26,1.60e-03,
27,-8.00e-04,
28,-1.60e-03,
29,2.40e-03,
30,-1.60e-03,
31,2.40e-03,
32,1.60e-03,
33,-8.00e-04,
34,-8.00e-04,
35,2.40e-03,
36,-8.00e-04,
37,2.40e-03,
38,0.00e+00,
39,2.40e-03,
40,-1.60e-03,
41,2.40e-03,
42,2.00e-03,
43,-1.60e-03,
44,-8.00e-04,
45,2.00e-03,
46,-8.00e-04,
47,2.40e-03,
48,2.40e-03,
49,-1.60e-03,
50,1.60e-03,
51,-8.00e-04,
52,2.40e-03,
53,-1.60e-03,
54,2.00e-03,
55,-1.60e-03,
56,-1.60e-03,
57,1.60e-03,
58,-8.00e-04,
59,2.00e-03,
60,1.60e-03,
61,-8.00e-04,
62,1.60e-03,
63,-1.60e-03,
64,1.60e-03,
65,-1.60e-03,
66,1.60e-03,
67,-8.00e-04,
68,-1.60e-03,
69,2.00e-03,
70,-8.00e-04,
71,2.40e-03,
72,-1.60e-03,
73,1.60e-03,
74,2.00e-03,
75,-2.40e-03,
76,2.00e-03,
77,-1.60e-03,
78,2.40e-03,
79,-2.40e-03,
80,-1.60e-03,
81,8.00e-04,
82,-1.60e-03,
83,1.60e-03,
84,-1.60e-03,
85,1.60e-03,
86,-1.60e-03,
87,2.40e-03,
88,-8.00e-04,
89,1.60e-03,
90,1.60e-03,
91,-1.60e-03,
92,-1.60e-03,
93,2.40e-03,
94,1.60e-03,
95,-1.60e-03,
96,2.40e-03,
97,-2.40e-03,
98,3.60e-03,
99,-1.60e-03,
100,-8.00e-04,
101,2.40e-03,
102,-8.00e-04,
103,1.60e-03,
104,1.60e-03,
105,-1.60e-03,
106,-1.60e-03,
107,1.60e-03,
108,-8.00e-04,
109,1.60e-03,
110,1.60e-03,
111,-1.60e-03,
112,2.40e-03,
113,-1.60e-03,
114,-8.00e-04,
115,2.00e-03,
116,-8.00e-04,
117,2.40e-03,
118,-1.60e-03,
119,2.00e-03,
120,2.00e-03,
121,-8.00e-04,
122,2.40e-03,
123,-1.20e-03,
124,1.60e-03,
125,-1.60e-03,
126,-8.00e-04,
127,1.60e-03,
128,-1.60e-03,
129,1.60e-03,
130,-8.00e-04,
131,2.40e-03,
132,2.40e-03,
133,-1.60e-03,
134,2.40e-03,
135,-1.60e-03,
136,-8.00e-04,
137,2.40e-03,
138,-8.00e-04,
139,1.60e-03,
140,-1.60e-03,
141,1.60e-03,
142,1.60e-03,
143,-1.60e-03,
144,-1.60e-03,
145,1.60e-03,
146,-8.00e-04,
147,2.80e-03,
148,-8.00e-04,
149,2.40e-03,
150,-8.00e-04,
151,2.40e-03,
152,-8.00e-04,
153,2.40e-03,
154,-8.00e-04,
155,2.40e-03,
156,1.20e-03,
157,-1.60e-03,
158,-8.00e-04,
159,1.60e-03,
160,1.60e-03,
161,-2.40e-03,
162,1.60e-03,
163,-1.60e-03,
164,1.60e-03,
165,-8.00e-04,
166,-1.60e-03,
167,3.20e-03,
168,2.40e-03,
169,-1.60e-03,
170,-1.60e-03,
171,2.40e-03,
172,-2.40e-03,
173,2.00e-03,
174,2.00e-03,
175,-1.60e-03,
176,-1.60e-03,
177,2.40e-03,
178,-8.00e-04,
179,2.40e-03,
180,-8.00e-04,
181,2.40e-03,
182,2.00e-03,
183,-8.00e-04,
184,1.60e-03,
185,-1.60e-03,
186,-8.00e-04,
187,2.00e-03,
188,-1.60e-03,
189,1.60e-03,
190,-1.60e-03,
191,1.60e-03,
192,2.00e-03,
193,-1.60e-03,
194,-8.00e-04,
195,2.40e-03,
196,1.60e-03,
197,-1.60e-03,
198,-2.40e-03,
199,1.60e-03,
200,-1.60e-03,
201,1.60e-03,
202,-8.00e-04,
203,2.00e-03,
204,2.00e-03,
205,-1.60e-03,
206,1.60e-03,
207,-1.60e-03,
208,1.60e-03,
209,-1.60e-03,
210,1.60e-03,
211,-1.60e-03,
212,2.40e-03,
213,-8.00e-04,
214,-8.00e-04,
215,2.00e-03,
216,-1.60e-03,
217,1.20e-03,
218,1.60e-03,
219,-1.60e-03,
220,2.80e-03,
221,-1.60e-03,
222,-1.60e-03,
223,2.40e-03,
224,-1.60e-03,
225,1.60e-03,
226,-1.60e-03,
227,2.40e-03,
228,2.40e-03,
229,-1.60e-03,
230,1.60e-03,
231,-1.60e-03,
232,2.40e-03,
233,-8.00e-04,
234,-1.60e-03,
235,1.60e-03,
236,-8.00e-04,
237,2.80e-03,
238,2.40e-03,
239,-8.00e-04,
240,-8.00e-04,
241,4.00e-03,
242,-8.00e-04,
243,3.20e-03,
244,-8.00e-04,
245,2.40e-03,
246,1.60e-03,
247,-1.60e-03,
248,2.40e-03,
249,-8.00e-04,
250,3.20e-03,
251,-8.00e-04,
252,-8.00e-04,
253,2.40e-03,
254,-1.60e-03,
255,2.40e-03,
256,2.80e-03,
257,-8.00e-04,
258,-8.00e-04,
259,2.40e-03,
260,-8.00e-04,
261,3.20e-03,
262,4.00e-03,
263,0.00e+00,
264,0.00e+00,
265,2.80e-03,
266,0.00e+00,
267,3.20e-03,
268,3.20e-03,
269,0.00e+00,
270,2.40e-03,
271,-8.00e-04,
272,-1.60e-03,
273,3.20e-03,
274,2.40e-03,
275,-8.00e-04,
276,-8.00e-04,
277,2.40e-03,
278,-8.00e-04,
279,2.00e-03,
280,-8.00e-04,
281,2.40e-03,
282,2.40e-03,
283,-8.00e-04,
284,-8.00e-04,
285,3.20e-03,
286,0.00e+00,
287,2.40e-03,
288,2.40e-03,
289,-1.60e-03,
290,2.40e-03,
291,-8.00e-04,
292,-8.00e-04,
293,2.80e-03,
294,0.00e+00,
295,2.40e-03,
296,2.40e-03,
297,0.00e+00,
298,0.00e+00,
299,2.40e-03,
300,0.00e+00,
301,2.40e-03,
302,-8.00e-04,
303,3.20e-03,
304,-8.00e-04,
305,2.40e-03,
306,0.00e+00,
307,3.20e-03,
308,-8.00e-04,
309,3.20e-03,
310,-8.00e-04,
311,2.80e-03,
312,0.00e+00,
313,3.20e-03,
314,0.00e+00,
315,3.20e-03,
316,3.20e-03,
317,0.00e+00,
318,3.20e-03,
319,-8.00e-04,
320,-8.00e-04,
321,2.40e-03,
322,2.40e-03,
323,-8.00e-04,
324,-8.00e-04,
325,3.20e-03,
326,-8.00e-04,
327,3.20e-03,
328,0.00e+00,
329,2.80e-03,
330,0.00e+00,
331,3.20e-03,
332,2.40e-03,
333,0.00e+00,
334,3.20e-03,
335,-8.00e-04,
336,2.40e-03,
337,0.00e+00,
338,3.20e-03,
339,0.00e+00,
340,0.00e+00,
341,2.40e-03,
342,0.00e+00,
343,3.20e-03,
344,3.20e-03,
345,-8.00e-04,
346,0.00e+00,
347,2.40e-03,
348,0.00e+00,
349,2.80e-03,
350,3.20e-03,
351,-8.00e-04,
352,-8.00e-04,
353,2.40e-03,
354,0.00e+00,
355,3.20e-03,
356,2.80e-03,
357,0.00e+00,
358,3.20e-03,
359,-8.00e-04,
360,-8.00e-04,
361,3.20e-03,
362,3.20e-03,
363,0.00e+00,
364,0.00e+00,
365,3.20e-03,
366,0.00e+00,
367,3.20e-03,
368,0.00e+00,
369,3.20e-03,
370,2.80e-03,
371,-8.00e-04,
372,0.00e+00,
373,2.40e-03,
374,-8.00e-04,
375,2.80e-03,
376,2.40e-03,
377,0.00e+00,
378,0.00e+00,
379,2.40e-03,
380,2.80e-03,
381,-8.00e-04,
382,0.00e+00,
383,3.20e-03,
384,0.00e+00,
385,3.20e-03,
386,2.40e-03,
387,0.00e+00,
388,-8.00e-04,
389,2.80e-03,
390,2.80e-03,
391,-1.60e-03,
392,2.40e-03,
393,0.00e+00,
394,3.20e-03,
395,-4.00e-04,
396,0.00e+00,
397,2.40e-03,
398,0.00e+00,
399,2.80e-03,
400,3.20e-03,
401,-8.00e-04,
402,-1.60e-03,
403,3.20e-03,
404,-8.00e-04,
405,2.00e-03,
406,0.00e+00,
407,2.80e-03,
408,3.20e-03,
409,-8.00e-04,
410,2.40e-03,
411,-1.60e-03,
412,-8.00e-04,
413,3.20e-03,
414,0.00e+00,
415,3.20e-03,
416,3.20e-03,
417,0.00e+00,
418,2.40e-03,
419,-8.00e-04,
420,0.00e+00,
421,3.20e-03,
422,-8.00e-04,
423,2.40e-03,
424,-1.60e-03,
425,3.20e-03,
426,2.40e-03,
427,0.00e+00,
428,2.40e-03,
429,0.00e+00,
430,2.40e-03,
431,-8.00e-04,
432,-8.00e-04,
433,3.20e-03,
434,0.00e+00,
435,2.40e-03,
436,0.00e+00,
437,2.40e-03,
438,3.20e-03,
439,-8.00e-04,
440,-8.00e-04,
441,2.40e-03,
442,0.00e+00,
443,2.40e-03,
444,2.40e-03,
445,0.00e+00,
446,0.00e+00,
447,2.40e-03,
448,3.20e-03,
449,-8.00e-04,
450,3.20e-03,
451,-8.00e-04,
452,-8.00e-04,
453,3.20e-03,
454,-8.00e-04,
455,3.20e-03,
456,-8.00e-04,
457,2.80e-03,
458,0.00e+00,
459,2.40e-03,
460,0.00e+00,
461,2.40e-03,
462,-1.60e-03,
463,2.40e-03,
464,2.40e-03,
465,-8.00e-04,
466,2.40e-03,
467,-8.00e-04,
468,2.40e-03,
469,-8.00e-04,
470,0.00e+00,
471,3.20e-03,
472,-8.00e-04,
473,3.20e-03,
474,0.00e+00,
475,2.40e-03,
476,-1.60e-03,
477,2.40e-03,
478,2.80e-03,
479,-8.00e-04,
480,1.60e-03,
481,-1.60e-03,
482,-8.00e-04,
483,2.00e-03,
484,-8.00e-04,
485,2.40e-03,
486,-8.00e-04,
487,1.60e-03,
488,-8.00e-04,
489,2.40e-03,
490,-1.60e-03,
491,2.00e-03,
492,1.60e-03,
493,-2.40e-03,
494,-2.40e-03,
495,1.60e-03,
496,2.40e-03,
497,-1.60e-03,
498,2.40e-03,
499,-1.60e-03,
500,-1.60e-03,
501,2.40e-03,
502,1.60e-03,
503,-1.60e-03,
504,-8.00e-04,
505,2.00e-03,
506,1.60e-03,
507,-8.00e-04,
508,-1.60e-03,
509,1.60e-03,
510,-2.40e-03,
511,1.60e-03,
512,2.00e-03,
513,-1.60e-03,
514,-8.00e-04,
515,2.00e-03,
516,1.60e-03,
517,-8.00e-04,
518,2.00e-03,
519,-1.60e-03,
520,1.60e-03,
521,-1.60e-03,
522,-1.60e-03,
523,1.60e-03,
524,-1.60e-03,
525,2.40e-03,
526,-1.60e-03,
527,2.00e-03,
528,-8.00e-04,
529,2.40e-03,
530,-1.60e-03,
531,2.00e-03,
532,2.00e-03,
533,-8.00e-04,
534,-1.60e-03,
535,2.00e-03,
536,1.60e-03,
537,-8.00e-04,
538,-1.60e-03,
539,2.40e-03,
540,1.60e-03,
541,-1.60e-03,
542,1.60e-03,
543,-1.20e-03,
544,2.40e-03,
545,-1.60e-03,
546,-8.00e-04,
547,1.60e-03,
548,2.00e-03,
549,-8.00e-04,
550,2.80e-03,
551,-8.00e-04,
552,2.40e-03,
553,-8.00e-04,
554,-1.60e-03,
555,2.00e-03,
556,-8.00e-04,
557,1.60e-03,
558,-8.00e-04,
559,3.20e-03,
560,2.40e-03,
561,-1.60e-03,
562,1.60e-03,
563,-1.60e-03,
564,-1.60e-03,
565,2.00e-03,
566,1.60e-03,
567,-1.60e-03,
568,1.60e-03,
569,-8.00e-04,
570,1.60e-03,
571,-1.60e-03,
572,1.60e-03,
573,-1.60e-03,
574,-1.60e-03,
575,1.60e-03,
576,-1.60e-03,
577,1.60e-03,
578,1.60e-03,
579,-1.60e-03,
580,-8.00e-04,
581,8.00e-04,
582,1.60e-03,
583,-8.00e-04,
584,1.60e-03,
585,-2.40e-03,
586,1.60e-03,
587,-1.60e-03,
588,-8.00e-04,
589,2.00e-03,
590,-8.00e-04,
591,1.60e-03,
592,-8.00e-04,
593,2.40e-03,
594,-1.60e-03,
595,8.00e-04,
596,-1.60e-03,
597,1.60e-03,
598,1.60e-03,
599,-1.60e-03,
600,-1.60e-03,
601,2.00e-03,
602,1.60e-03,
603,-1.60e-03,
604,1.60e-03,
605,-1.60e-03,
606,2.40e-03,
607,-1.60e-03,
608,-8.00e-04,
609,2.40e-03,
610,1.60e-03,
611,-1.60e-03,
612,-1.60e-03,
613,2.40e-03,
614,-1.60e-03,
615,1.60e-03,
616,-2.40e-03,
617,1.60e-03,
618,-1.60e-03,
619,1.60e-03,
620,-1.60e-03,
621,1.60e-03,
622,1.60e-03,
623,-8.00e-04,
624,1.60e-03,
625,-1.60e-03,
626,1.60e-03,
627,-1.60e-03,
628,-1.60e-03,
629,1.60e-03,
630,-2.40e-03,
631,2.40e-03,
632,1.60e-03,
633,-1.60e-03,
634,-8.00e-04,
635,1.60e-03,
636,-1.60e-03,
637,2.00e-03,
638,1.60e-03,
639,-8.00e-04,
640,-1.60e-03,
641,1.60e-03,
642,1.60e-03,
643,-1.60e-03,
644,1.60e-03,
645,-1.60e-03,
646,-1.60e-03,
647,2.80e-03,
648,-2.40e-03,
649,8.00e-04,
650,-1.60e-03,
651,1.60e-03,
652,-1.60e-03,
653,2.00e-03,
654,2.00e-03,
655,-8.00e-04,
656,2.40e-03,
657,-8.00e-04,
658,2.40e-03,
659,-1.60e-03,
660,1.60e-03,
661,-8.00e-04,
662,-1.60e-03,
663,2.00e-03,
664,-8.00e-04,
665,2.40e-03,
666,-2.40e-03,
667,2.40e-03,
668,-1.60e-03,
669,2.40e-03,
670,2.40e-03,
671,-1.60e-03,
672,-8.00e-04,
673,2.00e-03,
674,-8.00e-04,
675,2.00e-03,
676,-8.00e-04,
677,2.00e-03,
678,-1.60e-03,
679,2.40e-03,
680,2.40e-03,
681,-1.60e-03,
682,-8.00e-04,
683,2.40e-03,
684,1.60e-03,
685,-1.60e-03,
686,-8.00e-04,
687,3.20e-03,
688,-8.00e-04,
689,1.60e-03,
690,2.40e-03,
691,-1.60e-03,
692,2.40e-03,
693,-8.00e-04,
694,2.40e-03,
695,-1.60e-03,
696,-8.00e-04,
697,1.60e-03,
698,2.00e-03,
699,-8.00e-04,
700,2.40e-03,
701,-8.00e-04,
702,-8.00e-04,
703,2.40e-03,
704,-8.00e-04,
705,2.40e-03,
706,-8.00e-04,
707,2.80e-03,
708,0.00e+00,
709,2.40e-03,
710,2.80e-03,
711,-8.00e-04,
712,-8.00e-04,
713,2.80e-03,
714,-8.00e-04,
715,2.40e-03,
716,2.00e-03,
717,-8.00e-04,
718,-8.00e-04,
719,2.40e-03,
720,3.20e-03,
721,-8.00e-04,
722,2.40e-03,
723,-8.00e-04,
724,1.60e-03,
725,-8.00e-04,
726,0.00e+00,
727,3.20e-03,
728,2.40e-03,
729,0.00e+00,
730,2.40e-03,
731,0.00e+00,
732,2.40e-03,
733,-8.00e-04,
734,-1.60e-03,
735,3.20e-03,
736,-8.00e-04,
737,2.40e-03,
738,-1.60e-03,
739,3.20e-03,
740,3.20e-03,
741,0.00e+00,
742,2.40e-03,
743,-8.00e-04,
744,2.40e-03,
745,0.00e+00,
746,0.00e+00,
747,3.20e-03,
748,2.40e-03,
749,-8.00e-04,
750,0.00e+00,
751,2.80e-03,
752,0.00e+00,
753,3.20e-03,
754,0.00e+00,
755,2.40e-03,
756,2.40e-03,
757,0.00e+00,
758,-8.00e-04,
759,3.20e-03,
760,0.00e+00,
761,3.20e-03,
762,2.40e-03,
763,-8.00e-04,
764,0.00e+00,
765,3.20e-03,
766,0.00e+00,
767,4.00e-03,
768,3.20e-03,
769,0.00e+00,
770,-8.00e-04,
771,3.20e-03,
772,3.20e-03,
773,0.00e+00,
774,0.00e+00,
775,3.20e-03,
776,3.20e-03,
777,8.00e-04,
778,0.00e+00,
779,2.40e-03,
780,0.00e+00,
781,3.20e-03,
782,0.00e+00,
783,3.20e-03,
784,0.00e+00,
785,3.20e-03,
786,0.00e+00,
787,2.40e-03,
788,0.00e+00,
789,3.20e-03,
790,0.00e+00,
791,2.40e-03,
792,2.40e-03,
793,-8.00e-04,
794,2.00e-03,
795,-8.00e-04,
796,0.00e+00,
797,2.40e-03,
798,3.20e-03,
799,-1.60e-03,
800,-8.00e-04,
801,2.40e-03,
802,2.40e-03,
803,-8.00e-04,
804,3.20e-03,
805,0.00e+00,
806,2.40e-03,
807,0.00e+00,
808,0.00e+00,
809,2.80e-03,
810,0.00e+00,
811,2.40e-03,
812,3.20e-03,
813,0.00e+00,
814,0.00e+00,
815,3.20e-03,
816,2.80e-03,
817,0.00e+00,
818,-8.00e-04,
819,3.20e-03,
820,2.80e-03,
821,0.00e+00,
822,0.00e+00,
823,3.20e-03,
824,2.40e-03,
825,0.00e+00,
826,3.20e-03,
827,-8.00e-04,
828,3.20e-03,
829,0.00e+00,
830,4.00e-03,
831,0.00e+00,
832,3.20e-03,
833,0.00e+00,
834,0.00e+00,
835,3.20e-03,
836,0.00e+00,
837,3.20e-03,
838,3.20e-03,
839,0.00e+00,
840,3.20e-03,
841,0.00e+00,
842,0.00e+00,
843,3.20e-03,
844,0.00e+00,
845,3.20e-03,
846,0.00e+00,
847,3.20e-03,
848,3.20e-03,
849,0.00e+00,
850,8.00e-04,
851,3.20e-03,
852,0.00e+00,
853,2.40e-03,
854,8.00e-04,
855,3.20e-03,
856,8.00e-04,
857,3.20e-03,
858,0.00e+00,
859,3.20e-03,
860,2.40e-03,
861,0.00e+00,
862,3.20e-03,
863,0.00e+00,
864,2.40e-03,
865,-8.00e-04,
866,0.00e+00,
867,3.20e-03,
868,2.40e-03,
869,-8.00e-04,
870,0.00e+00,
871,3.20e-03,
872,0.00e+00,
873,3.20e-03,
874,-8.00e-04,
875,3.20e-03,
876,0.00e+00,
877,3.20e-03,
878,0.00e+00,
879,3.20e-03,
880,0.00e+00,
881,3.20e-03,
882,0.00e+00,
883,3.20e-03,
884,8.00e-04,
885,3.20e-03,
886,0.00e+00,
887,2.40e-03,
888,2.40e-03,
889,0.00e+00,
890,0.00e+00,
891,2.40e-03,
892,0.00e+00,
893,2.40e-03,
894,-8.00e-04,
895,3.20e-03,
896,0.00e+00,
897,3.20e-03,
898,0.00e+00,
899,2.40e-03,
900,2.40e-03,
901,0.00e+00,
902,3.20e-03,
903,0.00e+00,
904,3.20e-03,
905,0.00e+00,
906,-8.00e-04,
907,3.20e-03,
908,0.00e+00,
909,3.20e-03,
910,-8.00e-04,
911,2.40e-03,
912,0.00e+00,
913,2.40e-03,
914,0.00e+00,
915,3.20e-03,
916,2.40e-03,
917,0.00e+00,
918,2.80e-03,
919,0.00e+00,
920,0.00e+00,
921,2.40e-03,
922,0.00e+00,
923,3.20e-03,
924,3.20e-03,
925,-8.00e-04,
926,3.20e-03,
927,0.00e+00,
928,-8.00e-04,
929,3.20e-03,
930,8.00e-04,
931,3.20e-03,
932,3.20e-03,
933,0.00e+00,
934,2.40e-03,
935,-8.00e-04,
936,2.40e-03,
937,-8.00e-04,
938,-8.00e-04,
939,4.00e-03,
940,3.20e-03,
941,-1.60e-03,
942,-8.00e-04,
943,3.20e-03,
944,2.40e-03,
945,0.00e+00,
946,-8.00e-04,
947,2.40e-03,
948,3.20e-03,
949,-8.00e-04,
950,0.00e+00,
951,2.40e-03,
952,3.20e-03,
953,-8.00e-04,
954,3.20e-03,
955,-4.00e-04,
956,-8.00e-04,
957,3.20e-03,
958,2.80e-03,
959,-1.60e-03,
960,0.00e+00,
961,3.20e-03,
962,2.40e-03,
963,-1.60e-03,
964,0.00e+00,
965,2.80e-03,
966,0.00e+00,
967,2.40e-03,
968,2.80e-03,
969,-8.00e-04,
970,2.40e-03,
971,-8.00e-04,
972,-8.00e-04,
973,2.40e-03,
974,2.40e-03,
975,-4.00e-04,
976,0.00e+00,
977,2.40e-03,
978,-1.60e-03,
979,3.20e-03,
980,2.40e-03,
981,0.00e+00,
982,2.40e-03,
983,-8.00e-04,
984,-8.00e-04,
985,2.40e-03,
986,2.40e-03,
987,-8.00e-04,
988,2.40e-03,
989,0.00e+00,
990,0.00e+00,
991,3.20e-03,
992,-8.00e-04,
993,2.80e-03,
994,0.00e+00,
995,2.40e-03,
996,2.40e-03,
997,-8.00e-04,
998,-8.00e-04,
999,2.40e-03,
1000,2.80e-03,
1001,0.00e+00,
1002,2.40e-03,
1003,-8.00e-04,
1004,3.20e-03,
1005,-8.00e-04,
1006,3.20e-03,
1007,0.00e+00,
1008,2.80e-03,
1009,-8.00e-04,
1010,2.40e-03,
1011,0.00e+00,
1012,-8.00e-04,
1013,2.80e-03,
1014,2.80e-03,
1015,-8.00e-04,
1016,0.00e+00,
1017,2.40e-03,
1018,2.40e-03,
1019,-8.00e-04,
1020,2.40e-03,
1021,-8.00e-04,
1022,2.40e-03,
1023,-8.00e-04,
1024,2.40e-03,
1025,-1.60e-03,
1026,-8.00e-04,
1027,3.20e-03,
1028,-8.00e-04,
1029,2.00e-03,
1030,2.40e-03,
1031,-1.60e-03,
1032,-8.00e-04,
1033,2.40e-03,
1034,-8.00e-04,
1035,1.60e-03,
1036,1.60e-03,
1037,-8.00e-04,
1038,-8.00e-04,
1039,2.40e-03,
1040,-1.60e-03,
1041,2.00e-03,
1042,1.60e-03,
1043,-8.00e-04,
1044,1.60e-03,
1045,-8.00e-04,
1046,-8.00e-04,
1047,2.80e-03,
1048,-8.00e-04,
1049,2.40e-03,
1050,-8.00e-04,
1051,2.40e-03,
1052,1.60e-03,
1053,-8.00e-04,
1054,-8.00e-04,
1055,2.00e-03,
1056,-1.60e-03,
1057,1.60e-03,
1058,-8.00e-04,
1059,2.40e-03,
1060,3.20e-03,
1061,-8.00e-04,
1062,-8.00e-04,
1063,1.20e-03,
1064,1.60e-03,
1065,-8.00e-04,
1066,-8.00e-04,
1067,2.00e-03,
1068,-1.60e-03,
1069,2.40e-03,
1070,1.60e-03,
1071,-1.60e-03,
1072,2.40e-03,
1073,-8.00e-04,
1074,2.40e-03,
1075,-8.00e-04,
1076,-8.00e-04,
1077,2.40e-03,
1078,2.40e-03,
1079,-1.60e-03,
1080,-8.00e-04,
1081,2.00e-03,
1082,2.40e-03,
1083,-8.00e-04,
1084,-1.60e-03,
1085,2.40e-03,
1086,-8.00e-04,
1087,1.60e-03,
1088,-8.00e-04,
1089,1.60e-03,
1090,2.40e-03,
1091,-1.60e-03,
1092,-1.60e-03,
1093,1.60e-03,
1094,-1.60e-03,
1095,2.40e-03,
1096,-8.00e-04,
1097,2.40e-03,
1098,-8.00e-04,
1099,1.60e-03,
1100,-8.00e-04,
1101,1.60e-03,
1102,2.40e-03,
1103,-1.60e-03,
1104,-8.00e-04,
1105,1.60e-03,
1106,1.60e-03,
1107,-1.60e-03,
1108,-8.00e-04,
1109,2.40e-03,
1110,2.40e-03,
1111,-1.60e-03,
1112,-1.60e-03,
1113,2.00e-03,
1114,-1.60e-03,
1115,2.00e-03,
1116,-8.00e-04,
1117,1.60e-03,
1118,-8.00e-04,
1119,2.40e-03,
1120,1.60e-03,
1121,-1.60e-03,
1122,-1.60e-03,
1123,2.00e-03,
1124,1.60e-03,
1125,-1.60e-03,
1126,-1.60e-03,
1127,3.20e-03,
1128,-8.00e-04,
1129,1.60e-03,
1130,2.00e-03,
1131,-1.60e-03,
1132,-8.00e-04,
1133,1.60e-03,
1134,-8.00e-04,
1135,2.00e-03,
1136,-1.60e-03,
1137,1.60e-03,
1138,1.60e-03,
1139,-8.00e-04,
1140,-1.60e-03,
1141,1.60e-03,
1142,1.60e-03,
1143,-8.00e-04,
1144,2.40e-03,
1145,-1.60e-03,
1146,-1.60e-03,
1147,2.80e-03,
1148,-8.00e-04,
1149,1.60e-03,
1150,-8.00e-04,
1151,2.00e-03,
1152,-8.00e-04,
1153,2.40e-03,
1154,2.40e-03,
1155,-1.60e-03,
1156,-8.00e-04,
1157,2.40e-03,
1158,1.60e-03,
1159,-8.00e-04,
1160,1.60e-03,
1161,-1.60e-03,
1162,-1.60e-03,
1163,2.00e-03,
1164,1.60e-03,
1165,-1.60e-03,
1166,-1.60e-03,
1167,2.40e-03,
1168,2.40e-03,
1169,-1.60e-03,
1170,2.40e-03,
1171,-8.00e-04,
1172,-8.00e-04,
1173,2.40e-03,
1174,1.60e-03,
1175,-2.40e-03,
1176,2.40e-03,
1177,-8.00e-04,
1178,1.60e-03,
1179,-8.00e-04,
1180,-1.60e-03,
1181,2.40e-03,
1182,-8.00e-04,
1183,2.40e-03,
1184,-1.20e-03,
1185,1.60e-03,
1186,2.40e-03,
1187,-1.60e-03,
1188,2.40e-03,
1189,-1.60e-03,
1190,1.60e-03,
1191,-8.00e-04,
1192,2.40e-03,
1193,-8.00e-04,
1194,2.40e-03,
1195,-1.60e-03,
1196,-8.00e-04,
1197,2.00e-03,
1198,-8.00e-04,
1199,1.60e-03,
