fastdiffamp/data-noise-set/6th/NewFile6.csv

X,CH1,Start,Increment,
Sequence,Volt,-1.200000e-02,2.000000e-05
0,0.00e+00,
1,2.40e-03,
2,-8.00e-04,
3,2.00e-03,
4,2.40e-03,
5,-8.00e-04,
6,-8.00e-04,
7,2.40e-03,
8,-8.00e-04,
9,2.00e-03,
10,3.20e-03,
11,-1.60e-03,
12,-1.60e-03,
13,2.40e-03,
14,3.20e-03,
15,-8.00e-04,
16,2.40e-03,
17,-8.00e-04,
18,-8.00e-04,
19,3.20e-03,
20,3.20e-03,
21,-8.00e-04,
22,-1.60e-03,
23,3.20e-03,
24,2.40e-03,
25,-1.60e-03,
26,-1.60e-03,
27,2.40e-03,
28,2.00e-03,
29,-1.60e-03,
30,-1.60e-03,
31,2.00e-03,
32,-8.00e-04,
33,1.60e-03,
34,-1.60e-03,
35,2.40e-03,
36,2.40e-03,
37,-1.60e-03,
38,-8.00e-04,
39,2.00e-03,
40,-8.00e-04,
41,2.40e-03,
42,-8.00e-04,
43,2.00e-03,
44,-8.00e-04,
45,1.60e-03,
46,-1.60e-03,
47,1.60e-03,
48,-1.60e-03,
49,1.60e-03,
50,2.40e-03,
51,-8.00e-04,
52,1.60e-03,
53,-1.60e-03,
54,-8.00e-04,
55,1.60e-03,
56,-8.00e-04,
57,2.00e-03,
58,-8.00e-04,
59,1.60e-03,
60,-1.60e-03,
61,2.40e-03,
62,-1.60e-03,
63,2.00e-03,
64,2.40e-03,
65,-1.60e-03,
66,-8.00e-04,
67,2.40e-03,
68,-2.40e-03,
69,2.40e-03,
70,2.40e-03,
71,-8.00e-04,
72,-1.60e-03,
73,2.40e-03,
74,-8.00e-04,
75,2.00e-03,
76,-1.60e-03,
77,1.60e-03,
78,1.60e-03,
79,-1.60e-03,
80,-1.60e-03,
81,1.60e-03,
82,-1.60e-03,
83,8.00e-04,
84,-1.60e-03,
85,2.00e-03,
86,2.00e-03,
87,-1.60e-03,
88,2.40e-03,
89,-8.00e-04,
90,-1.60e-03,
91,2.00e-03,
92,1.60e-03,
93,-8.00e-04,
94,-8.00e-04,
95,2.00e-03,
96,2.40e-03,
97,-1.60e-03,
98,-8.00e-04,
99,2.40e-03,
100,1.60e-03,
101,-1.60e-03,
102,1.60e-03,
103,-1.60e-03,
104,-1.60e-03,
105,1.20e-03,
106,1.60e-03,
107,-8.00e-04,
108,-8.00e-04,
109,1.60e-03,
110,1.20e-03,
111,-1.60e-03,
112,1.60e-03,
113,-1.60e-03,
114,-8.00e-04,
115,1.60e-03,
116,-8.00e-04,
117,2.40e-03,
118,-1.60e-03,
119,1.60e-03,
120,-1.60e-03,
121,2.00e-03,
122,-2.40e-03,
123,2.40e-03,
124,2.00e-03,
125,-1.60e-03,
126,-1.60e-03,
127,1.20e-03,
128,2.40e-03,
129,-8.00e-04,
130,-1.60e-03,
131,1.60e-03,
132,-8.00e-04,
133,1.60e-03,
134,1.60e-03,
135,-8.00e-04,
136,2.40e-03,
137,-1.60e-03,
138,1.20e-03,
139,-1.60e-03,
140,-8.00e-04,
141,1.60e-03,
142,2.40e-03,
143,-1.60e-03,
144,1.60e-03,
145,-1.60e-03,
146,-1.60e-03,
147,1.60e-03,
148,-1.60e-03,
149,1.60e-03,
150,-1.60e-03,
151,1.20e-03,
152,1.60e-03,
153,-1.60e-03,
154,1.20e-03,
155,-1.60e-03,
156,-8.00e-04,
157,1.60e-03,
158,2.00e-03,
159,-1.60e-03,
160,-8.00e-04,
161,1.60e-03,
162,-8.00e-04,
163,1.60e-03,
164,1.60e-03,
165,-1.60e-03,
166,-1.60e-03,
167,1.60e-03,
168,-8.00e-04,
169,1.60e-03,
170,-8.00e-04,
171,1.60e-03,
172,2.00e-03,
173,-8.00e-04,
174,-8.00e-04,
175,2.40e-03,
176,-8.00e-04,
177,2.40e-03,
178,-8.00e-04,
179,2.40e-03,
180,1.20e-03,
181,-1.60e-03,
182,-8.00e-04,
183,2.40e-03,
184,-8.00e-04,
185,1.60e-03,
186,1.60e-03,
187,-1.60e-03,
188,1.60e-03,
189,-1.60e-03,
190,-1.60e-03,
191,2.80e-03,
192,-8.00e-04,
193,2.00e-03,
194,-8.00e-04,
195,2.40e-03,
196,-8.00e-04,
197,2.00e-03,
198,2.40e-03,
199,-1.60e-03,
200,-1.60e-03,
201,2.40e-03,
202,-1.60e-03,
203,2.40e-03,
204,-8.00e-04,
205,2.40e-03,
206,-8.00e-04,
207,2.40e-03,
208,1.60e-03,
209,-8.00e-04,
210,-8.00e-04,
211,3.20e-03,
212,-8.00e-04,
213,2.40e-03,
214,-8.00e-04,
215,1.60e-03,
216,2.40e-03,
217,0.00e+00,
218,-8.00e-04,
219,2.00e-03,
220,-8.00e-04,
221,2.40e-03,
222,2.80e-03,
223,-8.00e-04,
224,3.20e-03,
225,0.00e+00,
226,0.00e+00,
227,3.20e-03,
228,4.00e-03,
229,-8.00e-04,
230,-8.00e-04,
231,3.20e-03,
232,-8.00e-04,
233,3.20e-03,
234,2.40e-03,
235,-8.00e-04,
236,-8.00e-04,
237,3.20e-03,
238,2.40e-03,
239,-8.00e-04,
240,0.00e+00,
241,2.40e-03,
242,2.40e-03,
243,-8.00e-04,
244,2.40e-03,
245,-8.00e-04,
246,0.00e+00,
247,2.40e-03,
248,2.40e-03,
249,0.00e+00,
250,1.60e-03,
251,-1.60e-03,
252,-8.00e-04,
253,2.40e-03,
254,-8.00e-04,
255,2.40e-03,
256,0.00e+00,
257,3.20e-03,
258,2.80e-03,
259,0.00e+00,
260,2.40e-03,
261,-8.00e-04,
262,-8.00e-04,
263,3.20e-03,
264,2.80e-03,
265,-8.00e-04,
266,2.40e-03,
267,-8.00e-04,
268,-8.00e-04,
269,2.40e-03,
270,-8.00e-04,
271,2.40e-03,
272,-8.00e-04,
273,2.40e-03,
274,2.40e-03,
275,-8.00e-04,
276,1.60e-03,
277,-8.00e-04,
278,0.00e+00,
279,3.20e-03,
280,-8.00e-04,
281,2.40e-03,
282,-8.00e-04,
283,2.40e-03,
284,-8.00e-04,
285,2.40e-03,
286,-8.00e-04,
287,2.40e-03,
288,2.40e-03,
289,0.00e+00,
290,2.40e-03,
291,-8.00e-04,
292,2.40e-03,
293,-1.60e-03,
294,-2.40e-03,
295,3.20e-03,
296,2.40e-03,
297,-8.00e-04,
298,-8.00e-04,
299,2.80e-03,
300,2.40e-03,
301,-8.00e-04,
302,-8.00e-04,
303,2.40e-03,
304,0.00e+00,
305,2.40e-03,
306,2.40e-03,
307,-8.00e-04,
308,-8.00e-04,
309,3.20e-03,
310,2.80e-03,
311,-8.00e-04,
312,2.40e-03,
313,-8.00e-04,
314,0.00e+00,
315,3.20e-03,
316,-8.00e-04,
317,3.20e-03,
318,2.40e-03,
319,-8.00e-04,
320,2.80e-03,
321,0.00e+00,
322,-8.00e-04,
323,2.40e-03,
324,2.40e-03,
325,-8.00e-04,
326,-8.00e-04,
327,3.20e-03,
328,0.00e+00,
329,3.20e-03,
330,2.40e-03,
331,0.00e+00,
332,3.20e-03,
333,-8.00e-04,
334,-8.00e-04,
335,2.40e-03,
336,0.00e+00,
337,2.40e-03,
338,-8.00e-04,
339,2.40e-03,
340,2.40e-03,
341,0.00e+00,
342,2.40e-03,
343,-4.00e-04,
344,-1.60e-03,
345,3.20e-03,
346,-8.00e-04,
347,2.40e-03,
348,2.40e-03,
349,-1.60e-03,
350,-4.00e-04,
351,2.40e-03,
352,2.40e-03,
353,-1.60e-03,
354,2.40e-03,
355,-8.00e-04,
356,2.40e-03,
357,0.00e+00,
358,2.40e-03,
359,-8.00e-04,
360,2.80e-03,
361,-8.00e-04,
362,2.40e-03,
363,-8.00e-04,
364,2.00e-03,
365,-8.00e-04,
366,-8.00e-04,
367,2.40e-03,
368,0.00e+00,
369,2.00e-03,
370,0.00e+00,
371,2.40e-03,
372,-8.00e-04,
373,2.40e-03,
374,-8.00e-04,
375,2.40e-03,
376,2.40e-03,
377,-8.00e-04,
378,2.40e-03,
379,-8.00e-04,
380,2.40e-03,
381,-1.60e-03,
382,-8.00e-04,
383,2.40e-03,
384,-8.00e-04,
385,3.20e-03,
386,2.40e-03,
387,-8.00e-04,
388,3.20e-03,
389,0.00e+00,
390,8.00e-04,
391,4.00e-03,
392,2.40e-03,
393,0.00e+00,
394,0.00e+00,
395,3.20e-03,
396,0.00e+00,
397,2.40e-03,
398,-8.00e-04,
399,2.40e-03,
400,3.20e-03,
401,-8.00e-04,
402,3.20e-03,
403,0.00e+00,
404,3.20e-03,
405,-8.00e-04,
406,-1.60e-03,
407,3.20e-03,
408,1.60e-03,
409,-1.60e-03,
410,0.00e+00,
411,3.20e-03,
412,-8.00e-04,
413,2.40e-03,
414,0.00e+00,
415,3.20e-03,
416,0.00e+00,
417,2.40e-03,
418,0.00e+00,
419,3.20e-03,
420,0.00e+00,
421,2.40e-03,
422,-8.00e-04,
423,3.20e-03,
424,0.00e+00,
425,3.20e-03,
426,3.20e-03,
427,-8.00e-04,
428,-8.00e-04,
429,2.80e-03,
430,-1.60e-03,
431,2.40e-03,
432,2.40e-03,
433,0.00e+00,
434,3.20e-03,
435,-1.60e-03,
436,3.20e-03,
437,0.00e+00,
438,2.40e-03,
439,-8.00e-04,
440,2.40e-03,
441,-8.00e-04,
442,2.40e-03,
443,-8.00e-04,
444,2.40e-03,
445,-8.00e-04,
446,-8.00e-04,
447,3.20e-03,
448,0.00e+00,
449,2.40e-03,
450,2.40e-03,
451,0.00e+00,
452,-8.00e-04,
453,2.40e-03,
454,-8.00e-04,
455,3.20e-03,
456,2.40e-03,
457,-8.00e-04,
458,2.80e-03,
459,-8.00e-04,
460,0.00e+00,
461,3.20e-03,
462,0.00e+00,
463,3.20e-03,
464,2.40e-03,
465,0.00e+00,
466,0.00e+00,
467,2.40e-03,
468,2.40e-03,
469,-8.00e-04,
470,2.40e-03,
471,-8.00e-04,
472,2.40e-03,
473,-1.60e-03,
474,0.00e+00,
475,2.40e-03,
476,2.40e-03,
477,0.00e+00,
478,-8.00e-04,
479,3.20e-03,
480,0.00e+00,
481,3.20e-03,
482,2.40e-03,
483,0.00e+00,
484,2.40e-03,
485,-8.00e-04,
486,2.40e-03,
487,-8.00e-04,
488,-8.00e-04,
489,4.00e-03,
490,0.00e+00,
491,2.40e-03,
492,2.40e-03,
493,0.00e+00,
494,3.20e-03,
495,8.00e-04,
496,-8.00e-04,
497,3.20e-03,
498,-8.00e-04,
499,2.80e-03,
500,0.00e+00,
501,2.40e-03,
502,3.20e-03,
503,0.00e+00,
504,1.60e-03,
505,0.00e+00,
506,2.40e-03,
507,-8.00e-04,
508,0.00e+00,
509,2.40e-03,
510,2.40e-03,
511,-8.00e-04,
512,2.40e-03,
513,-8.00e-04,
514,-8.00e-04,
515,2.40e-03,
516,3.20e-03,
517,-8.00e-04,
518,-8.00e-04,
519,3.20e-03,
520,0.00e+00,
521,2.40e-03,
522,2.40e-03,
523,-8.00e-04,
524,0.00e+00,
525,2.40e-03,
526,2.40e-03,
527,-8.00e-04,
528,2.40e-03,
529,-8.00e-04,
530,2.80e-03,
531,-8.00e-04,
532,0.00e+00,
533,2.40e-03,
534,2.40e-03,
535,0.00e+00,
536,-8.00e-04,
537,3.20e-03,
538,0.00e+00,
539,2.40e-03,
540,-8.00e-04,
541,3.20e-03,
542,-8.00e-04,
543,2.40e-03,
544,0.00e+00,
545,2.40e-03,
546,-8.00e-04,
547,3.20e-03,
548,3.20e-03,
549,-8.00e-04,
550,0.00e+00,
551,3.20e-03,
552,0.00e+00,
553,4.00e-03,
554,0.00e+00,
555,4.00e-03,
556,0.00e+00,
557,3.20e-03,
558,-8.00e-04,
559,3.20e-03,
560,-8.00e-04,
561,3.20e-03,
562,0.00e+00,
563,4.00e-03,
564,0.00e+00,
565,2.80e-03,
566,0.00e+00,
567,3.20e-03,
568,8.00e-04,
569,3.20e-03,
570,-8.00e-04,
571,3.20e-03,
572,2.40e-03,
573,-8.00e-04,
574,0.00e+00,
575,4.00e-03,
576,0.00e+00,
577,3.20e-03,
578,2.40e-03,
579,0.00e+00,
580,4.00e-03,
581,0.00e+00,
582,3.20e-03,
583,0.00e+00,
584,0.00e+00,
585,3.20e-03,
586,2.40e-03,
587,0.00e+00,
588,-8.00e-04,
589,3.20e-03,
590,0.00e+00,
591,3.20e-03,
592,0.00e+00,
593,3.20e-03,
594,2.40e-03,
595,0.00e+00,
596,2.40e-03,
597,0.00e+00,
598,2.40e-03,
599,-8.00e-04,
600,-8.00e-04,
601,3.20e-03,
602,-8.00e-04,
603,2.40e-03,
604,3.20e-03,
605,0.00e+00,
606,-8.00e-04,
607,2.80e-03,
608,-8.00e-04,
609,3.20e-03,
610,0.00e+00,
611,3.20e-03,
612,2.40e-03,
613,0.00e+00,
614,2.40e-03,
615,0.00e+00,
616,0.00e+00,
617,3.20e-03,
618,3.20e-03,
619,-8.00e-04,
620,0.00e+00,
621,2.40e-03,
622,0.00e+00,
623,3.20e-03,
624,2.40e-03,
625,-8.00e-04,
626,0.00e+00,
627,3.20e-03,
628,2.40e-03,
629,-8.00e-04,
630,2.40e-03,
631,0.00e+00,
632,0.00e+00,
633,2.40e-03,
634,0.00e+00,
635,2.40e-03,
636,0.00e+00,
637,3.20e-03,
638,0.00e+00,
639,2.40e-03,
640,0.00e+00,
641,2.40e-03,
642,0.00e+00,
643,2.80e-03,
644,0.00e+00,
645,2.40e-03,
646,0.00e+00,
647,2.80e-03,
648,-8.00e-04,
649,3.20e-03,
650,2.40e-03,
651,-8.00e-04,
652,2.00e-03,
653,-8.00e-04,
654,2.40e-03,
655,-8.00e-04,
656,2.00e-03,
657,-1.60e-03,
658,-8.00e-04,
659,3.20e-03,
660,-8.00e-04,
661,1.60e-03,
662,1.60e-03,
663,-1.60e-03,
664,1.60e-03,
665,-1.60e-03,
666,2.40e-03,
667,-8.00e-04,
668,2.00e-03,
669,-8.00e-04,
670,2.00e-03,
671,-1.60e-03,
672,-8.00e-04,
673,1.60e-03,
674,-8.00e-04,
675,2.00e-03,
676,-8.00e-04,
677,2.40e-03,
678,2.00e-03,
679,-1.60e-03,
680,-8.00e-04,
681,2.80e-03,
682,2.40e-03,
683,-8.00e-04,
684,-8.00e-04,
685,3.20e-03,
686,-8.00e-04,
687,2.40e-03,
688,-8.00e-04,
689,2.40e-03,
690,-1.60e-03,
691,2.40e-03,
692,2.40e-03,
693,-8.00e-04,
694,-8.00e-04,
695,2.40e-03,
696,-8.00e-04,
697,2.40e-03,
698,2.40e-03,
699,-8.00e-04,
700,-8.00e-04,
701,2.80e-03,
702,2.40e-03,
703,-8.00e-04,
704,-1.60e-03,
705,2.00e-03,
706,-1.60e-03,
707,3.20e-03,
708,0.00e+00,
709,2.00e-03,
710,-8.00e-04,
711,2.40e-03,
712,2.40e-03,
713,-8.00e-04,
714,-1.60e-03,
715,2.40e-03,
716,-8.00e-04,
717,2.40e-03,
718,1.60e-03,
719,-8.00e-04,
720,-1.60e-03,
721,2.40e-03,
722,1.60e-03,
723,-8.00e-04,
724,-8.00e-04,
725,3.20e-03,
726,2.40e-03,
727,-8.00e-04,
728,2.40e-03,
729,-8.00e-04,
730,2.40e-03,
731,-8.00e-04,
732,2.80e-03,
733,-8.00e-04,
734,0.00e+00,
735,2.40e-03,
736,2.40e-03,
737,-8.00e-04,
738,2.80e-03,
739,-1.20e-03,
740,2.40e-03,
741,-8.00e-04,
742,2.40e-03,
743,-8.00e-04,
744,-1.60e-03,
745,2.40e-03,
746,0.00e+00,
747,2.40e-03,
748,-2.40e-03,
749,2.40e-03,
750,0.00e+00,
751,2.40e-03,
752,2.00e-03,
753,-8.00e-04,
754,2.40e-03,
755,-8.00e-04,
756,1.60e-03,
757,-1.60e-03,
758,-1.60e-03,
759,2.00e-03,
760,-8.00e-04,
761,2.40e-03,
762,1.60e-03,
763,-8.00e-04,
764,-8.00e-04,
765,2.40e-03,
766,-1.60e-03,
767,1.60e-03,
768,-8.00e-04,
769,1.60e-03,
770,2.40e-03,
771,-8.00e-04,
772,2.40e-03,
773,-8.00e-04,
774,-1.60e-03,
775,2.40e-03,
776,2.40e-03,
777,-8.00e-04,
778,-1.60e-03,
779,2.00e-03,
780,1.60e-03,
781,-1.60e-03,
782,1.60e-03,
783,-1.60e-03,
784,-8.00e-04,
785,3.20e-03,
786,-1.60e-03,
787,2.40e-03,
788,1.60e-03,
789,-1.60e-03,
790,-1.60e-03,
791,2.40e-03,
792,1.60e-03,
793,-8.00e-04,
794,2.40e-03,
795,-1.60e-03,
796,-1.60e-03,
797,2.40e-03,
798,1.60e-03,
799,-8.00e-04,
800,-8.00e-04,
801,1.60e-03,
802,-8.00e-04,
803,2.40e-03,
804,-8.00e-04,
805,1.60e-03,
806,-8.00e-04,
807,1.60e-03,
808,-8.00e-04,
809,2.00e-03,
810,-8.00e-04,
811,2.40e-03,
812,-8.00e-04,
813,2.40e-03,
814,2.40e-03,
815,-8.00e-04,
816,2.40e-03,
817,-1.60e-03,
818,-1.60e-03,
819,2.40e-03,
820,-8.00e-04,
821,2.40e-03,
822,-8.00e-04,
823,2.00e-03,
824,0.00e+00,
825,2.40e-03,
826,-8.00e-04,
827,2.80e-03,
828,2.00e-03,
829,-8.00e-04,
830,-8.00e-04,
831,2.80e-03,
832,2.40e-03,
833,-2.40e-03,
834,-1.60e-03,
835,3.20e-03,
836,3.20e-03,
837,-1.60e-03,
838,2.40e-03,
839,-1.60e-03,
840,-8.00e-04,
841,2.40e-03,
842,-1.60e-03,
843,2.40e-03,
844,2.40e-03,
845,-8.00e-04,
846,-8.00e-04,
847,2.80e-03,
848,2.40e-03,
849,-1.60e-03,
850,-1.60e-03,
851,2.40e-03,
852,-8.00e-04,
853,2.40e-03,
854,-8.00e-04,
855,2.40e-03,
856,-8.00e-04,
857,2.40e-03,
858,1.60e-03,
859,-1.60e-03,
860,-1.60e-03,
861,2.40e-03,
862,-1.60e-03,
863,2.40e-03,
864,-8.00e-04,
865,2.80e-03,
866,1.60e-03,
867,-1.60e-03,
868,-8.00e-04,
869,2.00e-03,
870,1.60e-03,
871,-1.60e-03,
872,2.00e-03,
873,-1.60e-03,
874,-8.00e-04,
875,2.00e-03,
876,-8.00e-04,
877,2.00e-03,
878,2.00e-03,
879,-1.60e-03,
880,2.40e-03,
881,-1.60e-03,
882,-8.00e-04,
883,2.40e-03,
884,-1.60e-03,
885,2.40e-03,
886,1.60e-03,
887,-1.60e-03,
888,-1.60e-03,
889,2.00e-03,
890,-1.60e-03,
891,2.40e-03,
892,2.00e-03,
893,-1.60e-03,
894,-1.60e-03,
895,2.00e-03,
896,1.60e-03,
897,-1.60e-03,
898,-8.00e-04,
899,2.40e-03,
900,2.40e-03,
901,-8.00e-04,
902,1.60e-03,
903,-1.60e-03,
904,-1.60e-03,
905,2.00e-03,
906,2.00e-03,
907,-8.00e-04,
908,-1.60e-03,
909,2.40e-03,
910,2.40e-03,
911,-1.60e-03,
912,-8.00e-04,
913,2.00e-03,
914,-8.00e-04,
915,2.80e-03,
916,-8.00e-04,
917,2.40e-03,
918,2.00e-03,
919,-2.40e-03,
920,2.00e-03,
921,-8.00e-04,
922,-8.00e-04,
923,2.00e-03,
924,2.40e-03,
925,-8.00e-04,
926,-8.00e-04,
927,2.40e-03,
928,0.00e+00,
929,2.40e-03,
930,0.00e+00,
931,2.40e-03,
932,2.40e-03,
933,-8.00e-04,
934,-8.00e-04,
935,2.40e-03,
936,1.60e-03,
937,-2.40e-03,
938,1.60e-03,
939,-8.00e-04,
940,-8.00e-04,
941,2.40e-03,
942,-8.00e-04,
943,1.60e-03,
944,2.40e-03,
945,-8.00e-04,
946,-8.00e-04,
947,2.40e-03,
948,2.40e-03,
949,-8.00e-04,
950,2.40e-03,
951,-8.00e-04,
952,2.40e-03,
953,-8.00e-04,
954,-8.00e-04,
955,2.40e-03,
956,-8.00e-04,
957,2.40e-03,
958,2.40e-03,
959,-8.00e-04,
960,-8.00e-04,
961,1.60e-03,
962,-8.00e-04,
963,2.40e-03,
964,1.60e-03,
965,-8.00e-04,
966,1.60e-03,
967,-8.00e-04,
968,2.40e-03,
969,-8.00e-04,
970,2.00e-03,
971,-1.60e-03,
972,1.60e-03,
973,-8.00e-04,
974,0.00e+00,
975,2.40e-03,
976,-8.00e-04,
977,2.40e-03,
978,-8.00e-04,
979,2.40e-03,
980,1.60e-03,
981,-1.60e-03,
982,-8.00e-04,
983,2.40e-03,
984,2.40e-03,
985,0.00e+00,
986,-8.00e-04,
987,2.40e-03,
988,2.00e-03,
989,-8.00e-04,
990,-8.00e-04,
991,2.40e-03,
992,2.40e-03,
993,-1.20e-03,
994,-8.00e-04,
995,2.40e-03,
996,-8.00e-04,
997,1.60e-03,
998,1.60e-03,
999,-1.60e-03,
1000,1.60e-03,
1001,-1.60e-03,
1002,-1.60e-03,
1003,1.60e-03,
1004,-8.00e-04,
1005,1.60e-03,
1006,-1.60e-03,
1007,2.80e-03,
1008,-1.60e-03,
1009,1.60e-03,
1010,2.00e-03,
1011,-1.60e-03,
1012,8.00e-04,
1013,-1.60e-03,
1014,-8.00e-04,
1015,1.60e-03,
1016,-1.60e-03,
1017,1.60e-03,
1018,-1.60e-03,
1019,2.40e-03,
1020,-1.60e-03,
1021,2.00e-03,
1022,1.60e-03,
1023,-1.60e-03,
1024,1.60e-03,
1025,-1.60e-03,
1026,-1.60e-03,
1027,1.60e-03,
1028,-1.60e-03,
1029,2.40e-03,
1030,-1.60e-03,
1031,1.60e-03,
1032,1.60e-03,
1033,-2.40e-03,
1034,-1.60e-03,
1035,1.20e-03,
1036,-1.60e-03,
1037,1.60e-03,
1038,-1.60e-03,
1039,1.60e-03,
1040,1.60e-03,
1041,-2.40e-03,
1042,1.60e-03,
1043,-1.60e-03,
1044,-1.60e-03,
1045,1.20e-03,
1046,-1.60e-03,
1047,1.60e-03,
1048,1.60e-03,
1049,-1.60e-03,
1050,1.20e-03,
1051,-2.40e-03,
1052,1.60e-03,
1053,-2.40e-03,
1054,1.60e-03,
1055,-2.40e-03,
1056,-1.60e-03,
1057,1.60e-03,
1058,8.00e-04,
1059,-2.40e-03,
1060,-8.00e-04,
1061,1.60e-03,
1062,1.60e-03,
1063,-1.60e-03,
1064,-1.60e-03,
1065,2.40e-03,
1066,-1.60e-03,
1067,1.60e-03,
1068,1.60e-03,
1069,-1.60e-03,
1070,-8.00e-04,
1071,1.60e-03,
1072,2.00e-03,
1073,-1.60e-03,
1074,2.00e-03,
1075,-1.60e-03,
1076,-8.00e-04,
1077,2.00e-03,
1078,-1.60e-03,
1079,1.60e-03,
1080,-8.00e-04,
1081,2.40e-03,
1082,1.20e-03,
1083,-1.60e-03,
1084,1.60e-03,
1085,-1.60e-03,
1086,-1.60e-03,
1087,1.60e-03,
1088,-1.60e-03,
1089,1.60e-03,
1090,-8.00e-04,
1091,1.60e-03,
1092,1.60e-03,
1093,-8.00e-04,
1094,-1.60e-03,
1095,8.00e-04,
1096,1.60e-03,
1097,-1.60e-03,
1098,-2.40e-03,
1099,1.20e-03,
1100,-1.60e-03,
1101,2.00e-03,
1102,-1.60e-03,
1103,2.40e-03,
1104,-1.60e-03,
1105,3.20e-03,
1106,-1.60e-03,
1107,2.00e-03,
1108,2.00e-03,
1109,-1.60e-03,
1110,-8.00e-04,
1111,2.40e-03,
1112,2.00e-03,
1113,-1.60e-03,
1114,-1.60e-03,
1115,1.60e-03,
1116,-8.00e-04,
1117,2.00e-03,
1118,-1.60e-03,
1119,2.40e-03,
1120,2.00e-03,
1121,-1.60e-03,
1122,1.60e-03,
1123,-1.60e-03,
1124,1.60e-03,
1125,-1.60e-03,
1126,1.60e-03,
1127,-2.40e-03,
1128,-2.40e-03,
1129,2.40e-03,
1130,1.60e-03,
1131,-1.60e-03,
1132,1.60e-03,
1133,-1.60e-03,
1134,1.60e-03,
1135,-1.60e-03,
1136,1.60e-03,
1137,-1.60e-03,
1138,1.60e-03,
1139,-1.60e-03,
1140,-1.60e-03,
1141,2.00e-03,
1142,1.60e-03,
1143,-2.40e-03,
1144,-1.60e-03,
1145,1.60e-03,
1146,-8.00e-04,
1147,1.60e-03,
1148,-1.60e-03,
1149,1.20e-03,
1150,1.60e-03,
1151,-1.60e-03,
1152,-1.60e-03,
1153,1.60e-03,
1154,-1.60e-03,
1155,1.60e-03,
1156,1.60e-03,
1157,-2.40e-03,
1158,2.00e-03,
1159,-2.40e-03,
1160,1.60e-03,
1161,-2.40e-03,
1162,-2.40e-03,
1163,2.40e-03,
1164,-1.60e-03,
1165,1.60e-03,
1166,-1.60e-03,
1167,2.00e-03,
1168,2.40e-03,
1169,-8.00e-04,
1170,-1.60e-03,
1171,1.60e-03,
1172,1.60e-03,
1173,-1.60e-03,
1174,-8.00e-04,
1175,2.40e-03,
1176,1.60e-03,
1177,-1.60e-03,
1178,-8.00e-04,
1179,2.40e-03,
1180,-8.00e-04,
1181,2.40e-03,
1182,-8.00e-04,
1183,2.40e-03,
1184,-8.00e-04,
1185,2.40e-03,
1186,-8.00e-04,
1187,2.40e-03,
1188,-1.60e-03,
1189,1.60e-03,
1190,-1.60e-03,
1191,2.00e-03,
1192,-1.60e-03,
1193,1.60e-03,
1194,-8.00e-04,
1195,2.40e-03,
1196,-8.00e-04,
1197,1.60e-03,
1198,1.60e-03,
1199,-8.00e-04,
