fastdiffamp/data-noise-set/6th/NewFile7.csv

X,CH1,Start,Increment,
Sequence,Volt,-1.200000e-02,2.000000e-05
0,3.20e-03,
1,0.00e+00,
2,0.00e+00,
3,4.00e-03,
4,0.00e+00,
5,3.20e-03,
6,3.20e-03,
7,-8.00e-04,
8,0.00e+00,
9,3.20e-03,
10,2.40e-03,
11,0.00e+00,
12,0.00e+00,
13,2.40e-03,
14,8.00e-04,
15,4.00e-03,
16,0.00e+00,
17,3.60e-03,
18,8.00e-04,
19,3.20e-03,
20,3.20e-03,
21,0.00e+00,
22,8.00e-04,
23,3.20e-03,
24,0.00e+00,
25,4.00e-03,
26,3.20e-03,
27,0.00e+00,
28,3.20e-03,
29,0.00e+00,
30,3.20e-03,
31,0.00e+00,
32,0.00e+00,
33,3.20e-03,
34,2.80e-03,
35,0.00e+00,
36,3.20e-03,
37,-8.00e-04,
38,-4.00e-04,
39,4.00e-03,
40,0.00e+00,
41,2.80e-03,
42,3.20e-03,
43,-1.60e-03,
44,3.20e-03,
45,-8.00e-04,
46,3.20e-03,
47,0.00e+00,
48,2.40e-03,
49,-8.00e-04,
50,2.40e-03,
51,0.00e+00,
52,2.40e-03,
53,-8.00e-04,
54,0.00e+00,
55,3.20e-03,
56,0.00e+00,
57,3.20e-03,
58,2.40e-03,
59,0.00e+00,
60,2.40e-03,
61,-8.00e-04,
62,-8.00e-04,
63,3.20e-03,
64,3.20e-03,
65,0.00e+00,
66,2.40e-03,
67,0.00e+00,
68,2.40e-03,
69,0.00e+00,
70,0.00e+00,
71,2.40e-03,
72,0.00e+00,
73,3.20e-03,
74,-8.00e-04,
75,2.40e-03,
76,0.00e+00,
77,2.80e-03,
78,0.00e+00,
79,3.20e-03,
80,2.40e-03,
81,-8.00e-04,
82,2.40e-03,
83,-8.00e-04,
84,-8.00e-04,
85,2.40e-03,
86,2.40e-03,
87,0.00e+00,
88,-8.00e-04,
89,3.20e-03,
90,0.00e+00,
91,3.20e-03,
92,0.00e+00,
93,3.20e-03,
94,0.00e+00,
95,2.80e-03,
96,0.00e+00,
97,2.40e-03,
98,2.40e-03,
99,-8.00e-04,
100,-1.60e-03,
101,2.00e-03,
102,0.00e+00,
103,2.00e-03,
104,2.00e-03,
105,-8.00e-04,
106,2.40e-03,
107,-1.20e-03,
108,0.00e+00,
109,3.20e-03,
110,2.40e-03,
111,-8.00e-04,
112,-8.00e-04,
113,3.20e-03,
114,0.00e+00,
115,2.40e-03,
116,0.00e+00,
117,2.40e-03,
118,2.40e-03,
119,0.00e+00,
120,-8.00e-04,
121,3.20e-03,
122,2.40e-03,
123,0.00e+00,
124,-8.00e-04,
125,3.20e-03,
126,-8.00e-04,
127,3.20e-03,
128,-8.00e-04,
129,2.40e-03,
130,2.40e-03,
131,-8.00e-04,
132,2.80e-03,
133,-8.00e-04,
134,3.20e-03,
135,-8.00e-04,
136,2.40e-03,
137,-4.00e-04,
138,0.00e+00,
139,2.80e-03,
140,0.00e+00,
141,2.40e-03,
142,2.80e-03,
143,-8.00e-04,
144,2.00e-03,
145,-8.00e-04,
146,-8.00e-04,
147,2.40e-03,
148,-8.00e-04,
149,3.20e-03,
150,2.40e-03,
151,-8.00e-04,
152,-8.00e-04,
153,3.20e-03,
154,2.80e-03,
155,-8.00e-04,
156,0.00e+00,
157,3.20e-03,
158,0.00e+00,
159,2.00e-03,
160,2.40e-03,
161,-8.00e-04,
162,1.60e-03,
163,-8.00e-04,
164,-8.00e-04,
165,2.40e-03,
166,-8.00e-04,
167,2.40e-03,
168,-8.00e-04,
169,3.20e-03,
170,0.00e+00,
171,2.00e-03,
172,2.40e-03,
173,-8.00e-04,
174,0.00e+00,
175,3.20e-03,
176,0.00e+00,
177,3.20e-03,
178,0.00e+00,
179,2.40e-03,
180,-8.00e-04,
181,3.20e-03,
182,-8.00e-04,
183,2.40e-03,
184,2.40e-03,
185,0.00e+00,
186,3.20e-03,
187,0.00e+00,
188,2.40e-03,
189,-1.60e-03,
190,0.00e+00,
191,2.80e-03,
192,0.00e+00,
193,2.40e-03,
194,3.20e-03,
195,0.00e+00,
196,3.20e-03,
197,-8.00e-04,
198,-8.00e-04,
199,4.00e-03,
200,0.00e+00,
201,3.60e-03,
202,-8.00e-04,
203,3.20e-03,
204,3.20e-03,
205,0.00e+00,
206,-1.20e-03,
207,2.80e-03,
208,3.20e-03,
209,0.00e+00,
210,3.20e-03,
211,0.00e+00,
212,2.40e-03,
213,0.00e+00,
214,2.40e-03,
215,-8.00e-04,
216,0.00e+00,
217,3.20e-03,
218,-8.00e-04,
219,2.40e-03,
220,2.40e-03,
221,-8.00e-04,
222,0.00e+00,
223,2.40e-03,
224,2.80e-03,
225,0.00e+00,
226,2.40e-03,
227,-1.60e-03,
228,-8.00e-04,
229,3.20e-03,
230,2.40e-03,
231,0.00e+00,
232,2.40e-03,
233,0.00e+00,
234,0.00e+00,
235,2.40e-03,
236,-8.00e-04,
237,2.40e-03,
238,2.40e-03,
239,-8.00e-04,
240,-8.00e-04,
241,2.40e-03,
242,0.00e+00,
243,2.40e-03,
244,-8.00e-04,
245,3.20e-03,
246,-8.00e-04,
247,2.80e-03,
248,2.40e-03,
249,-8.00e-04,
250,2.40e-03,
251,-8.00e-04,
252,0.00e+00,
253,2.40e-03,
254,-8.00e-04,
255,3.20e-03,
256,3.20e-03,
257,-8.00e-04,
258,2.40e-03,
259,-8.00e-04,
260,3.20e-03,
261,0.00e+00,
262,0.00e+00,
263,2.40e-03,
264,3.20e-03,
265,-8.00e-04,
266,0.00e+00,
267,2.40e-03,
268,3.20e-03,
269,-8.00e-04,
270,-8.00e-04,
271,3.20e-03,
272,-8.00e-04,
273,3.20e-03,
274,0.00e+00,
275,2.40e-03,
276,0.00e+00,
277,3.20e-03,
278,0.00e+00,
279,2.80e-03,
280,0.00e+00,
281,2.40e-03,
282,0.00e+00,
283,2.80e-03,
284,-8.00e-04,
285,3.20e-03,
286,2.40e-03,
287,-8.00e-04,
288,0.00e+00,
289,2.40e-03,
290,-8.00e-04,
291,3.20e-03,
292,0.00e+00,
293,2.80e-03,
294,-8.00e-04,
295,2.80e-03,
296,2.40e-03,
297,0.00e+00,
298,-8.00e-04,
299,3.20e-03,
300,3.20e-03,
301,0.00e+00,
302,3.20e-03,
303,-8.00e-04,
304,2.40e-03,
305,0.00e+00,
306,0.00e+00,
307,2.00e-03,
308,2.40e-03,
309,-8.00e-04,
310,2.40e-03,
311,-1.60e-03,
312,2.40e-03,
313,-8.00e-04,
314,-4.00e-04,
315,3.20e-03,
316,-8.00e-04,
317,2.40e-03,
318,2.40e-03,
319,-8.00e-04,
320,0.00e+00,
321,3.20e-03,
322,-8.00e-04,
323,3.60e-03,
324,0.00e+00,
325,3.20e-03,
326,0.00e+00,
327,3.20e-03,
328,3.20e-03,
329,-8.00e-04,
330,-8.00e-04,
331,3.20e-03,
332,0.00e+00,
333,2.40e-03,
334,0.00e+00,
335,3.20e-03,
336,3.20e-03,
337,-8.00e-04,
338,2.40e-03,
339,-8.00e-04,
340,0.00e+00,
341,2.40e-03,
342,2.40e-03,
343,-8.00e-04,
344,3.20e-03,
345,-8.00e-04,
346,-4.00e-04,
347,2.40e-03,
348,-8.00e-04,
349,2.40e-03,
350,-8.00e-04,
351,2.40e-03,
352,-1.60e-03,
353,2.40e-03,
354,-1.60e-03,
355,2.40e-03,
356,2.40e-03,
357,-8.00e-04,
358,0.00e+00,
359,2.40e-03,
360,-8.00e-04,
361,2.40e-03,
362,-8.00e-04,
363,3.20e-03,
364,-8.00e-04,
365,3.20e-03,
366,2.40e-03,
367,-8.00e-04,
368,2.40e-03,
369,-8.00e-04,
370,-8.00e-04,
371,2.80e-03,
372,-8.00e-04,
373,2.40e-03,
374,-8.00e-04,
375,2.40e-03,
376,-8.00e-04,
377,2.40e-03,
378,-1.60e-03,
379,3.20e-03,
380,-8.00e-04,
381,2.40e-03,
382,0.00e+00,
383,2.40e-03,
384,-8.00e-04,
385,3.20e-03,
386,2.40e-03,
387,0.00e+00,
388,2.40e-03,
389,-8.00e-04,
390,-8.00e-04,
391,2.40e-03,
392,0.00e+00,
393,2.40e-03,
394,0.00e+00,
395,2.40e-03,
396,0.00e+00,
397,2.40e-03,
398,-8.00e-04,
399,2.80e-03,
400,-1.60e-03,
401,2.40e-03,
402,-8.00e-04,
403,3.20e-03,
404,2.40e-03,
405,-8.00e-04,
406,2.40e-03,
407,-8.00e-04,
408,2.40e-03,
409,-8.00e-04,
410,2.40e-03,
411,-1.60e-03,
412,2.40e-03,
413,-1.60e-03,
414,-8.00e-04,
415,2.40e-03,
416,2.40e-03,
417,-8.00e-04,
418,-8.00e-04,
419,2.00e-03,
420,-8.00e-04,
421,2.40e-03,
422,3.20e-03,
423,-8.00e-04,
424,-1.60e-03,
425,2.40e-03,
426,-8.00e-04,
427,2.40e-03,
428,-8.00e-04,
429,2.40e-03,
430,-8.00e-04,
431,2.00e-03,
432,-8.00e-04,
433,2.40e-03,
434,-8.00e-04,
435,1.60e-03,
436,-8.00e-04,
437,2.80e-03,
438,-1.60e-03,
439,2.40e-03,
440,-8.00e-04,
441,2.40e-03,
442,0.00e+00,
443,2.40e-03,
444,2.40e-03,
445,-1.60e-03,
446,1.60e-03,
447,-1.60e-03,
448,-8.00e-04,
449,1.60e-03,
450,2.40e-03,
451,-1.60e-03,
452,-1.60e-03,
453,1.60e-03,
454,-8.00e-04,
455,2.40e-03,
456,-8.00e-04,
457,2.00e-03,
458,2.40e-03,
459,-1.60e-03,
460,2.40e-03,
461,-1.60e-03,
462,-1.60e-03,
463,2.00e-03,
464,1.60e-03,
465,-1.60e-03,
466,1.60e-03,
467,-1.60e-03,
468,1.60e-03,
469,-1.60e-03,
470,1.60e-03,
471,-1.60e-03,
472,-1.60e-03,
473,1.60e-03,
474,-1.60e-03,
475,1.60e-03,
476,1.60e-03,
477,-1.60e-03,
478,8.00e-04,
479,-2.40e-03,
480,-1.60e-03,
481,1.60e-03,
482,-1.60e-03,
483,8.00e-04,
484,-1.60e-03,
485,8.00e-04,
486,-1.60e-03,
487,1.60e-03,
488,-1.60e-03,
489,1.20e-03,
490,1.60e-03,
491,-2.40e-03,
492,-1.60e-03,
493,1.60e-03,
494,-1.60e-03,
495,1.60e-03,
496,-1.60e-03,
497,2.00e-03,
498,-2.40e-03,
499,1.60e-03,
500,1.60e-03,
501,-1.60e-03,
502,-1.60e-03,
503,1.60e-03,
504,1.60e-03,
505,-1.60e-03,
506,-2.40e-03,
507,1.20e-03,
508,-1.60e-03,
509,1.60e-03,
510,1.60e-03,
511,-1.60e-03,
512,-2.40e-03,
513,8.00e-04,
514,-1.60e-03,
515,1.60e-03,
516,2.40e-03,
517,-2.40e-03,
518,1.20e-03,
519,-2.00e-03,
520,-1.60e-03,
521,1.60e-03,
522,2.00e-03,
523,-8.00e-04,
524,-1.60e-03,
525,2.00e-03,
526,1.60e-03,
527,-2.40e-03,
528,-8.00e-04,
529,1.60e-03,
530,-1.60e-03,
531,2.40e-03,
532,8.00e-04,
533,-1.60e-03,
534,-8.00e-04,
535,1.60e-03,
536,-1.60e-03,
537,1.60e-03,
538,8.00e-04,
539,-1.60e-03,
540,8.00e-04,
541,-1.60e-03,
542,-1.60e-03,
543,1.60e-03,
544,1.60e-03,
545,-1.60e-03,
546,-1.60e-03,
547,1.60e-03,
548,1.60e-03,
549,-2.40e-03,
550,1.60e-03,
551,-1.60e-03,
552,2.40e-03,
553,-2.40e-03,
554,1.60e-03,
555,-2.40e-03,
556,-1.60e-03,
557,1.60e-03,
558,1.60e-03,
559,-2.40e-03,
560,-1.60e-03,
561,2.00e-03,
562,-1.60e-03,
563,2.00e-03,
564,-2.40e-03,
565,2.40e-03,
566,-8.00e-04,
567,1.60e-03,
568,-8.00e-04,
569,2.00e-03,
570,2.00e-03,
571,-8.00e-04,
572,2.40e-03,
573,-1.60e-03,
574,1.60e-03,
575,-1.60e-03,
576,1.60e-03,
577,-8.00e-04,
578,-8.00e-04,
579,2.40e-03,
580,-8.00e-04,
581,1.60e-03,
582,-8.00e-04,
583,2.40e-03,
584,-1.60e-03,
585,1.60e-03,
586,1.60e-03,
587,-1.20e-03,
588,-1.60e-03,
589,2.00e-03,
590,1.60e-03,
591,-2.40e-03,
592,2.00e-03,
593,-1.60e-03,
594,-1.60e-03,
595,1.60e-03,
596,-1.60e-03,
597,1.60e-03,
598,1.60e-03,
599,-8.00e-04,
600,-1.60e-03,
601,1.60e-03,
602,-8.00e-04,
603,2.40e-03,
604,1.60e-03,
605,-8.00e-04,
606,1.60e-03,
607,-8.00e-04,
608,1.60e-03,
609,-1.60e-03,
610,-8.00e-04,
611,2.40e-03,
612,-8.00e-04,
613,2.00e-03,
614,2.40e-03,
615,-8.00e-04,
616,-8.00e-04,
617,2.40e-03,
618,1.60e-03,
619,-1.60e-03,
620,1.60e-03,
621,-8.00e-04,
622,-1.60e-03,
623,2.40e-03,
624,2.40e-03,
625,-8.00e-04,
626,2.40e-03,
627,-8.00e-04,
628,2.40e-03,
629,-1.60e-03,
630,2.40e-03,
631,-8.00e-04,
632,-8.00e-04,
633,2.40e-03,
634,-8.00e-04,
635,2.40e-03,
636,-8.00e-04,
637,2.40e-03,
638,0.00e+00,
639,2.40e-03,
640,0.00e+00,
641,2.40e-03,
642,2.40e-03,
643,0.00e+00,
644,2.40e-03,
645,0.00e+00,
646,2.40e-03,
647,-8.00e-04,
648,0.00e+00,
649,2.40e-03,
650,-8.00e-04,
651,2.80e-03,
652,2.40e-03,
653,-1.60e-03,
654,-8.00e-04,
655,3.20e-03,
656,0.00e+00,
657,2.80e-03,
658,0.00e+00,
659,2.40e-03,
660,2.40e-03,
661,0.00e+00,
662,3.20e-03,
663,0.00e+00,
664,-8.00e-04,
665,3.20e-03,
666,2.40e-03,
667,-1.60e-03,
668,2.40e-03,
669,-8.00e-04,
670,-8.00e-04,
671,2.80e-03,
672,-8.00e-04,
673,2.40e-03,
674,1.60e-03,
675,-8.00e-04,
676,3.20e-03,
677,-8.00e-04,
678,2.40e-03,
679,0.00e+00,
680,2.40e-03,
681,-8.00e-04,
682,0.00e+00,
683,2.40e-03,
684,2.40e-03,
685,-8.00e-04,
686,2.40e-03,
687,-8.00e-04,
688,-8.00e-04,
689,2.40e-03,
690,-8.00e-04,
691,2.00e-03,
692,-8.00e-04,
693,2.00e-03,
694,-8.00e-04,
695,2.40e-03,
696,-8.00e-04,
697,2.40e-03,
698,-8.00e-04,
699,2.80e-03,
700,1.60e-03,
701,-8.00e-04,
702,-8.00e-04,
703,2.00e-03,
704,-8.00e-04,
705,3.20e-03,
706,0.00e+00,
707,2.40e-03,
708,1.60e-03,
709,-8.00e-04,
710,2.40e-03,
711,-8.00e-04,
712,0.00e+00,
713,2.80e-03,
714,0.00e+00,
715,3.20e-03,
716,2.40e-03,
717,-8.00e-04,
718,-8.00e-04,
719,2.40e-03,
720,3.20e-03,
721,-8.00e-04,
722,-8.00e-04,
723,2.40e-03,
724,-8.00e-04,
725,3.20e-03,
726,-8.00e-04,
727,2.80e-03,
728,2.40e-03,
729,-1.60e-03,
730,-1.60e-03,
731,2.40e-03,
732,-8.00e-04,
733,3.20e-03,
734,0.00e+00,
735,2.40e-03,
736,0.00e+00,
737,2.40e-03,
738,2.40e-03,
739,-8.00e-04,
740,2.40e-03,
741,-8.00e-04,
742,0.00e+00,
743,2.80e-03,
744,2.40e-03,
745,-8.00e-04,
746,2.40e-03,
747,-1.60e-03,
748,2.40e-03,
749,-8.00e-04,
750,3.20e-03,
751,-8.00e-04,
752,-8.00e-04,
753,1.60e-03,
754,-8.00e-04,
755,2.40e-03,
756,-8.00e-04,
757,2.40e-03,
758,2.40e-03,
759,-8.00e-04,
760,-8.00e-04,
761,2.40e-03,
762,3.20e-03,
763,-1.20e-03,
764,2.40e-03,
765,-8.00e-04,
766,2.40e-03,
767,-8.00e-04,
768,2.40e-03,
769,-8.00e-04,
770,2.40e-03,
771,-1.60e-03,
772,-8.00e-04,
773,2.80e-03,
774,2.00e-03,
775,-1.60e-03,
776,-8.00e-04,
777,2.80e-03,
778,-8.00e-04,
779,2.40e-03,
780,0.00e+00,
781,2.80e-03,
782,-8.00e-04,
783,2.00e-03,
784,-8.00e-04,
785,3.20e-03,
786,1.60e-03,
787,-8.00e-04,
788,-8.00e-04,
789,2.40e-03,
790,2.40e-03,
791,-8.00e-04,
792,2.40e-03,
793,-8.00e-04,
794,2.40e-03,
795,0.00e+00,
796,3.20e-03,
797,0.00e+00,
798,-8.00e-04,
799,2.40e-03,
800,3.20e-03,
801,-8.00e-04,
802,3.20e-03,
803,-8.00e-04,
804,2.40e-03,
805,-4.00e-04,
806,1.60e-03,
807,-1.60e-03,
808,-8.00e-04,
809,2.00e-03,
810,0.00e+00,
811,2.40e-03,
812,-8.00e-04,
813,2.40e-03,
814,-8.00e-04,
815,2.40e-03,
816,2.40e-03,
817,-8.00e-04,
818,-8.00e-04,
819,2.40e-03,
820,0.00e+00,
821,2.40e-03,
822,-8.00e-04,
823,2.40e-03,
824,-8.00e-04,
825,2.40e-03,
826,2.40e-03,
827,-8.00e-04,
828,-8.00e-04,
829,2.40e-03,
830,1.60e-03,
831,-8.00e-04,
832,1.60e-03,
833,-1.60e-03,
834,-8.00e-04,
835,2.40e-03,
836,2.40e-03,
837,-8.00e-04,
838,-8.00e-04,
839,2.40e-03,
840,2.40e-03,
841,-8.00e-04,
842,-8.00e-04,
843,2.40e-03,
844,2.40e-03,
845,-8.00e-04,
846,0.00e+00,
847,3.20e-03,
848,-1.60e-03,
849,2.40e-03,
850,2.40e-03,
851,-8.00e-04,
852,2.40e-03,
853,-8.00e-04,
854,0.00e+00,
855,2.00e-03,
856,2.40e-03,
857,-8.00e-04,
858,-4.00e-04,
859,2.40e-03,
860,2.40e-03,
861,-8.00e-04,
862,-1.60e-03,
863,3.20e-03,
864,-8.00e-04,
865,2.80e-03,
866,3.20e-03,
867,-8.00e-04,
868,2.40e-03,
869,-8.00e-04,
870,2.40e-03,
871,0.00e+00,
872,0.00e+00,
873,2.80e-03,
874,3.20e-03,
875,-1.20e-03,
876,1.60e-03,
877,-8.00e-04,
878,-8.00e-04,
879,2.40e-03,
880,3.20e-03,
881,-8.00e-04,
882,-8.00e-04,
883,2.40e-03,
884,2.40e-03,
885,-8.00e-04,
886,2.40e-03,
887,-8.00e-04,
888,2.40e-03,
889,-8.00e-04,
890,1.60e-03,
891,-8.00e-04,
892,-8.00e-04,
893,2.40e-03,
894,-8.00e-04,
895,2.40e-03,
896,-8.00e-04,
897,2.40e-03,
898,-8.00e-04,
899,2.40e-03,
900,-8.00e-04,
901,2.40e-03,
902,-8.00e-04,
903,2.40e-03,
904,-8.00e-04,
905,2.40e-03,
906,8.00e-04,
907,2.80e-03,
908,0.00e+00,
909,3.20e-03,
910,3.20e-03,
911,0.00e+00,
912,2.40e-03,
913,-8.00e-04,
914,-8.00e-04,
915,2.40e-03,
916,-8.00e-04,
917,2.40e-03,
918,2.40e-03,
919,-8.00e-04,
920,2.40e-03,
921,0.00e+00,
922,3.20e-03,
923,0.00e+00,
924,3.20e-03,
925,0.00e+00,
926,3.20e-03,
927,-8.00e-04,
928,2.40e-03,
929,-8.00e-04,
930,3.20e-03,
931,0.00e+00,
932,8.00e-04,
933,3.20e-03,
934,3.20e-03,
935,0.00e+00,
936,3.20e-03,
937,-8.00e-04,
938,0.00e+00,
939,2.40e-03,
940,0.00e+00,
941,4.00e-03,
942,0.00e+00,
943,4.00e-03,
944,2.40e-03,
945,-8.00e-04,
946,0.00e+00,
947,2.00e-03,
948,0.00e+00,
949,2.40e-03,
950,-8.00e-04,
951,3.20e-03,
952,2.40e-03,
953,-8.00e-04,
954,1.60e-03,
955,0.00e+00,
956,2.40e-03,
957,0.00e+00,
958,0.00e+00,
959,2.40e-03,
960,-8.00e-04,
961,3.20e-03,
962,-8.00e-04,
963,2.40e-03,
964,2.40e-03,
965,-8.00e-04,
966,2.40e-03,
967,-8.00e-04,
968,0.00e+00,
969,2.40e-03,
970,2.40e-03,
971,-8.00e-04,
972,-8.00e-04,
973,2.40e-03,
974,0.00e+00,
975,2.40e-03,
976,2.40e-03,
977,-8.00e-04,
978,2.40e-03,
979,-8.00e-04,
980,2.40e-03,
981,-8.00e-04,
982,-8.00e-04,
983,3.20e-03,
984,-8.00e-04,
985,2.80e-03,
986,2.40e-03,
987,0.00e+00,
988,0.00e+00,
989,2.80e-03,
990,2.40e-03,
991,0.00e+00,
992,-8.00e-04,
993,3.20e-03,
994,3.20e-03,
995,-8.00e-04,
996,2.40e-03,
997,-8.00e-04,
998,2.40e-03,
999,0.00e+00,
1000,3.20e-03,
1001,-8.00e-04,
1002,0.00e+00,
1003,2.40e-03,
1004,0.00e+00,
1005,2.40e-03,
1006,0.00e+00,
1007,3.20e-03,
1008,3.20e-03,
1009,0.00e+00,
1010,-8.00e-04,
1011,3.20e-03,
1012,8.00e-04,
1013,3.20e-03,
1014,0.00e+00,
1015,2.80e-03,
1016,2.40e-03,
1017,0.00e+00,
1018,3.20e-03,
1019,-8.00e-04,
1020,2.40e-03,
1021,0.00e+00,
1022,0.00e+00,
1023,2.40e-03,
1024,2.40e-03,
1025,0.00e+00,
1026,-8.00e-04,
1027,3.20e-03,
1028,3.20e-03,
1029,-8.00e-04,
1030,-8.00e-04,
1031,3.20e-03,
1032,-8.00e-04,
1033,3.20e-03,
1034,0.00e+00,
1035,3.20e-03,
1036,0.00e+00,
1037,3.20e-03,
1038,0.00e+00,
1039,2.80e-03,
1040,3.20e-03,
1041,0.00e+00,
1042,3.20e-03,
1043,-8.00e-04,
1044,2.40e-03,
1045,0.00e+00,
1046,3.20e-03,
1047,-8.00e-04,
1048,2.40e-03,
1049,-8.00e-04,
1050,0.00e+00,
1051,3.20e-03,
1052,2.40e-03,
1053,-8.00e-04,
1054,0.00e+00,
1055,2.40e-03,
1056,-8.00e-04,
1057,2.40e-03,
1058,2.40e-03,
1059,-8.00e-04,
1060,-8.00e-04,
1061,2.40e-03,
1062,0.00e+00,
1063,2.40e-03,
1064,2.40e-03,
1065,-8.00e-04,
1066,2.80e-03,
1067,-8.00e-04,
1068,-1.60e-03,
1069,1.60e-03,
1070,0.00e+00,
1071,2.40e-03,
1072,0.00e+00,
1073,2.40e-03,
1074,3.20e-03,
1075,-8.00e-04,
1076,-8.00e-04,
1077,3.20e-03,
1078,-8.00e-04,
1079,3.20e-03,
1080,-8.00e-04,
1081,3.20e-03,
1082,2.40e-03,
1083,-8.00e-04,
1084,-8.00e-04,
1085,2.40e-03,
1086,-1.60e-03,
1087,2.40e-03,
1088,-8.00e-04,
1089,1.60e-03,
1090,2.80e-03,
1091,-8.00e-04,
1092,3.20e-03,
1093,-8.00e-04,
1094,2.40e-03,
1095,-8.00e-04,
1096,-8.00e-04,
1097,3.20e-03,
1098,0.00e+00,
1099,3.20e-03,
1100,0.00e+00,
1101,2.80e-03,
1102,2.80e-03,
1103,-8.00e-04,
1104,3.20e-03,
1105,-8.00e-04,
1106,0.00e+00,
1107,3.20e-03,
1108,3.20e-03,
1109,0.00e+00,
1110,3.20e-03,
1111,-8.00e-04,
1112,-8.00e-04,
1113,3.20e-03,
1114,-8.00e-04,
1115,3.20e-03,
1116,2.40e-03,
1117,0.00e+00,
1118,2.40e-03,
1119,-8.00e-04,
1120,0.00e+00,
1121,2.40e-03,
1122,0.00e+00,
1123,2.40e-03,
1124,3.20e-03,
1125,-8.00e-04,
1126,3.20e-03,
1127,-8.00e-04,
1128,2.40e-03,
1129,-8.00e-04,
1130,0.00e+00,
1131,2.40e-03,
1132,2.40e-03,
1133,-8.00e-04,
1134,2.40e-03,
1135,0.00e+00,
1136,0.00e+00,
1137,2.40e-03,
1138,2.40e-03,
1139,-8.00e-04,
1140,2.40e-03,
1141,-8.00e-04,
1142,0.00e+00,
1143,3.20e-03,
1144,2.40e-03,
1145,0.00e+00,
1146,0.00e+00,
1147,2.40e-03,
1148,0.00e+00,
1149,2.80e-03,
1150,2.40e-03,
1151,-8.00e-04,
1152,-8.00e-04,
1153,2.40e-03,
1154,-8.00e-04,
1155,2.40e-03,
1156,-8.00e-04,
1157,2.40e-03,
1158,-8.00e-04,
1159,2.40e-03,
1160,3.20e-03,
1161,0.00e+00,
1162,2.40e-03,
1163,-8.00e-04,
1164,0.00e+00,
1165,2.40e-03,
1166,2.40e-03,
1167,-8.00e-04,
1168,0.00e+00,
1169,3.20e-03,
1170,3.20e-03,
1171,-1.60e-03,
1172,2.40e-03,
1173,0.00e+00,
1174,0.00e+00,
1175,2.80e-03,
1176,0.00e+00,
1177,3.20e-03,
1178,2.40e-03,
1179,-8.00e-04,
1180,-8.00e-04,
1181,3.20e-03,
1182,2.40e-03,
1183,0.00e+00,
1184,-8.00e-04,
1185,2.40e-03,
1186,-8.00e-04,
1187,3.20e-03,
1188,0.00e+00,
1189,2.40e-03,
1190,3.20e-03,
1191,0.00e+00,
1192,2.40e-03,
1193,-8.00e-04,
1194,2.40e-03,
1195,-8.00e-04,
1196,-8.00e-04,
1197,3.20e-03,
1198,-8.00e-04,
1199,2.40e-03,
