fastdiffamp/data-noise-set/6th/NewFile3.csv

X,CH1,Start,Increment,
Sequence,Volt,-1.200000e-02,2.000000e-05
0,0.00e+00,
1,3.20e-03,
2,2.40e-03,
3,8.00e-04,
4,-8.00e-04,
5,2.40e-03,
6,3.20e-03,
7,0.00e+00,
8,0.00e+00,
9,3.20e-03,
10,3.20e-03,
11,-8.00e-04,
12,2.40e-03,
13,0.00e+00,
14,3.20e-03,
15,-8.00e-04,
16,0.00e+00,
17,2.40e-03,
18,3.20e-03,
19,0.00e+00,
20,3.20e-03,
21,-8.00e-04,
22,-8.00e-04,
23,3.20e-03,
24,2.40e-03,
25,-8.00e-04,
26,3.20e-03,
27,0.00e+00,
28,2.40e-03,
29,0.00e+00,
30,-8.00e-04,
31,3.20e-03,
32,2.80e-03,
33,0.00e+00,
34,2.40e-03,
35,0.00e+00,
36,2.40e-03,
37,-1.60e-03,
38,0.00e+00,
39,2.40e-03,
40,0.00e+00,
41,3.20e-03,
42,2.40e-03,
43,-8.00e-04,
44,0.00e+00,
45,3.20e-03,
46,0.00e+00,
47,3.20e-03,
48,0.00e+00,
49,2.40e-03,
50,-8.00e-04,
51,3.20e-03,
52,3.20e-03,
53,-8.00e-04,
54,-8.00e-04,
55,3.20e-03,
56,3.20e-03,
57,8.00e-04,
58,4.00e-03,
59,0.00e+00,
60,2.80e-03,
61,-8.00e-04,
62,3.20e-03,
63,0.00e+00,
64,3.20e-03,
65,-8.00e-04,
66,-8.00e-04,
67,3.20e-03,
68,8.00e-04,
69,3.20e-03,
70,8.00e-04,
71,3.20e-03,
72,0.00e+00,
73,3.20e-03,
74,0.00e+00,
75,3.20e-03,
76,3.20e-03,
77,0.00e+00,
78,0.00e+00,
79,2.80e-03,
80,0.00e+00,
81,3.20e-03,
82,2.80e-03,
83,0.00e+00,
84,3.20e-03,
85,0.00e+00,
86,3.20e-03,
87,0.00e+00,
88,3.20e-03,
89,0.00e+00,
90,0.00e+00,
91,3.20e-03,
92,0.00e+00,
93,3.20e-03,
94,4.00e-03,
95,0.00e+00,
96,3.20e-03,
97,-8.00e-04,
98,8.00e-04,
99,3.20e-03,
100,2.40e-03,
101,0.00e+00,
102,0.00e+00,
103,3.20e-03,
104,2.40e-03,
105,-8.00e-04,
106,3.20e-03,
107,0.00e+00,
108,3.20e-03,
109,0.00e+00,
110,0.00e+00,
111,3.20e-03,
112,3.20e-03,
113,0.00e+00,
114,0.00e+00,
115,2.40e-03,
116,3.20e-03,
117,-8.00e-04,
118,-8.00e-04,
119,2.40e-03,
120,0.00e+00,
121,2.80e-03,
122,-8.00e-04,
123,2.00e-03,
124,-8.00e-04,
125,2.80e-03,
126,2.80e-03,
127,0.00e+00,
128,0.00e+00,
129,2.80e-03,
130,0.00e+00,
131,2.40e-03,
132,0.00e+00,
133,2.40e-03,
134,0.00e+00,
135,3.20e-03,
136,0.00e+00,
137,2.40e-03,
138,0.00e+00,
139,2.80e-03,
140,2.80e-03,
141,-8.00e-04,
142,3.20e-03,
143,-8.00e-04,
144,-8.00e-04,
145,3.20e-03,
146,-8.00e-04,
147,3.20e-03,
148,0.00e+00,
149,3.20e-03,
150,0.00e+00,
151,3.20e-03,
152,0.00e+00,
153,3.20e-03,
154,0.00e+00,
155,3.20e-03,
156,0.00e+00,
157,3.20e-03,
158,0.00e+00,
159,2.40e-03,
160,-8.00e-04,
161,2.80e-03,
162,0.00e+00,
163,2.40e-03,
164,-8.00e-04,
165,2.40e-03,
166,0.00e+00,
167,2.40e-03,
168,2.40e-03,
169,0.00e+00,
170,0.00e+00,
171,3.20e-03,
172,2.40e-03,
173,0.00e+00,
174,3.20e-03,
175,-8.00e-04,
176,0.00e+00,
177,3.20e-03,
178,3.20e-03,
179,0.00e+00,
180,0.00e+00,
181,2.00e-03,
182,1.60e-03,
183,-8.00e-04,
184,0.00e+00,
185,2.80e-03,
186,-8.00e-04,
187,2.80e-03,
188,2.40e-03,
189,-8.00e-04,
190,3.20e-03,
191,0.00e+00,
192,-8.00e-04,
193,2.40e-03,
194,-8.00e-04,
195,3.20e-03,
196,3.20e-03,
197,0.00e+00,
198,2.40e-03,
199,0.00e+00,
200,1.60e-03,
201,-8.00e-04,
202,2.40e-03,
203,-8.00e-04,
204,-8.00e-04,
205,1.60e-03,
206,0.00e+00,
207,2.80e-03,
208,2.80e-03,
209,-8.00e-04,
210,2.40e-03,
211,0.00e+00,
212,2.40e-03,
213,-8.00e-04,
214,0.00e+00,
215,2.40e-03,
216,0.00e+00,
217,2.40e-03,
218,0.00e+00,
219,2.40e-03,
220,0.00e+00,
221,3.20e-03,
222,0.00e+00,
223,3.20e-03,
224,-8.00e-04,
225,2.40e-03,
226,2.40e-03,
227,0.00e+00,
228,0.00e+00,
229,2.40e-03,
230,-8.00e-04,
231,2.80e-03,
232,2.40e-03,
233,-8.00e-04,
234,0.00e+00,
235,3.20e-03,
236,-8.00e-04,
237,2.40e-03,
238,-8.00e-04,
239,2.40e-03,
240,-8.00e-04,
241,2.40e-03,
242,2.80e-03,
243,-8.00e-04,
244,0.00e+00,
245,2.40e-03,
246,2.40e-03,
247,-8.00e-04,
248,2.80e-03,
249,-1.60e-03,
250,-8.00e-04,
251,2.40e-03,
252,2.80e-03,
253,-8.00e-04,
254,-8.00e-04,
255,2.40e-03,
256,2.40e-03,
257,-8.00e-04,
258,-8.00e-04,
259,3.20e-03,
260,-8.00e-04,
261,2.40e-03,
262,-8.00e-04,
263,3.20e-03,
264,3.20e-03,
265,0.00e+00,
266,2.40e-03,
267,0.00e+00,
268,2.40e-03,
269,-8.00e-04,
270,2.40e-03,
271,-8.00e-04,
272,-1.60e-03,
273,2.80e-03,
274,2.40e-03,
275,-8.00e-04,
276,-8.00e-04,
277,2.40e-03,
278,-8.00e-04,
279,2.40e-03,
280,2.40e-03,
281,-8.00e-04,
282,3.20e-03,
283,-8.00e-04,
284,0.00e+00,
285,2.40e-03,
286,-8.00e-04,
287,3.20e-03,
288,0.00e+00,
289,2.40e-03,
290,2.40e-03,
291,-8.00e-04,
292,0.00e+00,
293,2.80e-03,
294,2.40e-03,
295,-8.00e-04,
296,-8.00e-04,
297,2.40e-03,
298,-8.00e-04,
299,3.20e-03,
300,0.00e+00,
301,2.40e-03,
302,2.40e-03,
303,-8.00e-04,
304,0.00e+00,
305,3.20e-03,
306,3.20e-03,
307,-8.00e-04,
308,-8.00e-04,
309,3.20e-03,
310,3.20e-03,
311,-1.60e-03,
312,-8.00e-04,
313,2.40e-03,
314,3.20e-03,
315,-8.00e-04,
316,0.00e+00,
317,3.20e-03,
318,2.40e-03,
319,0.00e+00,
320,-8.00e-04,
321,2.40e-03,
322,3.20e-03,
323,0.00e+00,
324,3.20e-03,
325,-8.00e-04,
326,3.20e-03,
327,-1.60e-03,
328,0.00e+00,
329,2.40e-03,
330,0.00e+00,
331,3.20e-03,
332,2.40e-03,
333,0.00e+00,
334,3.20e-03,
335,0.00e+00,
336,-8.00e-04,
337,3.20e-03,
338,-1.60e-03,
339,2.40e-03,
340,8.00e-04,
341,3.20e-03,
342,2.40e-03,
343,0.00e+00,
344,8.00e-04,
345,2.80e-03,
346,2.40e-03,
347,-8.00e-04,
348,-4.00e-04,
349,2.80e-03,
350,0.00e+00,
351,3.20e-03,
352,0.00e+00,
353,3.20e-03,
354,3.20e-03,
355,0.00e+00,
356,3.20e-03,
357,0.00e+00,
358,0.00e+00,
359,3.20e-03,
360,2.40e-03,
361,0.00e+00,
362,8.00e-04,
363,2.40e-03,
364,-8.00e-04,
365,2.40e-03,
366,0.00e+00,
367,3.20e-03,
368,0.00e+00,
369,3.20e-03,
370,0.00e+00,
371,2.80e-03,
372,0.00e+00,
373,2.40e-03,
374,-8.00e-04,
375,2.80e-03,
376,0.00e+00,
377,2.40e-03,
378,0.00e+00,
379,2.40e-03,
380,0.00e+00,
381,3.20e-03,
382,0.00e+00,
383,3.20e-03,
384,0.00e+00,
385,3.20e-03,
386,-8.00e-04,
387,3.20e-03,
388,0.00e+00,
389,2.40e-03,
390,0.00e+00,
391,3.20e-03,
392,2.40e-03,
393,-8.00e-04,
394,-8.00e-04,
395,3.20e-03,
396,2.40e-03,
397,0.00e+00,
398,2.40e-03,
399,-8.00e-04,
400,2.40e-03,
401,-8.00e-04,
402,2.40e-03,
403,0.00e+00,
404,0.00e+00,
405,2.40e-03,
406,0.00e+00,
407,3.20e-03,
408,0.00e+00,
409,3.20e-03,
410,2.40e-03,
411,0.00e+00,
412,2.40e-03,
413,0.00e+00,
414,2.40e-03,
415,0.00e+00,
416,2.80e-03,
417,-8.00e-04,
418,0.00e+00,
419,3.20e-03,
420,2.80e-03,
421,-8.00e-04,
422,2.80e-03,
423,0.00e+00,
424,-8.00e-04,
425,3.20e-03,
426,0.00e+00,
427,3.20e-03,
428,0.00e+00,
429,2.40e-03,
430,3.20e-03,
431,-8.00e-04,
432,3.20e-03,
433,0.00e+00,
434,3.20e-03,
435,0.00e+00,
436,2.40e-03,
437,0.00e+00,
438,-8.00e-04,
439,3.20e-03,
440,2.40e-03,
441,-8.00e-04,
442,2.80e-03,
443,0.00e+00,
444,0.00e+00,
445,2.80e-03,
446,-8.00e-04,
447,3.20e-03,
448,2.40e-03,
449,-8.00e-04,
450,-8.00e-04,
451,3.20e-03,
452,0.00e+00,
453,2.80e-03,
454,2.40e-03,
455,-8.00e-04,
456,0.00e+00,
457,3.20e-03,
458,2.40e-03,
459,-8.00e-04,
460,0.00e+00,
461,3.20e-03,
462,-8.00e-04,
463,2.80e-03,
464,0.00e+00,
465,2.40e-03,
466,-8.00e-04,
467,2.80e-03,
468,3.20e-03,
469,-4.00e-04,
470,0.00e+00,
471,3.20e-03,
472,2.40e-03,
473,-8.00e-04,
474,3.20e-03,
475,-8.00e-04,
476,0.00e+00,
477,3.20e-03,
478,0.00e+00,
479,2.40e-03,
480,-8.00e-04,
481,2.40e-03,
482,-8.00e-04,
483,3.20e-03,
484,1.60e-03,
485,0.00e+00,
486,-8.00e-04,
487,3.60e-03,
488,0.00e+00,
489,3.20e-03,
490,3.20e-03,
491,-8.00e-04,
492,-8.00e-04,
493,3.20e-03,
494,2.40e-03,
495,0.00e+00,
496,0.00e+00,
497,3.20e-03,
498,8.00e-04,
499,3.20e-03,
500,0.00e+00,
501,2.80e-03,
502,3.20e-03,
503,0.00e+00,
504,3.20e-03,
505,-8.00e-04,
506,-8.00e-04,
507,3.20e-03,
508,0.00e+00,
509,2.80e-03,
510,3.20e-03,
511,0.00e+00,
512,0.00e+00,
513,2.40e-03,
514,0.00e+00,
515,2.40e-03,
516,3.20e-03,
517,-8.00e-04,
518,0.00e+00,
519,2.80e-03,
520,0.00e+00,
521,3.20e-03,
522,-8.00e-04,
523,3.20e-03,
524,-8.00e-04,
525,3.20e-03,
526,-8.00e-04,
527,3.20e-03,
528,-8.00e-04,
529,3.20e-03,
530,0.00e+00,
531,2.40e-03,
532,2.40e-03,
533,0.00e+00,
534,3.20e-03,
535,0.00e+00,
536,2.40e-03,
537,-8.00e-04,
538,3.20e-03,
539,0.00e+00,
540,0.00e+00,
541,2.40e-03,
542,0.00e+00,
543,2.80e-03,
544,0.00e+00,
545,2.40e-03,
546,2.40e-03,
547,-8.00e-04,
548,3.20e-03,
549,-8.00e-04,
550,3.20e-03,
551,-8.00e-04,
552,2.40e-03,
553,0.00e+00,
554,0.00e+00,
555,3.20e-03,
556,0.00e+00,
557,3.20e-03,
558,0.00e+00,
559,2.40e-03,
560,0.00e+00,
561,2.40e-03,
562,0.00e+00,
563,3.20e-03,
564,3.20e-03,
565,-8.00e-04,
566,0.00e+00,
567,3.20e-03,
568,-8.00e-04,
569,3.20e-03,
570,2.80e-03,
571,-8.00e-04,
572,2.40e-03,
573,-8.00e-04,
574,2.40e-03,
575,-8.00e-04,
576,0.00e+00,
577,3.20e-03,
578,-8.00e-04,
579,3.20e-03,
580,2.40e-03,
581,-8.00e-04,
582,2.40e-03,
583,-8.00e-04,
584,0.00e+00,
585,2.80e-03,
586,3.20e-03,
587,-8.00e-04,
588,-8.00e-04,
589,3.60e-03,
590,0.00e+00,
591,2.40e-03,
592,0.00e+00,
593,3.20e-03,
594,2.40e-03,
595,0.00e+00,
596,0.00e+00,
597,2.40e-03,
598,0.00e+00,
599,3.20e-03,
600,0.00e+00,
601,2.80e-03,
602,-8.00e-04,
603,2.40e-03,
604,2.80e-03,
605,-8.00e-04,
606,-8.00e-04,
607,3.20e-03,
608,-8.00e-04,
609,3.20e-03,
610,-8.00e-04,
611,2.40e-03,
612,-8.00e-04,
613,2.40e-03,
614,2.40e-03,
615,-8.00e-04,
616,3.20e-03,
617,0.00e+00,
618,0.00e+00,
619,2.40e-03,
620,-8.00e-04,
621,2.40e-03,
622,3.20e-03,
623,-8.00e-04,
624,0.00e+00,
625,3.20e-03,
626,-8.00e-04,
627,2.40e-03,
628,0.00e+00,
629,2.40e-03,
630,-8.00e-04,
631,2.40e-03,
632,-1.60e-03,
633,2.40e-03,
634,2.40e-03,
635,0.00e+00,
636,0.00e+00,
637,3.20e-03,
638,3.20e-03,
639,0.00e+00,
640,2.80e-03,
641,-8.00e-04,
642,-8.00e-04,
643,3.20e-03,
644,2.80e-03,
645,0.00e+00,
646,0.00e+00,
647,3.20e-03,
648,0.00e+00,
649,3.20e-03,
650,0.00e+00,
651,2.80e-03,
652,-8.00e-04,
653,2.40e-03,
654,0.00e+00,
655,3.20e-03,
656,3.20e-03,
657,0.00e+00,
658,3.20e-03,
659,0.00e+00,
660,0.00e+00,
661,3.20e-03,
662,0.00e+00,
663,4.00e-03,
664,3.20e-03,
665,0.00e+00,
666,3.20e-03,
667,0.00e+00,
668,3.20e-03,
669,-8.00e-04,
670,0.00e+00,
671,3.20e-03,
672,0.00e+00,
673,3.20e-03,
674,-8.00e-04,
675,3.20e-03,
676,0.00e+00,
677,2.80e-03,
678,-8.00e-04,
679,2.40e-03,
680,0.00e+00,
681,3.20e-03,
682,2.40e-03,
683,-8.00e-04,
684,-8.00e-04,
685,2.40e-03,
686,-8.00e-04,
687,2.00e-03,
688,-8.00e-04,
689,2.40e-03,
690,2.40e-03,
691,-8.00e-04,
692,2.80e-03,
693,-1.60e-03,
694,-8.00e-04,
695,2.40e-03,
696,-8.00e-04,
697,2.40e-03,
698,2.40e-03,
699,-8.00e-04,
700,2.40e-03,
701,-8.00e-04,
702,-8.00e-04,
703,2.40e-03,
704,-8.00e-04,
705,2.00e-03,
706,0.00e+00,
707,2.40e-03,
708,0.00e+00,
709,2.40e-03,
710,2.40e-03,
711,-8.00e-04,
712,-1.60e-03,
713,3.60e-03,
714,2.40e-03,
715,-8.00e-04,
716,2.40e-03,
717,-8.00e-04,
718,0.00e+00,
719,2.40e-03,
720,0.00e+00,
721,3.20e-03,
722,0.00e+00,
723,2.80e-03,
724,-8.00e-04,
725,2.40e-03,
726,3.20e-03,
727,-8.00e-04,
728,0.00e+00,
729,2.40e-03,
730,0.00e+00,
731,2.40e-03,
732,3.20e-03,
733,0.00e+00,
734,0.00e+00,
735,2.40e-03,
736,0.00e+00,
737,3.20e-03,
738,0.00e+00,
739,2.40e-03,
740,0.00e+00,
741,2.40e-03,
742,-8.00e-04,
743,2.40e-03,
744,3.20e-03,
745,0.00e+00,
746,-8.00e-04,
747,2.40e-03,
748,2.40e-03,
749,-8.00e-04,
750,3.20e-03,
751,0.00e+00,
752,-8.00e-04,
753,2.80e-03,
754,2.80e-03,
755,0.00e+00,
756,-8.00e-04,
757,1.60e-03,
758,-8.00e-04,
759,2.40e-03,
760,8.00e-04,
761,3.20e-03,
762,3.20e-03,
763,0.00e+00,
764,2.80e-03,
765,0.00e+00,
766,0.00e+00,
767,3.20e-03,
768,3.20e-03,
769,0.00e+00,
770,3.20e-03,
771,0.00e+00,
772,-8.00e-04,
773,3.20e-03,
774,2.40e-03,
775,-8.00e-04,
776,2.80e-03,
777,-1.60e-03,
778,-8.00e-04,
779,2.40e-03,
780,0.00e+00,
781,2.40e-03,
782,2.40e-03,
783,0.00e+00,
784,3.20e-03,
785,-8.00e-04,
786,2.40e-03,
787,-8.00e-04,
788,-8.00e-04,
789,2.40e-03,
790,2.40e-03,
791,-8.00e-04,
792,-8.00e-04,
793,3.20e-03,
794,-8.00e-04,
795,3.20e-03,
796,2.40e-03,
797,-8.00e-04,
798,-8.00e-04,
799,2.00e-03,
800,0.00e+00,
801,2.80e-03,
802,2.40e-03,
803,-8.00e-04,
804,0.00e+00,
805,2.40e-03,
806,0.00e+00,
807,2.40e-03,
808,2.40e-03,
809,-8.00e-04,
810,-8.00e-04,
811,2.40e-03,
812,-8.00e-04,
813,2.40e-03,
814,-8.00e-04,
815,2.40e-03,
816,-8.00e-04,
817,2.80e-03,
818,2.40e-03,
819,-8.00e-04,
820,2.40e-03,
821,-8.00e-04,
822,2.40e-03,
823,-8.00e-04,
824,0.00e+00,
825,2.80e-03,
826,2.40e-03,
827,0.00e+00,
828,-8.00e-04,
829,3.20e-03,
830,-8.00e-04,
831,2.40e-03,
832,2.40e-03,
833,-8.00e-04,
834,3.20e-03,
835,0.00e+00,
836,-8.00e-04,
837,2.40e-03,
838,3.20e-03,
839,-8.00e-04,
840,0.00e+00,
841,2.40e-03,
842,2.40e-03,
843,0.00e+00,
844,-1.60e-03,
845,3.20e-03,
846,2.80e-03,
847,0.00e+00,
848,-8.00e-04,
849,2.00e-03,
850,0.00e+00,
851,2.80e-03,
852,2.40e-03,
853,-8.00e-04,
854,-8.00e-04,
855,2.40e-03,
856,3.20e-03,
857,0.00e+00,
858,-1.60e-03,
859,2.80e-03,
860,0.00e+00,
861,3.20e-03,
862,3.20e-03,
863,-1.60e-03,
864,3.20e-03,
865,-8.00e-04,
866,-8.00e-04,
867,2.80e-03,
868,-8.00e-04,
869,3.20e-03,
870,0.00e+00,
871,3.20e-03,
872,0.00e+00,
873,3.20e-03,
874,-8.00e-04,
875,2.40e-03,
876,2.40e-03,
877,-8.00e-04,
878,-8.00e-04,
879,3.20e-03,
880,-8.00e-04,
881,2.40e-03,
882,3.20e-03,
883,-1.60e-03,
884,3.20e-03,
885,-8.00e-04,
886,-8.00e-04,
887,2.80e-03,
888,-8.00e-04,
889,2.00e-03,
890,3.20e-03,
891,-8.00e-04,
892,2.40e-03,
893,-8.00e-04,
894,2.40e-03,
895,-8.00e-04,
896,-8.00e-04,
897,2.40e-03,
898,2.40e-03,
899,-1.60e-03,
900,1.60e-03,
901,-1.60e-03,
902,2.00e-03,
903,-8.00e-04,
904,-8.00e-04,
905,2.40e-03,
906,-8.00e-04,
907,2.40e-03,
908,-1.60e-03,
909,2.40e-03,
910,-8.00e-04,
911,2.00e-03,
912,0.00e+00,
913,2.80e-03,
914,1.60e-03,
915,-8.00e-04,
916,0.00e+00,
917,2.40e-03,
918,2.40e-03,
919,-8.00e-04,
920,2.40e-03,
921,-8.00e-04,
922,3.20e-03,
923,-1.60e-03,
924,-1.60e-03,
925,2.40e-03,
926,-8.00e-04,
927,2.40e-03,
928,-8.00e-04,
929,1.60e-03,
930,2.40e-03,
931,-8.00e-04,
932,-8.00e-04,
933,2.00e-03,
934,2.40e-03,
935,-1.60e-03,
936,-8.00e-04,
937,2.80e-03,
938,3.20e-03,
939,-8.00e-04,
940,2.40e-03,
941,-8.00e-04,
942,3.20e-03,
943,-8.00e-04,
944,2.40e-03,
945,-8.00e-04,
946,2.40e-03,
947,-8.00e-04,
948,0.00e+00,
949,2.00e-03,
950,0.00e+00,
951,2.40e-03,
952,0.00e+00,
953,3.20e-03,
954,-8.00e-04,
955,2.80e-03,
956,2.40e-03,
957,-8.00e-04,
958,1.60e-03,
959,-8.00e-04,
960,2.40e-03,
961,-1.60e-03,
962,2.40e-03,
963,-8.00e-04,
964,-8.00e-04,
965,2.40e-03,
966,-8.00e-04,
967,3.20e-03,
968,-8.00e-04,
969,2.40e-03,
970,1.60e-03,
971,-8.00e-04,
972,2.40e-03,
973,-8.00e-04,
974,0.00e+00,
975,2.40e-03,
976,-8.00e-04,
977,2.40e-03,
978,2.40e-03,
979,-8.00e-04,
980,3.20e-03,
981,0.00e+00,
982,0.00e+00,
983,3.20e-03,
984,2.40e-03,
985,-1.60e-03,
986,-8.00e-04,
987,2.40e-03,
988,2.40e-03,
989,0.00e+00,
990,-8.00e-04,
991,2.40e-03,
992,2.40e-03,
993,-8.00e-04,
994,2.40e-03,
995,-8.00e-04,
996,3.20e-03,
997,-1.60e-03,
998,3.20e-03,
999,-8.00e-04,
1000,1.60e-03,
1001,-8.00e-04,
1002,-8.00e-04,
1003,2.40e-03,
1004,-1.60e-03,
1005,1.60e-03,
1006,3.20e-03,
1007,-1.60e-03,
1008,2.40e-03,
1009,-8.00e-04,
1010,2.40e-03,
1011,-1.60e-03,
1012,-8.00e-04,
1013,2.40e-03,
1014,-8.00e-04,
1015,2.80e-03,
1016,3.20e-03,
1017,-8.00e-04,
1018,-1.60e-03,
1019,2.40e-03,
1020,-8.00e-04,
1021,2.40e-03,
1022,2.40e-03,
1023,-8.00e-04,
1024,2.40e-03,
1025,-8.00e-04,
1026,2.40e-03,
1027,-1.60e-03,
1028,2.40e-03,
1029,-8.00e-04,
1030,-8.00e-04,
1031,2.40e-03,
1032,2.00e-03,
1033,-8.00e-04,
1034,-1.60e-03,
1035,2.40e-03,
1036,-8.00e-04,
1037,2.80e-03,
1038,-8.00e-04,
1039,1.60e-03,
1040,2.80e-03,
1041,-8.00e-04,
1042,-8.00e-04,
1043,2.00e-03,
1044,2.40e-03,
1045,-2.40e-03,
1046,2.40e-03,
1047,-1.60e-03,
1048,-8.00e-04,
1049,2.40e-03,
1050,-1.20e-03,
1051,3.20e-03,
1052,2.40e-03,
1053,-8.00e-04,
1054,-1.60e-03,
1055,3.20e-03,
1056,-8.00e-04,
1057,2.40e-03,
1058,-8.00e-04,
1059,2.40e-03,
1060,0.00e+00,
1061,2.40e-03,
1062,2.40e-03,
1063,-8.00e-04,
1064,2.40e-03,
1065,-8.00e-04,
1066,2.40e-03,
1067,-8.00e-04,
1068,2.40e-03,
1069,-8.00e-04,
1070,-8.00e-04,
1071,2.40e-03,
1072,0.00e+00,
1073,2.40e-03,
1074,-8.00e-04,
1075,2.40e-03,
1076,2.40e-03,
1077,0.00e+00,
1078,3.20e-03,
1079,-8.00e-04,
1080,-8.00e-04,
1081,2.40e-03,
1082,-8.00e-04,
1083,2.40e-03,
1084,2.40e-03,
1085,-8.00e-04,
1086,-8.00e-04,
1087,2.40e-03,
1088,0.00e+00,
1089,2.40e-03,
1090,-1.60e-03,
1091,2.00e-03,
1092,2.00e-03,
1093,-8.00e-04,
1094,-8.00e-04,
1095,2.40e-03,
1096,-1.60e-03,
1097,2.40e-03,
1098,-8.00e-04,
1099,2.40e-03,
1100,-8.00e-04,
1101,2.40e-03,
1102,2.00e-03,
1103,-8.00e-04,
1104,2.40e-03,
1105,-8.00e-04,
1106,-8.00e-04,
1107,2.40e-03,
1108,-8.00e-04,
1109,1.60e-03,
1110,-8.00e-04,
1111,2.40e-03,
1112,2.40e-03,
1113,-8.00e-04,
1114,2.00e-03,
1115,-8.00e-04,
1116,0.00e+00,
1117,2.40e-03,
1118,-8.00e-04,
1119,2.40e-03,
1120,0.00e+00,
1121,2.40e-03,
1122,-8.00e-04,
1123,3.20e-03,
1124,-8.00e-04,
1125,2.40e-03,
1126,2.40e-03,
1127,-8.00e-04,
1128,1.60e-03,
1129,-1.60e-03,
1130,-8.00e-04,
1131,2.40e-03,
1132,2.40e-03,
1133,-8.00e-04,
1134,-8.00e-04,
1135,2.40e-03,
1136,3.20e-03,
1137,-1.60e-03,
1138,0.00e+00,
1139,2.40e-03,
1140,-8.00e-04,
1141,2.40e-03,
1142,-8.00e-04,
1143,1.60e-03,
1144,-8.00e-04,
1145,2.00e-03,
1146,-8.00e-04,
1147,2.40e-03,
1148,2.40e-03,
1149,-1.60e-03,
1150,-1.60e-03,
1151,2.40e-03,
1152,2.00e-03,
1153,-1.60e-03,
1154,2.40e-03,
1155,-8.00e-04,
1156,1.60e-03,
1157,-1.60e-03,
1158,2.40e-03,
1159,-8.00e-04,
1160,-8.00e-04,
1161,2.40e-03,
1162,2.80e-03,
1163,-8.00e-04,
1164,2.40e-03,
1165,-8.00e-04,
1166,2.40e-03,
1167,-8.00e-04,
1168,-8.00e-04,
1169,2.40e-03,
1170,-1.60e-03,
1171,3.20e-03,
1172,-1.60e-03,
1173,2.00e-03,
1174,2.40e-03,
1175,-8.00e-04,
1176,-8.00e-04,
1177,3.20e-03,
1178,0.00e+00,
1179,2.80e-03,
1180,-8.00e-04,
1181,2.40e-03,
1182,2.00e-03,
1183,-8.00e-04,
1184,0.00e+00,
1185,2.40e-03,
1186,2.40e-03,
1187,-8.00e-04,
1188,2.40e-03,
1189,-8.00e-04,
1190,1.60e-03,
1191,-8.00e-04,
1192,-8.00e-04,
1193,2.40e-03,
1194,-8.00e-04,
1195,2.40e-03,
1196,2.40e-03,
1197,-1.60e-03,
1198,-8.00e-04,
1199,2.80e-03,
