fastdiffamp/data-noise-set/6th/NewFile10.csv

X,CH1,Start,Increment,
Sequence,Volt,-1.200000e-02,2.000000e-05
0,2.40e-03,
1,0.00e+00,
2,2.40e-03,
3,0.00e+00,
4,0.00e+00,
5,3.20e-03,
6,0.00e+00,
7,3.20e-03,
8,0.00e+00,
9,3.20e-03,
10,0.00e+00,
11,3.20e-03,
12,0.00e+00,
13,3.20e-03,
14,0.00e+00,
15,3.60e-03,
16,3.20e-03,
17,0.00e+00,
18,0.00e+00,
19,2.80e-03,
20,3.20e-03,
21,0.00e+00,
22,3.20e-03,
23,0.00e+00,
24,2.40e-03,
25,-8.00e-04,
26,-8.00e-04,
27,3.20e-03,
28,2.40e-03,
29,0.00e+00,
30,3.20e-03,
31,0.00e+00,
32,3.20e-03,
33,-8.00e-04,
34,2.40e-03,
35,-8.00e-04,
36,2.40e-03,
37,0.00e+00,
38,2.80e-03,
39,0.00e+00,
40,2.40e-03,
41,0.00e+00,
42,2.40e-03,
43,0.00e+00,
44,0.00e+00,
45,3.20e-03,
46,0.00e+00,
47,2.40e-03,
48,0.00e+00,
49,3.20e-03,
50,2.80e-03,
51,-8.00e-04,
52,0.00e+00,
53,2.80e-03,
54,2.40e-03,
55,0.00e+00,
56,2.40e-03,
57,-8.00e-04,
58,3.20e-03,
59,-1.60e-03,
60,2.40e-03,
61,0.00e+00,
62,2.40e-03,
63,0.00e+00,
64,2.40e-03,
65,0.00e+00,
66,2.40e-03,
67,-8.00e-04,
68,2.40e-03,
69,-8.00e-04,
70,-8.00e-04,
71,2.80e-03,
72,2.40e-03,
73,-1.60e-03,
74,-8.00e-04,
75,2.40e-03,
76,-8.00e-04,
77,3.20e-03,
78,-8.00e-04,
79,3.20e-03,
80,0.00e+00,
81,2.40e-03,
82,0.00e+00,
83,2.40e-03,
84,0.00e+00,
85,2.40e-03,
86,0.00e+00,
87,2.40e-03,
88,2.40e-03,
89,0.00e+00,
90,2.40e-03,
91,0.00e+00,
92,2.40e-03,
93,-8.00e-04,
94,2.40e-03,
95,-8.00e-04,
96,2.40e-03,
97,-8.00e-04,
98,2.40e-03,
99,-8.00e-04,
100,1.60e-03,
101,0.00e+00,
102,-8.00e-04,
103,2.00e-03,
104,2.00e-03,
105,-8.00e-04,
106,-1.60e-03,
107,2.40e-03,
108,0.00e+00,
109,2.40e-03,
110,2.40e-03,
111,-8.00e-04,
112,-8.00e-04,
113,2.00e-03,
114,0.00e+00,
115,2.40e-03,
116,-8.00e-04,
117,2.40e-03,
118,3.20e-03,
119,-8.00e-04,
120,-8.00e-04,
121,2.40e-03,
122,2.40e-03,
123,-8.00e-04,
124,2.40e-03,
125,-8.00e-04,
126,2.00e-03,
127,-1.20e-03,
128,-1.60e-03,
129,2.00e-03,
130,-8.00e-04,
131,2.40e-03,
132,-8.00e-04,
133,2.40e-03,
134,-8.00e-04,
135,2.00e-03,
136,1.60e-03,
137,-1.60e-03,
138,-1.60e-03,
139,1.60e-03,
140,2.40e-03,
141,-1.60e-03,
142,-8.00e-04,
143,2.00e-03,
144,2.40e-03,
145,-1.60e-03,
146,-8.00e-04,
147,1.60e-03,
148,-8.00e-04,
149,2.40e-03,
150,1.60e-03,
151,-1.60e-03,
152,-8.00e-04,
153,1.60e-03,
154,-8.00e-04,
155,2.00e-03,
156,-8.00e-04,
157,1.60e-03,
158,-8.00e-04,
159,2.00e-03,
160,-8.00e-04,
161,1.60e-03,
162,1.60e-03,
163,-1.60e-03,
164,-1.60e-03,
165,1.60e-03,
166,-1.60e-03,
167,1.60e-03,
168,-1.60e-03,
169,2.40e-03,
170,1.60e-03,
171,-1.60e-03,
172,2.00e-03,
173,-8.00e-04,
174,-8.00e-04,
175,2.40e-03,
176,-1.60e-03,
177,1.60e-03,
178,-8.00e-04,
179,2.00e-03,
180,-8.00e-04,
181,2.40e-03,
182,2.40e-03,
183,-8.00e-04,
184,-8.00e-04,
185,2.80e-03,
186,-8.00e-04,
187,2.40e-03,
188,2.40e-03,
189,-8.00e-04,
190,2.40e-03,
191,-8.00e-04,
192,1.60e-03,
193,-8.00e-04,
194,-8.00e-04,
195,2.00e-03,
196,-8.00e-04,
197,2.40e-03,
198,-8.00e-04,
199,2.40e-03,
200,2.00e-03,
201,-8.00e-04,
202,2.40e-03,
203,-1.60e-03,
204,-8.00e-04,
205,2.40e-03,
206,-1.20e-03,
207,2.40e-03,
208,0.00e+00,
209,2.40e-03,
210,0.00e+00,
211,2.40e-03,
212,2.40e-03,
213,-8.00e-04,
214,2.40e-03,
215,-8.00e-04,
216,2.00e-03,
217,-8.00e-04,
218,0.00e+00,
219,2.40e-03,
220,2.40e-03,
221,-1.60e-03,
222,2.00e-03,
223,-1.60e-03,
224,-8.00e-04,
225,3.20e-03,
226,0.00e+00,
227,2.00e-03,
228,0.00e+00,
229,4.00e-03,
230,-8.00e-04,
231,2.40e-03,
232,1.60e-03,
233,-8.00e-04,
234,2.40e-03,
235,0.00e+00,
236,-8.00e-04,
237,2.40e-03,
238,2.40e-03,
239,-8.00e-04,
240,-8.00e-04,
241,2.40e-03,
242,2.40e-03,
243,-8.00e-04,
244,2.40e-03,
245,-8.00e-04,
246,2.40e-03,
247,-1.60e-03,
248,-8.00e-04,
249,2.40e-03,
250,-1.60e-03,
251,2.40e-03,
252,-8.00e-04,
253,3.20e-03,
254,-1.60e-03,
255,2.40e-03,
256,2.40e-03,
257,-8.00e-04,
258,-8.00e-04,
259,2.40e-03,
260,2.40e-03,
261,0.00e+00,
262,-8.00e-04,
263,1.60e-03,
264,0.00e+00,
265,2.80e-03,
266,0.00e+00,
267,2.40e-03,
268,-8.00e-04,
269,2.40e-03,
270,-8.00e-04,
271,2.80e-03,
272,-1.60e-03,
273,2.40e-03,
274,-8.00e-04,
275,1.60e-03,
276,2.40e-03,
277,-1.60e-03,
278,2.40e-03,
279,-8.00e-04,
280,2.40e-03,
281,-8.00e-04,
282,3.60e-03,
283,-8.00e-04,
284,-8.00e-04,
285,2.40e-03,
286,2.40e-03,
287,-8.00e-04,
288,1.60e-03,
289,-8.00e-04,
290,0.00e+00,
291,3.20e-03,
292,-8.00e-04,
293,1.60e-03,
294,1.60e-03,
295,-4.00e-04,
296,1.60e-03,
297,-8.00e-04,
298,2.00e-03,
299,-8.00e-04,
300,-8.00e-04,
301,2.40e-03,
302,2.40e-03,
303,-8.00e-04,
304,-8.00e-04,
305,2.00e-03,
306,0.00e+00,
307,2.40e-03,
308,-8.00e-04,
309,2.40e-03,
310,-8.00e-04,
311,2.40e-03,
312,2.00e-03,
313,-1.60e-03,
314,2.40e-03,
315,-8.00e-04,
316,-8.00e-04,
317,2.40e-03,
318,-8.00e-04,
319,2.80e-03,
320,2.40e-03,
321,0.00e+00,
322,-8.00e-04,
323,2.80e-03,
324,3.20e-03,
325,-8.00e-04,
326,-8.00e-04,
327,2.40e-03,
328,-8.00e-04,
329,2.40e-03,
330,2.40e-03,
331,-8.00e-04,
332,2.40e-03,
333,-8.00e-04,
334,-8.00e-04,
335,2.40e-03,
336,-8.00e-04,
337,2.40e-03,
338,3.20e-03,
339,-8.00e-04,
340,2.40e-03,
341,-8.00e-04,
342,-1.60e-03,
343,2.40e-03,
344,-8.00e-04,
345,2.40e-03,
346,3.20e-03,
347,-8.00e-04,
348,1.60e-03,
349,-8.00e-04,
350,2.40e-03,
351,-8.00e-04,
352,0.00e+00,
353,2.40e-03,
354,2.40e-03,
355,0.00e+00,
356,2.40e-03,
357,-8.00e-04,
358,0.00e+00,
359,2.80e-03,
360,3.20e-03,
361,-1.60e-03,
362,-8.00e-04,
363,2.80e-03,
364,2.00e-03,
365,-8.00e-04,
366,2.40e-03,
367,-8.00e-04,
368,2.40e-03,
369,-1.60e-03,
370,1.60e-03,
371,-8.00e-04,
372,1.60e-03,
373,-8.00e-04,
374,2.40e-03,
375,-8.00e-04,
376,2.40e-03,
377,-8.00e-04,
378,-8.00e-04,
379,2.40e-03,
380,-8.00e-04,
381,2.40e-03,
382,2.40e-03,
383,-8.00e-04,
384,2.40e-03,
385,-8.00e-04,
386,-8.00e-04,
387,1.60e-03,
388,-1.60e-03,
389,2.00e-03,
390,2.40e-03,
391,-1.60e-03,
392,-8.00e-04,
393,2.40e-03,
394,0.00e+00,
395,2.00e-03,
396,0.00e+00,
397,2.40e-03,
398,-8.00e-04,
399,2.40e-03,
400,-1.60e-03,
401,2.40e-03,
402,2.40e-03,
403,-1.60e-03,
404,2.40e-03,
405,-8.00e-04,
406,-8.00e-04,
407,2.40e-03,
408,-8.00e-04,
409,2.40e-03,
410,-8.00e-04,
411,2.40e-03,
412,2.40e-03,
413,-8.00e-04,
414,-8.00e-04,
415,2.00e-03,
416,2.40e-03,
417,-8.00e-04,
418,-8.00e-04,
419,2.40e-03,
420,2.40e-03,
421,0.00e+00,
422,-8.00e-04,
423,2.40e-03,
424,3.20e-03,
425,-1.60e-03,
426,2.40e-03,
427,-8.00e-04,
428,-8.00e-04,
429,2.00e-03,
430,-8.00e-04,
431,3.20e-03,
432,-8.00e-04,
433,2.40e-03,
434,2.80e-03,
435,-8.00e-04,
436,-8.00e-04,
437,2.40e-03,
438,1.60e-03,
439,-8.00e-04,
440,2.40e-03,
441,-8.00e-04,
442,-1.60e-03,
443,3.20e-03,
444,2.40e-03,
445,-8.00e-04,
446,1.60e-03,
447,0.00e+00,
448,2.40e-03,
449,-8.00e-04,
450,0.00e+00,
451,2.40e-03,
452,2.40e-03,
453,-8.00e-04,
454,-1.60e-03,
455,2.40e-03,
456,-1.60e-03,
457,2.40e-03,
458,-8.00e-04,
459,1.60e-03,
460,-8.00e-04,
461,2.40e-03,
462,2.40e-03,
463,-8.00e-04,
464,-8.00e-04,
465,2.40e-03,
466,-8.00e-04,
467,1.60e-03,
468,2.40e-03,
469,-8.00e-04,
470,1.60e-03,
471,-8.00e-04,
472,-8.00e-04,
473,2.00e-03,
474,-8.00e-04,
475,2.00e-03,
476,-8.00e-04,
477,2.40e-03,
478,-1.60e-03,
479,1.60e-03,
480,-1.60e-03,
481,2.00e-03,
482,2.40e-03,
483,-1.60e-03,
484,1.60e-03,
485,-8.00e-04,
486,-8.00e-04,
487,2.40e-03,
488,2.40e-03,
489,-1.60e-03,
490,1.60e-03,
491,-1.60e-03,
492,1.60e-03,
493,-1.60e-03,
494,-1.60e-03,
495,2.40e-03,
496,-1.60e-03,
497,2.40e-03,
498,1.60e-03,
499,-1.60e-03,
500,-8.00e-04,
501,1.60e-03,
502,2.40e-03,
503,-1.60e-03,
504,-1.60e-03,
505,3.20e-03,
506,1.60e-03,
507,-1.60e-03,
508,1.60e-03,
509,-8.00e-04,
510,-8.00e-04,
511,1.60e-03,
512,-8.00e-04,
513,1.60e-03,
514,2.40e-03,
515,-8.00e-04,
516,1.20e-03,
517,-1.60e-03,
518,-1.60e-03,
519,8.00e-04,
520,8.00e-04,
521,-8.00e-04,
522,2.00e-03,
523,-1.60e-03,
524,1.60e-03,
525,-1.60e-03,
526,2.00e-03,
527,-1.60e-03,
528,1.60e-03,
529,-8.00e-04,
530,-8.00e-04,
531,1.60e-03,
532,-1.60e-03,
533,2.40e-03,
534,-1.60e-03,
535,1.20e-03,
536,1.60e-03,
537,-1.60e-03,
538,-2.40e-03,
539,1.60e-03,
540,-8.00e-04,
541,1.60e-03,
542,2.00e-03,
543,-8.00e-04,
544,-8.00e-04,
545,1.60e-03,
546,2.00e-03,
547,-8.00e-04,
548,1.60e-03,
549,-2.40e-03,
550,-8.00e-04,
551,2.00e-03,
552,-8.00e-04,
553,1.60e-03,
554,-1.60e-03,
555,1.60e-03,
556,1.60e-03,
557,-8.00e-04,
558,-8.00e-04,
559,2.00e-03,
560,-8.00e-04,
561,2.40e-03,
562,2.40e-03,
563,-1.60e-03,
564,2.00e-03,
565,-1.60e-03,
566,-8.00e-04,
567,2.00e-03,
568,-8.00e-04,
569,2.40e-03,
570,-1.60e-03,
571,2.40e-03,
572,1.60e-03,
573,-1.60e-03,
574,-8.00e-04,
575,1.60e-03,
576,1.60e-03,
577,-8.00e-04,
578,1.60e-03,
579,-8.00e-04,
580,1.60e-03,
581,-1.60e-03,
582,-1.60e-03,
583,2.00e-03,
584,-8.00e-04,
585,1.60e-03,
586,-8.00e-04,
587,2.40e-03,
588,-1.60e-03,
589,2.00e-03,
590,1.60e-03,
591,-1.60e-03,
592,-8.00e-04,
593,1.60e-03,
594,2.40e-03,
595,-1.60e-03,
596,-1.60e-03,
597,1.60e-03,
598,-8.00e-04,
599,1.60e-03,
600,2.40e-03,
601,-1.60e-03,
602,-1.60e-03,
603,2.00e-03,
604,-1.60e-03,
605,2.00e-03,
606,8.00e-04,
607,-1.60e-03,
608,2.00e-03,
609,-1.60e-03,
610,-2.40e-03,
611,1.60e-03,
612,-1.60e-03,
613,1.60e-03,
614,1.60e-03,
615,-2.40e-03,
616,2.40e-03,
617,-1.60e-03,
618,-1.60e-03,
619,2.00e-03,
620,-8.00e-04,
621,1.60e-03,
622,1.60e-03,
623,-1.60e-03,
624,2.40e-03,
625,-1.60e-03,
626,2.40e-03,
627,-1.60e-03,
628,1.60e-03,
629,-1.60e-03,
630,1.60e-03,
631,-1.60e-03,
632,-1.60e-03,
633,1.60e-03,
634,-1.60e-03,
635,1.60e-03,
636,-2.40e-03,
637,1.60e-03,
638,2.40e-03,
639,-1.60e-03,
640,-1.60e-03,
641,1.60e-03,
642,2.40e-03,
643,-1.60e-03,
644,1.60e-03,
645,-1.60e-03,
646,2.00e-03,
647,-1.60e-03,
648,-1.60e-03,
649,1.60e-03,
650,1.60e-03,
651,-1.60e-03,
652,1.60e-03,
653,-1.60e-03,
654,-2.40e-03,
655,1.60e-03,
656,1.60e-03,
657,-1.60e-03,
658,-1.60e-03,
659,1.60e-03,
660,-8.00e-04,
661,1.20e-03,
662,8.00e-04,
663,-1.60e-03,
664,1.60e-03,
665,-1.60e-03,
666,1.60e-03,
667,-8.00e-04,
668,-8.00e-04,
669,2.40e-03,
670,-1.60e-03,
671,1.60e-03,
672,-8.00e-04,
673,1.60e-03,
674,-1.60e-03,
675,1.60e-03,
676,-8.00e-04,
677,2.40e-03,
678,-8.00e-04,
679,1.60e-03,
680,-8.00e-04,
681,1.60e-03,
682,-8.00e-04,
683,2.40e-03,
684,-8.00e-04,
685,2.40e-03,
686,-8.00e-04,
687,2.40e-03,
688,-8.00e-04,
689,2.80e-03,
690,-8.00e-04,
691,2.00e-03,
692,-8.00e-04,
693,2.40e-03,
694,2.40e-03,
695,-1.60e-03,
696,-8.00e-04,
697,2.40e-03,
698,3.20e-03,
699,-8.00e-04,
700,-8.00e-04,
701,2.40e-03,
702,0.00e+00,
703,2.40e-03,
704,1.60e-03,
705,-8.00e-04,
706,2.40e-03,
707,-1.60e-03,
708,-8.00e-04,
709,2.40e-03,
710,2.00e-03,
711,-8.00e-04,
712,2.40e-03,
713,-8.00e-04,
714,2.40e-03,
715,0.00e+00,
716,2.40e-03,
717,-8.00e-04,
718,-1.60e-03,
719,2.40e-03,
720,2.40e-03,
721,-1.60e-03,
722,2.40e-03,
723,-8.00e-04,
724,-8.00e-04,
725,2.80e-03,
726,-8.00e-04,
727,2.40e-03,
728,-8.00e-04,
729,2.40e-03,
730,-8.00e-04,
731,2.00e-03,
732,2.00e-03,
733,-8.00e-04,
734,2.40e-03,
735,-8.00e-04,
736,-8.00e-04,
737,2.40e-03,
738,0.00e+00,
739,2.40e-03,
740,2.40e-03,
741,-1.60e-03,
742,2.00e-03,
743,-8.00e-04,
744,2.40e-03,
745,0.00e+00,
746,2.40e-03,
747,-8.00e-04,
748,2.40e-03,
749,-8.00e-04,
750,2.40e-03,
751,-8.00e-04,
752,3.20e-03,
753,-8.00e-04,
754,-8.00e-04,
755,2.40e-03,
756,-8.00e-04,
757,2.40e-03,
758,2.40e-03,
759,-8.00e-04,
760,0.00e+00,
761,2.00e-03,
762,-8.00e-04,
763,3.20e-03,
764,2.40e-03,
765,-8.00e-04,
766,2.40e-03,
767,-1.60e-03,
768,2.40e-03,
769,0.00e+00,
770,3.20e-03,
771,0.00e+00,
772,-8.00e-04,
773,2.80e-03,
774,-8.00e-04,
775,2.40e-03,
776,0.00e+00,
777,3.20e-03,
778,0.00e+00,
779,3.20e-03,
780,2.40e-03,
781,8.00e-04,
782,-8.00e-04,
783,3.20e-03,
784,0.00e+00,
785,2.80e-03,
786,0.00e+00,
787,2.80e-03,
788,2.40e-03,
789,-8.00e-04,
790,2.80e-03,
791,0.00e+00,
792,-8.00e-04,
793,3.20e-03,
794,0.00e+00,
795,3.20e-03,
796,2.40e-03,
797,0.00e+00,
798,2.40e-03,
799,0.00e+00,
800,3.20e-03,
801,-8.00e-04,
802,3.20e-03,
803,-8.00e-04,
804,3.20e-03,
805,-8.00e-04,
806,-8.00e-04,
807,2.40e-03,
808,0.00e+00,
809,3.20e-03,
810,0.00e+00,
811,2.40e-03,
812,-8.00e-04,
813,3.20e-03,
814,0.00e+00,
815,2.40e-03,
816,2.40e-03,
817,0.00e+00,
818,-8.00e-04,
819,2.00e-03,
820,-8.00e-04,
821,2.40e-03,
822,2.40e-03,
823,0.00e+00,
824,2.40e-03,
825,0.00e+00,
826,2.40e-03,
827,-8.00e-04,
828,-8.00e-04,
829,3.20e-03,
830,0.00e+00,
831,3.20e-03,
832,-4.00e-04,
833,2.40e-03,
834,2.40e-03,
835,-8.00e-04,
836,2.40e-03,
837,0.00e+00,
838,2.40e-03,
839,-8.00e-04,
840,0.00e+00,
841,2.40e-03,
842,2.40e-03,
843,-8.00e-04,
844,0.00e+00,
845,2.00e-03,
846,0.00e+00,
847,2.80e-03,
848,2.40e-03,
849,-8.00e-04,
850,-4.00e-04,
851,2.00e-03,
852,0.00e+00,
853,3.20e-03,
854,2.80e-03,
855,-8.00e-04,
856,0.00e+00,
857,2.40e-03,
858,2.80e-03,
859,-8.00e-04,
860,-8.00e-04,
861,2.80e-03,
862,1.60e-03,
863,-8.00e-04,
864,-8.00e-04,
865,2.40e-03,
866,2.40e-03,
867,-8.00e-04,
868,-8.00e-04,
869,3.20e-03,
870,2.40e-03,
871,0.00e+00,
872,-8.00e-04,
873,2.40e-03,
874,-8.00e-04,
875,2.40e-03,
876,-8.00e-04,
877,2.40e-03,
878,-8.00e-04,
879,2.40e-03,
880,2.40e-03,
881,-8.00e-04,
882,0.00e+00,
883,2.40e-03,
884,2.40e-03,
885,-8.00e-04,
886,0.00e+00,
887,2.40e-03,
888,-8.00e-04,
889,2.40e-03,
890,0.00e+00,
891,3.20e-03,
892,0.00e+00,
893,2.80e-03,
894,-8.00e-04,
895,2.80e-03,
896,-1.60e-03,
897,2.40e-03,
898,-8.00e-04,
899,2.40e-03,
900,2.40e-03,
901,-8.00e-04,
902,-8.00e-04,
903,2.40e-03,
904,-8.00e-04,
905,2.80e-03,
906,2.40e-03,
907,-8.00e-04,
908,2.40e-03,
909,-8.00e-04,
910,3.20e-03,
911,-8.00e-04,
912,-8.00e-04,
913,2.00e-03,
914,-8.00e-04,
915,2.80e-03,
916,-8.00e-04,
917,2.40e-03,
918,1.60e-03,
919,-1.60e-03,
920,2.40e-03,
921,0.00e+00,
922,-8.00e-04,
923,2.40e-03,
924,2.40e-03,
925,-8.00e-04,
926,-8.00e-04,
927,2.00e-03,
928,-8.00e-04,
929,2.40e-03,
930,2.40e-03,
931,-8.00e-04,
932,2.40e-03,
933,0.00e+00,
934,-8.00e-04,
935,1.60e-03,
936,2.00e-03,
937,-1.60e-03,
938,-8.00e-04,
939,2.40e-03,
940,2.40e-03,
941,-8.00e-04,
942,2.40e-03,
943,-8.00e-04,
944,-8.00e-04,
945,2.40e-03,
946,-8.00e-04,
947,2.40e-03,
948,2.40e-03,
949,-8.00e-04,
950,-8.00e-04,
951,2.00e-03,
952,2.00e-03,
953,-1.60e-03,
954,2.40e-03,
955,-8.00e-04,
956,-8.00e-04,
957,2.40e-03,
958,2.40e-03,
959,-1.60e-03,
960,2.40e-03,
961,-1.60e-03,
962,-8.00e-04,
963,2.40e-03,
964,-1.60e-03,
965,2.40e-03,
966,-8.00e-04,
967,2.00e-03,
968,2.40e-03,
969,-1.60e-03,
970,-1.60e-03,
971,2.40e-03,
972,-8.00e-04,
973,2.00e-03,
974,-8.00e-04,
975,2.40e-03,
976,2.00e-03,
977,-1.60e-03,
978,1.60e-03,
979,-1.60e-03,
980,1.60e-03,
981,-8.00e-04,
982,2.40e-03,
983,-8.00e-04,
984,-8.00e-04,
985,1.60e-03,
986,-1.60e-03,
987,1.60e-03,
988,-8.00e-04,
989,2.40e-03,
990,-8.00e-04,
991,1.60e-03,
992,1.60e-03,
993,-1.60e-03,
994,-8.00e-04,
995,1.60e-03,
996,2.00e-03,
997,-8.00e-04,
998,-8.00e-04,
999,2.00e-03,
1000,1.60e-03,
1001,-1.60e-03,
1002,1.60e-03,
1003,-8.00e-04,
1004,0.00e+00,
1005,2.40e-03,
1006,-8.00e-04,
1007,2.40e-03,
1008,2.40e-03,
1009,-1.60e-03,
1010,2.00e-03,
1011,-1.60e-03,
1012,-1.60e-03,
1013,2.40e-03,
1014,1.60e-03,
1015,-1.60e-03,
1016,-1.60e-03,
1017,2.00e-03,
1018,2.00e-03,
1019,-1.60e-03,
1020,2.40e-03,
1021,-8.00e-04,
1022,2.40e-03,
1023,-8.00e-04,
1024,1.60e-03,
1025,-1.60e-03,
1026,-8.00e-04,
1027,2.40e-03,
1028,-8.00e-04,
1029,2.40e-03,
1030,-8.00e-04,
1031,2.00e-03,
1032,-8.00e-04,
1033,2.00e-03,
1034,-1.60e-03,
1035,2.00e-03,
1036,2.40e-03,
1037,-8.00e-04,
1038,-8.00e-04,
1039,1.60e-03,
1040,-1.60e-03,
1041,2.40e-03,
1042,-8.00e-04,
1043,2.40e-03,
1044,2.40e-03,
1045,-8.00e-04,
1046,2.40e-03,
1047,-8.00e-04,
1048,-8.00e-04,
1049,2.40e-03,
1050,-8.00e-04,
1051,2.40e-03,
1052,2.40e-03,
1053,-8.00e-04,
1054,0.00e+00,
1055,2.40e-03,
1056,-1.60e-03,
1057,2.40e-03,
1058,2.40e-03,
1059,-8.00e-04,
1060,2.40e-03,
1061,-8.00e-04,
1062,-8.00e-04,
1063,2.40e-03,
1064,-8.00e-04,
1065,2.40e-03,
1066,3.20e-03,
1067,-8.00e-04,
1068,0.00e+00,
1069,2.40e-03,
1070,2.40e-03,
1071,-8.00e-04,
1072,-8.00e-04,
1073,2.40e-03,
1074,2.40e-03,
1075,-8.00e-04,
1076,2.40e-03,
1077,-8.00e-04,
1078,2.40e-03,
1079,-8.00e-04,
1080,-8.00e-04,
1081,2.40e-03,
1082,-8.00e-04,
1083,2.40e-03,
1084,1.60e-03,
1085,-8.00e-04,
1086,-8.00e-04,
1087,2.40e-03,
1088,2.40e-03,
1089,-8.00e-04,
1090,2.40e-03,
1091,-8.00e-04,
1092,-8.00e-04,
1093,2.80e-03,
1094,-1.60e-03,
1095,2.80e-03,
1096,2.40e-03,
1097,-1.60e-03,
1098,0.00e+00,
1099,2.40e-03,
1100,0.00e+00,
1101,2.80e-03,
1102,2.40e-03,
1103,-8.00e-04,
1104,2.40e-03,
1105,-8.00e-04,
1106,0.00e+00,
1107,2.40e-03,
1108,2.40e-03,
1109,-8.00e-04,
1110,-8.00e-04,
1111,2.00e-03,
1112,-8.00e-04,
1113,3.20e-03,
1114,-8.00e-04,
1115,2.40e-03,
1116,-8.00e-04,
1117,2.40e-03,
1118,-8.00e-04,
1119,2.40e-03,
1120,1.60e-03,
1121,-8.00e-04,
1122,-8.00e-04,
1123,2.40e-03,
1124,-8.00e-04,
1125,1.60e-03,
1126,2.40e-03,
1127,-8.00e-04,
1128,2.40e-03,
1129,-8.00e-04,
1130,-8.00e-04,
1131,2.40e-03,
1132,-8.00e-04,
1133,2.40e-03,
1134,-8.00e-04,
1135,1.60e-03,
1136,-8.00e-04,
1137,3.20e-03,
1138,3.20e-03,
1139,-8.00e-04,
1140,0.00e+00,
1141,2.40e-03,
1142,2.40e-03,
1143,-8.00e-04,
1144,-8.00e-04,
1145,2.80e-03,
1146,0.00e+00,
1147,2.40e-03,
1148,-8.00e-04,
1149,2.40e-03,
1150,0.00e+00,
1151,2.40e-03,
1152,2.00e-03,
1153,-8.00e-04,
1154,-8.00e-04,
1155,2.40e-03,
1156,2.00e-03,
1157,-1.60e-03,
1158,2.40e-03,
1159,-8.00e-04,
1160,-8.00e-04,
1161,1.60e-03,
1162,2.40e-03,
1163,-1.60e-03,
1164,2.40e-03,
1165,0.00e+00,
1166,0.00e+00,
1167,2.40e-03,
1168,-8.00e-04,
1169,2.00e-03,
1170,2.00e-03,
1171,-8.00e-04,
1172,2.40e-03,
1173,-8.00e-04,
1174,2.80e-03,
1175,-8.00e-04,
1176,-8.00e-04,
1177,2.80e-03,
1178,-8.00e-04,
1179,2.00e-03,
1180,-8.00e-04,
1181,2.80e-03,
1182,2.40e-03,
1183,-8.00e-04,
1184,-8.00e-04,
1185,2.80e-03,
1186,-8.00e-04,
1187,3.20e-03,
1188,-1.60e-03,
1189,2.80e-03,
1190,-1.60e-03,
1191,2.80e-03,
1192,2.40e-03,
1193,-8.00e-04,
1194,-8.00e-04,
1195,2.40e-03,
1196,-8.00e-04,
1197,2.40e-03,
1198,0.00e+00,
1199,2.40e-03,
