fastdiffamp/data-noise-set/6th/NewFile11.csv

X,CH1,Start,Increment,
Sequence,Volt,-1.200000e-02,2.000000e-05
0,-8.00e-04,
1,3.20e-03,
2,0.00e+00,
3,2.40e-03,
4,-8.00e-04,
5,2.80e-03,
6,2.40e-03,
7,-8.00e-04,
8,3.20e-03,
9,-8.00e-04,
10,-8.00e-04,
11,3.20e-03,
12,2.40e-03,
13,-8.00e-04,
14,3.20e-03,
15,-8.00e-04,
16,0.00e+00,
17,3.20e-03,
18,0.00e+00,
19,2.80e-03,
20,-8.00e-04,
21,2.40e-03,
22,-1.60e-03,
23,2.40e-03,
24,-8.00e-04,
25,2.40e-03,
26,-8.00e-04,
27,2.40e-03,
28,3.20e-03,
29,-8.00e-04,
30,0.00e+00,
31,2.40e-03,
32,0.00e+00,
33,3.20e-03,
34,3.20e-03,
35,-8.00e-04,
36,-8.00e-04,
37,2.40e-03,
38,0.00e+00,
39,2.40e-03,
40,-1.60e-03,
41,2.40e-03,
42,0.00e+00,
43,2.40e-03,
44,-8.00e-04,
45,2.40e-03,
46,0.00e+00,
47,2.40e-03,
48,2.40e-03,
49,-8.00e-04,
50,-8.00e-04,
51,2.00e-03,
52,-8.00e-04,
53,2.40e-03,
54,-8.00e-04,
55,2.00e-03,
56,2.80e-03,
57,-8.00e-04,
58,-8.00e-04,
59,2.40e-03,
60,-8.00e-04,
61,2.40e-03,
62,2.40e-03,
63,-8.00e-04,
64,-8.00e-04,
65,3.20e-03,
66,-8.00e-04,
67,2.40e-03,
68,-8.00e-04,
69,2.40e-03,
70,2.80e-03,
71,0.00e+00,
72,-8.00e-04,
73,2.40e-03,
74,-8.00e-04,
75,2.40e-03,
76,-8.00e-04,
77,2.40e-03,
78,1.60e-03,
79,-8.00e-04,
80,-8.00e-04,
81,2.00e-03,
82,0.00e+00,
83,2.40e-03,
84,0.00e+00,
85,1.60e-03,
86,-1.60e-03,
87,1.60e-03,
88,-1.60e-03,
89,2.40e-03,
90,-8.00e-04,
91,2.00e-03,
92,2.40e-03,
93,-8.00e-04,
94,1.60e-03,
95,-8.00e-04,
96,-8.00e-04,
97,2.40e-03,
98,2.40e-03,
99,-1.60e-03,
100,2.00e-03,
101,-8.00e-04,
102,-8.00e-04,
103,1.60e-03,
104,-8.00e-04,
105,2.40e-03,
106,2.40e-03,
107,-8.00e-04,
108,-8.00e-04,
109,2.40e-03,
110,2.40e-03,
111,-8.00e-04,
112,2.40e-03,
113,-8.00e-04,
114,-8.00e-04,
115,3.20e-03,
116,3.20e-03,
117,-8.00e-04,
118,-8.00e-04,
119,2.40e-03,
120,2.40e-03,
121,-8.00e-04,
122,-8.00e-04,
123,2.40e-03,
124,2.00e-03,
125,-8.00e-04,
126,2.40e-03,
127,-1.60e-03,
128,-8.00e-04,
129,1.60e-03,
130,-8.00e-04,
131,2.40e-03,
132,2.40e-03,
133,-8.00e-04,
134,2.40e-03,
135,-8.00e-04,
136,-8.00e-04,
137,3.20e-03,
138,2.40e-03,
139,-1.60e-03,
140,1.60e-03,
141,-1.60e-03,
142,1.60e-03,
143,-8.00e-04,
144,3.20e-03,
145,-8.00e-04,
146,1.60e-03,
147,0.00e+00,
148,2.40e-03,
149,-8.00e-04,
150,2.40e-03,
151,-8.00e-04,
152,-8.00e-04,
153,2.40e-03,
154,2.40e-03,
155,-8.00e-04,
156,2.40e-03,
157,-8.00e-04,
158,-8.00e-04,
159,2.40e-03,
160,2.40e-03,
161,-8.00e-04,
162,0.00e+00,
163,2.40e-03,
164,0.00e+00,
165,2.40e-03,
166,2.40e-03,
167,-8.00e-04,
168,2.40e-03,
169,-8.00e-04,
170,0.00e+00,
171,2.40e-03,
172,2.00e-03,
173,-8.00e-04,
174,-8.00e-04,
175,2.40e-03,
176,-1.60e-03,
177,2.40e-03,
178,-8.00e-04,
179,2.40e-03,
180,2.40e-03,
181,-8.00e-04,
182,-8.00e-04,
183,2.40e-03,
184,2.40e-03,
185,-8.00e-04,
186,2.40e-03,
187,-8.00e-04,
188,0.00e+00,
189,2.40e-03,
190,0.00e+00,
191,2.40e-03,
192,-8.00e-04,
193,1.60e-03,
194,2.40e-03,
195,0.00e+00,
196,2.80e-03,
197,0.00e+00,
198,0.00e+00,
199,2.40e-03,
200,2.40e-03,
201,-8.00e-04,
202,0.00e+00,
203,2.80e-03,
204,2.40e-03,
205,-8.00e-04,
206,2.40e-03,
207,-8.00e-04,
208,2.40e-03,
209,0.00e+00,
210,3.20e-03,
211,-8.00e-04,
212,0.00e+00,
213,3.20e-03,
214,0.00e+00,
215,2.40e-03,
216,0.00e+00,
217,2.40e-03,
218,0.00e+00,
219,2.40e-03,
220,2.00e-03,
221,0.00e+00,
222,2.40e-03,
223,-8.00e-04,
224,2.80e-03,
225,-8.00e-04,
226,2.00e-03,
227,-8.00e-04,
228,-8.00e-04,
229,2.80e-03,
230,2.00e-03,
231,-8.00e-04,
232,2.40e-03,
233,-8.00e-04,
234,0.00e+00,
235,2.40e-03,
236,0.00e+00,
237,2.40e-03,
238,3.20e-03,
239,-8.00e-04,
240,2.40e-03,
241,0.00e+00,
242,0.00e+00,
243,2.40e-03,
244,2.40e-03,
245,-8.00e-04,
246,0.00e+00,
247,2.40e-03,
248,-8.00e-04,
249,3.20e-03,
250,2.40e-03,
251,-8.00e-04,
252,-8.00e-04,
253,3.20e-03,
254,0.00e+00,
255,3.20e-03,
256,2.40e-03,
257,0.00e+00,
258,3.20e-03,
259,-8.00e-04,
260,2.80e-03,
261,0.00e+00,
262,0.00e+00,
263,3.20e-03,
264,0.00e+00,
265,2.80e-03,
266,0.00e+00,
267,2.40e-03,
268,0.00e+00,
269,2.40e-03,
270,0.00e+00,
271,2.40e-03,
272,2.40e-03,
273,-8.00e-04,
274,2.80e-03,
275,-8.00e-04,
276,3.20e-03,
277,0.00e+00,
278,2.40e-03,
279,-8.00e-04,
280,0.00e+00,
281,2.40e-03,
282,0.00e+00,
283,3.20e-03,
284,0.00e+00,
285,2.80e-03,
286,0.00e+00,
287,2.40e-03,
288,3.20e-03,
289,0.00e+00,
290,3.20e-03,
291,0.00e+00,
292,0.00e+00,
293,2.40e-03,
294,2.40e-03,
295,-8.00e-04,
296,2.40e-03,
297,0.00e+00,
298,-8.00e-04,
299,2.40e-03,
300,2.40e-03,
301,0.00e+00,
302,0.00e+00,
303,2.40e-03,
304,0.00e+00,
305,2.40e-03,
306,2.40e-03,
307,0.00e+00,
308,-1.60e-03,
309,3.20e-03,
310,2.40e-03,
311,-8.00e-04,
312,-8.00e-04,
313,2.40e-03,
314,2.40e-03,
315,-8.00e-04,
316,0.00e+00,
317,2.40e-03,
318,2.40e-03,
319,-8.00e-04,
320,0.00e+00,
321,2.40e-03,
322,-8.00e-04,
323,2.40e-03,
324,-8.00e-04,
325,2.40e-03,
326,2.40e-03,
327,-8.00e-04,
328,0.00e+00,
329,2.40e-03,
330,2.40e-03,
331,0.00e+00,
332,1.60e-03,
333,-8.00e-04,
334,3.20e-03,
335,-8.00e-04,
336,-8.00e-04,
337,2.40e-03,
338,0.00e+00,
339,2.80e-03,
340,2.40e-03,
341,-8.00e-04,
342,0.00e+00,
343,2.40e-03,
344,3.20e-03,
345,-8.00e-04,
346,0.00e+00,
347,2.40e-03,
348,3.20e-03,
349,0.00e+00,
350,3.20e-03,
351,-8.00e-04,
352,2.40e-03,
353,-8.00e-04,
354,0.00e+00,
355,2.40e-03,
356,2.40e-03,
357,-8.00e-04,
358,-8.00e-04,
359,3.20e-03,
360,2.80e-03,
361,0.00e+00,
362,2.40e-03,
363,-8.00e-04,
364,2.40e-03,
365,0.00e+00,
366,2.40e-03,
367,0.00e+00,
368,3.20e-03,
369,0.00e+00,
370,3.20e-03,
371,0.00e+00,
372,3.20e-03,
373,0.00e+00,
374,3.20e-03,
375,-8.00e-04,
376,2.40e-03,
377,0.00e+00,
378,0.00e+00,
379,3.20e-03,
380,3.20e-03,
381,0.00e+00,
382,-8.00e-04,
383,2.80e-03,
384,0.00e+00,
385,2.40e-03,
386,8.00e-04,
387,3.20e-03,
388,2.40e-03,
389,0.00e+00,
390,0.00e+00,
391,3.20e-03,
392,0.00e+00,
393,3.20e-03,
394,2.40e-03,
395,-8.00e-04,
396,2.40e-03,
397,-8.00e-04,
398,-4.00e-04,
399,3.20e-03,
400,2.40e-03,
401,-8.00e-04,
402,-8.00e-04,
403,2.40e-03,
404,2.40e-03,
405,-8.00e-04,
406,2.40e-03,
407,-8.00e-04,
408,2.40e-03,
409,0.00e+00,
410,0.00e+00,
411,4.00e-03,
412,2.40e-03,
413,0.00e+00,
414,0.00e+00,
415,2.40e-03,
416,0.00e+00,
417,2.40e-03,
418,0.00e+00,
419,3.20e-03,
420,0.00e+00,
421,2.40e-03,
422,2.40e-03,
423,0.00e+00,
424,2.80e-03,
425,-8.00e-04,
426,0.00e+00,
427,2.40e-03,
428,3.20e-03,
429,0.00e+00,
430,0.00e+00,
431,2.40e-03,
432,0.00e+00,
433,2.40e-03,
434,2.40e-03,
435,-8.00e-04,
436,2.40e-03,
437,0.00e+00,
438,0.00e+00,
439,2.40e-03,
440,0.00e+00,
441,2.40e-03,
442,-8.00e-04,
443,2.80e-03,
444,2.40e-03,
445,-8.00e-04,
446,2.40e-03,
447,0.00e+00,
448,2.40e-03,
449,-8.00e-04,
450,2.40e-03,
451,0.00e+00,
452,-8.00e-04,
453,3.20e-03,
454,2.40e-03,
455,0.00e+00,
456,0.00e+00,
457,2.40e-03,
458,-8.00e-04,
459,3.20e-03,
460,2.40e-03,
461,0.00e+00,
462,0.00e+00,
463,3.20e-03,
464,2.40e-03,
465,0.00e+00,
466,0.00e+00,
467,2.40e-03,
468,0.00e+00,
469,2.80e-03,
470,0.00e+00,
471,3.20e-03,
472,2.80e-03,
473,-8.00e-04,
474,0.00e+00,
475,3.20e-03,
476,2.40e-03,
477,-8.00e-04,
478,2.40e-03,
479,0.00e+00,
480,-8.00e-04,
481,3.20e-03,
482,2.40e-03,
483,0.00e+00,
484,-8.00e-04,
485,3.20e-03,
486,2.40e-03,
487,-8.00e-04,
488,-8.00e-04,
489,2.80e-03,
490,2.40e-03,
491,-8.00e-04,
492,0.00e+00,
493,3.20e-03,
494,3.20e-03,
495,0.00e+00,
496,0.00e+00,
497,3.20e-03,
498,2.40e-03,
499,-8.00e-04,
500,2.40e-03,
501,-8.00e-04,
502,2.40e-03,
503,0.00e+00,
504,2.40e-03,
505,-8.00e-04,
506,-8.00e-04,
507,3.20e-03,
508,-8.00e-04,
509,2.80e-03,
510,0.00e+00,
511,3.20e-03,
512,3.20e-03,
513,0.00e+00,
514,2.40e-03,
515,-8.00e-04,
516,-8.00e-04,
517,2.40e-03,
518,3.20e-03,
519,-8.00e-04,
520,2.80e-03,
521,-8.00e-04,
522,3.20e-03,
523,-8.00e-04,
524,0.00e+00,
525,2.40e-03,
526,2.40e-03,
527,0.00e+00,
528,2.40e-03,
529,0.00e+00,
530,0.00e+00,
531,3.20e-03,
532,2.40e-03,
533,-8.00e-04,
534,3.20e-03,
535,-8.00e-04,
536,3.20e-03,
537,0.00e+00,
538,-8.00e-04,
539,2.40e-03,
540,0.00e+00,
541,2.40e-03,
542,0.00e+00,
543,2.40e-03,
544,2.40e-03,
545,0.00e+00,
546,0.00e+00,
547,3.20e-03,
548,0.00e+00,
549,2.40e-03,
550,0.00e+00,
551,3.60e-03,
552,0.00e+00,
553,2.40e-03,
554,2.40e-03,
555,0.00e+00,
556,3.20e-03,
557,0.00e+00,
558,0.00e+00,
559,3.20e-03,
560,0.00e+00,
561,3.20e-03,
562,3.20e-03,
563,0.00e+00,
564,2.40e-03,
565,0.00e+00,
566,8.00e-04,
567,2.80e-03,
568,0.00e+00,
569,4.00e-03,
570,2.40e-03,
571,0.00e+00,
572,-8.00e-04,
573,3.20e-03,
574,2.40e-03,
575,0.00e+00,
576,3.20e-03,
577,-8.00e-04,
578,1.60e-03,
579,-8.00e-04,
580,2.40e-03,
581,0.00e+00,
582,2.40e-03,
583,0.00e+00,
584,2.40e-03,
585,0.00e+00,
586,0.00e+00,
587,2.40e-03,
588,3.20e-03,
589,0.00e+00,
590,0.00e+00,
591,2.80e-03,
592,2.80e-03,
593,0.00e+00,
594,0.00e+00,
595,3.20e-03,
596,8.00e-04,
597,3.20e-03,
598,2.40e-03,
599,-8.00e-04,
600,0.00e+00,
601,3.20e-03,
602,3.20e-03,
603,-8.00e-04,
604,-8.00e-04,
605,3.20e-03,
606,-8.00e-04,
607,3.20e-03,
608,2.80e-03,
609,0.00e+00,
610,0.00e+00,
611,2.40e-03,
612,-4.00e-04,
613,3.20e-03,
614,0.00e+00,
615,3.20e-03,
616,0.00e+00,
617,3.20e-03,
618,3.20e-03,
619,0.00e+00,
620,0.00e+00,
621,2.40e-03,
622,2.80e-03,
623,0.00e+00,
624,0.00e+00,
625,4.00e-03,
626,-8.00e-04,
627,2.40e-03,
628,-8.00e-04,
629,2.80e-03,
630,3.20e-03,
631,0.00e+00,
632,2.80e-03,
633,-8.00e-04,
634,2.40e-03,
635,-8.00e-04,
636,2.80e-03,
637,0.00e+00,
638,3.20e-03,
639,-8.00e-04,
640,0.00e+00,
641,2.40e-03,
642,0.00e+00,
643,2.80e-03,
644,0.00e+00,
645,2.40e-03,
646,0.00e+00,
647,3.20e-03,
648,2.40e-03,
649,0.00e+00,
650,2.40e-03,
651,0.00e+00,
652,-8.00e-04,
653,3.20e-03,
654,2.40e-03,
655,-8.00e-04,
656,-8.00e-04,
657,2.40e-03,
658,3.20e-03,
659,0.00e+00,
660,-8.00e-04,
661,3.20e-03,
662,2.80e-03,
663,0.00e+00,
664,2.40e-03,
665,-8.00e-04,
666,2.40e-03,
667,-8.00e-04,
668,2.40e-03,
669,-8.00e-04,
670,2.40e-03,
671,-8.00e-04,
672,-8.00e-04,
673,2.80e-03,
674,2.40e-03,
675,0.00e+00,
676,0.00e+00,
677,2.40e-03,
678,2.40e-03,
679,-8.00e-04,
680,2.40e-03,
681,0.00e+00,
682,0.00e+00,
683,2.40e-03,
684,0.00e+00,
685,2.40e-03,
686,0.00e+00,
687,3.20e-03,
688,2.40e-03,
689,0.00e+00,
690,2.40e-03,
691,-8.00e-04,
692,0.00e+00,
693,2.40e-03,
694,-8.00e-04,
695,3.20e-03,
696,0.00e+00,
697,3.20e-03,
698,2.40e-03,
699,-8.00e-04,
700,0.00e+00,
701,2.00e-03,
702,0.00e+00,
703,2.40e-03,
704,-8.00e-04,
705,3.20e-03,
706,2.40e-03,
707,-8.00e-04,
708,2.40e-03,
709,0.00e+00,
710,0.00e+00,
711,2.40e-03,
712,0.00e+00,
713,2.40e-03,
714,3.20e-03,
715,-8.00e-04,
716,0.00e+00,
717,3.20e-03,
718,0.00e+00,
719,3.20e-03,
720,3.20e-03,
721,0.00e+00,
722,0.00e+00,
723,3.20e-03,
724,0.00e+00,
725,3.60e-03,
726,2.40e-03,
727,0.00e+00,
728,3.20e-03,
729,0.00e+00,
730,3.20e-03,
731,0.00e+00,
732,0.00e+00,
733,3.20e-03,
734,3.20e-03,
735,0.00e+00,
736,0.00e+00,
737,3.20e-03,
738,-8.00e-04,
739,3.20e-03,
740,-8.00e-04,
741,3.20e-03,
742,0.00e+00,
743,3.20e-03,
744,2.80e-03,
745,-8.00e-04,
746,1.60e-03,
747,-8.00e-04,
748,-8.00e-04,
749,2.40e-03,
750,2.40e-03,
751,-8.00e-04,
752,-8.00e-04,
753,2.80e-03,
754,2.40e-03,
755,-8.00e-04,
756,2.40e-03,
757,0.00e+00,
758,3.20e-03,
759,0.00e+00,
760,2.40e-03,
761,-8.00e-04,
762,0.00e+00,
763,2.40e-03,
764,-8.00e-04,
765,3.20e-03,
766,0.00e+00,
767,2.40e-03,
768,2.40e-03,
769,-8.00e-04,
770,2.40e-03,
771,-8.00e-04,
772,-8.00e-04,
773,2.40e-03,
774,-8.00e-04,
775,2.40e-03,
776,-8.00e-04,
777,3.20e-03,
778,-8.00e-04,
779,3.20e-03,
780,0.00e+00,
781,2.40e-03,
782,0.00e+00,
783,2.40e-03,
784,8.00e-04,
785,2.40e-03,
786,0.00e+00,
787,3.20e-03,
788,2.40e-03,
789,-8.00e-04,
790,-1.60e-03,
791,2.40e-03,
792,2.40e-03,
793,0.00e+00,
794,2.40e-03,
795,0.00e+00,
796,3.20e-03,
797,-8.00e-04,
798,-8.00e-04,
799,2.40e-03,
800,3.20e-03,
801,-8.00e-04,
802,0.00e+00,
803,2.40e-03,
804,-8.00e-04,
805,3.20e-03,
806,0.00e+00,
807,2.40e-03,
808,-8.00e-04,
809,2.40e-03,
810,-8.00e-04,
811,2.40e-03,
812,-1.60e-03,
813,3.20e-03,
814,3.20e-03,
815,0.00e+00,
816,0.00e+00,
817,2.00e-03,
818,2.40e-03,
819,-8.00e-04,
820,-8.00e-04,
821,2.40e-03,
822,2.40e-03,
823,0.00e+00,
824,3.20e-03,
825,-8.00e-04,
826,0.00e+00,
827,2.40e-03,
828,2.40e-03,
829,-8.00e-04,
830,2.40e-03,
831,-8.00e-04,
832,0.00e+00,
833,2.40e-03,
834,2.40e-03,
835,-8.00e-04,
836,0.00e+00,
837,2.40e-03,
838,2.80e-03,
839,-8.00e-04,
840,0.00e+00,
841,2.40e-03,
842,-8.00e-04,
843,2.40e-03,
844,8.00e-04,
845,3.20e-03,
846,0.00e+00,
847,2.40e-03,
848,-4.00e-04,
849,2.40e-03,
850,3.20e-03,
851,-8.00e-04,
852,0.00e+00,
853,2.40e-03,
854,2.40e-03,
855,-8.00e-04,
856,-8.00e-04,
857,2.80e-03,
858,0.00e+00,
859,2.80e-03,
860,-8.00e-04,
861,2.40e-03,
862,0.00e+00,
863,3.20e-03,
864,0.00e+00,
865,2.40e-03,
866,2.40e-03,
867,-8.00e-04,
868,-8.00e-04,
869,3.20e-03,
870,0.00e+00,
871,2.40e-03,
872,0.00e+00,
873,2.40e-03,
874,-8.00e-04,
875,2.40e-03,
876,0.00e+00,
877,2.40e-03,
878,2.40e-03,
879,-8.00e-04,
880,2.40e-03,
881,0.00e+00,
882,8.00e-04,
883,2.40e-03,
884,0.00e+00,
885,3.20e-03,
886,2.40e-03,
887,0.00e+00,
888,8.00e-04,
889,2.40e-03,
890,3.20e-03,
891,0.00e+00,
892,-8.00e-04,
893,3.20e-03,
894,0.00e+00,
895,2.40e-03,
896,0.00e+00,
897,2.40e-03,
898,3.20e-03,
899,-8.00e-04,
900,0.00e+00,
901,2.40e-03,
902,0.00e+00,
903,2.40e-03,
904,0.00e+00,
905,2.40e-03,
906,1.60e-03,
907,-8.00e-04,
908,2.40e-03,
909,0.00e+00,
910,0.00e+00,
911,2.40e-03,
912,-8.00e-04,
913,2.40e-03,
914,0.00e+00,
915,2.40e-03,
916,-8.00e-04,
917,2.40e-03,
918,3.20e-03,
919,0.00e+00,
920,-8.00e-04,
921,2.40e-03,
922,2.40e-03,
923,-8.00e-04,
924,2.40e-03,
925,-8.00e-04,
926,-8.00e-04,
927,1.60e-03,
928,-8.00e-04,
929,1.60e-03,
930,-1.60e-03,
931,3.20e-03,
932,-8.00e-04,
933,2.40e-03,
934,0.00e+00,
935,2.40e-03,
936,-8.00e-04,
937,3.20e-03,
938,2.40e-03,
939,-8.00e-04,
940,2.40e-03,
941,-8.00e-04,
942,0.00e+00,
943,2.40e-03,
944,0.00e+00,
945,2.40e-03,
946,0.00e+00,
947,2.40e-03,
948,2.40e-03,
949,-1.60e-03,
950,2.40e-03,
951,-8.00e-04,
952,-8.00e-04,
953,2.40e-03,
954,0.00e+00,
955,3.20e-03,
956,2.40e-03,
957,-8.00e-04,
958,0.00e+00,
959,2.40e-03,
960,0.00e+00,
961,2.40e-03,
962,2.40e-03,
963,-8.00e-04,
964,2.00e-03,
965,-8.00e-04,
966,-8.00e-04,
967,2.40e-03,
968,-8.00e-04,
969,2.40e-03,
970,0.00e+00,
971,2.40e-03,
972,3.20e-03,
973,0.00e+00,
974,2.40e-03,
975,-1.60e-03,
976,2.80e-03,
977,-1.60e-03,
978,-8.00e-04,
979,2.00e-03,
980,-1.60e-03,
981,2.80e-03,
982,2.40e-03,
983,-8.00e-04,
984,0.00e+00,
985,3.20e-03,
986,-8.00e-04,
987,3.20e-03,
988,2.40e-03,
989,-8.00e-04,
990,2.40e-03,
991,-8.00e-04,
992,2.40e-03,
993,-8.00e-04,
994,0.00e+00,
995,3.20e-03,
996,-8.00e-04,
997,2.40e-03,
998,2.80e-03,
999,0.00e+00,
1000,0.00e+00,
1001,2.80e-03,
1002,2.40e-03,
1003,0.00e+00,
1004,2.00e-03,
1005,-8.00e-04,
1006,0.00e+00,
1007,3.20e-03,
1008,2.40e-03,
1009,0.00e+00,
1010,2.40e-03,
1011,0.00e+00,
1012,2.40e-03,
1013,-8.00e-04,
1014,-8.00e-04,
1015,2.40e-03,
1016,2.40e-03,
1017,-8.00e-04,
1018,2.40e-03,
1019,-8.00e-04,
1020,2.40e-03,
1021,-1.60e-03,
1022,-8.00e-04,
1023,2.40e-03,
1024,1.60e-03,
1025,-8.00e-04,
1026,-8.00e-04,
1027,2.40e-03,
1028,1.60e-03,
1029,-8.00e-04,
1030,2.40e-03,
1031,-8.00e-04,
1032,2.40e-03,
1033,-8.00e-04,
1034,-1.60e-03,
1035,2.00e-03,
1036,2.40e-03,
1037,-1.60e-03,
1038,2.40e-03,
1039,-8.00e-04,
1040,-8.00e-04,
1041,2.00e-03,
1042,1.60e-03,
1043,-1.60e-03,
1044,-1.60e-03,
1045,2.80e-03,
1046,0.00e+00,
1047,1.60e-03,
1048,2.00e-03,
1049,-8.00e-04,
1050,-8.00e-04,
1051,1.60e-03,
1052,1.60e-03,
1053,-8.00e-04,
1054,2.40e-03,
1055,-8.00e-04,
1056,2.00e-03,
1057,-8.00e-04,
1058,2.40e-03,
1059,-1.60e-03,
1060,2.40e-03,
1061,-1.60e-03,
1062,2.40e-03,
1063,-1.60e-03,
1064,0.00e+00,
1065,3.20e-03,
1066,2.40e-03,
1067,-8.00e-04,
1068,2.40e-03,
1069,-8.00e-04,
1070,2.40e-03,
1071,-1.60e-03,
1072,2.40e-03,
1073,-8.00e-04,
1074,-8.00e-04,
1075,2.40e-03,
1076,-8.00e-04,
1077,1.60e-03,
1078,-8.00e-04,
1079,2.40e-03,
1080,1.60e-03,
1081,0.00e+00,
1082,-8.00e-04,
1083,2.40e-03,
1084,2.40e-03,
1085,0.00e+00,
1086,-8.00e-04,
1087,2.80e-03,
1088,2.40e-03,
1089,-4.00e-04,
1090,-8.00e-04,
1091,3.20e-03,
1092,1.60e-03,
1093,-8.00e-04,
1094,3.20e-03,
1095,-8.00e-04,
1096,0.00e+00,
1097,2.40e-03,
1098,-8.00e-04,
1099,1.60e-03,
1100,2.40e-03,
1101,-8.00e-04,
1102,2.80e-03,
1103,-8.00e-04,
1104,1.60e-03,
1105,-8.00e-04,
1106,-8.00e-04,
1107,1.60e-03,
1108,-8.00e-04,
1109,2.40e-03,
1110,1.60e-03,
1111,-8.00e-04,
1112,-8.00e-04,
1113,2.40e-03,
1114,-8.00e-04,
1115,2.40e-03,
1116,-8.00e-04,
1117,1.60e-03,
1118,-1.60e-03,
1119,2.40e-03,
1120,2.40e-03,
1121,-8.00e-04,
1122,2.40e-03,
1123,-1.20e-03,
1124,-8.00e-04,
1125,2.00e-03,
1126,-1.60e-03,
1127,2.00e-03,
1128,2.40e-03,
1129,-8.00e-04,
1130,2.00e-03,
1131,-8.00e-04,
1132,-1.60e-03,
1133,2.40e-03,
1134,2.40e-03,
1135,-8.00e-04,
1136,-8.00e-04,
1137,2.80e-03,
1138,0.00e+00,
1139,2.40e-03,
1140,-8.00e-04,
1141,2.00e-03,
1142,-8.00e-04,
1143,2.00e-03,
1144,0.00e+00,
1145,3.20e-03,
1146,-8.00e-04,
1147,3.20e-03,
1148,-8.00e-04,
1149,2.40e-03,
1150,2.40e-03,
1151,-8.00e-04,
1152,2.40e-03,
1153,-8.00e-04,
1154,2.40e-03,
1155,0.00e+00,
1156,-8.00e-04,
1157,2.40e-03,
1158,-8.00e-04,
1159,2.40e-03,
1160,2.00e-03,
1161,-8.00e-04,
1162,-1.60e-03,
1163,2.40e-03,
1164,-8.00e-04,
1165,2.40e-03,
1166,-8.00e-04,
1167,2.40e-03,
1168,0.00e+00,
1169,2.00e-03,
1170,-8.00e-04,
1171,2.40e-03,
1172,2.40e-03,
1173,-8.00e-04,
1174,-8.00e-04,
1175,2.40e-03,
1176,-1.60e-03,
1177,1.60e-03,
1178,1.60e-03,
1179,-8.00e-04,
1180,0.00e+00,
1181,3.20e-03,
1182,-8.00e-04,
1183,1.60e-03,
1184,2.40e-03,
1185,-8.00e-04,
1186,-8.00e-04,
1187,2.40e-03,
1188,-8.00e-04,
1189,2.40e-03,
1190,-8.00e-04,
1191,2.40e-03,
1192,2.40e-03,
1193,-8.00e-04,
1194,-8.00e-04,
1195,2.40e-03,
1196,3.20e-03,
1197,-8.00e-04,
1198,1.60e-03,
1199,-8.00e-04,
