fastdiffamp/data-noise-set/6th/NewFile9.csv

X,CH1,Start,Increment,
Sequence,Volt,-1.200000e-02,2.000000e-05
0,3.20e-03,
1,-8.00e-04,
2,0.00e+00,
3,2.40e-03,
4,3.20e-03,
5,-8.00e-04,
6,0.00e+00,
7,2.80e-03,
8,8.00e-04,
9,2.80e-03,
10,0.00e+00,
11,2.40e-03,
12,2.80e-03,
13,-8.00e-04,
14,2.40e-03,
15,0.00e+00,
16,0.00e+00,
17,2.40e-03,
18,0.00e+00,
19,3.20e-03,
20,3.20e-03,
21,-8.00e-04,
22,0.00e+00,
23,3.20e-03,
24,0.00e+00,
25,3.20e-03,
26,0.00e+00,
27,3.20e-03,
28,0.00e+00,
29,3.20e-03,
30,3.20e-03,
31,0.00e+00,
32,0.00e+00,
33,3.20e-03,
34,0.00e+00,
35,2.40e-03,
36,2.40e-03,
37,-8.00e-04,
38,2.40e-03,
39,-8.00e-04,
40,3.20e-03,
41,-8.00e-04,
42,-8.00e-04,
43,3.20e-03,
44,3.60e-03,
45,0.00e+00,
46,0.00e+00,
47,3.20e-03,
48,2.40e-03,
49,0.00e+00,
50,2.40e-03,
51,0.00e+00,
52,8.00e-04,
53,3.20e-03,
54,3.20e-03,
55,-8.00e-04,
56,8.00e-04,
57,3.20e-03,
58,0.00e+00,
59,3.20e-03,
60,2.40e-03,
61,0.00e+00,
62,-8.00e-04,
63,4.00e-03,
64,-8.00e-04,
65,3.20e-03,
66,3.20e-03,
67,-8.00e-04,
68,3.20e-03,
69,-8.00e-04,
70,0.00e+00,
71,3.20e-03,
72,8.00e-04,
73,2.40e-03,
74,3.20e-03,
75,0.00e+00,
76,2.40e-03,
77,0.00e+00,
78,-8.00e-04,
79,3.20e-03,
80,2.40e-03,
81,-8.00e-04,
82,2.40e-03,
83,0.00e+00,
84,2.40e-03,
85,0.00e+00,
86,0.00e+00,
87,3.20e-03,
88,-8.00e-04,
89,3.20e-03,
90,3.20e-03,
91,-8.00e-04,
92,0.00e+00,
93,3.20e-03,
94,2.40e-03,
95,0.00e+00,
96,-8.00e-04,
97,2.40e-03,
98,2.40e-03,
99,-8.00e-04,
100,0.00e+00,
101,2.80e-03,
102,0.00e+00,
103,2.40e-03,
104,0.00e+00,
105,3.20e-03,
106,2.40e-03,
107,0.00e+00,
108,-8.00e-04,
109,2.80e-03,
110,0.00e+00,
111,2.40e-03,
112,0.00e+00,
113,3.20e-03,
114,0.00e+00,
115,3.20e-03,
116,2.40e-03,
117,-1.60e-03,
118,2.40e-03,
119,-8.00e-04,
120,2.40e-03,
121,-8.00e-04,
122,0.00e+00,
123,2.40e-03,
124,0.00e+00,
125,2.40e-03,
126,-8.00e-04,
127,2.40e-03,
128,0.00e+00,
129,3.20e-03,
130,-8.00e-04,
131,3.20e-03,
132,3.20e-03,
133,0.00e+00,
134,3.20e-03,
135,-8.00e-04,
136,3.60e-03,
137,0.00e+00,
138,2.80e-03,
139,-8.00e-04,
140,-8.00e-04,
141,2.40e-03,
142,0.00e+00,
143,2.40e-03,
144,2.40e-03,
145,0.00e+00,
146,3.20e-03,
147,-8.00e-04,
148,2.40e-03,
149,-8.00e-04,
150,2.40e-03,
151,-8.00e-04,
152,-8.00e-04,
153,3.20e-03,
154,0.00e+00,
155,2.40e-03,
156,0.00e+00,
157,3.20e-03,
158,0.00e+00,
159,3.20e-03,
160,8.00e-04,
161,2.40e-03,
162,2.40e-03,
163,0.00e+00,
164,2.40e-03,
165,0.00e+00,
166,0.00e+00,
167,3.20e-03,
168,2.40e-03,
169,0.00e+00,
170,2.40e-03,
171,-1.60e-03,
172,2.80e-03,
173,0.00e+00,
174,2.40e-03,
175,0.00e+00,
176,0.00e+00,
177,2.40e-03,
178,3.20e-03,
179,0.00e+00,
180,0.00e+00,
181,3.20e-03,
182,2.80e-03,
183,-8.00e-04,
184,0.00e+00,
185,2.40e-03,
186,-8.00e-04,
187,3.60e-03,
188,2.40e-03,
189,0.00e+00,
190,2.40e-03,
191,-8.00e-04,
192,0.00e+00,
193,3.20e-03,
194,0.00e+00,
195,2.40e-03,
196,3.20e-03,
197,-8.00e-04,
198,2.40e-03,
199,-8.00e-04,
200,0.00e+00,
201,2.40e-03,
202,3.20e-03,
203,0.00e+00,
204,3.20e-03,
205,0.00e+00,
206,2.40e-03,
207,-4.00e-04,
208,3.20e-03,
209,0.00e+00,
210,0.00e+00,
211,2.40e-03,
212,3.20e-03,
213,-8.00e-04,
214,0.00e+00,
215,3.20e-03,
216,2.40e-03,
217,0.00e+00,
218,0.00e+00,
219,2.80e-03,
220,2.40e-03,
221,-8.00e-04,
222,3.20e-03,
223,-8.00e-04,
224,2.40e-03,
225,-8.00e-04,
226,0.00e+00,
227,2.40e-03,
228,3.20e-03,
229,-8.00e-04,
230,0.00e+00,
231,3.20e-03,
232,3.20e-03,
233,0.00e+00,
234,0.00e+00,
235,2.40e-03,
236,2.40e-03,
237,0.00e+00,
238,2.40e-03,
239,0.00e+00,
240,3.20e-03,
241,0.00e+00,
242,8.00e-04,
243,3.20e-03,
244,0.00e+00,
245,3.20e-03,
246,2.40e-03,
247,0.00e+00,
248,0.00e+00,
249,2.40e-03,
250,0.00e+00,
251,3.20e-03,
252,0.00e+00,
253,3.20e-03,
254,0.00e+00,
255,3.20e-03,
256,2.40e-03,
257,0.00e+00,
258,0.00e+00,
259,3.20e-03,
260,0.00e+00,
261,3.20e-03,
262,3.20e-03,
263,0.00e+00,
264,8.00e-04,
265,3.20e-03,
266,0.00e+00,
267,2.40e-03,
268,0.00e+00,
269,3.20e-03,
270,2.40e-03,
271,-8.00e-04,
272,3.20e-03,
273,-8.00e-04,
274,0.00e+00,
275,3.20e-03,
276,8.00e-04,
277,3.20e-03,
278,3.20e-03,
279,8.00e-04,
280,3.20e-03,
281,0.00e+00,
282,3.20e-03,
283,0.00e+00,
284,0.00e+00,
285,3.20e-03,
286,8.00e-04,
287,3.20e-03,
288,3.20e-03,
289,0.00e+00,
290,0.00e+00,
291,3.20e-03,
292,3.20e-03,
293,0.00e+00,
294,8.00e-04,
295,2.80e-03,
296,3.20e-03,
297,0.00e+00,
298,8.00e-04,
299,3.60e-03,
300,0.00e+00,
301,3.20e-03,
302,3.20e-03,
303,0.00e+00,
304,3.20e-03,
305,-8.00e-04,
306,3.20e-03,
307,0.00e+00,
308,3.20e-03,
309,0.00e+00,
310,0.00e+00,
311,3.20e-03,
312,3.20e-03,
313,8.00e-04,
314,0.00e+00,
315,3.20e-03,
316,2.80e-03,
317,0.00e+00,
318,0.00e+00,
319,3.20e-03,
320,3.20e-03,
321,0.00e+00,
322,3.20e-03,
323,0.00e+00,
324,3.20e-03,
325,0.00e+00,
326,3.20e-03,
327,0.00e+00,
328,0.00e+00,
329,3.20e-03,
330,-4.00e-04,
331,3.20e-03,
332,0.00e+00,
333,4.00e-03,
334,0.00e+00,
335,3.20e-03,
336,2.40e-03,
337,-8.00e-04,
338,3.20e-03,
339,0.00e+00,
340,3.20e-03,
341,0.00e+00,
342,2.40e-03,
343,0.00e+00,
344,8.00e-04,
345,3.20e-03,
346,-8.00e-04,
347,2.40e-03,
348,4.00e-03,
349,0.00e+00,
350,0.00e+00,
351,2.40e-03,
352,0.00e+00,
353,2.80e-03,
354,-8.00e-04,
355,2.80e-03,
356,2.80e-03,
357,-8.00e-04,
358,2.40e-03,
359,-8.00e-04,
360,3.20e-03,
361,-8.00e-04,
362,0.00e+00,
363,2.40e-03,
364,2.80e-03,
365,-8.00e-04,
366,2.40e-03,
367,0.00e+00,
368,-8.00e-04,
369,2.00e-03,
370,2.40e-03,
371,-8.00e-04,
372,-8.00e-04,
373,3.20e-03,
374,-8.00e-04,
375,2.00e-03,
376,0.00e+00,
377,1.60e-03,
378,-8.00e-04,
379,2.40e-03,
380,-8.00e-04,
381,2.80e-03,
382,0.00e+00,
383,2.40e-03,
384,2.40e-03,
385,-8.00e-04,
386,0.00e+00,
387,3.20e-03,
388,0.00e+00,
389,2.40e-03,
390,0.00e+00,
391,2.40e-03,
392,3.20e-03,
393,-8.00e-04,
394,3.20e-03,
395,-8.00e-04,
396,3.20e-03,
397,-8.00e-04,
398,3.20e-03,
399,0.00e+00,
400,3.20e-03,
401,0.00e+00,
402,2.80e-03,
403,-8.00e-04,
404,0.00e+00,
405,2.40e-03,
406,0.00e+00,
407,3.20e-03,
408,3.20e-03,
409,-8.00e-04,
410,2.40e-03,
411,0.00e+00,
412,0.00e+00,
413,3.20e-03,
414,3.20e-03,
415,0.00e+00,
416,0.00e+00,
417,3.20e-03,
418,-4.00e-04,
419,3.20e-03,
420,0.00e+00,
421,3.60e-03,
422,0.00e+00,
423,3.20e-03,
424,2.40e-03,
425,0.00e+00,
426,0.00e+00,
427,3.20e-03,
428,2.80e-03,
429,-8.00e-04,
430,0.00e+00,
431,3.20e-03,
432,2.80e-03,
433,0.00e+00,
434,2.40e-03,
435,0.00e+00,
436,8.00e-04,
437,3.20e-03,
438,3.20e-03,
439,0.00e+00,
440,0.00e+00,
441,3.20e-03,
442,2.40e-03,
443,-8.00e-04,
444,2.40e-03,
445,0.00e+00,
446,2.40e-03,
447,0.00e+00,
448,8.00e-04,
449,3.20e-03,
450,2.40e-03,
451,0.00e+00,
452,0.00e+00,
453,2.40e-03,
454,0.00e+00,
455,3.20e-03,
456,0.00e+00,
457,2.80e-03,
458,3.20e-03,
459,-8.00e-04,
460,2.40e-03,
461,0.00e+00,
462,0.00e+00,
463,2.80e-03,
464,2.40e-03,
465,0.00e+00,
466,3.20e-03,
467,0.00e+00,
468,0.00e+00,
469,2.00e-03,
470,-8.00e-04,
471,2.80e-03,
472,0.00e+00,
473,3.20e-03,
474,2.40e-03,
475,0.00e+00,
476,-8.00e-04,
477,3.20e-03,
478,2.40e-03,
479,-8.00e-04,
480,2.40e-03,
481,0.00e+00,
482,-8.00e-04,
483,2.80e-03,
484,0.00e+00,
485,2.40e-03,
486,2.40e-03,
487,-8.00e-04,
488,2.40e-03,
489,-8.00e-04,
490,-8.00e-04,
491,3.20e-03,
492,2.40e-03,
493,-8.00e-04,
494,2.40e-03,
495,0.00e+00,
496,0.00e+00,
497,2.40e-03,
498,2.40e-03,
499,-8.00e-04,
500,-8.00e-04,
501,2.40e-03,
502,-8.00e-04,
503,2.40e-03,
504,2.40e-03,
505,-8.00e-04,
506,2.40e-03,
507,0.00e+00,
508,2.40e-03,
509,-8.00e-04,
510,2.40e-03,
511,0.00e+00,
512,3.20e-03,
513,-4.00e-04,
514,-1.60e-03,
515,2.40e-03,
516,2.40e-03,
517,-8.00e-04,
518,0.00e+00,
519,3.20e-03,
520,0.00e+00,
521,2.40e-03,
522,-1.60e-03,
523,2.40e-03,
524,0.00e+00,
525,2.40e-03,
526,0.00e+00,
527,3.20e-03,
528,3.20e-03,
529,0.00e+00,
530,2.40e-03,
531,-8.00e-04,
532,0.00e+00,
533,3.20e-03,
534,3.20e-03,
535,-8.00e-04,
536,0.00e+00,
537,2.80e-03,
538,0.00e+00,
539,3.20e-03,
540,0.00e+00,
541,3.20e-03,
542,0.00e+00,
543,2.40e-03,
544,2.40e-03,
545,-1.60e-03,
546,0.00e+00,
547,3.20e-03,
548,-8.00e-04,
549,3.20e-03,
550,-8.00e-04,
551,3.20e-03,
552,3.20e-03,
553,-8.00e-04,
554,0.00e+00,
555,3.20e-03,
556,3.20e-03,
557,0.00e+00,
558,-8.00e-04,
559,2.40e-03,
560,3.20e-03,
561,0.00e+00,
562,0.00e+00,
563,2.40e-03,
564,3.20e-03,
565,-8.00e-04,
566,3.20e-03,
567,-8.00e-04,
568,3.20e-03,
569,-8.00e-04,
570,2.40e-03,
571,-8.00e-04,
572,2.40e-03,
573,0.00e+00,
574,-8.00e-04,
575,4.00e-03,
576,0.00e+00,
577,3.20e-03,
578,0.00e+00,
579,2.80e-03,
580,2.40e-03,
581,0.00e+00,
582,0.00e+00,
583,3.20e-03,
584,0.00e+00,
585,2.80e-03,
586,0.00e+00,
587,2.40e-03,
588,3.20e-03,
589,0.00e+00,
590,-8.00e-04,
591,2.80e-03,
592,0.00e+00,
593,2.40e-03,
594,-8.00e-04,
595,4.00e-03,
596,3.20e-03,
597,0.00e+00,
598,2.40e-03,
599,0.00e+00,
600,2.40e-03,
601,-8.00e-04,
602,0.00e+00,
603,2.40e-03,
604,2.40e-03,
605,0.00e+00,
606,0.00e+00,
607,3.20e-03,
608,2.40e-03,
609,0.00e+00,
610,8.00e-04,
611,2.40e-03,
612,0.00e+00,
613,3.20e-03,
614,3.20e-03,
615,0.00e+00,
616,2.40e-03,
617,-8.00e-04,
618,0.00e+00,
619,3.20e-03,
620,2.00e-03,
621,0.00e+00,
622,2.40e-03,
623,-8.00e-04,
624,3.20e-03,
625,-8.00e-04,
626,-8.00e-04,
627,3.60e-03,
628,-8.00e-04,
629,2.40e-03,
630,3.20e-03,
631,0.00e+00,
632,0.00e+00,
633,2.80e-03,
634,2.40e-03,
635,0.00e+00,
636,2.40e-03,
637,-8.00e-04,
638,-8.00e-04,
639,3.20e-03,
640,2.40e-03,
641,-8.00e-04,
642,3.20e-03,
643,0.00e+00,
644,0.00e+00,
645,3.20e-03,
646,0.00e+00,
647,2.80e-03,
648,2.40e-03,
649,-8.00e-04,
650,1.60e-03,
651,0.00e+00,
652,2.40e-03,
653,-8.00e-04,
654,-8.00e-04,
655,2.40e-03,
656,3.20e-03,
657,-8.00e-04,
658,2.40e-03,
659,0.00e+00,
660,0.00e+00,
661,4.00e-03,
662,8.00e-04,
663,3.20e-03,
664,0.00e+00,
665,3.20e-03,
666,3.20e-03,
667,0.00e+00,
668,0.00e+00,
669,4.00e-03,
670,0.00e+00,
671,2.80e-03,
672,0.00e+00,
673,3.20e-03,
674,2.40e-03,
675,0.00e+00,
676,0.00e+00,
677,2.40e-03,
678,3.20e-03,
679,-8.00e-04,
680,0.00e+00,
681,3.20e-03,
682,3.20e-03,
683,0.00e+00,
684,0.00e+00,
685,2.80e-03,
686,2.40e-03,
687,0.00e+00,
688,-4.00e-04,
689,2.40e-03,
690,-8.00e-04,
691,2.80e-03,
692,2.40e-03,
693,0.00e+00,
694,-8.00e-04,
695,2.40e-03,
696,-8.00e-04,
697,2.40e-03,
698,2.40e-03,
699,0.00e+00,
700,2.40e-03,
701,0.00e+00,
702,0.00e+00,
703,3.20e-03,
704,-8.00e-04,
705,2.40e-03,
706,-8.00e-04,
707,2.40e-03,
708,2.40e-03,
709,0.00e+00,
710,2.40e-03,
711,0.00e+00,
712,0.00e+00,
713,4.00e-03,
714,2.40e-03,
715,-8.00e-04,
716,3.20e-03,
717,-8.00e-04,
718,0.00e+00,
719,3.20e-03,
720,2.40e-03,
721,-8.00e-04,
722,2.40e-03,
723,-8.00e-04,
724,2.40e-03,
725,0.00e+00,
726,3.20e-03,
727,0.00e+00,
728,-8.00e-04,
729,3.20e-03,
730,0.00e+00,
731,2.40e-03,
732,0.00e+00,
733,3.20e-03,
734,-8.00e-04,
735,2.40e-03,
736,2.40e-03,
737,-1.60e-03,
738,4.00e-03,
739,-8.00e-04,
740,-8.00e-04,
741,3.20e-03,
742,4.00e-03,
743,0.00e+00,
744,2.40e-03,
745,0.00e+00,
746,0.00e+00,
747,2.80e-03,
748,0.00e+00,
749,2.80e-03,
750,-8.00e-04,
751,3.20e-03,
752,0.00e+00,
753,2.40e-03,
754,0.00e+00,
755,3.20e-03,
756,3.20e-03,
757,-8.00e-04,
758,2.40e-03,
759,0.00e+00,
760,3.20e-03,
761,-8.00e-04,
762,0.00e+00,
763,2.40e-03,
764,0.00e+00,
765,2.40e-03,
766,2.80e-03,
767,-8.00e-04,
768,3.20e-03,
769,0.00e+00,
770,0.00e+00,
771,2.40e-03,
772,-8.00e-04,
773,2.40e-03,
774,0.00e+00,
775,2.40e-03,
776,2.40e-03,
777,0.00e+00,
778,0.00e+00,
779,2.80e-03,
780,0.00e+00,
781,2.40e-03,
782,-8.00e-04,
783,4.80e-03,
784,0.00e+00,
785,2.40e-03,
786,2.40e-03,
787,-8.00e-04,
788,-1.60e-03,
789,3.20e-03,
790,0.00e+00,
791,2.40e-03,
792,0.00e+00,
793,2.40e-03,
794,2.40e-03,
795,-8.00e-04,
796,2.40e-03,
797,0.00e+00,
798,3.20e-03,
799,-8.00e-04,
800,2.40e-03,
801,0.00e+00,
802,2.40e-03,
803,-1.60e-03,
804,-8.00e-04,
805,3.20e-03,
806,-8.00e-04,
807,2.40e-03,
808,2.40e-03,
809,0.00e+00,
810,2.40e-03,
811,-8.00e-04,
812,0.00e+00,
813,2.40e-03,
814,0.00e+00,
815,2.40e-03,
816,0.00e+00,
817,2.40e-03,
818,0.00e+00,
819,3.20e-03,
820,3.20e-03,
821,-8.00e-04,
822,0.00e+00,
823,2.40e-03,
824,0.00e+00,
825,3.20e-03,
826,3.20e-03,
827,-8.00e-04,
828,0.00e+00,
829,3.20e-03,
830,8.00e-04,
831,2.40e-03,
832,0.00e+00,
833,2.40e-03,
834,-8.00e-04,
835,2.00e-03,
836,0.00e+00,
837,2.40e-03,
838,2.40e-03,
839,0.00e+00,
840,0.00e+00,
841,2.40e-03,
842,3.20e-03,
843,-8.00e-04,
844,3.20e-03,
845,-1.60e-03,
846,-8.00e-04,
847,2.00e-03,
848,-8.00e-04,
849,2.40e-03,
850,0.00e+00,
851,2.80e-03,
852,-8.00e-04,
853,2.40e-03,
854,0.00e+00,
855,2.80e-03,
856,3.20e-03,
857,-8.00e-04,
858,3.20e-03,
859,-8.00e-04,
860,-8.00e-04,
861,2.00e-03,
862,1.60e-03,
863,-8.00e-04,
864,-8.00e-04,
865,2.40e-03,
866,3.20e-03,
867,-8.00e-04,
868,2.40e-03,
869,0.00e+00,
870,-8.00e-04,
871,2.40e-03,
872,0.00e+00,
873,2.40e-03,
874,2.40e-03,
875,-8.00e-04,
876,2.40e-03,
877,-8.00e-04,
878,2.00e-03,
879,-1.60e-03,
880,-8.00e-04,
881,3.20e-03,
882,2.40e-03,
883,-8.00e-04,
884,1.60e-03,
885,-8.00e-04,
886,0.00e+00,
887,2.40e-03,
888,0.00e+00,
889,2.00e-03,
890,2.40e-03,
891,-8.00e-04,
892,-8.00e-04,
893,3.20e-03,
894,-8.00e-04,
895,3.20e-03,
896,-8.00e-04,
897,2.40e-03,
898,-8.00e-04,
899,2.40e-03,
900,2.40e-03,
901,-8.00e-04,
902,-8.00e-04,
903,2.80e-03,
904,2.40e-03,
905,-8.00e-04,
906,2.40e-03,
907,0.00e+00,
908,2.00e-03,
909,-1.60e-03,
910,2.40e-03,
911,-1.60e-03,
912,2.40e-03,
913,-8.00e-04,
914,-8.00e-04,
915,1.60e-03,
916,-8.00e-04,
917,2.40e-03,
918,2.40e-03,
919,0.00e+00,
920,-8.00e-04,
921,2.40e-03,
922,0.00e+00,
923,2.40e-03,
924,2.40e-03,
925,-1.60e-03,
926,2.40e-03,
927,-8.00e-04,
928,-8.00e-04,
929,2.40e-03,
930,1.60e-03,
931,-8.00e-04,
932,2.40e-03,
933,-1.60e-03,
934,-1.60e-03,
935,2.40e-03,
936,-8.00e-04,
937,2.00e-03,
938,1.60e-03,
939,-8.00e-04,
940,-8.00e-04,
941,2.40e-03,
942,-1.60e-03,
943,2.80e-03,
944,-1.60e-03,
945,2.40e-03,
946,2.40e-03,
947,-8.00e-04,
948,-8.00e-04,
949,2.40e-03,
950,2.00e-03,
951,-1.60e-03,
952,-8.00e-04,
953,2.40e-03,
954,-1.60e-03,
955,1.60e-03,
956,1.60e-03,
957,-8.00e-04,
958,-8.00e-04,
959,1.60e-03,
960,1.60e-03,
961,-1.60e-03,
962,-8.00e-04,
963,1.60e-03,
964,-8.00e-04,
965,1.60e-03,
966,2.40e-03,
967,-1.60e-03,
968,1.60e-03,
969,-8.00e-04,
970,2.40e-03,
971,-2.40e-03,
972,1.60e-03,
973,-8.00e-04,
974,-8.00e-04,
975,2.40e-03,
976,-1.60e-03,
977,2.00e-03,
978,1.60e-03,
979,-8.00e-04,
980,2.40e-03,
981,-1.60e-03,
982,-1.60e-03,
983,2.00e-03,
984,-1.60e-03,
985,1.60e-03,
986,-1.60e-03,
987,2.40e-03,
988,2.40e-03,
989,-8.00e-04,
990,2.40e-03,
991,-8.00e-04,
992,-8.00e-04,
993,2.40e-03,
994,2.40e-03,
995,-8.00e-04,
996,-1.60e-03,
997,2.00e-03,
998,-1.60e-03,
999,2.80e-03,
1000,1.60e-03,
1001,-8.00e-04,
1002,-8.00e-04,
1003,2.40e-03,
1004,3.20e-03,
1005,0.00e+00,
1006,2.40e-03,
1007,-8.00e-04,
1008,1.60e-03,
1009,-8.00e-04,
1010,3.20e-03,
1011,-8.00e-04,
1012,2.40e-03,
1013,-8.00e-04,
1014,1.60e-03,
1015,-8.00e-04,
1016,-8.00e-04,
1017,3.20e-03,
1018,0.00e+00,
1019,2.80e-03,
1020,-1.60e-03,
1021,3.20e-03,
1022,-1.60e-03,
1023,2.80e-03,
1024,2.40e-03,
1025,0.00e+00,
1026,0.00e+00,
1027,2.40e-03,
1028,-8.00e-04,
1029,1.60e-03,
1030,-8.00e-04,
1031,2.00e-03,
1032,0.00e+00,
1033,2.40e-03,
1034,0.00e+00,
1035,2.40e-03,
1036,-8.00e-04,
1037,2.80e-03,
1038,3.20e-03,
1039,0.00e+00,
1040,2.80e-03,
1041,-8.00e-04,
1042,2.40e-03,
1043,-8.00e-04,
1044,0.00e+00,
1045,2.80e-03,
1046,3.20e-03,
1047,-8.00e-04,
1048,-8.00e-04,
1049,2.40e-03,
1050,-8.00e-04,
1051,2.40e-03,
1052,-8.00e-04,
1053,2.40e-03,
1054,0.00e+00,
1055,2.40e-03,
1056,-8.00e-04,
1057,2.40e-03,
1058,-8.00e-04,
1059,2.40e-03,
1060,2.40e-03,
1061,-8.00e-04,
1062,0.00e+00,
1063,3.20e-03,
1064,2.40e-03,
1065,-8.00e-04,
1066,-8.00e-04,
1067,3.60e-03,
1068,-8.00e-04,
1069,3.20e-03,
1070,-1.60e-03,
1071,3.20e-03,
1072,2.40e-03,
1073,-8.00e-04,
1074,2.40e-03,
1075,-8.00e-04,
1076,-8.00e-04,
1077,3.20e-03,
1078,2.40e-03,
1079,-8.00e-04,
1080,3.20e-03,
1081,-8.00e-04,
1082,-8.00e-04,
1083,2.40e-03,
1084,-8.00e-04,
1085,2.40e-03,
1086,2.40e-03,
1087,-8.00e-04,
1088,-8.00e-04,
1089,3.20e-03,
1090,0.00e+00,
1091,2.40e-03,
1092,2.40e-03,
1093,0.00e+00,
1094,2.40e-03,
1095,-8.00e-04,
1096,2.40e-03,
1097,-8.00e-04,
1098,2.40e-03,
1099,0.00e+00,
1100,-8.00e-04,
1101,2.80e-03,
1102,-8.00e-04,
1103,3.20e-03,
1104,0.00e+00,
1105,2.40e-03,
1106,-8.00e-04,
1107,2.40e-03,
1108,2.80e-03,
1109,0.00e+00,
1110,3.20e-03,
1111,0.00e+00,
1112,0.00e+00,
1113,3.20e-03,
1114,0.00e+00,
1115,4.00e-03,
1116,0.00e+00,
1117,4.00e-03,
1118,3.20e-03,
1119,0.00e+00,
1120,2.40e-03,
1121,-8.00e-04,
1122,-8.00e-04,
1123,2.40e-03,
1124,2.40e-03,
1125,0.00e+00,
1126,8.00e-04,
1127,4.00e-03,
1128,0.00e+00,
1129,3.20e-03,
1130,0.00e+00,
1131,2.80e-03,
1132,0.00e+00,
1133,3.20e-03,
1134,0.00e+00,
1135,2.80e-03,
1136,0.00e+00,
1137,2.40e-03,
1138,2.40e-03,
1139,0.00e+00,
1140,0.00e+00,
1141,3.20e-03,
1142,3.20e-03,
1143,0.00e+00,
1144,2.80e-03,
1145,0.00e+00,
1146,0.00e+00,
1147,2.80e-03,
1148,0.00e+00,
1149,3.20e-03,
1150,0.00e+00,
1151,3.20e-03,
1152,2.40e-03,
1153,-8.00e-04,
1154,-8.00e-04,
1155,2.80e-03,
1156,3.20e-03,
1157,-8.00e-04,
1158,2.40e-03,
1159,-8.00e-04,
1160,3.20e-03,
1161,-8.00e-04,
1162,0.00e+00,
1163,4.00e-03,
1164,2.40e-03,
1165,0.00e+00,
1166,3.20e-03,
1167,-8.00e-04,
1168,3.20e-03,
1169,-8.00e-04,
1170,0.00e+00,
1171,2.40e-03,
1172,0.00e+00,
1173,2.80e-03,
1174,0.00e+00,
1175,2.40e-03,
1176,0.00e+00,
1177,3.20e-03,
1178,3.20e-03,
1179,0.00e+00,
1180,2.40e-03,
1181,-8.00e-04,
1182,0.00e+00,
1183,3.20e-03,
1184,0.00e+00,
1185,3.20e-03,
1186,3.20e-03,
1187,0.00e+00,
1188,0.00e+00,
1189,3.20e-03,
1190,0.00e+00,
1191,3.20e-03,
1192,2.40e-03,
1193,0.00e+00,
1194,8.00e-04,
1195,2.40e-03,
1196,2.40e-03,
1197,-8.00e-04,
1198,-8.00e-04,
1199,3.20e-03,
