fastdiffamp/data-noise-set/old-str-wk/strong-unb/NewFile2.csv

X,CH1,Start,Increment,
Sequence,Volt,-1.148000e+01,2.000000e-02
0,-1.60e-03,
1,2.00e-03,
2,-2.40e-03,
3,1.60e-03,
4,1.60e-03,
5,-1.60e-03,
6,-2.40e-03,
7,1.60e-03,
8,-2.40e-03,
9,1.60e-03,
10,-1.60e-03,
11,2.40e-03,
12,-1.60e-03,
13,1.60e-03,
14,-2.40e-03,
15,2.40e-03,
16,-3.20e-03,
17,1.60e-03,
18,1.60e-03,
19,-2.40e-03,
20,-2.40e-03,
21,1.20e-03,
22,-1.60e-03,
23,1.60e-03,
24,-3.20e-03,
25,2.80e-03,
26,1.60e-03,
27,-2.40e-03,
28,-1.60e-03,
29,1.60e-03,
30,8.00e-04,
31,-2.40e-03,
32,-1.60e-03,
33,1.60e-03,
34,1.60e-03,
35,-2.40e-03,
36,-2.40e-03,
37,1.20e-03,
38,-1.60e-03,
39,2.00e-03,
40,1.60e-03,
41,-2.40e-03,
42,-2.40e-03,
43,1.60e-03,
44,-2.40e-03,
45,1.60e-03,
46,-1.60e-03,
47,2.40e-03,
48,-1.60e-03,
49,2.00e-03,
50,-2.40e-03,
51,1.60e-03,
52,2.00e-03,
53,-2.40e-03,
54,-1.60e-03,
55,2.00e-03,
56,-2.40e-03,
57,2.40e-03,
58,-1.60e-03,
59,1.60e-03,
60,-1.60e-03,
61,1.60e-03,
62,1.60e-03,
63,-2.40e-03,
64,-1.60e-03,
65,1.60e-03,
66,1.60e-03,
67,-2.40e-03,
68,1.60e-03,
69,-2.40e-03,
70,-2.40e-03,
71,1.20e-03,
72,-2.40e-03,
73,8.00e-04,
74,-1.60e-03,
75,1.60e-03,
76,-2.40e-03,
77,2.00e-03,
78,1.60e-03,
79,-3.20e-03,
80,-2.40e-03,
81,2.00e-03,
82,1.60e-03,
83,-1.60e-03,
84,1.60e-03,
85,-1.60e-03,
86,-1.60e-03,
87,1.20e-03,
88,1.60e-03,
89,-2.40e-03,
90,1.60e-03,
91,-1.60e-03,
92,-1.60e-03,
93,1.60e-03,
94,-1.60e-03,
95,1.60e-03,
96,1.20e-03,
97,-2.40e-03,
98,2.00e-03,
99,-3.20e-03,
100,-1.60e-03,
101,1.60e-03,
102,-2.40e-03,
103,2.00e-03,
104,8.00e-04,
105,-2.40e-03,
106,-1.60e-03,
107,1.60e-03,
108,-2.40e-03,
109,1.20e-03,
110,-2.40e-03,
111,2.00e-03,
112,1.60e-03,
113,-2.40e-03,
114,-2.40e-03,
115,1.60e-03,
116,-1.60e-03,
117,1.60e-03,
118,-8.00e-04,
119,2.00e-03,
120,-1.60e-03,
121,2.80e-03,
122,-2.40e-03,
123,1.20e-03,
124,1.60e-03,
125,-2.40e-03,
126,1.20e-03,
127,-2.40e-03,
128,8.00e-04,
129,-2.40e-03,
130,1.60e-03,
131,-2.40e-03,
132,2.00e-03,
133,-3.20e-03,
134,-2.40e-03,
135,2.00e-03,
136,-2.40e-03,
137,1.60e-03,
138,-1.60e-03,
139,1.60e-03,
140,1.60e-03,
141,-2.40e-03,
142,1.60e-03,
143,-2.40e-03,
144,1.60e-03,
145,-1.60e-03,
146,2.40e-03,
147,-2.40e-03,
148,1.60e-03,
149,-1.60e-03,
150,1.20e-03,
151,-2.40e-03,
152,-2.40e-03,
153,1.60e-03,
154,1.60e-03,
155,-2.40e-03,
156,1.60e-03,
157,-2.40e-03,
158,-2.40e-03,
159,1.60e-03,
160,1.60e-03,
161,-2.40e-03,
162,-1.60e-03,
163,2.00e-03,
164,2.40e-03,
165,-2.40e-03,
166,1.60e-03,
167,-2.40e-03,
168,1.60e-03,
169,-1.60e-03,
170,1.60e-03,
171,-2.40e-03,
172,-1.60e-03,
173,1.20e-03,
174,-1.60e-03,
175,2.00e-03,
176,2.00e-03,
177,-2.40e-03,
178,1.60e-03,
179,-2.40e-03,
180,-2.40e-03,
181,1.60e-03,
182,-2.40e-03,
183,1.60e-03,
184,1.60e-03,
185,-2.40e-03,
186,1.60e-03,
187,-2.40e-03,
188,-1.60e-03,
189,1.60e-03,
190,-1.60e-03,
191,1.20e-03,
192,-2.40e-03,
193,2.40e-03,
194,1.60e-03,
195,-2.40e-03,
196,2.00e-03,
197,-2.40e-03,
198,1.60e-03,
199,-2.40e-03,
200,-2.40e-03,
201,1.20e-03,
202,-1.60e-03,
203,2.40e-03,
204,-1.60e-03,
205,1.20e-03,
206,-1.60e-03,
207,1.60e-03,
208,1.60e-03,
209,-2.40e-03,
210,-2.40e-03,
211,2.40e-03,
212,-2.40e-03,
213,2.00e-03,
214,-2.40e-03,
215,2.40e-03,
216,1.20e-03,
217,-2.40e-03,
218,1.60e-03,
219,-2.40e-03,
220,1.60e-03,
221,-2.40e-03,
222,1.60e-03,
223,-2.40e-03,
224,1.60e-03,
225,-1.60e-03,
226,-2.40e-03,
227,1.60e-03,
228,-2.40e-03,
229,1.60e-03,
230,1.60e-03,
231,-2.40e-03,
232,1.60e-03,
233,-2.40e-03,
234,1.60e-03,
235,-2.40e-03,
236,8.00e-04,
237,-2.40e-03,
238,1.60e-03,
239,-3.20e-03,
240,1.60e-03,
241,-1.60e-03,
242,-1.60e-03,
243,1.60e-03,
244,-1.60e-03,
245,1.60e-03,
246,-2.40e-03,
247,2.00e-03,
248,1.60e-03,
249,-2.40e-03,
250,-2.40e-03,
251,1.60e-03,
252,1.60e-03,
253,-2.40e-03,
254,-1.60e-03,
255,1.60e-03,
256,1.20e-03,
257,-2.40e-03,
258,-2.40e-03,
259,1.60e-03,
260,1.20e-03,
261,-2.40e-03,
262,-2.40e-03,
263,1.60e-03,
264,-2.40e-03,
265,1.60e-03,
266,-2.40e-03,
267,1.60e-03,
268,1.60e-03,
269,-2.40e-03,
270,1.60e-03,
271,-2.40e-03,
272,1.60e-03,
273,-2.40e-03,
274,1.60e-03,
275,-2.40e-03,
276,-2.40e-03,
277,1.60e-03,
278,2.00e-03,
279,-2.40e-03,
280,1.60e-03,
281,-2.40e-03,
282,8.00e-04,
283,-2.40e-03,
284,1.60e-03,
285,-2.40e-03,
286,2.00e-03,
287,-2.40e-03,
288,2.00e-03,
289,-2.40e-03,
290,-1.60e-03,
291,2.00e-03,
292,2.00e-03,
293,-1.60e-03,
294,-2.40e-03,
295,2.40e-03,
296,1.20e-03,
297,-2.40e-03,
298,1.60e-03,
299,-1.60e-03,
300,2.40e-03,
301,-1.60e-03,
302,1.60e-03,
303,-1.60e-03,
304,8.00e-04,
305,-2.40e-03,
306,-2.40e-03,
307,1.60e-03,
308,8.00e-04,
309,-1.60e-03,
310,-2.40e-03,
311,1.60e-03,
312,1.60e-03,
313,-1.60e-03,
314,1.60e-03,
315,-1.60e-03,
316,-1.60e-03,
317,1.60e-03,
318,-2.40e-03,
319,1.60e-03,
320,1.60e-03,
321,-1.60e-03,
322,2.00e-03,
323,-2.40e-03,
324,1.60e-03,
325,-2.40e-03,
326,2.40e-03,
327,-2.40e-03,
328,-1.60e-03,
329,2.00e-03,
330,-1.60e-03,
331,1.60e-03,
332,2.00e-03,
333,-1.60e-03,
334,1.60e-03,
335,-2.40e-03,
336,-2.40e-03,
337,1.60e-03,
338,-2.40e-03,
339,1.60e-03,
340,2.40e-03,
341,-2.40e-03,
342,1.20e-03,
343,-2.40e-03,
344,1.60e-03,
345,-2.40e-03,
346,1.60e-03,
347,-2.40e-03,
348,-2.40e-03,
349,1.20e-03,
350,1.60e-03,
351,-2.40e-03,
352,2.40e-03,
353,-1.60e-03,
354,-2.40e-03,
355,1.20e-03,
356,-2.40e-03,
357,1.20e-03,
358,1.60e-03,
359,-2.40e-03,
360,-2.40e-03,
361,1.60e-03,
362,1.60e-03,
363,-2.40e-03,
364,-3.20e-03,
365,8.00e-04,
366,1.60e-03,
367,-1.60e-03,
368,-3.20e-03,
369,1.20e-03,
370,1.60e-03,
371,-2.40e-03,
372,-2.40e-03,
373,1.20e-03,
374,1.20e-03,
375,-2.40e-03,
376,2.40e-03,
377,-2.40e-03,
378,-2.40e-03,
379,2.00e-03,
380,-1.60e-03,
381,1.60e-03,
382,1.60e-03,
383,-2.40e-03,
384,1.60e-03,
385,-2.40e-03,
386,1.20e-03,
387,-2.40e-03,
388,1.60e-03,
389,-2.40e-03,
390,-2.40e-03,
391,1.20e-03,
392,-2.40e-03,
393,1.20e-03,
394,-2.40e-03,
395,1.60e-03,
396,1.60e-03,
397,-2.40e-03,
398,1.20e-03,
399,-2.40e-03,
400,1.20e-03,
401,-2.40e-03,
402,2.40e-03,
403,-2.40e-03,
404,-3.20e-03,
405,1.20e-03,
406,1.60e-03,
407,-2.40e-03,
408,-2.40e-03,
409,2.00e-03,
410,1.60e-03,
411,-2.40e-03,
412,-1.60e-03,
413,1.60e-03,
414,-1.60e-03,
415,1.60e-03,
416,1.60e-03,
417,-3.20e-03,
418,1.60e-03,
419,-1.60e-03,
420,1.60e-03,
421,-2.40e-03,
422,-2.40e-03,
423,1.20e-03,
424,1.60e-03,
425,-3.20e-03,
426,-2.40e-03,
427,2.40e-03,
428,-2.40e-03,
429,1.20e-03,
430,2.00e-03,
431,-2.40e-03,
432,-2.40e-03,
433,1.60e-03,
434,-1.60e-03,
435,1.60e-03,
436,1.60e-03,
437,-2.40e-03,
438,1.60e-03,
439,-1.60e-03,
440,1.60e-03,
441,-2.40e-03,
442,1.60e-03,
443,-2.40e-03,
444,1.60e-03,
445,-2.40e-03,
446,1.60e-03,
447,-2.40e-03,
448,-1.60e-03,
449,1.20e-03,
450,-1.60e-03,
451,2.40e-03,
452,1.60e-03,
453,-1.60e-03,
454,1.60e-03,
455,-3.20e-03,
456,1.60e-03,
457,-2.40e-03,
458,1.60e-03,
459,-2.40e-03,
460,-1.60e-03,
461,2.00e-03,
462,1.60e-03,
463,-1.60e-03,
464,-2.40e-03,
465,2.00e-03,
466,1.60e-03,
467,-2.40e-03,
468,1.20e-03,
469,-1.60e-03,
470,-1.60e-03,
471,1.20e-03,
472,-1.60e-03,
473,1.60e-03,
474,-1.60e-03,
475,1.60e-03,
476,-2.40e-03,
477,8.00e-04,
478,-1.60e-03,
479,1.60e-03,
480,-1.60e-03,
481,8.00e-04,
482,8.00e-04,
483,-2.40e-03,
484,-2.40e-03,
485,1.60e-03,
486,-1.60e-03,
487,1.60e-03,
488,8.00e-04,
489,-2.40e-03,
490,-2.40e-03,
491,1.20e-03,
492,-2.40e-03,
493,1.60e-03,
494,-2.40e-03,
495,1.20e-03,
496,8.00e-04,
497,-2.40e-03,
498,1.20e-03,
499,-2.80e-03,
500,-2.40e-03,
501,1.60e-03,
502,-2.40e-03,
503,1.20e-03,
504,-2.40e-03,
505,1.60e-03,
506,1.20e-03,
507,-2.40e-03,
508,-2.40e-03,
509,8.00e-04,
510,-3.20e-03,
511,1.20e-03,
512,1.20e-03,
513,-3.20e-03,
514,8.00e-04,
515,-2.40e-03,
516,-2.40e-03,
517,8.00e-04,
518,-3.20e-03,
519,2.00e-03,
520,-2.40e-03,
521,1.20e-03,
522,-2.40e-03,
523,8.00e-04,
524,-2.40e-03,
525,1.60e-03,
526,-2.40e-03,
527,1.60e-03,
528,-1.60e-03,
529,1.60e-03,
530,1.60e-03,
531,-2.40e-03,
532,-2.40e-03,
533,2.00e-03,
534,-2.40e-03,
535,8.00e-04,
536,1.60e-03,
537,-2.40e-03,
538,1.20e-03,
539,-2.40e-03,
540,-2.40e-03,
541,8.00e-04,
542,1.20e-03,
543,-2.40e-03,
544,-2.40e-03,
545,1.20e-03,
546,-2.40e-03,
547,1.20e-03,
548,1.60e-03,
549,-2.40e-03,
550,-3.20e-03,
551,1.20e-03,
552,-2.40e-03,
553,1.60e-03,
554,1.60e-03,
555,-2.40e-03,
556,-2.40e-03,
557,1.20e-03,
558,-2.40e-03,
559,1.20e-03,
560,-2.40e-03,
561,8.00e-04,
562,8.00e-04,
563,-2.40e-03,
564,1.60e-03,
565,-2.40e-03,
566,-3.20e-03,
567,1.60e-03,
568,-2.40e-03,
569,1.60e-03,
570,-2.40e-03,
571,1.20e-03,
572,-2.40e-03,
573,2.00e-03,
574,-3.20e-03,
575,2.00e-03,
576,-1.60e-03,
577,2.40e-03,
578,1.60e-03,
579,-2.40e-03,
580,-1.60e-03,
581,1.20e-03,
582,-2.40e-03,
583,1.20e-03,
584,1.60e-03,
585,-2.40e-03,
586,-1.60e-03,
587,2.40e-03,
588,1.60e-03,
589,-2.40e-03,
590,8.00e-04,
591,-1.60e-03,
592,1.60e-03,
593,-2.40e-03,
594,1.60e-03,
595,-2.40e-03,
596,8.00e-04,
597,-2.40e-03,
598,-1.60e-03,
599,2.40e-03,
600,-2.40e-03,
601,1.60e-03,
602,-1.60e-03,
603,2.40e-03,
604,-1.60e-03,
605,2.00e-03,
606,8.00e-04,
607,-2.40e-03,
608,-2.40e-03,
609,1.60e-03,
610,1.20e-03,
611,-2.40e-03,
612,-2.40e-03,
613,1.20e-03,
614,1.20e-03,
615,-1.60e-03,
616,1.60e-03,
617,-2.00e-03,
618,1.60e-03,
619,-3.20e-03,
620,-2.40e-03,
621,1.20e-03,
622,-2.40e-03,
623,1.60e-03,
624,-1.60e-03,
625,2.00e-03,
626,-2.40e-03,
627,1.60e-03,
628,-2.40e-03,
629,1.60e-03,
630,-2.40e-03,
631,1.60e-03,
632,2.00e-03,
633,-2.40e-03,
634,-2.40e-03,
635,1.20e-03,
636,-2.40e-03,
637,1.60e-03,
638,-2.40e-03,
639,2.40e-03,
640,1.20e-03,
641,-2.40e-03,
642,-2.40e-03,
643,1.20e-03,
644,1.60e-03,
645,-2.40e-03,
646,-1.60e-03,
647,1.60e-03,
648,-2.40e-03,
649,1.60e-03,
650,1.20e-03,
651,-2.00e-03,
652,-2.40e-03,
653,1.60e-03,
654,1.60e-03,
655,-2.40e-03,
656,-1.60e-03,
657,1.60e-03,
658,1.60e-03,
659,-2.40e-03,
660,-2.40e-03,
661,1.60e-03,
662,-1.60e-03,
663,1.20e-03,
664,-2.40e-03,
665,1.60e-03,
666,-2.40e-03,
667,1.60e-03,
668,1.20e-03,
669,-2.40e-03,
670,-2.40e-03,
671,2.40e-03,
672,8.00e-04,
673,-2.40e-03,
674,-2.40e-03,
675,1.60e-03,
676,-2.40e-03,
677,2.00e-03,
678,-1.60e-03,
679,2.00e-03,
680,-2.40e-03,
681,1.20e-03,
682,-2.40e-03,
683,1.60e-03,
684,-2.40e-03,
685,1.60e-03,
686,-2.40e-03,
687,8.00e-04,
688,-2.40e-03,
689,1.60e-03,
690,-3.20e-03,
691,2.40e-03,
692,-2.40e-03,
693,2.00e-03,
694,-1.60e-03,
695,1.60e-03,
696,1.20e-03,
697,-2.40e-03,
698,-2.40e-03,
699,1.60e-03,
700,2.00e-03,
701,-1.60e-03,
702,1.60e-03,
703,-2.40e-03,
704,-1.60e-03,
705,2.40e-03,
706,-1.60e-03,
707,2.00e-03,
708,-1.60e-03,
709,1.60e-03,
710,1.60e-03,
711,-2.40e-03,
712,-3.20e-03,
713,1.60e-03,
714,-2.40e-03,
715,2.40e-03,
716,-2.40e-03,
717,1.60e-03,
718,1.60e-03,
719,-2.40e-03,
720,-2.40e-03,
721,1.20e-03,
722,-2.40e-03,
723,1.20e-03,
724,-1.60e-03,
725,2.40e-03,
726,-2.40e-03,
727,2.00e-03,
728,1.60e-03,
729,-2.40e-03,
730,-1.60e-03,
731,2.00e-03,
732,-1.60e-03,
733,2.00e-03,
734,8.00e-04,
735,-2.40e-03,
736,-2.80e-03,
737,3.20e-03,
738,-2.40e-03,
739,1.60e-03,
740,1.60e-03,
741,-1.60e-03,
742,-2.40e-03,
743,1.60e-03,
744,-2.00e-03,
745,1.60e-03,
746,-2.40e-03,
747,1.60e-03,
748,1.60e-03,
749,-2.40e-03,
750,-2.40e-03,
751,1.20e-03,
752,1.60e-03,
753,-2.40e-03,
754,-2.40e-03,
755,1.60e-03,
756,-2.40e-03,
757,1.60e-03,
758,2.00e-03,
759,-1.60e-03,
760,-1.60e-03,
761,2.00e-03,
762,-1.60e-03,
763,1.60e-03,
764,1.60e-03,
765,-1.60e-03,
766,1.60e-03,
767,-2.40e-03,
768,-1.60e-03,
769,1.60e-03,
770,1.60e-03,
771,-2.40e-03,
772,-2.40e-03,
773,1.60e-03,
774,-2.40e-03,
775,1.60e-03,
776,-3.20e-03,
777,1.60e-03,
778,-1.60e-03,
779,2.00e-03,
780,1.60e-03,
781,-2.40e-03,
782,-2.40e-03,
783,1.60e-03,
784,8.00e-04,
785,-1.60e-03,
786,1.60e-03,
787,-3.20e-03,
788,-2.40e-03,
789,1.60e-03,
790,8.00e-04,
791,-2.40e-03,
792,-2.40e-03,
793,2.00e-03,
794,1.60e-03,
795,-1.60e-03,
796,-2.40e-03,
797,1.20e-03,
798,8.00e-04,
799,-2.40e-03,
800,-1.60e-03,
801,1.60e-03,
802,8.00e-04,
803,-2.40e-03,
804,-2.40e-03,
805,1.60e-03,
806,-2.40e-03,
807,8.00e-04,
808,8.00e-04,
809,-2.40e-03,
810,-2.40e-03,
811,1.60e-03,
812,1.20e-03,
813,-2.40e-03,
814,-2.40e-03,
815,1.60e-03,
816,1.60e-03,
817,-2.40e-03,
818,1.60e-03,
819,-2.80e-03,
820,8.00e-04,
821,-2.40e-03,
822,1.60e-03,
823,-3.20e-03,
824,-2.40e-03,
825,1.20e-03,
826,-2.40e-03,
827,1.60e-03,
828,-2.40e-03,
829,1.60e-03,
830,2.00e-03,
831,-3.20e-03,
832,1.20e-03,
833,-2.40e-03,
834,-2.40e-03,
835,1.60e-03,
836,8.00e-04,
837,-2.40e-03,
838,2.40e-03,
839,-2.40e-03,
840,1.20e-03,
841,-1.60e-03,
842,-2.40e-03,
843,1.60e-03,
844,1.60e-03,
845,-2.40e-03,
846,1.60e-03,
847,-1.60e-03,
848,2.00e-03,
849,-2.40e-03,
850,-2.40e-03,
851,2.40e-03,
852,8.00e-04,
853,-1.60e-03,
854,-1.60e-03,
855,2.00e-03,
856,1.60e-03,
857,-2.40e-03,
858,-2.40e-03,
859,2.40e-03,
860,2.40e-03,
861,-2.40e-03,
862,1.60e-03,
863,-2.40e-03,
864,1.20e-03,
865,-2.40e-03,
866,-2.40e-03,
867,1.20e-03,
868,-1.60e-03,
869,1.20e-03,
870,1.60e-03,
871,-2.40e-03,
872,1.60e-03,
873,-2.40e-03,
874,1.60e-03,
875,-2.40e-03,
876,1.60e-03,
877,-2.40e-03,
878,1.60e-03,
879,-2.40e-03,
880,1.60e-03,
881,-2.40e-03,
882,1.60e-03,
883,-1.60e-03,
884,-1.60e-03,
885,8.00e-04,
886,-2.40e-03,
887,2.00e-03,
888,-1.60e-03,
889,1.60e-03,
890,2.40e-03,
891,-1.60e-03,
892,-1.60e-03,
893,1.60e-03,
894,1.60e-03,
895,-1.60e-03,
896,2.40e-03,
897,-2.40e-03,
898,-1.60e-03,
899,1.60e-03,
900,-2.40e-03,
901,1.60e-03,
902,1.60e-03,
903,-2.40e-03,
904,1.60e-03,
905,-2.40e-03,
906,-2.40e-03,
907,1.60e-03,
908,-2.40e-03,
909,1.60e-03,
910,-1.60e-03,
911,1.60e-03,
912,1.60e-03,
913,-2.40e-03,
914,-1.60e-03,
915,2.00e-03,
916,-2.40e-03,
917,1.20e-03,
918,-1.60e-03,
919,2.40e-03,
920,8.00e-04,
921,-2.40e-03,
922,-2.40e-03,
923,1.60e-03,
924,1.60e-03,
925,-2.40e-03,
926,2.00e-03,
927,-2.40e-03,
928,-2.40e-03,
929,1.60e-03,
930,1.60e-03,
931,-2.40e-03,
932,-2.40e-03,
933,8.00e-04,
934,-2.40e-03,
935,1.60e-03,
936,8.00e-04,
937,-2.40e-03,
938,-2.40e-03,
939,1.60e-03,
940,-3.20e-03,
941,1.20e-03,
942,-1.60e-03,
943,1.60e-03,
944,1.60e-03,
945,-2.40e-03,
946,1.60e-03,
947,-2.40e-03,
948,2.00e-03,
949,-2.40e-03,
950,1.60e-03,
951,-3.20e-03,
952,1.60e-03,
953,-2.40e-03,
954,8.00e-04,
955,-3.20e-03,
956,-1.60e-03,
957,1.60e-03,
958,-2.40e-03,
959,4.00e-04,
960,-2.40e-03,
961,1.20e-03,
962,-2.40e-03,
963,1.60e-03,
964,1.60e-03,
965,-2.40e-03,
966,-2.40e-03,
967,1.20e-03,
968,-2.40e-03,
969,8.00e-04,
970,-2.40e-03,
971,8.00e-04,
972,-2.40e-03,
973,1.60e-03,
974,1.20e-03,
975,-3.20e-03,
976,-2.40e-03,
977,1.20e-03,
978,-2.40e-03,
979,1.60e-03,
980,8.00e-04,
981,-2.40e-03,
982,-2.40e-03,
983,2.00e-03,
984,8.00e-04,
985,-2.40e-03,
986,2.40e-03,
987,-2.40e-03,
988,1.20e-03,
989,-2.40e-03,
990,-2.40e-03,
991,1.20e-03,
992,-2.40e-03,
993,1.20e-03,
994,-1.60e-03,
995,2.00e-03,
996,1.20e-03,
997,-2.40e-03,
998,1.60e-03,
999,-2.40e-03,
1000,-3.20e-03,
1001,1.60e-03,
1002,-2.40e-03,
1003,2.40e-03,
1004,1.60e-03,
1005,-3.20e-03,
1006,1.60e-03,
1007,-2.40e-03,
1008,2.00e-03,
1009,-2.40e-03,
1010,1.60e-03,
1011,-2.40e-03,
1012,1.20e-03,
1013,-2.40e-03,
1014,-2.40e-03,
1015,1.60e-03,
1016,1.20e-03,
1017,-2.40e-03,
1018,8.00e-04,
1019,-2.40e-03,
1020,-1.60e-03,
1021,8.00e-04,
1022,2.40e-03,
1023,-2.40e-03,
1024,1.60e-03,
1025,-2.40e-03,
1026,1.60e-03,
1027,-3.20e-03,
1028,-2.40e-03,
1029,1.60e-03,
1030,-2.40e-03,
1031,1.20e-03,
1032,1.20e-03,
1033,-1.60e-03,
1034,-1.60e-03,
1035,1.60e-03,
1036,-2.40e-03,
1037,1.20e-03,
1038,-2.40e-03,
1039,1.60e-03,
1040,-1.60e-03,
1041,1.20e-03,
1042,-2.40e-03,
1043,1.20e-03,
1044,1.60e-03,
1045,-2.40e-03,
1046,1.60e-03,
1047,-2.40e-03,
1048,-2.40e-03,
1049,1.60e-03,
1050,2.00e-03,
1051,-3.20e-03,
1052,1.60e-03,
1053,-2.40e-03,
1054,1.60e-03,
1055,-2.40e-03,
1056,1.60e-03,
1057,-2.40e-03,
1058,1.60e-03,
1059,-3.20e-03,
1060,-2.40e-03,
1061,2.00e-03,
1062,1.60e-03,
1063,-2.40e-03,
1064,1.60e-03,
1065,-2.40e-03,
1066,-1.60e-03,
1067,1.60e-03,
1068,1.60e-03,
1069,-2.40e-03,
1070,-2.40e-03,
1071,1.20e-03,
1072,-2.40e-03,
1073,1.60e-03,
1074,-1.60e-03,
1075,1.60e-03,
1076,-2.40e-03,
1077,1.60e-03,
1078,-1.60e-03,
1079,1.60e-03,
1080,2.40e-03,
1081,-2.40e-03,
1082,2.40e-03,
1083,-2.40e-03,
1084,1.60e-03,
1085,-2.40e-03,
1086,-1.60e-03,
1087,1.60e-03,
1088,2.40e-03,
1089,-2.40e-03,
1090,-1.60e-03,
1091,1.60e-03,
1092,-1.60e-03,
1093,1.60e-03,
1094,-2.40e-03,
1095,1.60e-03,
1096,-2.40e-03,
1097,1.60e-03,
1098,-1.60e-03,
1099,1.60e-03,
1100,2.40e-03,
1101,-1.60e-03,
1102,1.60e-03,
1103,-1.60e-03,
1104,-1.60e-03,
1105,1.60e-03,
1106,-1.60e-03,
1107,1.60e-03,
1108,-2.40e-03,
1109,1.60e-03,
1110,-1.60e-03,
1111,1.60e-03,
1112,1.60e-03,
1113,-2.40e-03,
1114,-2.40e-03,
1115,1.60e-03,
1116,1.60e-03,
1117,-2.40e-03,
1118,-1.60e-03,
1119,1.60e-03,
1120,-2.40e-03,
1121,1.60e-03,
1122,-1.60e-03,
1123,2.40e-03,
1124,-2.40e-03,
1125,1.60e-03,
1126,-3.20e-03,
1127,1.60e-03,
1128,-2.40e-03,
1129,1.60e-03,
1130,-2.40e-03,
1131,1.60e-03,
1132,-1.60e-03,
1133,2.00e-03,
1134,-2.40e-03,
1135,1.60e-03,
1136,1.60e-03,
1137,-1.60e-03,
1138,-2.40e-03,
1139,1.60e-03,
1140,1.60e-03,
1141,-2.40e-03,
1142,-2.40e-03,
1143,2.40e-03,
1144,-1.60e-03,
1145,2.40e-03,
1146,-2.40e-03,
1147,1.60e-03,
1148,-1.60e-03,
1149,1.60e-03,
1150,-2.40e-03,
1151,1.60e-03,
1152,-1.60e-03,
1153,1.20e-03,
1154,-1.60e-03,
1155,2.00e-03,
1156,-2.40e-03,
1157,1.60e-03,
1158,-1.60e-03,
1159,1.60e-03,
1160,-3.20e-03,
1161,1.60e-03,
1162,-2.40e-03,
1163,1.20e-03,
1164,2.40e-03,
1165,-2.40e-03,
1166,-2.40e-03,
1167,1.60e-03,
1168,-1.60e-03,
1169,1.20e-03,
1170,1.60e-03,
1171,-3.20e-03,
1172,-2.40e-03,
1173,1.60e-03,
1174,1.20e-03,
1175,-2.40e-03,
1176,-3.20e-03,
1177,1.60e-03,
1178,1.60e-03,
1179,-2.40e-03,
1180,-1.60e-03,
1181,1.20e-03,
1182,1.60e-03,
1183,-2.40e-03,
1184,-1.60e-03,
1185,1.20e-03,
1186,1.60e-03,
1187,-2.40e-03,
1188,1.60e-03,
1189,-1.60e-03,
1190,1.60e-03,
1191,-2.40e-03,
1192,2.80e-03,
1193,-2.40e-03,
1194,-2.40e-03,
1195,1.20e-03,
1196,-2.40e-03,
1197,1.60e-03,
1198,-2.40e-03,
1199,8.00e-04,
