fastdiffamp/data-noise-set/old-str-wk/strong-unb/NewFile8.csv

X,CH1,Start,Increment,
Sequence,Volt,-1.148000e+01,2.000000e-02
0,-2.40e-03,
1,2.40e-03,
2,1.60e-03,
3,-2.40e-03,
4,-1.60e-03,
5,2.00e-03,
6,-2.40e-03,
7,2.40e-03,
8,-2.40e-03,
9,3.20e-03,
10,-2.40e-03,
11,1.60e-03,
12,-2.40e-03,
13,2.40e-03,
14,-2.40e-03,
15,2.00e-03,
16,-1.60e-03,
17,2.00e-03,
18,-2.40e-03,
19,2.40e-03,
20,2.40e-03,
21,-2.40e-03,
22,2.00e-03,
23,-2.40e-03,
24,1.60e-03,
25,-2.40e-03,
26,-2.40e-03,
27,1.60e-03,
28,1.60e-03,
29,-2.40e-03,
30,1.60e-03,
31,-2.40e-03,
32,-1.60e-03,
33,2.00e-03,
34,1.60e-03,
35,-2.40e-03,
36,-2.40e-03,
37,2.40e-03,
38,-2.40e-03,
39,2.40e-03,
40,-3.20e-03,
41,2.40e-03,
42,-1.60e-03,
43,2.40e-03,
44,-2.40e-03,
45,2.40e-03,
46,-3.20e-03,
47,1.60e-03,
48,-2.40e-03,
49,3.20e-03,
50,1.60e-03,
51,-2.40e-03,
52,-1.60e-03,
53,2.40e-03,
54,-3.20e-03,
55,1.60e-03,
56,-2.40e-03,
57,2.40e-03,
58,-1.60e-03,
59,2.40e-03,
60,2.40e-03,
61,-2.40e-03,
62,2.00e-03,
63,-2.40e-03,
64,-2.40e-03,
65,1.60e-03,
66,1.60e-03,
67,-2.40e-03,
68,-2.40e-03,
69,1.60e-03,
70,1.60e-03,
71,-2.40e-03,
72,-1.60e-03,
73,1.60e-03,
74,-2.40e-03,
75,1.60e-03,
76,1.60e-03,
77,-2.40e-03,
78,2.40e-03,
79,-2.40e-03,
80,-1.60e-03,
81,2.40e-03,
82,-1.60e-03,
83,2.40e-03,
84,-2.40e-03,
85,2.40e-03,
86,1.60e-03,
87,-2.40e-03,
88,2.00e-03,
89,-2.40e-03,
90,2.40e-03,
91,-2.40e-03,
92,-2.40e-03,
93,1.60e-03,
94,-2.40e-03,
95,2.40e-03,
96,-1.60e-03,
97,2.40e-03,
98,-2.40e-03,
99,2.00e-03,
100,2.40e-03,
101,-2.40e-03,
102,-2.40e-03,
103,1.60e-03,
104,-2.40e-03,
105,2.40e-03,
106,2.40e-03,
107,-3.20e-03,
108,-1.60e-03,
109,2.40e-03,
110,-1.60e-03,
111,3.20e-03,
112,-2.40e-03,
113,2.40e-03,
114,-1.60e-03,
115,2.40e-03,
116,-3.20e-03,
117,1.60e-03,
118,2.00e-03,
119,-2.40e-03,
120,1.60e-03,
121,-2.40e-03,
122,-2.40e-03,
123,2.40e-03,
124,2.40e-03,
125,-2.40e-03,
126,2.00e-03,
127,-2.40e-03,
128,1.60e-03,
129,-2.40e-03,
130,-1.60e-03,
131,2.00e-03,
132,2.40e-03,
133,-2.40e-03,
134,1.60e-03,
135,-3.20e-03,
136,-2.40e-03,
137,2.40e-03,
138,-2.40e-03,
139,2.40e-03,
140,3.20e-03,
141,-1.60e-03,
142,2.40e-03,
143,-2.40e-03,
144,-1.60e-03,
145,2.40e-03,
146,2.40e-03,
147,-2.40e-03,
148,-1.60e-03,
149,2.40e-03,
150,-2.40e-03,
151,2.40e-03,
152,2.40e-03,
153,-2.40e-03,
154,-1.60e-03,
155,2.40e-03,
156,-1.60e-03,
157,2.40e-03,
158,1.60e-03,
159,-2.40e-03,
160,-2.40e-03,
161,1.60e-03,
162,-2.40e-03,
163,2.40e-03,
164,1.60e-03,
165,-3.20e-03,
166,-1.60e-03,
167,1.60e-03,
168,2.40e-03,
169,-2.40e-03,
170,-2.40e-03,
171,2.00e-03,
172,2.40e-03,
173,-2.40e-03,
174,-2.40e-03,
175,2.00e-03,
176,1.60e-03,
177,-2.40e-03,
178,1.60e-03,
179,-3.20e-03,
180,1.60e-03,
181,-2.40e-03,
182,-2.40e-03,
183,2.40e-03,
184,2.40e-03,
185,-2.40e-03,
186,-2.40e-03,
187,2.00e-03,
188,-2.40e-03,
189,2.40e-03,
190,-1.60e-03,
191,2.00e-03,
192,-3.20e-03,
193,1.60e-03,
194,1.60e-03,
195,-2.40e-03,
196,2.00e-03,
197,-2.40e-03,
198,2.40e-03,
199,-2.40e-03,
200,-2.40e-03,
201,2.40e-03,
202,-2.40e-03,
203,2.00e-03,
204,2.40e-03,
205,-2.40e-03,
206,-2.40e-03,
207,2.80e-03,
208,2.40e-03,
209,-2.40e-03,
210,-2.40e-03,
211,1.60e-03,
212,-2.40e-03,
213,2.00e-03,
214,1.60e-03,
215,-2.40e-03,
216,-2.40e-03,
217,2.00e-03,
218,-2.40e-03,
219,1.60e-03,
220,1.60e-03,
221,-2.40e-03,
222,1.60e-03,
223,-2.40e-03,
224,2.00e-03,
225,-2.40e-03,
226,2.40e-03,
227,-2.40e-03,
228,-1.60e-03,
229,2.00e-03,
230,2.40e-03,
231,-2.40e-03,
232,2.40e-03,
233,-2.40e-03,
234,-2.40e-03,
235,2.40e-03,
236,-1.60e-03,
237,2.40e-03,
238,2.00e-03,
239,-1.60e-03,
240,-1.60e-03,
241,2.00e-03,
242,1.60e-03,
243,-2.40e-03,
244,-2.40e-03,
245,1.60e-03,
246,-2.40e-03,
247,2.00e-03,
248,-2.40e-03,
249,2.40e-03,
250,-1.60e-03,
251,1.60e-03,
252,-1.60e-03,
253,2.40e-03,
254,1.60e-03,
255,-2.40e-03,
256,-1.60e-03,
257,3.20e-03,
258,2.40e-03,
259,-2.40e-03,
260,1.60e-03,
261,-1.60e-03,
262,-2.40e-03,
263,2.40e-03,
264,1.60e-03,
265,-2.40e-03,
266,-1.60e-03,
267,2.00e-03,
268,-1.60e-03,
269,2.40e-03,
270,1.60e-03,
271,-2.40e-03,
272,-2.40e-03,
273,2.40e-03,
274,-1.60e-03,
275,2.40e-03,
276,-2.40e-03,
277,2.40e-03,
278,1.60e-03,
279,-2.40e-03,
280,2.00e-03,
281,-2.40e-03,
282,2.40e-03,
283,-1.60e-03,
284,2.40e-03,
285,-2.00e-03,
286,1.60e-03,
287,-2.40e-03,
288,2.00e-03,
289,-1.60e-03,
290,-1.60e-03,
291,2.40e-03,
292,-1.60e-03,
293,2.40e-03,
294,-2.40e-03,
295,2.00e-03,
296,3.20e-03,
297,-2.40e-03,
298,-1.60e-03,
299,2.40e-03,
300,1.60e-03,
301,-2.40e-03,
302,-2.40e-03,
303,3.20e-03,
304,2.40e-03,
305,-1.60e-03,
306,-1.60e-03,
307,2.40e-03,
308,-1.60e-03,
309,2.40e-03,
310,2.40e-03,
311,-1.60e-03,
312,2.40e-03,
313,-1.60e-03,
314,2.40e-03,
315,-2.40e-03,
316,3.20e-03,
317,-2.40e-03,
318,-1.60e-03,
319,3.20e-03,
320,-1.60e-03,
321,2.40e-03,
322,3.20e-03,
323,-2.40e-03,
324,2.40e-03,
325,-1.60e-03,
326,-1.60e-03,
327,2.40e-03,
328,2.40e-03,
329,-1.60e-03,
330,2.00e-03,
331,-1.60e-03,
332,2.40e-03,
333,-1.60e-03,
334,-2.40e-03,
335,2.40e-03,
336,-1.60e-03,
337,2.40e-03,
338,2.40e-03,
339,-1.60e-03,
340,2.40e-03,
341,-1.60e-03,
342,3.20e-03,
343,-2.40e-03,
344,2.40e-03,
345,-2.40e-03,
346,2.40e-03,
347,-2.40e-03,
348,-2.40e-03,
349,2.00e-03,
350,-1.60e-03,
351,2.40e-03,
352,1.60e-03,
353,-2.40e-03,
354,-1.60e-03,
355,2.40e-03,
356,-2.40e-03,
357,2.40e-03,
358,2.00e-03,
359,-2.40e-03,
360,1.60e-03,
361,-1.60e-03,
362,-1.60e-03,
363,2.40e-03,
364,2.40e-03,
365,-2.40e-03,
366,-1.60e-03,
367,2.40e-03,
368,2.40e-03,
369,-2.40e-03,
370,-1.60e-03,
371,1.60e-03,
372,2.40e-03,
373,-2.40e-03,
374,2.00e-03,
375,-2.40e-03,
376,-2.40e-03,
377,1.60e-03,
378,-1.60e-03,
379,2.40e-03,
380,2.40e-03,
381,-2.40e-03,
382,2.40e-03,
383,-2.40e-03,
384,2.40e-03,
385,-2.40e-03,
386,2.40e-03,
387,-1.60e-03,
388,3.20e-03,
389,-2.40e-03,
390,2.00e-03,
391,-2.40e-03,
392,2.40e-03,
393,-1.60e-03,
394,2.80e-03,
395,-1.60e-03,
396,-1.60e-03,
397,2.40e-03,
398,2.40e-03,
399,-1.60e-03,
400,2.40e-03,
401,-1.60e-03,
402,2.40e-03,
403,-1.60e-03,
404,2.40e-03,
405,-2.00e-03,
406,2.40e-03,
407,-1.60e-03,
408,2.40e-03,
409,-2.40e-03,
410,-1.60e-03,
411,2.40e-03,
412,2.00e-03,
413,-2.40e-03,
414,-1.60e-03,
415,2.40e-03,
416,2.40e-03,
417,-3.20e-03,
418,2.40e-03,
419,-2.40e-03,
420,1.60e-03,
421,-2.40e-03,
422,-2.40e-03,
423,2.40e-03,
424,-2.40e-03,
425,1.60e-03,
426,-1.60e-03,
427,2.40e-03,
428,2.40e-03,
429,-2.40e-03,
430,2.40e-03,
431,-2.40e-03,
432,2.40e-03,
433,-1.60e-03,
434,-1.60e-03,
435,2.40e-03,
436,2.80e-03,
437,-2.40e-03,
438,-2.40e-03,
439,2.40e-03,
440,-1.60e-03,
441,2.40e-03,
442,-1.60e-03,
443,2.40e-03,
444,-1.60e-03,
445,2.40e-03,
446,2.40e-03,
447,-1.60e-03,
448,2.40e-03,
449,-2.40e-03,
450,2.40e-03,
451,-3.20e-03,
452,-2.40e-03,
453,1.60e-03,
454,-1.60e-03,
455,2.40e-03,
456,2.40e-03,
457,-1.60e-03,
458,-1.60e-03,
459,2.40e-03,
460,2.40e-03,
461,-2.40e-03,
462,-1.60e-03,
463,2.40e-03,
464,-1.60e-03,
465,2.40e-03,
466,-1.60e-03,
467,2.40e-03,
468,-2.40e-03,
469,2.40e-03,
470,2.80e-03,
471,-2.40e-03,
472,-2.40e-03,
473,2.40e-03,
474,-1.60e-03,
475,2.40e-03,
476,2.40e-03,
477,-2.40e-03,
478,2.40e-03,
479,-2.40e-03,
480,1.60e-03,
481,-2.40e-03,
482,-2.40e-03,
483,2.40e-03,
484,-2.40e-03,
485,3.20e-03,
486,2.00e-03,
487,-2.40e-03,
488,-2.40e-03,
489,1.60e-03,
490,2.00e-03,
491,-2.40e-03,
492,-1.60e-03,
493,2.00e-03,
494,2.80e-03,
495,-3.20e-03,
496,-2.40e-03,
497,2.00e-03,
498,2.40e-03,
499,-2.40e-03,
500,1.60e-03,
501,-2.40e-03,
502,-2.40e-03,
503,2.40e-03,
504,-2.40e-03,
505,2.40e-03,
506,-2.40e-03,
507,2.00e-03,
508,-2.40e-03,
509,2.40e-03,
510,-1.60e-03,
511,1.60e-03,
512,2.00e-03,
513,-2.40e-03,
514,-2.40e-03,
515,1.60e-03,
516,-2.40e-03,
517,2.40e-03,
518,-2.40e-03,
519,1.60e-03,
520,2.40e-03,
521,-2.40e-03,
522,1.60e-03,
523,-2.40e-03,
524,-2.40e-03,
525,2.00e-03,
526,2.80e-03,
527,-3.20e-03,
528,-3.20e-03,
529,1.60e-03,
530,-2.40e-03,
531,2.40e-03,
532,2.00e-03,
533,-2.40e-03,
534,-2.40e-03,
535,2.40e-03,
536,-2.40e-03,
537,1.60e-03,
538,-2.40e-03,
539,2.80e-03,
540,-1.60e-03,
541,2.40e-03,
542,2.40e-03,
543,-1.60e-03,
544,-1.60e-03,
545,2.00e-03,
546,1.60e-03,
547,-2.40e-03,
548,2.40e-03,
549,-2.40e-03,
550,-2.40e-03,
551,2.80e-03,
552,-1.60e-03,
553,2.40e-03,
554,2.80e-03,
555,-1.60e-03,
556,2.80e-03,
557,-2.40e-03,
558,-2.40e-03,
559,2.40e-03,
560,-1.60e-03,
561,2.40e-03,
562,1.60e-03,
563,-2.40e-03,
564,-1.60e-03,
565,1.60e-03,
566,-1.60e-03,
567,3.20e-03,
568,2.00e-03,
569,-2.40e-03,
570,-2.40e-03,
571,2.40e-03,
572,2.40e-03,
573,-2.40e-03,
574,-1.60e-03,
575,2.00e-03,
576,2.40e-03,
577,-2.40e-03,
578,2.40e-03,
579,-2.40e-03,
580,-2.40e-03,
581,1.60e-03,
582,2.40e-03,
583,-2.40e-03,
584,-1.60e-03,
585,2.40e-03,
586,-2.40e-03,
587,2.40e-03,
588,2.00e-03,
589,-1.60e-03,
590,2.00e-03,
591,-2.40e-03,
592,-1.60e-03,
593,2.40e-03,
594,-1.60e-03,
595,2.40e-03,
596,2.40e-03,
597,-2.40e-03,
598,-2.40e-03,
599,1.60e-03,
600,-1.60e-03,
601,2.40e-03,
602,2.40e-03,
603,-2.40e-03,
604,-1.60e-03,
605,2.40e-03,
606,1.60e-03,
607,-3.20e-03,
608,2.40e-03,
609,-1.60e-03,
610,2.40e-03,
611,-2.40e-03,
612,2.40e-03,
613,-1.60e-03,
614,2.40e-03,
615,-2.40e-03,
616,-2.40e-03,
617,2.40e-03,
618,1.60e-03,
619,-2.40e-03,
620,-2.40e-03,
621,3.20e-03,
622,1.60e-03,
623,-2.40e-03,
624,-2.40e-03,
625,2.40e-03,
626,-2.40e-03,
627,2.40e-03,
628,-1.60e-03,
629,1.60e-03,
630,1.60e-03,
631,-2.40e-03,
632,-1.60e-03,
633,1.60e-03,
634,-2.40e-03,
635,2.00e-03,
636,-1.60e-03,
637,2.00e-03,
638,2.40e-03,
639,-1.60e-03,
640,-2.40e-03,
641,2.40e-03,
642,-2.40e-03,
643,2.40e-03,
644,2.40e-03,
645,-1.60e-03,
646,-1.60e-03,
647,2.00e-03,
648,-1.60e-03,
649,2.40e-03,
650,-2.40e-03,
651,2.40e-03,
652,-2.40e-03,
653,2.40e-03,
654,1.60e-03,
655,-2.40e-03,
656,-1.60e-03,
657,2.40e-03,
658,2.40e-03,
659,-2.40e-03,
660,-1.60e-03,
661,2.40e-03,
662,2.40e-03,
663,-2.40e-03,
664,2.40e-03,
665,-2.40e-03,
666,2.40e-03,
667,-2.40e-03,
668,-1.60e-03,
669,3.20e-03,
670,-2.40e-03,
671,2.00e-03,
672,-1.60e-03,
673,2.40e-03,
674,-2.40e-03,
675,3.20e-03,
676,-2.40e-03,
677,2.40e-03,
678,2.40e-03,
679,-2.40e-03,
680,-2.40e-03,
681,2.40e-03,
682,2.40e-03,
683,-1.60e-03,
684,-1.60e-03,
685,2.40e-03,
686,2.40e-03,
687,-2.40e-03,
688,2.40e-03,
689,-1.60e-03,
690,1.60e-03,
691,-1.60e-03,
692,2.40e-03,
693,-2.40e-03,
694,2.80e-03,
695,-2.40e-03,
696,1.60e-03,
697,-2.40e-03,
698,2.40e-03,
699,-2.40e-03,
700,-2.40e-03,
701,1.60e-03,
702,-2.40e-03,
703,2.00e-03,
704,1.60e-03,
705,-2.40e-03,
706,-2.40e-03,
707,2.00e-03,
708,2.40e-03,
709,-3.20e-03,
710,2.40e-03,
711,-2.40e-03,
712,-2.00e-03,
713,2.40e-03,
714,2.00e-03,
715,-2.40e-03,
716,-2.40e-03,
717,2.00e-03,
718,2.40e-03,
719,-2.40e-03,
720,2.00e-03,
721,-1.60e-03,
722,-2.40e-03,
723,1.60e-03,
724,2.00e-03,
725,-1.60e-03,
726,-1.60e-03,
727,1.60e-03,
728,-2.40e-03,
729,8.00e-04,
730,-2.40e-03,
731,2.00e-03,
732,1.60e-03,
733,-2.40e-03,
734,1.60e-03,
735,-2.40e-03,
736,1.20e-03,
737,-2.40e-03,
738,2.00e-03,
739,-2.40e-03,
740,-1.60e-03,
741,2.00e-03,
742,-1.60e-03,
743,2.40e-03,
744,2.40e-03,
745,-1.60e-03,
746,-2.40e-03,
747,2.80e-03,
748,-2.40e-03,
749,2.40e-03,
750,2.40e-03,
751,-2.40e-03,
752,1.60e-03,
753,-3.20e-03,
754,-1.60e-03,
755,2.40e-03,
756,1.60e-03,
757,-2.00e-03,
758,-2.40e-03,
759,2.00e-03,
760,-3.20e-03,
761,1.60e-03,
762,2.40e-03,
763,-2.40e-03,
764,1.60e-03,
765,-2.40e-03,
766,1.60e-03,
767,-2.40e-03,
768,-1.60e-03,
769,2.00e-03,
770,-2.40e-03,
771,2.00e-03,
772,2.40e-03,
773,-2.40e-03,
774,-3.20e-03,
775,2.00e-03,
776,-3.20e-03,
777,2.40e-03,
778,-1.60e-03,
779,2.40e-03,
780,-1.60e-03,
781,2.40e-03,
782,1.60e-03,
783,-2.40e-03,
784,-3.20e-03,
785,2.40e-03,
786,-2.40e-03,
787,1.60e-03,
788,-2.40e-03,
789,1.60e-03,
790,2.00e-03,
791,-2.40e-03,
792,2.40e-03,
793,-1.60e-03,
794,-2.40e-03,
795,2.40e-03,
796,2.80e-03,
797,-2.40e-03,
798,1.60e-03,
799,-2.40e-03,
800,2.40e-03,
801,-2.40e-03,
802,1.60e-03,
803,-3.20e-03,
804,-1.60e-03,
805,1.60e-03,
806,-1.60e-03,
807,2.00e-03,
808,2.40e-03,
809,-1.60e-03,
810,2.40e-03,
811,-3.20e-03,
812,-2.40e-03,
813,1.60e-03,
814,1.20e-03,
815,-3.20e-03,
816,-3.20e-03,
817,1.60e-03,
818,1.60e-03,
819,-2.40e-03,
820,-3.20e-03,
821,1.60e-03,
822,1.60e-03,
823,-2.40e-03,
824,-2.40e-03,
825,2.40e-03,
826,-2.40e-03,
827,2.40e-03,
828,1.60e-03,
829,-2.40e-03,
830,2.00e-03,
831,-2.40e-03,
832,1.60e-03,
833,-1.60e-03,
834,1.60e-03,
835,-2.40e-03,
836,-3.20e-03,
837,2.40e-03,
838,-2.40e-03,
839,1.60e-03,
840,2.00e-03,
841,-2.40e-03,
842,-2.40e-03,
843,1.60e-03,
844,-1.60e-03,
845,2.40e-03,
846,2.40e-03,
847,-2.40e-03,
848,-1.60e-03,
849,2.40e-03,
850,2.40e-03,
851,-3.20e-03,
852,-1.60e-03,
853,2.40e-03,
854,-1.60e-03,
855,2.40e-03,
856,1.60e-03,
857,-1.60e-03,
858,2.00e-03,
859,-2.40e-03,
860,2.40e-03,
861,-2.40e-03,
862,1.60e-03,
863,-2.40e-03,
864,2.40e-03,
865,-2.40e-03,
866,1.60e-03,
867,-3.20e-03,
868,1.60e-03,
869,-2.40e-03,
870,2.40e-03,
871,-2.40e-03,
872,-2.40e-03,
873,1.60e-03,
874,1.60e-03,
875,-3.20e-03,
876,2.40e-03,
877,-3.20e-03,
878,-2.40e-03,
879,2.40e-03,
880,-2.40e-03,
881,2.40e-03,
882,-3.20e-03,
883,2.40e-03,
884,2.40e-03,
885,-2.40e-03,
886,-2.40e-03,
887,1.60e-03,
888,2.40e-03,
889,-2.40e-03,
890,-2.40e-03,
891,2.40e-03,
892,-2.40e-03,
893,1.60e-03,
894,-2.40e-03,
895,1.60e-03,
896,-2.40e-03,
897,2.40e-03,
898,-2.40e-03,
899,2.40e-03,
900,-2.40e-03,
901,2.00e-03,
902,-2.40e-03,
903,1.60e-03,
904,2.40e-03,
905,-2.40e-03,
906,1.60e-03,
907,-2.40e-03,
908,-2.40e-03,
909,1.60e-03,
910,-2.40e-03,
911,2.40e-03,
912,2.00e-03,
913,-2.40e-03,
914,-2.40e-03,
915,1.60e-03,
916,-2.40e-03,
917,1.60e-03,
918,1.60e-03,
919,-2.40e-03,
920,2.00e-03,
921,-2.40e-03,
922,-2.40e-03,
923,2.40e-03,
924,-2.40e-03,
925,1.60e-03,
926,2.40e-03,
927,-1.60e-03,
928,-1.60e-03,
929,1.60e-03,
930,2.40e-03,
931,-2.40e-03,
932,2.40e-03,
933,-2.40e-03,
934,-1.60e-03,
935,1.60e-03,
936,2.00e-03,
937,-2.40e-03,
938,1.60e-03,
939,-2.40e-03,
940,2.40e-03,
941,-2.40e-03,
942,2.40e-03,
943,-2.40e-03,
944,-2.40e-03,
945,2.40e-03,
946,1.60e-03,
947,-2.40e-03,
948,-2.40e-03,
949,1.60e-03,
950,-2.40e-03,
951,2.40e-03,
952,-2.40e-03,
953,3.20e-03,
954,-2.40e-03,
955,1.60e-03,
956,-2.40e-03,
957,1.60e-03,
958,-2.40e-03,
959,1.60e-03,
960,2.40e-03,
961,-2.40e-03,
962,-2.40e-03,
963,1.60e-03,
964,-2.40e-03,
965,2.40e-03,
966,-2.40e-03,
967,2.40e-03,
968,-1.60e-03,
969,2.40e-03,
970,-1.60e-03,
971,2.00e-03,
972,-2.40e-03,
973,2.00e-03,
974,-2.40e-03,
975,1.60e-03,
976,2.00e-03,
977,-2.40e-03,
978,2.40e-03,
979,-2.40e-03,
980,1.60e-03,
981,-3.20e-03,
982,-2.40e-03,
983,2.40e-03,
984,-2.40e-03,
985,2.40e-03,
986,-2.40e-03,
987,2.40e-03,
988,-2.40e-03,
989,2.40e-03,
990,2.00e-03,
991,-2.40e-03,
992,1.60e-03,
993,-2.40e-03,
994,-2.40e-03,
995,2.40e-03,
996,-1.60e-03,
997,1.60e-03,
998,1.60e-03,
999,-2.40e-03,
1000,2.00e-03,
1001,-1.60e-03,
1002,2.40e-03,
1003,-1.60e-03,
1004,-2.40e-03,
1005,2.40e-03,
1006,-2.40e-03,
1007,2.00e-03,
1008,-2.40e-03,
1009,1.60e-03,
1010,-3.20e-03,
1011,1.60e-03,
1012,1.60e-03,
1013,-2.40e-03,
1014,2.40e-03,
1015,-3.20e-03,
1016,-2.40e-03,
1017,3.20e-03,
1018,2.40e-03,
1019,-2.40e-03,
1020,1.60e-03,
1021,-3.20e-03,
1022,1.60e-03,
1023,-3.20e-03,
1024,2.80e-03,
1025,-3.20e-03,
1026,-2.40e-03,
1027,2.40e-03,
1028,3.20e-03,
1029,-2.80e-03,
1030,-2.40e-03,
1031,2.40e-03,
1032,2.00e-03,
1033,-2.40e-03,
1034,-2.40e-03,
1035,2.40e-03,
1036,1.60e-03,
1037,-3.20e-03,
1038,2.00e-03,
1039,-3.20e-03,
1040,-2.40e-03,
1041,1.20e-03,
1042,-2.40e-03,
1043,2.40e-03,
1044,-1.60e-03,
1045,2.40e-03,
1046,-2.40e-03,
1047,1.60e-03,
1048,-2.40e-03,
1049,2.40e-03,
1050,2.40e-03,
1051,-2.40e-03,
1052,-2.40e-03,
1053,2.40e-03,
1054,-2.40e-03,
1055,1.60e-03,
1056,-2.40e-03,
1057,2.40e-03,
1058,-2.40e-03,
1059,2.40e-03,
1060,-2.40e-03,
1061,2.80e-03,
1062,-1.60e-03,
1063,2.40e-03,
1064,-1.60e-03,
1065,2.40e-03,
1066,2.40e-03,
1067,-1.60e-03,
1068,3.20e-03,
1069,-2.40e-03,
1070,-2.40e-03,
1071,1.60e-03,
1072,1.60e-03,
1073,-2.40e-03,
1074,-1.60e-03,
1075,2.40e-03,
1076,2.40e-03,
1077,-2.40e-03,
1078,2.00e-03,
1079,-2.40e-03,
1080,-2.40e-03,
1081,1.60e-03,
1082,2.40e-03,
1083,-2.40e-03,
1084,1.60e-03,
1085,-3.20e-03,
1086,2.40e-03,
1087,-2.40e-03,
1088,-2.00e-03,
1089,2.00e-03,
1090,-2.40e-03,
1091,1.60e-03,
1092,-2.40e-03,
1093,2.00e-03,
1094,-2.40e-03,
1095,1.60e-03,
1096,3.20e-03,
1097,-2.40e-03,
1098,1.60e-03,
1099,-2.40e-03,
1100,-1.60e-03,
1101,2.00e-03,
1102,-2.40e-03,
1103,2.80e-03,
1104,-2.40e-03,
1105,1.60e-03,
1106,1.60e-03,
1107,-2.40e-03,
1108,-2.40e-03,
1109,2.40e-03,
1110,-1.60e-03,
1111,2.40e-03,
1112,2.40e-03,
1113,-2.40e-03,
1114,2.80e-03,
1115,-2.40e-03,
1116,2.40e-03,
1117,-2.40e-03,
1118,-2.40e-03,
1119,2.40e-03,
1120,-1.60e-03,
1121,3.20e-03,
1122,-2.40e-03,
1123,2.80e-03,
1124,-2.40e-03,
1125,2.00e-03,
1126,2.00e-03,
1127,-2.40e-03,
1128,-3.20e-03,
1129,2.40e-03,
1130,1.60e-03,
1131,-2.40e-03,
1132,-2.40e-03,
1133,2.40e-03,
1134,-3.20e-03,
1135,2.00e-03,
1136,-2.40e-03,
1137,2.40e-03,
1138,1.60e-03,
1139,-2.40e-03,
1140,-1.60e-03,
1141,2.40e-03,
1142,-2.40e-03,
1143,3.20e-03,
1144,-2.40e-03,
1145,2.40e-03,
1146,-2.40e-03,
1147,2.40e-03,
1148,-1.60e-03,
1149,2.80e-03,
1150,-2.40e-03,
1151,2.40e-03,
1152,2.40e-03,
1153,-1.60e-03,
1154,-2.40e-03,
1155,2.40e-03,
1156,2.40e-03,
1157,-2.40e-03,
1158,-2.40e-03,
1159,2.40e-03,
1160,2.40e-03,
1161,-2.40e-03,
1162,-2.40e-03,
1163,2.40e-03,
1164,-1.60e-03,
1165,2.00e-03,
1166,-2.40e-03,
1167,2.40e-03,
1168,-2.40e-03,
1169,1.60e-03,
1170,-1.60e-03,
1171,2.40e-03,
1172,1.60e-03,
1173,-2.40e-03,
1174,-1.60e-03,
1175,3.20e-03,
1176,1.60e-03,
1177,-2.40e-03,
1178,-2.40e-03,
1179,2.00e-03,
1180,1.60e-03,
1181,-2.40e-03,
1182,-1.60e-03,
1183,2.40e-03,
1184,2.40e-03,
1185,-2.40e-03,
1186,1.60e-03,
1187,-1.60e-03,
1188,-2.40e-03,
1189,2.40e-03,
1190,2.00e-03,
1191,-2.40e-03,
1192,1.60e-03,
1193,-2.40e-03,
1194,-2.40e-03,
1195,2.40e-03,
1196,-1.60e-03,
1197,2.40e-03,
1198,2.00e-03,
1199,-2.40e-03,
