fastdiffamp/data-noise-set/old-str-wk/strong-unb/NewFile1.csv

X,CH1,Start,Increment,
Sequence,Volt,-1.148000e+01,2.000000e-02
0,-2.40e-03,
1,1.20e-03,
2,-2.40e-03,
3,1.20e-03,
4,-2.40e-03,
5,8.00e-04,
6,-2.40e-03,
7,2.40e-03,
8,-3.20e-03,
9,8.00e-04,
10,8.00e-04,
11,-2.40e-03,
12,-3.20e-03,
13,1.60e-03,
14,2.00e-03,
15,-1.60e-03,
16,-2.40e-03,
17,1.20e-03,
18,-2.40e-03,
19,1.20e-03,
20,-2.40e-03,
21,1.60e-03,
22,-3.20e-03,
23,1.60e-03,
24,1.20e-03,
25,-2.40e-03,
26,-1.60e-03,
27,2.00e-03,
28,-1.60e-03,
29,1.20e-03,
30,2.00e-03,
31,-2.40e-03,
32,8.00e-04,
33,-2.40e-03,
34,-2.40e-03,
35,1.20e-03,
36,-1.60e-03,
37,1.20e-03,
38,1.60e-03,
39,-2.40e-03,
40,-2.40e-03,
41,1.60e-03,
42,-2.40e-03,
43,1.20e-03,
44,-1.60e-03,
45,1.60e-03,
46,-2.40e-03,
47,1.60e-03,
48,1.60e-03,
49,-2.40e-03,
50,1.60e-03,
51,-3.20e-03,
52,-2.40e-03,
53,1.60e-03,
54,8.00e-04,
55,-3.20e-03,
56,1.20e-03,
57,-2.40e-03,
58,-2.40e-03,
59,1.60e-03,
60,1.60e-03,
61,-2.40e-03,
62,-1.60e-03,
63,2.00e-03,
64,-2.40e-03,
65,1.60e-03,
66,-2.40e-03,
67,1.20e-03,
68,-1.60e-03,
69,1.60e-03,
70,1.20e-03,
71,-3.20e-03,
72,1.60e-03,
73,-2.40e-03,
74,-2.40e-03,
75,1.60e-03,
76,8.00e-04,
77,-2.40e-03,
78,2.00e-03,
79,-2.40e-03,
80,1.20e-03,
81,-2.40e-03,
82,1.60e-03,
83,-2.40e-03,
84,-2.40e-03,
85,1.60e-03,
86,-2.40e-03,
87,1.60e-03,
88,-1.60e-03,
89,1.20e-03,
90,8.00e-04,
91,-2.40e-03,
92,1.20e-03,
93,-2.40e-03,
94,-1.60e-03,
95,1.20e-03,
96,1.20e-03,
97,-2.40e-03,
98,-2.40e-03,
99,1.60e-03,
100,1.60e-03,
101,-2.40e-03,
102,1.20e-03,
103,-2.40e-03,
104,-2.40e-03,
105,1.20e-03,
106,-2.40e-03,
107,1.20e-03,
108,-2.40e-03,
109,8.00e-04,
110,-2.40e-03,
111,1.60e-03,
112,-2.40e-03,
113,1.60e-03,
114,-1.60e-03,
115,1.60e-03,
116,8.00e-04,
117,-1.60e-03,
118,2.00e-03,
119,-3.20e-03,
120,-1.60e-03,
121,1.60e-03,
122,-2.40e-03,
123,1.60e-03,
124,-2.40e-03,
125,1.60e-03,
126,8.00e-04,
127,-2.40e-03,
128,1.60e-03,
129,-2.40e-03,
130,-2.40e-03,
131,1.20e-03,
132,8.00e-04,
133,-2.40e-03,
134,-2.40e-03,
135,1.60e-03,
136,1.60e-03,
137,-2.40e-03,
138,8.00e-04,
139,-1.60e-03,
140,-2.40e-03,
141,2.00e-03,
142,-2.40e-03,
143,1.60e-03,
144,-1.60e-03,
145,1.60e-03,
146,2.40e-03,
147,-2.40e-03,
148,-2.40e-03,
149,1.60e-03,
150,-2.40e-03,
151,1.60e-03,
152,1.20e-03,
153,-2.40e-03,
154,1.20e-03,
155,-2.40e-03,
156,1.20e-03,
157,-2.40e-03,
158,-2.40e-03,
159,1.60e-03,
160,1.20e-03,
161,-2.40e-03,
162,-2.40e-03,
163,1.20e-03,
164,1.20e-03,
165,-2.40e-03,
166,-2.40e-03,
167,8.00e-04,
168,-2.40e-03,
169,1.20e-03,
170,1.20e-03,
171,-2.40e-03,
172,8.00e-04,
173,-2.40e-03,
174,-2.40e-03,
175,8.00e-04,
176,-2.40e-03,
177,8.00e-04,
178,-2.40e-03,
179,1.60e-03,
180,-1.60e-03,
181,1.60e-03,
182,2.40e-03,
183,-2.40e-03,
184,1.60e-03,
185,-2.40e-03,
186,-1.60e-03,
187,1.60e-03,
188,1.60e-03,
189,-2.40e-03,
190,-3.20e-03,
191,1.20e-03,
192,1.60e-03,
193,-2.40e-03,
194,8.00e-04,
195,-2.40e-03,
196,-2.40e-03,
197,1.20e-03,
198,-2.40e-03,
199,1.60e-03,
200,1.20e-03,
201,-2.40e-03,
202,2.00e-03,
203,-2.40e-03,
204,-2.40e-03,
205,1.60e-03,
206,1.60e-03,
207,-1.60e-03,
208,1.60e-03,
209,-1.60e-03,
210,1.60e-03,
211,-2.40e-03,
212,1.60e-03,
213,-2.40e-03,
214,-2.40e-03,
215,1.60e-03,
216,1.20e-03,
217,-2.40e-03,
218,-2.40e-03,
219,2.00e-03,
220,-2.40e-03,
221,1.20e-03,
222,1.60e-03,
223,-2.40e-03,
224,-1.60e-03,
225,1.60e-03,
226,1.60e-03,
227,-2.40e-03,
228,8.00e-04,
229,-2.40e-03,
230,-2.40e-03,
231,1.20e-03,
232,1.20e-03,
233,-2.40e-03,
234,-2.40e-03,
235,1.20e-03,
236,1.60e-03,
237,-2.40e-03,
238,-2.40e-03,
239,1.20e-03,
240,1.20e-03,
241,-3.20e-03,
242,1.60e-03,
243,-2.40e-03,
244,1.60e-03,
245,-2.40e-03,
246,-2.40e-03,
247,1.20e-03,
248,-2.40e-03,
249,8.00e-04,
250,-2.40e-03,
251,8.00e-04,
252,8.00e-04,
253,-3.20e-03,
254,1.20e-03,
255,-2.40e-03,
256,-2.40e-03,
257,1.60e-03,
258,1.60e-03,
259,-2.40e-03,
260,2.00e-03,
261,-3.20e-03,
262,1.20e-03,
263,-2.40e-03,
264,-1.60e-03,
265,1.20e-03,
266,-1.60e-03,
267,1.60e-03,
268,-2.40e-03,
269,1.60e-03,
270,-2.40e-03,
271,8.00e-04,
272,1.60e-03,
273,-2.40e-03,
274,1.60e-03,
275,-2.40e-03,
276,1.60e-03,
277,-2.40e-03,
278,-2.40e-03,
279,1.60e-03,
280,-2.40e-03,
281,1.60e-03,
282,-2.40e-03,
283,1.20e-03,
284,-2.40e-03,
285,1.60e-03,
286,-2.40e-03,
287,1.60e-03,
288,-2.40e-03,
289,1.60e-03,
290,-2.40e-03,
291,8.00e-04,
292,-2.40e-03,
293,8.00e-04,
294,-2.40e-03,
295,8.00e-04,
296,-2.40e-03,
297,1.20e-03,
298,1.60e-03,
299,-2.40e-03,
300,1.60e-03,
301,-2.40e-03,
302,-2.40e-03,
303,1.20e-03,
304,1.60e-03,
305,-2.40e-03,
306,-2.40e-03,
307,1.20e-03,
308,-1.60e-03,
309,1.60e-03,
310,8.00e-04,
311,-1.60e-03,
312,1.20e-03,
313,-2.40e-03,
314,2.00e-03,
315,-2.40e-03,
316,-2.40e-03,
317,1.60e-03,
318,-1.60e-03,
319,1.60e-03,
320,-2.40e-03,
321,1.60e-03,
322,1.60e-03,
323,-2.40e-03,
324,1.20e-03,
325,-2.40e-03,
326,-1.60e-03,
327,2.00e-03,
328,1.60e-03,
329,-2.40e-03,
330,1.60e-03,
331,-2.40e-03,
332,1.60e-03,
333,-2.40e-03,
334,-2.40e-03,
335,1.20e-03,
336,1.60e-03,
337,-2.40e-03,
338,-2.40e-03,
339,1.60e-03,
340,-2.40e-03,
341,1.20e-03,
342,8.00e-04,
343,-2.40e-03,
344,1.20e-03,
345,-1.60e-03,
346,1.20e-03,
347,-3.20e-03,
348,-2.40e-03,
349,1.20e-03,
350,1.60e-03,
351,-2.40e-03,
352,1.60e-03,
353,-3.20e-03,
354,-2.40e-03,
355,1.60e-03,
356,-2.40e-03,
357,1.60e-03,
358,-2.40e-03,
359,1.20e-03,
360,-2.40e-03,
361,1.20e-03,
362,-1.60e-03,
363,1.60e-03,
364,-2.40e-03,
365,1.20e-03,
366,1.60e-03,
367,-2.40e-03,
368,1.60e-03,
369,-2.40e-03,
370,-2.40e-03,
371,1.20e-03,
372,1.60e-03,
373,-2.40e-03,
374,-2.40e-03,
375,8.00e-04,
376,-3.20e-03,
377,1.60e-03,
378,-2.40e-03,
379,1.20e-03,
380,-1.60e-03,
381,1.60e-03,
382,-2.40e-03,
383,1.60e-03,
384,1.60e-03,
385,-1.60e-03,
386,-2.40e-03,
387,1.20e-03,
388,8.00e-04,
389,-2.00e-03,
390,-1.60e-03,
391,1.60e-03,
392,1.20e-03,
393,-2.40e-03,
394,1.60e-03,
395,-2.40e-03,
396,-1.60e-03,
397,1.60e-03,
398,-1.60e-03,
399,1.60e-03,
400,1.20e-03,
401,-2.40e-03,
402,-2.40e-03,
403,8.00e-04,
404,-2.40e-03,
405,1.60e-03,
406,-1.60e-03,
407,2.00e-03,
408,-2.40e-03,
409,1.60e-03,
410,-2.40e-03,
411,2.00e-03,
412,-1.60e-03,
413,1.60e-03,
414,1.60e-03,
415,-2.40e-03,
416,-1.60e-03,
417,1.20e-03,
418,-1.60e-03,
419,1.60e-03,
420,2.40e-03,
421,-2.40e-03,
422,8.00e-04,
423,-2.40e-03,
424,2.40e-03,
425,-2.40e-03,
426,-1.60e-03,
427,1.20e-03,
428,1.60e-03,
429,-2.40e-03,
430,-2.40e-03,
431,1.60e-03,
432,-1.60e-03,
433,1.20e-03,
434,2.00e-03,
435,-2.40e-03,
436,1.20e-03,
437,-2.40e-03,
438,1.60e-03,
439,-2.40e-03,
440,-2.40e-03,
441,1.20e-03,
442,1.20e-03,
443,-2.40e-03,
444,1.60e-03,
445,-2.40e-03,
446,1.20e-03,
447,-3.20e-03,
448,1.60e-03,
449,-2.40e-03,
450,-3.20e-03,
451,1.60e-03,
452,-2.40e-03,
453,1.60e-03,
454,1.20e-03,
455,-2.40e-03,
456,8.00e-04,
457,-1.60e-03,
458,-2.40e-03,
459,1.60e-03,
460,-2.40e-03,
461,2.00e-03,
462,-2.40e-03,
463,1.60e-03,
464,8.00e-04,
465,-2.40e-03,
466,-1.60e-03,
467,1.60e-03,
468,-2.40e-03,
469,1.60e-03,
470,1.60e-03,
471,-2.40e-03,
472,-2.40e-03,
473,1.60e-03,
474,1.20e-03,
475,-2.40e-03,
476,-2.40e-03,
477,1.20e-03,
478,-3.20e-03,
479,1.60e-03,
480,-2.40e-03,
481,8.00e-04,
482,1.20e-03,
483,-2.40e-03,
484,-1.60e-03,
485,2.00e-03,
486,1.60e-03,
487,-2.40e-03,
488,-2.40e-03,
489,8.00e-04,
490,-1.60e-03,
491,1.60e-03,
492,1.60e-03,
493,-2.40e-03,
494,-1.60e-03,
495,2.00e-03,
496,-1.60e-03,
497,1.60e-03,
498,-2.40e-03,
499,1.20e-03,
500,-2.40e-03,
501,1.60e-03,
502,1.60e-03,
503,-2.40e-03,
504,1.60e-03,
505,-2.40e-03,
506,-1.60e-03,
507,1.60e-03,
508,-2.40e-03,
509,1.60e-03,
510,-2.40e-03,
511,1.60e-03,
512,-2.40e-03,
513,1.60e-03,
514,-2.40e-03,
515,1.60e-03,
516,-2.40e-03,
517,2.00e-03,
518,-2.40e-03,
519,8.00e-04,
520,-2.40e-03,
521,1.20e-03,
522,8.00e-04,
523,-2.40e-03,
524,-3.20e-03,
525,1.20e-03,
526,-2.40e-03,
527,2.40e-03,
528,1.60e-03,
529,-2.40e-03,
530,8.00e-04,
531,-2.40e-03,
532,-2.40e-03,
533,1.20e-03,
534,-2.40e-03,
535,1.20e-03,
536,-2.40e-03,
537,1.60e-03,
538,1.20e-03,
539,-2.40e-03,
540,-2.40e-03,
541,8.00e-04,
542,-2.40e-03,
543,1.60e-03,
544,-2.40e-03,
545,1.60e-03,
546,1.60e-03,
547,-2.40e-03,
548,1.60e-03,
549,-2.40e-03,
550,-2.40e-03,
551,8.00e-04,
552,-1.60e-03,
553,1.20e-03,
554,1.60e-03,
555,-2.40e-03,
556,-2.40e-03,
557,8.00e-04,
558,-1.60e-03,
559,2.00e-03,
560,-2.40e-03,
561,1.60e-03,
562,1.60e-03,
563,-3.20e-03,
564,-2.40e-03,
565,1.60e-03,
566,-1.60e-03,
567,1.20e-03,
568,-2.40e-03,
569,2.00e-03,
570,-1.60e-03,
571,2.00e-03,
572,-2.40e-03,
573,1.60e-03,
574,-3.20e-03,
575,1.60e-03,
576,1.60e-03,
577,-2.40e-03,
578,8.00e-04,
579,-2.40e-03,
580,1.60e-03,
581,-3.20e-03,
582,1.20e-03,
583,-2.40e-03,
584,-2.40e-03,
585,1.60e-03,
586,-2.40e-03,
587,1.20e-03,
588,-2.40e-03,
589,2.00e-03,
590,-1.60e-03,
591,1.60e-03,
592,-2.40e-03,
593,1.60e-03,
594,-2.40e-03,
595,1.60e-03,
596,1.60e-03,
597,-2.40e-03,
598,-1.60e-03,
599,2.40e-03,
600,1.60e-03,
601,-2.40e-03,
602,1.60e-03,
603,-2.40e-03,
604,-2.40e-03,
605,1.60e-03,
606,-2.40e-03,
607,2.00e-03,
608,-1.60e-03,
609,1.60e-03,
610,1.60e-03,
611,-2.40e-03,
612,-2.40e-03,
613,1.60e-03,
614,-1.60e-03,
615,1.60e-03,
616,1.60e-03,
617,-2.40e-03,
618,-3.20e-03,
619,1.60e-03,
620,-1.60e-03,
621,2.00e-03,
622,1.60e-03,
623,-2.40e-03,
624,-1.60e-03,
625,2.40e-03,
626,-1.60e-03,
627,2.00e-03,
628,2.00e-03,
629,-2.40e-03,
630,-2.40e-03,
631,1.60e-03,
632,-2.40e-03,
633,1.60e-03,
634,-1.60e-03,
635,2.40e-03,
636,-1.60e-03,
637,2.40e-03,
638,-2.40e-03,
639,2.40e-03,
640,2.00e-03,
641,-2.40e-03,
642,8.00e-04,
643,-1.60e-03,
644,1.60e-03,
645,-2.40e-03,
646,-1.60e-03,
647,1.60e-03,
648,-1.60e-03,
649,1.60e-03,
650,-1.60e-03,
651,1.60e-03,
652,-2.40e-03,
653,1.60e-03,
654,-1.60e-03,
655,1.60e-03,
656,-1.60e-03,
657,2.00e-03,
658,-1.60e-03,
659,2.40e-03,
660,-1.60e-03,
661,2.00e-03,
662,1.60e-03,
663,-1.60e-03,
664,1.60e-03,
665,-2.40e-03,
666,-1.60e-03,
667,1.60e-03,
668,-1.60e-03,
669,2.00e-03,
670,1.60e-03,
671,-2.40e-03,
672,1.60e-03,
673,-2.40e-03,
674,1.20e-03,
675,-2.40e-03,
676,2.00e-03,
677,-2.40e-03,
678,1.60e-03,
679,-2.40e-03,
680,2.40e-03,
681,-2.40e-03,
682,-1.60e-03,
683,2.00e-03,
684,2.40e-03,
685,-2.40e-03,
686,-1.60e-03,
687,2.00e-03,
688,2.00e-03,
689,-2.40e-03,
690,-2.40e-03,
691,1.60e-03,
692,-2.00e-03,
693,1.60e-03,
694,-2.40e-03,
695,1.20e-03,
696,-2.40e-03,
697,1.20e-03,
698,-1.60e-03,
699,1.60e-03,
700,1.20e-03,
701,-2.40e-03,
702,1.60e-03,
703,-1.60e-03,
704,-1.60e-03,
705,2.40e-03,
706,-2.40e-03,
707,1.60e-03,
708,1.60e-03,
709,-2.40e-03,
710,-1.60e-03,
711,1.60e-03,
712,1.60e-03,
713,-1.60e-03,
714,1.60e-03,
715,-2.40e-03,
716,8.00e-04,
717,-3.20e-03,
718,1.60e-03,
719,-2.40e-03,
720,-2.40e-03,
721,2.00e-03,
722,-2.40e-03,
723,1.60e-03,
724,-2.40e-03,
725,1.60e-03,
726,-2.40e-03,
727,1.60e-03,
728,-2.40e-03,
729,1.20e-03,
730,-2.40e-03,
731,1.60e-03,
732,1.20e-03,
733,-2.40e-03,
734,-3.20e-03,
735,1.60e-03,
736,-2.40e-03,
737,1.20e-03,
738,1.60e-03,
739,-2.40e-03,
740,8.00e-04,
741,-3.20e-03,
742,-2.40e-03,
743,2.40e-03,
744,-2.40e-03,
745,1.60e-03,
746,-2.40e-03,
747,1.60e-03,
748,1.60e-03,
749,-2.40e-03,
750,1.60e-03,
751,-2.40e-03,
752,2.00e-03,
753,-2.40e-03,
754,-1.60e-03,
755,1.60e-03,
756,-2.40e-03,
757,1.20e-03,
758,-2.40e-03,
759,1.60e-03,
760,2.00e-03,
761,-2.40e-03,
762,-3.20e-03,
763,1.60e-03,
764,2.00e-03,
765,-2.40e-03,
766,1.20e-03,
767,-3.20e-03,
768,-2.40e-03,
769,2.00e-03,
770,-2.40e-03,
771,1.20e-03,
772,1.20e-03,
773,-1.60e-03,
774,-1.60e-03,
775,1.20e-03,
776,-2.40e-03,
777,2.00e-03,
778,2.40e-03,
779,-2.40e-03,
780,1.20e-03,
781,-2.40e-03,
782,-2.40e-03,
783,1.60e-03,
784,1.20e-03,
785,-2.40e-03,
786,1.60e-03,
787,-3.20e-03,
788,1.20e-03,
789,-2.40e-03,
790,-2.40e-03,
791,1.20e-03,
792,1.60e-03,
793,-2.40e-03,
794,-1.60e-03,
795,1.20e-03,
796,2.40e-03,
797,-2.40e-03,
798,8.00e-04,
799,-1.60e-03,
800,1.20e-03,
801,-2.40e-03,
802,2.40e-03,
803,-3.20e-03,
804,-2.40e-03,
805,1.20e-03,
806,1.60e-03,
807,-2.40e-03,
808,1.60e-03,
809,-2.40e-03,
810,-1.60e-03,
811,1.60e-03,
812,1.20e-03,
813,-2.40e-03,
814,-1.60e-03,
815,1.20e-03,
816,1.20e-03,
817,-2.40e-03,
818,1.20e-03,
819,-3.20e-03,
820,1.60e-03,
821,-1.60e-03,
822,1.60e-03,
823,-2.40e-03,
824,-2.40e-03,
825,1.60e-03,
826,8.00e-04,
827,-2.80e-03,
828,1.60e-03,
829,-2.40e-03,
830,-2.40e-03,
831,1.60e-03,
832,1.20e-03,
833,-2.40e-03,
834,-2.40e-03,
835,1.60e-03,
836,1.60e-03,
837,-2.40e-03,
838,-2.40e-03,
839,1.60e-03,
840,1.20e-03,
841,-2.40e-03,
842,-2.40e-03,
843,1.60e-03,
844,1.60e-03,
845,-2.40e-03,
846,1.60e-03,
847,-2.40e-03,
848,-2.40e-03,
849,1.60e-03,
850,2.00e-03,
851,-3.20e-03,
852,-2.40e-03,
853,2.00e-03,
854,-2.40e-03,
855,1.60e-03,
856,-1.60e-03,
857,1.60e-03,
858,-1.60e-03,
859,2.40e-03,
860,-2.40e-03,
861,1.60e-03,
862,-2.40e-03,
863,1.60e-03,
864,-1.60e-03,
865,1.20e-03,
866,-2.40e-03,
867,1.60e-03,
868,-2.40e-03,
869,1.60e-03,
870,1.60e-03,
871,-2.40e-03,
872,-1.60e-03,
873,1.20e-03,
874,-1.60e-03,
875,1.60e-03,
876,1.60e-03,
877,-2.40e-03,
878,-1.60e-03,
879,2.40e-03,
880,-2.40e-03,
881,2.00e-03,
882,1.60e-03,
883,-2.40e-03,
884,-1.60e-03,
885,1.60e-03,
886,1.60e-03,
887,-3.20e-03,
888,1.60e-03,
889,-2.40e-03,
890,-1.60e-03,
891,2.00e-03,
892,1.60e-03,
893,-2.40e-03,
894,8.00e-04,
895,-2.40e-03,
896,-2.40e-03,
897,1.20e-03,
898,-2.40e-03,
899,1.60e-03,
900,-2.40e-03,
901,1.60e-03,
902,1.60e-03,
903,-2.40e-03,
904,2.00e-03,
905,-2.40e-03,
906,1.60e-03,
907,-2.40e-03,
908,1.60e-03,
909,-2.40e-03,
910,1.20e-03,
911,-3.20e-03,
912,-2.80e-03,
913,2.40e-03,
914,-2.40e-03,
915,1.60e-03,
916,8.00e-04,
917,-2.40e-03,
918,1.20e-03,
919,-2.40e-03,
920,-1.60e-03,
921,1.60e-03,
922,1.20e-03,
923,-3.20e-03,
924,-3.20e-03,
925,8.00e-04,
926,-2.40e-03,
927,1.20e-03,
928,1.60e-03,
929,-2.40e-03,
930,-1.60e-03,
931,8.00e-04,
932,1.60e-03,
933,-2.40e-03,
934,1.20e-03,
935,-2.40e-03,
936,-1.60e-03,
937,1.60e-03,
938,1.60e-03,
939,-2.40e-03,
940,1.60e-03,
941,-2.40e-03,
942,-2.40e-03,
943,1.20e-03,
944,-1.60e-03,
945,1.60e-03,
946,1.20e-03,
947,-2.40e-03,
948,-2.40e-03,
949,2.40e-03,
950,-2.40e-03,
951,1.20e-03,
952,-1.60e-03,
953,1.60e-03,
954,-2.40e-03,
955,1.60e-03,
956,1.60e-03,
957,-2.00e-03,
958,1.20e-03,
959,-1.60e-03,
960,1.60e-03,
961,-2.40e-03,
962,2.40e-03,
963,-2.40e-03,
964,-2.40e-03,
965,1.60e-03,
966,-2.40e-03,
967,1.60e-03,
968,1.20e-03,
969,-2.40e-03,
970,1.60e-03,
971,-2.40e-03,
972,-2.40e-03,
973,1.20e-03,
974,2.00e-03,
975,-2.40e-03,
976,-2.40e-03,
977,1.60e-03,
978,1.60e-03,
979,-2.40e-03,
980,-2.40e-03,
981,1.60e-03,
982,-2.40e-03,
983,2.00e-03,
984,1.60e-03,
985,-2.40e-03,
986,-2.40e-03,
987,8.00e-04,
988,-2.40e-03,
989,1.60e-03,
990,1.60e-03,
991,-2.40e-03,
992,-1.60e-03,
993,1.20e-03,
994,-3.20e-03,
995,1.60e-03,
996,1.20e-03,
997,-2.40e-03,
998,-1.60e-03,
999,1.60e-03,
1000,1.60e-03,
1001,-2.40e-03,
1002,1.60e-03,
1003,-2.40e-03,
1004,1.60e-03,
1005,-2.40e-03,
1006,-1.60e-03,
1007,1.20e-03,
1008,1.60e-03,
1009,-3.20e-03,
1010,8.00e-04,
1011,-2.40e-03,
1012,-1.60e-03,
1013,1.60e-03,
1014,-1.60e-03,
1015,1.60e-03,
1016,1.60e-03,
1017,-2.40e-03,
1018,-2.40e-03,
1019,1.60e-03,
1020,-1.60e-03,
1021,1.60e-03,
1022,-3.20e-03,
1023,1.20e-03,
1024,-2.40e-03,
1025,1.60e-03,
1026,-1.60e-03,
1027,1.60e-03,
1028,-2.40e-03,
1029,8.00e-04,
1030,-2.40e-03,
1031,1.60e-03,
1032,-2.40e-03,
1033,1.60e-03,
1034,-1.60e-03,
1035,2.00e-03,
1036,1.60e-03,
1037,-2.40e-03,
1038,1.60e-03,
1039,-2.40e-03,
1040,-2.40e-03,
1041,1.60e-03,
1042,-1.60e-03,
1043,1.60e-03,
1044,1.60e-03,
1045,-2.40e-03,
1046,-2.40e-03,
1047,2.00e-03,
1048,-2.40e-03,
1049,2.40e-03,
1050,1.60e-03,
1051,-2.40e-03,
1052,-2.40e-03,
1053,1.60e-03,
1054,2.00e-03,
1055,-2.40e-03,
1056,-2.40e-03,
1057,2.40e-03,
1058,-3.20e-03,
1059,1.60e-03,
1060,-2.40e-03,
1061,1.60e-03,
1062,-3.20e-03,
1063,1.60e-03,
1064,2.00e-03,
1065,-2.40e-03,
1066,-1.60e-03,
1067,2.00e-03,
1068,1.20e-03,
1069,-2.40e-03,
1070,1.60e-03,
1071,-1.60e-03,
1072,-2.40e-03,
1073,1.20e-03,
1074,-1.60e-03,
1075,1.60e-03,
1076,1.20e-03,
1077,-1.60e-03,
1078,2.40e-03,
1079,-2.40e-03,
1080,-2.40e-03,
1081,2.40e-03,
1082,-1.60e-03,
1083,2.00e-03,
1084,-1.60e-03,
1085,2.00e-03,
1086,-1.60e-03,
1087,1.60e-03,
1088,-2.40e-03,
1089,1.60e-03,
1090,1.60e-03,
1091,-1.60e-03,
1092,-2.40e-03,
1093,1.20e-03,
1094,-3.20e-03,
1095,1.60e-03,
1096,-3.20e-03,
1097,1.60e-03,
1098,-2.40e-03,
1099,2.40e-03,
1100,-1.60e-03,
1101,1.60e-03,
1102,1.20e-03,
1103,-2.40e-03,
1104,-1.60e-03,
1105,2.00e-03,
1106,1.20e-03,
1107,-2.40e-03,
1108,1.60e-03,
1109,-2.40e-03,
1110,-2.40e-03,
1111,2.40e-03,
1112,-3.20e-03,
1113,8.00e-04,
1114,1.60e-03,
1115,-2.40e-03,
1116,-1.60e-03,
1117,1.20e-03,
1118,-2.40e-03,
1119,1.60e-03,
1120,8.00e-04,
1121,-2.40e-03,
1122,-1.60e-03,
1123,2.00e-03,
1124,-1.60e-03,
1125,8.00e-04,
1126,-2.40e-03,
1127,8.00e-04,
1128,-2.40e-03,
1129,1.60e-03,
1130,-2.40e-03,
1131,1.60e-03,
1132,-1.60e-03,
1133,1.60e-03,
1134,-2.40e-03,
1135,1.20e-03,
1136,-2.40e-03,
1137,1.20e-03,
1138,1.20e-03,
1139,-2.40e-03,
1140,8.00e-04,
1141,-1.60e-03,
1142,-2.40e-03,
1143,1.20e-03,
1144,-2.40e-03,
1145,1.60e-03,
1146,-2.40e-03,
1147,1.60e-03,
1148,-2.40e-03,
1149,1.20e-03,
1150,-1.60e-03,
1151,1.60e-03,
1152,1.60e-03,
1153,-2.40e-03,
1154,-1.60e-03,
1155,1.60e-03,
1156,1.60e-03,
1157,-2.40e-03,
1158,-2.40e-03,
1159,1.60e-03,
1160,-1.60e-03,
1161,2.00e-03,
1162,-2.40e-03,
1163,2.40e-03,
1164,2.40e-03,
1165,-2.40e-03,
1166,-1.60e-03,
1167,1.60e-03,
1168,-2.40e-03,
1169,1.20e-03,
1170,1.20e-03,
1171,-1.60e-03,
1172,-1.60e-03,
1173,2.40e-03,
1174,1.60e-03,
1175,-2.40e-03,
1176,-2.40e-03,
1177,1.60e-03,
1178,-2.40e-03,
1179,2.40e-03,
1180,-2.40e-03,
1181,1.20e-03,
1182,-2.40e-03,
1183,1.60e-03,
1184,-2.40e-03,
1185,1.60e-03,
1186,-2.40e-03,
1187,1.60e-03,
1188,-3.20e-03,
1189,1.60e-03,
1190,-2.40e-03,
1191,1.20e-03,
1192,-1.60e-03,
1193,2.40e-03,
1194,-1.60e-03,
1195,2.00e-03,
1196,-2.40e-03,
1197,1.20e-03,
1198,-2.40e-03,
1199,1.20e-03,
