fastdiffamp/data-noise-set/old-str-wk/strong-unb/NewFile4.csv

X,CH1,Start,Increment,
Sequence,Volt,-1.148000e+01,2.000000e-02
0,-1.60e-03,
1,2.00e-03,
2,1.20e-03,
3,-2.40e-03,
4,-1.60e-03,
5,1.60e-03,
6,-2.40e-03,
7,1.20e-03,
8,-1.60e-03,
9,1.20e-03,
10,-2.40e-03,
11,2.00e-03,
12,1.60e-03,
13,-1.60e-03,
14,1.60e-03,
15,-2.40e-03,
16,2.40e-03,
17,-1.60e-03,
18,-2.40e-03,
19,2.00e-03,
20,-1.60e-03,
21,1.60e-03,
22,-1.60e-03,
23,2.40e-03,
24,-1.60e-03,
25,2.00e-03,
26,1.20e-03,
27,-2.40e-03,
28,2.40e-03,
29,-2.40e-03,
30,8.00e-04,
31,-2.40e-03,
32,8.00e-04,
33,-2.40e-03,
34,-2.40e-03,
35,2.40e-03,
36,-2.40e-03,
37,2.40e-03,
38,1.20e-03,
39,-3.20e-03,
40,-1.60e-03,
41,1.60e-03,
42,-2.40e-03,
43,1.60e-03,
44,1.60e-03,
45,-1.60e-03,
46,-2.40e-03,
47,1.60e-03,
48,-1.60e-03,
49,1.60e-03,
50,-2.40e-03,
51,1.60e-03,
52,1.60e-03,
53,-2.40e-03,
54,1.20e-03,
55,-3.20e-03,
56,-2.40e-03,
57,1.60e-03,
58,-1.60e-03,
59,3.20e-03,
60,2.00e-03,
61,-2.40e-03,
62,-2.40e-03,
63,1.60e-03,
64,-2.40e-03,
65,1.60e-03,
66,-1.60e-03,
67,1.60e-03,
68,-1.60e-03,
69,1.60e-03,
70,-2.40e-03,
71,1.60e-03,
72,-1.60e-03,
73,1.20e-03,
74,-2.40e-03,
75,1.20e-03,
76,-2.40e-03,
77,2.00e-03,
78,-1.60e-03,
79,2.40e-03,
80,-1.60e-03,
81,1.20e-03,
82,-1.60e-03,
83,2.00e-03,
84,-2.40e-03,
85,2.40e-03,
86,-1.60e-03,
87,2.00e-03,
88,-2.40e-03,
89,1.60e-03,
90,2.00e-03,
91,-2.40e-03,
92,-1.60e-03,
93,2.00e-03,
94,1.60e-03,
95,-2.40e-03,
96,-1.60e-03,
97,1.60e-03,
98,1.60e-03,
99,-2.40e-03,
100,1.60e-03,
101,-1.60e-03,
102,2.00e-03,
103,-2.40e-03,
104,-1.60e-03,
105,1.20e-03,
106,1.60e-03,
107,-1.60e-03,
108,-1.60e-03,
109,2.40e-03,
110,-1.60e-03,
111,2.40e-03,
112,-1.60e-03,
113,2.40e-03,
114,-2.40e-03,
115,1.60e-03,
116,-1.60e-03,
117,2.40e-03,
118,2.40e-03,
119,-2.40e-03,
120,-2.40e-03,
121,1.60e-03,
122,-1.60e-03,
123,1.60e-03,
124,-1.60e-03,
125,1.60e-03,
126,-2.40e-03,
127,2.40e-03,
128,-1.60e-03,
129,2.40e-03,
130,-1.60e-03,
131,2.00e-03,
132,2.40e-03,
133,-2.00e-03,
134,-1.60e-03,
135,2.40e-03,
136,-1.60e-03,
137,2.40e-03,
138,-1.60e-03,
139,2.00e-03,
140,-1.60e-03,
141,1.20e-03,
142,2.40e-03,
143,-2.40e-03,
144,-3.20e-03,
145,1.60e-03,
146,-1.60e-03,
147,1.60e-03,
148,-2.40e-03,
149,2.00e-03,
150,-1.60e-03,
151,1.60e-03,
152,-1.60e-03,
153,1.60e-03,
154,2.40e-03,
155,-2.40e-03,
156,-1.60e-03,
157,2.00e-03,
158,1.60e-03,
159,-2.40e-03,
160,1.60e-03,
161,-2.40e-03,
162,-2.40e-03,
163,2.00e-03,
164,1.60e-03,
165,-1.60e-03,
166,-1.60e-03,
167,2.00e-03,
168,1.60e-03,
169,-3.20e-03,
170,1.60e-03,
171,-2.40e-03,
172,-1.60e-03,
173,1.60e-03,
174,2.00e-03,
175,-1.60e-03,
176,2.40e-03,
177,-1.60e-03,
178,-1.60e-03,
179,2.40e-03,
180,-3.20e-03,
181,2.40e-03,
182,-1.60e-03,
183,1.60e-03,
184,1.60e-03,
185,-2.40e-03,
186,-3.20e-03,
187,1.60e-03,
188,2.00e-03,
189,-2.40e-03,
190,-1.60e-03,
191,2.40e-03,
192,-2.40e-03,
193,2.40e-03,
194,-2.40e-03,
195,1.20e-03,
196,-1.60e-03,
197,2.00e-03,
198,-1.60e-03,
199,2.00e-03,
200,1.60e-03,
201,-2.40e-03,
202,-1.60e-03,
203,2.00e-03,
204,-2.40e-03,
205,1.60e-03,
206,-1.60e-03,
207,2.00e-03,
208,2.40e-03,
209,-2.40e-03,
210,1.60e-03,
211,-2.40e-03,
212,-1.60e-03,
213,2.00e-03,
214,-1.60e-03,
215,2.40e-03,
216,-2.40e-03,
217,2.00e-03,
218,-2.40e-03,
219,2.40e-03,
220,1.20e-03,
221,-2.40e-03,
222,-2.40e-03,
223,2.00e-03,
224,1.60e-03,
225,-2.40e-03,
226,-1.60e-03,
227,1.60e-03,
228,1.20e-03,
229,-2.40e-03,
230,-2.40e-03,
231,1.60e-03,
232,-2.40e-03,
233,1.60e-03,
234,1.60e-03,
235,-3.20e-03,
236,-2.40e-03,
237,1.60e-03,
238,-2.40e-03,
239,2.40e-03,
240,-2.00e-03,
241,1.60e-03,
242,-1.60e-03,
243,1.60e-03,
244,-2.40e-03,
245,2.40e-03,
246,-2.40e-03,
247,2.00e-03,
248,-1.60e-03,
249,2.00e-03,
250,1.60e-03,
251,-2.40e-03,
252,-2.40e-03,
253,2.00e-03,
254,-1.60e-03,
255,2.40e-03,
256,-1.60e-03,
257,2.00e-03,
258,2.00e-03,
259,-2.40e-03,
260,-1.60e-03,
261,1.60e-03,
262,-1.60e-03,
263,2.40e-03,
264,2.00e-03,
265,-2.40e-03,
266,-2.40e-03,
267,2.00e-03,
268,1.60e-03,
269,-1.60e-03,
270,-1.60e-03,
271,1.60e-03,
272,-2.40e-03,
273,2.40e-03,
274,-2.40e-03,
275,2.40e-03,
276,-1.60e-03,
277,1.60e-03,
278,1.60e-03,
279,-1.60e-03,
280,-2.40e-03,
281,1.60e-03,
282,1.60e-03,
283,-2.40e-03,
284,-1.60e-03,
285,3.20e-03,
286,1.60e-03,
287,-1.60e-03,
288,-1.60e-03,
289,2.00e-03,
290,-1.60e-03,
291,1.60e-03,
292,-2.40e-03,
293,1.60e-03,
294,-1.60e-03,
295,2.40e-03,
296,-1.60e-03,
297,1.60e-03,
298,1.60e-03,
299,-1.60e-03,
300,-1.60e-03,
301,2.00e-03,
302,-1.60e-03,
303,1.60e-03,
304,-2.40e-03,
305,1.60e-03,
306,-1.60e-03,
307,2.40e-03,
308,1.60e-03,
309,-1.60e-03,
310,2.40e-03,
311,-2.40e-03,
312,-1.60e-03,
313,1.60e-03,
314,1.60e-03,
315,-1.60e-03,
316,-1.60e-03,
317,1.60e-03,
318,1.60e-03,
319,-3.20e-03,
320,-2.40e-03,
321,2.00e-03,
322,-1.60e-03,
323,2.40e-03,
324,1.60e-03,
325,-1.60e-03,
326,-2.40e-03,
327,2.40e-03,
328,-2.40e-03,
329,2.00e-03,
330,-2.40e-03,
331,1.60e-03,
332,-1.60e-03,
333,2.00e-03,
334,1.60e-03,
335,-2.40e-03,
336,-1.60e-03,
337,1.60e-03,
338,-2.40e-03,
339,1.60e-03,
340,1.60e-03,
341,-3.20e-03,
342,-2.40e-03,
343,1.60e-03,
344,-1.60e-03,
345,1.20e-03,
346,-2.40e-03,
347,2.40e-03,
348,1.60e-03,
349,-1.60e-03,
350,1.60e-03,
351,-1.60e-03,
352,-1.60e-03,
353,2.00e-03,
354,2.40e-03,
355,-2.40e-03,
356,1.60e-03,
357,-1.60e-03,
358,-2.40e-03,
359,1.60e-03,
360,-2.40e-03,
361,1.60e-03,
362,1.20e-03,
363,-2.40e-03,
364,1.20e-03,
365,-2.40e-03,
366,1.60e-03,
367,-2.40e-03,
368,-1.60e-03,
369,1.60e-03,
370,-2.40e-03,
371,1.60e-03,
372,-2.40e-03,
373,1.60e-03,
374,-2.40e-03,
375,1.60e-03,
376,1.60e-03,
377,-3.20e-03,
378,1.60e-03,
379,-1.60e-03,
380,2.00e-03,
381,-2.40e-03,
382,-2.40e-03,
383,1.60e-03,
384,8.00e-04,
385,-2.40e-03,
386,2.00e-03,
387,-2.40e-03,
388,-1.60e-03,
389,1.60e-03,
390,2.40e-03,
391,-2.40e-03,
392,-2.40e-03,
393,2.00e-03,
394,1.20e-03,
395,-2.00e-03,
396,1.60e-03,
397,-2.40e-03,
398,-2.40e-03,
399,2.00e-03,
400,-2.40e-03,
401,2.00e-03,
402,2.00e-03,
403,-2.40e-03,
404,-2.40e-03,
405,1.60e-03,
406,1.60e-03,
407,-2.40e-03,
408,-1.60e-03,
409,1.60e-03,
410,-1.60e-03,
411,1.60e-03,
412,-1.60e-03,
413,8.00e-04,
414,-1.60e-03,
415,1.20e-03,
416,-2.40e-03,
417,1.20e-03,
418,-1.60e-03,
419,1.60e-03,
420,1.60e-03,
421,-2.40e-03,
422,-2.80e-03,
423,1.60e-03,
424,-1.60e-03,
425,1.60e-03,
426,2.00e-03,
427,-2.40e-03,
428,-2.40e-03,
429,1.60e-03,
430,-1.60e-03,
431,2.00e-03,
432,-1.60e-03,
433,2.40e-03,
434,1.20e-03,
435,-2.40e-03,
436,-2.40e-03,
437,2.40e-03,
438,1.20e-03,
439,-3.20e-03,
440,1.20e-03,
441,-2.40e-03,
442,-2.40e-03,
443,1.60e-03,
444,-2.40e-03,
445,1.60e-03,
446,-2.40e-03,
447,1.60e-03,
448,-2.40e-03,
449,1.20e-03,
450,1.60e-03,
451,-1.60e-03,
452,-1.60e-03,
453,1.20e-03,
454,2.00e-03,
455,-1.60e-03,
456,-3.20e-03,
457,2.00e-03,
458,-2.40e-03,
459,1.20e-03,
460,1.20e-03,
461,-2.40e-03,
462,1.20e-03,
463,-2.40e-03,
464,-3.20e-03,
465,1.20e-03,
466,-1.60e-03,
467,1.60e-03,
468,-2.40e-03,
469,1.60e-03,
470,1.60e-03,
471,-2.40e-03,
472,-2.40e-03,
473,1.60e-03,
474,-1.60e-03,
475,1.60e-03,
476,-1.60e-03,
477,2.00e-03,
478,-1.60e-03,
479,1.60e-03,
480,-2.40e-03,
481,1.20e-03,
482,-1.60e-03,
483,2.40e-03,
484,2.40e-03,
485,-1.60e-03,
486,-1.60e-03,
487,1.60e-03,
488,-1.60e-03,
489,2.00e-03,
490,1.60e-03,
491,-2.40e-03,
492,1.60e-03,
493,-2.40e-03,
494,-2.40e-03,
495,1.60e-03,
496,2.40e-03,
497,-2.40e-03,
498,1.60e-03,
499,-2.40e-03,
500,-1.60e-03,
501,2.00e-03,
502,-2.40e-03,
503,1.60e-03,
504,1.60e-03,
505,-1.60e-03,
506,-1.60e-03,
507,2.00e-03,
508,1.60e-03,
509,-1.60e-03,
510,2.00e-03,
511,-2.40e-03,
512,2.00e-03,
513,-1.60e-03,
514,-2.40e-03,
515,2.00e-03,
516,-2.40e-03,
517,1.20e-03,
518,-1.60e-03,
519,1.60e-03,
520,1.60e-03,
521,-2.40e-03,
522,-2.40e-03,
523,2.00e-03,
524,2.00e-03,
525,-1.60e-03,
526,-1.60e-03,
527,2.40e-03,
528,2.40e-03,
529,-1.60e-03,
530,2.00e-03,
531,-2.40e-03,
532,-1.60e-03,
533,2.40e-03,
534,1.60e-03,
535,-1.60e-03,
536,-1.60e-03,
537,1.60e-03,
538,-1.60e-03,
539,2.40e-03,
540,2.40e-03,
541,-2.40e-03,
542,1.60e-03,
543,-2.40e-03,
544,1.60e-03,
545,-2.40e-03,
546,2.00e-03,
547,-3.20e-03,
548,1.60e-03,
549,-2.40e-03,
550,-1.60e-03,
551,2.40e-03,
552,1.60e-03,
553,-3.20e-03,
554,-2.40e-03,
555,1.60e-03,
556,1.60e-03,
557,-2.40e-03,
558,1.60e-03,
559,-1.60e-03,
560,1.20e-03,
561,-1.60e-03,
562,2.40e-03,
563,-1.60e-03,
564,-1.60e-03,
565,2.00e-03,
566,-2.40e-03,
567,1.60e-03,
568,1.20e-03,
569,-2.40e-03,
570,-1.60e-03,
571,1.20e-03,
572,-2.40e-03,
573,1.20e-03,
574,1.20e-03,
575,-1.60e-03,
576,-1.60e-03,
577,1.60e-03,
578,1.60e-03,
579,-2.40e-03,
580,-2.40e-03,
581,1.60e-03,
582,-1.60e-03,
583,2.00e-03,
584,-2.40e-03,
585,1.60e-03,
586,1.60e-03,
587,-2.40e-03,
588,-1.60e-03,
589,1.60e-03,
590,2.00e-03,
591,-1.60e-03,
592,-2.40e-03,
593,1.20e-03,
594,1.20e-03,
595,-2.40e-03,
596,1.60e-03,
597,-2.40e-03,
598,-1.60e-03,
599,1.60e-03,
600,-1.60e-03,
601,1.60e-03,
602,-1.60e-03,
603,2.40e-03,
604,1.60e-03,
605,-2.40e-03,
606,-1.60e-03,
607,1.60e-03,
608,-1.60e-03,
609,2.40e-03,
610,2.00e-03,
611,-1.60e-03,
612,-1.60e-03,
613,1.60e-03,
614,-1.60e-03,
615,2.00e-03,
616,-1.60e-03,
617,2.80e-03,
618,1.60e-03,
619,-2.40e-03,
620,-2.40e-03,
621,1.60e-03,
622,-1.60e-03,
623,2.00e-03,
624,-2.40e-03,
625,1.60e-03,
626,-2.40e-03,
627,2.40e-03,
628,2.40e-03,
629,-1.60e-03,
630,-1.60e-03,
631,2.00e-03,
632,-1.60e-03,
633,2.40e-03,
634,2.00e-03,
635,-1.60e-03,
636,1.60e-03,
637,-2.40e-03,
638,-2.40e-03,
639,2.40e-03,
640,2.40e-03,
641,-2.40e-03,
642,2.40e-03,
643,-1.60e-03,
644,1.60e-03,
645,-1.60e-03,
646,2.00e-03,
647,-2.40e-03,
648,-2.40e-03,
649,1.60e-03,
650,1.60e-03,
651,-2.40e-03,
652,-1.60e-03,
653,1.20e-03,
654,-2.40e-03,
655,2.40e-03,
656,2.00e-03,
657,-2.40e-03,
658,2.00e-03,
659,-1.60e-03,
660,1.20e-03,
661,-1.60e-03,
662,2.00e-03,
663,-2.40e-03,
664,2.00e-03,
665,-2.40e-03,
666,2.00e-03,
667,-2.40e-03,
668,1.60e-03,
669,-2.40e-03,
670,-1.60e-03,
671,2.00e-03,
672,2.00e-03,
673,-2.40e-03,
674,2.00e-03,
675,-1.60e-03,
676,1.60e-03,
677,-2.40e-03,
678,-1.60e-03,
679,1.60e-03,
680,2.40e-03,
681,-1.60e-03,
682,-1.60e-03,
683,2.00e-03,
684,1.60e-03,
685,-1.60e-03,
686,-1.60e-03,
687,2.00e-03,
688,-2.40e-03,
689,2.00e-03,
690,1.60e-03,
691,-1.60e-03,
692,2.40e-03,
693,-2.40e-03,
694,-1.60e-03,
695,2.40e-03,
696,-1.60e-03,
697,2.00e-03,
698,2.40e-03,
699,-1.60e-03,
700,-2.40e-03,
701,2.00e-03,
702,2.40e-03,
703,-2.40e-03,
704,2.40e-03,
705,-1.60e-03,
706,-1.60e-03,
707,1.60e-03,
708,2.40e-03,
709,-2.40e-03,
710,1.60e-03,
711,-2.40e-03,
712,2.00e-03,
713,-2.40e-03,
714,2.00e-03,
715,-3.20e-03,
716,-2.40e-03,
717,2.40e-03,
718,1.60e-03,
719,-1.60e-03,
720,-8.00e-04,
721,2.40e-03,
722,-1.60e-03,
723,2.40e-03,
724,1.60e-03,
725,-1.60e-03,
726,2.40e-03,
727,-1.60e-03,
728,-1.60e-03,
729,2.40e-03,
730,-1.60e-03,
731,2.80e-03,
732,-1.60e-03,
733,2.00e-03,
734,-1.60e-03,
735,1.60e-03,
736,1.60e-03,
737,-2.40e-03,
738,2.00e-03,
739,-1.60e-03,
740,1.60e-03,
741,-1.60e-03,
742,-1.60e-03,
743,2.00e-03,
744,-2.40e-03,
745,2.00e-03,
746,1.60e-03,
747,-2.40e-03,
748,-2.40e-03,
749,2.40e-03,
750,1.60e-03,
751,-2.40e-03,
752,2.00e-03,
753,-1.60e-03,
754,1.20e-03,
755,-1.60e-03,
756,1.60e-03,
757,-2.40e-03,
758,-1.60e-03,
759,1.60e-03,
760,-1.60e-03,
761,1.60e-03,
762,2.00e-03,
763,-3.20e-03,
764,1.60e-03,
765,-2.40e-03,
766,-1.60e-03,
767,2.00e-03,
768,1.60e-03,
769,-2.40e-03,
770,2.00e-03,
771,-2.40e-03,
772,-1.60e-03,
773,2.00e-03,
774,-1.60e-03,
775,1.60e-03,
776,2.00e-03,
777,-2.40e-03,
778,2.40e-03,
779,-2.40e-03,
780,-2.40e-03,
781,1.20e-03,
782,-2.40e-03,
783,1.60e-03,
784,1.20e-03,
785,-2.40e-03,
786,1.60e-03,
787,-2.40e-03,
788,-2.40e-03,
789,2.40e-03,
790,-1.60e-03,
791,1.60e-03,
792,2.00e-03,
793,-1.60e-03,
794,1.20e-03,
795,-2.00e-03,
796,-1.60e-03,
797,1.60e-03,
798,1.60e-03,
799,-2.40e-03,
800,-3.20e-03,
801,2.40e-03,
802,2.40e-03,
803,-2.40e-03,
804,1.60e-03,
805,-2.40e-03,
806,-3.20e-03,
807,1.60e-03,
808,-3.20e-03,
809,1.60e-03,
810,1.20e-03,
811,-2.40e-03,
812,-3.20e-03,
813,1.60e-03,
814,-1.60e-03,
815,1.60e-03,
816,-1.60e-03,
817,1.60e-03,
818,1.60e-03,
819,-2.40e-03,
820,1.60e-03,
821,-2.40e-03,
822,1.60e-03,
823,-2.80e-03,
824,-1.60e-03,
825,1.60e-03,
826,-1.60e-03,
827,1.60e-03,
828,1.60e-03,
829,-2.40e-03,
830,-1.60e-03,
831,1.60e-03,
832,-1.60e-03,
833,2.40e-03,
834,2.00e-03,
835,-1.20e-03,
836,-1.60e-03,
837,1.60e-03,
838,1.60e-03,
839,-1.60e-03,
840,-1.60e-03,
841,2.40e-03,
842,1.60e-03,
843,-2.40e-03,
844,8.00e-04,
845,-2.40e-03,
846,-2.40e-03,
847,1.60e-03,
848,1.60e-03,
849,-2.40e-03,
850,-2.40e-03,
851,1.20e-03,
852,1.60e-03,
853,-2.40e-03,
854,1.20e-03,
855,-2.40e-03,
856,-1.60e-03,
857,1.60e-03,
858,-1.60e-03,
859,8.00e-04,
860,-1.60e-03,
861,1.60e-03,
862,-1.60e-03,
863,1.60e-03,
864,-1.60e-03,
865,1.60e-03,
866,-1.60e-03,
867,2.00e-03,
868,2.40e-03,
869,-2.40e-03,
870,2.00e-03,
871,-2.40e-03,
872,-2.40e-03,
873,2.40e-03,
874,1.20e-03,
875,-2.40e-03,
876,-2.40e-03,
877,2.00e-03,
878,-1.60e-03,
879,1.60e-03,
880,-1.60e-03,
881,1.60e-03,
882,-1.60e-03,
883,2.40e-03,
884,-1.60e-03,
885,2.00e-03,
886,1.60e-03,
887,-2.40e-03,
888,-2.40e-03,
889,1.60e-03,
890,-2.40e-03,
891,2.00e-03,
892,1.60e-03,
893,-1.60e-03,
894,-1.60e-03,
895,2.40e-03,
896,2.00e-03,
897,-1.60e-03,
898,-1.60e-03,
899,2.00e-03,
900,1.60e-03,
901,-2.40e-03,
902,-1.60e-03,
903,2.00e-03,
904,-1.60e-03,
905,1.60e-03,
906,-1.60e-03,
907,2.00e-03,
908,-1.60e-03,
909,1.60e-03,
910,-1.60e-03,
911,2.00e-03,
912,2.40e-03,
913,-2.40e-03,
914,-1.60e-03,
915,1.60e-03,
916,-1.60e-03,
917,2.00e-03,
918,-1.60e-03,
919,1.60e-03,
920,2.40e-03,
921,-1.60e-03,
922,-2.40e-03,
923,2.00e-03,
924,-1.60e-03,
925,1.60e-03,
926,1.60e-03,
927,-1.60e-03,
928,-1.60e-03,
929,2.40e-03,
930,-2.40e-03,
931,1.60e-03,
932,1.60e-03,
933,-2.40e-03,
934,-1.60e-03,
935,2.40e-03,
936,-1.60e-03,
937,1.60e-03,
938,-2.40e-03,
939,1.60e-03,
940,-2.40e-03,
941,1.60e-03,
942,1.20e-03,
943,-2.40e-03,
944,-1.60e-03,
945,1.60e-03,
946,-1.60e-03,
947,2.00e-03,
948,-1.60e-03,
949,1.60e-03,
950,-2.40e-03,
951,2.00e-03,
952,-2.40e-03,
953,1.60e-03,
954,-1.60e-03,
955,1.60e-03,
956,1.60e-03,
957,-2.40e-03,
958,1.60e-03,
959,-2.40e-03,
960,-1.60e-03,
961,2.40e-03,
962,2.40e-03,
963,-1.60e-03,
964,-1.60e-03,
965,1.60e-03,
966,2.40e-03,
967,-2.40e-03,
968,-1.60e-03,
969,1.60e-03,
970,-2.40e-03,
971,1.60e-03,
972,2.40e-03,
973,-1.60e-03,
974,1.60e-03,
975,-2.40e-03,
976,-1.60e-03,
977,2.00e-03,
978,2.40e-03,
979,-1.60e-03,
980,2.40e-03,
981,-1.60e-03,
982,-1.60e-03,
983,1.60e-03,
984,-2.40e-03,
985,2.40e-03,
986,-2.40e-03,
987,2.40e-03,
988,-2.40e-03,
989,1.60e-03,
990,-8.00e-04,
991,2.40e-03,
992,-2.40e-03,
993,1.60e-03,
994,-1.60e-03,
995,1.60e-03,
996,-2.40e-03,
997,1.60e-03,
998,-1.60e-03,
999,2.00e-03,
1000,-1.60e-03,
1001,1.60e-03,
1002,-1.60e-03,
1003,2.00e-03,
1004,2.40e-03,
1005,-2.40e-03,
1006,-1.60e-03,
1007,2.00e-03,
1008,2.40e-03,
1009,-1.60e-03,
1010,2.40e-03,
1011,-1.60e-03,
1012,1.60e-03,
1013,-1.60e-03,
1014,-1.60e-03,
1015,2.40e-03,
1016,2.00e-03,
1017,-1.60e-03,
1018,-2.40e-03,
1019,2.40e-03,
1020,-1.60e-03,
1021,2.00e-03,
1022,-1.60e-03,
1023,2.40e-03,
1024,-1.60e-03,
1025,1.60e-03,
1026,-2.40e-03,
1027,1.20e-03,
1028,-1.60e-03,
1029,2.40e-03,
1030,3.20e-03,
1031,-1.60e-03,
1032,-1.60e-03,
1033,2.80e-03,
1034,-8.00e-04,
1035,2.40e-03,
1036,-1.60e-03,
1037,2.40e-03,
1038,-1.60e-03,
1039,2.40e-03,
1040,-1.60e-03,
1041,1.60e-03,
1042,-1.60e-03,
1043,2.40e-03,
1044,-2.40e-03,
1045,1.60e-03,
1046,-1.60e-03,
1047,2.40e-03,
1048,-1.60e-03,
1049,1.60e-03,
1050,-1.60e-03,
1051,2.40e-03,
1052,-2.40e-03,
1053,1.60e-03,
1054,-3.20e-03,
1055,2.40e-03,
1056,-1.60e-03,
1057,2.40e-03,
1058,-2.40e-03,
1059,2.40e-03,
1060,2.40e-03,
1061,-2.40e-03,
1062,-1.60e-03,
1063,2.00e-03,
1064,-1.60e-03,
1065,1.60e-03,
1066,-1.60e-03,
1067,1.60e-03,
1068,-1.60e-03,
1069,2.40e-03,
1070,-1.60e-03,
1071,2.40e-03,
1072,-1.60e-03,
1073,2.00e-03,
1074,1.60e-03,
1075,-2.40e-03,
1076,-1.60e-03,
1077,2.40e-03,
1078,-1.60e-03,
1079,1.60e-03,
1080,-2.40e-03,
1081,3.20e-03,
1082,-2.40e-03,
1083,2.40e-03,
1084,-1.60e-03,
1085,1.60e-03,
1086,-1.60e-03,
1087,2.40e-03,
1088,1.60e-03,
1089,-1.60e-03,
1090,-1.60e-03,
1091,2.00e-03,
1092,2.40e-03,
1093,-2.40e-03,
1094,-2.40e-03,
1095,1.60e-03,
1096,-1.60e-03,
1097,2.00e-03,
1098,-1.60e-03,
1099,1.60e-03,
1100,1.60e-03,
1101,-2.40e-03,
1102,-2.40e-03,
1103,1.60e-03,
1104,1.60e-03,
1105,-2.40e-03,
1106,-3.20e-03,
1107,1.60e-03,
1108,-1.60e-03,
1109,1.60e-03,
1110,-2.40e-03,
1111,2.40e-03,
1112,-2.40e-03,
1113,2.00e-03,
1114,-2.40e-03,
1115,2.00e-03,
1116,1.60e-03,
1117,-2.40e-03,
1118,1.60e-03,
1119,-2.40e-03,
1120,2.00e-03,
1121,-2.40e-03,
1122,-1.60e-03,
1123,8.00e-04,
1124,1.60e-03,
1125,-2.40e-03,
1126,1.60e-03,
1127,-3.20e-03,
1128,8.00e-04,
1129,-2.40e-03,
1130,1.60e-03,
1131,-2.40e-03,
1132,-1.60e-03,
1133,1.60e-03,
1134,-2.40e-03,
1135,2.40e-03,
1136,2.40e-03,
1137,-2.40e-03,
1138,-1.60e-03,
1139,1.60e-03,
1140,-1.60e-03,
1141,2.00e-03,
1142,-2.40e-03,
1143,1.60e-03,
1144,1.60e-03,
1145,-1.60e-03,
1146,-1.60e-03,
1147,2.40e-03,
1148,1.60e-03,
1149,-3.20e-03,
1150,-2.40e-03,
1151,2.40e-03,
1152,1.60e-03,
1153,-2.40e-03,
1154,-1.60e-03,
1155,2.00e-03,
1156,1.60e-03,
1157,-2.40e-03,
1158,-1.60e-03,
1159,2.00e-03,
1160,1.60e-03,
1161,-1.60e-03,
1162,-2.40e-03,
1163,2.40e-03,
1164,-2.40e-03,
1165,2.00e-03,
1166,-1.60e-03,
1167,2.00e-03,
1168,1.60e-03,
1169,-1.60e-03,
1170,-2.40e-03,
1171,2.40e-03,
1172,2.40e-03,
1173,-1.60e-03,
1174,-1.60e-03,
1175,2.40e-03,
1176,-1.60e-03,
1177,2.00e-03,
1178,2.00e-03,
1179,-1.60e-03,
1180,-1.60e-03,
1181,2.40e-03,
1182,1.60e-03,
1183,-2.40e-03,
1184,2.40e-03,
1185,-1.60e-03,
1186,1.60e-03,
1187,-1.60e-03,
1188,-3.20e-03,
1189,1.60e-03,
1190,2.00e-03,
1191,-2.40e-03,
1192,2.40e-03,
1193,-1.60e-03,
1194,1.60e-03,
1195,-2.40e-03,
1196,-2.00e-03,
1197,1.60e-03,
1198,2.00e-03,
1199,-1.60e-03,
