fastdiffamp/data-noise-set/old-str-wk/strong-unb/NewFile5.csv

X,CH1,Start,Increment,
Sequence,Volt,-1.198000e+01,2.000000e-02
0,9.60e-03,
1,-5.60e-03,
2,7.20e-03,
3,-5.60e-03,
4,-6.40e-03,
5,8.00e-03,
6,-8.80e-03,
7,8.80e-03,
8,8.00e-03,
9,-1.04e-02,
10,-7.20e-03,
11,6.40e-03,
12,8.00e-03,
13,-6.40e-03,
14,8.80e-03,
15,-1.12e-02,
16,8.40e-03,
17,-1.08e-02,
18,-7.20e-03,
19,7.20e-03,
20,9.60e-03,
21,-7.20e-03,
22,7.20e-03,
23,-8.00e-03,
24,1.28e-02,
25,-1.00e-02,
26,8.00e-03,
27,-7.20e-03,
28,1.04e-02,
29,-8.80e-03,
30,8.80e-03,
31,-1.04e-02,
32,-7.20e-03,
33,9.60e-03,
34,5.60e-03,
35,-1.04e-02,
36,9.60e-03,
37,-8.00e-03,
38,-8.00e-03,
39,8.00e-03,
40,9.60e-03,
41,-9.60e-03,
42,-8.00e-03,
43,8.00e-03,
44,8.80e-03,
45,-6.40e-03,
46,8.80e-03,
47,-8.80e-03,
48,-8.00e-03,
49,8.00e-03,
50,8.80e-03,
51,-8.80e-03,
52,7.20e-03,
53,-6.40e-03,
54,-8.80e-03,
55,8.00e-03,
56,-9.60e-03,
57,8.80e-03,
58,-1.04e-02,
59,7.20e-03,
60,-7.20e-03,
61,8.80e-03,
62,-6.40e-03,
63,8.00e-03,
64,-7.60e-03,
65,7.20e-03,
66,7.20e-03,
67,-7.20e-03,
68,7.20e-03,
69,-7.20e-03,
70,8.80e-03,
71,-8.80e-03,
72,8.00e-03,
73,-7.20e-03,
74,-1.36e-02,
75,9.60e-03,
76,-8.00e-03,
77,6.40e-03,
78,9.60e-03,
79,-8.80e-03,
80,7.20e-03,
81,-7.20e-03,
82,6.40e-03,
83,-9.60e-03,
84,6.40e-03,
85,-7.20e-03,
86,-6.40e-03,
87,5.60e-03,
88,-9.60e-03,
89,6.40e-03,
90,-7.20e-03,
91,8.80e-03,
92,-8.00e-03,
93,6.40e-03,
94,-8.80e-03,
95,7.20e-03,
96,6.40e-03,
97,-7.60e-03,
98,-6.40e-03,
99,7.20e-03,
100,-6.40e-03,
101,6.40e-03,
102,-8.00e-03,
103,6.40e-03,
104,-7.20e-03,
105,8.00e-03,
106,5.60e-03,
107,-8.80e-03,
108,-7.20e-03,
109,8.00e-03,
110,7.20e-03,
111,-6.40e-03,
112,8.00e-03,
113,-5.60e-03,
114,1.04e-02,
115,-8.80e-03,
116,-5.60e-03,
117,9.60e-03,
118,5.60e-03,
119,-6.80e-03,
120,7.60e-03,
121,-1.00e-02,
122,-8.00e-03,
123,7.20e-03,
124,-5.60e-03,
125,8.00e-03,
126,-7.20e-03,
127,8.00e-03,
128,7.20e-03,
129,-8.00e-03,
130,-8.00e-03,
131,8.00e-03,
132,6.40e-03,
133,-1.12e-02,
134,-8.80e-03,
135,7.20e-03,
136,-7.20e-03,
137,8.00e-03,
138,-4.80e-03,
139,9.60e-03,
140,6.40e-03,
141,-1.04e-02,
142,-8.40e-03,
143,7.20e-03,
144,-8.80e-03,
145,9.60e-03,
146,1.12e-02,
147,-5.60e-03,
148,-7.20e-03,
149,9.60e-03,
150,8.80e-03,
151,-7.20e-03,
152,-8.00e-03,
153,8.80e-03,
154,6.40e-03,
155,-8.00e-03,
156,-9.60e-03,
157,1.20e-02,
158,7.20e-03,
159,-8.00e-03,
160,8.00e-03,
161,-9.20e-03,
162,8.80e-03,
163,-7.20e-03,
164,-6.40e-03,
165,8.80e-03,
166,8.00e-03,
167,-8.00e-03,
168,-6.40e-03,
169,7.20e-03,
170,-6.40e-03,
171,7.20e-03,
172,6.40e-03,
173,-8.80e-03,
174,8.00e-03,
175,-7.20e-03,
176,6.80e-03,
177,-8.00e-03,
178,8.00e-03,
179,-6.80e-03,
180,-7.20e-03,
181,5.60e-03,
182,-6.80e-03,
183,8.00e-03,
184,9.60e-03,
185,-7.20e-03,
186,-9.60e-03,
187,8.80e-03,
188,7.20e-03,
189,-7.20e-03,
190,5.60e-03,
191,-8.00e-03,
192,-8.80e-03,
193,7.20e-03,
194,8.80e-03,
195,-7.20e-03,
196,8.80e-03,
197,-6.40e-03,
198,-7.60e-03,
199,9.60e-03,
200,7.20e-03,
201,-7.20e-03,
202,8.00e-03,
203,-8.00e-03,
204,-7.20e-03,
205,7.20e-03,
206,-6.40e-03,
207,9.60e-03,
208,-7.60e-03,
209,1.04e-02,
210,-7.20e-03,
211,7.20e-03,
212,-7.20e-03,
213,9.60e-03,
214,6.40e-03,
215,-8.80e-03,
216,7.20e-03,
217,-7.20e-03,
218,8.80e-03,
219,-5.60e-03,
220,6.40e-03,
221,-7.20e-03,
222,-7.20e-03,
223,8.00e-03,
224,-6.40e-03,
225,8.00e-03,
226,-8.00e-03,
227,7.20e-03,
228,-7.20e-03,
229,1.12e-02,
230,7.20e-03,
231,-1.32e-02,
232,-6.40e-03,
233,8.00e-03,
234,7.20e-03,
235,-7.20e-03,
236,8.80e-03,
237,-8.80e-03,
238,6.40e-03,
239,-6.00e-03,
240,5.60e-03,
241,-7.20e-03,
242,6.40e-03,
243,-9.20e-03,
244,1.20e-02,
245,-5.60e-03,
246,9.60e-03,
247,-8.80e-03,
248,6.40e-03,
249,-6.40e-03,
250,-6.40e-03,
251,8.00e-03,
252,-8.00e-03,
253,7.20e-03,
254,7.20e-03,
255,-8.80e-03,
256,7.20e-03,
257,-8.00e-03,
258,8.00e-03,
259,-7.20e-03,
260,6.40e-03,
261,-8.80e-03,
262,-5.60e-03,
263,1.12e-02,
264,6.40e-03,
265,-5.60e-03,
266,-7.20e-03,
267,8.00e-03,
268,-9.60e-03,
269,8.80e-03,
270,-8.40e-03,
271,7.20e-03,
272,-8.00e-03,
273,7.20e-03,
274,-6.40e-03,
275,8.80e-03,
276,-4.80e-03,
277,7.20e-03,
278,-1.04e-02,
279,9.60e-03,
280,5.60e-03,
281,-1.24e-02,
282,-8.00e-03,
283,1.20e-02,
284,6.40e-03,
285,-1.04e-02,
286,8.80e-03,
287,-6.40e-03,
288,-8.00e-03,
289,9.60e-03,
290,6.00e-03,
291,-8.80e-03,
292,-8.80e-03,
293,8.80e-03,
294,-5.60e-03,
295,5.60e-03,
296,-6.40e-03,
297,6.40e-03,
298,8.00e-03,
299,-6.00e-03,
300,-7.20e-03,
301,5.60e-03,
302,-7.20e-03,
303,1.04e-02,
304,1.12e-02,
305,-6.40e-03,
306,-8.80e-03,
307,1.04e-02,
308,7.20e-03,
309,-7.20e-03,
310,5.60e-03,
311,-7.20e-03,
312,7.20e-03,
313,-6.40e-03,
314,1.04e-02,
315,-8.00e-03,
316,-7.20e-03,
317,6.40e-03,
318,-8.00e-03,
319,8.80e-03,
320,-1.20e-02,
321,6.40e-03,
322,7.20e-03,
323,-7.20e-03,
324,8.00e-03,
325,-9.60e-03,
326,-1.04e-02,
327,8.80e-03,
328,-6.40e-03,
329,8.80e-03,
330,-7.60e-03,
331,5.60e-03,
332,-7.20e-03,
333,6.40e-03,
334,-7.20e-03,
335,7.20e-03,
336,-7.20e-03,
337,7.20e-03,
338,-6.80e-03,
339,7.20e-03,
340,-9.60e-03,
341,8.00e-03,
342,-8.00e-03,
343,1.36e-02,
344,6.40e-03,
345,-7.20e-03,
346,-8.00e-03,
347,6.40e-03,
348,7.20e-03,
349,-6.40e-03,
350,7.20e-03,
351,-1.12e-02,
352,6.40e-03,
353,-6.40e-03,
354,6.40e-03,
355,-6.80e-03,
356,7.20e-03,
357,-8.80e-03,
358,-6.40e-03,
359,9.60e-03,
360,-6.40e-03,
361,5.60e-03,
362,6.40e-03,
363,-1.12e-02,
364,-5.60e-03,
365,6.40e-03,
366,-8.00e-03,
367,1.12e-02,
368,-7.20e-03,
369,8.80e-03,
370,6.40e-03,
371,-1.12e-02,
372,-6.40e-03,
373,7.20e-03,
374,6.40e-03,
375,-6.40e-03,
376,8.00e-03,
377,-7.20e-03,
378,6.40e-03,
379,-9.60e-03,
380,8.00e-03,
381,-8.00e-03,
382,6.40e-03,
383,-1.04e-02,
384,7.20e-03,
385,-6.40e-03,
386,8.80e-03,
387,-8.80e-03,
388,-8.80e-03,
389,8.80e-03,
390,-6.40e-03,
391,8.80e-03,
392,-7.60e-03,
393,6.40e-03,
394,1.04e-02,
395,-6.40e-03,
396,6.40e-03,
397,-8.00e-03,
398,8.80e-03,
399,-7.20e-03,
400,6.40e-03,
401,-5.60e-03,
402,8.00e-03,
403,-5.60e-03,
404,-8.00e-03,
405,7.20e-03,
406,-6.40e-03,
407,7.20e-03,
408,-8.00e-03,
409,7.20e-03,
410,7.20e-03,
411,-8.40e-03,
412,7.20e-03,
413,-8.80e-03,
414,-7.20e-03,
415,5.60e-03,
416,8.00e-03,
417,-7.20e-03,
418,-7.20e-03,
419,1.12e-02,
420,-6.40e-03,
421,8.00e-03,
422,9.20e-03,
423,-8.40e-03,
424,7.20e-03,
425,-8.00e-03,
426,5.60e-03,
427,-8.80e-03,
428,-8.80e-03,
429,8.80e-03,
430,-8.80e-03,
431,6.40e-03,
432,-7.20e-03,
433,1.12e-02,
434,-8.00e-03,
435,9.60e-03,
436,4.80e-03,
437,-6.40e-03,
438,7.20e-03,
439,-5.60e-03,
440,6.40e-03,
441,-7.20e-03,
442,1.04e-02,
443,-8.00e-03,
444,5.60e-03,
445,-9.60e-03,
446,7.20e-03,
447,-8.80e-03,
448,6.40e-03,
449,-6.40e-03,
450,7.20e-03,
451,-8.80e-03,
452,1.20e-02,
453,-1.00e-02,
454,-6.40e-03,
455,8.00e-03,
456,6.40e-03,
457,-9.60e-03,
458,-9.60e-03,
459,1.04e-02,
460,6.40e-03,
461,-7.20e-03,
462,-6.40e-03,
463,8.00e-03,
464,-9.60e-03,
465,9.60e-03,
466,8.80e-03,
467,-5.60e-03,
468,-7.20e-03,
469,8.80e-03,
470,7.20e-03,
471,-8.00e-03,
472,-7.20e-03,
473,7.20e-03,
474,6.40e-03,
475,-7.20e-03,
476,1.12e-02,
477,-8.00e-03,
478,7.20e-03,
479,-8.00e-03,
480,6.40e-03,
481,-6.40e-03,
482,-6.40e-03,
483,5.60e-03,
484,-8.00e-03,
485,7.20e-03,
486,5.60e-03,
487,-7.20e-03,
488,-1.00e-02,
489,7.20e-03,
490,8.00e-03,
491,-8.00e-03,
492,9.60e-03,
493,-7.20e-03,
494,7.20e-03,
495,-8.00e-03,
496,-5.60e-03,
497,9.60e-03,
498,-8.00e-03,
499,8.00e-03,
500,6.40e-03,
501,-8.00e-03,
502,-6.40e-03,
503,7.20e-03,
504,7.20e-03,
505,-9.60e-03,
506,6.40e-03,
507,-9.60e-03,
508,7.20e-03,
509,-8.80e-03,
510,1.12e-02,
511,-8.80e-03,
512,7.20e-03,
513,-8.00e-03,
514,8.80e-03,
515,-8.80e-03,
516,-6.40e-03,
517,6.40e-03,
518,1.20e-02,
519,-1.04e-02,
520,-1.04e-02,
521,5.60e-03,
522,7.20e-03,
523,-6.40e-03,
524,-6.40e-03,
525,7.60e-03,
526,7.20e-03,
527,-8.00e-03,
528,9.60e-03,
529,-5.60e-03,
530,1.04e-02,
531,-8.00e-03,
532,5.60e-03,
533,-6.40e-03,
534,-5.60e-03,
535,1.04e-02,
536,-8.00e-03,
537,6.40e-03,
538,5.60e-03,
539,-7.20e-03,
540,-6.40e-03,
541,5.60e-03,
542,-6.40e-03,
543,7.20e-03,
544,7.20e-03,
545,-7.60e-03,
546,-7.20e-03,
547,6.40e-03,
548,-8.00e-03,
549,7.20e-03,
550,-6.40e-03,
551,6.40e-03,
552,6.40e-03,
553,-6.40e-03,
554,8.00e-03,
555,-8.80e-03,
556,-7.20e-03,
557,6.40e-03,
558,-1.04e-02,
559,6.40e-03,
560,-7.20e-03,
561,6.40e-03,
562,8.80e-03,
563,-7.20e-03,
564,-6.40e-03,
565,7.20e-03,
566,6.40e-03,
567,-6.40e-03,
568,7.20e-03,
569,-6.40e-03,
570,-6.40e-03,
571,6.40e-03,
572,-8.80e-03,
573,6.40e-03,
574,8.00e-03,
575,-6.40e-03,
576,6.40e-03,
577,-7.20e-03,
578,7.20e-03,
579,-7.20e-03,
580,-8.80e-03,
581,1.28e-02,
582,8.00e-03,
583,-7.20e-03,
584,-5.60e-03,
585,6.40e-03,
586,-6.40e-03,
587,6.40e-03,
588,-5.60e-03,
589,6.40e-03,
590,-6.40e-03,
591,5.60e-03,
592,-1.04e-02,
593,7.60e-03,
594,6.40e-03,
595,-7.60e-03,
596,5.60e-03,
597,-9.60e-03,
598,-7.20e-03,
599,7.20e-03,
600,-7.20e-03,
601,8.80e-03,
602,7.20e-03,
603,-8.00e-03,
604,-8.80e-03,
605,6.40e-03,
606,-8.00e-03,
607,1.12e-02,
608,-8.80e-03,
609,8.00e-03,
610,7.20e-03,
611,-8.00e-03,
612,-1.04e-02,
613,7.20e-03,
614,7.20e-03,
615,-8.80e-03,
616,7.20e-03,
617,-8.00e-03,
618,7.20e-03,
619,-7.20e-03,
620,8.80e-03,
621,-7.60e-03,
622,8.80e-03,
623,-8.00e-03,
624,-8.80e-03,
625,7.20e-03,
626,6.40e-03,
627,-7.20e-03,
628,-1.04e-02,
629,6.00e-03,
630,-8.80e-03,
631,7.20e-03,
632,7.20e-03,
633,-1.04e-02,
634,6.40e-03,
635,-1.12e-02,
636,6.40e-03,
637,-8.00e-03,
638,1.04e-02,
639,-6.40e-03,
640,-8.00e-03,
641,8.80e-03,
642,5.60e-03,
643,-7.20e-03,
644,9.60e-03,
645,-7.20e-03,
646,-8.00e-03,
647,7.20e-03,
648,7.20e-03,
649,-1.28e-02,
650,7.20e-03,
651,-6.40e-03,
652,7.20e-03,
653,-8.00e-03,
654,5.60e-03,
655,-6.80e-03,
656,-9.60e-03,
657,7.20e-03,
658,-7.20e-03,
659,7.20e-03,
660,8.80e-03,
661,-7.20e-03,
662,-6.40e-03,
663,6.40e-03,
664,-8.00e-03,
665,8.80e-03,
666,8.00e-03,
667,-8.00e-03,
668,-7.20e-03,
669,8.00e-03,
