fastdiffamp/data-noise-set/old-str-wk/strong-unb/NewFile9.csv

X,CH1,Start,Increment,
Sequence,Volt,-1.148000e+01,2.000000e-02
0,-1.60e-03,
1,1.60e-03,
2,-1.60e-03,
3,1.60e-03,
4,-2.40e-03,
5,8.00e-04,
6,-2.40e-03,
7,2.00e-03,
8,-2.40e-03,
9,1.60e-03,
10,2.40e-03,
11,-2.40e-03,
12,-1.60e-03,
13,2.00e-03,
14,2.00e-03,
15,-2.40e-03,
16,1.60e-03,
17,-2.40e-03,
18,-2.40e-03,
19,2.00e-03,
20,-1.60e-03,
21,1.60e-03,
22,2.40e-03,
23,-2.40e-03,
24,2.40e-03,
25,-1.60e-03,
26,-1.60e-03,
27,2.40e-03,
28,-2.40e-03,
29,1.60e-03,
30,-1.60e-03,
31,2.00e-03,
32,-2.40e-03,
33,2.40e-03,
34,1.60e-03,
35,-2.40e-03,
36,-2.40e-03,
37,1.60e-03,
38,-1.60e-03,
39,2.40e-03,
40,2.40e-03,
41,-1.60e-03,
42,2.40e-03,
43,-2.40e-03,
44,-1.60e-03,
45,2.00e-03,
46,2.40e-03,
47,-2.40e-03,
48,1.60e-03,
49,-2.40e-03,
50,1.60e-03,
51,-2.40e-03,
52,-2.40e-03,
53,2.40e-03,
54,2.00e-03,
55,-1.60e-03,
56,-1.60e-03,
57,2.00e-03,
58,-1.60e-03,
59,1.60e-03,
60,-1.60e-03,
61,1.60e-03,
62,-2.40e-03,
63,2.00e-03,
64,-2.40e-03,
65,2.40e-03,
66,1.60e-03,
67,-1.60e-03,
68,-1.60e-03,
69,1.60e-03,
70,-2.40e-03,
71,2.40e-03,
72,-1.60e-03,
73,1.60e-03,
74,-2.40e-03,
75,2.40e-03,
76,-2.40e-03,
77,2.40e-03,
78,-1.60e-03,
79,2.40e-03,
80,-1.60e-03,
81,1.60e-03,
82,-2.40e-03,
83,1.60e-03,
84,2.40e-03,
85,-2.40e-03,
86,2.00e-03,
87,-2.40e-03,
88,2.00e-03,
89,-2.40e-03,
90,-2.00e-03,
91,1.60e-03,
92,2.40e-03,
93,-2.40e-03,
94,2.40e-03,
95,-1.60e-03,
96,-2.40e-03,
97,2.00e-03,
98,-1.60e-03,
99,1.60e-03,
100,2.40e-03,
101,-2.40e-03,
102,-1.60e-03,
103,1.20e-03,
104,-1.60e-03,
105,1.60e-03,
106,1.60e-03,
107,-2.40e-03,
108,1.60e-03,
109,-2.40e-03,
110,-1.60e-03,
111,3.20e-03,
112,2.40e-03,
113,-2.40e-03,
114,1.60e-03,
115,-2.40e-03,
116,2.00e-03,
117,-2.40e-03,
118,1.60e-03,
119,-1.60e-03,
120,-2.40e-03,
121,2.40e-03,
122,-1.60e-03,
123,2.40e-03,
124,1.20e-03,
125,-2.40e-03,
126,-2.40e-03,
127,2.00e-03,
128,1.60e-03,
129,-2.40e-03,
130,2.00e-03,
131,-2.40e-03,
132,1.60e-03,
133,-1.60e-03,
134,1.60e-03,
135,-2.40e-03,
136,-1.60e-03,
137,2.40e-03,
138,2.80e-03,
139,-2.40e-03,
140,-2.40e-03,
141,2.00e-03,
142,-1.60e-03,
143,2.00e-03,
144,-1.60e-03,
145,2.00e-03,
146,-2.40e-03,
147,1.60e-03,
148,-2.40e-03,
149,2.00e-03,
150,-1.60e-03,
151,1.60e-03,
152,2.40e-03,
153,-2.40e-03,
154,-1.60e-03,
155,2.40e-03,
156,-1.60e-03,
157,2.40e-03,
158,-2.40e-03,
159,2.40e-03,
160,-1.60e-03,
161,1.60e-03,
162,-1.60e-03,
163,2.00e-03,
164,-1.60e-03,
165,2.40e-03,
166,-2.40e-03,
167,2.80e-03,
168,-2.40e-03,
169,2.40e-03,
170,-1.60e-03,
171,2.40e-03,
172,-1.60e-03,
173,2.40e-03,
174,1.60e-03,
175,-4.00e-03,
176,1.60e-03,
177,-2.40e-03,
178,2.40e-03,
179,-1.60e-03,
180,-1.60e-03,
181,1.60e-03,
182,-1.60e-03,
183,2.00e-03,
184,-2.40e-03,
185,2.00e-03,
186,-2.40e-03,
187,1.60e-03,
188,-1.60e-03,
189,2.40e-03,
190,-2.40e-03,
191,2.40e-03,
192,-1.60e-03,
193,2.00e-03,
194,1.60e-03,
195,-2.40e-03,
196,-1.60e-03,
197,2.00e-03,
198,-2.40e-03,
199,2.40e-03,
200,-1.60e-03,
201,2.00e-03,
202,-1.60e-03,
203,1.60e-03,
204,-2.40e-03,
205,2.00e-03,
206,-1.60e-03,
207,2.00e-03,
208,-1.60e-03,
209,2.40e-03,
210,2.40e-03,
211,-2.40e-03,
212,-1.60e-03,
213,3.20e-03,
214,-1.60e-03,
215,2.40e-03,
216,-1.60e-03,
217,2.00e-03,
218,-1.60e-03,
219,2.40e-03,
220,-2.40e-03,
221,2.40e-03,
222,-3.20e-03,
223,2.00e-03,
224,-1.60e-03,
225,1.60e-03,
226,-2.40e-03,
227,2.40e-03,
228,-3.20e-03,
229,2.00e-03,
230,-1.60e-03,
231,2.40e-03,
232,-3.20e-03,
233,2.40e-03,
234,2.40e-03,
235,-2.40e-03,
236,-2.40e-03,
237,2.00e-03,
238,-2.40e-03,
239,1.60e-03,
240,2.40e-03,
241,-2.40e-03,
242,2.00e-03,
243,-2.40e-03,
244,2.40e-03,
245,-2.40e-03,
246,-2.40e-03,
247,2.40e-03,
248,-2.40e-03,
249,1.60e-03,
250,-2.40e-03,
251,1.60e-03,
252,-1.60e-03,
253,2.40e-03,
254,-1.60e-03,
255,1.60e-03,
256,-1.60e-03,
257,1.60e-03,
258,-1.60e-03,
259,2.40e-03,
260,-1.60e-03,
261,1.60e-03,
262,1.60e-03,
263,-2.40e-03,
264,2.40e-03,
265,-2.40e-03,
266,2.40e-03,
267,-2.40e-03,
268,1.60e-03,
269,-2.40e-03,
270,-2.40e-03,
271,2.40e-03,
272,1.60e-03,
273,-2.40e-03,
274,-2.40e-03,
275,1.60e-03,
276,1.60e-03,
277,-2.40e-03,
278,-2.40e-03,
279,2.40e-03,
280,1.20e-03,
281,-2.40e-03,
282,-1.60e-03,
283,1.60e-03,
284,-2.40e-03,
285,2.40e-03,
286,-2.40e-03,
287,2.00e-03,
288,-2.40e-03,
289,1.60e-03,
290,-1.60e-03,
291,1.60e-03,
292,-3.20e-03,
293,1.60e-03,
294,-2.40e-03,
295,1.60e-03,
296,-2.40e-03,
297,1.60e-03,
298,-2.40e-03,
299,2.00e-03,
300,-2.80e-03,
301,1.60e-03,
302,1.60e-03,
303,-2.40e-03,
304,1.60e-03,
305,-2.40e-03,
306,-1.60e-03,
307,1.60e-03,
308,-1.60e-03,
309,1.60e-03,
310,-2.40e-03,
311,2.40e-03,
312,-2.40e-03,
313,1.60e-03,
314,-2.40e-03,
315,1.60e-03,
316,-1.60e-03,
317,1.60e-03,
318,1.60e-03,
319,-2.40e-03,
320,2.40e-03,
321,-3.20e-03,
322,2.40e-03,
323,-2.00e-03,
324,-1.60e-03,
325,2.00e-03,
326,2.40e-03,
327,-1.60e-03,
328,-1.60e-03,
329,2.40e-03,
330,2.80e-03,
331,-2.40e-03,
332,-2.40e-03,
333,1.60e-03,
334,-1.60e-03,
335,2.00e-03,
336,2.00e-03,
337,-1.60e-03,
338,-2.40e-03,
339,1.60e-03,
340,-1.60e-03,
341,2.40e-03,
342,-1.60e-03,
343,2.40e-03,
344,-2.40e-03,
345,2.40e-03,
346,-1.60e-03,
347,2.80e-03,
348,-1.60e-03,
349,2.40e-03,
350,1.60e-03,
351,-1.60e-03,
352,-2.40e-03,
353,2.40e-03,
354,-1.60e-03,
355,2.40e-03,
356,-2.40e-03,
357,2.00e-03,
358,-1.60e-03,
359,2.40e-03,
360,-2.40e-03,
361,2.00e-03,
362,1.60e-03,
363,-1.60e-03,
364,-2.40e-03,
365,2.40e-03,
366,-2.40e-03,
367,2.40e-03,
368,1.60e-03,
369,-1.60e-03,
370,-1.60e-03,
371,2.40e-03,
372,2.40e-03,
373,-1.60e-03,
374,-1.60e-03,
375,2.00e-03,
376,-1.60e-03,
377,2.40e-03,
378,2.40e-03,
379,-1.60e-03,
380,2.40e-03,
381,-1.60e-03,
382,-1.60e-03,
383,1.60e-03,
384,-2.40e-03,
385,2.80e-03,
386,-1.60e-03,
387,1.60e-03,
388,-1.60e-03,
389,2.00e-03,
390,2.00e-03,
391,-1.60e-03,
392,-1.60e-03,
393,2.40e-03,
394,-1.60e-03,
395,2.40e-03,
396,-1.60e-03,
397,2.00e-03,
398,1.60e-03,
399,-2.00e-03,
400,-1.60e-03,
401,2.40e-03,
402,-1.60e-03,
403,2.40e-03,
404,2.40e-03,
405,-1.60e-03,
406,-3.20e-03,
407,2.80e-03,
408,-1.60e-03,
409,1.60e-03,
410,-1.60e-03,
411,3.20e-03,
412,-1.60e-03,
413,2.00e-03,
414,2.40e-03,
415,-2.40e-03,
416,-1.60e-03,
417,2.40e-03,
418,-1.60e-03,
419,2.40e-03,
420,2.40e-03,
421,-1.60e-03,
422,-2.40e-03,
423,2.40e-03,
424,2.40e-03,
425,-2.40e-03,
426,2.00e-03,
427,-2.40e-03,
428,-2.40e-03,
429,2.40e-03,
430,2.40e-03,
431,-1.60e-03,
432,2.40e-03,
433,-1.60e-03,
434,2.40e-03,
435,-1.60e-03,
436,2.80e-03,
437,-2.40e-03,
438,2.80e-03,
439,-1.60e-03,
440,-1.60e-03,
441,2.40e-03,
442,2.80e-03,
443,-2.40e-03,
444,-1.60e-03,
445,3.20e-03,
446,-1.60e-03,
447,2.00e-03,
448,-1.60e-03,
449,2.40e-03,
450,2.40e-03,
451,-1.60e-03,
452,2.40e-03,
453,-2.40e-03,
454,2.80e-03,
455,-1.60e-03,
456,-1.60e-03,
457,2.80e-03,
458,-1.60e-03,
459,2.40e-03,
460,2.40e-03,
461,-1.60e-03,
462,1.60e-03,
463,-1.60e-03,
464,2.40e-03,
465,-2.40e-03,
466,2.40e-03,
467,-3.20e-03,
468,-1.60e-03,
469,2.00e-03,
470,2.40e-03,
471,-2.00e-03,
472,1.60e-03,
473,-2.40e-03,
474,1.60e-03,
475,-1.60e-03,
476,1.60e-03,
477,-2.40e-03,
478,2.40e-03,
479,-1.60e-03,
480,-2.40e-03,
481,1.60e-03,
482,2.40e-03,
483,-1.60e-03,
484,2.40e-03,
485,-1.60e-03,
486,-1.60e-03,
487,1.60e-03,
488,2.80e-03,
489,-1.60e-03,
490,-1.60e-03,
491,1.60e-03,
492,-1.60e-03,
493,1.60e-03,
494,1.60e-03,
495,-2.40e-03,
496,-1.60e-03,
497,2.00e-03,
498,2.40e-03,
499,-1.60e-03,
500,2.00e-03,
501,-1.60e-03,
502,-1.60e-03,
503,2.40e-03,
504,-2.40e-03,
505,2.00e-03,
506,1.60e-03,
507,-2.40e-03,
508,-1.60e-03,
509,1.60e-03,
510,2.00e-03,
511,-2.40e-03,
512,2.40e-03,
513,-2.40e-03,
514,-2.40e-03,
515,2.40e-03,
516,-1.60e-03,
517,2.80e-03,
518,-1.60e-03,
519,2.40e-03,
520,-1.60e-03,
521,2.40e-03,
522,1.60e-03,
523,-2.40e-03,
524,-2.40e-03,
525,1.60e-03,
526,2.40e-03,
527,-1.60e-03,
528,2.40e-03,
529,-2.40e-03,
530,-1.60e-03,
531,2.40e-03,
532,2.00e-03,
533,-1.60e-03,
534,-8.00e-04,
535,2.40e-03,
536,2.40e-03,
537,-2.40e-03,
538,2.40e-03,
539,-1.60e-03,
540,1.60e-03,
541,-1.60e-03,
542,1.60e-03,
543,-1.60e-03,
544,-1.60e-03,
545,2.40e-03,
546,2.00e-03,
547,-2.40e-03,
548,-1.60e-03,
549,2.40e-03,
550,2.00e-03,
551,-1.60e-03,
552,1.60e-03,
553,-2.40e-03,
554,-1.60e-03,
555,2.40e-03,
556,-1.60e-03,
557,2.40e-03,
558,2.00e-03,
559,-1.60e-03,
560,-2.40e-03,
561,2.00e-03,
562,1.60e-03,
563,-1.60e-03,
564,-1.60e-03,
565,3.20e-03,
566,2.00e-03,
567,-1.60e-03,
568,2.40e-03,
569,-2.40e-03,
570,-1.60e-03,
571,2.40e-03,
572,-2.40e-03,
573,2.40e-03,
574,2.00e-03,
575,-2.40e-03,
576,2.00e-03,
577,-2.40e-03,
578,1.60e-03,
579,-2.40e-03,
580,2.40e-03,
581,-2.40e-03,
582,-1.60e-03,
583,1.60e-03,
584,-1.60e-03,
585,2.40e-03,
586,-1.60e-03,
587,3.20e-03,
588,2.80e-03,
589,-2.40e-03,
590,-2.40e-03,
591,2.40e-03,
592,-1.60e-03,
593,2.40e-03,
594,2.40e-03,
595,-1.60e-03,
596,-2.40e-03,
597,2.40e-03,
598,-1.60e-03,
599,2.00e-03,
600,2.40e-03,
601,-2.40e-03,
602,-2.40e-03,
603,2.40e-03,
604,-1.60e-03,
605,2.00e-03,
606,1.60e-03,
607,-1.60e-03,
608,-1.60e-03,
609,2.40e-03,
610,2.00e-03,
611,-1.60e-03,
612,-1.60e-03,
613,2.00e-03,
614,-1.60e-03,
615,1.60e-03,
616,-1.60e-03,
617,2.40e-03,
618,-1.60e-03,
619,2.40e-03,
620,-2.40e-03,
621,2.40e-03,
622,-2.40e-03,
623,2.40e-03,
624,-1.60e-03,
625,2.00e-03,
626,-1.60e-03,
627,1.60e-03,
628,-2.40e-03,
629,1.60e-03,
630,-1.60e-03,
631,2.40e-03,
632,-1.60e-03,
633,2.40e-03,
634,-1.60e-03,
635,2.40e-03,
636,2.40e-03,
637,-1.60e-03,
638,-1.60e-03,
639,2.00e-03,
640,-1.60e-03,
641,2.40e-03,
642,-2.40e-03,
643,1.60e-03,
644,-1.60e-03,
645,2.00e-03,
646,-1.60e-03,
647,2.40e-03,
648,-1.60e-03,
649,2.00e-03,
650,-1.60e-03,
651,2.40e-03,
652,-2.40e-03,
653,2.40e-03,
654,-8.00e-04,
655,2.40e-03,
656,2.00e-03,
657,-1.60e-03,
658,-1.60e-03,
659,1.60e-03,
660,-1.60e-03,
661,2.40e-03,
662,-2.40e-03,
663,2.40e-03,
664,-1.60e-03,
665,1.60e-03,
666,2.40e-03,
667,-1.60e-03,
668,2.40e-03,
669,-1.60e-03,
670,-2.40e-03,
671,1.60e-03,
672,2.40e-03,
673,-2.40e-03,
674,-1.60e-03,
675,1.60e-03,
676,2.40e-03,
677,-2.40e-03,
678,-1.60e-03,
679,2.00e-03,
680,-1.60e-03,
681,2.00e-03,
682,-1.60e-03,
683,1.60e-03,
684,-2.40e-03,
685,2.80e-03,
686,-2.40e-03,
687,2.80e-03,
688,2.40e-03,
689,-2.40e-03,
690,3.20e-03,
691,-1.60e-03,
692,2.40e-03,
693,-2.40e-03,
694,-2.40e-03,
695,2.40e-03,
696,-1.60e-03,
697,2.40e-03,
698,-1.60e-03,
699,2.40e-03,
700,-1.60e-03,
701,2.00e-03,
702,-1.60e-03,
703,1.60e-03,
704,-1.60e-03,
705,2.00e-03,
706,2.40e-03,
707,-1.60e-03,
708,-1.60e-03,
709,2.40e-03,
710,2.40e-03,
711,-2.40e-03,
712,-2.40e-03,
713,2.40e-03,
714,-1.60e-03,
715,2.80e-03,
716,2.40e-03,
717,-1.60e-03,
718,-2.40e-03,
719,2.40e-03,
720,-2.40e-03,
721,1.60e-03,
722,2.80e-03,
723,-1.60e-03,
724,-1.60e-03,
725,2.40e-03,
726,-1.60e-03,
727,2.00e-03,
728,-1.60e-03,
729,2.00e-03,
730,-1.60e-03,
731,2.40e-03,
732,2.40e-03,
733,-1.60e-03,
734,-1.60e-03,
735,2.40e-03,
736,1.60e-03,
737,-1.60e-03,
738,-1.60e-03,
739,1.60e-03,
740,1.60e-03,
741,-2.40e-03,
742,-1.60e-03,
743,1.60e-03,
744,-1.60e-03,
745,2.40e-03,
746,2.40e-03,
747,-2.40e-03,
748,2.40e-03,
749,-2.40e-03,
750,2.40e-03,
751,-1.60e-03,
752,2.40e-03,
753,-1.60e-03,
754,-1.60e-03,
755,2.40e-03,
756,-2.40e-03,
757,2.00e-03,
758,-2.40e-03,
759,2.40e-03,
760,-1.60e-03,
761,2.40e-03,
762,1.60e-03,
763,-2.40e-03,
764,-2.40e-03,
765,2.40e-03,
766,2.00e-03,
767,-2.40e-03,
768,-1.60e-03,
769,2.40e-03,
770,-1.60e-03,
771,2.40e-03,
772,-1.60e-03,
773,1.60e-03,
774,1.60e-03,
775,-1.60e-03,
776,-2.40e-03,
777,2.40e-03,
778,-2.40e-03,
779,2.40e-03,
780,-1.60e-03,
781,1.60e-03,
782,-2.40e-03,
783,1.60e-03,
784,-1.60e-03,
785,1.60e-03,
786,2.40e-03,
787,-2.40e-03,
788,1.60e-03,
789,-1.60e-03,
790,2.40e-03,
791,-2.40e-03,
792,1.60e-03,
793,-2.40e-03,
794,1.60e-03,
795,-1.60e-03,
796,-1.60e-03,
797,1.60e-03,
798,-2.40e-03,
799,3.20e-03,
800,-1.60e-03,
801,1.60e-03,
802,-1.60e-03,
803,2.40e-03,
804,2.40e-03,
805,-2.40e-03,
806,2.40e-03,
807,-2.40e-03,
808,2.00e-03,
809,-1.60e-03,
810,-1.60e-03,
811,2.40e-03,
812,2.40e-03,
813,-2.40e-03,
814,2.40e-03,
815,-1.60e-03,
816,2.40e-03,
817,-2.40e-03,
818,2.00e-03,
819,-1.60e-03,
820,-2.40e-03,
821,2.00e-03,
822,-2.40e-03,
823,2.00e-03,
824,-2.40e-03,
825,1.20e-03,
826,2.40e-03,
827,-1.60e-03,
828,2.40e-03,
829,-2.40e-03,
830,1.60e-03,
831,-2.40e-03,
832,1.60e-03,
833,-2.40e-03,
834,-2.40e-03,
835,1.60e-03,
836,1.60e-03,
837,-1.60e-03,
838,-2.40e-03,
839,2.40e-03,
840,-1.60e-03,
841,2.40e-03,
842,-2.40e-03,
843,1.60e-03,
844,1.60e-03,
845,-1.60e-03,
846,-1.60e-03,
847,2.40e-03,
848,-1.60e-03,
849,1.60e-03,
850,2.00e-03,
851,-2.40e-03,
852,1.60e-03,
853,-1.60e-03,
854,-1.60e-03,
855,2.00e-03,
856,-1.60e-03,
857,2.80e-03,
858,2.40e-03,
859,-2.40e-03,
860,-2.40e-03,
861,2.00e-03,
862,2.00e-03,
863,-2.40e-03,
864,2.40e-03,
865,-1.60e-03,
866,-1.60e-03,
867,2.40e-03,
868,-1.60e-03,
869,1.60e-03,
870,2.40e-03,
871,-2.40e-03,
872,-1.60e-03,
873,2.40e-03,
874,-1.60e-03,
875,2.40e-03,
876,-2.40e-03,
877,2.40e-03,
878,-1.60e-03,
879,2.40e-03,
880,-1.60e-03,
881,2.40e-03,
882,-1.60e-03,
883,2.40e-03,
884,1.60e-03,
885,-2.40e-03,
886,-1.60e-03,
887,2.40e-03,
888,2.40e-03,
889,-1.60e-03,
890,1.60e-03,
891,-2.40e-03,
892,-8.00e-04,
893,1.60e-03,
894,-1.60e-03,
895,2.40e-03,
896,-2.40e-03,
897,2.80e-03,
898,-1.60e-03,
899,2.40e-03,
900,-1.60e-03,
901,2.00e-03,
902,-1.60e-03,
903,1.60e-03,
904,2.00e-03,
905,-1.60e-03,
906,-1.60e-03,
907,2.40e-03,
908,-1.60e-03,
909,1.60e-03,
910,-1.60e-03,
911,2.40e-03,
912,-2.40e-03,
913,2.00e-03,
914,-1.60e-03,
915,2.00e-03,
916,-1.60e-03,
917,2.40e-03,
918,-2.40e-03,
919,2.00e-03,
920,1.60e-03,
921,-1.60e-03,
922,1.60e-03,
923,-1.60e-03,
924,-2.40e-03,
925,2.00e-03,
926,-2.40e-03,
927,2.00e-03,
928,2.00e-03,
929,-1.60e-03,
930,1.60e-03,
931,-2.40e-03,
932,1.60e-03,
933,-2.40e-03,
934,2.00e-03,
935,-2.40e-03,
936,-2.40e-03,
937,1.60e-03,
938,-2.40e-03,
939,2.40e-03,
940,2.80e-03,
941,-1.60e-03,
942,-1.60e-03,
943,1.60e-03,
944,2.40e-03,
945,-2.40e-03,
946,-1.60e-03,
947,3.20e-03,
948,-1.60e-03,
949,3.20e-03,
950,-1.60e-03,
951,2.40e-03,
952,-1.60e-03,
953,2.40e-03,
954,-1.60e-03,
955,1.60e-03,
956,2.00e-03,
957,-1.60e-03,
958,-2.40e-03,
959,2.40e-03,
960,1.60e-03,
961,-2.40e-03,
962,2.40e-03,
963,-3.20e-03,
964,-2.40e-03,
965,2.40e-03,
966,-2.40e-03,
967,2.40e-03,
968,2.80e-03,
969,-1.60e-03,
970,2.40e-03,
971,-2.40e-03,
972,2.00e-03,
973,-2.40e-03,
974,1.60e-03,
975,-1.60e-03,
976,2.40e-03,
977,-1.60e-03,
978,-1.60e-03,
979,2.00e-03,
980,-2.40e-03,
981,2.40e-03,
982,1.60e-03,
983,-1.60e-03,
984,2.40e-03,
985,-2.40e-03,
986,2.00e-03,
987,-1.60e-03,
988,-1.60e-03,
989,2.40e-03,
990,2.40e-03,
991,-2.40e-03,
992,-1.60e-03,
993,2.00e-03,
994,-1.60e-03,
995,2.80e-03,
996,1.60e-03,
997,-2.40e-03,
998,-1.60e-03,
999,3.20e-03,
1000,1.60e-03,
1001,-1.60e-03,
1002,2.00e-03,
1003,-2.40e-03,
1004,2.00e-03,
1005,-2.40e-03,
1006,-1.60e-03,
1007,2.00e-03,
1008,2.40e-03,
1009,-2.40e-03,
1010,1.20e-03,
1011,-2.40e-03,
1012,1.60e-03,
1013,-2.40e-03,
1014,-2.40e-03,
1015,1.60e-03,
1016,2.40e-03,
1017,-1.60e-03,
1018,-1.60e-03,
1019,2.80e-03,
1020,2.00e-03,
1021,-1.60e-03,
1022,1.60e-03,
1023,-2.40e-03,
1024,2.40e-03,
1025,-1.60e-03,
1026,-1.60e-03,
1027,2.00e-03,
1028,2.40e-03,
1029,-1.60e-03,
1030,-1.60e-03,
1031,2.40e-03,
1032,-1.60e-03,
1033,2.80e-03,
1034,-1.60e-03,
1035,2.40e-03,
1036,-1.60e-03,
1037,1.60e-03,
1038,2.00e-03,
1039,-2.40e-03,
1040,-3.20e-03,
1041,2.00e-03,
1042,1.60e-03,
1043,-2.40e-03,
1044,-1.60e-03,
1045,2.40e-03,
1046,-2.40e-03,
1047,2.40e-03,
1048,2.40e-03,
1049,-1.60e-03,
1050,-1.60e-03,
1051,2.40e-03,
1052,2.40e-03,
1053,-1.60e-03,
1054,-1.60e-03,
1055,2.40e-03,
1056,-1.60e-03,
1057,3.20e-03,
1058,-1.60e-03,
1059,2.40e-03,
1060,2.40e-03,
1061,-1.60e-03,
1062,-1.60e-03,
1063,2.40e-03,
1064,-1.60e-03,
1065,2.40e-03,
1066,3.20e-03,
1067,-1.60e-03,
1068,-1.60e-03,
1069,2.00e-03,
1070,-2.40e-03,
1071,2.80e-03,
1072,2.40e-03,
1073,-1.60e-03,
1074,2.40e-03,
1075,-1.60e-03,
1076,-1.60e-03,
1077,2.40e-03,
1078,-2.40e-03,
1079,2.40e-03,
1080,2.40e-03,
1081,-1.60e-03,
1082,-1.60e-03,
1083,3.20e-03,
1084,-8.00e-04,
1085,3.20e-03,
1086,-1.60e-03,
1087,2.40e-03,
1088,-1.60e-03,
1089,2.40e-03,
1090,1.60e-03,
1091,-2.40e-03,
1092,-1.60e-03,
1093,1.60e-03,
1094,-1.60e-03,
1095,1.60e-03,
1096,-1.60e-03,
1097,2.40e-03,
1098,-1.60e-03,
1099,2.40e-03,
1100,-8.00e-04,
1101,2.80e-03,
1102,-1.60e-03,
1103,3.20e-03,
1104,-1.60e-03,
1105,2.40e-03,
1106,2.40e-03,
1107,-2.40e-03,
1108,-1.60e-03,
1109,2.40e-03,
1110,1.60e-03,
1111,-1.60e-03,
1112,-2.40e-03,
1113,1.60e-03,
1114,-1.60e-03,
1115,2.40e-03,
1116,-1.60e-03,
1117,1.60e-03,
1118,-2.40e-03,
1119,2.00e-03,
1120,-2.40e-03,
1121,1.60e-03,
1122,-1.60e-03,
1123,3.20e-03,
1124,-1.60e-03,
1125,2.00e-03,
1126,-1.60e-03,
1127,2.80e-03,
1128,-1.60e-03,
1129,2.40e-03,
1130,2.00e-03,
1131,-1.60e-03,
1132,-1.60e-03,
1133,2.00e-03,
1134,-1.60e-03,
1135,2.40e-03,
1136,2.40e-03,
1137,-1.60e-03,
1138,1.60e-03,
1139,-2.40e-03,
1140,-1.60e-03,
1141,2.40e-03,
1142,-1.60e-03,
1143,2.00e-03,
1144,-2.40e-03,
1145,2.40e-03,
1146,1.60e-03,
1147,-2.40e-03,
1148,-2.40e-03,
1149,2.40e-03,
1150,2.40e-03,
1151,-1.60e-03,
1152,-8.00e-04,
1153,2.40e-03,
1154,-2.40e-03,
1155,2.40e-03,
1156,2.40e-03,
1157,-2.40e-03,
1158,-1.60e-03,
1159,2.40e-03,
1160,2.40e-03,
1161,-2.40e-03,
1162,2.00e-03,
1163,-1.60e-03,
1164,-1.60e-03,
1165,2.40e-03,
1166,1.60e-03,
1167,-1.60e-03,
1168,-1.60e-03,
1169,2.00e-03,
1170,2.40e-03,
1171,-1.60e-03,
1172,-1.60e-03,
1173,1.60e-03,
1174,-1.60e-03,
1175,2.40e-03,
1176,1.60e-03,
1177,-1.60e-03,
1178,-2.40e-03,
1179,2.40e-03,
1180,-2.40e-03,
1181,1.60e-03,
1182,-1.60e-03,
1183,2.40e-03,
1184,1.60e-03,
1185,-2.40e-03,
1186,-1.60e-03,
1187,1.60e-03,
1188,2.40e-03,
1189,-2.40e-03,
1190,1.60e-03,
1191,-2.40e-03,
1192,-1.60e-03,
1193,2.80e-03,
1194,-1.60e-03,
1195,2.00e-03,
1196,-2.40e-03,
1197,2.40e-03,
1198,-1.60e-03,
1199,2.40e-03,
