fastdiffamp/data-noise-set/weak-balanced/NewFile9.csv

X,CH1,Start,Increment,
Sequence,Volt,-1.198000e+01,2.000000e-02
0,2.00e-03,
1,-1.60e-03,
2,-1.60e-03,
3,2.80e-03,
4,-1.60e-03,
5,3.20e-03,
6,2.40e-03,
7,-1.60e-03,
8,-1.60e-03,
9,2.00e-03,
10,-1.60e-03,
11,2.40e-03,
12,-8.00e-04,
13,2.80e-03,
14,-1.60e-03,
15,2.40e-03,
16,2.40e-03,
17,-1.60e-03,
18,-1.60e-03,
19,2.00e-03,
20,-1.60e-03,
21,2.40e-03,
22,-1.60e-03,
23,2.40e-03,
24,2.40e-03,
25,-1.60e-03,
26,2.80e-03,
27,-1.60e-03,
28,-1.60e-03,
29,2.40e-03,
30,3.20e-03,
31,-2.40e-03,
32,-1.60e-03,
33,2.40e-03,
34,-8.00e-04,
35,2.40e-03,
36,-1.60e-03,
37,2.40e-03,
38,-2.40e-03,
39,2.00e-03,
40,2.40e-03,
41,-1.60e-03,
42,2.00e-03,
43,-1.60e-03,
44,-1.60e-03,
45,2.40e-03,
46,-1.60e-03,
47,2.40e-03,
48,-1.60e-03,
49,2.40e-03,
50,-1.60e-03,
51,1.60e-03,
52,-2.40e-03,
53,2.00e-03,
54,-1.60e-03,
55,2.00e-03,
56,2.00e-03,
57,-2.40e-03,
58,1.60e-03,
59,-2.40e-03,
60,-1.60e-03,
61,2.40e-03,
62,-8.00e-04,
63,2.40e-03,
64,-1.60e-03,
65,2.40e-03,
66,-1.60e-03,
67,2.40e-03,
68,-1.60e-03,
69,2.40e-03,
70,-2.40e-03,
71,2.40e-03,
72,2.00e-03,
73,-1.60e-03,
74,-2.40e-03,
75,2.40e-03,
76,-2.40e-03,
77,2.00e-03,
78,-1.60e-03,
79,2.40e-03,
80,-1.60e-03,
81,2.00e-03,
82,-1.60e-03,
83,1.60e-03,
84,-1.60e-03,
85,2.00e-03,
86,2.00e-03,
87,-2.40e-03,
88,-1.60e-03,
89,2.40e-03,
90,2.40e-03,
91,-1.60e-03,
92,-1.60e-03,
93,2.00e-03,
94,2.40e-03,
95,-1.60e-03,
96,2.40e-03,
97,-1.60e-03,
98,-1.60e-03,
99,2.40e-03,
100,1.60e-03,
101,-1.60e-03,
102,-1.60e-03,
103,3.20e-03,
104,-1.60e-03,
105,2.40e-03,
106,2.40e-03,
107,-1.60e-03,
108,-1.60e-03,
109,2.00e-03,
110,-1.60e-03,
111,2.40e-03,
112,2.40e-03,
113,-1.60e-03,
114,2.40e-03,
115,-1.60e-03,
116,-1.60e-03,
117,2.40e-03,
118,-1.60e-03,
119,2.40e-03,
120,1.60e-03,
121,-1.60e-03,
122,-1.60e-03,
123,2.40e-03,
124,-1.60e-03,
125,2.40e-03,
126,-1.60e-03,
127,2.40e-03,
128,-1.60e-03,
129,2.40e-03,
130,-1.60e-03,
131,2.80e-03,
132,-1.60e-03,
133,2.40e-03,
134,2.40e-03,
135,-1.60e-03,
136,-1.60e-03,
137,2.40e-03,
138,-1.60e-03,
139,3.20e-03,
140,2.40e-03,
141,-2.40e-03,
142,-2.40e-03,
143,2.00e-03,
144,2.40e-03,
145,-1.60e-03,
146,2.40e-03,
147,-2.40e-03,
148,-8.00e-04,
149,2.40e-03,
150,2.40e-03,
151,-1.20e-03,
152,2.40e-03,
153,-1.60e-03,
154,-2.40e-03,
155,2.40e-03,
156,2.00e-03,
157,-1.60e-03,
158,-1.60e-03,
159,2.40e-03,
160,-1.60e-03,
161,2.40e-03,
162,-1.60e-03,
163,2.80e-03,
164,-1.60e-03,
165,2.40e-03,
166,-1.60e-03,
167,2.00e-03,
168,-8.00e-04,
169,2.80e-03,
170,2.00e-03,
171,-1.60e-03,
172,-1.60e-03,
173,2.40e-03,
174,2.40e-03,
175,-1.60e-03,
176,2.40e-03,
177,-1.60e-03,
178,2.00e-03,
179,-8.00e-04,
180,-8.00e-04,
181,2.40e-03,
182,1.60e-03,
183,-1.60e-03,
184,-2.40e-03,
185,2.00e-03,
186,2.00e-03,
187,-1.60e-03,
188,2.80e-03,
189,-1.60e-03,
190,-8.00e-04,
191,2.80e-03,
192,2.00e-03,
193,-8.00e-04,
194,2.80e-03,
195,-8.00e-04,
196,-1.60e-03,
197,2.40e-03,
198,-8.00e-04,
199,2.40e-03,
200,2.40e-03,
201,-1.60e-03,
202,-1.60e-03,
203,2.80e-03,
204,-1.60e-03,
205,2.40e-03,
206,-8.00e-04,
207,2.40e-03,
208,-1.60e-03,
209,2.40e-03,
210,2.00e-03,
211,-1.60e-03,
212,-1.60e-03,
213,2.00e-03,
214,-1.60e-03,
215,2.40e-03,
216,-1.60e-03,
217,2.40e-03,
218,2.40e-03,
219,-1.60e-03,
220,-8.00e-04,
221,2.40e-03,
222,-1.60e-03,
223,2.40e-03,
224,2.80e-03,
225,-1.60e-03,
226,-1.60e-03,
227,2.40e-03,
228,-1.60e-03,
229,2.40e-03,
230,-1.60e-03,
231,2.40e-03,
232,-1.60e-03,
233,2.40e-03,
234,-1.60e-03,
235,2.00e-03,
236,-1.60e-03,
237,2.40e-03,
238,-1.60e-03,
239,2.40e-03,
240,-1.60e-03,
241,2.00e-03,
242,-2.40e-03,
243,2.40e-03,
244,-2.40e-03,
245,2.00e-03,
246,1.60e-03,
247,-1.60e-03,
248,-1.60e-03,
249,2.40e-03,
250,1.60e-03,
251,-3.20e-03,
252,-1.60e-03,
253,2.00e-03,
254,2.00e-03,
255,-1.60e-03,
256,-1.60e-03,
257,2.40e-03,
258,-1.60e-03,
259,2.00e-03,
260,2.40e-03,
261,-1.60e-03,
262,-1.60e-03,
263,2.40e-03,
264,1.60e-03,
265,-1.60e-03,
266,2.40e-03,
267,-1.60e-03,
268,-1.60e-03,
269,2.00e-03,
270,-8.00e-04,
271,2.40e-03,
272,2.40e-03,
273,-1.60e-03,
274,-1.60e-03,
275,2.00e-03,
276,-1.60e-03,
277,2.40e-03,
278,-1.60e-03,
279,2.40e-03,
280,2.00e-03,
281,-2.40e-03,
282,-2.40e-03,
283,2.40e-03,
284,-1.60e-03,
285,1.60e-03,
286,-1.60e-03,
287,2.80e-03,
288,-1.60e-03,
289,2.40e-03,
290,-2.40e-03,
291,1.60e-03,
292,-1.60e-03,
293,2.40e-03,
294,2.40e-03,
295,-2.40e-03,
296,1.60e-03,
297,-2.40e-03,
298,-1.60e-03,
299,2.00e-03,
300,2.80e-03,
301,-1.60e-03,
302,-1.60e-03,
303,2.40e-03,
304,-1.60e-03,
305,2.40e-03,
306,-1.60e-03,
307,1.60e-03,
308,-1.60e-03,
309,2.40e-03,
310,2.40e-03,
311,-1.60e-03,
312,-1.60e-03,
313,2.40e-03,
314,1.60e-03,
315,-1.60e-03,
316,-1.60e-03,
317,2.80e-03,
318,1.60e-03,
319,-1.60e-03,
320,2.00e-03,
321,-1.60e-03,
322,2.40e-03,
323,-1.60e-03,
324,-1.60e-03,
325,2.40e-03,
326,-1.60e-03,
327,2.40e-03,
328,2.40e-03,
329,-8.00e-04,
330,2.40e-03,
331,-8.00e-04,
332,2.40e-03,
333,-1.60e-03,
334,2.40e-03,
335,-1.60e-03,
336,2.40e-03,
337,-1.60e-03,
338,-1.60e-03,
339,2.40e-03,
340,-8.00e-04,
341,2.40e-03,
342,-1.60e-03,
343,2.80e-03,
344,-1.60e-03,
345,2.40e-03,
346,1.60e-03,
347,-1.60e-03,
348,-1.60e-03,
349,2.00e-03,
350,-1.60e-03,
351,3.20e-03,
352,-8.00e-04,
353,2.40e-03,
354,-1.60e-03,
355,2.40e-03,
356,-1.60e-03,
357,2.80e-03,
358,2.00e-03,
359,-1.60e-03,
360,2.40e-03,
361,-1.60e-03,
362,2.40e-03,
363,-1.60e-03,
364,-1.60e-03,
365,2.40e-03,
366,2.40e-03,
367,-2.40e-03,
368,1.60e-03,
369,-1.60e-03,
370,2.40e-03,
371,-1.60e-03,
372,1.60e-03,
373,-1.60e-03,
374,-8.00e-04,
375,2.80e-03,
376,-1.60e-03,
377,2.00e-03,
378,2.00e-03,
379,-1.60e-03,
380,-1.60e-03,
381,2.40e-03,
382,-1.60e-03,
383,2.40e-03,
384,2.40e-03,
385,-2.40e-03,
386,-1.60e-03,
387,2.40e-03,
388,-1.60e-03,
389,3.20e-03,
390,2.00e-03,
391,-1.60e-03,
392,2.40e-03,
393,-1.60e-03,
394,-2.40e-03,
395,2.40e-03,
396,2.40e-03,
397,-2.40e-03,
398,-2.40e-03,
399,2.40e-03,
400,-1.60e-03,
401,2.40e-03,
402,2.40e-03,
403,-2.40e-03,
404,1.60e-03,
405,-1.60e-03,
406,-8.00e-04,
407,2.40e-03,
408,2.40e-03,
409,-1.60e-03,
410,2.40e-03,
411,-1.60e-03,
412,1.60e-03,
413,-2.40e-03,
414,-2.40e-03,
415,1.60e-03,
416,-2.40e-03,
417,2.40e-03,
418,1.60e-03,
419,-1.60e-03,
420,-1.60e-03,
421,2.00e-03,
422,-2.40e-03,
423,2.40e-03,
424,2.40e-03,
425,-1.60e-03,
426,-1.60e-03,
427,2.00e-03,
428,-1.60e-03,
429,2.40e-03,
430,2.00e-03,
431,-1.60e-03,
432,-1.60e-03,
433,2.00e-03,
434,2.00e-03,
435,-1.60e-03,
436,-1.60e-03,
437,2.40e-03,
438,2.00e-03,
439,-1.60e-03,
440,1.60e-03,
441,-2.40e-03,
442,2.40e-03,
443,-1.60e-03,
444,-1.60e-03,
445,2.00e-03,
446,2.40e-03,
447,-1.60e-03,
448,-1.60e-03,
449,3.20e-03,
450,-1.60e-03,
451,2.00e-03,
452,-2.40e-03,
453,2.40e-03,
454,-8.00e-04,
455,2.40e-03,
456,-1.60e-03,
457,3.20e-03,
458,2.80e-03,
459,-1.60e-03,
460,-1.60e-03,
461,2.40e-03,
462,-1.60e-03,
463,1.60e-03,
464,-1.60e-03,
465,2.40e-03,
466,-1.60e-03,
467,2.40e-03,
468,2.00e-03,
469,-1.60e-03,
470,-1.60e-03,
471,2.40e-03,
472,-2.40e-03,
473,2.00e-03,
474,-2.40e-03,
475,2.40e-03,
476,-1.60e-03,
477,2.00e-03,
478,-2.40e-03,
479,1.60e-03,
480,-2.40e-03,
481,1.60e-03,
482,1.60e-03,
483,-1.60e-03,
484,-1.60e-03,
485,2.40e-03,
486,1.60e-03,
487,-2.40e-03,
488,2.00e-03,
489,-2.40e-03,
490,-1.60e-03,
491,2.00e-03,
492,-1.60e-03,
493,2.40e-03,
494,-2.40e-03,
495,2.40e-03,
496,-1.60e-03,
497,2.40e-03,
498,-1.60e-03,
499,2.40e-03,
500,-1.60e-03,
501,2.40e-03,
502,1.60e-03,
503,-1.60e-03,
504,-1.60e-03,
505,2.40e-03,
506,-1.60e-03,
507,2.40e-03,
508,2.40e-03,
509,-1.60e-03,
510,-2.40e-03,
511,2.40e-03,
512,-1.60e-03,
513,2.40e-03,
514,2.40e-03,
515,-1.60e-03,
516,1.60e-03,
517,-1.60e-03,
518,-1.60e-03,
519,1.60e-03,
520,-1.60e-03,
521,2.40e-03,
522,-1.60e-03,
523,2.00e-03,
524,2.00e-03,
525,-2.40e-03,
526,-2.40e-03,
527,2.40e-03,
528,-8.00e-04,
529,2.80e-03,
530,-1.60e-03,
531,2.40e-03,
532,2.40e-03,
533,-1.60e-03,
534,-1.60e-03,
535,2.40e-03,
536,-1.60e-03,
537,2.80e-03,
538,-2.40e-03,
539,2.40e-03,
540,-8.00e-04,
541,3.20e-03,
542,-1.60e-03,
543,2.40e-03,
544,-1.60e-03,
545,2.00e-03,
546,2.40e-03,
547,-1.60e-03,
548,-1.60e-03,
549,2.80e-03,
550,2.40e-03,
551,-1.60e-03,
552,-1.60e-03,
553,1.60e-03,
554,1.60e-03,
555,-1.60e-03,
556,-1.60e-03,
557,2.80e-03,
558,2.40e-03,
559,-1.60e-03,
560,-1.60e-03,
561,1.60e-03,
562,-1.60e-03,
563,2.00e-03,
564,-1.60e-03,
565,2.40e-03,
566,-1.60e-03,
567,2.40e-03,
568,1.60e-03,
569,-2.40e-03,
570,-2.40e-03,
571,2.40e-03,
572,1.60e-03,
573,-1.60e-03,
574,-1.60e-03,
575,2.40e-03,
576,-2.40e-03,
577,2.40e-03,
578,-2.40e-03,
579,2.40e-03,
580,-1.60e-03,
581,2.00e-03,
582,-1.60e-03,
583,1.60e-03,
584,1.60e-03,
585,-2.40e-03,
586,-1.60e-03,
587,2.40e-03,
588,-1.60e-03,
589,2.00e-03,
590,2.40e-03,
591,-2.40e-03,
592,-1.60e-03,
593,2.00e-03,
594,-1.60e-03,
595,2.40e-03,
596,-1.60e-03,
597,2.40e-03,
598,-1.60e-03,
599,2.40e-03,
600,-1.20e-03,
601,2.40e-03,
602,-1.60e-03,
603,2.40e-03,
604,2.40e-03,
605,-2.40e-03,
606,-1.60e-03,
607,2.80e-03,
608,2.00e-03,
609,-1.60e-03,
610,-2.40e-03,
611,2.40e-03,
612,-1.60e-03,
613,2.40e-03,
614,2.40e-03,
615,-1.60e-03,
616,-2.40e-03,
617,2.40e-03,
618,1.60e-03,
619,-1.60e-03,
620,-8.00e-04,
621,2.40e-03,
622,-1.60e-03,
623,2.00e-03,
624,-1.60e-03,
625,2.40e-03,
626,-1.60e-03,
627,2.40e-03,
628,2.40e-03,
629,-1.60e-03,
630,-1.60e-03,
631,3.20e-03,
632,-1.60e-03,
633,2.40e-03,
634,-1.60e-03,
635,3.20e-03,
636,-1.60e-03,
637,2.40e-03,
638,2.40e-03,
639,-1.60e-03,
640,-8.00e-04,
641,2.40e-03,
642,3.20e-03,
643,-2.40e-03,
644,2.40e-03,
645,-8.00e-04,
646,2.40e-03,
647,-1.60e-03,
648,-1.60e-03,
649,2.40e-03,
650,-1.60e-03,
651,2.40e-03,
652,-1.60e-03,
653,2.40e-03,
654,2.40e-03,
655,-8.00e-04,
656,2.00e-03,
657,-1.60e-03,
658,2.40e-03,
659,-2.40e-03,
660,2.40e-03,
661,-1.60e-03,
662,-1.60e-03,
663,3.20e-03,
664,-8.00e-04,
665,2.40e-03,
666,-1.60e-03,
667,2.40e-03,
668,-8.00e-04,
669,2.80e-03,
670,2.40e-03,
671,-8.00e-04,
672,-1.60e-03,
673,3.20e-03,
674,-1.60e-03,
675,2.80e-03,
676,-1.60e-03,
677,2.40e-03,
678,2.40e-03,
679,-8.00e-04,
680,-8.00e-04,
681,4.00e-03,
682,3.20e-03,
683,-8.00e-04,
684,-1.60e-03,
685,3.20e-03,
686,3.20e-03,
687,-1.60e-03,
688,2.40e-03,
689,-8.00e-04,
690,2.40e-03,
691,-1.60e-03,
692,2.40e-03,
693,-1.60e-03,
694,3.20e-03,
695,-1.60e-03,
696,-8.00e-04,
697,2.40e-03,
698,2.40e-03,
699,-8.00e-04,
700,-8.00e-04,
701,2.80e-03,
702,-8.00e-04,
703,3.20e-03,
704,2.40e-03,
705,-1.60e-03,
706,2.40e-03,
707,-1.60e-03,
708,-1.60e-03,
709,2.40e-03,
710,-8.00e-04,
711,2.80e-03,
712,-1.20e-03,
713,3.20e-03,
714,2.40e-03,
715,-2.40e-03,
716,-1.60e-03,
717,2.40e-03,
718,2.80e-03,
719,-1.60e-03,
720,2.40e-03,
721,-1.60e-03,
722,-8.00e-04,
723,2.80e-03,
724,2.40e-03,
725,-1.60e-03,
726,-1.60e-03,
727,2.00e-03,
728,-1.60e-03,
729,4.00e-03,
730,2.40e-03,
731,-1.60e-03,
732,-8.00e-04,
733,2.40e-03,
734,2.40e-03,
735,-1.60e-03,
736,-8.00e-04,
737,3.20e-03,
738,-8.00e-04,
739,3.20e-03,
740,2.40e-03,
741,-8.00e-04,
742,-1.60e-03,
743,2.40e-03,
744,2.00e-03,
745,-2.40e-03,
746,-8.00e-04,
747,2.40e-03,
748,-1.60e-03,
749,3.20e-03,
750,-1.60e-03,
751,2.80e-03,
752,3.20e-03,
753,-1.60e-03,
754,2.40e-03,
755,-8.00e-04,
756,-1.60e-03,
757,2.40e-03,
758,-8.00e-04,
759,2.40e-03,
760,2.40e-03,
761,-1.60e-03,
762,-1.60e-03,
763,2.40e-03,
764,2.40e-03,
765,-8.00e-04,
766,-8.00e-04,
767,2.40e-03,
768,2.40e-03,
769,-1.60e-03,
770,2.40e-03,
771,-1.60e-03,
772,-1.60e-03,
773,2.00e-03,
774,-1.60e-03,
775,2.40e-03,
776,2.00e-03,
777,-1.60e-03,
778,2.40e-03,
779,-1.60e-03,
780,2.80e-03,
781,-1.60e-03,
782,-2.40e-03,
783,2.40e-03,
784,-1.60e-03,
785,2.40e-03,
786,-1.60e-03,
787,2.00e-03,
788,-1.60e-03,
789,2.40e-03,
790,2.00e-03,
791,-1.60e-03,
792,-1.60e-03,
793,2.40e-03,
794,2.00e-03,
795,-1.60e-03,
796,-1.60e-03,
797,1.60e-03,
798,2.40e-03,
799,-2.40e-03,
800,2.40e-03,
801,-1.60e-03,
802,2.40e-03,
803,-1.60e-03,
804,2.80e-03,
805,-1.60e-03,
806,2.40e-03,
807,-2.40e-03,
808,-1.60e-03,
809,2.40e-03,
810,-1.60e-03,
811,2.40e-03,
812,-1.60e-03,
813,3.20e-03,
814,1.60e-03,
815,-1.60e-03,
816,-2.40e-03,
817,2.40e-03,
818,2.80e-03,
819,-8.00e-04,
820,-2.40e-03,
821,2.80e-03,
822,-1.60e-03,
823,2.40e-03,
824,-1.60e-03,
825,2.40e-03,
826,-1.60e-03,
827,2.40e-03,
828,-1.60e-03,
829,3.20e-03,
830,-1.60e-03,
831,2.00e-03,
832,-1.60e-03,
833,2.40e-03,
834,2.40e-03,
835,-1.60e-03,
836,-8.00e-04,
837,1.60e-03,
838,2.40e-03,
839,-1.60e-03,
840,-1.60e-03,
841,2.00e-03,
842,-8.00e-04,
843,2.80e-03,
844,-1.60e-03,
845,2.00e-03,
846,-1.60e-03,
847,2.80e-03,
848,-2.40e-03,
849,2.40e-03,
850,-8.00e-04,
851,2.00e-03,
852,-1.60e-03,
853,2.40e-03,
854,-1.60e-03,
855,2.40e-03,
856,-1.60e-03,
857,2.00e-03,
858,2.40e-03,
859,-1.60e-03,
860,2.40e-03,
861,-2.40e-03,
862,-1.60e-03,
863,1.60e-03,
864,-1.60e-03,
865,3.20e-03,
866,-1.60e-03,
867,2.40e-03,
868,-1.60e-03,
869,3.20e-03,
870,-8.00e-04,
871,2.40e-03,
872,-1.60e-03,
873,2.40e-03,
874,-1.60e-03,
875,2.40e-03,
876,-1.60e-03,
877,2.80e-03,
878,2.40e-03,
879,-1.60e-03,
880,2.80e-03,
881,-1.60e-03,
882,2.00e-03,
883,-1.60e-03,
884,-8.00e-04,
885,2.40e-03,
886,-8.00e-04,
887,2.00e-03,
888,-8.00e-04,
889,2.40e-03,
890,-1.60e-03,
891,2.40e-03,
892,-1.60e-03,
893,2.40e-03,
894,-8.00e-04,
895,2.40e-03,
896,-8.00e-04,
897,2.00e-03,
898,-1.60e-03,
899,3.20e-03,
900,-1.60e-03,
901,2.40e-03,
902,-1.60e-03,
903,2.80e-03,
904,2.40e-03,
905,-1.60e-03,
906,-1.60e-03,
907,2.40e-03,
908,-1.60e-03,
909,2.40e-03,
910,-1.60e-03,
911,2.40e-03,
912,-8.00e-04,
913,2.00e-03,
914,-8.00e-04,
915,2.80e-03,
916,-1.60e-03,
917,2.40e-03,
918,2.40e-03,
919,-1.60e-03,
920,2.40e-03,
921,-1.60e-03,
922,-1.60e-03,
923,2.40e-03,
924,-1.60e-03,
925,1.60e-03,
926,-1.60e-03,
927,2.40e-03,
928,-1.60e-03,
929,2.00e-03,
930,-1.20e-03,
931,2.40e-03,
932,2.80e-03,
933,-1.20e-03,
934,-1.60e-03,
935,2.40e-03,
936,4.00e-03,
937,-1.60e-03,
938,-1.60e-03,
939,2.80e-03,
940,-8.00e-04,
941,2.40e-03,
942,2.40e-03,
943,-1.60e-03,
944,-1.60e-03,
945,2.80e-03,
946,1.60e-03,
947,-1.60e-03,
948,-1.60e-03,
949,2.40e-03,
950,-1.60e-03,
951,2.80e-03,
952,-8.00e-04,
953,2.80e-03,
954,3.20e-03,
955,-8.00e-04,
956,-8.00e-04,
957,2.40e-03,
958,-8.00e-04,
959,4.00e-03,
960,-8.00e-04,
961,2.80e-03,
962,-8.00e-04,
963,2.80e-03,
964,-8.00e-04,
965,2.40e-03,
966,-8.00e-04,
967,2.40e-03,
968,-8.00e-04,
969,2.80e-03,
970,2.40e-03,
971,-1.60e-03,
972,-1.60e-03,
973,3.20e-03,
974,-1.60e-03,
975,2.80e-03,
976,-1.60e-03,
977,2.40e-03,
978,-8.00e-04,
979,3.20e-03,
980,3.20e-03,
981,-2.40e-03,
982,-8.00e-04,
983,2.40e-03,
984,-8.00e-04,
985,2.40e-03,
986,2.40e-03,
987,-2.40e-03,
988,2.40e-03,
989,-1.60e-03,
990,-1.60e-03,
991,2.00e-03,
992,-2.40e-03,
993,2.00e-03,
994,2.40e-03,
995,-1.60e-03,
996,3.20e-03,
997,-1.60e-03,
998,-8.00e-04,
999,2.40e-03,
1000,-8.00e-04,
1001,2.80e-03,
1002,1.60e-03,
1003,-1.60e-03,
1004,2.40e-03,
1005,-1.60e-03,
1006,2.40e-03,
1007,-1.60e-03,
1008,2.40e-03,
1009,-1.60e-03,
1010,2.00e-03,
1011,-1.60e-03,
1012,2.40e-03,
1013,-8.00e-04,
1014,3.20e-03,
1015,-1.60e-03,
1016,-1.60e-03,
1017,2.40e-03,
1018,2.00e-03,
1019,-2.40e-03,
1020,4.00e-03,
1021,-2.40e-03,
1022,-1.60e-03,
1023,2.40e-03,
1024,-8.00e-04,
1025,2.40e-03,
1026,2.80e-03,
1027,-2.40e-03,
1028,-1.60e-03,
1029,2.40e-03,
1030,2.40e-03,
1031,-1.60e-03,
1032,2.40e-03,
1033,-1.60e-03,
1034,-1.60e-03,
1035,2.00e-03,
1036,2.40e-03,
1037,-1.60e-03,
1038,-1.60e-03,
1039,2.00e-03,
1040,-1.60e-03,
1041,3.20e-03,
1042,3.20e-03,
1043,-1.60e-03,
1044,2.40e-03,
1045,-1.60e-03,
1046,-8.00e-04,
1047,2.80e-03,
1048,2.40e-03,
1049,-1.60e-03,
1050,3.20e-03,
1051,-1.60e-03,
1052,2.80e-03,
1053,-1.60e-03,
1054,2.40e-03,
1055,-1.60e-03,
1056,2.40e-03,
1057,-1.60e-03,
1058,-1.60e-03,
1059,2.40e-03,
1060,2.80e-03,
1061,-1.60e-03,
1062,2.40e-03,
1063,-4.00e-04,
1064,-8.00e-04,
1065,2.00e-03,
1066,2.40e-03,
1067,-1.60e-03,
1068,-1.60e-03,
1069,3.20e-03,
1070,2.40e-03,
1071,-1.60e-03,
1072,-8.00e-04,
1073,2.40e-03,
1074,3.20e-03,
1075,-1.60e-03,
1076,-1.60e-03,
1077,2.80e-03,
1078,-1.60e-03,
1079,2.40e-03,
1080,-1.60e-03,
1081,2.00e-03,
1082,1.60e-03,
1083,-1.60e-03,
1084,-1.60e-03,
1085,2.40e-03,
1086,-1.60e-03,
1087,2.40e-03,
1088,-1.20e-03,
1089,3.20e-03,
1090,-2.40e-03,
1091,2.40e-03,
1092,2.40e-03,
1093,-1.60e-03,
1094,2.80e-03,
1095,-1.60e-03,
1096,-2.40e-03,
1097,3.20e-03,
1098,-1.20e-03,
1099,2.40e-03,
1100,-8.00e-04,
1101,2.40e-03,
1102,1.60e-03,
1103,-2.40e-03,
1104,-8.00e-04,
1105,3.20e-03,
1106,-8.00e-04,
1107,2.40e-03,
1108,2.00e-03,
1109,-1.60e-03,
1110,3.20e-03,
1111,-1.60e-03,
1112,-1.60e-03,
1113,1.60e-03,
1114,-8.00e-04,
1115,2.40e-03,
1116,-2.40e-03,
1117,2.40e-03,
1118,-1.60e-03,
1119,2.40e-03,
1120,-1.60e-03,
1121,3.20e-03,
1122,2.40e-03,
1123,-1.60e-03,
1124,2.40e-03,
1125,-1.60e-03,
1126,-1.60e-03,
1127,2.40e-03,
1128,2.40e-03,
1129,-1.60e-03,
1130,-1.60e-03,
1131,2.40e-03,
1132,2.40e-03,
1133,-1.60e-03,
1134,-1.60e-03,
1135,2.40e-03,
1136,2.40e-03,
1137,-1.60e-03,
1138,2.40e-03,
1139,-1.60e-03,
1140,-8.00e-04,
1141,2.80e-03,
1142,2.40e-03,
1143,-1.60e-03,
1144,-1.60e-03,
1145,2.40e-03,
1146,2.40e-03,
1147,-1.60e-03,
1148,-1.60e-03,
1149,3.20e-03,
1150,2.40e-03,
1151,-2.40e-03,
1152,-8.00e-04,
1153,2.80e-03,
1154,-1.60e-03,
1155,2.40e-03,
1156,-1.60e-03,
1157,3.20e-03,
1158,-8.00e-04,
1159,2.40e-03,
1160,2.80e-03,
1161,-1.60e-03,
1162,2.00e-03,
1163,-8.00e-04,
1164,3.20e-03,
1165,-1.60e-03,
1166,-8.00e-04,
1167,2.40e-03,
1168,2.40e-03,
1169,-1.60e-03,
1170,-1.60e-03,
1171,4.00e-03,
1172,-1.60e-03,
1173,3.20e-03,
1174,-8.00e-04,
1175,2.80e-03,
1176,2.40e-03,
1177,-8.00e-04,
1178,-8.00e-04,
1179,2.40e-03,
1180,-1.60e-03,
1181,2.40e-03,
1182,2.40e-03,
1183,-8.00e-04,
