fastdiffamp/data-noise-set/weak-balanced/NewFile2.csv

X,CH1,Start,Increment,
Sequence,Volt,-1.198000e+01,2.000000e-02
0,-8.00e-04,
1,2.40e-03,
2,2.00e-03,
3,-1.60e-03,
4,2.00e-03,
5,-8.00e-04,
6,2.40e-03,
7,-1.60e-03,
8,2.40e-03,
9,-1.60e-03,
10,-8.00e-04,
11,2.40e-03,
12,2.40e-03,
13,-1.60e-03,
14,2.40e-03,
15,-1.60e-03,
16,-1.60e-03,
17,2.00e-03,
18,2.40e-03,
19,-1.60e-03,
20,-1.60e-03,
21,2.40e-03,
22,2.40e-03,
23,-1.60e-03,
24,-8.00e-04,
25,2.40e-03,
26,-8.00e-04,
27,2.80e-03,
28,2.40e-03,
29,-1.60e-03,
30,3.20e-03,
31,-1.60e-03,
32,2.40e-03,
33,-1.60e-03,
34,-1.60e-03,
35,2.40e-03,
36,2.40e-03,
37,-8.00e-04,
38,-1.60e-03,
39,2.80e-03,
40,2.40e-03,
41,-2.40e-03,
42,2.40e-03,
43,-1.60e-03,
44,2.40e-03,
45,-1.60e-03,
46,-8.00e-04,
47,2.80e-03,
48,-8.00e-04,
49,2.40e-03,
50,2.40e-03,
51,-1.60e-03,
52,2.40e-03,
53,-1.60e-03,
54,-1.60e-03,
55,2.40e-03,
56,2.40e-03,
57,-8.00e-04,
58,2.40e-03,
59,-1.60e-03,
60,2.40e-03,
61,-1.60e-03,
62,-8.00e-04,
63,2.40e-03,
64,-8.00e-04,
65,2.40e-03,
66,2.40e-03,
67,-1.60e-03,
68,2.40e-03,
69,-1.60e-03,
70,2.40e-03,
71,-1.60e-03,
72,2.40e-03,
73,-1.60e-03,
74,-1.60e-03,
75,2.40e-03,
76,2.40e-03,
77,-1.60e-03,
78,2.40e-03,
79,-1.60e-03,
80,-1.60e-03,
81,2.40e-03,
82,-1.60e-03,
83,2.00e-03,
84,-1.60e-03,
85,2.80e-03,
86,2.40e-03,
87,-1.60e-03,
88,2.40e-03,
89,-1.60e-03,
90,3.20e-03,
91,-1.60e-03,
92,-8.00e-04,
93,2.80e-03,
94,-1.60e-03,
95,3.20e-03,
96,-1.60e-03,
97,2.80e-03,
98,2.40e-03,
99,-1.60e-03,
100,2.40e-03,
101,-1.60e-03,
102,2.40e-03,
103,-1.60e-03,
104,-8.00e-04,
105,2.00e-03,
106,-1.60e-03,
107,2.40e-03,
108,-8.00e-04,
109,2.40e-03,
110,2.40e-03,
111,-1.60e-03,
112,2.40e-03,
113,-1.60e-03,
114,2.00e-03,
115,-2.40e-03,
116,2.40e-03,
117,-8.00e-04,
118,2.00e-03,
119,-1.60e-03,
120,-8.00e-04,
121,2.40e-03,
122,-1.60e-03,
123,2.40e-03,
124,3.20e-03,
125,-1.60e-03,
126,2.40e-03,
127,-1.60e-03,
128,2.40e-03,
129,-1.60e-03,
130,2.40e-03,
131,-8.00e-04,
132,2.40e-03,
133,-1.60e-03,
134,-1.60e-03,
135,2.40e-03,
136,-8.00e-04,
137,2.40e-03,
138,2.40e-03,
139,-1.60e-03,
140,3.20e-03,
141,-1.60e-03,
142,-1.60e-03,
143,2.40e-03,
144,-1.60e-03,
145,2.40e-03,
146,-1.60e-03,
147,2.40e-03,
148,2.40e-03,
149,-2.00e-03,
150,2.40e-03,
151,-1.60e-03,
152,-1.60e-03,
153,2.40e-03,
154,-1.60e-03,
155,3.20e-03,
156,1.60e-03,
157,-1.60e-03,
158,2.40e-03,
159,-1.60e-03,
160,-1.60e-03,
161,2.80e-03,
162,2.40e-03,
163,-1.60e-03,
164,-1.60e-03,
165,2.80e-03,
166,2.00e-03,
167,-1.60e-03,
168,2.40e-03,
169,-1.60e-03,
170,2.00e-03,
171,-1.60e-03,
172,2.40e-03,
173,-2.40e-03,
174,-1.60e-03,
175,2.40e-03,
176,-1.60e-03,
177,2.40e-03,
178,1.60e-03,
179,-2.40e-03,
180,1.60e-03,
181,-3.20e-03,
182,2.00e-03,
183,-1.60e-03,
184,-1.60e-03,
185,2.40e-03,
186,-1.60e-03,
187,2.00e-03,
188,1.60e-03,
189,-1.60e-03,
190,2.40e-03,
191,-1.60e-03,
192,3.20e-03,
193,-8.00e-04,
194,-8.00e-04,
195,2.80e-03,
196,2.40e-03,
197,-1.60e-03,
198,2.80e-03,
199,-1.60e-03,
200,2.40e-03,
201,-2.40e-03,
202,2.40e-03,
203,-2.40e-03,
204,-1.60e-03,
205,2.40e-03,
206,-1.60e-03,
207,2.40e-03,
208,1.60e-03,
209,-1.60e-03,
210,2.40e-03,
211,-1.60e-03,
212,-1.60e-03,
213,1.60e-03,
214,2.40e-03,
215,-1.60e-03,
216,2.40e-03,
217,-1.60e-03,
218,2.40e-03,
219,-2.40e-03,
220,2.40e-03,
221,-2.40e-03,
222,2.40e-03,
223,-3.20e-03,
224,1.60e-03,
225,-1.60e-03,
226,2.40e-03,
227,-2.40e-03,
228,-1.60e-03,
229,2.00e-03,
230,-1.60e-03,
231,2.40e-03,
232,2.40e-03,
233,-2.40e-03,
234,-2.40e-03,
235,1.60e-03,
236,-1.60e-03,
237,1.60e-03,
238,2.40e-03,
239,-2.40e-03,
240,-1.60e-03,
241,2.00e-03,
242,2.00e-03,
243,-1.60e-03,
244,-1.60e-03,
245,2.40e-03,
246,2.40e-03,
247,-1.60e-03,
248,1.60e-03,
249,-2.40e-03,
250,-1.60e-03,
251,1.60e-03,
252,-8.00e-04,
253,2.40e-03,
254,2.40e-03,
255,-1.60e-03,
256,1.60e-03,
257,-2.40e-03,
258,-8.00e-04,
259,2.40e-03,
260,1.60e-03,
261,-2.40e-03,
262,2.40e-03,
263,-1.60e-03,
264,-2.40e-03,
265,2.40e-03,
266,2.40e-03,
267,-2.40e-03,
268,2.40e-03,
269,-1.60e-03,
270,1.60e-03,
271,-1.60e-03,
272,2.00e-03,
273,-1.60e-03,
274,-1.60e-03,
275,2.00e-03,
276,-1.60e-03,
277,2.00e-03,
278,2.40e-03,
279,-8.00e-04,
280,-1.60e-03,
281,2.40e-03,
282,3.20e-03,
283,-1.60e-03,
284,2.40e-03,
285,-1.60e-03,
286,-1.60e-03,
287,2.40e-03,
288,2.00e-03,
289,-2.40e-03,
290,2.40e-03,
291,-1.60e-03,
292,2.40e-03,
293,-1.60e-03,
294,-1.60e-03,
295,2.40e-03,
296,2.00e-03,
297,-1.60e-03,
298,-1.60e-03,
299,2.00e-03,
300,2.40e-03,
301,-8.00e-04,
302,3.20e-03,
303,-1.60e-03,
304,-1.60e-03,
305,2.80e-03,
306,-1.60e-03,
307,2.40e-03,
308,2.40e-03,
309,-2.40e-03,
310,1.60e-03,
311,-1.60e-03,
312,2.40e-03,
313,-1.60e-03,
314,2.40e-03,
315,-1.60e-03,
316,2.40e-03,
317,-1.60e-03,
318,-1.60e-03,
319,3.20e-03,
320,2.40e-03,
321,-1.60e-03,
322,-2.40e-03,
323,2.40e-03,
324,2.40e-03,
325,-1.60e-03,
326,-1.60e-03,
327,2.40e-03,
328,-1.60e-03,
329,2.80e-03,
330,1.60e-03,
331,-1.60e-03,
332,2.40e-03,
333,-1.60e-03,
334,-1.60e-03,
335,2.40e-03,
336,2.00e-03,
337,-1.60e-03,
338,2.40e-03,
339,-1.60e-03,
340,2.00e-03,
341,-1.60e-03,
342,-1.60e-03,
343,2.40e-03,
344,1.60e-03,
345,-1.60e-03,
346,2.40e-03,
347,-1.60e-03,
348,-1.60e-03,
349,2.40e-03,
350,1.60e-03,
351,-1.60e-03,
352,-1.60e-03,
353,2.00e-03,
354,-1.60e-03,
355,1.60e-03,
356,2.00e-03,
357,-2.40e-03,
358,2.40e-03,
359,-2.40e-03,
360,1.60e-03,
361,-1.60e-03,
362,1.60e-03,
363,-2.40e-03,
364,-8.00e-04,
365,2.40e-03,
366,2.40e-03,
367,-2.40e-03,
368,-1.60e-03,
369,2.40e-03,
370,-1.60e-03,
371,2.40e-03,
372,2.00e-03,
373,-1.60e-03,
374,-8.00e-04,
375,3.20e-03,
376,2.40e-03,
377,-1.60e-03,
378,-1.60e-03,
379,2.40e-03,
380,2.40e-03,
381,-1.60e-03,
382,2.40e-03,
383,-1.60e-03,
384,-1.60e-03,
385,2.40e-03,
386,1.60e-03,
387,-1.60e-03,
388,-2.40e-03,
389,2.00e-03,
390,2.00e-03,
391,-2.40e-03,
392,2.40e-03,
393,-1.60e-03,
394,2.00e-03,
395,-1.60e-03,
396,2.80e-03,
397,-1.60e-03,
398,1.60e-03,
399,-1.60e-03,
400,2.40e-03,
401,-2.40e-03,
402,1.60e-03,
403,-1.60e-03,
404,2.40e-03,
405,-8.00e-04,
406,1.60e-03,
407,-1.60e-03,
408,1.60e-03,
409,-1.60e-03,
410,1.60e-03,
411,-1.60e-03,
412,-1.60e-03,
413,2.40e-03,
414,2.40e-03,
415,-2.40e-03,
416,-1.60e-03,
417,2.40e-03,
418,-1.60e-03,
419,2.40e-03,
420,-1.60e-03,
421,2.00e-03,
422,-2.40e-03,
423,2.40e-03,
424,-1.60e-03,
425,2.40e-03,
426,2.40e-03,
427,-1.60e-03,
428,-1.60e-03,
429,1.60e-03,
430,-1.60e-03,
431,1.60e-03,
432,-1.60e-03,
433,2.40e-03,
434,2.00e-03,
435,-1.60e-03,
436,1.60e-03,
437,-1.60e-03,
438,-1.60e-03,
439,2.40e-03,
440,2.00e-03,
441,-1.60e-03,
442,2.40e-03,
443,-1.60e-03,
444,-2.40e-03,
445,2.40e-03,
446,2.00e-03,
447,-1.60e-03,
448,-1.60e-03,
449,1.60e-03,
450,-1.60e-03,
451,2.00e-03,
452,-1.60e-03,
453,2.40e-03,
454,-2.40e-03,
455,2.00e-03,
456,-1.60e-03,
457,2.00e-03,
458,2.40e-03,
459,-1.60e-03,
460,2.40e-03,
461,-1.60e-03,
462,-1.60e-03,
463,2.40e-03,
464,2.40e-03,
465,-2.40e-03,
466,1.60e-03,
467,-1.60e-03,
468,1.60e-03,
469,-1.60e-03,
470,2.40e-03,
471,-1.60e-03,
472,2.40e-03,
473,-1.60e-03,
474,2.80e-03,
475,-2.40e-03,
476,-1.60e-03,
477,2.40e-03,
478,-1.60e-03,
479,2.40e-03,
480,2.40e-03,
481,-1.60e-03,
482,-8.00e-04,
483,2.40e-03,
484,-1.60e-03,
485,2.40e-03,
486,-1.60e-03,
487,2.40e-03,
488,1.60e-03,
489,-1.60e-03,
490,-2.40e-03,
491,2.40e-03,
492,2.40e-03,
493,-1.60e-03,
494,2.00e-03,
495,-1.60e-03,
496,-1.60e-03,
497,2.40e-03,
498,1.60e-03,
499,-1.60e-03,
500,1.60e-03,
501,-1.60e-03,
502,-1.60e-03,
503,2.40e-03,
504,1.60e-03,
505,-1.60e-03,
506,-1.60e-03,
507,2.00e-03,
508,-1.60e-03,
509,2.40e-03,
510,1.60e-03,
511,-1.60e-03,
512,-1.60e-03,
513,3.20e-03,
514,-2.40e-03,
515,2.40e-03,
516,2.40e-03,
517,-2.40e-03,
518,-1.60e-03,
519,2.40e-03,
520,-8.00e-04,
521,2.40e-03,
522,-1.60e-03,
523,2.80e-03,
524,2.40e-03,
525,-1.60e-03,
526,-8.00e-04,
527,2.40e-03,
528,-1.60e-03,
529,2.40e-03,
530,-2.40e-03,
531,2.00e-03,
532,-2.40e-03,
533,2.40e-03,
534,1.60e-03,
535,-1.60e-03,
536,2.40e-03,
537,-1.60e-03,
538,2.40e-03,
539,-1.60e-03,
540,2.40e-03,
541,-1.60e-03,
542,-8.00e-04,
543,2.80e-03,
544,1.60e-03,
545,-1.60e-03,
546,-2.40e-03,
547,2.40e-03,
548,-8.00e-04,
549,3.20e-03,
550,1.60e-03,
551,-1.60e-03,
552,3.20e-03,
553,-1.60e-03,
554,1.60e-03,
555,-1.60e-03,
556,-1.60e-03,
557,2.40e-03,
558,-1.60e-03,
559,1.60e-03,
560,-1.60e-03,
561,2.00e-03,
562,-1.60e-03,
563,2.40e-03,
564,2.00e-03,
565,-1.60e-03,
566,-1.60e-03,
567,3.20e-03,
568,-1.60e-03,
569,2.40e-03,
570,1.60e-03,
571,-1.60e-03,
572,2.40e-03,
573,-1.60e-03,
574,-2.40e-03,
575,2.40e-03,
576,-1.60e-03,
577,2.40e-03,
578,-1.60e-03,
579,2.40e-03,
580,2.00e-03,
581,-1.60e-03,
582,2.40e-03,
583,-1.60e-03,
584,-8.00e-04,
585,2.40e-03,
586,2.40e-03,
587,-1.60e-03,
588,-1.60e-03,
589,2.40e-03,
590,-8.00e-04,
591,2.80e-03,
592,-8.00e-04,
593,2.40e-03,
594,-1.60e-03,
595,2.00e-03,
596,-1.60e-03,
597,2.40e-03,
598,-1.60e-03,
599,2.80e-03,
600,2.40e-03,
601,-1.60e-03,
602,-8.00e-04,
603,2.80e-03,
604,-8.00e-04,
605,2.40e-03,
606,-1.60e-03,
607,3.20e-03,
608,-1.60e-03,
609,3.20e-03,
610,2.40e-03,
611,-1.60e-03,
612,-1.60e-03,
613,2.80e-03,
614,-1.60e-03,
615,2.40e-03,
616,-1.60e-03,
617,2.40e-03,
618,-2.40e-03,
619,1.60e-03,
620,2.40e-03,
621,-2.40e-03,
622,-8.00e-04,
623,2.40e-03,
624,-2.40e-03,
625,2.40e-03,
626,2.40e-03,
627,-1.60e-03,
628,-1.60e-03,
629,2.80e-03,
630,-1.60e-03,
631,2.00e-03,
632,-2.40e-03,
633,2.00e-03,
634,-1.60e-03,
635,2.40e-03,
636,-2.40e-03,
637,2.40e-03,
638,-1.60e-03,
639,2.40e-03,
640,-1.60e-03,
641,2.40e-03,
642,-1.60e-03,
643,2.40e-03,
644,-8.00e-04,
645,2.40e-03,
646,-1.60e-03,
647,3.20e-03,
648,-1.60e-03,
649,2.80e-03,
650,2.40e-03,
651,-1.60e-03,
652,2.40e-03,
653,-1.60e-03,
654,1.60e-03,
655,-1.60e-03,
656,-1.60e-03,
657,2.40e-03,
658,2.00e-03,
659,-2.40e-03,
660,-1.60e-03,
661,3.20e-03,
662,2.40e-03,
663,-1.60e-03,
664,-1.60e-03,
665,2.00e-03,
666,-1.60e-03,
667,2.40e-03,
668,-8.00e-04,
669,2.40e-03,
670,-2.40e-03,
671,2.40e-03,
672,-1.60e-03,
673,2.40e-03,
674,2.00e-03,
675,-2.40e-03,
676,2.00e-03,
677,-2.40e-03,
678,-2.40e-03,
679,2.00e-03,
680,-2.40e-03,
681,2.00e-03,
682,-1.60e-03,
683,2.40e-03,
684,-1.60e-03,
685,2.80e-03,
686,2.40e-03,
687,-1.60e-03,
688,-1.60e-03,
689,1.60e-03,
690,2.40e-03,
691,-1.60e-03,
692,3.20e-03,
693,-1.60e-03,
694,2.40e-03,
695,-1.60e-03,
696,-2.40e-03,
697,2.80e-03,
698,-2.40e-03,
699,2.40e-03,
700,2.40e-03,
701,-1.60e-03,
702,2.00e-03,
703,-1.60e-03,
704,-1.60e-03,
705,3.20e-03,
706,2.40e-03,
707,-1.60e-03,
708,-8.00e-04,
709,2.40e-03,
710,1.60e-03,
711,-8.00e-04,
712,-1.60e-03,
713,2.40e-03,
714,2.40e-03,
715,-1.60e-03,
716,-8.00e-04,
717,2.40e-03,
718,1.60e-03,
719,-1.60e-03,
720,-1.60e-03,
721,2.40e-03,
722,-1.60e-03,
723,2.40e-03,
724,2.40e-03,
725,-1.60e-03,
726,-1.60e-03,
727,2.40e-03,
728,-1.60e-03,
729,1.60e-03,
730,-1.60e-03,
731,2.80e-03,
732,3.20e-03,
733,-1.60e-03,
734,-1.60e-03,
735,2.00e-03,
736,2.40e-03,
737,-1.60e-03,
738,-1.60e-03,
739,3.20e-03,
740,1.60e-03,
741,-1.60e-03,
742,2.40e-03,
743,-1.60e-03,
744,2.40e-03,
745,-1.60e-03,
746,-8.00e-04,
747,2.00e-03,
748,-1.60e-03,
749,2.40e-03,
750,2.40e-03,
751,-1.60e-03,
752,-1.60e-03,
753,2.00e-03,
754,-1.60e-03,
755,2.40e-03,
756,-1.60e-03,
757,2.40e-03,
758,-1.60e-03,
759,2.40e-03,
760,-1.60e-03,
761,2.40e-03,
762,-8.00e-04,
763,2.40e-03,
764,2.40e-03,
765,-1.60e-03,
766,-1.60e-03,
767,2.40e-03,
768,-1.60e-03,
769,2.80e-03,
770,-1.60e-03,
771,2.40e-03,
772,2.40e-03,
773,-8.00e-04,
774,-1.60e-03,
775,1.60e-03,
776,-1.60e-03,
777,2.40e-03,
778,2.40e-03,
779,-1.60e-03,
780,2.40e-03,
781,-1.60e-03,
782,-1.60e-03,
783,2.40e-03,
784,-1.60e-03,
785,2.40e-03,
786,-1.60e-03,
787,2.00e-03,
788,-8.00e-04,
789,2.40e-03,
790,-8.00e-04,
791,2.40e-03,
792,-8.00e-04,
793,2.40e-03,
794,2.40e-03,
795,-1.60e-03,
796,-1.60e-03,
797,2.40e-03,
798,2.40e-03,
799,-1.60e-03,
800,-1.60e-03,
801,2.40e-03,
802,-1.60e-03,
803,2.40e-03,
804,2.40e-03,
805,-1.60e-03,
806,-1.60e-03,
807,2.40e-03,
808,1.60e-03,
809,-1.60e-03,
810,2.40e-03,
811,-1.60e-03,
812,1.60e-03,
813,-2.40e-03,
814,-1.60e-03,
815,2.40e-03,
816,2.00e-03,
817,-1.60e-03,
818,-1.60e-03,
819,2.00e-03,
820,-1.60e-03,
821,2.40e-03,
822,2.40e-03,
823,-1.60e-03,
824,2.40e-03,
825,-1.60e-03,
826,2.40e-03,
827,-1.60e-03,
828,-1.60e-03,
829,1.60e-03,
830,-1.60e-03,
831,3.20e-03,
832,2.40e-03,
833,-1.60e-03,
834,2.40e-03,
835,-1.60e-03,
836,-8.00e-04,
837,2.40e-03,
838,-1.60e-03,
839,2.80e-03,
840,-2.40e-03,
841,2.40e-03,
842,-1.60e-03,
843,2.40e-03,
844,-8.00e-04,
845,2.40e-03,
846,2.40e-03,
847,-2.40e-03,
848,-1.60e-03,
849,2.40e-03,
850,-1.60e-03,
851,2.40e-03,
852,3.20e-03,
853,-2.40e-03,
854,-1.60e-03,
855,2.80e-03,
856,-2.40e-03,
857,2.40e-03,
858,-1.60e-03,
859,2.40e-03,
860,2.40e-03,
861,-2.40e-03,
862,2.40e-03,
863,-1.20e-03,
864,2.40e-03,
865,-1.60e-03,
866,3.20e-03,
867,-1.60e-03,
868,-1.60e-03,
869,2.80e-03,
870,-8.00e-04,
871,2.40e-03,
872,-1.60e-03,
873,2.40e-03,
874,-2.40e-03,
875,2.40e-03,
876,-8.00e-04,
877,2.40e-03,
878,-8.00e-04,
879,2.40e-03,
880,-8.00e-04,
881,3.20e-03,
882,-1.60e-03,
883,2.00e-03,
884,2.40e-03,
885,-8.00e-04,
886,-1.60e-03,
887,2.40e-03,
888,2.00e-03,
889,-1.60e-03,
890,-2.40e-03,
891,2.40e-03,
892,2.40e-03,
893,-1.60e-03,
894,-1.60e-03,
895,2.80e-03,
896,-1.60e-03,
897,2.40e-03,
898,2.00e-03,
899,-1.60e-03,
900,2.80e-03,
901,-1.60e-03,
902,-1.60e-03,
903,3.20e-03,
904,-1.60e-03,
905,2.40e-03,
906,-1.60e-03,
907,2.40e-03,
908,-2.40e-03,
909,3.20e-03,
910,-1.60e-03,
911,2.40e-03,
912,-8.00e-04,
913,2.40e-03,
914,2.40e-03,
915,-1.60e-03,
916,-1.60e-03,
917,2.40e-03,
918,2.40e-03,
919,-1.60e-03,
920,3.20e-03,
921,-2.40e-03,
922,-1.60e-03,
923,2.80e-03,
924,-2.40e-03,
925,2.80e-03,
926,2.00e-03,
927,-1.60e-03,
928,-1.60e-03,
929,2.80e-03,
930,-1.60e-03,
931,2.40e-03,
932,2.40e-03,
933,-2.40e-03,
934,2.40e-03,
935,-1.60e-03,
936,-1.60e-03,
937,2.40e-03,
938,1.60e-03,
939,-1.60e-03,
940,1.60e-03,
941,-1.60e-03,
942,-1.60e-03,
943,2.40e-03,
944,2.40e-03,
945,-8.00e-04,
946,-1.60e-03,
947,2.40e-03,
948,-1.60e-03,
949,2.00e-03,
950,-8.00e-04,
951,3.20e-03,
952,-8.00e-04,
953,2.40e-03,
954,-1.60e-03,
955,2.40e-03,
956,2.40e-03,
957,-1.60e-03,
958,-1.60e-03,
959,2.40e-03,
960,2.40e-03,
961,-2.40e-03,
962,1.60e-03,
963,-2.00e-03,
964,2.40e-03,
965,-1.60e-03,
966,-1.60e-03,
967,2.40e-03,
968,2.40e-03,
969,-1.60e-03,
970,-1.60e-03,
971,2.40e-03,
972,-1.60e-03,
973,2.40e-03,
974,-8.00e-04,
975,2.40e-03,
976,-8.00e-04,
977,2.40e-03,
978,2.40e-03,
979,-1.60e-03,
980,-8.00e-04,
981,2.80e-03,
982,-8.00e-04,
983,2.80e-03,
984,-8.00e-04,
985,2.80e-03,
986,2.40e-03,
987,-8.00e-04,
988,2.80e-03,
989,-8.00e-04,
990,-1.60e-03,
991,2.40e-03,
992,-1.60e-03,
993,2.40e-03,
994,3.20e-03,
995,-1.60e-03,
996,-1.60e-03,
997,2.40e-03,
998,2.40e-03,
999,-1.60e-03,
1000,3.20e-03,
1001,-1.60e-03,
1002,2.40e-03,
1003,-1.60e-03,
1004,2.40e-03,
1005,-1.60e-03,
1006,-8.00e-04,
1007,2.40e-03,
1008,-1.60e-03,
1009,1.60e-03,
1010,-8.00e-04,
1011,2.40e-03,
1012,-8.00e-04,
1013,3.20e-03,
1014,2.40e-03,
1015,-1.60e-03,
1016,-1.60e-03,
1017,2.40e-03,
1018,2.40e-03,
1019,-8.00e-04,
1020,-8.00e-04,
1021,2.80e-03,
1022,-8.00e-04,
1023,2.40e-03,
1024,-8.00e-04,
1025,2.40e-03,
1026,-8.00e-04,
1027,2.40e-03,
1028,2.40e-03,
1029,-1.60e-03,
1030,-8.00e-04,
1031,2.40e-03,
1032,-8.00e-04,
1033,3.20e-03,
1034,-1.60e-03,
1035,2.40e-03,
1036,-1.60e-03,
1037,2.40e-03,
1038,-1.60e-03,
1039,2.80e-03,
1040,-1.60e-03,
1041,2.80e-03,
1042,2.40e-03,
1043,-1.60e-03,
1044,-8.00e-04,
1045,3.20e-03,
1046,2.40e-03,
1047,-1.60e-03,
1048,-1.60e-03,
1049,3.20e-03,
1050,-8.00e-04,
1051,2.40e-03,
1052,-1.60e-03,
1053,2.40e-03,
1054,-1.60e-03,
1055,2.80e-03,
1056,3.20e-03,
1057,-1.60e-03,
1058,-8.00e-04,
1059,2.40e-03,
1060,2.40e-03,
1061,-1.60e-03,
1062,2.40e-03,
1063,-2.40e-03,
1064,-1.60e-03,
1065,2.00e-03,
1066,2.40e-03,
1067,-8.00e-04,
1068,-8.00e-04,
1069,3.20e-03,
1070,2.40e-03,
1071,-1.60e-03,
1072,3.20e-03,
1073,-1.60e-03,
1074,-1.60e-03,
1075,2.40e-03,
1076,-8.00e-04,
1077,2.40e-03,
1078,2.40e-03,
1079,-1.60e-03,
1080,-1.60e-03,
1081,2.40e-03,
1082,3.20e-03,
1083,-2.40e-03,
1084,-1.20e-03,
1085,3.20e-03,
1086,-1.60e-03,
1087,2.80e-03,
1088,-1.60e-03,
1089,2.40e-03,
1090,-8.00e-04,
1091,3.20e-03,
1092,2.40e-03,
1093,-1.60e-03,
1094,-1.60e-03,
1095,3.20e-03,
1096,-1.60e-03,
1097,2.40e-03,
1098,-1.60e-03,
1099,2.00e-03,
1100,3.20e-03,
1101,-2.40e-03,
1102,-1.60e-03,
1103,2.40e-03,
1104,-2.40e-03,
1105,2.40e-03,
1106,-2.40e-03,
1107,2.40e-03,
1108,3.20e-03,
1109,-1.60e-03,
1110,-1.60e-03,
1111,2.00e-03,
1112,-1.60e-03,
1113,2.00e-03,
1114,-2.40e-03,
1115,2.80e-03,
1116,1.60e-03,
1117,-1.60e-03,
1118,-2.40e-03,
1119,2.40e-03,
1120,1.60e-03,
1121,-1.60e-03,
1122,2.40e-03,
1123,-2.40e-03,
1124,-2.40e-03,
1125,2.00e-03,
1126,-1.60e-03,
1127,2.00e-03,
1128,-1.60e-03,
1129,2.40e-03,
1130,-2.40e-03,
1131,2.80e-03,
1132,-1.60e-03,
1133,2.00e-03,
1134,1.60e-03,
1135,-1.60e-03,
1136,-1.60e-03,
1137,2.40e-03,
1138,2.40e-03,
1139,-8.00e-04,
1140,-1.20e-03,
1141,2.40e-03,
1142,-1.60e-03,
1143,2.40e-03,
1144,-8.00e-04,
1145,3.20e-03,
1146,-8.00e-04,
1147,2.40e-03,
1148,2.40e-03,
1149,-1.60e-03,
1150,-1.60e-03,
1151,2.40e-03,
1152,-8.00e-04,
1153,2.40e-03,
1154,-2.40e-03,
1155,2.00e-03,
1156,-1.60e-03,
1157,2.40e-03,
1158,-1.60e-03,
1159,2.00e-03,
1160,2.00e-03,
1161,-1.60e-03,
1162,2.40e-03,
1163,-1.60e-03,
1164,-1.60e-03,
1165,2.40e-03,
1166,2.00e-03,
1167,-1.60e-03,
1168,-1.60e-03,
1169,3.20e-03,
1170,-1.60e-03,
1171,2.40e-03,
1172,-1.60e-03,
1173,1.60e-03,
1174,-1.60e-03,
1175,2.00e-03,
1176,-1.60e-03,
1177,2.40e-03,
1178,-1.60e-03,
1179,2.40e-03,
1180,-1.60e-03,
1181,2.80e-03,
1182,-1.60e-03,
1183,2.40e-03,
1184,-2.40e-03,
1185,2.40e-03,
1186,2.40e-03,
1187,-1.60e-03,
1188,-1.60e-03,
1189,2.40e-03,
1190,2.40e-03,
1191,-2.40e-03,
1192,2.40e-03,
1193,-1.60e-03,
1194,-8.00e-04,
1195,3.60e-03,
1196,-1.60e-03,
1197,3.20e-03,
1198,-1.60e-03,
1199,2.40e-03,
