fastdiffamp/data-noise-set/weak-balanced/NewFile8.csv

X,CH1,Start,Increment,
Sequence,Volt,-1.148000e+01,2.000000e-02
0,2.00e-03,
1,-1.60e-03,
2,-1.60e-03,
3,2.00e-03,
4,2.00e-03,
5,-1.60e-03,
6,-1.60e-03,
7,2.00e-03,
8,2.40e-03,
9,-2.40e-03,
10,2.40e-03,
11,-1.60e-03,
12,-1.60e-03,
13,2.80e-03,
14,2.40e-03,
15,-8.00e-04,
16,-1.60e-03,
17,2.40e-03,
18,2.40e-03,
19,-2.40e-03,
20,2.00e-03,
21,-1.60e-03,
22,2.40e-03,
23,-1.60e-03,
24,1.60e-03,
25,-1.60e-03,
26,-1.60e-03,
27,2.80e-03,
28,2.40e-03,
29,-1.60e-03,
30,-1.60e-03,
31,2.40e-03,
32,2.00e-03,
33,-1.60e-03,
34,-8.00e-04,
35,2.40e-03,
36,-8.00e-04,
37,2.00e-03,
38,2.40e-03,
39,-1.60e-03,
40,-1.60e-03,
41,2.40e-03,
42,2.40e-03,
43,-2.40e-03,
44,-1.60e-03,
45,2.40e-03,
46,2.40e-03,
47,-1.60e-03,
48,-1.60e-03,
49,2.00e-03,
50,-8.00e-04,
51,2.00e-03,
52,2.00e-03,
53,-2.40e-03,
54,-1.60e-03,
55,2.00e-03,
56,-2.40e-03,
57,2.40e-03,
58,-1.60e-03,
59,2.40e-03,
60,-2.40e-03,
61,2.40e-03,
62,-1.60e-03,
63,2.00e-03,
64,2.00e-03,
65,-1.60e-03,
66,2.00e-03,
67,-2.40e-03,
68,2.00e-03,
69,-2.40e-03,
70,-1.60e-03,
71,2.00e-03,
72,2.40e-03,
73,-1.60e-03,
74,1.60e-03,
75,-2.40e-03,
76,1.60e-03,
77,-1.60e-03,
78,1.60e-03,
79,-1.60e-03,
80,-8.00e-04,
81,1.60e-03,
82,-1.60e-03,
83,2.80e-03,
84,-1.60e-03,
85,2.00e-03,
86,2.40e-03,
87,-1.60e-03,
88,2.40e-03,
89,-1.60e-03,
90,2.40e-03,
91,-1.60e-03,
92,-1.60e-03,
93,2.00e-03,
94,1.60e-03,
95,-1.60e-03,
96,-1.60e-03,
97,1.60e-03,
98,-8.00e-04,
99,2.40e-03,
100,2.40e-03,
101,-2.40e-03,
102,-2.40e-03,
103,2.40e-03,
104,-1.60e-03,
105,2.40e-03,
106,1.60e-03,
107,-1.60e-03,
108,1.60e-03,
109,-2.40e-03,
110,2.40e-03,
111,-1.60e-03,
112,1.60e-03,
113,-2.40e-03,
114,2.40e-03,
115,-1.60e-03,
116,2.40e-03,
117,-1.60e-03,
118,-1.60e-03,
119,1.60e-03,
120,1.60e-03,
121,-2.00e-03,
122,1.60e-03,
123,-2.00e-03,
124,2.00e-03,
125,-1.60e-03,
126,2.40e-03,
127,-2.40e-03,
128,2.40e-03,
129,-1.60e-03,
130,1.60e-03,
131,-1.60e-03,
132,-1.60e-03,
133,1.60e-03,
134,2.00e-03,
135,-2.40e-03,
136,-1.60e-03,
137,2.40e-03,
138,-1.60e-03,
139,2.00e-03,
140,-2.40e-03,
141,2.40e-03,
142,1.60e-03,
143,-2.40e-03,
144,-2.40e-03,
145,2.00e-03,
146,-1.60e-03,
147,2.40e-03,
148,-1.60e-03,
149,2.80e-03,
150,-1.60e-03,
151,3.20e-03,
152,1.60e-03,
153,-1.60e-03,
154,-1.60e-03,
155,2.40e-03,
156,1.60e-03,
157,-1.60e-03,
158,2.40e-03,
159,-1.60e-03,
160,2.40e-03,
161,-2.40e-03,
162,-1.60e-03,
163,2.00e-03,
164,2.40e-03,
165,-1.60e-03,
166,-1.60e-03,
167,2.40e-03,
168,2.00e-03,
169,-2.40e-03,
170,-2.40e-03,
171,1.60e-03,
172,-1.60e-03,
173,2.40e-03,
174,-2.40e-03,
175,1.60e-03,
176,2.00e-03,
177,-1.60e-03,
178,-1.60e-03,
179,2.40e-03,
180,1.60e-03,
181,-1.60e-03,
182,-1.60e-03,
183,2.40e-03,
184,2.40e-03,
185,-2.40e-03,
186,2.00e-03,
187,-2.40e-03,
188,2.40e-03,
189,-1.60e-03,
190,-1.60e-03,
191,1.60e-03,
192,2.40e-03,
193,-1.60e-03,
194,2.00e-03,
195,-1.60e-03,
196,2.40e-03,
197,-1.60e-03,
198,-1.60e-03,
199,2.40e-03,
200,2.40e-03,
201,-1.60e-03,
202,1.60e-03,
203,-1.60e-03,
204,2.40e-03,
205,-1.60e-03,
206,-1.60e-03,
207,2.40e-03,
208,-8.00e-04,
209,2.40e-03,
210,-8.00e-04,
211,2.40e-03,
212,-8.00e-04,
213,2.40e-03,
214,2.40e-03,
215,-2.40e-03,
216,-8.00e-04,
217,2.80e-03,
218,-1.60e-03,
219,2.40e-03,
220,-2.40e-03,
221,1.60e-03,
222,-1.60e-03,
223,1.60e-03,
224,-1.60e-03,
225,2.40e-03,
226,-1.60e-03,
227,1.60e-03,
228,-1.60e-03,
229,2.40e-03,
230,-1.60e-03,
231,2.00e-03,
232,2.40e-03,
233,-1.60e-03,
234,2.40e-03,
235,-1.60e-03,
236,2.40e-03,
237,-2.40e-03,
238,2.40e-03,
239,-1.60e-03,
240,2.40e-03,
241,-1.60e-03,
242,2.40e-03,
243,-2.40e-03,
244,2.40e-03,
245,-1.60e-03,
246,-1.60e-03,
247,2.40e-03,
248,-8.00e-04,
249,2.40e-03,
250,2.40e-03,
251,-1.60e-03,
252,1.60e-03,
253,-1.60e-03,
254,1.60e-03,
255,-1.60e-03,
256,-1.60e-03,
257,2.40e-03,
258,-1.60e-03,
259,2.40e-03,
260,-1.60e-03,
261,2.40e-03,
262,2.40e-03,
263,-1.60e-03,
264,2.40e-03,
265,-1.60e-03,
266,-1.60e-03,
267,2.00e-03,
268,-1.60e-03,
269,2.40e-03,
270,-8.00e-04,
271,2.40e-03,
272,-8.00e-04,
273,3.20e-03,
274,2.40e-03,
275,-1.60e-03,
276,3.20e-03,
277,-1.60e-03,
278,-1.20e-03,
279,2.80e-03,
280,2.40e-03,
281,-1.60e-03,
282,-1.60e-03,
283,2.40e-03,
284,-8.00e-04,
285,2.80e-03,
286,2.40e-03,
287,-1.60e-03,
288,-1.60e-03,
289,2.80e-03,
290,-1.60e-03,
291,2.80e-03,
292,2.00e-03,
293,-2.40e-03,
294,-1.60e-03,
295,2.00e-03,
296,-8.00e-04,
297,2.80e-03,
298,-1.60e-03,
299,2.00e-03,
300,2.40e-03,
301,-1.60e-03,
302,1.60e-03,
303,-2.40e-03,
304,-1.60e-03,
305,2.00e-03,
306,-1.60e-03,
307,2.00e-03,
308,-1.60e-03,
309,2.40e-03,
310,-1.60e-03,
311,2.00e-03,
312,2.40e-03,
313,-1.60e-03,
314,2.40e-03,
315,-1.60e-03,
316,-1.60e-03,
317,2.40e-03,
318,-8.00e-04,
319,2.40e-03,
320,-1.60e-03,
321,2.40e-03,
322,-1.60e-03,
323,2.40e-03,
324,2.40e-03,
325,-1.60e-03,
326,-1.60e-03,
327,2.40e-03,
328,2.00e-03,
329,-1.60e-03,
330,-1.60e-03,
331,2.40e-03,
332,-2.40e-03,
333,2.40e-03,
334,-2.40e-03,
335,2.00e-03,
336,2.40e-03,
337,-1.60e-03,
338,2.00e-03,
339,-2.40e-03,
340,-1.60e-03,
341,2.00e-03,
342,1.60e-03,
343,-1.60e-03,
344,-1.60e-03,
345,2.40e-03,
346,2.40e-03,
347,-1.60e-03,
348,-8.00e-04,
349,2.00e-03,
350,3.20e-03,
351,-1.60e-03,
352,-1.60e-03,
353,2.40e-03,
354,2.40e-03,
355,-1.60e-03,
356,-1.60e-03,
357,2.80e-03,
358,2.40e-03,
359,-2.40e-03,
360,2.00e-03,
361,-1.60e-03,
362,-8.00e-04,
363,2.40e-03,
364,2.40e-03,
365,-1.60e-03,
366,2.40e-03,
367,-1.60e-03,
368,-1.60e-03,
369,2.40e-03,
370,3.20e-03,
371,-1.60e-03,
372,2.40e-03,
373,-1.60e-03,
374,-8.00e-04,
375,2.40e-03,
376,2.40e-03,
377,-2.40e-03,
378,2.00e-03,
379,-1.60e-03,
380,-1.60e-03,
381,2.40e-03,
382,2.40e-03,
383,-2.40e-03,
384,2.40e-03,
385,-1.60e-03,
386,1.60e-03,
387,-1.60e-03,
388,-8.00e-04,
389,3.20e-03,
390,2.80e-03,
391,-1.60e-03,
392,3.20e-03,
393,-1.60e-03,
394,2.40e-03,
395,-1.60e-03,
396,2.00e-03,
397,-1.60e-03,
398,-1.60e-03,
399,2.40e-03,
400,2.40e-03,
401,-2.40e-03,
402,2.40e-03,
403,-1.60e-03,
404,2.00e-03,
405,-1.60e-03,
406,-8.00e-04,
407,2.40e-03,
408,-1.60e-03,
409,2.40e-03,
410,-1.60e-03,
411,2.40e-03,
412,3.20e-03,
413,-2.40e-03,
414,-1.60e-03,
415,1.60e-03,
416,-1.60e-03,
417,2.40e-03,
418,-1.60e-03,
419,2.40e-03,
420,2.00e-03,
421,-2.40e-03,
422,3.20e-03,
423,-1.60e-03,
424,2.80e-03,
425,-1.60e-03,
426,-1.60e-03,
427,2.40e-03,
428,-1.60e-03,
429,2.40e-03,
430,2.40e-03,
431,-1.60e-03,
432,2.40e-03,
433,-1.60e-03,
434,2.40e-03,
435,-1.60e-03,
436,-1.60e-03,
437,2.40e-03,
438,2.40e-03,
439,-1.60e-03,
440,2.40e-03,
441,-1.60e-03,
442,-8.00e-04,
443,2.00e-03,
444,2.40e-03,
445,-1.60e-03,
446,-1.60e-03,
447,2.40e-03,
448,-1.60e-03,
449,2.40e-03,
450,-1.60e-03,
451,2.40e-03,
452,-1.60e-03,
453,2.40e-03,
454,2.40e-03,
455,-1.60e-03,
456,-1.60e-03,
457,2.40e-03,
458,2.40e-03,
459,-1.60e-03,
460,-1.60e-03,
461,2.40e-03,
462,2.40e-03,
463,-1.60e-03,
464,2.40e-03,
465,-1.60e-03,
466,-1.60e-03,
467,2.00e-03,
468,-1.60e-03,
469,2.00e-03,
470,-1.60e-03,
471,2.80e-03,
472,2.40e-03,
473,-1.60e-03,
474,-8.00e-04,
475,2.00e-03,
476,2.40e-03,
477,-1.60e-03,
478,2.00e-03,
479,-8.00e-04,
480,-1.60e-03,
481,2.40e-03,
482,-1.60e-03,
483,2.40e-03,
484,-1.60e-03,
485,2.40e-03,
486,-8.00e-04,
487,2.40e-03,
488,-8.00e-04,
489,2.40e-03,
490,-1.60e-03,
491,2.40e-03,
492,-8.00e-04,
493,2.00e-03,
494,-1.60e-03,
495,3.20e-03,
496,3.20e-03,
497,-8.00e-04,
498,-8.00e-04,
499,3.20e-03,
500,2.80e-03,
501,-8.00e-04,
502,-1.60e-03,
503,2.40e-03,
504,-8.00e-04,
505,2.40e-03,
506,-1.60e-03,
507,2.40e-03,
508,2.40e-03,
509,-1.60e-03,
510,2.80e-03,
511,-1.60e-03,
512,2.80e-03,
513,-1.20e-03,
514,2.40e-03,
515,-1.60e-03,
516,-2.40e-03,
517,2.40e-03,
518,-8.00e-04,
519,2.00e-03,
520,-1.60e-03,
521,1.60e-03,
522,-8.00e-04,
523,2.40e-03,
524,-1.60e-03,
525,3.20e-03,
526,2.40e-03,
527,-1.60e-03,
528,1.60e-03,
529,-1.60e-03,
530,3.20e-03,
531,-1.60e-03,
532,2.80e-03,
533,-8.00e-04,
534,2.40e-03,
535,-1.60e-03,
536,2.00e-03,
537,-1.60e-03,
538,-1.60e-03,
539,2.40e-03,
540,1.60e-03,
541,-1.60e-03,
542,-1.60e-03,
543,2.40e-03,
544,3.20e-03,
545,-1.60e-03,
546,2.40e-03,
547,-1.60e-03,
548,2.40e-03,
549,-1.60e-03,
550,1.60e-03,
551,-1.60e-03,
552,-1.60e-03,
553,2.00e-03,
554,2.40e-03,
555,-1.60e-03,
556,-1.60e-03,
557,2.40e-03,
558,-1.60e-03,
559,2.80e-03,
560,-1.60e-03,
561,3.20e-03,
562,2.40e-03,
563,-1.60e-03,
564,-2.40e-03,
565,2.40e-03,
566,-8.00e-04,
567,2.00e-03,
568,2.40e-03,
569,-1.60e-03,
570,1.60e-03,
571,-2.40e-03,
572,-8.00e-04,
573,2.40e-03,
574,2.40e-03,
575,-1.60e-03,
576,2.40e-03,
577,-1.60e-03,
578,-1.60e-03,
579,2.80e-03,
580,-8.00e-04,
581,3.20e-03,
582,-8.00e-04,
583,2.40e-03,
584,2.00e-03,
585,-1.60e-03,
586,-8.00e-04,
587,3.20e-03,
588,1.60e-03,
589,-1.60e-03,
590,1.60e-03,
591,-8.00e-04,
592,-2.40e-03,
593,2.40e-03,
594,2.40e-03,
595,-2.40e-03,
596,2.40e-03,
597,-2.40e-03,
598,-2.40e-03,
599,2.80e-03,
600,-1.60e-03,
601,1.60e-03,
602,1.60e-03,
603,-2.40e-03,
604,-8.00e-04,
605,2.40e-03,
606,-1.60e-03,
607,2.00e-03,
608,-1.60e-03,
609,2.40e-03,
610,2.40e-03,
611,-1.60e-03,
612,-1.60e-03,
613,2.40e-03,
614,1.60e-03,
615,-1.60e-03,
616,2.40e-03,
617,-1.60e-03,
618,-1.60e-03,
619,2.40e-03,
620,-1.60e-03,
621,2.40e-03,
622,2.40e-03,
623,-1.60e-03,
624,-8.00e-04,
625,3.20e-03,
626,2.00e-03,
627,-1.60e-03,
628,2.40e-03,
629,-1.60e-03,
630,-1.60e-03,
631,2.40e-03,
632,2.40e-03,
633,-1.60e-03,
634,2.80e-03,
635,-1.60e-03,
636,-1.60e-03,
637,2.40e-03,
638,2.40e-03,
639,-1.60e-03,
640,-1.60e-03,
641,2.40e-03,
642,2.00e-03,
643,-2.40e-03,
644,2.40e-03,
645,-1.60e-03,
646,2.00e-03,
647,-1.60e-03,
648,2.00e-03,
649,-1.60e-03,
650,-8.00e-04,
651,2.00e-03,
652,2.00e-03,
653,-1.60e-03,
654,2.40e-03,
655,-1.60e-03,
656,-1.60e-03,
657,2.00e-03,
658,-1.60e-03,
659,2.00e-03,
660,2.00e-03,
661,-2.40e-03,
662,1.60e-03,
663,-2.40e-03,
664,-1.60e-03,
665,3.20e-03,
666,-1.60e-03,
667,2.40e-03,
668,-2.40e-03,
669,2.40e-03,
670,2.00e-03,
671,-2.40e-03,
672,2.40e-03,
673,-3.20e-03,
674,1.60e-03,
675,-2.40e-03,
676,-1.60e-03,
677,2.40e-03,
678,1.60e-03,
679,-2.40e-03,
680,-2.40e-03,
681,2.00e-03,
682,2.40e-03,
683,-2.40e-03,
684,1.60e-03,
685,-1.60e-03,
686,-1.60e-03,
687,2.40e-03,
688,-1.60e-03,
689,1.60e-03,
690,-1.60e-03,
691,1.60e-03,
692,2.40e-03,
693,-1.60e-03,
694,-1.60e-03,
695,2.00e-03,
696,-1.60e-03,
697,2.00e-03,
698,-1.60e-03,
699,2.40e-03,
700,2.40e-03,
701,-1.60e-03,
702,2.40e-03,
703,-1.60e-03,
704,2.00e-03,
705,-2.40e-03,
706,-1.60e-03,
707,2.40e-03,
708,-1.60e-03,
709,2.40e-03,
710,-1.60e-03,
711,3.20e-03,
712,2.40e-03,
713,-1.60e-03,
714,2.00e-03,
715,-1.60e-03,
716,1.60e-03,
717,-1.60e-03,
718,3.20e-03,
719,-1.60e-03,
720,-8.00e-04,
721,2.40e-03,
722,-1.60e-03,
723,2.80e-03,
724,-1.60e-03,
725,2.00e-03,
726,2.40e-03,
727,-2.40e-03,
728,-1.60e-03,
729,2.00e-03,
730,-1.60e-03,
731,3.20e-03,
732,-8.00e-04,
733,2.00e-03,
734,-1.60e-03,
735,3.20e-03,
736,-1.60e-03,
737,2.00e-03,
738,2.40e-03,
739,-2.00e-03,
740,2.40e-03,
741,-1.60e-03,
742,2.40e-03,
743,-1.60e-03,
744,-1.60e-03,
745,2.00e-03,
746,1.60e-03,
747,-1.60e-03,
748,-1.60e-03,
749,2.40e-03,
750,3.20e-03,
751,-1.60e-03,
752,2.40e-03,
753,-1.60e-03,
754,2.40e-03,
755,-1.60e-03,
756,-8.00e-04,
757,2.80e-03,
758,2.40e-03,
759,-1.60e-03,
760,2.40e-03,
761,-1.60e-03,
762,2.40e-03,
763,-1.60e-03,
764,-2.40e-03,
765,2.00e-03,
766,2.80e-03,
767,-2.40e-03,
768,-1.60e-03,
769,1.60e-03,
770,2.00e-03,
771,-1.60e-03,
772,1.60e-03,
773,-2.40e-03,
774,1.60e-03,
775,-2.40e-03,
776,2.00e-03,
777,-1.60e-03,
778,-1.60e-03,
779,2.40e-03,
780,1.60e-03,
781,-1.60e-03,
782,-2.40e-03,
783,2.00e-03,
784,2.00e-03,
785,-2.40e-03,
786,2.00e-03,
787,-1.60e-03,
788,2.40e-03,
789,-1.60e-03,
790,2.40e-03,
791,-1.60e-03,
792,-1.60e-03,
793,2.00e-03,
794,-1.60e-03,
795,1.60e-03,
796,1.60e-03,
797,-2.40e-03,
798,-1.60e-03,
799,2.40e-03,
800,-8.00e-04,
801,2.00e-03,
802,-1.60e-03,
803,2.40e-03,
804,-1.60e-03,
805,2.40e-03,
806,-1.60e-03,
807,1.60e-03,
808,1.60e-03,
809,-1.60e-03,
810,-1.60e-03,
811,1.60e-03,
812,2.00e-03,
813,-2.40e-03,
814,2.40e-03,
815,-2.40e-03,
816,-1.60e-03,
817,2.80e-03,
818,2.40e-03,
819,-2.40e-03,
820,2.80e-03,
821,-3.20e-03,
822,2.40e-03,
823,-1.60e-03,
824,2.40e-03,
825,-1.60e-03,
826,-1.60e-03,
827,1.60e-03,
828,-8.00e-04,
829,2.40e-03,
830,2.40e-03,
831,-1.60e-03,
832,-1.60e-03,
833,2.40e-03,
834,-1.60e-03,
835,1.60e-03,
836,-1.60e-03,
837,2.40e-03,
838,1.60e-03,
839,-1.60e-03,
840,-1.60e-03,
841,2.40e-03,
842,-1.60e-03,
843,2.40e-03,
844,2.00e-03,
845,-1.60e-03,
846,-2.40e-03,
847,2.80e-03,
848,2.40e-03,
849,-1.60e-03,
850,-1.60e-03,
851,2.00e-03,
852,2.40e-03,
853,-1.60e-03,
854,1.60e-03,
855,-1.20e-03,
856,-8.00e-04,
857,2.00e-03,
858,2.40e-03,
859,-1.60e-03,
860,2.40e-03,
861,-1.60e-03,
862,2.40e-03,
863,-2.40e-03,
864,-2.40e-03,
865,2.40e-03,
866,-1.60e-03,
867,2.40e-03,
868,2.00e-03,
869,-1.60e-03,
870,2.40e-03,
871,-1.60e-03,
872,2.40e-03,
873,-1.60e-03,
874,2.40e-03,
875,-1.60e-03,
876,-1.60e-03,
877,2.40e-03,
878,3.20e-03,
879,-2.40e-03,
880,-8.00e-04,
881,2.40e-03,
882,-8.00e-04,
883,2.40e-03,
884,2.40e-03,
885,-1.60e-03,
886,-1.60e-03,
887,2.80e-03,
888,-1.60e-03,
889,2.40e-03,
890,2.40e-03,
891,-1.60e-03,
892,-1.60e-03,
893,2.00e-03,
894,-1.60e-03,
895,1.60e-03,
896,-2.40e-03,
897,2.40e-03,
898,-1.60e-03,
899,2.40e-03,
900,-1.60e-03,
901,1.60e-03,
902,2.40e-03,
903,-1.60e-03,
904,2.00e-03,
905,-1.60e-03,
906,-1.60e-03,
907,2.00e-03,
908,1.60e-03,
909,-2.40e-03,
910,-8.00e-04,
911,2.80e-03,
912,3.20e-03,
913,-1.60e-03,
914,-1.60e-03,
915,2.40e-03,
916,-8.00e-04,
917,3.20e-03,
918,-1.60e-03,
919,2.40e-03,
920,2.40e-03,
921,-1.60e-03,
922,2.40e-03,
923,-1.60e-03,
924,-1.60e-03,
925,2.40e-03,
926,-1.60e-03,
927,2.00e-03,
928,2.40e-03,
929,-1.60e-03,
930,-8.00e-04,
931,2.00e-03,
932,2.40e-03,
933,-1.60e-03,
934,2.40e-03,
935,-1.60e-03,
936,2.40e-03,
937,-1.60e-03,
938,-1.60e-03,
939,3.20e-03,
940,2.40e-03,
941,-2.40e-03,
942,2.40e-03,
943,-1.60e-03,
944,2.40e-03,
945,-1.60e-03,
946,2.40e-03,
947,-1.60e-03,
948,1.60e-03,
949,-1.60e-03,
950,-1.60e-03,
951,2.00e-03,
952,3.20e-03,
953,-8.00e-04,
954,-8.00e-04,
955,2.40e-03,
956,1.60e-03,
957,-1.60e-03,
958,-1.60e-03,
959,3.20e-03,
960,2.40e-03,
961,-2.40e-03,
962,-8.00e-04,
963,2.40e-03,
964,-1.60e-03,
965,2.80e-03,
966,2.80e-03,
967,-1.60e-03,
968,2.40e-03,
969,-1.60e-03,
970,2.40e-03,
971,-1.60e-03,
972,-8.00e-04,
973,2.80e-03,
974,2.40e-03,
975,-1.60e-03,
976,2.40e-03,
977,-1.60e-03,
978,-8.00e-04,
979,3.20e-03,
980,2.40e-03,
981,-1.60e-03,
982,2.00e-03,
983,-1.60e-03,
984,-1.60e-03,
985,2.40e-03,
986,1.60e-03,
987,-1.60e-03,
988,-1.60e-03,
989,2.40e-03,
990,-8.00e-04,
991,2.40e-03,
992,2.40e-03,
993,-1.60e-03,
994,-1.60e-03,
995,2.00e-03,
996,-1.60e-03,
997,2.40e-03,
998,-1.60e-03,
999,2.40e-03,
1000,-1.60e-03,
1001,2.40e-03,
1002,2.80e-03,
1003,-1.60e-03,
1004,-1.60e-03,
1005,2.80e-03,
1006,2.80e-03,
1007,-1.60e-03,
1008,2.40e-03,
1009,-1.60e-03,
1010,-2.40e-03,
1011,2.40e-03,
1012,-8.00e-04,
1013,2.00e-03,
1014,2.00e-03,
1015,-1.60e-03,
1016,2.40e-03,
1017,-1.60e-03,
1018,2.00e-03,
1019,-1.60e-03,
1020,-1.60e-03,
1021,2.40e-03,
1022,2.40e-03,
1023,-8.00e-04,
1024,-1.60e-03,
1025,2.80e-03,
1026,1.60e-03,
1027,-1.60e-03,
1028,2.40e-03,
1029,-1.60e-03,
1030,1.60e-03,
1031,-1.60e-03,
1032,-1.60e-03,
1033,2.00e-03,
1034,3.20e-03,
1035,-1.60e-03,
1036,2.00e-03,
1037,-1.60e-03,
1038,3.20e-03,
1039,-2.40e-03,
1040,-1.60e-03,
1041,2.40e-03,
1042,2.40e-03,
1043,-1.60e-03,
1044,3.20e-03,
1045,-1.60e-03,
1046,-1.60e-03,
1047,2.40e-03,
1048,-1.60e-03,
1049,1.60e-03,
1050,2.40e-03,
1051,-1.60e-03,
1052,-2.40e-03,
1053,2.40e-03,
1054,-1.60e-03,
1055,1.60e-03,
1056,-1.60e-03,
1057,2.40e-03,
1058,2.00e-03,
1059,-1.60e-03,
1060,-8.00e-04,
1061,2.40e-03,
1062,2.40e-03,
1063,-1.60e-03,
1064,-1.60e-03,
1065,2.80e-03,
1066,-1.60e-03,
1067,2.80e-03,
1068,2.00e-03,
1069,-1.60e-03,
1070,-1.60e-03,
1071,2.40e-03,
1072,-1.60e-03,
1073,2.40e-03,
1074,2.40e-03,
1075,-1.60e-03,
1076,2.40e-03,
1077,-8.00e-04,
1078,1.60e-03,
1079,-1.60e-03,
1080,-1.60e-03,
1081,2.00e-03,
1082,-1.60e-03,
1083,1.60e-03,
1084,-1.60e-03,
1085,2.00e-03,
1086,-1.60e-03,
1087,2.40e-03,
1088,2.00e-03,
1089,-1.60e-03,
1090,-8.00e-04,
1091,2.40e-03,
1092,3.20e-03,
1093,-1.60e-03,
1094,-1.60e-03,
1095,1.60e-03,
1096,2.40e-03,
1097,-1.60e-03,
1098,2.40e-03,
1099,-1.60e-03,
1100,-1.60e-03,
1101,2.40e-03,
1102,-2.40e-03,
1103,2.40e-03,
1104,-2.40e-03,
1105,2.40e-03,
1106,-1.60e-03,
1107,2.40e-03,
1108,-8.00e-04,
1109,2.40e-03,
1110,-8.00e-04,
1111,2.40e-03,
1112,-1.60e-03,
1113,2.40e-03,
1114,2.40e-03,
1115,-1.60e-03,
1116,-1.60e-03,
1117,2.40e-03,
1118,2.00e-03,
1119,-1.60e-03,
1120,2.40e-03,
1121,-1.60e-03,
1122,2.40e-03,
1123,-1.60e-03,
1124,1.60e-03,
1125,-1.60e-03,
1126,2.40e-03,
1127,-1.60e-03,
1128,2.40e-03,
1129,-1.60e-03,
1130,2.40e-03,
1131,-1.60e-03,
1132,-1.60e-03,
1133,2.40e-03,
1134,-1.60e-03,
1135,2.80e-03,
1136,2.80e-03,
1137,-1.60e-03,
1138,-1.60e-03,
1139,2.40e-03,
1140,2.40e-03,
1141,-1.60e-03,
1142,2.40e-03,
1143,-2.40e-03,
1144,-1.60e-03,
1145,2.40e-03,
1146,2.00e-03,
1147,-8.00e-04,
1148,-8.00e-04,
1149,2.00e-03,
1150,1.60e-03,
1151,-2.40e-03,
1152,2.40e-03,
1153,-1.60e-03,
1154,-8.00e-04,
1155,2.40e-03,
1156,-1.60e-03,
1157,2.40e-03,
1158,2.00e-03,
1159,-1.60e-03,
1160,-8.00e-04,
1161,2.40e-03,
1162,-1.60e-03,
1163,2.00e-03,
1164,-1.60e-03,
1165,2.00e-03,
1166,1.60e-03,
1167,-8.00e-04,
1168,3.20e-03,
1169,-1.60e-03,
1170,-1.60e-03,
1171,2.40e-03,
1172,1.60e-03,
1173,-1.60e-03,
1174,-1.60e-03,
1175,1.20e-03,
1176,2.00e-03,
1177,-1.60e-03,
1178,2.40e-03,
1179,-2.40e-03,
1180,-1.60e-03,
1181,2.40e-03,
1182,1.60e-03,
1183,-1.60e-03,
1184,2.40e-03,
1185,-2.40e-03,
1186,-2.40e-03,
1187,3.20e-03,
1188,-2.40e-03,
1189,2.00e-03,
1190,-2.40e-03,
1191,2.40e-03,
1192,2.00e-03,
1193,-1.60e-03,
1194,1.60e-03,
1195,-2.40e-03,
1196,2.40e-03,
1197,-1.60e-03,
1198,-1.60e-03,
1199,2.80e-03,
