fastdiffamp/data-noise-set/weak-balanced/NewFile3.csv

X,CH1,Start,Increment,
Sequence,Volt,-1.198000e+01,2.000000e-02
0,2.00e-03,
1,-1.60e-03,
2,-8.00e-04,
3,2.00e-03,
4,2.00e-03,
5,-1.60e-03,
6,2.40e-03,
7,-2.40e-03,
8,-1.60e-03,
9,2.00e-03,
10,1.60e-03,
11,-2.40e-03,
12,2.40e-03,
13,-2.40e-03,
14,2.00e-03,
15,-1.60e-03,
16,-1.60e-03,
17,2.40e-03,
18,-1.60e-03,
19,2.40e-03,
20,2.40e-03,
21,-1.60e-03,
22,2.40e-03,
23,-1.60e-03,
24,-1.60e-03,
25,2.40e-03,
26,2.40e-03,
27,-1.60e-03,
28,-1.20e-03,
29,3.20e-03,
30,2.40e-03,
31,-1.60e-03,
32,2.40e-03,
33,-2.40e-03,
34,-1.60e-03,
35,2.40e-03,
36,-1.60e-03,
37,2.40e-03,
38,2.40e-03,
39,-1.60e-03,
40,2.40e-03,
41,-1.60e-03,
42,1.60e-03,
43,-1.60e-03,
44,2.40e-03,
45,-1.60e-03,
46,2.40e-03,
47,-1.60e-03,
48,1.60e-03,
49,-1.60e-03,
50,2.40e-03,
51,-1.60e-03,
52,2.80e-03,
53,-1.60e-03,
54,-8.00e-04,
55,2.40e-03,
56,2.40e-03,
57,-1.60e-03,
58,2.40e-03,
59,-1.60e-03,
60,-1.60e-03,
61,2.40e-03,
62,3.20e-03,
63,-1.60e-03,
64,2.40e-03,
65,-1.60e-03,
66,-1.60e-03,
67,2.40e-03,
68,2.00e-03,
69,-1.60e-03,
70,2.00e-03,
71,-1.60e-03,
72,2.40e-03,
73,-1.60e-03,
74,2.40e-03,
75,-1.60e-03,
76,2.40e-03,
77,-1.60e-03,
78,-1.60e-03,
79,2.40e-03,
80,-8.00e-04,
81,3.20e-03,
82,-1.60e-03,
83,3.20e-03,
84,-8.00e-04,
85,3.20e-03,
86,2.00e-03,
87,-1.60e-03,
88,-1.60e-03,
89,2.40e-03,
90,2.40e-03,
91,-1.60e-03,
92,-1.60e-03,
93,2.00e-03,
94,2.40e-03,
95,-1.60e-03,
96,2.40e-03,
97,-1.60e-03,
98,2.40e-03,
99,-1.60e-03,
100,-2.40e-03,
101,2.80e-03,
102,2.40e-03,
103,-1.60e-03,
104,2.40e-03,
105,-1.60e-03,
106,2.00e-03,
107,-2.40e-03,
108,-8.00e-04,
109,2.80e-03,
110,2.40e-03,
111,-1.60e-03,
112,-1.60e-03,
113,2.40e-03,
114,3.20e-03,
115,-1.60e-03,
116,2.80e-03,
117,-1.60e-03,
118,2.40e-03,
119,-1.60e-03,
120,2.40e-03,
121,-1.60e-03,
122,-1.60e-03,
123,2.40e-03,
124,2.40e-03,
125,-1.60e-03,
126,2.40e-03,
127,-1.60e-03,
128,-1.60e-03,
129,2.00e-03,
130,-1.60e-03,
131,2.00e-03,
132,2.40e-03,
133,-1.60e-03,
134,-1.60e-03,
135,2.00e-03,
136,-1.60e-03,
137,2.80e-03,
138,2.80e-03,
139,-8.00e-04,
140,1.60e-03,
141,-1.60e-03,
142,-1.60e-03,
143,2.40e-03,
144,2.00e-03,
145,-1.60e-03,
146,1.60e-03,
147,-2.40e-03,
148,-1.60e-03,
149,2.00e-03,
150,2.40e-03,
151,-2.40e-03,
152,-8.00e-04,
153,2.00e-03,
154,1.60e-03,
155,-2.40e-03,
156,1.60e-03,
157,-1.60e-03,
158,2.40e-03,
159,-1.60e-03,
160,2.80e-03,
161,-2.40e-03,
162,1.60e-03,
163,-2.40e-03,
164,-8.00e-04,
165,2.40e-03,
166,-1.60e-03,
167,2.00e-03,
168,-1.60e-03,
169,2.00e-03,
170,3.20e-03,
171,-1.60e-03,
172,1.60e-03,
173,-1.60e-03,
174,-1.60e-03,
175,2.00e-03,
176,1.60e-03,
177,-1.60e-03,
178,-1.60e-03,
179,1.60e-03,
180,-1.60e-03,
181,2.40e-03,
182,2.80e-03,
183,-1.60e-03,
184,2.00e-03,
185,-1.60e-03,
186,2.40e-03,
187,-1.60e-03,
188,-1.60e-03,
189,2.40e-03,
190,1.60e-03,
191,-1.60e-03,
192,2.00e-03,
193,-3.20e-03,
194,1.20e-03,
195,-2.40e-03,
196,1.60e-03,
197,-1.60e-03,
198,1.60e-03,
199,-1.60e-03,
200,1.60e-03,
201,-2.40e-03,
202,-1.60e-03,
203,2.40e-03,
204,2.00e-03,
205,-2.40e-03,
206,2.00e-03,
207,-1.60e-03,
208,-1.60e-03,
209,2.40e-03,
210,-1.60e-03,
211,2.00e-03,
212,2.40e-03,
213,-1.60e-03,
214,-1.60e-03,
215,2.40e-03,
216,-1.60e-03,
217,2.40e-03,
218,-1.60e-03,
219,2.80e-03,
220,2.40e-03,
221,-1.60e-03,
222,2.40e-03,
223,-1.60e-03,
224,2.40e-03,
225,-1.60e-03,
226,1.60e-03,
227,-1.60e-03,
228,-2.40e-03,
229,2.00e-03,
230,2.40e-03,
231,-1.60e-03,
232,1.60e-03,
233,-1.60e-03,
234,-8.00e-04,
235,2.40e-03,
236,1.60e-03,
237,-1.60e-03,
238,1.60e-03,
239,-1.60e-03,
240,2.00e-03,
241,-1.60e-03,
242,-1.60e-03,
243,2.40e-03,
244,1.60e-03,
245,-2.40e-03,
246,2.40e-03,
247,-1.60e-03,
248,2.00e-03,
249,-1.60e-03,
250,1.60e-03,
251,-8.00e-04,
252,-1.60e-03,
253,2.00e-03,
254,2.40e-03,
255,-2.40e-03,
256,-8.00e-04,
257,2.40e-03,
258,-1.60e-03,
259,2.40e-03,
260,2.40e-03,
261,-2.40e-03,
262,-8.00e-04,
263,2.40e-03,
264,2.40e-03,
265,-1.60e-03,
266,2.40e-03,
267,-1.60e-03,
268,-1.60e-03,
269,2.40e-03,
270,2.00e-03,
271,-1.60e-03,
272,2.00e-03,
273,-2.40e-03,
274,-2.40e-03,
275,2.40e-03,
276,-1.60e-03,
277,2.00e-03,
278,1.60e-03,
279,-2.40e-03,
280,-1.60e-03,
281,2.40e-03,
282,1.60e-03,
283,-2.40e-03,
284,-2.40e-03,
285,2.40e-03,
286,-1.60e-03,
287,2.40e-03,
288,2.40e-03,
289,-1.60e-03,
290,2.40e-03,
291,-1.60e-03,
292,-1.60e-03,
293,2.00e-03,
294,2.40e-03,
295,-1.60e-03,
296,2.40e-03,
297,-8.00e-04,
298,2.40e-03,
299,-1.60e-03,
300,1.60e-03,
301,-1.60e-03,
302,-1.60e-03,
303,2.00e-03,
304,-2.40e-03,
305,2.40e-03,
306,-1.60e-03,
307,2.40e-03,
308,3.20e-03,
309,-1.20e-03,
310,2.40e-03,
311,-8.00e-04,
312,-2.40e-03,
313,2.40e-03,
314,2.80e-03,
315,-8.00e-04,
316,-1.60e-03,
317,2.40e-03,
318,2.40e-03,
319,-2.40e-03,
320,2.80e-03,
321,-1.60e-03,
322,-1.60e-03,
323,2.00e-03,
324,-1.60e-03,
325,2.00e-03,
326,2.40e-03,
327,-1.60e-03,
328,-1.60e-03,
329,2.40e-03,
330,2.40e-03,
331,-1.60e-03,
332,2.00e-03,
333,-1.60e-03,
334,-1.60e-03,
335,1.60e-03,
336,2.00e-03,
337,-1.60e-03,
338,-1.60e-03,
339,2.00e-03,
340,2.40e-03,
341,-1.60e-03,
342,-1.60e-03,
343,2.40e-03,
344,-2.40e-03,
345,2.40e-03,
346,2.40e-03,
347,-1.60e-03,
348,2.00e-03,
349,-1.60e-03,
350,-1.60e-03,
351,1.60e-03,
352,-1.60e-03,
353,2.00e-03,
354,1.60e-03,
355,-1.60e-03,
356,-2.40e-03,
357,3.20e-03,
358,2.40e-03,
359,-1.60e-03,
360,2.40e-03,
361,-1.60e-03,
362,2.00e-03,
363,-1.60e-03,
364,-1.60e-03,
365,2.40e-03,
366,-1.60e-03,
367,2.40e-03,
368,2.00e-03,
369,-1.60e-03,
370,-1.60e-03,
371,1.60e-03,
372,2.40e-03,
373,-1.60e-03,
374,-2.40e-03,
375,2.40e-03,
376,-1.60e-03,
377,2.80e-03,
378,1.20e-03,
379,-1.60e-03,
380,2.00e-03,
381,-1.60e-03,
382,1.60e-03,
383,-1.60e-03,
384,-1.60e-03,
385,2.80e-03,
386,-1.60e-03,
387,2.40e-03,
388,-1.60e-03,
389,2.40e-03,
390,-1.60e-03,
391,2.00e-03,
392,-1.60e-03,
393,2.80e-03,
394,2.00e-03,
395,-1.60e-03,
396,2.40e-03,
397,-2.40e-03,
398,2.00e-03,
399,-1.60e-03,
400,-1.60e-03,
401,2.00e-03,
402,-1.60e-03,
403,2.00e-03,
404,-1.60e-03,
405,2.40e-03,
406,-2.40e-03,
407,2.00e-03,
408,2.40e-03,
409,-1.60e-03,
410,2.40e-03,
411,-1.60e-03,
412,-8.00e-04,
413,2.00e-03,
414,-1.60e-03,
415,2.40e-03,
416,2.00e-03,
417,-1.60e-03,
418,-1.60e-03,
419,1.60e-03,
420,3.20e-03,
421,-1.60e-03,
422,2.40e-03,
423,-2.40e-03,
424,1.60e-03,
425,-1.60e-03,
426,2.40e-03,
427,-1.60e-03,
428,-1.60e-03,
429,1.60e-03,
430,2.40e-03,
431,-1.60e-03,
432,1.60e-03,
433,-1.60e-03,
434,1.60e-03,
435,-1.60e-03,
436,2.40e-03,
437,-1.60e-03,
438,1.60e-03,
439,-1.60e-03,
440,-1.60e-03,
441,2.40e-03,
442,-8.00e-04,
443,2.80e-03,
444,2.40e-03,
445,-1.60e-03,
446,2.00e-03,
447,-8.00e-04,
448,1.60e-03,
449,-1.60e-03,
450,2.00e-03,
451,-2.40e-03,
452,-1.60e-03,
453,2.40e-03,
454,2.40e-03,
455,-2.40e-03,
456,-2.40e-03,
457,2.00e-03,
458,2.40e-03,
459,-1.60e-03,
460,2.40e-03,
461,-1.60e-03,
462,1.60e-03,
463,-1.60e-03,
464,2.00e-03,
465,-1.60e-03,
466,2.00e-03,
467,-2.40e-03,
468,-1.60e-03,
469,2.40e-03,
470,-8.00e-04,
471,3.20e-03,
472,2.80e-03,
473,-1.60e-03,
474,-1.60e-03,
475,2.40e-03,
476,-1.60e-03,
477,2.40e-03,
478,2.40e-03,
479,-2.40e-03,
480,-1.60e-03,
481,2.40e-03,
482,2.40e-03,
483,-1.60e-03,
484,1.60e-03,
485,-2.40e-03,
486,1.60e-03,
487,-1.60e-03,
488,-1.60e-03,
489,2.00e-03,
490,1.60e-03,
491,-1.60e-03,
492,-1.60e-03,
493,2.40e-03,
494,1.60e-03,
495,-1.60e-03,
496,-1.60e-03,
497,2.40e-03,
498,-1.60e-03,
499,2.40e-03,
500,-1.60e-03,
501,2.40e-03,
502,-1.60e-03,
503,2.40e-03,
504,2.40e-03,
505,-1.60e-03,
506,-2.40e-03,
507,2.80e-03,
508,-1.60e-03,
509,2.40e-03,
510,2.40e-03,
511,-1.60e-03,
512,-1.60e-03,
513,2.80e-03,
514,1.60e-03,
515,-2.40e-03,
516,-1.60e-03,
517,2.40e-03,
518,-1.60e-03,
519,2.00e-03,
520,1.60e-03,
521,-1.60e-03,
522,2.80e-03,
523,-1.60e-03,
524,-1.60e-03,
525,2.40e-03,
526,-8.00e-04,
527,2.40e-03,
528,-1.60e-03,
529,2.00e-03,
530,-2.40e-03,
531,1.60e-03,
532,-1.60e-03,
533,2.00e-03,
534,1.60e-03,
535,-1.60e-03,
536,2.00e-03,
537,-2.40e-03,
538,2.40e-03,
539,-1.60e-03,
540,2.40e-03,
541,-1.60e-03,
542,-1.60e-03,
543,2.40e-03,
544,2.40e-03,
545,-1.60e-03,
546,-1.60e-03,
547,2.40e-03,
548,-1.60e-03,
549,2.00e-03,
550,2.80e-03,
551,-1.60e-03,
552,2.40e-03,
553,-1.60e-03,
554,2.40e-03,
555,-8.00e-04,
556,-1.60e-03,
557,2.00e-03,
558,-1.60e-03,
559,2.40e-03,
560,2.40e-03,
561,-1.60e-03,
562,1.60e-03,
563,-2.40e-03,
564,-1.60e-03,
565,2.40e-03,
566,1.60e-03,
567,-1.60e-03,
568,-1.60e-03,
569,2.00e-03,
570,2.00e-03,
571,-2.40e-03,
572,-1.60e-03,
573,2.00e-03,
574,1.60e-03,
575,-1.60e-03,
576,2.40e-03,
577,-1.60e-03,
578,-1.60e-03,
579,2.00e-03,
580,2.40e-03,
581,-8.00e-04,
582,-1.60e-03,
583,2.40e-03,
584,2.40e-03,
585,-1.60e-03,
586,2.00e-03,
587,-1.60e-03,
588,-1.60e-03,
589,2.40e-03,
590,-2.40e-03,
591,2.40e-03,
592,-1.60e-03,
593,2.00e-03,
594,-1.60e-03,
595,2.00e-03,
596,2.40e-03,
597,-2.40e-03,
598,2.00e-03,
599,-1.60e-03,
600,-1.60e-03,
601,2.00e-03,
602,1.60e-03,
603,-1.60e-03,
604,-1.60e-03,
605,2.40e-03,
606,-1.60e-03,
607,2.40e-03,
608,2.40e-03,
609,-1.60e-03,
610,2.40e-03,
611,-2.40e-03,
612,-1.60e-03,
613,1.60e-03,
614,2.40e-03,
615,-1.60e-03,
616,-2.40e-03,
617,2.40e-03,
618,-2.40e-03,
619,2.40e-03,
620,1.60e-03,
621,-1.60e-03,
622,-1.60e-03,
623,2.40e-03,
624,2.40e-03,
625,-2.40e-03,
626,-1.60e-03,
627,2.40e-03,
628,2.80e-03,
629,-2.40e-03,
630,2.40e-03,
631,-1.60e-03,
632,-1.60e-03,
633,2.00e-03,
634,-1.60e-03,
635,2.40e-03,
636,2.40e-03,
637,-1.60e-03,
638,-1.60e-03,
639,2.00e-03,
640,-1.60e-03,
641,3.20e-03,
642,-8.00e-04,
643,3.20e-03,
644,-1.60e-03,
645,2.40e-03,
646,2.00e-03,
647,-1.60e-03,
648,3.20e-03,
649,-1.60e-03,
650,-1.60e-03,
651,2.40e-03,
652,-2.40e-03,
653,2.40e-03,
654,1.60e-03,
655,-2.40e-03,
656,2.40e-03,
657,-1.60e-03,
658,3.20e-03,
659,-1.60e-03,
660,-1.60e-03,
661,2.40e-03,
662,1.60e-03,
663,-1.60e-03,
664,-1.60e-03,
665,1.60e-03,
666,2.40e-03,
667,-1.60e-03,
668,-1.60e-03,
669,2.00e-03,
670,-1.60e-03,
671,2.40e-03,
672,2.40e-03,
673,-1.60e-03,
674,-1.60e-03,
675,1.60e-03,
676,1.60e-03,
677,-1.60e-03,
678,-2.40e-03,
679,2.40e-03,
680,-1.60e-03,
681,2.00e-03,
682,3.20e-03,
683,-1.60e-03,
684,2.40e-03,
685,-1.60e-03,
686,2.40e-03,
687,-1.60e-03,
688,2.00e-03,
689,-1.60e-03,
690,-2.40e-03,
691,2.00e-03,
692,1.60e-03,
693,-1.60e-03,
694,-1.60e-03,
695,2.00e-03,
696,-2.40e-03,
697,2.40e-03,
698,-2.40e-03,
699,2.40e-03,
700,-2.40e-03,
701,1.60e-03,
702,2.40e-03,
703,-1.60e-03,
704,2.40e-03,
705,-1.60e-03,
706,-2.40e-03,
707,2.40e-03,
708,-1.60e-03,
709,2.00e-03,
710,-2.40e-03,
711,2.40e-03,
712,1.60e-03,
713,-1.60e-03,
714,-1.60e-03,
715,2.40e-03,
716,-2.40e-03,
717,2.40e-03,
718,1.60e-03,
719,-1.60e-03,
720,-1.60e-03,
721,2.00e-03,
722,2.00e-03,
723,-1.60e-03,
724,-1.60e-03,
725,1.60e-03,
726,-1.60e-03,
727,2.00e-03,
728,1.60e-03,
729,-2.40e-03,
730,-1.60e-03,
731,1.60e-03,
732,1.60e-03,
733,-1.60e-03,
734,-1.60e-03,
735,2.40e-03,
736,-1.60e-03,
737,2.40e-03,
738,3.20e-03,
739,-1.60e-03,
740,-1.60e-03,
741,3.20e-03,
742,-2.40e-03,
743,2.00e-03,
744,-2.40e-03,
745,2.00e-03,
746,-1.60e-03,
747,1.60e-03,
748,2.00e-03,
749,-1.60e-03,
750,1.60e-03,
751,-1.60e-03,
752,1.20e-03,
753,-2.40e-03,
754,-1.60e-03,
755,1.60e-03,
756,1.60e-03,
757,-1.60e-03,
758,-1.60e-03,
759,2.40e-03,
760,-8.00e-04,
761,2.40e-03,
762,-8.00e-04,
763,2.40e-03,
764,2.40e-03,
765,-1.60e-03,
766,2.40e-03,
767,-1.60e-03,
768,1.60e-03,
769,-1.60e-03,
770,-1.60e-03,
771,1.60e-03,
772,-1.60e-03,
773,2.80e-03,
774,-1.60e-03,
775,1.60e-03,
776,-2.40e-03,
777,1.60e-03,
778,1.60e-03,
779,-2.40e-03,
780,2.00e-03,
781,-2.40e-03,
782,-1.60e-03,
783,2.40e-03,
784,-1.60e-03,
785,2.00e-03,
786,-1.60e-03,
787,2.00e-03,
788,-2.40e-03,
789,2.40e-03,
790,1.60e-03,
791,-1.60e-03,
792,-2.40e-03,
793,2.40e-03,
794,-1.60e-03,
795,2.40e-03,
796,-2.40e-03,
797,3.20e-03,
798,-1.60e-03,
799,2.00e-03,
800,2.00e-03,
801,-1.60e-03,
802,-2.40e-03,
803,1.60e-03,
804,1.60e-03,
805,-2.40e-03,
806,-2.40e-03,
807,1.60e-03,
808,2.40e-03,
809,-1.60e-03,
810,2.40e-03,
811,-1.60e-03,
812,-1.60e-03,
813,2.00e-03,
814,-8.00e-04,
815,2.40e-03,
816,-1.60e-03,
817,2.40e-03,
818,2.40e-03,
819,-1.60e-03,
820,2.00e-03,
821,-1.60e-03,
822,-1.60e-03,
823,2.00e-03,
824,1.60e-03,
825,-1.60e-03,
826,-8.00e-04,
827,2.00e-03,
828,1.60e-03,
829,-1.60e-03,
830,2.40e-03,
831,-2.40e-03,
832,-1.60e-03,
833,3.20e-03,
834,-1.60e-03,
835,2.00e-03,
836,2.00e-03,
837,-1.60e-03,
838,2.40e-03,
839,-2.40e-03,
840,-1.60e-03,
841,2.40e-03,
842,2.40e-03,
843,-1.60e-03,
844,-1.60e-03,
845,2.40e-03,
846,-2.40e-03,
847,2.00e-03,
848,-1.60e-03,
849,2.00e-03,
850,-2.40e-03,
851,2.40e-03,
852,-1.60e-03,
853,2.40e-03,
854,1.60e-03,
855,-2.40e-03,
856,2.40e-03,
857,-1.60e-03,
858,-1.60e-03,
859,2.00e-03,
860,-1.60e-03,
861,2.40e-03,
862,2.40e-03,
863,-1.60e-03,
864,-1.60e-03,
865,2.00e-03,
866,2.40e-03,
867,-1.60e-03,
868,2.40e-03,
869,-1.60e-03,
870,-1.60e-03,
871,2.00e-03,
872,-1.60e-03,
873,2.40e-03,
874,1.60e-03,
875,-1.60e-03,
876,-2.40e-03,
877,2.40e-03,
878,-8.00e-04,
879,2.40e-03,
880,-1.60e-03,
881,2.40e-03,
882,2.40e-03,
883,-1.60e-03,
884,-1.60e-03,
885,2.40e-03,
886,2.40e-03,
887,-1.60e-03,
888,-1.60e-03,
889,2.40e-03,
890,-1.60e-03,
891,2.40e-03,
892,-1.60e-03,
893,2.00e-03,
894,-1.60e-03,
895,2.00e-03,
896,-1.60e-03,
897,3.20e-03,
898,-1.60e-03,
899,2.40e-03,
900,-1.60e-03,
901,2.00e-03,
902,-1.60e-03,
903,2.40e-03,
904,-1.60e-03,
905,2.40e-03,
906,-1.60e-03,
907,2.00e-03,
908,1.60e-03,
909,-1.60e-03,
910,1.60e-03,
911,-1.60e-03,
912,-1.60e-03,
913,2.40e-03,
914,-1.60e-03,
915,2.40e-03,
916,-1.60e-03,
917,2.40e-03,
918,-1.60e-03,
919,2.40e-03,
920,2.40e-03,
921,-8.00e-04,
922,2.40e-03,
923,-1.60e-03,
924,2.00e-03,
925,-1.60e-03,
926,-1.60e-03,
927,2.00e-03,
928,-1.60e-03,
929,2.00e-03,
930,2.40e-03,
931,-1.60e-03,
932,-1.60e-03,
933,2.40e-03,
934,-1.60e-03,
935,2.80e-03,
936,-1.60e-03,
937,2.00e-03,
938,-1.60e-03,
939,2.40e-03,
940,-1.60e-03,
941,2.40e-03,
942,-1.60e-03,
943,2.00e-03,
944,-1.60e-03,
945,1.60e-03,
946,-1.60e-03,
947,2.40e-03,
948,2.40e-03,
949,-1.60e-03,
950,1.60e-03,
951,-2.40e-03,
952,-1.60e-03,
953,2.40e-03,
954,-1.60e-03,
955,3.20e-03,
956,2.40e-03,
957,-2.40e-03,
958,1.60e-03,
959,-2.40e-03,
960,-1.60e-03,
961,1.60e-03,
962,1.60e-03,
963,-1.60e-03,
964,-1.60e-03,
965,2.40e-03,
966,-1.60e-03,
967,2.40e-03,
968,-1.60e-03,
969,2.40e-03,
970,-1.60e-03,
971,3.20e-03,
972,-1.60e-03,
973,2.00e-03,
974,-1.60e-03,
975,2.80e-03,
976,-1.60e-03,
977,2.40e-03,
978,-1.60e-03,
979,1.60e-03,
980,2.00e-03,
981,-2.40e-03,
982,2.80e-03,
983,-2.40e-03,
984,-1.60e-03,
985,1.60e-03,
986,-1.60e-03,
987,2.00e-03,
988,-1.60e-03,
989,2.80e-03,
990,-1.60e-03,
991,2.40e-03,
992,-1.60e-03,
993,2.40e-03,
994,1.60e-03,
995,-1.60e-03,
996,-2.40e-03,
997,2.40e-03,
998,-2.40e-03,
999,2.40e-03,
1000,-1.60e-03,
1001,2.40e-03,
1002,-1.60e-03,
1003,2.40e-03,
1004,1.60e-03,
1005,-1.60e-03,
1006,-1.60e-03,
1007,2.40e-03,
1008,2.40e-03,
1009,-1.60e-03,
1010,-2.40e-03,
1011,3.20e-03,
1012,2.40e-03,
1013,-2.40e-03,
1014,-1.60e-03,
1015,2.40e-03,
1016,-1.60e-03,
1017,2.40e-03,
1018,2.40e-03,
1019,-1.60e-03,
1020,-1.60e-03,
1021,2.40e-03,
1022,2.40e-03,
1023,-1.60e-03,
1024,2.40e-03,
1025,-2.40e-03,
1026,2.40e-03,
1027,-1.60e-03,
1028,2.40e-03,
1029,-1.60e-03,
1030,-1.60e-03,
1031,2.40e-03,
1032,-1.60e-03,
1033,2.40e-03,
1034,2.00e-03,
1035,-1.60e-03,
1036,2.40e-03,
1037,-2.40e-03,
1038,-1.60e-03,
1039,2.00e-03,
1040,2.80e-03,
1041,-2.40e-03,
1042,-1.60e-03,
1043,2.40e-03,
1044,2.40e-03,
1045,-2.40e-03,
1046,-1.60e-03,
1047,2.80e-03,
1048,-8.00e-04,
1049,1.60e-03,
1050,-1.60e-03,
1051,2.40e-03,
1052,-1.60e-03,
1053,2.80e-03,
1054,-1.60e-03,
1055,2.40e-03,
1056,-1.60e-03,
1057,2.80e-03,
1058,2.40e-03,
1059,-1.60e-03,
1060,-1.60e-03,
1061,2.40e-03,
1062,-1.60e-03,
1063,2.40e-03,
1064,2.40e-03,
1065,-1.60e-03,
1066,-1.60e-03,
1067,2.40e-03,
1068,2.40e-03,
1069,-1.60e-03,
1070,2.40e-03,
1071,-1.60e-03,
1072,2.40e-03,
1073,-2.40e-03,
1074,-1.60e-03,
1075,2.40e-03,
1076,-1.60e-03,
1077,3.20e-03,
1078,2.40e-03,
1079,-1.60e-03,
1080,-8.00e-04,
1081,2.40e-03,
1082,-1.60e-03,
1083,3.20e-03,
1084,2.40e-03,
1085,-1.60e-03,
1086,-2.40e-03,
1087,2.40e-03,
1088,-1.60e-03,
1089,3.20e-03,
1090,-1.60e-03,
1091,2.40e-03,
1092,2.80e-03,
1093,-1.20e-03,
1094,-1.60e-03,
1095,2.40e-03,
1096,-1.60e-03,
1097,2.80e-03,
1098,-1.60e-03,
1099,3.20e-03,
1100,3.20e-03,
1101,-1.60e-03,
1102,1.60e-03,
1103,-1.60e-03,
1104,2.40e-03,
1105,-1.60e-03,
1106,2.40e-03,
1107,-1.60e-03,
1108,-8.00e-04,
1109,3.20e-03,
1110,-1.60e-03,
1111,2.40e-03,
1112,3.20e-03,
1113,-1.60e-03,
1114,-2.40e-03,
1115,2.40e-03,
1116,-1.60e-03,
1117,2.40e-03,
1118,2.40e-03,
1119,-2.40e-03,
1120,-1.60e-03,
1121,2.40e-03,
1122,-8.00e-04,
1123,2.40e-03,
1124,1.60e-03,
1125,-1.60e-03,
1126,-1.60e-03,
1127,3.20e-03,
1128,2.00e-03,
1129,-1.60e-03,
1130,2.40e-03,
1131,-8.00e-04,
1132,-8.00e-04,
1133,2.40e-03,
1134,-8.00e-04,
1135,2.40e-03,
1136,2.40e-03,
1137,-1.60e-03,
1138,2.40e-03,
1139,-1.60e-03,
1140,2.40e-03,
1141,-2.40e-03,
1142,-8.00e-04,
1143,2.40e-03,
1144,-2.40e-03,
1145,2.00e-03,
1146,-1.60e-03,
1147,2.40e-03,
1148,-2.40e-03,
1149,1.60e-03,
1150,-1.60e-03,
1151,1.60e-03,
1152,2.40e-03,
1153,-1.60e-03,
1154,-1.60e-03,
1155,2.40e-03,
1156,-1.60e-03,
1157,3.20e-03,
1158,-1.60e-03,
1159,2.40e-03,
1160,-1.60e-03,
1161,2.40e-03,
1162,-8.00e-04,
1163,2.40e-03,
1164,-1.60e-03,
1165,2.40e-03,
1166,2.40e-03,
1167,-1.60e-03,
1168,-8.00e-04,
1169,3.20e-03,
1170,-1.60e-03,
1171,2.40e-03,
1172,2.40e-03,
1173,-1.60e-03,
1174,-1.20e-03,
1175,2.80e-03,
1176,-1.60e-03,
1177,2.40e-03,
1178,-8.00e-04,
1179,2.80e-03,
1180,2.00e-03,
1181,-1.60e-03,
1182,-8.00e-04,
1183,3.20e-03,
1184,-8.00e-04,
1185,2.40e-03,
1186,2.40e-03,
1187,-1.60e-03,
1188,-1.60e-03,
1189,3.20e-03,
1190,-8.00e-04,
1191,2.80e-03,
1192,2.40e-03,
1193,-1.60e-03,
1194,-2.40e-03,
1195,1.60e-03,
1196,-1.60e-03,
1197,2.40e-03,
1198,-8.00e-04,
1199,2.00e-03,
