fastdiffamp/data-noise-set/weak-balanced/NewFile4.csv

X,CH1,Start,Increment,
Sequence,Volt,-1.198000e+01,2.000000e-02
0,2.40e-03,
1,-2.40e-03,
2,2.00e-03,
3,-1.60e-03,
4,3.20e-03,
5,-2.40e-03,
6,-8.00e-04,
7,2.40e-03,
8,2.80e-03,
9,-1.60e-03,
10,-1.60e-03,
11,2.40e-03,
12,2.40e-03,
13,-1.60e-03,
14,2.00e-03,
15,-1.60e-03,
16,-8.00e-04,
17,2.40e-03,
18,-2.40e-03,
19,2.40e-03,
20,2.40e-03,
21,-1.60e-03,
22,2.40e-03,
23,-1.60e-03,
24,-8.00e-04,
25,2.40e-03,
26,-8.00e-04,
27,2.40e-03,
28,2.40e-03,
29,-1.60e-03,
30,-1.60e-03,
31,2.40e-03,
32,-1.60e-03,
33,1.60e-03,
34,-1.60e-03,
35,2.00e-03,
36,2.40e-03,
37,-1.60e-03,
38,-1.60e-03,
39,2.00e-03,
40,-1.60e-03,
41,2.40e-03,
42,-8.00e-04,
43,2.80e-03,
44,1.60e-03,
45,-1.60e-03,
46,-8.00e-04,
47,1.60e-03,
48,2.40e-03,
49,-1.60e-03,
50,-8.00e-04,
51,1.60e-03,
52,2.80e-03,
53,-1.60e-03,
54,-1.60e-03,
55,3.20e-03,
56,1.60e-03,
57,-1.60e-03,
58,-1.60e-03,
59,2.80e-03,
60,2.00e-03,
61,-1.60e-03,
62,-1.60e-03,
63,2.00e-03,
64,2.40e-03,
65,-2.40e-03,
66,1.60e-03,
67,-1.60e-03,
68,2.40e-03,
69,-2.40e-03,
70,2.40e-03,
71,-1.60e-03,
72,2.40e-03,
73,-1.60e-03,
74,-1.60e-03,
75,2.80e-03,
76,-2.40e-03,
77,2.00e-03,
78,2.00e-03,
79,-1.60e-03,
80,2.00e-03,
81,-2.40e-03,
82,1.60e-03,
83,-1.60e-03,
84,-1.60e-03,
85,2.40e-03,
86,2.40e-03,
87,-1.60e-03,
88,-2.40e-03,
89,2.40e-03,
90,2.00e-03,
91,-2.40e-03,
92,-1.60e-03,
93,2.40e-03,
94,-1.60e-03,
95,2.40e-03,
96,-1.60e-03,
97,2.40e-03,
98,2.40e-03,
99,-8.00e-04,
100,2.40e-03,
101,-1.60e-03,
102,2.40e-03,
103,-1.60e-03,
104,2.40e-03,
105,-1.60e-03,
106,-1.60e-03,
107,2.40e-03,
108,-1.60e-03,
109,2.00e-03,
110,1.60e-03,
111,-1.60e-03,
112,-1.60e-03,
113,1.60e-03,
114,-8.00e-04,
115,2.40e-03,
116,-1.60e-03,
117,2.40e-03,
118,2.40e-03,
119,-2.40e-03,
120,2.40e-03,
121,-1.60e-03,
122,-8.00e-04,
123,2.00e-03,
124,2.80e-03,
125,-1.60e-03,
126,-1.60e-03,
127,2.40e-03,
128,2.40e-03,
129,-1.60e-03,
130,1.60e-03,
131,-1.60e-03,
132,2.40e-03,
133,-1.60e-03,
134,-2.40e-03,
135,2.40e-03,
136,2.40e-03,
137,-1.60e-03,
138,-1.60e-03,
139,2.00e-03,
140,-1.60e-03,
141,2.40e-03,
142,-1.60e-03,
143,2.00e-03,
144,2.40e-03,
145,-2.40e-03,
146,-1.60e-03,
147,2.40e-03,
148,-1.60e-03,
149,2.00e-03,
150,-1.60e-03,
151,1.60e-03,
152,-1.60e-03,
153,2.00e-03,
154,1.60e-03,
155,-1.60e-03,
156,1.60e-03,
157,-1.60e-03,
158,-1.60e-03,
159,2.80e-03,
160,-8.00e-04,
161,2.80e-03,
162,-1.60e-03,
163,2.00e-03,
164,-1.60e-03,
165,2.40e-03,
166,-1.60e-03,
167,2.40e-03,
168,-1.60e-03,
169,2.00e-03,
170,-1.60e-03,
171,1.60e-03,
172,2.40e-03,
173,-2.40e-03,
174,2.00e-03,
175,-1.60e-03,
176,2.40e-03,
177,-1.60e-03,
178,-1.60e-03,
179,2.80e-03,
180,2.40e-03,
181,-1.60e-03,
182,-1.60e-03,
183,2.00e-03,
184,2.40e-03,
185,-1.60e-03,
186,2.40e-03,
187,-1.60e-03,
188,2.40e-03,
189,-1.60e-03,
190,1.60e-03,
191,-1.60e-03,
192,-8.00e-04,
193,2.00e-03,
194,2.40e-03,
195,-1.60e-03,
196,2.40e-03,
197,-2.40e-03,
198,2.00e-03,
199,-1.60e-03,
200,-1.60e-03,
201,1.60e-03,
202,2.00e-03,
203,-1.60e-03,
204,2.40e-03,
205,-1.60e-03,
206,-1.60e-03,
207,2.00e-03,
208,2.40e-03,
209,-1.60e-03,
210,2.00e-03,
211,-1.60e-03,
212,2.00e-03,
213,-1.60e-03,
214,2.40e-03,
215,-2.40e-03,
216,-1.60e-03,
217,2.00e-03,
218,2.40e-03,
219,-8.00e-04,
220,2.40e-03,
221,-1.60e-03,
222,2.40e-03,
223,-1.60e-03,
224,2.80e-03,
225,-1.60e-03,
226,-8.00e-04,
227,1.60e-03,
228,2.40e-03,
229,-1.60e-03,
230,-1.60e-03,
231,2.40e-03,
232,2.40e-03,
233,-1.60e-03,
234,-1.60e-03,
235,2.40e-03,
236,2.40e-03,
237,-1.60e-03,
238,-1.60e-03,
239,2.40e-03,
240,2.80e-03,
241,-1.60e-03,
242,1.60e-03,
243,-1.60e-03,
244,-1.60e-03,
245,1.60e-03,
246,2.40e-03,
247,-1.60e-03,
248,2.40e-03,
249,-1.60e-03,
250,2.40e-03,
251,-1.60e-03,
252,2.40e-03,
253,-1.60e-03,
254,-1.60e-03,
255,2.80e-03,
256,-1.60e-03,
257,3.20e-03,
258,2.40e-03,
259,-1.60e-03,
260,-8.00e-04,
261,2.40e-03,
262,-1.60e-03,
263,2.80e-03,
264,2.40e-03,
265,-1.60e-03,
266,-1.60e-03,
267,2.40e-03,
268,2.40e-03,
269,-1.60e-03,
270,2.40e-03,
271,-2.40e-03,
272,-8.00e-04,
273,2.40e-03,
274,2.00e-03,
275,-1.60e-03,
276,-1.60e-03,
277,3.20e-03,
278,3.20e-03,
279,-1.60e-03,
280,-8.00e-04,
281,2.40e-03,
282,1.60e-03,
283,-1.60e-03,
284,1.60e-03,
285,-1.60e-03,
286,2.40e-03,
287,-1.60e-03,
288,1.60e-03,
289,-1.60e-03,
290,-8.00e-04,
291,2.00e-03,
292,2.40e-03,
293,-8.00e-04,
294,2.40e-03,
295,-1.60e-03,
296,2.40e-03,
297,-1.60e-03,
298,-1.60e-03,
299,2.00e-03,
300,3.20e-03,
301,-1.60e-03,
302,2.40e-03,
303,-1.60e-03,
304,2.40e-03,
305,-8.00e-04,
306,2.40e-03,
307,-1.60e-03,
308,2.80e-03,
309,-1.60e-03,
310,-1.60e-03,
311,2.40e-03,
312,2.40e-03,
313,-1.60e-03,
314,-1.60e-03,
315,2.40e-03,
316,-2.40e-03,
317,1.60e-03,
318,-1.60e-03,
319,2.40e-03,
320,-8.00e-04,
321,2.00e-03,
322,1.60e-03,
323,-1.60e-03,
324,-1.60e-03,
325,3.20e-03,
326,2.40e-03,
327,-1.60e-03,
328,1.60e-03,
329,-1.60e-03,
330,-1.60e-03,
331,2.40e-03,
332,2.00e-03,
333,-2.40e-03,
334,2.00e-03,
335,-1.60e-03,
336,2.00e-03,
337,-1.60e-03,
338,2.40e-03,
339,-1.60e-03,
340,-8.00e-04,
341,2.40e-03,
342,-1.60e-03,
343,2.40e-03,
344,-1.60e-03,
345,2.40e-03,
346,-1.60e-03,
347,2.40e-03,
348,2.40e-03,
349,-1.60e-03,
350,-8.00e-04,
351,2.80e-03,
352,2.40e-03,
353,-1.60e-03,
354,2.40e-03,
355,-1.60e-03,
356,2.40e-03,
357,-1.60e-03,
358,-8.00e-04,
359,2.40e-03,
360,2.40e-03,
361,-1.60e-03,
362,-1.60e-03,
363,2.00e-03,
364,2.40e-03,
365,-1.60e-03,
366,2.40e-03,
367,-1.60e-03,
368,-8.00e-04,
369,2.40e-03,
370,2.00e-03,
371,-8.00e-04,
372,2.40e-03,
373,-1.60e-03,
374,-1.60e-03,
375,2.40e-03,
376,2.40e-03,
377,-8.00e-04,
378,2.40e-03,
379,-1.60e-03,
380,-1.60e-03,
381,2.40e-03,
382,2.80e-03,
383,-1.60e-03,
384,3.20e-03,
385,-1.60e-03,
386,3.20e-03,
387,-1.60e-03,
388,-1.60e-03,
389,2.40e-03,
390,2.40e-03,
391,-1.60e-03,
392,2.40e-03,
393,-1.60e-03,
394,-8.00e-04,
395,2.40e-03,
396,2.40e-03,
397,-1.60e-03,
398,-2.40e-03,
399,3.20e-03,
400,-1.60e-03,
401,2.40e-03,
402,3.20e-03,
403,-2.40e-03,
404,2.40e-03,
405,-1.60e-03,
406,-1.60e-03,
407,2.80e-03,
408,-1.60e-03,
409,2.40e-03,
410,2.40e-03,
411,-1.60e-03,
412,2.00e-03,
413,-1.60e-03,
414,-8.00e-04,
415,2.00e-03,
416,2.40e-03,
417,-8.00e-04,
418,-1.60e-03,
419,2.40e-03,
420,-1.60e-03,
421,2.40e-03,
422,1.60e-03,
423,-1.60e-03,
424,-1.60e-03,
425,2.40e-03,
426,2.40e-03,
427,-2.40e-03,
428,-2.40e-03,
429,2.40e-03,
430,-2.40e-03,
431,2.80e-03,
432,2.40e-03,
433,-2.00e-03,
434,2.40e-03,
435,-1.60e-03,
436,2.40e-03,
437,-2.40e-03,
438,-1.60e-03,
439,3.20e-03,
440,-1.60e-03,
441,2.40e-03,
442,2.40e-03,
443,-1.60e-03,
444,-1.60e-03,
445,2.40e-03,
446,-1.60e-03,
447,2.40e-03,
448,1.60e-03,
449,-1.60e-03,
450,-1.60e-03,
451,3.20e-03,
452,-1.60e-03,
453,1.60e-03,
454,2.40e-03,
455,-1.60e-03,
456,2.40e-03,
457,-1.60e-03,
458,2.00e-03,
459,-2.40e-03,
460,-1.60e-03,
461,2.00e-03,
462,-1.60e-03,
463,2.00e-03,
464,2.00e-03,
465,-1.60e-03,
466,-2.40e-03,
467,2.40e-03,
468,-8.00e-04,
469,3.20e-03,
470,1.60e-03,
471,-1.60e-03,
472,-8.00e-04,
473,2.40e-03,
474,-1.60e-03,
475,2.40e-03,
476,2.40e-03,
477,-1.60e-03,
478,2.40e-03,
479,-1.60e-03,
480,-8.00e-04,
481,2.40e-03,
482,-1.60e-03,
483,2.40e-03,
484,-1.60e-03,
485,2.40e-03,
486,2.40e-03,
487,-1.60e-03,
488,-8.00e-04,
489,2.80e-03,
490,-1.60e-03,
491,2.40e-03,
492,-1.60e-03,
493,3.20e-03,
494,-1.60e-03,
495,2.40e-03,
496,-2.40e-03,
497,2.40e-03,
498,-1.60e-03,
499,2.40e-03,
500,-1.60e-03,
501,2.40e-03,
502,2.00e-03,
503,-1.60e-03,
504,-1.60e-03,
505,2.00e-03,
506,2.00e-03,
507,-1.60e-03,
508,-1.60e-03,
509,3.20e-03,
510,2.40e-03,
511,-1.20e-03,
512,-8.00e-04,
513,2.40e-03,
514,2.40e-03,
515,-1.60e-03,
516,-1.60e-03,
517,2.00e-03,
518,-1.60e-03,
519,2.00e-03,
520,-8.00e-04,
521,2.80e-03,
522,-1.60e-03,
523,2.40e-03,
524,-2.40e-03,
525,2.40e-03,
526,-1.60e-03,
527,2.00e-03,
528,2.40e-03,
529,-1.60e-03,
530,-1.60e-03,
531,1.60e-03,
532,-1.60e-03,
533,2.40e-03,
534,-1.60e-03,
535,1.60e-03,
536,-1.60e-03,
537,3.20e-03,
538,-1.60e-03,
539,2.40e-03,
540,2.40e-03,
541,-1.60e-03,
542,2.80e-03,
543,-1.60e-03,
544,-1.60e-03,
545,2.40e-03,
546,2.80e-03,
547,-1.60e-03,
548,-8.00e-04,
549,2.40e-03,
550,2.40e-03,
551,-2.40e-03,
552,-8.00e-04,
553,2.40e-03,
554,1.60e-03,
555,-2.40e-03,
556,-1.60e-03,
557,2.40e-03,
558,2.40e-03,
559,-1.60e-03,
560,2.40e-03,
561,-1.60e-03,
562,2.40e-03,
563,-1.60e-03,
564,-2.40e-03,
565,2.00e-03,
566,1.60e-03,
567,-1.60e-03,
568,2.40e-03,
569,-1.60e-03,
570,2.40e-03,
571,-8.00e-04,
572,2.80e-03,
573,-1.60e-03,
574,2.40e-03,
575,-1.60e-03,
576,2.40e-03,
577,-1.60e-03,
578,-1.60e-03,
579,2.40e-03,
580,-1.60e-03,
581,2.40e-03,
582,-1.60e-03,
583,2.40e-03,
584,2.00e-03,
585,-1.60e-03,
586,-1.60e-03,
587,2.40e-03,
588,-1.60e-03,
589,2.40e-03,
590,-3.20e-03,
591,2.40e-03,
592,2.40e-03,
593,-8.00e-04,
594,-1.60e-03,
595,2.40e-03,
596,2.40e-03,
597,-8.00e-04,
598,2.40e-03,
599,-8.00e-04,
600,-1.60e-03,
601,2.40e-03,
602,-1.20e-03,
603,2.40e-03,
604,2.40e-03,
605,-1.60e-03,
606,-1.60e-03,
607,2.00e-03,
608,-1.60e-03,
609,2.40e-03,
610,-1.60e-03,
611,2.80e-03,
612,-1.60e-03,
613,2.40e-03,
614,2.40e-03,
615,-8.00e-04,
616,3.20e-03,
617,-2.40e-03,
618,-1.60e-03,
619,2.40e-03,
620,2.40e-03,
621,-1.60e-03,
622,2.40e-03,
623,-1.60e-03,
624,2.40e-03,
625,-1.60e-03,
626,-1.60e-03,
627,2.40e-03,
628,-1.60e-03,
629,2.40e-03,
630,2.00e-03,
631,-1.60e-03,
632,-2.40e-03,
633,2.40e-03,
634,2.40e-03,
635,-1.60e-03,
636,-2.40e-03,
637,2.40e-03,
638,-1.60e-03,
639,2.00e-03,
640,2.40e-03,
641,-1.60e-03,
642,2.00e-03,
643,-2.40e-03,
644,-1.60e-03,
645,2.40e-03,
646,-8.00e-04,
647,2.40e-03,
648,-1.60e-03,
649,2.00e-03,
650,2.40e-03,
651,-1.60e-03,
652,2.40e-03,
653,-1.60e-03,
654,-1.60e-03,
655,2.40e-03,
656,-1.60e-03,
657,2.40e-03,
658,-1.60e-03,
659,2.00e-03,
660,-1.60e-03,
661,2.40e-03,
662,-1.60e-03,
663,2.40e-03,
664,-1.60e-03,
665,2.40e-03,
666,-1.60e-03,
667,2.40e-03,
668,-1.60e-03,
669,2.40e-03,
670,2.40e-03,
671,-1.60e-03,
672,2.40e-03,
673,-2.00e-03,
674,2.40e-03,
675,-1.60e-03,
676,2.80e-03,
677,-1.60e-03,
678,2.40e-03,
679,-1.60e-03,
680,-1.60e-03,
681,2.40e-03,
682,1.60e-03,
683,-1.60e-03,
684,1.60e-03,
685,-2.40e-03,
686,-1.60e-03,
687,2.40e-03,
688,-1.60e-03,
689,2.80e-03,
690,-2.40e-03,
691,2.40e-03,
692,-1.60e-03,
693,2.40e-03,
694,-1.60e-03,
695,3.20e-03,
696,-8.00e-04,
697,2.40e-03,
698,2.40e-03,
699,-1.60e-03,
700,-1.60e-03,
701,2.40e-03,
702,2.40e-03,
703,-1.60e-03,
704,-8.00e-04,
705,2.00e-03,
706,-1.60e-03,
707,2.80e-03,
708,3.20e-03,
709,-1.60e-03,
710,-2.40e-03,
711,1.60e-03,
712,-1.60e-03,
713,2.40e-03,
714,2.40e-03,
715,-1.60e-03,
716,2.40e-03,
717,-1.60e-03,
718,-1.60e-03,
719,2.40e-03,
720,-1.60e-03,
721,2.40e-03,
722,-8.00e-04,
723,2.40e-03,
724,-1.20e-03,
725,2.40e-03,
726,-1.60e-03,
727,2.40e-03,
728,-8.00e-04,
729,2.40e-03,
730,2.00e-03,
731,-1.60e-03,
732,-1.60e-03,
733,2.80e-03,
734,-1.60e-03,
735,2.40e-03,
736,-8.00e-04,
737,2.40e-03,
738,-1.60e-03,
739,2.40e-03,
740,2.40e-03,
741,-1.60e-03,
742,2.40e-03,
743,-8.00e-04,
744,-2.40e-03,
745,2.40e-03,
746,-1.60e-03,
747,2.80e-03,
748,-8.00e-04,
749,2.80e-03,
750,-1.60e-03,
751,2.80e-03,
752,-1.60e-03,
753,2.40e-03,
754,-1.60e-03,
755,2.40e-03,
756,-1.60e-03,
757,2.80e-03,
758,2.00e-03,
759,-2.40e-03,
760,-1.60e-03,
761,3.20e-03,
762,2.40e-03,
763,-1.60e-03,
764,-1.60e-03,
765,2.40e-03,
766,-8.00e-04,
767,2.40e-03,
768,2.40e-03,
769,-1.60e-03,
770,-1.60e-03,
771,3.20e-03,
772,-1.60e-03,
773,2.40e-03,
774,2.00e-03,
775,-1.60e-03,
776,-1.60e-03,
777,2.40e-03,
778,-1.60e-03,
779,2.40e-03,
780,-1.60e-03,
781,2.40e-03,
782,2.00e-03,
783,-1.60e-03,
784,2.40e-03,
785,-1.60e-03,
786,-1.60e-03,
787,2.40e-03,
788,2.00e-03,
789,-2.40e-03,
790,-8.00e-04,
791,2.40e-03,
792,2.40e-03,
793,-1.60e-03,
794,2.40e-03,
795,-2.00e-03,
796,-1.60e-03,
797,2.40e-03,
798,3.20e-03,
799,-1.60e-03,
800,-1.60e-03,
801,2.40e-03,
802,2.80e-03,
803,-1.60e-03,
804,-1.60e-03,
805,2.40e-03,
806,-1.60e-03,
807,3.20e-03,
808,-1.60e-03,
809,2.80e-03,
810,2.40e-03,
811,-1.60e-03,
812,2.80e-03,
813,-8.00e-04,
814,-1.60e-03,
815,2.40e-03,
816,-8.00e-04,
817,2.40e-03,
818,-1.60e-03,
819,3.20e-03,
820,-1.60e-03,
821,3.20e-03,
822,2.40e-03,
823,-8.00e-04,
824,2.40e-03,
825,-1.60e-03,
826,-8.00e-04,
827,2.40e-03,
828,-8.00e-04,
829,2.40e-03,
830,-1.60e-03,
831,2.40e-03,
832,-8.00e-04,
833,2.40e-03,
834,-8.00e-04,
835,2.40e-03,
836,-1.60e-03,
837,2.40e-03,
838,3.20e-03,
839,-1.60e-03,
840,-8.00e-04,
841,3.20e-03,
842,-1.60e-03,
843,2.40e-03,
844,2.40e-03,
845,-2.40e-03,
846,3.20e-03,
847,-1.60e-03,
848,-1.60e-03,
849,2.00e-03,
850,-1.60e-03,
851,2.00e-03,
852,-8.00e-04,
853,2.40e-03,
854,3.20e-03,
855,-1.60e-03,
856,2.40e-03,
857,-1.60e-03,
858,2.40e-03,
859,-8.00e-04,
860,-8.00e-04,
861,2.40e-03,
862,2.40e-03,
863,-8.00e-04,
864,-8.00e-04,
865,2.40e-03,
866,-8.00e-04,
867,2.40e-03,
868,-8.00e-04,
869,2.40e-03,
870,3.20e-03,
871,-8.00e-04,
872,2.40e-03,
873,-8.00e-04,
874,-1.60e-03,
875,3.20e-03,
876,2.40e-03,
877,-1.60e-03,
878,-1.60e-03,
879,2.40e-03,
880,2.40e-03,
881,-1.60e-03,
882,-8.00e-04,
883,2.80e-03,
884,-1.60e-03,
885,2.40e-03,
886,3.20e-03,
887,-1.60e-03,
888,-8.00e-04,
889,2.00e-03,
890,-1.60e-03,
891,2.80e-03,
892,-1.60e-03,
893,2.40e-03,
894,-8.00e-04,
895,3.20e-03,
896,-8.00e-04,
897,2.80e-03,
898,1.60e-03,
899,-1.60e-03,
900,2.40e-03,
901,-1.60e-03,
902,-1.60e-03,
903,2.40e-03,
904,-1.60e-03,
905,2.40e-03,
906,-1.60e-03,
907,2.40e-03,
908,-1.60e-03,
909,2.40e-03,
910,3.20e-03,
911,-1.60e-03,
912,2.40e-03,
913,-1.60e-03,
914,-1.60e-03,
915,2.40e-03,
916,2.80e-03,
917,-1.60e-03,
918,-1.60e-03,
919,2.40e-03,
920,-8.00e-04,
921,3.20e-03,
922,2.40e-03,
923,-1.60e-03,
924,-1.60e-03,
925,2.40e-03,
926,-1.60e-03,
927,2.40e-03,
928,3.20e-03,
929,-1.60e-03,
930,2.40e-03,
931,-1.60e-03,
932,-8.00e-04,
933,2.00e-03,
934,2.40e-03,
935,-1.60e-03,
936,2.40e-03,
937,-1.60e-03,
938,-8.00e-04,
939,2.40e-03,
940,-1.60e-03,
941,2.00e-03,
942,3.20e-03,
943,-1.60e-03,
944,-8.00e-04,
945,2.80e-03,
946,-8.00e-04,
947,2.80e-03,
948,2.40e-03,
949,-1.60e-03,
950,2.40e-03,
951,-2.40e-03,
952,-8.00e-04,
953,2.40e-03,
954,2.40e-03,
955,-1.60e-03,
956,-1.60e-03,
957,2.80e-03,
958,-8.00e-04,
959,2.40e-03,
960,-8.00e-04,
961,2.80e-03,
962,2.00e-03,
963,-1.60e-03,
964,-8.00e-04,
965,2.00e-03,
966,2.40e-03,
967,-1.60e-03,
968,-8.00e-04,
969,3.20e-03,
970,2.80e-03,
971,-2.40e-03,
972,2.40e-03,
973,-1.60e-03,
974,-1.60e-03,
975,2.40e-03,
976,2.40e-03,
977,-1.60e-03,
978,-8.00e-04,
979,2.80e-03,
980,-8.00e-04,
981,2.40e-03,
982,1.60e-03,
983,-1.60e-03,
984,2.00e-03,
985,-1.60e-03,
986,-1.60e-03,
987,2.40e-03,
988,2.40e-03,
989,-8.00e-04,
990,-1.60e-03,
991,2.40e-03,
992,-1.60e-03,
993,2.40e-03,
994,-1.60e-03,
995,2.40e-03,
996,-8.00e-04,
997,2.40e-03,
998,2.80e-03,
999,-1.60e-03,
1000,-1.60e-03,
1001,3.20e-03,
1002,2.80e-03,
1003,-1.60e-03,
1004,2.00e-03,
1005,-1.60e-03,
1006,-1.60e-03,
1007,2.40e-03,
1008,-8.00e-04,
1009,3.20e-03,
1010,2.80e-03,
1011,-8.00e-04,
1012,-8.00e-04,
1013,2.40e-03,
1014,2.40e-03,
1015,-1.60e-03,
1016,-1.60e-03,
1017,2.80e-03,
1018,0.00e+00,
1019,2.40e-03,
1020,2.40e-03,
1021,-1.60e-03,
1022,-8.00e-04,
1023,2.40e-03,
1024,-8.00e-04,
1025,2.40e-03,
1026,-8.00e-04,
1027,3.20e-03,
1028,-8.00e-04,
1029,2.80e-03,
1030,-1.60e-03,
1031,3.20e-03,
1032,-1.60e-03,
1033,2.80e-03,
1034,-1.60e-03,
1035,3.20e-03,
1036,-8.00e-04,
1037,2.40e-03,
1038,2.40e-03,
1039,-1.60e-03,
1040,2.40e-03,
1041,-1.60e-03,
1042,-1.60e-03,
1043,2.40e-03,
1044,3.20e-03,
1045,-2.40e-03,
1046,2.40e-03,
1047,-1.60e-03,
1048,2.40e-03,
1049,-2.40e-03,
1050,-1.60e-03,
1051,2.40e-03,
1052,-8.00e-04,
1053,2.00e-03,
1054,-8.00e-04,
1055,2.40e-03,
1056,-1.60e-03,
1057,2.80e-03,
1058,-1.60e-03,
1059,2.40e-03,
1060,2.40e-03,
1061,-8.00e-04,
1062,2.40e-03,
1063,-8.00e-04,
1064,-8.00e-04,
1065,2.40e-03,
1066,2.40e-03,
1067,-1.60e-03,
1068,2.40e-03,
1069,-1.60e-03,
1070,-1.60e-03,
1071,2.40e-03,
1072,2.80e-03,
1073,-1.20e-03,
1074,2.40e-03,
1075,-2.40e-03,
1076,2.80e-03,
1077,-1.60e-03,
1078,-1.60e-03,
1079,2.80e-03,
1080,3.20e-03,
1081,-1.60e-03,
1082,2.40e-03,
1083,-1.60e-03,
1084,2.40e-03,
1085,-8.00e-04,
1086,-8.00e-04,
1087,3.20e-03,
1088,-8.00e-04,
1089,3.20e-03,
1090,2.40e-03,
1091,-1.60e-03,
1092,-1.60e-03,
1093,2.40e-03,
1094,-1.60e-03,
1095,2.80e-03,
1096,-1.60e-03,
1097,2.40e-03,
1098,2.40e-03,
1099,-1.60e-03,
1100,-1.60e-03,
1101,2.80e-03,
1102,-2.40e-03,
1103,2.00e-03,
1104,-1.60e-03,
1105,2.00e-03,
1106,-8.00e-04,
1107,2.40e-03,
1108,2.40e-03,
1109,-1.60e-03,
1110,-8.00e-04,
1111,2.40e-03,
1112,-1.60e-03,
1113,3.20e-03,
1114,-1.60e-03,
1115,2.40e-03,
1116,2.40e-03,
1117,-1.60e-03,
1118,2.40e-03,
1119,-1.60e-03,
1120,-1.60e-03,
1121,2.40e-03,
1122,2.40e-03,
1123,-1.60e-03,
1124,1.60e-03,
1125,-1.20e-03,
1126,-8.00e-04,
1127,2.40e-03,
1128,-1.60e-03,
1129,1.60e-03,
1130,-1.60e-03,
1131,2.00e-03,
1132,2.40e-03,
1133,-1.60e-03,
1134,-1.60e-03,
1135,2.40e-03,
1136,-1.60e-03,
1137,2.40e-03,
1138,-1.60e-03,
1139,2.40e-03,
1140,-2.40e-03,
1141,2.00e-03,
1142,-1.20e-03,
1143,2.40e-03,
1144,-8.00e-04,
1145,3.20e-03,
1146,2.40e-03,
1147,-1.60e-03,
1148,-1.60e-03,
1149,2.40e-03,
1150,-1.60e-03,
1151,2.40e-03,
1152,-1.60e-03,
1153,2.40e-03,
1154,2.80e-03,
1155,-1.60e-03,
1156,2.40e-03,
1157,-2.40e-03,
1158,-8.00e-04,
1159,2.40e-03,
1160,-8.00e-04,
1161,3.20e-03,
1162,2.40e-03,
1163,-1.60e-03,
1164,-8.00e-04,
1165,2.40e-03,
1166,-1.60e-03,
1167,2.40e-03,
1168,-1.60e-03,
1169,2.40e-03,
1170,2.00e-03,
1171,-1.60e-03,
1172,-1.60e-03,
1173,2.40e-03,
1174,2.40e-03,
1175,-8.00e-04,
1176,2.40e-03,
1177,-8.00e-04,
1178,2.40e-03,
1179,-1.60e-03,
1180,2.40e-03,
1181,-1.60e-03,
1182,-1.60e-03,
1183,3.20e-03,
1184,-1.60e-03,
1185,2.40e-03,
1186,-1.60e-03,
1187,2.40e-03,
1188,2.40e-03,
1189,-1.60e-03,
1190,2.00e-03,
1191,-1.60e-03,
1192,-1.60e-03,
1193,2.40e-03,
1194,-8.00e-04,
1195,1.60e-03,
1196,2.80e-03,
1197,-1.60e-03,
1198,-1.60e-03,
1199,2.40e-03,
