fastdiffamp/data-noise-set/weak-balanced/NewFile5.csv

X,CH1,Start,Increment,
Sequence,Volt,-1.198000e+01,2.000000e-02
0,2.40e-03,
1,-1.60e-03,
2,-1.60e-03,
3,2.40e-03,
4,2.40e-03,
5,-1.60e-03,
6,-1.60e-03,
7,1.60e-03,
8,-1.60e-03,
9,3.20e-03,
10,2.00e-03,
11,-1.60e-03,
12,-1.60e-03,
13,2.00e-03,
14,-1.60e-03,
15,1.60e-03,
16,-1.60e-03,
17,2.00e-03,
18,2.40e-03,
19,-1.60e-03,
20,-1.60e-03,
21,2.40e-03,
22,2.40e-03,
23,-1.60e-03,
24,2.40e-03,
25,-1.60e-03,
26,-2.40e-03,
27,2.40e-03,
28,3.20e-03,
29,-1.60e-03,
30,-1.60e-03,
31,2.00e-03,
32,1.60e-03,
33,-1.60e-03,
34,1.60e-03,
35,-2.40e-03,
36,-1.60e-03,
37,2.00e-03,
38,-1.60e-03,
39,2.80e-03,
40,-1.60e-03,
41,2.00e-03,
42,-1.60e-03,
43,2.00e-03,
44,2.00e-03,
45,-1.60e-03,
46,2.40e-03,
47,-1.60e-03,
48,1.60e-03,
49,-1.60e-03,
50,1.60e-03,
51,-2.40e-03,
52,-1.60e-03,
53,1.60e-03,
54,2.00e-03,
55,-1.60e-03,
56,-1.60e-03,
57,2.40e-03,
58,-8.00e-04,
59,2.80e-03,
60,-1.60e-03,
61,2.00e-03,
62,-1.60e-03,
63,2.00e-03,
64,-1.60e-03,
65,2.40e-03,
66,-1.60e-03,
67,2.00e-03,
68,-1.60e-03,
69,2.40e-03,
70,-2.40e-03,
71,1.60e-03,
72,1.60e-03,
73,-2.40e-03,
74,-1.60e-03,
75,2.00e-03,
76,1.60e-03,
77,-2.40e-03,
78,2.80e-03,
79,-2.40e-03,
80,-2.40e-03,
81,2.00e-03,
82,-1.60e-03,
83,1.60e-03,
84,-1.60e-03,
85,2.40e-03,
86,-1.60e-03,
87,2.00e-03,
88,1.60e-03,
89,-1.60e-03,
90,-1.60e-03,
91,2.40e-03,
92,-1.60e-03,
93,2.00e-03,
94,2.40e-03,
95,-1.60e-03,
96,-1.60e-03,
97,2.40e-03,
98,2.40e-03,
99,-1.60e-03,
100,-1.60e-03,
101,2.00e-03,
102,2.40e-03,
103,-1.60e-03,
104,-1.60e-03,
105,2.40e-03,
106,-8.00e-04,
107,2.00e-03,
108,2.00e-03,
109,-1.60e-03,
110,-1.60e-03,
111,2.40e-03,
112,-8.00e-04,
113,2.40e-03,
114,-2.40e-03,
115,2.40e-03,
116,2.00e-03,
117,-1.60e-03,
118,2.40e-03,
119,-1.60e-03,
120,-1.60e-03,
121,2.40e-03,
122,-1.60e-03,
123,2.40e-03,
124,-1.60e-03,
125,2.40e-03,
126,2.40e-03,
127,-1.60e-03,
128,-1.60e-03,
129,2.40e-03,
130,2.00e-03,
131,-3.20e-03,
132,-2.40e-03,
133,1.60e-03,
134,-1.60e-03,
135,1.60e-03,
136,-1.60e-03,
137,2.40e-03,
138,-1.60e-03,
139,2.00e-03,
140,-2.40e-03,
141,2.40e-03,
142,2.00e-03,
143,-1.60e-03,
144,-1.60e-03,
145,2.80e-03,
146,-1.60e-03,
147,2.40e-03,
148,-1.60e-03,
149,2.80e-03,
150,2.40e-03,
151,-1.60e-03,
152,1.60e-03,
153,-2.40e-03,
154,-2.40e-03,
155,2.00e-03,
156,1.60e-03,
157,-1.60e-03,
158,2.40e-03,
159,-1.60e-03,
160,-1.60e-03,
161,1.60e-03,
162,-1.60e-03,
163,2.40e-03,
164,-1.60e-03,
165,2.40e-03,
166,3.20e-03,
167,-1.60e-03,
168,-8.00e-04,
169,2.40e-03,
170,-1.60e-03,
171,2.80e-03,
172,2.40e-03,
173,-1.60e-03,
174,2.40e-03,
175,-1.60e-03,
176,-1.60e-03,
177,2.40e-03,
178,-1.60e-03,
179,2.40e-03,
180,-1.60e-03,
181,2.40e-03,
182,2.40e-03,
183,-1.60e-03,
184,-1.60e-03,
185,2.40e-03,
186,-1.60e-03,
187,2.00e-03,
188,-2.40e-03,
189,2.40e-03,
190,-1.60e-03,
191,2.40e-03,
192,2.00e-03,
193,-2.40e-03,
194,-1.60e-03,
195,3.20e-03,
196,-1.60e-03,
197,2.40e-03,
198,-1.60e-03,
199,2.00e-03,
200,-1.60e-03,
201,2.00e-03,
202,-1.60e-03,
203,2.40e-03,
204,-8.00e-04,
205,2.40e-03,
206,-1.60e-03,
207,1.60e-03,
208,-1.60e-03,
209,1.60e-03,
210,-1.60e-03,
211,2.00e-03,
212,2.40e-03,
213,-8.00e-04,
214,2.40e-03,
215,-1.60e-03,
216,-2.00e-03,
217,2.00e-03,
218,-1.60e-03,
219,2.00e-03,
220,1.60e-03,
221,-2.40e-03,
222,-1.60e-03,
223,1.60e-03,
224,-1.60e-03,
225,1.60e-03,
226,-1.60e-03,
227,2.40e-03,
228,1.60e-03,
229,-2.40e-03,
230,-1.60e-03,
231,1.60e-03,
232,-8.00e-04,
233,2.00e-03,
234,-1.60e-03,
235,2.40e-03,
236,2.00e-03,
237,-2.40e-03,
238,-1.60e-03,
239,1.60e-03,
240,-1.60e-03,
241,2.00e-03,
242,-1.60e-03,
243,2.00e-03,
244,-1.60e-03,
245,1.60e-03,
246,-1.60e-03,
247,2.40e-03,
248,2.40e-03,
249,-2.40e-03,
250,2.40e-03,
251,-2.00e-03,
252,-1.60e-03,
253,2.40e-03,
254,1.60e-03,
255,-1.60e-03,
256,-1.60e-03,
257,2.40e-03,
258,-2.40e-03,
259,2.80e-03,
260,-1.60e-03,
261,2.00e-03,
262,-8.00e-04,
263,2.40e-03,
264,-8.00e-04,
265,2.00e-03,
266,2.40e-03,
267,-1.60e-03,
268,2.40e-03,
269,-1.60e-03,
270,2.40e-03,
271,-1.60e-03,
272,2.40e-03,
273,-1.60e-03,
274,-1.60e-03,
275,2.40e-03,
276,2.00e-03,
277,-1.60e-03,
278,-1.60e-03,
279,2.40e-03,
280,-1.60e-03,
281,2.40e-03,
282,2.80e-03,
283,-2.40e-03,
284,-1.60e-03,
285,2.00e-03,
286,-1.60e-03,
287,1.60e-03,
288,2.40e-03,
289,-1.60e-03,
290,1.60e-03,
291,-1.60e-03,
292,-1.60e-03,
293,2.40e-03,
294,-1.60e-03,
295,2.40e-03,
296,2.40e-03,
297,-1.60e-03,
298,-2.40e-03,
299,2.40e-03,
300,2.40e-03,
301,-2.40e-03,
302,-1.60e-03,
303,2.40e-03,
304,1.60e-03,
305,-2.40e-03,
306,-1.60e-03,
307,2.40e-03,
308,-1.60e-03,
309,2.40e-03,
310,1.60e-03,
311,-1.60e-03,
312,-1.60e-03,
313,2.40e-03,
314,-1.60e-03,
315,1.60e-03,
316,-1.60e-03,
317,2.40e-03,
318,-1.60e-03,
319,2.00e-03,
320,2.40e-03,
321,-1.60e-03,
322,-1.60e-03,
323,2.00e-03,
324,-1.60e-03,
325,2.40e-03,
326,-1.60e-03,
327,2.40e-03,
328,-1.60e-03,
329,2.40e-03,
330,2.40e-03,
331,-1.60e-03,
332,2.40e-03,
333,-1.60e-03,
334,2.40e-03,
335,-1.60e-03,
336,-8.00e-04,
337,2.00e-03,
338,2.40e-03,
339,-2.40e-03,
340,-1.60e-03,
341,2.40e-03,
342,-1.60e-03,
343,1.60e-03,
344,-1.60e-03,
345,2.40e-03,
346,-1.60e-03,
347,2.40e-03,
348,-1.60e-03,
349,2.00e-03,
350,2.00e-03,
351,-1.60e-03,
352,-1.60e-03,
353,2.00e-03,
354,1.60e-03,
355,-1.60e-03,
356,-2.40e-03,
357,2.40e-03,
358,-1.60e-03,
359,2.00e-03,
360,2.40e-03,
361,-1.60e-03,
362,-1.60e-03,
363,1.60e-03,
364,-2.40e-03,
365,2.80e-03,
366,-1.60e-03,
367,2.00e-03,
368,-1.60e-03,
369,2.00e-03,
370,2.40e-03,
371,-2.40e-03,
372,-2.40e-03,
373,2.40e-03,
374,-1.60e-03,
375,2.40e-03,
376,-1.60e-03,
377,2.00e-03,
378,1.60e-03,
379,-1.60e-03,
380,-1.60e-03,
381,2.40e-03,
382,2.00e-03,
383,-2.40e-03,
384,-1.60e-03,
385,1.60e-03,
386,2.40e-03,
387,-1.60e-03,
388,-2.40e-03,
389,2.40e-03,
390,-1.60e-03,
391,2.40e-03,
392,2.40e-03,
393,-1.60e-03,
394,-2.40e-03,
395,2.40e-03,
396,-1.60e-03,
397,2.40e-03,
398,-1.60e-03,
399,2.40e-03,
400,2.40e-03,
401,-1.60e-03,
402,2.40e-03,
403,-2.40e-03,
404,-1.60e-03,
405,2.40e-03,
406,2.40e-03,
407,-2.40e-03,
408,2.40e-03,
409,-2.40e-03,
410,-1.60e-03,
411,2.80e-03,
412,2.40e-03,
413,-1.60e-03,
414,1.60e-03,
415,-1.60e-03,
416,-1.60e-03,
417,2.00e-03,
418,-1.60e-03,
419,2.40e-03,
420,-1.60e-03,
421,2.40e-03,
422,-1.60e-03,
423,2.40e-03,
424,2.40e-03,
425,-1.60e-03,
426,-1.60e-03,
427,2.40e-03,
428,-1.60e-03,
429,1.60e-03,
430,-1.60e-03,
431,2.40e-03,
432,2.00e-03,
433,-2.40e-03,
434,-1.60e-03,
435,1.60e-03,
436,-1.60e-03,
437,2.00e-03,
438,-2.40e-03,
439,2.00e-03,
440,1.60e-03,
441,-1.60e-03,
442,-1.60e-03,
443,1.60e-03,
444,2.00e-03,
445,-2.40e-03,
446,-2.40e-03,
447,2.40e-03,
448,-2.40e-03,
449,2.40e-03,
450,2.40e-03,
451,-2.40e-03,
452,-1.60e-03,
453,2.00e-03,
454,-1.60e-03,
455,2.40e-03,
456,1.60e-03,
457,-1.60e-03,
458,-1.60e-03,
459,2.40e-03,
460,-1.60e-03,
461,2.40e-03,
462,-1.60e-03,
463,2.00e-03,
464,-2.40e-03,
465,2.40e-03,
466,-1.60e-03,
467,2.00e-03,
468,-1.60e-03,
469,2.40e-03,
470,-1.60e-03,
471,2.40e-03,
472,-8.00e-04,
473,2.40e-03,
474,1.60e-03,
475,-2.40e-03,
476,-1.60e-03,
477,1.60e-03,
478,-1.60e-03,
479,2.40e-03,
480,-1.60e-03,
481,2.40e-03,
482,-1.60e-03,
483,2.40e-03,
484,2.40e-03,
485,-2.00e-03,
486,-8.00e-04,
487,3.20e-03,
488,-1.60e-03,
489,2.80e-03,
490,-8.00e-04,
491,2.40e-03,
492,-8.00e-04,
493,2.40e-03,
494,-1.60e-03,
495,2.40e-03,
496,1.60e-03,
497,-1.60e-03,
498,-1.60e-03,
499,2.40e-03,
500,2.40e-03,
501,-1.60e-03,
502,-1.60e-03,
503,2.40e-03,
504,2.40e-03,
505,-1.60e-03,
506,2.00e-03,
507,-1.60e-03,
508,-1.60e-03,
509,2.00e-03,
510,-1.60e-03,
511,2.40e-03,
512,-1.60e-03,
513,2.40e-03,
514,1.60e-03,
515,-1.60e-03,
516,1.60e-03,
517,-1.60e-03,
518,-2.40e-03,
519,2.40e-03,
520,-1.60e-03,
521,1.60e-03,
522,-1.60e-03,
523,2.40e-03,
524,-2.40e-03,
525,2.40e-03,
526,1.60e-03,
527,-2.40e-03,
528,-1.60e-03,
529,2.40e-03,
530,2.40e-03,
531,-2.40e-03,
532,-2.40e-03,
533,2.40e-03,
534,2.40e-03,
535,-1.60e-03,
536,-8.00e-04,
537,2.80e-03,
538,-1.60e-03,
539,2.00e-03,
540,-1.60e-03,
541,2.40e-03,
542,2.00e-03,
543,-1.60e-03,
544,-8.00e-04,
545,2.40e-03,
546,-1.60e-03,
547,2.40e-03,
548,-2.40e-03,
549,2.40e-03,
550,-1.60e-03,
551,2.00e-03,
552,1.60e-03,
553,-1.60e-03,
554,-1.60e-03,
555,2.80e-03,
556,1.60e-03,
557,-2.40e-03,
558,-8.00e-04,
559,2.40e-03,
560,-8.00e-04,
561,2.00e-03,
562,2.40e-03,
563,-1.60e-03,
564,2.40e-03,
565,-1.60e-03,
566,2.40e-03,
567,-1.60e-03,
568,3.20e-03,
569,-2.40e-03,
570,-1.60e-03,
571,2.40e-03,
572,1.60e-03,
573,-1.60e-03,
574,2.40e-03,
575,-1.60e-03,
576,2.00e-03,
577,-1.60e-03,
578,-1.60e-03,
579,2.40e-03,
580,-1.60e-03,
581,1.60e-03,
582,-2.00e-03,
583,2.40e-03,
584,-1.60e-03,
585,2.80e-03,
586,-1.60e-03,
587,3.20e-03,
588,-1.60e-03,
589,2.40e-03,
590,2.00e-03,
591,-1.60e-03,
592,-2.40e-03,
593,2.40e-03,
594,-1.60e-03,
595,2.00e-03,
596,-2.40e-03,
597,2.40e-03,
598,-1.60e-03,
599,2.00e-03,
600,-1.60e-03,
601,2.40e-03,
602,-1.60e-03,
603,2.40e-03,
604,2.40e-03,
605,-1.60e-03,
606,1.60e-03,
607,-1.60e-03,
608,-1.60e-03,
609,2.40e-03,
610,2.40e-03,
611,-1.60e-03,
612,-1.60e-03,
613,1.60e-03,
614,-1.60e-03,
615,2.40e-03,
616,-1.60e-03,
617,1.60e-03,
618,-1.60e-03,
619,2.40e-03,
620,-1.60e-03,
621,2.00e-03,
622,-1.60e-03,
623,2.00e-03,
624,-1.60e-03,
625,2.40e-03,
626,-8.00e-04,
627,2.40e-03,
628,2.40e-03,
629,-1.60e-03,
630,-1.60e-03,
631,2.40e-03,
632,2.40e-03,
633,-1.60e-03,
634,-1.60e-03,
635,2.40e-03,
636,2.40e-03,
637,-1.60e-03,
638,-1.60e-03,
639,2.40e-03,
640,-1.60e-03,
641,3.20e-03,
642,-2.40e-03,
643,1.60e-03,
644,-8.00e-04,
645,2.40e-03,
646,-2.40e-03,
647,3.20e-03,
648,2.40e-03,
649,-1.60e-03,
650,3.20e-03,
651,-1.60e-03,
652,-1.60e-03,
653,2.80e-03,
654,-2.40e-03,
655,1.60e-03,
656,-1.60e-03,
657,2.40e-03,
658,-2.00e-03,
659,2.40e-03,
660,-1.60e-03,
661,2.40e-03,
662,-1.60e-03,
663,2.00e-03,
664,-1.60e-03,
665,2.40e-03,
666,2.00e-03,
667,-1.60e-03,
668,-2.40e-03,
669,2.40e-03,
670,-1.60e-03,
671,2.40e-03,
672,2.80e-03,
673,-2.80e-03,
674,-1.60e-03,
675,2.40e-03,
676,-2.40e-03,
677,2.00e-03,
678,2.40e-03,
679,-1.60e-03,
680,-8.00e-04,
681,2.40e-03,
682,-1.60e-03,
683,2.40e-03,
684,2.40e-03,
685,-1.60e-03,
686,-1.60e-03,
687,3.20e-03,
688,-1.60e-03,
689,2.40e-03,
690,2.40e-03,
691,-1.60e-03,
692,-2.40e-03,
693,2.00e-03,
694,-1.60e-03,
695,2.40e-03,
696,-1.60e-03,
697,1.60e-03,
698,2.00e-03,
699,-1.60e-03,
700,-1.60e-03,
701,1.60e-03,
702,2.40e-03,
703,-1.60e-03,
704,-1.60e-03,
705,2.80e-03,
706,2.40e-03,
707,-1.60e-03,
708,2.40e-03,
709,-1.60e-03,
710,-1.60e-03,
711,1.60e-03,
712,-1.60e-03,
713,2.40e-03,
714,2.40e-03,
715,-1.60e-03,
716,-1.60e-03,
717,2.00e-03,
718,2.80e-03,
719,-1.60e-03,
720,2.40e-03,
721,-1.60e-03,
722,-1.60e-03,
723,2.40e-03,
724,-1.60e-03,
725,2.40e-03,
726,-1.60e-03,
727,2.40e-03,
728,-8.00e-04,
729,2.40e-03,
730,-8.00e-04,
731,2.40e-03,
732,-1.60e-03,
733,2.80e-03,
734,-1.60e-03,
735,2.40e-03,
736,-1.60e-03,
737,2.40e-03,
738,-8.00e-04,
739,2.40e-03,
740,2.40e-03,
741,-1.60e-03,
742,-2.40e-03,
743,2.40e-03,
744,2.00e-03,
745,-1.60e-03,
746,-1.60e-03,
747,1.60e-03,
748,1.60e-03,
749,-2.40e-03,
750,-2.40e-03,
751,2.40e-03,
752,-1.60e-03,
753,2.40e-03,
754,1.60e-03,
755,-1.60e-03,
756,1.60e-03,
757,-1.60e-03,
758,2.40e-03,
759,-2.40e-03,
760,-2.40e-03,
761,1.60e-03,
762,-2.40e-03,
763,1.60e-03,
764,2.40e-03,
765,-2.40e-03,
766,-1.60e-03,
767,1.60e-03,
768,-1.60e-03,
769,1.60e-03,
770,2.80e-03,
771,-1.60e-03,
772,1.60e-03,
773,-2.40e-03,
774,2.40e-03,
775,-2.40e-03,
776,-1.60e-03,
777,2.40e-03,
778,2.40e-03,
779,-1.60e-03,
780,-1.60e-03,
781,2.00e-03,
782,-2.40e-03,
783,2.40e-03,
784,-1.60e-03,
785,2.00e-03,
786,-1.60e-03,
787,2.00e-03,
788,-1.60e-03,
789,1.60e-03,
790,-1.60e-03,
791,2.40e-03,
792,-1.60e-03,
793,2.40e-03,
794,-1.60e-03,
795,2.40e-03,
796,-1.60e-03,
797,2.40e-03,
798,2.80e-03,
799,-1.60e-03,
800,-2.40e-03,
801,2.40e-03,
802,-1.60e-03,
803,2.40e-03,
804,-2.40e-03,
805,1.60e-03,
806,2.40e-03,
807,-2.40e-03,
808,-1.60e-03,
809,2.00e-03,
810,-2.40e-03,
811,2.80e-03,
812,1.60e-03,
813,-1.60e-03,
814,-2.40e-03,
815,2.40e-03,
816,-1.60e-03,
817,2.00e-03,
818,2.40e-03,
819,-1.60e-03,
820,-1.60e-03,
821,2.00e-03,
822,-1.60e-03,
823,2.40e-03,
824,2.00e-03,
825,-2.40e-03,
826,-2.00e-03,
827,2.40e-03,
828,-1.60e-03,
829,2.40e-03,
830,2.40e-03,
831,-1.60e-03,
832,-1.60e-03,
833,2.40e-03,
834,2.40e-03,
835,-1.60e-03,
836,-1.60e-03,
837,2.40e-03,
838,-1.60e-03,
839,2.40e-03,
840,-1.60e-03,
841,2.40e-03,
842,-1.60e-03,
843,2.00e-03,
844,-1.60e-03,
845,2.00e-03,
846,3.20e-03,
847,-2.40e-03,
848,1.60e-03,
849,-2.40e-03,
850,-2.40e-03,
851,2.40e-03,
852,-1.60e-03,
853,2.00e-03,
854,-8.00e-04,
855,2.40e-03,
856,2.40e-03,
857,-1.60e-03,
858,-2.40e-03,
859,2.40e-03,
860,2.40e-03,
861,-1.60e-03,
862,-2.40e-03,
863,3.20e-03,
864,2.40e-03,
865,-2.40e-03,
866,-1.60e-03,
867,3.20e-03,
868,1.60e-03,
869,-1.60e-03,
870,2.40e-03,
871,-1.60e-03,
872,2.40e-03,
873,-1.60e-03,
874,-1.60e-03,
875,2.40e-03,
876,2.40e-03,
877,-1.60e-03,
878,-1.60e-03,
879,2.40e-03,
880,-1.60e-03,
881,3.20e-03,
882,-1.60e-03,
883,1.60e-03,
884,1.20e-03,
885,-2.40e-03,
886,-2.40e-03,
887,1.60e-03,
888,-1.60e-03,
889,2.00e-03,
890,-1.60e-03,
891,2.40e-03,
892,2.40e-03,
893,-1.60e-03,
894,-2.40e-03,
895,3.20e-03,
896,-8.00e-04,
897,3.20e-03,
898,2.40e-03,
899,-2.40e-03,
900,-2.40e-03,
901,2.40e-03,
902,2.80e-03,
903,-1.60e-03,
