fastdiffamp/data-noise-set/weak-balanced/NewFile6.csv

X,CH1,Start,Increment,
Sequence,Volt,-1.198000e+01,2.000000e-02
0,-1.60e-03,
1,2.00e-03,
2,2.00e-03,
3,-1.60e-03,
4,-1.60e-03,
5,2.00e-03,
6,-1.60e-03,
7,2.40e-03,
8,-1.60e-03,
9,2.80e-03,
10,-1.60e-03,
11,2.40e-03,
12,2.40e-03,
13,-1.60e-03,
14,1.20e-03,
15,-2.40e-03,
16,-1.60e-03,
17,2.40e-03,
18,2.40e-03,
19,-2.40e-03,
20,-2.40e-03,
21,2.00e-03,
22,1.20e-03,
23,-1.60e-03,
24,-1.60e-03,
25,1.60e-03,
26,2.00e-03,
27,-1.60e-03,
28,-2.00e-03,
29,1.60e-03,
30,2.00e-03,
31,-2.40e-03,
32,2.40e-03,
33,-1.60e-03,
34,1.60e-03,
35,-1.60e-03,
36,2.40e-03,
37,-2.40e-03,
38,-1.60e-03,
39,1.60e-03,
40,2.40e-03,
41,-1.60e-03,
42,-2.40e-03,
43,1.60e-03,
44,-1.60e-03,
45,2.40e-03,
46,2.80e-03,
47,-2.40e-03,
48,-1.60e-03,
49,2.40e-03,
50,2.40e-03,
51,-1.60e-03,
52,2.40e-03,
53,-2.40e-03,
54,-1.60e-03,
55,2.40e-03,
56,2.40e-03,
57,-2.40e-03,
58,-1.60e-03,
59,1.60e-03,
60,-1.60e-03,
61,2.40e-03,
62,2.40e-03,
63,-2.40e-03,
64,-1.60e-03,
65,2.40e-03,
66,-8.00e-04,
67,2.00e-03,
68,2.40e-03,
69,-2.40e-03,
70,2.40e-03,
71,-2.40e-03,
72,1.60e-03,
73,-1.60e-03,
74,-2.40e-03,
75,2.40e-03,
76,-1.60e-03,
77,2.00e-03,
78,2.40e-03,
79,-1.60e-03,
80,2.40e-03,
81,-1.60e-03,
82,2.40e-03,
83,-2.40e-03,
84,-1.60e-03,
85,2.00e-03,
86,1.60e-03,
87,-2.40e-03,
88,2.80e-03,
89,-1.60e-03,
90,1.60e-03,
91,-1.60e-03,
92,1.60e-03,
93,-2.40e-03,
94,1.60e-03,
95,-2.40e-03,
96,2.00e-03,
97,-1.60e-03,
98,-8.00e-04,
99,2.00e-03,
100,-1.60e-03,
101,2.40e-03,
102,1.60e-03,
103,-1.60e-03,
104,-2.40e-03,
105,2.40e-03,
106,-2.40e-03,
107,1.60e-03,
108,1.60e-03,
109,-1.60e-03,
110,-1.60e-03,
111,1.60e-03,
112,-1.60e-03,
113,2.40e-03,
114,-1.60e-03,
115,1.20e-03,
116,2.40e-03,
117,-1.60e-03,
118,-2.40e-03,
119,1.60e-03,
120,2.40e-03,
121,-1.60e-03,
122,-8.00e-04,
123,2.40e-03,
124,2.40e-03,
125,-8.00e-04,
126,2.40e-03,
127,-1.60e-03,
128,1.60e-03,
129,-1.60e-03,
130,2.40e-03,
131,-8.00e-04,
132,-1.60e-03,
133,2.00e-03,
134,-1.60e-03,
135,3.20e-03,
136,2.40e-03,
137,-8.00e-04,
138,2.00e-03,
139,-1.60e-03,
140,2.40e-03,
141,-1.60e-03,
142,2.40e-03,
143,-1.60e-03,
144,-1.60e-03,
145,2.40e-03,
146,2.80e-03,
147,-1.60e-03,
148,2.40e-03,
149,-2.40e-03,
150,2.40e-03,
151,-1.60e-03,
152,-1.60e-03,
153,1.60e-03,
154,1.60e-03,
155,-1.60e-03,
156,2.00e-03,
157,-1.60e-03,
158,2.00e-03,
159,-1.60e-03,
160,3.20e-03,
161,-1.60e-03,
162,-1.60e-03,
163,1.60e-03,
164,-1.60e-03,
165,2.40e-03,
166,-1.60e-03,
167,2.00e-03,
168,-2.40e-03,
169,2.40e-03,
170,2.00e-03,
171,-1.60e-03,
172,2.40e-03,
173,-2.40e-03,
174,2.40e-03,
175,-8.00e-04,
176,2.40e-03,
177,-1.60e-03,
178,2.40e-03,
179,-2.40e-03,
180,2.40e-03,
181,-2.40e-03,
182,-1.60e-03,
183,1.60e-03,
184,-1.60e-03,
185,2.00e-03,
186,2.40e-03,
187,-1.60e-03,
188,2.40e-03,
189,-1.60e-03,
190,2.40e-03,
191,-1.60e-03,
192,-8.00e-04,
193,2.00e-03,
194,-1.60e-03,
195,3.20e-03,
196,2.40e-03,
197,-1.60e-03,
198,1.60e-03,
199,-1.60e-03,
200,2.40e-03,
201,-1.60e-03,
202,1.60e-03,
203,-1.60e-03,
204,1.60e-03,
205,-2.40e-03,
206,-1.60e-03,
207,2.00e-03,
208,2.40e-03,
209,-1.60e-03,
210,1.60e-03,
211,-1.60e-03,
212,1.60e-03,
213,-1.60e-03,
214,2.80e-03,
215,-2.40e-03,
216,-1.60e-03,
217,1.60e-03,
218,-1.60e-03,
219,3.20e-03,
220,-1.60e-03,
221,2.40e-03,
222,2.40e-03,
223,-2.40e-03,
224,2.40e-03,
225,-1.60e-03,
226,-1.60e-03,
227,2.80e-03,
228,-1.60e-03,
229,2.00e-03,
230,-1.60e-03,
231,2.40e-03,
232,2.00e-03,
233,-1.60e-03,
234,2.80e-03,
235,-2.40e-03,
236,-1.60e-03,
237,2.00e-03,
238,-2.40e-03,
239,2.00e-03,
240,2.00e-03,
241,-1.60e-03,
242,1.60e-03,
243,-2.40e-03,
244,-1.60e-03,
245,1.60e-03,
246,-1.60e-03,
247,2.40e-03,
248,1.20e-03,
249,-2.40e-03,
250,2.00e-03,
251,-2.40e-03,
252,1.60e-03,
253,-1.60e-03,
254,-1.60e-03,
255,2.00e-03,
256,2.40e-03,
257,-1.60e-03,
258,-1.60e-03,
259,2.40e-03,
260,2.40e-03,
261,-1.60e-03,
262,-1.60e-03,
263,2.40e-03,
264,2.40e-03,
265,-1.60e-03,
266,-8.00e-04,
267,2.00e-03,
268,2.40e-03,
269,-1.60e-03,
270,-1.60e-03,
271,2.40e-03,
272,-1.60e-03,
273,2.00e-03,
274,-2.40e-03,
275,2.80e-03,
276,2.40e-03,
277,-1.60e-03,
278,2.00e-03,
279,-2.40e-03,
280,1.60e-03,
281,-1.60e-03,
282,2.00e-03,
283,-2.40e-03,
284,-1.60e-03,
285,2.80e-03,
286,-1.60e-03,
287,2.40e-03,
288,2.00e-03,
289,-1.60e-03,
290,-2.40e-03,
291,1.60e-03,
292,1.60e-03,
293,-2.40e-03,
294,2.40e-03,
295,-2.40e-03,
296,-2.00e-03,
297,2.40e-03,
298,1.60e-03,
299,-1.60e-03,
300,-1.60e-03,
301,2.40e-03,
302,-1.60e-03,
303,2.40e-03,
304,-1.60e-03,
305,2.40e-03,
306,-1.60e-03,
307,2.80e-03,
308,-1.60e-03,
309,2.80e-03,
310,-2.40e-03,
311,2.80e-03,
312,-1.60e-03,
313,2.80e-03,
314,-2.40e-03,
315,2.40e-03,
316,2.40e-03,
317,-1.60e-03,
318,-1.60e-03,
319,2.40e-03,
320,-1.60e-03,
321,2.80e-03,
322,-1.60e-03,
323,2.40e-03,
324,-8.00e-04,
325,2.80e-03,
326,1.60e-03,
327,-2.40e-03,
328,1.60e-03,
329,-2.40e-03,
330,1.60e-03,
331,-1.60e-03,
332,-1.60e-03,
333,2.00e-03,
334,-1.60e-03,
335,1.60e-03,
336,-1.60e-03,
337,1.60e-03,
338,-1.60e-03,
339,2.00e-03,
340,-1.60e-03,
341,2.40e-03,
342,2.40e-03,
343,-3.20e-03,
344,2.40e-03,
345,-2.40e-03,
346,-1.60e-03,
347,2.40e-03,
348,-1.60e-03,
349,2.40e-03,
350,2.40e-03,
351,-1.60e-03,
352,2.40e-03,
353,-2.40e-03,
354,-1.60e-03,
355,2.40e-03,
356,2.40e-03,
357,-2.40e-03,
358,-1.60e-03,
359,1.60e-03,
360,1.60e-03,
361,-1.60e-03,
362,-2.40e-03,
363,2.40e-03,
364,1.20e-03,
365,-2.40e-03,
366,2.00e-03,
367,-1.60e-03,
368,-1.60e-03,
369,2.80e-03,
370,-1.60e-03,
371,2.40e-03,
372,-1.60e-03,
373,2.40e-03,
374,1.60e-03,
375,-2.40e-03,
376,2.40e-03,
377,-2.40e-03,
378,1.60e-03,
379,-1.60e-03,
380,1.60e-03,
381,-1.60e-03,
382,-1.60e-03,
383,1.60e-03,
384,-1.60e-03,
385,2.40e-03,
386,1.60e-03,
387,-1.60e-03,
388,2.00e-03,
389,-1.60e-03,
390,3.20e-03,
391,-2.40e-03,
392,2.80e-03,
393,-2.40e-03,
394,-2.40e-03,
395,2.80e-03,
396,2.40e-03,
397,-2.40e-03,
398,1.60e-03,
399,-2.40e-03,
400,1.60e-03,
401,-2.40e-03,
402,2.40e-03,
403,-2.40e-03,
404,-1.60e-03,
405,2.40e-03,
406,-1.60e-03,
407,2.40e-03,
408,2.40e-03,
409,-1.60e-03,
410,-1.60e-03,
411,2.00e-03,
412,-2.40e-03,
413,2.40e-03,
414,-1.60e-03,
415,1.60e-03,
416,2.00e-03,
417,-2.40e-03,
418,-1.60e-03,
419,3.20e-03,
420,1.60e-03,
421,-2.40e-03,
422,-1.60e-03,
423,1.60e-03,
424,-8.00e-04,
425,2.40e-03,
426,2.40e-03,
427,-1.60e-03,
428,2.40e-03,
429,-2.40e-03,
430,-1.60e-03,
431,1.60e-03,
432,2.00e-03,
433,-1.60e-03,
434,2.00e-03,
435,-2.40e-03,
436,-2.40e-03,
437,1.60e-03,
438,-1.60e-03,
439,2.00e-03,
440,2.40e-03,
441,-1.60e-03,
442,-1.60e-03,
443,2.40e-03,
444,1.60e-03,
445,-1.60e-03,
446,-8.00e-04,
447,2.40e-03,
448,1.60e-03,
449,-1.60e-03,
450,2.00e-03,
451,-2.40e-03,
452,-1.60e-03,
453,2.40e-03,
454,2.40e-03,
455,-1.60e-03,
456,-1.60e-03,
457,1.60e-03,
458,2.40e-03,
459,-1.60e-03,
460,-2.40e-03,
461,2.40e-03,
462,2.40e-03,
463,-1.60e-03,
464,-1.60e-03,
465,2.40e-03,
466,2.40e-03,
467,-1.60e-03,
468,-1.60e-03,
469,2.40e-03,
470,2.00e-03,
471,-1.60e-03,
472,-1.60e-03,
473,2.40e-03,
474,1.60e-03,
475,-1.60e-03,
476,2.40e-03,
477,-2.40e-03,
478,2.40e-03,
479,-2.40e-03,
480,-1.60e-03,
481,2.40e-03,
482,-8.00e-04,
483,2.40e-03,
484,1.60e-03,
485,-1.60e-03,
486,2.80e-03,
487,-2.40e-03,
488,2.40e-03,
489,-1.60e-03,
490,-1.60e-03,
491,2.40e-03,
492,1.60e-03,
493,-1.60e-03,
494,-1.60e-03,
495,2.40e-03,
496,-1.60e-03,
497,2.40e-03,
498,-2.40e-03,
499,2.40e-03,
500,3.20e-03,
501,-1.60e-03,
502,-1.60e-03,
503,2.40e-03,
504,2.40e-03,
505,-1.60e-03,
506,2.40e-03,
507,-1.60e-03,
508,-1.60e-03,
509,2.40e-03,
510,1.60e-03,
511,-1.60e-03,
512,-1.60e-03,
513,2.40e-03,
514,-1.60e-03,
515,2.40e-03,
516,2.40e-03,
517,-1.60e-03,
518,-1.60e-03,
519,2.40e-03,
520,-1.60e-03,
521,2.80e-03,
522,-2.40e-03,
523,2.80e-03,
524,-1.60e-03,
525,2.00e-03,
526,-2.40e-03,
527,2.40e-03,
528,-1.60e-03,
529,2.40e-03,
530,-1.60e-03,
531,2.40e-03,
532,-1.60e-03,
533,2.80e-03,
534,-1.60e-03,
535,1.60e-03,
536,-1.60e-03,
537,2.40e-03,
538,-8.00e-04,
539,2.40e-03,
540,-1.60e-03,
541,2.80e-03,
542,2.40e-03,
543,-2.40e-03,
544,-1.60e-03,
545,2.40e-03,
546,-1.60e-03,
547,2.00e-03,
548,2.40e-03,
549,-1.60e-03,
550,-8.00e-04,
551,2.40e-03,
552,-1.60e-03,
553,2.40e-03,
554,-2.40e-03,
555,2.00e-03,
556,2.00e-03,
557,-2.40e-03,
558,-3.20e-03,
559,2.00e-03,
560,-1.60e-03,
561,2.40e-03,
562,1.60e-03,
563,-1.60e-03,
564,-1.60e-03,
565,2.00e-03,
566,-1.60e-03,
567,2.40e-03,
568,2.40e-03,
569,-1.60e-03,
570,-1.60e-03,
571,2.40e-03,
572,1.60e-03,
573,-1.60e-03,
574,2.00e-03,
575,-1.60e-03,
576,2.40e-03,
577,-1.20e-03,
578,-8.00e-04,
579,2.40e-03,
580,2.40e-03,
581,-1.60e-03,
582,-8.00e-04,
583,1.60e-03,
584,-8.00e-04,
585,2.00e-03,
586,-2.00e-03,
587,2.40e-03,
588,-1.60e-03,
589,1.60e-03,
590,-1.60e-03,
591,2.40e-03,
592,-1.60e-03,
593,2.40e-03,
594,-8.00e-04,
595,2.40e-03,
596,2.40e-03,
597,-1.60e-03,
598,-1.60e-03,
599,2.40e-03,
600,2.40e-03,
601,-1.60e-03,
602,1.60e-03,
603,-2.40e-03,
604,-1.60e-03,
605,1.60e-03,
606,-2.40e-03,
607,2.40e-03,
608,-1.60e-03,
609,2.40e-03,
610,2.80e-03,
611,-1.60e-03,
612,-1.60e-03,
613,2.40e-03,
614,-1.60e-03,
615,1.60e-03,
616,2.40e-03,
617,-1.60e-03,
618,-1.60e-03,
619,2.40e-03,
620,-1.60e-03,
621,2.00e-03,
622,-2.40e-03,
623,2.40e-03,
624,1.60e-03,
625,-2.40e-03,
626,2.40e-03,
627,-2.40e-03,
628,1.60e-03,
629,-2.40e-03,
630,2.00e-03,
631,-1.60e-03,
632,2.40e-03,
633,-1.60e-03,
634,-8.00e-04,
635,2.40e-03,
636,-2.40e-03,
637,2.00e-03,
638,-1.60e-03,
639,2.40e-03,
640,2.00e-03,
641,-1.60e-03,
642,-2.40e-03,
643,2.00e-03,
644,1.60e-03,
645,-2.40e-03,
646,-2.40e-03,
647,2.40e-03,
648,2.00e-03,
649,-1.60e-03,
650,-2.40e-03,
651,2.00e-03,
652,-1.60e-03,
653,2.40e-03,
654,2.40e-03,
655,-1.60e-03,
656,2.40e-03,
657,-1.60e-03,
658,-1.60e-03,
659,3.20e-03,
660,-2.40e-03,
661,1.60e-03,
662,2.40e-03,
663,-2.40e-03,
664,-2.40e-03,
665,2.40e-03,
666,2.00e-03,
667,-2.40e-03,
668,-1.60e-03,
669,2.00e-03,
670,-1.60e-03,
671,1.60e-03,
672,1.60e-03,
673,-2.40e-03,
674,-1.60e-03,
675,2.40e-03,
676,1.60e-03,
677,-1.60e-03,
678,-1.60e-03,
679,1.60e-03,
680,1.60e-03,
681,-2.40e-03,
682,2.00e-03,
683,-2.40e-03,
684,2.40e-03,
685,-2.40e-03,
686,-2.40e-03,
687,2.00e-03,
688,-2.40e-03,
689,2.40e-03,
690,1.60e-03,
691,-2.40e-03,
692,2.40e-03,
693,-1.60e-03,
694,2.40e-03,
695,-1.60e-03,
696,-1.60e-03,
697,2.40e-03,
698,1.60e-03,
699,-2.40e-03,
700,-1.60e-03,
701,1.60e-03,
702,2.40e-03,
703,-2.40e-03,
704,-1.60e-03,
705,1.60e-03,
706,-2.40e-03,
707,2.40e-03,
708,-1.60e-03,
709,1.60e-03,
710,-1.60e-03,
711,1.60e-03,
712,-1.60e-03,
713,2.00e-03,
714,-1.60e-03,
715,1.60e-03,
716,-1.60e-03,
717,1.60e-03,
718,-1.60e-03,
719,2.80e-03,
720,1.60e-03,
721,-1.60e-03,
722,2.40e-03,
723,-2.40e-03,
724,-1.60e-03,
725,2.40e-03,
726,1.60e-03,
727,-2.40e-03,
728,1.60e-03,
729,-1.60e-03,
730,2.40e-03,
731,-2.40e-03,
732,2.00e-03,
733,-1.60e-03,
734,-2.40e-03,
735,2.40e-03,
736,2.40e-03,
737,-1.60e-03,
738,1.60e-03,
739,-1.60e-03,
740,2.40e-03,
741,-2.40e-03,
742,-2.40e-03,
743,2.00e-03,
744,2.40e-03,
745,-1.60e-03,
746,1.60e-03,
747,-1.60e-03,
748,-1.60e-03,
749,2.80e-03,
750,-1.60e-03,
751,2.00e-03,
752,2.40e-03,
753,-2.40e-03,
754,2.40e-03,
755,-1.60e-03,
756,-1.60e-03,
757,2.40e-03,
758,2.40e-03,
759,-2.40e-03,
760,1.60e-03,
761,-2.40e-03,
762,2.00e-03,
763,-1.60e-03,
764,2.40e-03,
765,-1.60e-03,
766,2.40e-03,
767,-1.60e-03,
768,-1.60e-03,
769,2.00e-03,
770,2.40e-03,
771,-2.00e-03,
772,2.40e-03,
773,-1.60e-03,
774,2.40e-03,
775,-1.60e-03,
776,2.40e-03,
777,-2.40e-03,
778,-2.40e-03,
779,2.40e-03,
780,-1.60e-03,
781,2.40e-03,
782,2.00e-03,
783,-1.60e-03,
784,2.00e-03,
785,-1.60e-03,
786,2.40e-03,
787,-1.60e-03,
788,-1.60e-03,
789,2.40e-03,
790,2.40e-03,
791,-2.40e-03,
792,2.40e-03,
793,-1.60e-03,
794,2.40e-03,
795,-2.40e-03,
796,-1.60e-03,
797,2.40e-03,
798,2.40e-03,
799,-1.60e-03,
800,-2.40e-03,
801,2.40e-03,
802,2.00e-03,
803,-2.40e-03,
804,2.40e-03,
805,-1.60e-03,
806,-8.00e-04,
807,2.40e-03,
808,1.60e-03,
809,-1.60e-03,
810,-2.40e-03,
811,1.60e-03,
812,2.40e-03,
813,-1.60e-03,
814,2.00e-03,
815,-1.60e-03,
816,-1.60e-03,
817,2.00e-03,
818,-1.60e-03,
819,2.00e-03,
820,-1.60e-03,
821,2.40e-03,
822,-1.60e-03,
823,2.00e-03,
824,2.40e-03,
825,-2.40e-03,
826,3.20e-03,
827,-2.40e-03,
828,-8.00e-04,
829,2.40e-03,
830,2.00e-03,
831,-2.40e-03,
832,2.40e-03,
833,-1.60e-03,
834,1.60e-03,
835,-1.60e-03,
836,-2.40e-03,
837,2.40e-03,
838,1.60e-03,
839,-2.40e-03,
840,-1.60e-03,
841,2.40e-03,
842,-1.60e-03,
843,2.00e-03,
844,-1.60e-03,
845,2.40e-03,
846,1.60e-03,
847,-2.40e-03,
848,2.40e-03,
849,-1.60e-03,
850,1.60e-03,
851,-1.60e-03,
852,-2.40e-03,
853,2.40e-03,
854,1.60e-03,
855,-2.40e-03,
856,2.40e-03,
857,-1.60e-03,
858,-1.60e-03,
859,2.40e-03,
860,-1.60e-03,
861,2.40e-03,
862,2.80e-03,
863,-1.60e-03,
864,-2.40e-03,
865,1.60e-03,
866,2.00e-03,
867,-1.60e-03,
868,-1.60e-03,
869,2.80e-03,
870,-1.60e-03,
871,2.40e-03,
872,2.80e-03,
873,-2.40e-03,
874,2.40e-03,
875,-1.60e-03,
876,2.40e-03,
877,-1.60e-03,
878,2.40e-03,
879,-2.40e-03,
880,-1.60e-03,
881,1.60e-03,
882,2.40e-03,
883,-1.60e-03,
884,2.40e-03,
885,-1.60e-03,
886,-1.60e-03,
887,2.40e-03,
888,-1.60e-03,
889,1.60e-03,
890,-1.60e-03,
891,2.40e-03,
892,-1.60e-03,
893,2.40e-03,
894,2.00e-03,
895,-1.60e-03,
896,-1.60e-03,
897,2.40e-03,
898,-8.00e-04,
899,2.40e-03,
900,1.60e-03,
901,-2.40e-03,
902,-1.60e-03,
903,2.40e-03,
904,2.40e-03,
905,-1.60e-03,
906,2.40e-03,
907,-2.40e-03,
908,-1.60e-03,
909,2.40e-03,
910,2.00e-03,
911,-1.60e-03,
912,-8.00e-04,
913,2.40e-03,
914,2.40e-03,
915,-2.40e-03,
916,-1.60e-03,
917,2.40e-03,
918,2.40e-03,
919,-1.60e-03,
920,2.40e-03,
921,-1.60e-03,
922,-1.60e-03,
923,2.40e-03,
924,2.80e-03,
925,-8.00e-04,
926,2.40e-03,
927,-1.60e-03,
928,2.40e-03,
929,-1.60e-03,
930,2.40e-03,
931,-1.60e-03,
932,-8.00e-04,
933,2.40e-03,
934,2.40e-03,
935,-1.60e-03,
936,-1.60e-03,
937,2.40e-03,
938,2.00e-03,
939,-1.60e-03,
940,1.60e-03,
941,-2.40e-03,
942,2.40e-03,
943,-1.60e-03,
944,3.20e-03,
945,-1.60e-03,
946,2.40e-03,
947,-1.60e-03,
948,1.60e-03,
949,-2.40e-03,
950,-2.40e-03,
951,2.40e-03,
952,2.40e-03,
953,-1.60e-03,
954,-1.60e-03,
955,2.00e-03,
956,2.40e-03,
957,-1.60e-03,
958,1.60e-03,
959,-1.60e-03,
960,2.40e-03,
961,-1.60e-03,
962,-8.00e-04,
963,3.60e-03,
964,-1.60e-03,
965,2.40e-03,
966,2.40e-03,
967,-1.60e-03,
968,1.60e-03,
969,-1.60e-03,
970,-1.60e-03,
971,2.40e-03,
972,-1.60e-03,
973,2.40e-03,
974,-1.60e-03,
975,1.60e-03,
976,2.00e-03,
977,-1.60e-03,
978,2.00e-03,
979,-1.60e-03,
980,-1.60e-03,
981,2.40e-03,
982,-1.60e-03,
983,3.20e-03,
984,2.40e-03,
985,-1.60e-03,
986,-1.60e-03,
987,2.40e-03,
988,-1.60e-03,
989,2.00e-03,
990,-8.00e-04,
991,2.40e-03,
992,-1.60e-03,
993,2.40e-03,
994,3.20e-03,
995,-1.60e-03,
996,-1.60e-03,
997,2.40e-03,
998,2.40e-03,
999,-2.00e-03,
1000,2.40e-03,
1001,-1.60e-03,
1002,2.40e-03,
1003,-1.60e-03,
1004,-1.60e-03,
1005,2.40e-03,
1006,2.00e-03,
1007,-1.20e-03,
1008,-1.60e-03,
1009,2.40e-03,
1010,2.40e-03,
1011,-1.60e-03,
1012,1.60e-03,
1013,-1.60e-03,
1014,-1.60e-03,
1015,3.20e-03,
1016,2.40e-03,
1017,-1.60e-03,
1018,-1.60e-03,
1019,2.40e-03,
1020,1.60e-03,
1021,-2.40e-03,
1022,2.40e-03,
1023,-1.60e-03,
1024,2.00e-03,
1025,-2.40e-03,
1026,2.00e-03,
1027,-1.60e-03,
1028,-1.60e-03,
1029,2.40e-03,
1030,-2.40e-03,
1031,2.80e-03,
1032,-1.60e-03,
1033,2.00e-03,
1034,2.40e-03,
1035,-2.40e-03,
1036,2.40e-03,
1037,-1.60e-03,
1038,-1.60e-03,
1039,2.40e-03,
1040,2.40e-03,
1041,-2.40e-03,
1042,2.80e-03,
1043,-1.60e-03,
1044,2.40e-03,
1045,-2.40e-03,
1046,-8.00e-04,
1047,3.60e-03,
1048,2.40e-03,
1049,-1.60e-03,
1050,2.40e-03,
1051,-1.60e-03,
1052,1.60e-03,
1053,-1.60e-03,
1054,-8.00e-04,
1055,1.60e-03,
1056,2.00e-03,
1057,-1.60e-03,
1058,2.00e-03,
1059,-2.40e-03,
1060,-2.40e-03,
1061,1.60e-03,
1062,3.20e-03,
1063,-1.60e-03,
1064,2.00e-03,
1065,-1.60e-03,
1066,-1.60e-03,
1067,1.60e-03,
1068,-1.60e-03,
1069,1.60e-03,
1070,1.60e-03,
1071,-2.40e-03,
1072,-1.60e-03,
1073,2.40e-03,
1074,-8.00e-04,
1075,2.00e-03,
1076,2.40e-03,
1077,-1.60e-03,
1078,-8.00e-04,
1079,2.40e-03,
1080,-1.60e-03,
1081,3.20e-03,
1082,-1.60e-03,
1083,2.40e-03,
1084,2.00e-03,
1085,-1.60e-03,
1086,2.00e-03,
1087,-2.40e-03,
1088,-2.40e-03,
1089,2.00e-03,
1090,-1.60e-03,
1091,2.40e-03,
1092,-1.60e-03,
1093,2.40e-03,
1094,-1.60e-03,
1095,2.40e-03,
1096,2.40e-03,
1097,-1.60e-03,
1098,2.40e-03,
1099,-1.60e-03,
1100,2.40e-03,
1101,-1.60e-03,
1102,-1.60e-03,
1103,3.20e-03,
1104,2.40e-03,
1105,-1.60e-03,
1106,-2.40e-03,
1107,2.00e-03,
1108,2.00e-03,
1109,-1.60e-03,
1110,-8.00e-04,
1111,3.20e-03,
1112,-1.60e-03,
1113,2.40e-03,
1114,2.40e-03,
1115,-1.60e-03,
1116,-1.60e-03,
1117,2.40e-03,
1118,-1.60e-03,
1119,3.20e-03,
1120,-1.60e-03,
1121,2.80e-03,
1122,2.80e-03,
1123,-1.60e-03,
1124,2.40e-03,
1125,-1.60e-03,
1126,2.40e-03,
1127,-1.60e-03,
1128,-1.60e-03,
1129,2.40e-03,
1130,-8.00e-04,
1131,2.00e-03,
1132,2.40e-03,
1133,-1.60e-03,
1134,2.40e-03,
1135,-1.60e-03,
1136,2.40e-03,
1137,-1.60e-03,
1138,-1.60e-03,
1139,2.40e-03,
1140,-1.60e-03,
1141,2.40e-03,
1142,2.80e-03,
1143,-1.60e-03,
1144,1.60e-03,
1145,-2.40e-03,
1146,2.40e-03,
1147,-1.60e-03,
1148,-1.60e-03,
1149,2.40e-03,
1150,-1.60e-03,
1151,2.40e-03,
1152,-2.40e-03,
1153,2.40e-03,
1154,-1.60e-03,
1155,2.00e-03,
1156,-8.00e-04,
1157,2.80e-03,
1158,2.40e-03,
1159,-1.60e-03,
1160,-8.00e-04,
1161,3.20e-03,
1162,2.40e-03,
1163,-1.60e-03,
1164,-1.60e-03,
1165,2.40e-03,
1166,2.40e-03,
1167,-1.60e-03,
1168,-8.00e-04,
1169,2.40e-03,
1170,2.40e-03,
1171,-1.60e-03,
1172,-1.60e-03,
1173,2.40e-03,
1174,3.20e-03,
1175,-1.60e-03,
1176,-8.00e-04,
1177,2.40e-03,
1178,2.40e-03,
1179,-1.60e-03,
1180,-8.00e-04,
1181,3.20e-03,
1182,2.40e-03,
1183,-1.60e-03,
1184,-1.60e-03,
1185,2.40e-03,
1186,-1.60e-03,
1187,2.40e-03,
1188,1.60e-03,
1189,-1.60e-03,
1190,-1.60e-03,
1191,2.80e-03,
1192,-1.60e-03,
1193,2.40e-03,
1194,2.40e-03,
1195,-1.60e-03,
1196,2.80e-03,
1197,-1.60e-03,
1198,-8.00e-04,
1199,2.80e-03,
