fastdiffamp/data-noise-set/unb-right-demod-comp/NewFile10.csv

X,CH1,Start,Increment,
Sequence,Volt,-5.990000e+00,1.000000e-02
0,-2.36e-03,
1,4.88e-03,
2,5.08e-03,
3,-1.96e-03,
4,4.68e-03,
5,-3.28e-03,
6,4.52e-03,
7,-2.36e-03,
8,-2.68e-03,
9,4.28e-03,
10,5.08e-03,
11,-1.96e-03,
12,-2.80e-03,
13,5.08e-03,
14,-1.88e-03,
15,5.08e-03,
16,5.08e-03,
17,-2.52e-03,
18,-2.24e-03,
19,5.08e-03,
20,5.08e-03,
21,-2.28e-03,
22,-2.20e-03,
23,5.08e-03,
24,5.08e-03,
25,-2.56e-03,
26,5.08e-03,
27,-1.92e-03,
28,-1.80e-03,
29,5.08e-03,
30,-2.72e-03,
31,5.08e-03,
32,4.32e-03,
33,-2.16e-03,
34,4.88e-03,
35,-1.24e-03,
36,2.80e-04,
37,-1.20e-04,
38,-1.20e-04,
39,2.80e-04,
40,-1.20e-04,
41,2.00e-04,
42,-1.20e-04,
43,2.80e-04,
44,5.08e-03,
45,-2.08e-03,
46,5.08e-03,
47,-2.72e-03,
48,5.08e-03,
49,-1.92e-03,
50,-1.40e-03,
51,4.96e-03,
52,4.40e-03,
53,-2.04e-03,
54,4.84e-03,
55,-2.40e-03,
56,-6.80e-04,
57,2.92e-03,
58,2.40e-04,
59,-2.00e-04,
60,5.08e-03,
61,-2.44e-03,
62,-2.68e-03,
63,4.96e-03,
64,-2.12e-03,
65,5.08e-03,
66,-2.76e-03,
67,5.08e-03,
68,-1.92e-03,
69,5.08e-03,
70,4.48e-03,
71,-2.12e-03,
72,5.08e-03,
73,-2.04e-03,
74,5.08e-03,
75,-2.84e-03,
76,-2.28e-03,
77,5.08e-03,
78,-1.72e-03,
79,5.08e-03,
80,5.08e-03,
81,-2.28e-03,
82,-2.20e-03,
83,5.08e-03,
84,-2.12e-03,
85,4.88e-03,
86,4.80e-03,
87,-1.88e-03,
88,4.48e-03,
89,-3.12e-03,
90,-3.40e-03,
91,4.20e-03,
92,-1.88e-03,
93,4.96e-03,
94,-1.56e-03,
95,5.08e-03,
96,4.92e-03,
97,-2.84e-03,
98,-1.48e-03,
99,5.08e-03,
100,-2.36e-03,
101,5.08e-03,
102,-1.64e-03,
103,4.68e-03,
104,-2.00e-03,
105,4.80e-03,
106,-2.24e-03,
107,5.08e-03,
108,-2.12e-03,
109,3.48e-03,
110,4.44e-03,
111,-2.04e-03,
112,3.92e-03,
113,-2.00e-03,
114,5.08e-03,
115,-2.08e-03,
116,-3.08e-03,
117,4.84e-03,
118,4.52e-03,
119,-3.08e-03,
120,5.08e-03,
121,-2.88e-03,
122,4.80e-03,
123,-2.00e-03,
124,5.08e-03,
125,-2.72e-03,
126,-1.88e-03,
127,5.08e-03,
128,-1.96e-03,
129,5.08e-03,
130,5.08e-03,
131,-1.56e-03,
132,-1.64e-03,
133,5.08e-03,
134,-1.48e-03,
135,5.08e-03,
136,-1.64e-03,
137,5.08e-03,
138,5.08e-03,
139,-1.64e-03,
140,5.08e-03,
141,-2.12e-03,
142,5.08e-03,
143,-3.08e-03,
144,5.08e-03,
145,-3.16e-03,
146,4.44e-03,
147,-2.12e-03,
148,5.08e-03,
149,-2.04e-03,
150,5.08e-03,
151,-3.12e-03,
152,-2.04e-03,
153,4.16e-03,
154,4.68e-03,
155,-2.52e-03,
156,5.08e-03,
157,-2.28e-03,
158,-2.60e-03,
159,4.80e-03,
160,-2.44e-03,
161,4.48e-03,
162,5.08e-03,
163,-2.52e-03,
164,-2.88e-03,
165,5.08e-03,
166,-1.64e-03,
167,5.08e-03,
168,-2.20e-03,
169,5.08e-03,
170,5.08e-03,
171,-1.80e-03,
172,5.04e-03,
173,-2.12e-03,
174,-1.52e-03,
175,5.08e-03,
176,-1.48e-03,
177,5.08e-03,
178,5.08e-03,
179,-2.36e-03,
180,5.08e-03,
181,-1.88e-03,
182,-2.04e-03,
183,5.08e-03,
184,4.80e-03,
185,-2.36e-03,
186,4.64e-03,
187,-2.24e-03,
188,-3.04e-03,
189,4.96e-03,
190,-2.72e-03,
191,5.08e-03,
192,-2.28e-03,
193,4.28e-03,
194,5.08e-03,
195,-1.96e-03,
196,-1.96e-03,
197,5.08e-03,
198,5.08e-03,
199,-3.00e-03,
200,5.08e-03,
201,-1.92e-03,
202,5.08e-03,
203,-1.80e-03,
204,-1.88e-03,
205,5.08e-03,
206,-1.52e-03,
207,5.08e-03,
208,-2.60e-03,
209,5.08e-03,
210,-1.96e-03,
211,4.24e-03,
212,-2.52e-03,
213,4.88e-03,
214,4.80e-03,
215,-2.32e-03,
216,5.08e-03,
217,-2.44e-03,
218,5.08e-03,
219,-2.84e-03,
220,5.04e-03,
221,-2.12e-03,
222,5.08e-03,
223,-1.00e-03,
224,-2.84e-03,
225,4.36e-03,
226,-2.64e-03,
227,5.08e-03,
228,3.80e-03,
229,-2.36e-03,
230,-1.96e-03,
231,4.96e-03,
232,-2.12e-03,
233,5.08e-03,
234,5.08e-03,
235,-2.44e-03,
236,5.08e-03,
237,-2.68e-03,
238,-2.96e-03,
239,5.08e-03,
240,5.08e-03,
241,-2.36e-03,
242,5.08e-03,
243,-3.00e-03,
244,-1.88e-03,
245,5.08e-03,
246,4.76e-03,
247,-1.96e-03,
248,5.08e-03,
249,-2.20e-03,
250,-1.96e-03,
251,4.60e-03,
252,5.08e-03,
253,-2.28e-03,
254,-2.20e-03,
255,5.08e-03,
256,5.08e-03,
257,-2.76e-03,
258,5.08e-03,
259,-1.60e-03,
260,-1.56e-03,
261,4.80e-03,
262,-2.24e-03,
263,4.84e-03,
264,-3.08e-03,
265,5.08e-03,
266,-1.92e-03,
267,5.08e-03,
268,-2.40e-03,
269,5.08e-03,
270,5.08e-03,
271,-3.24e-03,
272,5.08e-03,
273,-2.80e-03,
274,5.08e-03,
275,-2.36e-03,
276,5.08e-03,
277,-2.52e-03,
278,5.04e-03,
279,-2.20e-03,
280,4.96e-03,
281,-2.00e-03,
282,-2.76e-03,
283,5.08e-03,
284,5.08e-03,
285,-2.20e-03,
286,-3.32e-03,
287,5.08e-03,
288,-1.96e-03,
289,5.08e-03,
290,5.08e-03,
291,-2.48e-03,
292,5.08e-03,
293,-2.84e-03,
294,-2.36e-03,
295,4.80e-03,
296,5.04e-03,
297,-2.20e-03,
298,5.08e-03,
299,-2.84e-03,
300,-2.28e-03,
301,5.08e-03,
302,-2.04e-03,
303,5.08e-03,
304,-2.44e-03,
305,5.08e-03,
306,5.08e-03,
307,-2.28e-03,
308,5.08e-03,
309,-2.20e-03,
310,5.08e-03,
311,-2.92e-03,
312,-2.28e-03,
313,5.08e-03,
314,5.08e-03,
315,-2.76e-03,
316,5.08e-03,
317,-2.28e-03,
318,-2.28e-03,
319,5.08e-03,
320,5.08e-03,
321,-2.68e-03,
322,-2.28e-03,
323,5.08e-03,
324,5.08e-03,
325,-1.88e-03,
326,-2.52e-03,
327,5.08e-03,
328,-3.08e-03,
329,5.08e-03,
330,-2.12e-03,
331,5.04e-03,
332,-2.16e-03,
333,5.08e-03,
334,5.08e-03,
335,-2.52e-03,
336,-1.96e-03,
337,5.08e-03,
338,5.08e-03,
339,-2.52e-03,
340,-2.52e-03,
341,5.08e-03,
342,-2.36e-03,
343,4.72e-03,
344,-2.36e-03,
345,5.08e-03,
346,-2.44e-03,
347,4.52e-03,
348,-2.52e-03,
349,5.08e-03,
350,5.08e-03,
351,-1.88e-03,
352,4.48e-03,
353,-2.00e-03,
354,5.08e-03,
355,-3.12e-03,
356,5.08e-03,
357,-2.32e-03,
358,-1.88e-03,
359,4.84e-03,
360,-2.28e-03,
361,5.08e-03,
362,-1.88e-03,
363,5.08e-03,
364,-2.36e-03,
365,4.36e-03,
366,5.08e-03,
367,-1.48e-03,
368,4.88e-03,
369,-1.72e-03,
370,5.08e-03,
371,-1.96e-03,
372,5.08e-03,
373,-1.68e-03,
374,-1.96e-03,
375,5.08e-03,
376,5.08e-03,
377,-2.60e-03,
378,4.32e-03,
379,-2.92e-03,
380,-2.48e-03,
381,4.68e-03,
382,-3.56e-03,
383,5.08e-03,
384,5.08e-03,
385,-1.72e-03,
386,5.08e-03,
387,-1.96e-03,
388,5.08e-03,
389,-1.96e-03,
390,5.08e-03,
391,-2.68e-03,
392,-2.28e-03,
393,5.08e-03,
394,-2.04e-03,
395,5.08e-03,
396,5.08e-03,
397,-2.12e-03,
398,-2.72e-03,
399,5.04e-03,
400,4.72e-03,
401,-2.56e-03,
402,5.08e-03,
403,-1.96e-03,
404,5.08e-03,
405,-1.80e-03,
406,5.08e-03,
407,-2.32e-03,
408,5.08e-03,
409,-1.72e-03,
410,-2.20e-03,
411,5.04e-03,
412,5.08e-03,
413,-1.88e-03,
414,-2.28e-03,
415,5.08e-03,
416,5.08e-03,
417,-2.04e-03,
418,3.44e-03,
419,-1.72e-03,
420,-1.20e-04,
421,3.60e-04,
422,-1.20e-04,
423,2.80e-04,
424,3.92e-03,
425,-2.20e-03,
426,4.96e-03,
427,-1.88e-03,
428,5.08e-03,
429,-1.24e-03,
430,-1.80e-03,
431,5.08e-03,
432,-2.60e-03,
433,4.96e-03,
434,-2.04e-03,
435,5.08e-03,
436,4.72e-03,
437,-1.40e-03,
438,-1.72e-03,
439,5.08e-03,
440,4.72e-03,
441,-1.96e-03,
442,-2.76e-03,
443,4.96e-03,
444,5.08e-03,
445,-2.84e-03,
446,5.00e-03,
447,-2.20e-03,
448,-2.32e-03,
449,5.08e-03,
450,-2.12e-03,
451,5.08e-03,
452,-3.12e-03,
453,5.08e-03,
454,5.08e-03,
455,-3.08e-03,
456,5.08e-03,
457,-3.20e-03,
458,5.08e-03,
459,-1.92e-03,
460,-2.68e-03,
461,5.08e-03,
462,5.08e-03,
463,-2.44e-03,
464,-1.64e-03,
465,4.72e-03,
466,5.08e-03,
467,-2.24e-03,
468,-2.56e-03,
469,5.08e-03,
470,5.08e-03,
471,-1.96e-03,
472,-2.16e-03,
473,4.08e-03,
474,-2.28e-03,
475,5.08e-03,
476,5.08e-03,
477,-1.72e-03,
478,5.08e-03,
479,-2.56e-03,
480,-2.76e-03,
481,5.08e-03,
482,5.08e-03,
483,-1.96e-03,
484,-2.52e-03,
485,5.04e-03,
486,5.08e-03,
487,-2.04e-03,
488,-1.64e-03,
489,5.08e-03,
490,5.08e-03,
491,-2.52e-03,
492,5.08e-03,
493,-2.08e-03,
494,-2.32e-03,
495,4.52e-03,
496,5.08e-03,
497,-2.36e-03,
498,5.08e-03,
499,-2.88e-03,
500,4.56e-03,
501,-1.72e-03,
502,-2.04e-03,
503,5.08e-03,
504,-2.52e-03,
505,5.08e-03,
506,5.08e-03,
507,-2.04e-03,
508,5.08e-03,
509,-1.96e-03,
510,5.08e-03,
511,-2.28e-03,
512,5.08e-03,
513,-2.28e-03,
514,-2.04e-03,
515,4.76e-03,
516,5.08e-03,
517,-1.96e-03,
518,5.08e-03,
519,-2.08e-03,
520,5.08e-03,
521,-2.60e-03,
522,5.08e-03,
523,-2.60e-03,
524,5.08e-03,
525,-2.36e-03,
526,-2.64e-03,
527,4.84e-03,
528,-3.12e-03,
529,5.00e-03,
530,-1.48e-03,
531,5.08e-03,
532,5.08e-03,
533,-1.88e-03,
534,4.44e-03,
535,-2.20e-03,
536,-2.96e-03,
537,5.08e-03,
538,4.40e-03,
539,-2.32e-03,
540,5.08e-03,
541,-1.80e-03,
542,5.08e-03,
543,-1.88e-03,
544,-2.24e-03,
545,5.08e-03,
546,-2.40e-03,
547,5.08e-03,
548,5.08e-03,
549,-1.88e-03,
550,-2.24e-03,
551,5.08e-03,
552,5.08e-03,
553,-2.76e-03,
554,4.68e-03,
555,-2.76e-03,
556,-2.84e-03,
557,4.80e-03,
558,5.08e-03,
559,-2.84e-03,
560,-2.44e-03,
561,5.08e-03,
562,5.08e-03,
563,-2.68e-03,
564,5.08e-03,
565,-2.36e-03,
566,5.08e-03,
567,-3.52e-03,
568,-2.28e-03,
569,5.08e-03,
570,5.08e-03,
571,-3.24e-03,
572,-2.60e-03,
573,5.08e-03,
574,-2.12e-03,
575,5.08e-03,
576,-2.12e-03,
577,5.08e-03,
578,5.08e-03,
579,-2.00e-03,
580,5.08e-03,
581,-1.72e-03,
582,-2.48e-03,
583,5.08e-03,
584,5.08e-03,
585,-2.36e-03,
586,5.04e-03,
587,-2.24e-03,
588,-2.24e-03,
589,4.40e-03,
590,5.08e-03,
591,-2.36e-03,
592,5.08e-03,
593,-2.12e-03,
594,5.08e-03,
595,-2.44e-03,
596,5.08e-03,
597,-2.44e-03,
598,4.56e-03,
599,-2.48e-03,
600,5.08e-03,
601,-2.32e-03,
602,5.08e-03,
603,-2.04e-03,
604,6.80e-04,
605,-4.00e-05,
606,-1.20e-04,
607,3.60e-04,
608,4.40e-04,
609,-1.20e-04,
610,-2.60e-03,
611,5.08e-03,
612,5.08e-03,
613,-2.28e-03,
614,5.08e-03,
615,-2.76e-03,
616,5.08e-03,
617,-3.36e-03,
618,5.08e-03,
619,-2.04e-03,
620,-2.36e-03,
621,5.08e-03,
622,-2.20e-03,
623,5.08e-03,
624,-1.72e-03,
625,5.08e-03,
626,5.08e-03,
627,-1.80e-03,
628,5.08e-03,
629,-2.04e-03,
630,5.08e-03,
631,-1.64e-03,
632,-2.52e-03,
633,4.96e-03,
634,-2.12e-03,
635,5.08e-03,
636,5.08e-03,
637,-2.40e-03,
638,-2.08e-03,
639,5.08e-03,
640,5.08e-03,
641,-2.12e-03,
642,4.84e-03,
643,-2.28e-03,
644,-4.00e-05,
645,6.80e-04,
646,2.80e-04,
647,-1.20e-04,
648,5.08e-03,
649,-1.64e-03,
650,-2.44e-03,
651,5.08e-03,
652,-2.92e-03,
653,4.96e-03,
654,-2.44e-03,
655,5.08e-03,
656,-2.12e-03,
657,5.08e-03,
658,-2.76e-03,
659,5.08e-03,
660,-2.12e-03,
661,5.08e-03,
662,5.08e-03,
663,-2.56e-03,
664,5.08e-03,
665,-2.28e-03,
666,5.08e-03,
667,-2.20e-03,
668,-2.28e-03,
669,5.08e-03,
670,5.08e-03,
671,-1.92e-03,
672,-2.24e-03,
673,5.08e-03,
674,-2.44e-03,
675,5.08e-03,
676,5.08e-03,
677,-2.64e-03,
678,5.08e-03,
679,-2.52e-03,
680,-2.88e-03,
681,5.08e-03,
682,-2.16e-03,
683,4.96e-03,
684,-2.92e-03,
685,5.08e-03,
686,5.08e-03,
687,-2.12e-03,
688,-2.20e-03,
689,5.08e-03,
690,-1.64e-03,
691,4.72e-03,
692,-2.76e-03,
693,4.80e-03,
694,-2.68e-03,
695,5.08e-03,
696,-2.48e-03,
697,5.08e-03,
698,5.08e-03,
699,-3.00e-03,
700,5.08e-03,
701,-2.12e-03,
702,-2.68e-03,
703,5.08e-03,
704,5.08e-03,
705,-1.40e-03,
706,-2.32e-03,
707,5.08e-03,
708,-2.40e-03,
709,5.08e-03,
710,-1.80e-03,
711,4.92e-03,
712,-2.48e-03,
713,4.84e-03,
714,4.80e-03,
715,-1.80e-03,
716,-1.88e-03,
717,5.08e-03,
718,-3.00e-03,
719,5.08e-03,
720,5.08e-03,
721,-2.36e-03,
722,-2.32e-03,
723,5.08e-03,
724,-2.68e-03,
725,5.08e-03,
726,-2.92e-03,
727,5.08e-03,
728,-2.52e-03,
729,5.08e-03,
730,4.96e-03,
731,-2.68e-03,
732,-2.12e-03,
733,5.08e-03,
734,-1.56e-03,
735,4.88e-03,
736,-2.84e-03,
737,5.08e-03,
738,5.08e-03,
739,-2.36e-03,
740,-3.44e-03,
741,4.88e-03,
742,4.44e-03,
743,-2.60e-03,
744,-2.52e-03,
745,5.08e-03,
746,4.48e-03,
747,-3.08e-03,
748,5.08e-03,
749,-2.32e-03,
750,5.08e-03,
751,-2.84e-03,
752,4.88e-03,
753,-2.60e-03,
754,-2.40e-03,
755,4.92e-03,
756,5.08e-03,
757,-2.56e-03,
758,5.08e-03,
759,-2.76e-03,
760,-3.32e-03,
761,5.08e-03,
762,4.96e-03,
763,-2.88e-03,
764,5.08e-03,
765,-2.12e-03,
766,5.08e-03,
767,-2.28e-03,
768,5.08e-03,
769,-2.28e-03,
770,5.08e-03,
771,-2.44e-03,
772,-2.44e-03,
773,5.08e-03,
774,-2.08e-03,
775,5.08e-03,
776,-2.76e-03,
777,5.04e-03,
778,-2.12e-03,
779,4.92e-03,
780,-2.84e-03,
781,4.96e-03,
782,-2.28e-03,
783,5.08e-03,
784,5.08e-03,
785,-2.80e-03,
786,5.08e-03,
787,-3.04e-03,
788,-1.96e-03,
789,5.08e-03,
790,-2.20e-03,
791,5.08e-03,
792,-2.36e-03,
793,5.08e-03,
794,-2.52e-03,
795,5.08e-03,
796,5.08e-03,
797,-2.20e-03,
798,5.08e-03,
799,-1.84e-03,
800,5.08e-03,
801,-2.12e-03,
802,5.08e-03,
803,-2.36e-03,
804,5.08e-03,
805,-2.12e-03,
806,5.08e-03,
807,-2.80e-03,
808,5.08e-03,
809,-2.20e-03,
810,5.08e-03,
811,-2.52e-03,
812,-2.88e-03,
813,5.08e-03,
814,5.08e-03,
815,-2.56e-03,
816,5.08e-03,
817,-2.32e-03,
818,5.08e-03,
819,-1.92e-03,
820,5.08e-03,
821,-3.00e-03,
822,5.08e-03,
823,-3.12e-03,
824,-2.00e-03,
825,5.08e-03,
826,4.80e-03,
827,-2.40e-03,
828,5.08e-03,
829,-2.28e-03,
830,-3.24e-03,
831,4.24e-03,
832,5.08e-03,
833,-2.32e-03,
834,-2.12e-03,
835,5.08e-03,
836,-2.52e-03,
837,5.08e-03,
838,5.08e-03,
839,-2.72e-03,
840,-2.12e-03,
841,5.08e-03,
842,5.08e-03,
843,-1.80e-03,
844,-1.20e-04,
845,3.60e-04,
846,5.08e-03,
847,-2.40e-03,
848,-2.04e-03,
849,5.08e-03,
850,5.08e-03,
851,-2.04e-03,
852,5.08e-03,
853,-2.12e-03,
854,5.08e-03,
855,-2.04e-03,
856,-1.96e-03,
857,5.08e-03,
858,5.08e-03,
859,-2.60e-03,
860,5.08e-03,
861,-2.20e-03,
862,5.08e-03,
863,-1.24e-03,
864,4.96e-03,
865,-2.36e-03,
866,5.08e-03,
867,-1.88e-03,
868,-2.56e-03,
869,4.84e-03,
870,-1.92e-03,
871,5.08e-03,
872,5.08e-03,
873,-1.80e-03,
874,-2.44e-03,
875,5.08e-03,
876,4.56e-03,
877,-2.28e-03,
878,5.08e-03,
879,-2.76e-03,
880,5.08e-03,
881,-2.32e-03,
882,-2.52e-03,
883,5.08e-03,
884,5.08e-03,
885,-2.40e-03,
886,5.08e-03,
887,-2.40e-03,
888,-2.04e-03,
889,4.32e-03,
890,-2.44e-03,
891,5.08e-03,
892,-2.32e-03,
893,5.08e-03,
894,5.08e-03,
895,-2.44e-03,
896,-2.40e-03,
897,5.08e-03,
898,-2.92e-03,
899,5.08e-03,
900,-2.32e-03,
901,5.08e-03,
902,5.08e-03,
903,-2.04e-03,
904,5.08e-03,
905,-1.96e-03,
906,5.08e-03,
907,-3.16e-03,
908,5.08e-03,
909,-2.60e-03,
910,-3.08e-03,
911,4.20e-03,
912,5.08e-03,
913,-2.76e-03,
914,5.08e-03,
915,-2.04e-03,
916,5.08e-03,
917,-2.04e-03,
918,5.08e-03,
919,-2.12e-03,
920,-1.96e-03,
921,5.08e-03,
922,-2.68e-03,
923,5.08e-03,
924,5.08e-03,
925,-2.52e-03,
926,5.08e-03,
927,-2.76e-03,
928,5.08e-03,
929,-3.24e-03,
930,5.08e-03,
931,-1.96e-03,
932,5.08e-03,
933,-2.20e-03,
934,5.08e-03,
935,-1.80e-03,
936,5.08e-03,
937,-1.80e-03,
938,5.08e-03,
939,-2.20e-03,
940,-2.44e-03,
941,5.04e-03,
942,4.96e-03,
943,-2.96e-03,
944,5.08e-03,
945,-2.52e-03,
946,5.08e-03,
947,-1.84e-03,
948,-2.36e-03,
949,5.08e-03,
950,5.08e-03,
951,-3.40e-03,
952,5.08e-03,
953,-2.80e-03,
954,-1.48e-03,
955,4.80e-03,
956,4.72e-03,
957,-2.32e-03,
958,-2.48e-03,
959,5.08e-03,
960,5.08e-03,
961,-2.08e-03,
962,4.80e-03,
963,-2.68e-03,
964,5.08e-03,
965,-2.36e-03,
966,5.08e-03,
967,-3.08e-03,
968,5.08e-03,
969,-2.16e-03,
970,-2.56e-03,
971,5.08e-03,
972,5.08e-03,
973,-2.24e-03,
974,5.08e-03,
975,-2.68e-03,
976,-2.72e-03,
977,4.56e-03,
978,5.08e-03,
979,-1.96e-03,
980,-2.84e-03,
981,5.08e-03,
982,5.08e-03,
983,-2.60e-03,
984,-2.40e-03,
985,5.08e-03,
986,-1.08e-03,
987,3.56e-03,
988,-1.20e-04,
989,2.80e-04,
990,-4.00e-05,
991,3.60e-04,
992,-1.76e-03,
993,4.84e-03,
994,-2.28e-03,
995,4.48e-03,
996,4.76e-03,
997,-3.28e-03,
998,4.68e-03,
999,-2.72e-03,
1000,4.80e-03,
1001,-2.44e-03,
1002,5.08e-03,
1003,-2.20e-03,
1004,-3.20e-03,
1005,5.08e-03,
1006,4.80e-03,
1007,-2.52e-03,
1008,5.08e-03,
1009,-2.64e-03,
1010,5.08e-03,
1011,-2.20e-03,
1012,5.08e-03,
1013,-2.72e-03,
1014,5.08e-03,
1015,-2.76e-03,
1016,-2.08e-03,
1017,5.00e-03,
1018,-1.88e-03,
1019,5.08e-03,
1020,5.08e-03,
1021,-2.84e-03,
1022,5.04e-03,
1023,-2.12e-03,
1024,-1.84e-03,
1025,5.08e-03,
1026,-3.40e-03,
1027,5.08e-03,
1028,5.08e-03,
1029,-1.96e-03,
1030,5.08e-03,
1031,-2.32e-03,
1032,-2.44e-03,
1033,5.08e-03,
1034,-2.20e-03,
1035,5.08e-03,
1036,5.08e-03,
1037,-2.00e-03,
1038,-2.72e-03,
1039,5.08e-03,
1040,4.48e-03,
1041,-1.96e-03,
1042,-2.60e-03,
1043,5.08e-03,
1044,-2.52e-03,
1045,5.08e-03,
1046,-1.84e-03,
1047,5.08e-03,
1048,5.08e-03,
1049,-2.08e-03,
1050,-1.72e-03,
1051,5.08e-03,
1052,-2.16e-03,
1053,5.04e-03,
1054,5.08e-03,
1055,-2.00e-03,
1056,-2.20e-03,
1057,5.08e-03,
1058,-2.76e-03,
1059,5.08e-03,
1060,4.48e-03,
1061,-1.68e-03,
1062,-1.80e-03,
1063,5.08e-03,
1064,4.88e-03,
1065,-2.40e-03,
1066,-2.20e-03,
1067,4.80e-03,
1068,5.08e-03,
1069,-3.60e-03,
1070,5.08e-03,
1071,-1.88e-03,
1072,5.08e-03,
1073,-2.28e-03,
1074,5.08e-03,
1075,-2.36e-03,
1076,5.08e-03,
1077,-2.36e-03,
1078,5.08e-03,
1079,-2.28e-03,
1080,5.08e-03,
1081,-2.20e-03,
1082,5.08e-03,
1083,-2.60e-03,
1084,5.08e-03,
1085,-1.64e-03,
1086,5.08e-03,
1087,-2.16e-03,
1088,-2.28e-03,
1089,5.08e-03,
1090,-2.92e-03,
1091,5.08e-03,
1092,-2.08e-03,
1093,5.08e-03,
1094,5.08e-03,
1095,-2.08e-03,
1096,5.08e-03,
1097,-2.44e-03,
1098,-2.44e-03,
1099,5.08e-03,
1100,4.96e-03,
1101,-2.68e-03,
1102,5.08e-03,
1103,-1.80e-03,
1104,-2.44e-03,
1105,5.08e-03,
1106,5.08e-03,
1107,-3.28e-03,
1108,-2.20e-03,
1109,4.60e-03,
1110,-3.00e-03,
1111,4.40e-03,
1112,5.08e-03,
1113,-2.12e-03,
1114,5.08e-03,
1115,-2.52e-03,
1116,5.08e-03,
1117,-2.36e-03,
1118,-1.88e-03,
1119,5.08e-03,
1120,-1.80e-03,
1121,4.72e-03,
1122,5.08e-03,
1123,-2.24e-03,
1124,-3.48e-03,
1125,5.08e-03,
1126,5.08e-03,
1127,-1.92e-03,
1128,-2.36e-03,
1129,4.72e-03,
1130,-2.40e-03,
1131,5.08e-03,
1132,4.72e-03,
1133,-2.44e-03,
1134,-2.20e-03,
1135,5.08e-03,
1136,5.08e-03,
1137,-2.44e-03,
1138,5.08e-03,
1139,-2.20e-03,
1140,5.08e-03,
1141,-2.92e-03,
1142,5.08e-03,
1143,-1.72e-03,
1144,-2.08e-03,
1145,5.08e-03,
1146,5.08e-03,
1147,-2.60e-03,
1148,5.08e-03,
1149,-2.44e-03,
1150,5.08e-03,
1151,-2.04e-03,
1152,-1.56e-03,
1153,5.08e-03,
1154,-2.20e-03,
1155,5.08e-03,
1156,4.64e-03,
1157,-2.00e-03,
1158,-2.72e-03,
1159,5.08e-03,
1160,-2.08e-03,
1161,5.08e-03,
1162,-2.12e-03,
1163,5.08e-03,
1164,5.08e-03,
1165,-1.96e-03,
1166,5.08e-03,
1167,-2.68e-03,
1168,4.88e-03,
1169,-3.96e-03,
1170,5.08e-03,
1171,-2.40e-03,
1172,5.08e-03,
1173,-2.44e-03,
1174,5.08e-03,
1175,-1.56e-03,
1176,5.08e-03,
1177,-2.36e-03,
1178,4.56e-03,
1179,-2.12e-03,
1180,-2.28e-03,
1181,5.04e-03,
1182,5.08e-03,
1183,-2.52e-03,
1184,-2.56e-03,
1185,4.76e-03,
1186,-1.80e-03,
1187,5.08e-03,
1188,-2.00e-03,
1189,5.08e-03,
1190,5.08e-03,
1191,-2.12e-03,
1192,-2.04e-03,
1193,5.08e-03,
1194,4.96e-03,
1195,-2.04e-03,
1196,5.08e-03,
1197,-2.48e-03,
1198,5.08e-03,
1199,-2.04e-03,
