fastdiffamp/data-noise-set/unb-right-demod-comp/NewFile21.csv

X,CH1,Start,Increment,
Sequence,Volt,-5.490000e+00,1.000000e-02
0,0.00e+00,
1,2.80e-04,
2,2.40e-04,
3,-8.00e-05,
4,0.00e+00,
5,3.20e-04,
6,0.00e+00,
7,3.20e-04,
8,2.80e-04,
9,-8.00e-05,
10,-8.00e-05,
11,2.40e-04,
12,2.40e-04,
13,-8.00e-05,
14,2.40e-04,
15,-1.60e-04,
16,0.00e+00,
17,2.40e-04,
18,2.40e-04,
19,-8.00e-05,
20,-1.60e-04,
21,2.40e-04,
22,0.00e+00,
23,2.00e-04,
24,2.00e-04,
25,-8.00e-05,
26,-8.00e-05,
27,1.60e-04,
28,-8.00e-05,
29,2.40e-04,
30,-8.00e-05,
31,2.40e-04,
32,3.20e-04,
33,-8.00e-05,
34,-8.00e-05,
35,3.20e-04,
36,-8.00e-05,
37,3.20e-04,
38,2.40e-04,
39,-8.00e-05,
40,2.40e-04,
41,0.00e+00,
42,2.40e-04,
43,-8.00e-05,
44,-8.00e-05,
45,2.40e-04,
46,-8.00e-05,
47,3.20e-04,
48,-8.00e-05,
49,2.40e-04,
50,-8.00e-05,
51,2.40e-04,
52,-8.00e-05,
53,2.40e-04,
54,-8.00e-05,
55,3.20e-04,
56,-8.00e-05,
57,2.40e-04,
58,-8.00e-05,
59,2.40e-04,
60,-8.00e-05,
61,2.40e-04,
62,2.40e-04,
63,-8.00e-05,
64,-8.00e-05,
65,2.40e-04,
66,0.00e+00,
67,2.40e-04,
68,-8.00e-05,
69,2.40e-04,
70,-8.00e-05,
71,2.80e-04,
72,-8.00e-05,
73,3.20e-04,
74,-8.00e-05,
75,3.20e-04,
76,0.00e+00,
77,2.80e-04,
78,-8.00e-05,
79,2.80e-04,
80,0.00e+00,
81,3.20e-04,
82,2.40e-04,
83,-8.00e-05,
84,0.00e+00,
85,2.40e-04,
86,-1.60e-04,
87,2.40e-04,
88,0.00e+00,
89,2.80e-04,
90,3.20e-04,
91,-1.60e-04,
92,-8.00e-05,
93,2.40e-04,
94,3.20e-04,
95,-8.00e-05,
96,2.40e-04,
97,0.00e+00,
98,3.20e-04,
99,0.00e+00,
100,2.40e-04,
101,-8.00e-05,
102,0.00e+00,
103,3.20e-04,
104,2.40e-04,
105,-8.00e-05,
106,2.40e-04,
107,0.00e+00,
108,2.40e-04,
109,-8.00e-05,
110,2.40e-04,
111,-8.00e-05,
112,-1.60e-04,
113,2.80e-04,
114,-1.60e-04,
115,3.20e-04,
116,2.40e-04,
117,0.00e+00,
118,0.00e+00,
119,2.80e-04,
120,-1.60e-04,
121,2.40e-04,
122,2.40e-04,
123,-8.00e-05,
124,2.40e-04,
125,-8.00e-05,
126,-8.00e-05,
127,2.40e-04,
128,2.40e-04,
129,-8.00e-05,
130,-8.00e-05,
131,2.40e-04,
132,-8.00e-05,
133,3.20e-04,
134,-8.00e-05,
135,2.40e-04,
136,-8.00e-05,
137,2.40e-04,
138,2.40e-04,
139,-8.00e-05,
140,0.00e+00,
141,2.40e-04,
142,0.00e+00,
143,2.40e-04,
144,-8.00e-05,
145,2.40e-04,
146,3.20e-04,
147,-8.00e-05,
148,2.40e-04,
149,-8.00e-05,
150,0.00e+00,
151,2.80e-04,
152,2.40e-04,
153,-8.00e-05,
154,-1.60e-04,
155,3.20e-04,
156,0.00e+00,
157,2.40e-04,
158,2.80e-04,
159,-8.00e-05,
160,2.40e-04,
161,-8.00e-05,
162,0.00e+00,
163,3.20e-04,
164,2.40e-04,
165,-8.00e-05,
166,-8.00e-05,
167,2.40e-04,
168,3.20e-04,
169,-8.00e-05,
170,3.20e-04,
171,-1.60e-04,
172,0.00e+00,
173,3.20e-04,
174,-8.00e-05,
175,3.20e-04,
176,2.80e-04,
177,-8.00e-05,
178,2.80e-04,
179,-8.00e-05,
180,0.00e+00,
181,3.20e-04,
182,2.40e-04,
183,0.00e+00,
184,-8.00e-05,
185,3.20e-04,
186,-8.00e-05,
187,2.80e-04,
188,-8.00e-05,
189,3.20e-04,
190,-8.00e-05,
191,3.20e-04,
192,-8.00e-05,
193,2.80e-04,
194,2.80e-04,
195,-8.00e-05,
196,0.00e+00,
197,3.20e-04,
198,-8.00e-05,
199,3.20e-04,
200,2.40e-04,
201,-1.60e-04,
202,2.40e-04,
203,-8.00e-05,
204,0.00e+00,
205,2.80e-04,
206,-8.00e-05,
207,3.20e-04,
208,3.20e-04,
209,-8.00e-05,
210,0.00e+00,
211,2.40e-04,
212,0.00e+00,
213,2.40e-04,
214,-8.00e-05,
215,2.40e-04,
216,-8.00e-05,
217,2.40e-04,
218,-8.00e-05,
219,2.40e-04,
220,1.60e-04,
221,-8.00e-05,
222,2.40e-04,
223,-8.00e-05,
224,-8.00e-05,
225,3.20e-04,
226,0.00e+00,
227,2.40e-04,
228,2.80e-04,
229,-8.00e-05,
230,-8.00e-05,
231,2.00e-04,
232,1.60e-04,
233,-8.00e-05,
234,-8.00e-05,
235,2.00e-04,
236,-8.00e-05,
237,2.40e-04,
238,0.00e+00,
239,2.40e-04,
240,-8.00e-05,
241,2.40e-04,
242,-8.00e-05,
243,2.40e-04,
244,-8.00e-05,
245,2.00e-04,
246,-8.00e-05,
247,2.40e-04,
248,-8.00e-05,
249,2.40e-04,
250,-8.00e-05,
251,2.00e-04,
252,-8.00e-05,
253,2.40e-04,
254,-8.00e-05,
255,2.40e-04,
256,2.40e-04,
257,-8.00e-05,
258,-8.00e-05,
259,2.40e-04,
260,-8.00e-05,
261,2.40e-04,
262,-8.00e-05,
263,2.40e-04,
264,0.00e+00,
265,2.40e-04,
266,2.40e-04,
267,-8.00e-05,
268,0.00e+00,
269,2.80e-04,
270,-1.60e-04,
271,3.20e-04,
272,1.60e-04,
273,-1.60e-04,
274,0.00e+00,
275,2.40e-04,
276,-8.00e-05,
277,2.40e-04,
278,2.40e-04,
279,-8.00e-05,
280,-8.00e-05,
281,3.20e-04,
282,2.40e-04,
283,-1.60e-04,
284,-8.00e-05,
285,2.40e-04,
286,2.80e-04,
287,-1.60e-04,
288,2.40e-04,
289,0.00e+00,
290,-8.00e-05,
291,2.40e-04,
292,2.40e-04,
293,-8.00e-05,
294,-1.60e-04,
295,1.60e-04,
296,-8.00e-05,
297,2.40e-04,
298,-8.00e-05,
299,2.40e-04,
300,2.40e-04,
301,-8.00e-05,
302,-1.60e-04,
303,2.40e-04,
304,-8.00e-05,
305,2.40e-04,
306,-8.00e-05,
307,2.40e-04,
308,-8.00e-05,
309,2.40e-04,
310,1.60e-04,
311,-1.60e-04,
312,-1.60e-04,
313,2.40e-04,
314,2.40e-04,
315,-1.60e-04,
316,0.00e+00,
317,2.40e-04,
318,-1.60e-04,
319,2.40e-04,
320,-8.00e-05,
321,2.40e-04,
322,-8.00e-05,
323,2.80e-04,
324,2.40e-04,
325,-1.20e-04,
326,-8.00e-05,
327,3.20e-04,
328,-8.00e-05,
329,2.40e-04,
330,2.40e-04,
331,-1.60e-04,
332,-1.60e-04,
333,2.40e-04,
334,-8.00e-05,
335,2.40e-04,
336,-1.60e-04,
337,3.20e-04,
338,2.40e-04,
339,-1.60e-04,
340,-8.00e-05,
341,3.20e-04,
342,-1.60e-04,
343,2.40e-04,
344,1.60e-04,
345,-1.60e-04,
346,2.40e-04,
347,-8.00e-05,
348,2.40e-04,
349,-1.60e-04,
350,-1.60e-04,
351,1.60e-04,
352,2.00e-04,
353,-8.00e-05,
354,2.40e-04,
355,-1.60e-04,
356,-8.00e-05,
357,2.00e-04,
358,-8.00e-05,
359,2.80e-04,
360,-8.00e-05,
361,2.40e-04,
362,2.80e-04,
363,-8.00e-05,
364,-8.00e-05,
365,3.20e-04,
366,2.40e-04,
367,-1.60e-04,
368,-1.60e-04,
369,2.40e-04,
370,-8.00e-05,
371,2.00e-04,
372,2.40e-04,
373,-8.00e-05,
374,-8.00e-05,
375,2.00e-04,
376,2.00e-04,
377,-1.60e-04,
378,0.00e+00,
379,2.40e-04,
380,2.40e-04,
381,0.00e+00,
382,-8.00e-05,
383,2.00e-04,
384,-8.00e-05,
385,2.40e-04,
386,-8.00e-05,
387,2.40e-04,
388,-8.00e-05,
389,2.40e-04,
390,-8.00e-05,
391,3.20e-04,
392,2.40e-04,
393,-8.00e-05,
394,2.40e-04,
395,-8.00e-05,
396,0.00e+00,
397,2.40e-04,
398,3.20e-04,
399,-8.00e-05,
400,-8.00e-05,
401,2.40e-04,
402,-8.00e-05,
403,2.40e-04,
404,2.40e-04,
405,0.00e+00,
406,2.40e-04,
407,-8.00e-05,
408,-8.00e-05,
409,3.20e-04,
410,2.40e-04,
411,-8.00e-05,
412,-8.00e-05,
413,2.40e-04,
414,2.40e-04,
415,0.00e+00,
416,2.40e-04,
417,-8.00e-05,
418,-8.00e-05,
419,3.20e-04,
420,-8.00e-05,
421,2.40e-04,
422,2.40e-04,
423,-8.00e-05,
424,3.20e-04,
425,-8.00e-05,
426,-1.20e-04,
427,2.40e-04,
428,-8.00e-05,
429,2.80e-04,
430,-8.00e-05,
431,1.60e-04,
432,2.40e-04,
433,-1.60e-04,
434,2.00e-04,
435,-8.00e-05,
436,1.60e-04,
437,-8.00e-05,
438,-1.60e-04,
439,2.80e-04,
440,-2.40e-04,
441,2.40e-04,
442,-8.00e-05,
443,2.40e-04,
444,-8.00e-05,
445,2.80e-04,
446,-8.00e-05,
447,2.40e-04,
448,-8.00e-05,
449,3.20e-04,
450,-1.60e-04,
451,2.40e-04,
452,3.20e-04,
453,-1.60e-04,
454,-8.00e-05,
455,2.40e-04,
456,-1.60e-04,
457,3.20e-04,
458,2.40e-04,
459,-8.00e-05,
460,2.40e-04,
461,-8.00e-05,
462,0.00e+00,
463,2.40e-04,
464,1.60e-04,
465,-1.60e-04,
466,-1.60e-04,
467,2.40e-04,
468,1.60e-04,
469,-8.00e-05,
470,-8.00e-05,
471,3.20e-04,
472,-8.00e-05,
473,2.40e-04,
474,-8.00e-05,
475,3.20e-04,
476,2.40e-04,
477,-8.00e-05,
478,-1.60e-04,
479,2.40e-04,
480,-8.00e-05,
481,3.20e-04,
482,2.40e-04,
483,-8.00e-05,
484,-1.60e-04,
485,2.40e-04,
486,2.40e-04,
487,-8.00e-05,
488,2.40e-04,
489,-1.60e-04,
490,2.40e-04,
491,0.00e+00,
492,2.40e-04,
493,0.00e+00,
494,1.60e-04,
495,-8.00e-05,
496,-8.00e-05,
497,2.40e-04,
498,-8.00e-05,
499,2.40e-04,
500,3.20e-04,
501,-8.00e-05,
502,2.40e-04,
503,-1.60e-04,
504,-8.00e-05,
505,1.60e-04,
506,-1.60e-04,
507,1.60e-04,
508,-1.60e-04,
509,2.40e-04,
510,2.40e-04,
511,-8.00e-05,
512,-8.00e-05,
513,2.40e-04,
514,2.40e-04,
515,-1.60e-04,
516,2.80e-04,
517,-8.00e-05,
518,-1.60e-04,
519,2.40e-04,
520,-8.00e-05,
521,2.40e-04,
522,-8.00e-05,
523,2.80e-04,
524,-8.00e-05,
525,2.40e-04,
526,-8.00e-05,
527,2.40e-04,
528,-8.00e-05,
529,2.40e-04,
530,-1.60e-04,
531,2.40e-04,
532,-8.00e-05,
533,2.40e-04,
534,0.00e+00,
535,2.80e-04,
536,2.40e-04,
537,0.00e+00,
538,2.40e-04,
539,-1.60e-04,
540,2.40e-04,
541,-8.00e-05,
542,-8.00e-05,
543,2.80e-04,
544,-8.00e-05,
545,3.20e-04,
546,-8.00e-05,
547,3.20e-04,
548,2.80e-04,
549,0.00e+00,
550,2.00e-04,
551,-8.00e-05,
552,-1.60e-04,
553,2.40e-04,
554,-8.00e-05,
555,2.00e-04,
556,2.00e-04,
557,-1.60e-04,
558,2.40e-04,
559,-8.00e-05,
560,-8.00e-05,
561,2.80e-04,
562,-8.00e-05,
563,3.20e-04,
564,3.20e-04,
565,-8.00e-05,
566,-8.00e-05,
567,2.00e-04,
568,1.60e-04,
569,-8.00e-05,
570,-8.00e-05,
571,2.40e-04,
572,2.40e-04,
573,-8.00e-05,
574,-8.00e-05,
575,2.00e-04,
576,-1.60e-04,
577,2.80e-04,
578,-8.00e-05,
579,2.40e-04,
580,-8.00e-05,
581,2.40e-04,
582,-8.00e-05,
583,2.00e-04,
584,-8.00e-05,
585,2.00e-04,
586,-8.00e-05,
587,3.20e-04,
588,2.40e-04,
589,-1.60e-04,
590,1.60e-04,
591,-8.00e-05,
592,2.40e-04,
593,-4.00e-05,
594,-8.00e-05,
595,2.40e-04,
596,3.20e-04,
597,-8.00e-05,
598,-8.00e-05,
599,2.40e-04,
600,2.40e-04,
601,-1.60e-04,
602,2.40e-04,
603,-1.60e-04,
604,2.40e-04,
605,-1.60e-04,
606,-8.00e-05,
607,1.60e-04,
608,-8.00e-05,
609,3.20e-04,
610,-1.60e-04,
611,2.40e-04,
612,2.40e-04,
613,-1.60e-04,
614,2.40e-04,
615,-1.60e-04,
616,4.00e-04,
617,-1.60e-04,
618,-8.00e-05,
619,3.20e-04,
620,1.60e-04,
621,-8.00e-05,
622,-8.00e-05,
623,2.40e-04,
624,-8.00e-05,
625,2.40e-04,
626,-8.00e-05,
627,2.40e-04,
628,2.40e-04,
629,-1.60e-04,
630,2.40e-04,
631,-8.00e-05,
632,-8.00e-05,
633,2.80e-04,
634,-1.60e-04,
635,2.40e-04,
636,-1.60e-04,
637,2.40e-04,
638,2.00e-04,
639,-8.00e-05,
640,-8.00e-05,
641,2.40e-04,
642,-8.00e-05,
643,2.40e-04,
644,2.00e-04,
645,-1.60e-04,
646,-8.00e-05,
647,2.00e-04,
648,2.00e-04,
649,-8.00e-05,
650,-8.00e-05,
651,2.40e-04,
652,1.60e-04,
653,-1.60e-04,
654,-1.60e-04,
655,2.40e-04,
656,-8.00e-05,
657,2.40e-04,
658,2.00e-04,
659,-8.00e-05,
660,-8.00e-05,
661,2.40e-04,
662,-8.00e-05,
663,2.40e-04,
664,-8.00e-05,
665,1.60e-04,
666,-1.60e-04,
667,2.00e-04,
668,-8.00e-05,
669,2.40e-04,
670,2.40e-04,
671,-8.00e-05,
672,2.40e-04,
673,-8.00e-05,
674,1.60e-04,
675,-8.00e-05,
676,-1.60e-04,
677,3.20e-04,
678,-8.00e-05,
679,2.40e-04,
680,-8.00e-05,
681,2.40e-04,
682,2.80e-04,
683,-8.00e-05,
684,3.20e-04,
685,-1.60e-04,
686,-8.00e-05,
687,1.60e-04,
688,-8.00e-05,
689,2.40e-04,
690,-8.00e-05,
691,2.40e-04,
692,-8.00e-05,
693,2.40e-04,
694,-1.60e-04,
695,2.40e-04,
696,3.20e-04,
697,-8.00e-05,
698,1.60e-04,
699,-1.60e-04,
700,-8.00e-05,
701,2.00e-04,
702,-8.00e-05,
703,2.00e-04,
704,-1.60e-04,
705,2.00e-04,
706,2.40e-04,
707,-8.00e-05,
708,-8.00e-05,
709,2.40e-04,
710,-8.00e-05,
711,2.40e-04,
712,2.40e-04,
713,-8.00e-05,
714,3.20e-04,
715,-2.40e-04,
716,2.40e-04,
717,-8.00e-05,
718,-1.60e-04,
719,2.40e-04,
720,-8.00e-05,
721,3.20e-04,
722,2.40e-04,
723,-8.00e-05,
724,3.20e-04,
725,-1.60e-04,
726,-8.00e-05,
727,2.40e-04,
728,-1.60e-04,
729,2.40e-04,
730,-8.00e-05,
731,2.00e-04,
732,1.60e-04,
733,-1.60e-04,
734,-8.00e-05,
735,2.40e-04,
736,3.20e-04,
737,-8.00e-05,
738,2.80e-04,
739,-1.60e-04,
740,-8.00e-05,
741,2.00e-04,
742,-1.60e-04,
743,2.40e-04,
744,1.60e-04,
745,-1.60e-04,
746,2.40e-04,
747,-8.00e-05,
748,-8.00e-05,
749,2.40e-04,
750,2.40e-04,
751,-1.60e-04,
752,-8.00e-05,
753,2.40e-04,
754,2.40e-04,
755,-1.60e-04,
756,2.40e-04,
757,-1.60e-04,
758,-8.00e-05,
759,3.20e-04,
760,-8.00e-05,
761,2.40e-04,
762,-8.00e-05,
763,2.00e-04,
764,3.20e-04,
765,-8.00e-05,
766,2.40e-04,
767,-1.60e-04,
768,0.00e+00,
769,3.20e-04,
770,0.00e+00,
771,2.40e-04,
772,-8.00e-05,
773,2.80e-04,
774,2.40e-04,
775,-1.60e-04,
776,1.60e-04,
777,-8.00e-05,
778,0.00e+00,
779,2.40e-04,
780,-1.60e-04,
781,2.00e-04,
782,-8.00e-05,
783,2.40e-04,
784,2.80e-04,
785,-8.00e-05,
786,-1.60e-04,
787,2.00e-04,
788,-8.00e-05,
789,2.40e-04,
790,2.40e-04,
791,-8.00e-05,
792,-8.00e-05,
793,2.40e-04,
794,2.00e-04,
795,-8.00e-05,
796,-1.60e-04,
797,2.80e-04,
798,-8.00e-05,
799,2.40e-04,
800,-1.60e-04,
801,2.40e-04,
802,-8.00e-05,
803,2.40e-04,
804,2.40e-04,
805,-8.00e-05,
806,2.40e-04,
807,-8.00e-05,
808,-8.00e-05,
809,2.40e-04,
810,-8.00e-05,
811,2.00e-04,
812,1.60e-04,
813,-1.60e-04,
814,-8.00e-05,
815,2.00e-04,
816,-1.60e-04,
817,3.20e-04,
818,2.80e-04,
819,-8.00e-05,
820,2.40e-04,
821,0.00e+00,
822,0.00e+00,
823,2.80e-04,
824,2.80e-04,
825,-8.00e-05,
826,-8.00e-05,
827,3.20e-04,
828,2.40e-04,
829,-8.00e-05,
830,-8.00e-05,
831,2.80e-04,
832,2.40e-04,
833,-8.00e-05,
834,-8.00e-05,
835,3.20e-04,
836,3.20e-04,
837,-8.00e-05,
838,2.40e-04,
839,-8.00e-05,
840,2.40e-04,
841,-8.00e-05,
842,2.40e-04,
843,-2.40e-04,
844,-8.00e-05,
845,2.40e-04,
846,1.60e-04,
847,-8.00e-05,
848,-8.00e-05,
849,2.40e-04,
850,2.00e-04,
851,-1.60e-04,
852,2.80e-04,
853,-8.00e-05,
854,2.40e-04,
855,-8.00e-05,
856,-1.60e-04,
857,2.40e-04,
858,-8.00e-05,
859,2.40e-04,
860,0.00e+00,
861,2.40e-04,
862,2.40e-04,
863,-1.60e-04,
864,2.40e-04,
865,-1.60e-04,
866,-8.00e-05,
867,2.40e-04,
868,-8.00e-05,
869,3.20e-04,
870,-8.00e-05,
871,3.20e-04,
872,2.80e-04,
873,-8.00e-05,
874,-8.00e-05,
875,2.40e-04,
876,-8.00e-05,
877,2.80e-04,
878,3.20e-04,
879,-8.00e-05,
880,-8.00e-05,
881,2.40e-04,
882,2.00e-04,
883,-8.00e-05,
884,-8.00e-05,
885,2.00e-04,
886,-8.00e-05,
887,2.40e-04,
888,3.20e-04,
889,-8.00e-05,
890,2.40e-04,
891,-8.00e-05,
892,-1.60e-04,
893,2.40e-04,
894,2.40e-04,
895,-8.00e-05,
896,-8.00e-05,
897,2.40e-04,
898,-8.00e-05,
899,2.40e-04,
900,2.40e-04,
901,0.00e+00,
902,-8.00e-05,
903,3.20e-04,
904,3.20e-04,
905,-8.00e-05,
906,2.80e-04,
907,-1.60e-04,
908,-8.00e-05,
909,2.40e-04,
910,2.40e-04,
911,-8.00e-05,
912,2.40e-04,
913,-1.60e-04,
914,-8.00e-05,
915,3.20e-04,
916,1.60e-04,
917,-1.60e-04,
918,2.40e-04,
919,-8.00e-05,
920,-8.00e-05,
921,3.20e-04,
922,-1.60e-04,
923,2.80e-04,
924,2.40e-04,
925,-1.60e-04,
926,2.40e-04,
927,-8.00e-05,
928,-8.00e-05,
929,3.20e-04,
930,3.20e-04,
931,0.00e+00,
932,2.40e-04,
933,0.00e+00,
934,3.20e-04,
935,-8.00e-05,
936,2.40e-04,
937,-1.60e-04,
938,-8.00e-05,
939,2.40e-04,
940,2.40e-04,
941,-1.60e-04,
942,2.40e-04,
943,-8.00e-05,
944,-8.00e-05,
945,1.60e-04,
946,-8.00e-05,
947,3.20e-04,
948,2.40e-04,
949,0.00e+00,
950,-1.60e-04,
951,2.40e-04,
952,3.20e-04,
953,-1.60e-04,
954,2.40e-04,
955,-8.00e-05,
956,3.60e-04,
957,-8.00e-05,
958,3.20e-04,
959,-2.40e-04,
960,-8.00e-05,
961,2.40e-04,
962,-8.00e-05,
963,2.80e-04,
964,2.40e-04,
965,-8.00e-05,
966,2.40e-04,
967,-1.60e-04,
968,3.20e-04,
969,0.00e+00,
970,2.40e-04,
971,-8.00e-05,
972,-8.00e-05,
973,2.40e-04,
974,-8.00e-05,
975,2.40e-04,
976,-8.00e-05,
977,1.60e-04,
978,-1.60e-04,
979,2.40e-04,
980,2.40e-04,
981,-8.00e-05,
982,3.20e-04,
983,-8.00e-05,
984,-8.00e-05,
985,3.20e-04,
986,2.40e-04,
987,-8.00e-05,
988,-1.60e-04,
989,3.20e-04,
990,4.00e-04,
991,0.00e+00,
992,2.40e-04,
993,-1.60e-04,
994,0.00e+00,
995,2.40e-04,
996,0.00e+00,
997,2.40e-04,
998,2.40e-04,
999,-8.00e-05,
1000,2.80e-04,
1001,-8.00e-05,
1002,-8.00e-05,
1003,3.20e-04,
1004,-1.60e-04,
1005,2.80e-04,
1006,3.20e-04,
1007,0.00e+00,
1008,-8.00e-05,
1009,3.20e-04,
1010,2.40e-04,
1011,-8.00e-05,
1012,2.40e-04,
1013,-8.00e-05,
1014,2.40e-04,
1015,-8.00e-05,
1016,2.40e-04,
1017,-8.00e-05,
1018,-8.00e-05,
1019,2.40e-04,
1020,2.40e-04,
1021,0.00e+00,
1022,2.40e-04,
1023,-8.00e-05,
1024,2.40e-04,
1025,-8.00e-05,
1026,1.60e-04,
1027,-8.00e-05,
1028,3.20e-04,
1029,-8.00e-05,
1030,-8.00e-05,
1031,3.20e-04,
1032,-1.60e-04,
1033,3.20e-04,
1034,2.40e-04,
1035,-8.00e-05,
1036,-8.00e-05,
1037,2.80e-04,
1038,-8.00e-05,
1039,3.20e-04,
1040,2.40e-04,
1041,-8.00e-05,
1042,-8.00e-05,
1043,3.20e-04,
1044,2.40e-04,
1045,-8.00e-05,
1046,2.40e-04,
1047,-1.60e-04,
1048,3.20e-04,
1049,-8.00e-05,
1050,-8.00e-05,
1051,2.40e-04,
1052,3.20e-04,
1053,-1.60e-04,
1054,2.40e-04,
1055,-8.00e-05,
1056,3.20e-04,
1057,-8.00e-05,
1058,-8.00e-05,
1059,2.40e-04,
1060,3.20e-04,
1061,-8.00e-05,
1062,-1.60e-04,
1063,2.40e-04,
1064,-8.00e-05,
1065,2.80e-04,
1066,0.00e+00,
1067,2.40e-04,
1068,1.60e-04,
1069,-1.60e-04,
1070,0.00e+00,
1071,2.40e-04,
1072,2.80e-04,
1073,-8.00e-05,
1074,0.00e+00,
1075,2.80e-04,
1076,0.00e+00,
1077,3.20e-04,
1078,-8.00e-05,
1079,3.20e-04,
1080,-8.00e-05,
1081,2.40e-04,
1082,3.20e-04,
1083,-8.00e-05,
1084,0.00e+00,
1085,2.40e-04,
1086,3.20e-04,
1087,0.00e+00,
1088,2.40e-04,
1089,-8.00e-05,
1090,-8.00e-05,
1091,4.00e-04,
1092,2.40e-04,
1093,-8.00e-05,
1094,-8.00e-05,
1095,2.40e-04,
1096,2.00e-04,
1097,-8.00e-05,
1098,-8.00e-05,
1099,2.00e-04,
1100,-1.60e-04,
1101,2.00e-04,
1102,3.20e-04,
1103,-8.00e-05,
1104,3.20e-04,
1105,-1.60e-04,
1106,0.00e+00,
1107,2.40e-04,
1108,2.40e-04,
1109,-8.00e-05,
1110,2.40e-04,
1111,-8.00e-05,
1112,3.20e-04,
1113,-1.60e-04,
1114,3.20e-04,
1115,-1.60e-04,
1116,-1.60e-04,
1117,2.40e-04,
1118,-1.60e-04,
1119,3.20e-04,
1120,3.20e-04,
1121,-8.00e-05,
1122,2.40e-04,
1123,-1.60e-04,
1124,2.40e-04,
1125,-8.00e-05,
1126,3.20e-04,
1127,-8.00e-05,
1128,2.40e-04,
1129,-8.00e-05,
1130,2.40e-04,
1131,-8.00e-05,
1132,-8.00e-05,
1133,3.20e-04,
1134,-8.00e-05,
1135,2.40e-04,
1136,3.20e-04,
1137,-8.00e-05,
1138,2.80e-04,
1139,-8.00e-05,
1140,2.40e-04,
1141,-8.00e-05,
1142,2.40e-04,
1143,-8.00e-05,
1144,2.40e-04,
1145,-1.60e-04,
1146,-8.00e-05,
1147,2.00e-04,
1148,2.40e-04,
1149,-8.00e-05,
1150,2.40e-04,
1151,-8.00e-05,
1152,2.40e-04,
1153,-1.60e-04,
1154,-1.60e-04,
1155,2.40e-04,
1156,-8.00e-05,
1157,2.40e-04,
1158,3.20e-04,
1159,-8.00e-05,
1160,2.40e-04,
1161,-8.00e-05,
1162,2.80e-04,
1163,-8.00e-05,
1164,2.40e-04,
1165,-1.60e-04,
1166,2.80e-04,
1167,-1.60e-04,
1168,2.00e-04,
1169,-1.60e-04,
1170,-8.00e-05,
1171,3.20e-04,
1172,-8.00e-05,
1173,2.40e-04,
1174,-1.60e-04,
1175,3.20e-04,
1176,-8.00e-05,
1177,2.80e-04,
1178,4.00e-04,
1179,-2.40e-04,
1180,2.40e-04,
1181,0.00e+00,
1182,-8.00e-05,
1183,2.40e-04,
1184,-8.00e-05,
1185,2.80e-04,
1186,2.40e-04,
1187,-1.60e-04,
1188,-1.60e-04,
1189,2.80e-04,
1190,2.80e-04,
1191,-1.60e-04,
1192,-8.00e-05,
1193,4.00e-04,
1194,2.40e-04,
1195,-8.00e-05,
1196,2.40e-04,
1197,-8.00e-05,
1198,2.40e-04,
1199,-2.40e-04,
