fastdiffamp/data-noise-set/unb-right-demod-comp/NewFile2.csv

X,CH1,Start,Increment,
Sequence,Volt,-5.490000e+00,1.000000e-02
0,2.00e-04,
1,-8.00e-05,
2,-8.00e-05,
3,2.80e-04,
4,-1.60e-04,
5,2.40e-04,
6,2.40e-04,
7,-1.60e-04,
8,-8.00e-05,
9,1.60e-04,
10,2.00e-04,
11,-1.60e-04,
12,-1.60e-04,
13,2.00e-04,
14,-8.00e-05,
15,3.20e-04,
16,2.40e-04,
17,-1.60e-04,
18,-8.00e-05,
19,2.40e-04,
20,1.20e-04,
21,-1.60e-04,
22,-8.00e-05,
23,2.40e-04,
24,-8.00e-05,
25,1.60e-04,
26,-1.60e-04,
27,2.00e-04,
28,1.60e-04,
29,-2.40e-04,
30,-1.60e-04,
31,1.60e-04,
32,-1.60e-04,
33,2.00e-04,
34,-8.00e-05,
35,2.00e-04,
36,-8.00e-05,
37,1.60e-04,
38,1.60e-04,
39,-8.00e-05,
40,2.40e-04,
41,-1.60e-04,
42,2.00e-04,
43,-1.60e-04,
44,-2.40e-04,
45,2.00e-04,
46,2.00e-04,
47,-8.00e-05,
48,3.20e-04,
49,-1.60e-04,
50,-2.40e-04,
51,1.20e-04,
52,2.00e-04,
53,-1.60e-04,
54,2.00e-04,
55,-2.40e-04,
56,-1.60e-04,
57,8.00e-05,
58,1.60e-04,
59,-8.00e-05,
60,2.00e-04,
61,-1.60e-04,
62,-1.60e-04,
63,1.60e-04,
64,-8.00e-05,
65,2.00e-04,
66,-1.60e-04,
67,1.60e-04,
68,-1.60e-04,
69,1.60e-04,
70,2.40e-04,
71,-1.60e-04,
72,2.40e-04,
73,-8.00e-05,
74,1.60e-04,
75,-8.00e-05,
76,2.40e-04,
77,-1.60e-04,
78,-8.00e-05,
79,2.40e-04,
80,1.20e-04,
81,-1.60e-04,
82,2.40e-04,
83,-1.60e-04,
84,-8.00e-05,
85,2.40e-04,
86,2.00e-04,
87,-1.60e-04,
88,1.60e-04,
89,-8.00e-05,
90,2.40e-04,
91,-8.00e-05,
92,-1.60e-04,
93,2.40e-04,
94,-1.60e-04,
95,1.60e-04,
96,-1.60e-04,
97,2.40e-04,
98,2.00e-04,
99,-8.00e-05,
100,-1.60e-04,
101,2.40e-04,
102,2.00e-04,
103,-1.60e-04,
104,1.60e-04,
105,-1.60e-04,
106,-8.00e-05,
107,2.00e-04,
108,2.00e-04,
109,-1.60e-04,
110,2.00e-04,
111,-8.00e-05,
112,-2.40e-04,
113,2.40e-04,
114,-1.60e-04,
115,1.20e-04,
116,2.40e-04,
117,-1.60e-04,
118,-1.60e-04,
119,1.60e-04,
120,-8.00e-05,
121,2.40e-04,
122,-1.60e-04,
123,2.00e-04,
124,1.60e-04,
125,-2.40e-04,
126,1.60e-04,
127,-1.60e-04,
128,1.60e-04,
129,-1.60e-04,
130,-8.00e-05,
131,2.40e-04,
132,1.60e-04,
133,-1.60e-04,
134,-2.40e-04,
135,1.60e-04,
136,8.00e-05,
137,-1.60e-04,
138,1.60e-04,
139,-1.60e-04,
140,-1.60e-04,
141,2.40e-04,
142,1.60e-04,
143,-1.60e-04,
144,-2.40e-04,
145,2.40e-04,
146,-8.00e-05,
147,2.00e-04,
148,-1.60e-04,
149,2.00e-04,
150,-8.00e-05,
151,2.00e-04,
152,-8.00e-05,
153,2.00e-04,
154,2.00e-04,
155,-2.40e-04,
156,2.00e-04,
157,-1.60e-04,
158,-1.60e-04,
159,1.60e-04,
160,-1.60e-04,
161,2.00e-04,
162,1.60e-04,
163,-8.00e-05,
164,-8.00e-05,
165,1.60e-04,
166,-1.60e-04,
167,1.60e-04,
168,1.60e-04,
169,-8.00e-05,
170,-1.60e-04,
171,2.40e-04,
172,-8.00e-05,
173,2.40e-04,
174,2.40e-04,
175,-1.60e-04,
176,-1.60e-04,
177,1.60e-04,
178,2.80e-04,
179,-8.00e-05,
180,-8.00e-05,
181,2.40e-04,
182,1.60e-04,
183,-1.60e-04,
184,2.40e-04,
185,-1.60e-04,
186,0.00e+00,
187,2.40e-04,
188,2.40e-04,
189,-8.00e-05,
190,-8.00e-05,
191,2.80e-04,
192,1.60e-04,
193,-1.60e-04,
194,2.40e-04,
195,-1.60e-04,
196,2.40e-04,
197,-1.60e-04,
198,-1.60e-04,
199,1.20e-04,
200,1.60e-04,
201,-1.60e-04,
202,1.60e-04,
203,-2.40e-04,
204,1.60e-04,
205,-8.00e-05,
206,1.20e-04,
207,-1.60e-04,
208,-1.60e-04,
209,1.60e-04,
210,1.60e-04,
211,-2.40e-04,
212,-1.60e-04,
213,8.00e-05,
214,-8.00e-05,
215,2.00e-04,
216,2.40e-04,
217,-1.60e-04,
218,1.60e-04,
219,-1.60e-04,
220,1.60e-04,
221,-1.60e-04,
222,-1.60e-04,
223,2.40e-04,
224,2.40e-04,
225,-1.60e-04,
226,1.60e-04,
227,-1.60e-04,
228,-8.00e-05,
229,1.20e-04,
230,2.00e-04,
231,-1.60e-04,
232,-2.40e-04,
233,1.60e-04,
234,1.60e-04,
235,-1.60e-04,
236,-8.00e-05,
237,1.60e-04,
238,1.60e-04,
239,-1.60e-04,
240,-8.00e-05,
241,1.60e-04,
242,-8.00e-05,
243,1.60e-04,
244,1.60e-04,
245,-8.00e-05,
246,-1.60e-04,
247,1.60e-04,
248,1.60e-04,
249,-1.60e-04,
250,1.60e-04,
251,-1.60e-04,
252,2.40e-04,
253,-1.60e-04,
254,-8.00e-05,
255,2.00e-04,
256,1.60e-04,
257,-1.60e-04,
258,-1.60e-04,
259,1.60e-04,
260,-8.00e-05,
261,2.00e-04,
262,-1.60e-04,
263,1.20e-04,
264,-1.60e-04,
265,1.60e-04,
266,2.40e-04,
267,-8.00e-05,
268,2.40e-04,
269,-8.00e-05,
270,2.00e-04,
271,-8.00e-05,
272,1.60e-04,
273,-8.00e-05,
274,-1.60e-04,
275,1.60e-04,
276,-1.60e-04,
277,2.40e-04,
278,2.00e-04,
279,-1.60e-04,
280,-1.60e-04,
281,2.40e-04,
282,2.00e-04,
283,-1.60e-04,
284,-8.00e-05,
285,1.60e-04,
286,1.60e-04,
287,-8.00e-05,
288,-8.00e-05,
289,2.00e-04,
290,1.60e-04,
291,-8.00e-05,
292,1.60e-04,
293,-1.60e-04,
294,1.60e-04,
295,-1.60e-04,
296,1.60e-04,
297,-8.00e-05,
298,-1.60e-04,
299,1.60e-04,
300,-1.60e-04,
301,2.00e-04,
302,1.60e-04,
303,-1.60e-04,
304,1.60e-04,
305,-1.60e-04,
306,2.40e-04,
307,-1.60e-04,
308,-1.60e-04,
309,1.60e-04,
310,-1.60e-04,
311,2.00e-04,
312,1.60e-04,
313,-1.60e-04,
314,1.20e-04,
315,-1.60e-04,
316,-1.60e-04,
317,1.60e-04,
318,-8.00e-05,
319,3.20e-04,
320,-8.00e-05,
321,2.40e-04,
322,2.40e-04,
323,-1.60e-04,
324,-8.00e-05,
325,2.40e-04,
326,1.60e-04,
327,-8.00e-05,
328,1.60e-04,
329,-1.60e-04,
330,-1.60e-04,
331,2.00e-04,
332,-1.60e-04,
333,1.60e-04,
334,1.60e-04,
335,-1.60e-04,
336,-1.60e-04,
337,2.00e-04,
338,1.60e-04,
339,-1.60e-04,
340,-8.00e-05,
341,2.40e-04,
342,-8.00e-05,
343,2.40e-04,
344,1.60e-04,
345,-1.60e-04,
346,2.40e-04,
347,-1.60e-04,
348,2.40e-04,
349,-1.60e-04,
350,2.00e-04,
351,-1.60e-04,
352,2.40e-04,
353,-1.60e-04,
354,-8.00e-05,
355,2.00e-04,
356,-8.00e-05,
357,2.40e-04,
358,1.60e-04,
359,-8.00e-05,
360,-8.00e-05,
361,1.60e-04,
362,1.60e-04,
363,-1.60e-04,
364,-1.60e-04,
365,2.40e-04,
366,-2.40e-04,
367,2.40e-04,
368,2.00e-04,
369,-8.00e-05,
370,2.00e-04,
371,-1.60e-04,
372,-1.60e-04,
373,2.40e-04,
374,-1.60e-04,
375,1.60e-04,
376,-8.00e-05,
377,2.40e-04,
378,2.00e-04,
379,-1.60e-04,
380,-8.00e-05,
381,2.00e-04,
382,-8.00e-05,
383,2.00e-04,
384,1.60e-04,
385,-1.60e-04,
386,2.00e-04,
387,-8.00e-05,
388,2.00e-04,
389,-1.60e-04,
390,2.40e-04,
391,-8.00e-05,
392,-8.00e-05,
393,1.60e-04,
394,0.00e+00,
395,2.40e-04,
396,-1.60e-04,
397,2.40e-04,
398,2.40e-04,
399,-1.60e-04,
400,3.20e-04,
401,-8.00e-05,
402,-8.00e-05,
403,1.60e-04,
404,2.40e-04,
405,-1.60e-04,
406,-1.60e-04,
407,1.60e-04,
408,1.60e-04,
409,-8.00e-05,
410,2.00e-04,
411,-1.60e-04,
412,1.60e-04,
413,-1.60e-04,
414,2.40e-04,
415,-8.00e-05,
416,1.20e-04,
417,-2.40e-04,
418,2.00e-04,
419,-1.60e-04,
420,1.60e-04,
421,-1.60e-04,
422,-8.00e-05,
423,2.00e-04,
424,2.40e-04,
425,-8.00e-05,
426,-8.00e-05,
427,2.00e-04,
428,1.60e-04,
429,-1.60e-04,
430,1.60e-04,
431,-1.60e-04,
432,-1.60e-04,
433,2.00e-04,
434,1.60e-04,
435,-1.60e-04,
436,-8.00e-05,
437,2.00e-04,
438,1.60e-04,
439,-1.60e-04,
440,-1.60e-04,
441,2.40e-04,
442,1.60e-04,
443,-8.00e-05,
444,1.60e-04,
445,-1.60e-04,
446,1.20e-04,
447,-1.60e-04,
448,-1.60e-04,
449,2.40e-04,
450,-1.60e-04,
451,2.40e-04,
452,1.60e-04,
453,-1.60e-04,
454,2.40e-04,
455,-1.60e-04,
456,1.60e-04,
457,-1.60e-04,
458,-1.60e-04,
459,1.60e-04,
460,1.60e-04,
461,-1.60e-04,
462,-2.40e-04,
463,2.40e-04,
464,-8.00e-05,
465,2.40e-04,
466,1.60e-04,
467,-1.60e-04,
468,2.80e-04,
469,-1.60e-04,
470,1.60e-04,
471,-8.00e-05,
472,2.40e-04,
473,-1.60e-04,
474,-8.00e-05,
475,2.00e-04,
476,1.60e-04,
477,-8.00e-05,
478,1.60e-04,
479,-1.60e-04,
480,2.40e-04,
481,-1.60e-04,
482,-1.60e-04,
483,2.00e-04,
484,2.40e-04,
485,-1.60e-04,
486,2.40e-04,
487,-2.40e-04,
488,2.00e-04,
489,-1.60e-04,
490,-1.60e-04,
491,2.00e-04,
492,-1.60e-04,
493,1.60e-04,
494,-1.60e-04,
495,2.40e-04,
496,-1.60e-04,
497,2.00e-04,
498,2.00e-04,
499,-1.60e-04,
500,1.60e-04,
501,-1.60e-04,
502,-1.60e-04,
503,1.60e-04,
504,-1.60e-04,
505,2.40e-04,
506,-1.60e-04,
507,2.00e-04,
508,2.40e-04,
509,-8.00e-05,
510,-1.60e-04,
511,1.20e-04,
512,8.00e-05,
513,-1.60e-04,
514,-1.60e-04,
515,2.40e-04,
516,2.00e-04,
517,-1.60e-04,
518,1.60e-04,
519,-1.60e-04,
520,8.00e-05,
521,-3.20e-04,
522,1.60e-04,
523,-2.40e-04,
524,1.60e-04,
525,-1.60e-04,
526,-1.60e-04,
527,2.00e-04,
528,-1.60e-04,
529,2.80e-04,
530,1.60e-04,
531,-8.00e-05,
532,-8.00e-05,
533,2.00e-04,
534,1.60e-04,
535,-1.60e-04,
536,-8.00e-05,
537,2.40e-04,
538,1.60e-04,
539,-8.00e-05,
540,-8.00e-05,
541,2.00e-04,
542,-8.00e-05,
543,1.60e-04,
544,1.60e-04,
545,-1.60e-04,
546,1.60e-04,
547,-1.60e-04,
548,1.60e-04,
549,-1.60e-04,
550,-1.60e-04,
551,1.60e-04,
552,-8.00e-05,
553,2.00e-04,
554,1.60e-04,
555,-8.00e-05,
556,1.60e-04,
557,-1.60e-04,
558,1.60e-04,
559,-1.60e-04,
560,-8.00e-05,
561,2.00e-04,
562,2.00e-04,
563,-8.00e-05,
564,-8.00e-05,
565,1.60e-04,
566,-1.60e-04,
567,2.00e-04,
568,-8.00e-05,
569,2.40e-04,
570,1.60e-04,
571,-1.60e-04,
572,2.00e-04,
573,-2.40e-04,
574,1.60e-04,
575,-2.40e-04,
576,-8.00e-05,
577,1.60e-04,
578,1.60e-04,
579,-1.60e-04,
580,-1.60e-04,
581,1.60e-04,
582,2.40e-04,
583,-1.60e-04,
584,1.60e-04,
585,-1.60e-04,
586,-1.60e-04,
587,1.60e-04,
588,2.00e-04,
589,-1.60e-04,
590,-1.60e-04,
591,1.60e-04,
592,-2.40e-04,
593,1.60e-04,
594,-2.40e-04,
595,1.20e-04,
596,-8.00e-05,
597,2.40e-04,
598,2.40e-04,
599,-1.60e-04,
600,1.60e-04,
601,-1.60e-04,
602,1.60e-04,
603,-1.60e-04,
604,8.00e-05,
605,-1.60e-04,
606,1.60e-04,
607,-1.60e-04,
608,2.40e-04,
609,-1.60e-04,
610,1.20e-04,
611,-1.60e-04,
612,-1.60e-04,
613,1.20e-04,
614,-8.00e-05,
615,2.80e-04,
616,-1.60e-04,
617,1.60e-04,
618,-1.60e-04,
619,2.40e-04,
620,2.80e-04,
621,-8.00e-05,
622,-1.60e-04,
623,1.60e-04,
624,-8.00e-05,
625,2.40e-04,
626,2.40e-04,
627,-1.60e-04,
628,1.60e-04,
629,-1.60e-04,
630,-8.00e-05,
631,2.00e-04,
632,1.60e-04,
633,-1.60e-04,
634,2.00e-04,
635,-1.60e-04,
636,1.60e-04,
637,-1.60e-04,
638,-1.60e-04,
639,2.40e-04,
640,1.60e-04,
641,-1.60e-04,
642,2.40e-04,
643,-1.60e-04,
644,1.60e-04,
645,-1.60e-04,
646,-1.60e-04,
647,2.00e-04,
648,2.40e-04,
649,-1.60e-04,
650,2.00e-04,
651,-1.60e-04,
652,-8.00e-05,
653,2.00e-04,
654,1.60e-04,
655,-1.60e-04,
656,-1.60e-04,
657,1.60e-04,
658,2.40e-04,
659,-1.60e-04,
660,-1.60e-04,
661,2.00e-04,
662,2.40e-04,
663,-8.00e-05,
664,1.60e-04,
665,-8.00e-05,
666,2.00e-04,
667,-1.60e-04,
668,1.60e-04,
669,-1.60e-04,
670,-8.00e-05,
671,2.00e-04,
672,1.60e-04,
673,-1.60e-04,
674,-1.60e-04,
675,2.40e-04,
676,1.60e-04,
677,-1.60e-04,
678,2.00e-04,
679,-8.00e-05,
680,-8.00e-05,
681,2.40e-04,
682,1.60e-04,
683,-1.60e-04,
684,-1.60e-04,
685,2.00e-04,
686,2.40e-04,
687,-8.00e-05,
688,3.20e-04,
689,-1.60e-04,
690,1.60e-04,
691,-8.00e-05,
692,-8.00e-05,
693,1.60e-04,
694,1.60e-04,
695,-1.60e-04,
696,1.60e-04,
697,-2.40e-04,
698,2.40e-04,
699,-1.60e-04,
700,-1.60e-04,
701,2.40e-04,
702,-1.60e-04,
703,2.40e-04,
704,2.40e-04,
705,-1.60e-04,
706,-8.00e-05,
707,1.60e-04,
708,1.20e-04,
709,-1.60e-04,
710,2.00e-04,
711,-1.60e-04,
712,1.60e-04,
713,-1.60e-04,
714,-8.00e-05,
715,1.60e-04,
716,-1.60e-04,
717,2.40e-04,
718,-1.60e-04,
719,2.40e-04,
720,-1.60e-04,
721,2.40e-04,
722,1.60e-04,
723,-1.60e-04,
724,1.60e-04,
725,-1.60e-04,
726,-1.60e-04,
727,2.00e-04,
728,-1.60e-04,
729,1.60e-04,
730,8.00e-05,
731,-1.60e-04,
732,2.40e-04,
733,-1.60e-04,
734,2.00e-04,
735,-1.60e-04,
736,-8.00e-05,
737,1.60e-04,
738,1.60e-04,
739,-1.60e-04,
740,-8.00e-05,
741,1.60e-04,
742,-8.00e-05,
743,1.60e-04,
744,1.60e-04,
745,-2.40e-04,
746,-8.00e-05,
747,1.60e-04,
748,1.60e-04,
749,-2.40e-04,
750,-1.60e-04,
751,2.40e-04,
752,-2.40e-04,
753,1.60e-04,
754,1.60e-04,
755,-1.60e-04,
756,1.60e-04,
757,-1.60e-04,
758,-8.00e-05,
759,1.60e-04,
760,2.40e-04,
761,-2.40e-04,
762,-2.40e-04,
763,1.60e-04,
764,-1.60e-04,
765,2.40e-04,
766,2.80e-04,
767,-8.00e-05,
768,-1.60e-04,
769,2.40e-04,
770,2.40e-04,
771,-1.60e-04,
772,-1.60e-04,
773,2.00e-04,
774,1.60e-04,
775,-1.60e-04,
776,2.40e-04,
777,-1.60e-04,
778,-1.60e-04,
779,2.00e-04,
780,-1.60e-04,
781,1.20e-04,
782,-1.60e-04,
783,1.20e-04,
784,1.60e-04,
785,-1.60e-04,
786,1.60e-04,
787,-1.60e-04,
788,2.40e-04,
789,-1.60e-04,
790,1.60e-04,
791,-1.60e-04,
792,1.60e-04,
793,-1.60e-04,
794,-1.60e-04,
795,8.00e-05,
796,2.40e-04,
797,-1.60e-04,
798,1.60e-04,
799,-1.60e-04,
800,-8.00e-05,
801,2.00e-04,
802,-1.60e-04,
803,1.60e-04,
804,-1.60e-04,
805,2.00e-04,
806,2.00e-04,
807,-1.60e-04,
808,2.40e-04,
809,-8.00e-05,
810,1.60e-04,
811,-8.00e-05,
812,-8.00e-05,
813,2.00e-04,
814,-1.60e-04,
815,1.60e-04,
816,-8.00e-05,
817,1.60e-04,
818,-1.60e-04,
819,2.40e-04,
820,1.60e-04,
821,-8.00e-05,
822,1.60e-04,
823,-1.60e-04,
824,-1.60e-04,
825,1.60e-04,
826,2.00e-04,
827,-8.00e-05,
828,-1.60e-04,
829,1.60e-04,
830,-8.00e-05,
831,1.60e-04,
832,2.40e-04,
833,-8.00e-05,
834,1.60e-04,
835,-1.60e-04,
836,2.00e-04,
837,-1.60e-04,
838,-8.00e-05,
839,2.40e-04,
840,1.60e-04,
841,-1.60e-04,
842,1.60e-04,
843,-1.60e-04,
844,-1.60e-04,
845,1.60e-04,
846,-1.60e-04,
847,2.00e-04,
848,-8.00e-05,
849,2.40e-04,
850,-1.60e-04,
851,2.00e-04,
852,-8.00e-05,
853,2.40e-04,
854,2.40e-04,
855,-1.60e-04,
856,1.60e-04,
857,-1.60e-04,
858,2.00e-04,
859,-1.60e-04,
860,-8.00e-05,
861,2.00e-04,
862,1.60e-04,
863,-1.60e-04,
864,1.60e-04,
865,-1.60e-04,
866,-2.40e-04,
867,2.40e-04,
868,-8.00e-05,
869,1.60e-04,
870,-8.00e-05,
871,1.60e-04,
872,1.60e-04,
873,-1.60e-04,
874,1.20e-04,
875,-1.60e-04,
876,-1.60e-04,
877,1.60e-04,
878,2.40e-04,
879,-1.60e-04,
880,1.60e-04,
881,-1.60e-04,
882,-8.00e-05,
883,2.00e-04,
884,2.00e-04,
885,-1.60e-04,
886,-1.60e-04,
887,1.60e-04,
888,-1.60e-04,
889,2.40e-04,
890,-1.60e-04,
891,2.00e-04,
892,-8.00e-05,
893,2.00e-04,
894,1.60e-04,
895,-1.60e-04,
896,2.40e-04,
897,-2.40e-04,
898,2.40e-04,
899,-1.60e-04,
900,1.60e-04,
901,-1.60e-04,
902,-1.60e-04,
903,2.80e-04,
904,-8.00e-05,
905,1.60e-04,
906,-1.60e-04,
907,1.60e-04,
908,2.00e-04,
909,-1.60e-04,
910,2.00e-04,
911,-1.60e-04,
912,2.40e-04,
913,-1.60e-04,
914,1.60e-04,
915,-1.60e-04,
916,1.60e-04,
917,-2.40e-04,
918,2.40e-04,
919,-1.60e-04,
920,1.60e-04,
921,-8.00e-05,
922,-8.00e-05,
923,1.60e-04,
924,-2.40e-04,
925,2.40e-04,
926,2.40e-04,
927,-8.00e-05,
928,-8.00e-05,
929,1.60e-04,
930,-1.60e-04,
931,2.00e-04,
932,-8.00e-05,
933,2.40e-04,
934,1.60e-04,
935,-1.60e-04,
936,-1.60e-04,
937,1.60e-04,
938,-1.60e-04,
939,1.60e-04,
940,-1.60e-04,
941,2.40e-04,
942,-1.60e-04,
943,2.40e-04,
944,-1.60e-04,
945,2.40e-04,
946,2.80e-04,
947,-8.00e-05,
948,1.60e-04,
949,-1.60e-04,
950,1.60e-04,
951,-2.40e-04,
952,2.80e-04,
953,-1.60e-04,
954,2.00e-04,
955,-1.60e-04,
956,1.20e-04,
957,-1.60e-04,
958,-8.00e-05,
959,2.40e-04,
960,-1.60e-04,
961,1.60e-04,
962,-2.40e-04,
963,2.40e-04,
964,1.60e-04,
965,-1.60e-04,
966,1.60e-04,
967,-2.40e-04,
968,-1.60e-04,
969,1.20e-04,
970,-1.60e-04,
971,2.40e-04,
972,3.20e-04,
973,-2.40e-04,
974,1.60e-04,
975,-2.40e-04,
976,2.00e-04,
977,-1.60e-04,
978,2.00e-04,
979,-1.60e-04,
980,-1.60e-04,
981,1.60e-04,
982,2.40e-04,
983,-1.60e-04,
984,2.40e-04,
985,-1.60e-04,
986,-1.60e-04,
987,2.40e-04,
988,-8.00e-05,
989,2.40e-04,
990,2.40e-04,
991,-1.60e-04,
992,-8.00e-05,
993,2.40e-04,
994,2.80e-04,
995,-8.00e-05,
996,-1.60e-04,
997,2.00e-04,
998,-8.00e-05,
999,1.60e-04,
1000,2.00e-04,
1001,-8.00e-05,
1002,2.40e-04,
1003,-8.00e-05,
1004,1.60e-04,
1005,-1.60e-04,
1006,2.40e-04,
1007,-1.60e-04,
1008,-1.60e-04,
1009,1.60e-04,
1010,2.40e-04,
1011,-8.00e-05,
1012,-1.60e-04,
1013,2.00e-04,
1014,-1.60e-04,
1015,1.60e-04,
1016,-1.60e-04,
1017,2.40e-04,
1018,1.60e-04,
1019,-8.00e-05,
1020,2.00e-04,
1021,-1.60e-04,
1022,2.00e-04,
1023,-2.40e-04,
1024,-8.00e-05,
1025,2.00e-04,
1026,-1.60e-04,
1027,2.00e-04,
1028,2.00e-04,
1029,-8.00e-05,
1030,2.40e-04,
1031,-8.00e-05,
1032,2.40e-04,
1033,-1.60e-04,
1034,1.60e-04,
1035,-1.60e-04,
1036,2.40e-04,
1037,-1.60e-04,
1038,2.40e-04,
1039,-1.60e-04,
1040,-8.00e-05,
1041,2.40e-04,
1042,-8.00e-05,
1043,1.60e-04,
1044,-8.00e-05,
1045,2.40e-04,
1046,2.00e-04,
1047,-8.00e-05,
1048,2.00e-04,
1049,-1.60e-04,
1050,1.60e-04,
1051,-8.00e-05,
1052,2.40e-04,
1053,-1.60e-04,
1054,1.60e-04,
1055,-1.60e-04,
1056,-8.00e-05,
1057,1.60e-04,
1058,1.60e-04,
1059,-1.60e-04,
1060,-8.00e-05,
1061,2.40e-04,
1062,-8.00e-05,
1063,2.00e-04,
1064,2.40e-04,
1065,-1.60e-04,
1066,-1.60e-04,
1067,1.60e-04,
1068,1.60e-04,
1069,-1.60e-04,
1070,-8.00e-05,
1071,2.40e-04,
1072,1.60e-04,
1073,-1.60e-04,
1074,1.60e-04,
1075,-1.60e-04,
1076,-1.60e-04,
1077,1.60e-04,
1078,1.60e-04,
1079,-1.60e-04,
1080,-1.60e-04,
1081,1.60e-04,
1082,2.00e-04,
1083,-8.00e-05,
1084,2.00e-04,
1085,-8.00e-05,
1086,-8.00e-05,
1087,2.40e-04,
1088,-1.60e-04,
1089,2.40e-04,
1090,1.60e-04,
1091,-8.00e-05,
1092,2.40e-04,
1093,-1.60e-04,
1094,-1.60e-04,
1095,1.60e-04,
1096,1.60e-04,
1097,-1.60e-04,
1098,-1.60e-04,
1099,2.00e-04,
1100,-1.60e-04,
1101,2.00e-04,
1102,-8.00e-05,
1103,1.60e-04,
1104,-1.60e-04,
1105,1.60e-04,
1106,2.00e-04,
1107,-8.00e-05,
1108,-1.60e-04,
1109,1.60e-04,
1110,-1.60e-04,
1111,1.60e-04,
1112,2.40e-04,
1113,-8.00e-05,
1114,-1.60e-04,
1115,1.60e-04,
1116,-8.00e-05,
1117,1.60e-04,
1118,2.00e-04,
1119,-1.60e-04,
1120,-1.60e-04,
1121,1.60e-04,
1122,1.60e-04,
1123,-1.60e-04,
1124,1.20e-04,
1125,-1.60e-04,
1126,1.20e-04,
1127,-1.60e-04,
1128,1.60e-04,
1129,-1.60e-04,
1130,2.00e-04,
1131,-1.60e-04,
1132,-2.40e-04,
1133,2.40e-04,
1134,2.40e-04,
1135,-1.60e-04,
1136,-8.00e-05,
1137,1.60e-04,
1138,-8.00e-05,
1139,2.40e-04,
1140,-1.60e-04,
1141,2.40e-04,
1142,1.60e-04,
1143,-1.60e-04,
1144,1.20e-04,
1145,-1.60e-04,
1146,-1.60e-04,
1147,2.00e-04,
1148,-1.60e-04,
1149,3.20e-04,
1150,2.40e-04,
1151,-1.60e-04,
1152,-8.00e-05,
1153,2.00e-04,
1154,1.60e-04,
1155,-1.60e-04,
1156,-1.60e-04,
1157,1.60e-04,
1158,2.40e-04,
1159,-8.00e-05,
1160,1.60e-04,
1161,-8.00e-05,
1162,-8.00e-05,
1163,2.00e-04,
1164,0.00e+00,
1165,2.40e-04,
1166,2.40e-04,
1167,-8.00e-05,
1168,-8.00e-05,
1169,2.40e-04,
1170,-8.00e-05,
1171,2.40e-04,
1172,2.00e-04,
1173,-8.00e-05,
1174,-8.00e-05,
1175,1.60e-04,
1176,2.00e-04,
1177,-8.00e-05,
1178,0.00e+00,
1179,3.20e-04,
1180,-8.00e-05,
1181,3.20e-04,
1182,2.40e-04,
1183,-1.60e-04,
1184,-8.00e-05,
1185,2.40e-04,
1186,1.60e-04,
1187,-8.00e-05,
1188,0.00e+00,
1189,2.40e-04,
1190,1.60e-04,
1191,-1.60e-04,
1192,-8.00e-05,
1193,2.40e-04,
1194,1.20e-04,
1195,-1.60e-04,
1196,-8.00e-05,
1197,2.40e-04,
1198,2.40e-04,
1199,-1.60e-04,
