fastdiffamp/data-noise-set/unb-right-demod-comp/NewFile5.csv

X,CH1,Start,Increment,
Sequence,Volt,-5.490000e+00,1.000000e-02
0,-1.20e-04,
1,2.80e-04,
2,-4.00e-05,
3,2.00e-04,
4,-4.00e-05,
5,2.80e-04,
6,2.00e-04,
7,-4.00e-05,
8,2.40e-04,
9,-1.20e-04,
10,2.00e-04,
11,-4.00e-05,
12,2.00e-04,
13,-4.00e-05,
14,-1.20e-04,
15,2.80e-04,
16,2.80e-04,
17,-4.00e-05,
18,2.80e-04,
19,-4.00e-05,
20,-4.00e-05,
21,2.80e-04,
22,2.80e-04,
23,-4.00e-05,
24,-4.00e-05,
25,2.40e-04,
26,-1.20e-04,
27,2.40e-04,
28,-4.00e-05,
29,2.40e-04,
30,-4.00e-05,
31,2.80e-04,
32,2.80e-04,
33,-1.20e-04,
34,-4.00e-05,
35,2.80e-04,
36,-4.00e-05,
37,2.80e-04,
38,2.00e-04,
39,-1.20e-04,
40,2.00e-04,
41,-1.20e-04,
42,-4.00e-05,
43,3.60e-04,
44,-4.00e-05,
45,2.80e-04,
46,-4.00e-05,
47,2.80e-04,
48,-4.00e-05,
49,2.40e-04,
50,-4.00e-05,
51,2.80e-04,
52,2.40e-04,
53,-4.00e-05,
54,-4.00e-05,
55,2.00e-04,
56,-4.00e-05,
57,2.80e-04,
58,2.40e-04,
59,-1.20e-04,
60,2.80e-04,
61,-4.00e-05,
62,-4.00e-05,
63,2.80e-04,
64,-1.20e-04,
65,2.80e-04,
66,-4.00e-05,
67,2.00e-04,
68,-4.00e-05,
69,2.40e-04,
70,2.00e-04,
71,-4.00e-05,
72,-1.20e-04,
73,2.80e-04,
74,-1.20e-04,
75,3.60e-04,
76,2.00e-04,
77,-1.20e-04,
78,2.40e-04,
79,-4.00e-05,
80,-1.20e-04,
81,2.80e-04,
82,2.80e-04,
83,-4.00e-05,
84,-1.20e-04,
85,2.40e-04,
86,-4.00e-05,
87,2.80e-04,
88,2.00e-04,
89,-1.20e-04,
90,-2.00e-04,
91,2.00e-04,
92,2.80e-04,
93,-4.00e-05,
94,-4.00e-05,
95,2.80e-04,
96,-1.20e-04,
97,2.00e-04,
98,2.00e-04,
99,-1.20e-04,
100,-4.00e-05,
101,2.80e-04,
102,-1.20e-04,
103,2.00e-04,
104,-4.00e-05,
105,2.40e-04,
106,-1.20e-04,
107,2.00e-04,
108,2.00e-04,
109,-1.20e-04,
110,1.60e-04,
111,-4.00e-05,
112,-4.00e-05,
113,2.80e-04,
114,-4.00e-05,
115,2.80e-04,
116,2.00e-04,
117,-8.00e-05,
118,2.00e-04,
119,-4.00e-05,
120,-4.00e-05,
121,2.00e-04,
122,2.00e-04,
123,-2.00e-04,
124,2.00e-04,
125,-4.00e-05,
126,2.00e-04,
127,-1.20e-04,
128,2.80e-04,
129,-4.00e-05,
130,-4.00e-05,
131,2.40e-04,
132,-4.00e-05,
133,2.80e-04,
134,-1.20e-04,
135,2.00e-04,
136,1.60e-04,
137,-1.20e-04,
138,-1.20e-04,
139,2.00e-04,
140,2.00e-04,
141,-1.20e-04,
142,2.00e-04,
143,-1.20e-04,
144,-1.20e-04,
145,2.00e-04,
146,-4.00e-05,
147,2.40e-04,
148,-4.00e-05,
149,2.80e-04,
150,-1.20e-04,
151,2.00e-04,
152,-1.20e-04,
153,2.00e-04,
154,2.00e-04,
155,-1.20e-04,
156,-4.00e-05,
157,2.40e-04,
158,2.80e-04,
159,-1.20e-04,
160,-1.20e-04,
161,2.80e-04,
162,2.80e-04,
163,-1.20e-04,
164,-4.00e-05,
165,2.80e-04,
166,-1.20e-04,
167,2.00e-04,
168,2.00e-04,
169,-1.20e-04,
170,-4.00e-05,
171,2.00e-04,
172,-1.20e-04,
173,2.40e-04,
174,2.00e-04,
175,-1.20e-04,
176,2.00e-04,
177,-4.00e-05,
178,3.20e-04,
179,-4.00e-05,
180,2.00e-04,
181,-1.20e-04,
182,3.60e-04,
183,-4.00e-05,
184,2.80e-04,
185,-1.20e-04,
186,2.00e-04,
187,-1.20e-04,
188,-4.00e-05,
189,2.40e-04,
190,-4.00e-05,
191,2.40e-04,
192,-4.00e-05,
193,2.00e-04,
194,2.80e-04,
195,-1.20e-04,
196,2.00e-04,
197,-4.00e-05,
198,2.00e-04,
199,-1.20e-04,
200,-1.20e-04,
201,2.80e-04,
202,-1.20e-04,
203,2.80e-04,
204,-4.00e-05,
205,2.00e-04,
206,2.00e-04,
207,-1.20e-04,
208,2.80e-04,
209,-4.00e-05,
210,2.80e-04,
211,-4.00e-05,
212,2.80e-04,
213,-4.00e-05,
214,2.00e-04,
215,-4.00e-05,
216,-4.00e-05,
217,2.40e-04,
218,-4.00e-05,
219,2.40e-04,
220,-1.20e-04,
221,2.80e-04,
222,-4.00e-05,
223,2.80e-04,
224,-1.20e-04,
225,2.80e-04,
226,-1.20e-04,
227,2.00e-04,
228,-2.00e-04,
229,2.80e-04,
230,2.40e-04,
231,-4.00e-05,
232,-4.00e-05,
233,2.80e-04,
234,-4.00e-05,
235,2.80e-04,
236,-4.00e-05,
237,2.40e-04,
238,-4.00e-05,
239,2.80e-04,
240,-1.20e-04,
241,2.00e-04,
242,-1.20e-04,
243,2.00e-04,
244,-1.20e-04,
245,2.00e-04,
246,-4.00e-05,
247,2.40e-04,
248,-4.00e-05,
249,2.80e-04,
250,-1.20e-04,
251,2.40e-04,
252,-4.00e-05,
253,2.00e-04,
254,-4.00e-05,
255,2.00e-04,
256,-4.00e-05,
257,2.80e-04,
258,-1.20e-04,
259,2.00e-04,
260,2.80e-04,
261,-4.00e-05,
262,-4.00e-05,
263,2.80e-04,
264,-4.00e-05,
265,2.80e-04,
266,-1.20e-04,
267,2.80e-04,
268,-1.20e-04,
269,3.60e-04,
270,2.80e-04,
271,-4.00e-05,
272,2.80e-04,
273,-1.20e-04,
274,-1.20e-04,
275,2.40e-04,
276,2.80e-04,
277,-1.20e-04,
278,-4.00e-05,
279,2.80e-04,
280,-4.00e-05,
281,2.80e-04,
282,2.80e-04,
283,-4.00e-05,
284,-4.00e-05,
285,2.00e-04,
286,-1.20e-04,
287,2.00e-04,
288,4.00e-05,
289,2.80e-04,
290,2.00e-04,
291,-4.00e-05,
292,-1.20e-04,
293,2.00e-04,
294,2.40e-04,
295,-1.20e-04,
296,4.00e-05,
297,2.80e-04,
298,-4.00e-05,
299,2.80e-04,
300,-4.00e-05,
301,2.40e-04,
302,-4.00e-05,
303,2.80e-04,
304,2.00e-04,
305,-1.20e-04,
306,2.00e-04,
307,-8.00e-05,
308,2.80e-04,
309,-1.20e-04,
310,2.00e-04,
311,-4.00e-05,
312,-4.00e-05,
313,2.80e-04,
314,2.00e-04,
315,-1.20e-04,
316,-4.00e-05,
317,2.40e-04,
318,-4.00e-05,
319,2.80e-04,
320,-4.00e-05,
321,2.80e-04,
322,-1.20e-04,
323,2.80e-04,
324,-2.00e-04,
325,2.80e-04,
326,2.80e-04,
327,-1.20e-04,
328,-4.00e-05,
329,2.00e-04,
330,2.00e-04,
331,-1.20e-04,
332,-1.20e-04,
333,2.00e-04,
334,-4.00e-05,
335,2.40e-04,
336,-1.20e-04,
337,2.00e-04,
338,2.80e-04,
339,-1.20e-04,
340,-1.20e-04,
341,2.00e-04,
342,2.00e-04,
343,-1.20e-04,
344,-1.20e-04,
345,2.00e-04,
346,-4.00e-05,
347,2.40e-04,
348,-1.20e-04,
349,2.80e-04,
350,-1.20e-04,
351,2.00e-04,
352,-4.00e-05,
353,2.80e-04,
354,-4.00e-05,
355,2.80e-04,
356,2.80e-04,
357,-4.00e-05,
358,3.60e-04,
359,-1.20e-04,
360,-4.00e-05,
361,2.40e-04,
362,-4.00e-05,
363,2.80e-04,
364,-4.00e-05,
365,2.80e-04,
366,-4.00e-05,
367,2.80e-04,
368,2.80e-04,
369,-1.20e-04,
370,2.80e-04,
371,-4.00e-05,
372,4.00e-05,
373,2.40e-04,
374,2.80e-04,
375,-1.20e-04,
376,-4.00e-05,
377,2.80e-04,
378,4.00e-05,
379,2.80e-04,
380,-4.00e-05,
381,2.80e-04,
382,-4.00e-05,
383,2.80e-04,
384,2.80e-04,
385,-4.00e-05,
386,-1.20e-04,
387,2.00e-04,
388,-4.00e-05,
389,2.40e-04,
390,-4.00e-05,
391,2.80e-04,
392,3.60e-04,
393,-4.00e-05,
394,-4.00e-05,
395,2.00e-04,
396,-1.20e-04,
397,2.40e-04,
398,2.80e-04,
399,-1.20e-04,
400,2.80e-04,
401,-4.00e-05,
402,2.80e-04,
403,-4.00e-05,
404,-4.00e-05,
405,2.00e-04,
406,-4.00e-05,
407,2.80e-04,
408,-1.20e-04,
409,2.80e-04,
410,2.40e-04,
411,-4.00e-05,
412,2.00e-04,
413,-1.20e-04,
414,2.00e-04,
415,-8.00e-05,
416,2.40e-04,
417,-4.00e-05,
418,-4.00e-05,
419,2.80e-04,
420,2.00e-04,
421,-1.20e-04,
422,-1.20e-04,
423,2.80e-04,
424,-4.00e-05,
425,2.80e-04,
426,2.80e-04,
427,-4.00e-05,
428,-1.20e-04,
429,2.80e-04,
430,-4.00e-05,
431,2.80e-04,
432,-1.20e-04,
433,2.00e-04,
434,2.00e-04,
435,-4.00e-05,
436,-1.20e-04,
437,2.00e-04,
438,-1.20e-04,
439,2.40e-04,
440,-4.00e-05,
441,2.40e-04,
442,-4.00e-05,
443,2.00e-04,
444,-4.00e-05,
445,2.80e-04,
446,-4.00e-05,
447,2.80e-04,
448,-4.00e-05,
449,2.80e-04,
450,-4.00e-05,
451,2.80e-04,
452,2.00e-04,
453,-2.00e-04,
454,-4.00e-05,
455,2.80e-04,
456,-1.20e-04,
457,2.40e-04,
458,-4.00e-05,
459,2.80e-04,
460,-1.20e-04,
461,2.00e-04,
462,-1.20e-04,
463,2.00e-04,
464,4.00e-05,
465,2.80e-04,
466,-4.00e-05,
467,2.80e-04,
468,-4.00e-05,
469,2.80e-04,
470,2.80e-04,
471,-1.20e-04,
472,2.00e-04,
473,-1.20e-04,
474,2.80e-04,
475,-4.00e-05,
476,2.00e-04,
477,-4.00e-05,
478,-4.00e-05,
479,2.80e-04,
480,2.80e-04,
481,4.00e-05,
482,2.80e-04,
483,-1.20e-04,
484,-1.20e-04,
485,2.40e-04,
486,-4.00e-05,
487,2.40e-04,
488,-4.00e-05,
489,2.80e-04,
490,-4.00e-05,
491,3.60e-04,
492,-4.00e-05,
493,2.80e-04,
494,-1.20e-04,
495,3.20e-04,
496,-1.20e-04,
497,2.80e-04,
498,2.00e-04,
499,-4.00e-05,
500,2.80e-04,
501,-4.00e-05,
502,-1.20e-04,
503,2.40e-04,
504,2.00e-04,
505,-4.00e-05,
506,2.80e-04,
507,-4.00e-05,
508,-4.00e-05,
509,2.80e-04,
510,-4.00e-05,
511,3.60e-04,
512,-1.20e-04,
513,2.80e-04,
514,-1.20e-04,
515,2.80e-04,
516,2.80e-04,
517,-4.00e-05,
518,2.00e-04,
519,-4.00e-05,
520,-1.20e-04,
521,2.00e-04,
522,2.00e-04,
523,-1.20e-04,
524,-1.20e-04,
525,2.80e-04,
526,2.00e-04,
527,-1.20e-04,
528,2.00e-04,
529,-1.20e-04,
530,-4.00e-05,
531,2.80e-04,
532,-1.20e-04,
533,2.00e-04,
534,2.40e-04,
535,-1.20e-04,
536,-4.00e-05,
537,2.80e-04,
538,2.00e-04,
539,-4.00e-05,
540,2.40e-04,
541,-8.00e-05,
542,3.60e-04,
543,-1.20e-04,
544,-4.00e-05,
545,2.40e-04,
546,-4.00e-05,
547,2.80e-04,
548,2.80e-04,
549,-1.20e-04,
550,2.80e-04,
551,-4.00e-05,
552,2.80e-04,
553,-4.00e-05,
554,-1.20e-04,
555,2.80e-04,
556,2.80e-04,
557,-1.20e-04,
558,-4.00e-05,
559,2.80e-04,
560,2.00e-04,
561,-1.20e-04,
562,-1.20e-04,
563,2.40e-04,
564,-4.00e-05,
565,2.00e-04,
566,-1.20e-04,
567,2.00e-04,
568,1.60e-04,
569,-1.20e-04,
570,-1.20e-04,
571,2.80e-04,
572,2.40e-04,
573,-1.20e-04,
574,-4.00e-05,
575,2.40e-04,
576,2.80e-04,
577,-1.20e-04,
578,-1.20e-04,
579,2.80e-04,
580,-4.00e-05,
581,2.00e-04,
582,-4.00e-05,
583,2.00e-04,
584,2.40e-04,
585,-4.00e-05,
586,-4.00e-05,
587,2.80e-04,
588,-1.20e-04,
589,2.00e-04,
590,-4.00e-05,
591,2.40e-04,
592,-4.00e-05,
593,3.20e-04,
594,2.00e-04,
595,-1.20e-04,
596,-1.20e-04,
597,2.00e-04,
598,-4.00e-05,
599,2.00e-04,
600,-1.20e-04,
601,2.80e-04,
602,-1.20e-04,
603,2.40e-04,
604,-2.00e-04,
605,2.00e-04,
606,2.00e-04,
607,-1.20e-04,
608,-4.00e-05,
609,1.60e-04,
610,-1.20e-04,
611,2.80e-04,
612,-1.20e-04,
613,2.80e-04,
614,2.80e-04,
615,-1.20e-04,
616,2.00e-04,
617,-1.20e-04,
618,-1.20e-04,
619,2.80e-04,
620,2.00e-04,
621,-1.20e-04,
622,-4.00e-05,
623,3.20e-04,
624,2.80e-04,
625,-4.00e-05,
626,2.80e-04,
627,-4.00e-05,
628,2.00e-04,
629,-1.20e-04,
630,-4.00e-05,
631,2.80e-04,
632,-4.00e-05,
633,2.80e-04,
634,2.40e-04,
635,-4.00e-05,
636,2.80e-04,
637,-1.20e-04,
638,3.20e-04,
639,-1.20e-04,
640,3.60e-04,
641,-1.20e-04,
642,-4.00e-05,
643,2.40e-04,
644,-4.00e-05,
645,2.80e-04,
646,-1.20e-04,
647,2.00e-04,
648,-1.20e-04,
649,2.80e-04,
650,-1.20e-04,
651,2.00e-04,
652,2.80e-04,
653,-2.00e-04,
654,-2.00e-04,
655,2.00e-04,
656,2.80e-04,
657,-1.20e-04,
658,2.00e-04,
659,-1.20e-04,
660,2.00e-04,
661,-1.20e-04,
662,-4.00e-05,
663,2.80e-04,
664,2.00e-04,
665,-1.20e-04,
666,-4.00e-05,
667,2.80e-04,
668,-4.00e-05,
669,3.60e-04,
670,2.40e-04,
671,-4.00e-05,
672,-1.20e-04,
673,2.80e-04,
674,-1.20e-04,
675,2.40e-04,
676,-4.00e-05,
677,2.80e-04,
678,2.80e-04,
679,-1.20e-04,
680,2.40e-04,
681,-1.20e-04,
682,2.80e-04,
683,-2.00e-04,
684,2.00e-04,
685,-4.00e-05,
686,-1.20e-04,
687,2.80e-04,
688,2.00e-04,
689,-1.20e-04,
690,-1.20e-04,
691,2.00e-04,
692,-4.00e-05,
693,2.80e-04,
694,-4.00e-05,
695,2.80e-04,
696,-1.20e-04,
697,2.80e-04,
698,2.80e-04,
699,-2.00e-04,
700,-4.00e-05,
701,2.00e-04,
702,-1.20e-04,
703,2.00e-04,
704,-4.00e-05,
705,2.00e-04,
706,-1.20e-04,
707,2.00e-04,
708,-1.20e-04,
709,2.80e-04,
710,2.80e-04,
711,-4.00e-05,
712,2.80e-04,
713,-1.20e-04,
714,-1.20e-04,
715,2.40e-04,
716,-2.80e-04,
717,2.80e-04,
718,2.80e-04,
719,-4.00e-05,
720,-4.00e-05,
721,2.00e-04,
722,2.00e-04,
723,-1.20e-04,
724,1.20e-04,
725,-1.20e-04,
726,-4.00e-05,
727,2.00e-04,
728,2.80e-04,
729,-4.00e-05,
730,2.00e-04,
731,-1.20e-04,
732,-2.00e-04,
733,2.80e-04,
734,-1.20e-04,
735,2.80e-04,
736,2.40e-04,
737,-1.20e-04,
738,2.00e-04,
739,-1.20e-04,
740,-1.20e-04,
741,2.80e-04,
742,-1.20e-04,
743,2.80e-04,
744,-4.00e-05,
745,2.80e-04,
746,-4.00e-05,
747,3.60e-04,
748,-1.20e-04,
749,2.80e-04,
750,2.80e-04,
751,-1.20e-04,
752,-1.20e-04,
753,2.80e-04,
754,2.00e-04,
755,-1.20e-04,
756,2.00e-04,
757,-1.20e-04,
758,-2.00e-04,
759,2.00e-04,
760,-2.00e-04,
761,2.00e-04,
762,-4.00e-05,
763,2.00e-04,
764,2.80e-04,
765,-8.00e-05,
766,2.80e-04,
767,-1.20e-04,
768,3.60e-04,
769,-1.20e-04,
770,-1.20e-04,
771,2.00e-04,
772,2.00e-04,
773,-1.20e-04,
774,-1.20e-04,
775,2.80e-04,
776,-1.20e-04,
777,2.00e-04,
778,2.00e-04,
779,-4.00e-05,
780,2.80e-04,
781,-4.00e-05,
782,-1.20e-04,
783,2.80e-04,
784,2.80e-04,
785,-2.00e-04,
786,-4.00e-05,
787,2.80e-04,
788,-4.00e-05,
789,2.00e-04,
790,-1.20e-04,
791,2.00e-04,
792,2.80e-04,
793,-4.00e-05,
794,-4.00e-05,
795,2.00e-04,
796,-2.00e-04,
797,2.80e-04,
798,-1.20e-04,
799,2.80e-04,
800,-1.20e-04,
801,2.00e-04,
802,-1.20e-04,
803,2.40e-04,
804,1.20e-04,
805,-1.20e-04,
806,-1.20e-04,
807,2.40e-04,
808,-1.20e-04,
809,2.80e-04,
810,-1.20e-04,
811,2.00e-04,
812,-2.00e-04,
813,2.40e-04,
814,-2.00e-04,
815,2.00e-04,
816,-1.20e-04,
817,2.00e-04,
818,-1.20e-04,
819,2.80e-04,
820,2.00e-04,
821,-1.20e-04,
822,2.80e-04,
823,-2.00e-04,
824,-2.00e-04,
825,1.60e-04,
826,2.80e-04,
827,-1.20e-04,
828,-4.00e-05,
829,2.80e-04,
830,-4.00e-05,
831,2.00e-04,
832,-4.00e-05,
833,3.60e-04,
834,-1.20e-04,
835,2.00e-04,
836,2.00e-04,
837,-1.20e-04,
838,-1.20e-04,
839,2.40e-04,
840,-1.20e-04,
841,2.00e-04,
842,-1.20e-04,
843,2.80e-04,
844,-1.20e-04,
845,2.00e-04,
846,2.80e-04,
847,-1.20e-04,
848,2.80e-04,
849,-1.20e-04,
850,-1.20e-04,
851,2.40e-04,
852,-1.20e-04,
853,2.80e-04,
854,2.40e-04,
855,-1.20e-04,
856,2.00e-04,
857,-1.20e-04,
858,-1.20e-04,
859,2.00e-04,
860,-1.20e-04,
861,2.40e-04,
862,2.80e-04,
863,-2.00e-04,
864,2.40e-04,
865,-1.20e-04,
866,-4.00e-05,
867,2.00e-04,
868,2.80e-04,
869,-1.20e-04,
870,-1.20e-04,
871,2.40e-04,
872,-1.20e-04,
873,2.80e-04,
874,2.80e-04,
875,-2.00e-04,
876,-1.20e-04,
877,2.80e-04,
878,3.60e-04,
879,-1.20e-04,
880,2.00e-04,
881,-2.00e-04,
882,-4.00e-05,
883,2.00e-04,
884,-4.00e-05,
885,2.00e-04,
886,-4.00e-05,
887,2.80e-04,
888,-1.20e-04,
889,2.80e-04,
890,2.00e-04,
891,-2.00e-04,
892,2.40e-04,
893,-1.20e-04,
894,-4.00e-05,
895,2.00e-04,
896,2.00e-04,
897,-1.20e-04,
898,2.00e-04,
899,-1.20e-04,
900,-2.00e-04,
901,2.80e-04,
902,2.40e-04,
903,-4.00e-05,
904,-4.00e-05,
905,2.00e-04,
906,2.00e-04,
907,-2.00e-04,
908,2.40e-04,
909,-4.00e-05,
910,2.00e-04,
911,-1.20e-04,
912,-1.20e-04,
913,2.40e-04,
914,2.00e-04,
915,-4.00e-05,
916,-4.00e-05,
917,2.80e-04,
918,2.80e-04,
919,-4.00e-05,
920,-4.00e-05,
921,2.00e-04,
922,-4.00e-05,
923,3.60e-04,
924,2.00e-04,
925,-4.00e-05,
926,4.00e-05,
927,2.40e-04,
928,-1.20e-04,
929,2.00e-04,
930,-1.20e-04,
931,2.40e-04,
932,2.80e-04,
933,-1.20e-04,
934,-4.00e-05,
935,2.40e-04,
936,-4.00e-05,
937,2.80e-04,
938,3.60e-04,
939,-1.20e-04,
940,-4.00e-05,
941,2.80e-04,
942,-4.00e-05,
943,3.60e-04,
944,-4.00e-05,
945,2.00e-04,
946,-1.20e-04,
947,2.80e-04,
948,-4.00e-05,
949,2.80e-04,
950,2.80e-04,
951,-4.00e-05,
952,-4.00e-05,
953,2.80e-04,
954,-1.20e-04,
955,3.60e-04,
956,2.80e-04,
957,-4.00e-05,
958,2.80e-04,
959,-4.00e-05,
960,2.80e-04,
961,-4.00e-05,
962,-4.00e-05,
963,2.40e-04,
964,2.80e-04,
965,-4.00e-05,
966,2.80e-04,
967,-1.20e-04,
968,3.60e-04,
969,-4.00e-05,
970,-1.20e-04,
971,3.60e-04,
972,-4.00e-05,
973,2.40e-04,
974,2.00e-04,
975,-1.20e-04,
976,2.80e-04,
977,-4.00e-05,
978,2.00e-04,
979,-4.00e-05,
980,-1.20e-04,
981,2.80e-04,
982,-4.00e-05,
983,2.80e-04,
984,-1.20e-04,
985,2.80e-04,
986,2.80e-04,
987,-1.20e-04,
988,-1.20e-04,
989,2.80e-04,
990,-1.20e-04,
991,2.80e-04,
992,-4.00e-05,
993,2.80e-04,
994,2.80e-04,
995,-4.00e-05,
996,4.00e-05,
997,3.60e-04,
998,2.80e-04,
999,-4.00e-05,
1000,2.80e-04,
1001,-2.00e-04,
1002,-1.20e-04,
1003,2.80e-04,
1004,-4.00e-05,
1005,2.80e-04,
1006,2.40e-04,
1007,-4.00e-05,
1008,-1.20e-04,
1009,2.40e-04,
1010,2.00e-04,
1011,-4.00e-05,
1012,-4.00e-05,
1013,2.40e-04,
1014,-4.00e-05,
1015,3.60e-04,
1016,-4.00e-05,
1017,2.00e-04,
1018,-4.00e-05,
1019,2.80e-04,
1020,-4.00e-05,
1021,2.80e-04,
1022,-4.00e-05,
1023,2.80e-04,
1024,-1.20e-04,
1025,2.80e-04,
1026,2.80e-04,
1027,-1.20e-04,
1028,-4.00e-05,
1029,2.80e-04,
1030,-1.20e-04,
1031,3.60e-04,
1032,2.80e-04,
1033,-4.00e-05,
1034,2.80e-04,
1035,-4.00e-05,
1036,-1.20e-04,
1037,2.40e-04,
1038,-1.20e-04,
1039,2.80e-04,
1040,2.80e-04,
1041,-4.00e-05,
1042,2.80e-04,
1043,-4.00e-05,
1044,-4.00e-05,
1045,2.80e-04,
1046,2.80e-04,
1047,-4.00e-05,
1048,2.80e-04,
1049,-4.00e-05,
1050,2.80e-04,
1051,-1.20e-04,
1052,-1.20e-04,
1053,3.60e-04,
1054,-4.00e-05,
1055,2.80e-04,
1056,-1.20e-04,
1057,2.80e-04,
1058,2.40e-04,
1059,-1.20e-04,
1060,-1.20e-04,
1061,2.40e-04,
1062,2.80e-04,
1063,-4.00e-05,
1064,2.80e-04,
1065,-8.00e-05,
1066,-1.20e-04,
1067,2.80e-04,
1068,-4.00e-05,
1069,2.80e-04,
1070,-1.20e-04,
1071,2.00e-04,
1072,-4.00e-05,
1073,3.60e-04,
1074,-1.20e-04,
1075,2.80e-04,
1076,-4.00e-05,
1077,2.40e-04,
1078,4.00e-05,
1079,2.80e-04,
1080,-4.00e-05,
1081,2.80e-04,
1082,-4.00e-05,
1083,3.20e-04,
1084,3.60e-04,
1085,-4.00e-05,
1086,2.80e-04,
1087,-1.20e-04,
1088,2.80e-04,
1089,-1.20e-04,
1090,2.40e-04,
1091,-1.20e-04,
1092,-1.20e-04,
1093,2.80e-04,
1094,-1.20e-04,
1095,2.80e-04,
1096,-1.20e-04,
1097,2.00e-04,
1098,-1.20e-04,
1099,2.00e-04,
1100,-1.20e-04,
1101,2.40e-04,
1102,-4.00e-05,
1103,3.60e-04,
1104,2.40e-04,
1105,-1.20e-04,
1106,-4.00e-05,
1107,2.80e-04,
1108,2.80e-04,
1109,-1.20e-04,
1110,2.80e-04,
1111,-2.00e-04,
1112,-2.00e-04,
1113,3.60e-04,
1114,-4.00e-05,
1115,2.80e-04,
1116,3.60e-04,
1117,-1.20e-04,
1118,4.00e-05,
1119,2.00e-04,
1120,2.80e-04,
1121,-1.20e-04,
1122,-1.20e-04,
1123,2.80e-04,
1124,-4.00e-05,
1125,2.80e-04,
1126,2.80e-04,
1127,-2.00e-04,
1128,-4.00e-05,
1129,2.00e-04,
1130,-1.20e-04,
1131,2.40e-04,
1132,-4.00e-05,
1133,2.80e-04,
1134,2.80e-04,
1135,-1.20e-04,
1136,-4.00e-05,
1137,2.80e-04,
1138,-4.00e-05,
1139,2.40e-04,
1140,-4.00e-05,
1141,3.60e-04,
1142,-1.20e-04,
1143,2.40e-04,
1144,4.00e-05,
1145,2.80e-04,
1146,-4.00e-05,
1147,2.00e-04,
1148,2.80e-04,
1149,-2.00e-04,
1150,-1.20e-04,
1151,2.00e-04,
1152,2.80e-04,
1153,-1.20e-04,
1154,-1.20e-04,
1155,2.40e-04,
1156,2.80e-04,
1157,-4.00e-05,
1158,-1.20e-04,
1159,2.80e-04,
1160,2.40e-04,
1161,-4.00e-05,
1162,-1.20e-04,
1163,2.00e-04,
1164,2.80e-04,
1165,-1.20e-04,
1166,-4.00e-05,
1167,2.80e-04,
1168,-4.00e-05,
1169,2.00e-04,
1170,-1.20e-04,
1171,2.40e-04,
1172,2.00e-04,
1173,-1.20e-04,
1174,-1.20e-04,
1175,2.80e-04,
1176,-1.20e-04,
1177,2.00e-04,
1178,-1.20e-04,
1179,2.00e-04,
1180,3.20e-04,
1181,-1.20e-04,
1182,-1.20e-04,
1183,2.80e-04,
1184,-1.20e-04,
1185,2.80e-04,
1186,2.80e-04,
1187,-1.20e-04,
1188,2.40e-04,
1189,-4.00e-05,
1190,2.00e-04,
1191,-1.20e-04,
1192,-1.20e-04,
1193,2.80e-04,
1194,2.80e-04,
1195,-1.20e-04,
1196,-4.00e-05,
1197,2.00e-04,
1198,2.80e-04,
1199,-1.20e-04,
