fastdiffamp/data-noise-set/unb-left-demod/NewFile6.csv

X,CH1,Start,Increment,
Sequence,Volt,-5.810000e+00,1.000000e-02
0,2.80e-04,
1,-2.80e-04,
2,4.40e-04,
3,-2.00e-04,
4,2.80e-04,
5,-2.00e-04,
6,-1.20e-04,
7,2.80e-04,
8,2.80e-04,
9,-1.20e-04,
10,-1.20e-04,
11,7.60e-04,
12,-2.00e-04,
13,2.80e-04,
14,2.80e-04,
15,-2.00e-04,
16,2.80e-04,
17,-1.20e-04,
18,-1.20e-04,
19,3.60e-04,
20,-1.20e-04,
21,3.60e-04,
22,2.80e-04,
23,-2.80e-04,
24,2.80e-04,
25,-2.00e-04,
26,-2.00e-04,
27,2.80e-04,
28,-2.80e-04,
29,2.80e-04,
30,-1.20e-04,
31,2.80e-04,
32,2.80e-04,
33,-2.00e-04,
34,-2.00e-04,
35,3.60e-04,
36,2.80e-04,
37,-2.00e-04,
38,-2.00e-04,
39,2.80e-04,
40,2.00e-04,
41,-2.00e-04,
42,-2.00e-04,
43,3.20e-04,
44,2.80e-04,
45,-2.00e-04,
46,-2.00e-04,
47,2.80e-04,
48,-1.20e-04,
49,2.80e-04,
50,4.40e-04,
51,-2.00e-04,
52,3.60e-04,
53,-2.00e-04,
54,-2.00e-04,
55,2.80e-04,
56,6.00e-04,
57,-2.00e-04,
58,2.80e-04,
59,-6.00e-04,
60,-1.20e-04,
61,2.80e-04,
62,-2.00e-04,
63,2.80e-04,
64,2.80e-04,
65,-2.00e-04,
66,2.80e-04,
67,-5.20e-04,
68,-2.00e-04,
69,3.60e-04,
70,2.80e-04,
71,-1.20e-04,
72,2.80e-04,
73,-2.00e-04,
74,-1.20e-04,
75,3.60e-04,
76,-2.00e-04,
77,2.80e-04,
78,2.80e-04,
79,-2.80e-04,
80,3.60e-04,
81,-2.00e-04,
82,-2.00e-04,
83,3.60e-04,
84,2.80e-04,
85,-1.20e-04,
86,-2.00e-04,
87,3.60e-04,
88,2.80e-04,
89,-1.20e-04,
90,3.60e-04,
91,-2.00e-04,
92,3.60e-04,
93,-2.00e-04,
94,2.80e-04,
95,-2.00e-04,
96,5.20e-04,
97,-2.00e-04,
98,2.80e-04,
99,-2.00e-04,
100,3.60e-04,
101,-1.20e-04,
102,6.80e-04,
103,-2.00e-04,
104,-1.20e-04,
105,2.80e-04,
106,2.80e-04,
107,-2.00e-04,
108,-2.00e-04,
109,3.20e-04,
110,2.80e-04,
111,-2.00e-04,
112,3.60e-04,
113,-2.00e-04,
114,-2.00e-04,
115,3.60e-04,
116,-2.80e-04,
117,2.40e-04,
118,2.80e-04,
119,-1.20e-04,
120,3.60e-04,
121,-1.20e-04,
122,2.80e-04,
123,-2.00e-04,
124,6.80e-04,
125,-2.00e-04,
126,3.60e-04,
127,-2.00e-04,
128,-2.00e-04,
129,3.60e-04,
130,2.80e-04,
131,-2.00e-04,
132,2.00e-04,
133,-2.80e-04,
134,2.80e-04,
135,-2.00e-04,
136,2.80e-04,
137,-2.00e-04,
138,2.80e-04,
139,-2.00e-04,
140,-2.80e-04,
141,2.80e-04,
142,2.80e-04,
143,-2.00e-04,
144,4.40e-04,
145,-2.00e-04,
146,2.00e-04,
147,-2.00e-04,
148,-2.00e-04,
149,3.60e-04,
150,-2.00e-04,
151,2.80e-04,
152,2.80e-04,
153,-2.80e-04,
154,3.60e-04,
155,-4.40e-04,
156,2.80e-04,
157,-2.00e-04,
158,2.80e-04,
159,-2.00e-04,
160,-2.00e-04,
161,5.20e-04,
162,-1.20e-04,
163,2.80e-04,
164,2.80e-04,
165,-2.00e-04,
166,-4.40e-04,
167,2.80e-04,
168,-2.00e-04,
169,3.60e-04,
170,3.60e-04,
171,-2.00e-04,
172,2.80e-04,
173,-2.80e-04,
174,-4.00e-05,
175,2.80e-04,
176,-2.00e-04,
177,2.80e-04,
178,2.80e-04,
179,-2.80e-04,
180,-2.80e-04,
181,2.80e-04,
182,2.80e-04,
183,-2.00e-04,
184,-2.00e-04,
185,3.60e-04,
186,-1.20e-04,
187,2.80e-04,
188,2.80e-04,
189,-1.20e-04,
190,-2.00e-04,
191,3.60e-04,
192,2.80e-04,
193,-5.20e-04,
194,-6.00e-04,
195,3.60e-04,
196,4.40e-04,
197,-2.40e-04,
198,-2.00e-04,
199,3.60e-04,
200,-2.80e-04,
201,2.80e-04,
202,-2.00e-04,
203,2.80e-04,
204,-2.00e-04,
205,2.80e-04,
206,-2.00e-04,
207,2.80e-04,
208,-2.00e-04,
209,2.80e-04,
210,4.40e-04,
211,-2.00e-04,
212,2.80e-04,
213,-2.00e-04,
214,-1.20e-04,
215,6.00e-04,
216,-2.00e-04,
217,2.80e-04,
218,2.80e-04,
219,-2.00e-04,
220,2.80e-04,
221,-3.60e-04,
222,-2.00e-04,
223,3.60e-04,
224,3.60e-04,
225,-2.80e-04,
226,-2.00e-04,
227,3.60e-04,
228,-1.20e-04,
229,4.40e-04,
230,2.80e-04,
231,-2.00e-04,
232,2.40e-04,
233,-2.80e-04,
234,-2.00e-04,
235,2.80e-04,
236,3.60e-04,
237,-2.00e-04,
238,-2.00e-04,
239,2.80e-04,
240,-2.00e-04,
241,2.80e-04,
242,2.80e-04,
243,-2.00e-04,
244,2.80e-04,
245,-1.20e-04,
246,2.80e-04,
247,-2.00e-04,
248,-2.00e-04,
249,2.80e-04,
250,2.80e-04,
251,-1.20e-04,
252,2.80e-04,
253,-2.00e-04,
254,3.60e-04,
255,-2.80e-04,
256,2.80e-04,
257,-1.20e-04,
258,2.80e-04,
259,-2.00e-04,
260,-2.00e-04,
261,2.80e-04,
262,2.80e-04,
263,-2.00e-04,
264,2.40e-04,
265,-2.00e-04,
266,2.80e-04,
267,-2.00e-04,
268,2.80e-04,
269,-2.00e-04,
270,-2.00e-04,
271,2.80e-04,
272,2.80e-04,
273,-1.20e-04,
274,2.80e-04,
275,-2.80e-04,
276,-2.00e-04,
277,2.80e-04,
278,-2.00e-04,
279,2.80e-04,
280,2.80e-04,
281,-2.00e-04,
282,-2.00e-04,
283,2.80e-04,
284,-8.40e-04,
285,2.80e-04,
286,2.80e-04,
287,-2.00e-04,
288,3.60e-04,
289,-2.00e-04,
290,-4.00e-05,
291,2.80e-04,
292,2.00e-04,
293,-2.00e-04,
294,-1.20e-04,
295,6.80e-04,
296,-2.00e-04,
297,5.20e-04,
298,2.80e-04,
299,-2.00e-04,
300,4.40e-04,
301,-1.20e-04,
302,2.80e-04,
303,-1.20e-04,
304,3.60e-04,
305,-2.00e-04,
306,2.80e-04,
307,-2.00e-04,
308,3.60e-04,
309,-2.00e-04,
310,2.80e-04,
311,-1.20e-04,
312,-2.80e-04,
313,3.60e-04,
314,2.80e-04,
315,-1.20e-04,
316,-1.20e-04,
317,3.60e-04,
318,3.60e-04,
319,-2.80e-04,
320,3.60e-04,
321,-2.00e-04,
322,3.60e-04,
323,-1.20e-04,
324,2.80e-04,
325,-2.00e-04,
326,2.80e-04,
327,-3.60e-04,
328,-2.00e-04,
329,3.60e-04,
330,4.40e-04,
331,-2.00e-04,
332,3.60e-04,
333,-1.20e-04,
334,-1.20e-04,
335,3.60e-04,
336,-2.00e-04,
337,3.60e-04,
338,2.80e-04,
339,-2.00e-04,
340,-2.80e-04,
341,3.60e-04,
342,-2.00e-04,
343,3.60e-04,
344,-2.00e-04,
345,2.80e-04,
346,3.60e-04,
347,-2.00e-04,
348,3.60e-04,
349,-1.20e-04,
350,4.40e-04,
351,-1.20e-04,
352,2.80e-04,
353,-2.00e-04,
354,-2.00e-04,
355,3.60e-04,
356,3.60e-04,
357,-1.20e-04,
358,-1.20e-04,
359,3.60e-04,
360,-2.00e-04,
361,4.40e-04,
362,-1.20e-04,
363,3.60e-04,
364,2.80e-04,
365,-2.00e-04,
366,2.80e-04,
367,-2.00e-04,
368,3.60e-04,
369,-2.00e-04,
370,2.80e-04,
371,-2.00e-04,
372,-3.60e-04,
373,3.60e-04,
374,3.60e-04,
375,-2.00e-04,
376,-2.00e-04,
377,3.60e-04,
378,2.80e-04,
379,-2.00e-04,
380,2.80e-04,
381,-2.80e-04,
382,-1.20e-04,
383,3.60e-04,
384,-1.20e-04,
385,2.80e-04,
386,-2.00e-04,
387,3.60e-04,
388,3.60e-04,
389,-2.80e-04,
390,-1.20e-04,
391,2.80e-04,
392,-2.00e-04,
393,3.60e-04,
394,-2.00e-04,
395,6.00e-04,
396,-2.80e-04,
397,3.60e-04,
398,2.80e-04,
399,-2.80e-04,
400,-1.20e-04,
401,3.60e-04,
402,-1.20e-04,
403,3.60e-04,
404,-1.20e-04,
405,5.20e-04,
406,-1.20e-04,
407,5.20e-04,
408,3.60e-04,
409,-1.20e-04,
410,3.60e-04,
411,-2.00e-04,
412,-2.00e-04,
413,3.60e-04,
414,2.80e-04,
415,-2.80e-04,
416,2.80e-04,
417,-2.00e-04,
418,2.80e-04,
419,-2.00e-04,
420,-2.00e-04,
421,2.40e-04,
422,-1.20e-04,
423,3.60e-04,
424,-1.20e-04,
425,7.60e-04,
426,-5.20e-04,
427,3.60e-04,
428,3.60e-04,
429,-2.00e-04,
430,3.60e-04,
431,-1.20e-04,
432,3.60e-04,
433,-2.00e-04,
434,2.80e-04,
435,-2.00e-04,
436,-1.20e-04,
437,3.60e-04,
438,2.80e-04,
439,-4.40e-04,
440,2.80e-04,
441,-2.00e-04,
442,-1.20e-04,
443,4.40e-04,
444,-1.20e-04,
445,3.60e-04,
446,3.60e-04,
447,-4.40e-04,
448,-1.20e-04,
449,3.60e-04,
450,3.60e-04,
451,-2.00e-04,
452,3.60e-04,
453,-1.20e-04,
454,2.80e-04,
455,-2.00e-04,
456,-1.20e-04,
457,3.60e-04,
458,-2.00e-04,
459,5.20e-04,
460,4.40e-04,
461,-1.20e-04,
462,-1.20e-04,
463,3.60e-04,
464,2.80e-04,
465,-1.20e-04,
466,2.80e-04,
467,-1.60e-04,
468,2.80e-04,
469,-1.20e-04,
470,3.60e-04,
471,-2.00e-04,
472,-1.20e-04,
473,3.60e-04,
474,2.80e-04,
475,-1.20e-04,
476,-7.20e-04,
477,3.60e-04,
478,2.80e-04,
479,-2.00e-04,
480,-2.00e-04,
481,4.40e-04,
482,2.80e-04,
483,-1.20e-04,
484,2.80e-04,
485,-2.00e-04,
486,2.80e-04,
487,-2.00e-04,
488,-1.20e-04,
489,4.40e-04,
490,-1.20e-04,
491,3.60e-04,
492,3.60e-04,
493,-1.20e-04,
494,3.60e-04,
495,-2.00e-04,
496,-2.00e-04,
497,3.60e-04,
498,3.60e-04,
499,-2.00e-04,
500,3.60e-04,
501,-2.00e-04,
502,-3.60e-04,
503,3.60e-04,
504,-1.20e-04,
505,8.40e-04,
506,2.80e-04,
507,-1.20e-04,
508,-1.20e-04,
509,3.60e-04,
510,4.40e-04,
511,-2.80e-04,
512,-1.20e-04,
513,4.40e-04,
514,2.80e-04,
515,-2.00e-04,
516,3.60e-04,
517,-1.20e-04,
518,-2.00e-04,
519,1.00e-03,
520,-2.00e-04,
521,3.60e-04,
522,-1.20e-04,
523,2.80e-04,
524,2.80e-04,
525,-2.00e-04,
526,-1.20e-04,
527,3.60e-04,
528,3.60e-04,
529,-1.20e-04,
530,-1.20e-04,
531,3.60e-04,
532,-1.20e-04,
533,4.40e-04,
534,4.40e-04,
535,-1.20e-04,
536,6.00e-04,
537,-1.20e-04,
538,-1.60e-04,
539,3.60e-04,
540,3.60e-04,
541,-2.00e-04,
542,3.60e-04,
543,-2.00e-04,
544,3.60e-04,
545,-1.20e-04,
546,3.60e-04,
547,-2.80e-04,
548,-2.00e-04,
549,3.20e-04,
550,3.60e-04,
551,-1.20e-04,
552,3.60e-04,
553,-1.20e-04,
554,3.60e-04,
555,-6.00e-04,
556,-1.20e-04,
557,3.60e-04,
558,2.80e-04,
559,-1.20e-04,
560,-1.20e-04,
561,4.40e-04,
562,-1.20e-04,
563,3.60e-04,
564,-1.20e-04,
565,5.20e-04,
566,3.60e-04,
567,-1.20e-04,
568,3.60e-04,
569,-1.20e-04,
570,4.40e-04,
571,-2.00e-04,
572,8.40e-04,
573,-1.60e-04,
574,4.40e-04,
575,-2.00e-04,
576,3.60e-04,
577,-4.00e-05,
578,4.40e-04,
579,-8.00e-05,
580,3.60e-04,
581,-1.20e-04,
582,-2.00e-04,
583,3.60e-04,
584,-4.00e-05,
585,5.20e-04,
586,-2.00e-04,
587,3.60e-04,
588,3.60e-04,
589,-2.00e-04,
590,3.60e-04,
591,-1.20e-04,
592,-2.00e-04,
593,3.60e-04,
594,-4.00e-05,
595,4.40e-04,
596,3.60e-04,
597,-2.00e-04,
598,4.40e-04,
599,-5.20e-04,
600,-1.20e-04,
601,3.60e-04,
602,4.40e-04,
603,-2.00e-04,
604,-1.20e-04,
605,3.60e-04,
606,-1.20e-04,
607,4.40e-04,
608,-1.20e-04,
609,5.20e-04,
610,-1.20e-04,
611,4.40e-04,
612,3.60e-04,
613,-1.20e-04,
614,3.60e-04,
615,-2.80e-04,
616,3.60e-04,
617,-1.20e-04,
618,3.60e-04,
619,-1.20e-04,
620,-1.20e-04,
621,3.60e-04,
622,-4.00e-05,
623,4.40e-04,
624,-4.00e-05,
625,4.40e-04,
626,-2.00e-04,
627,9.20e-04,
628,-1.20e-04,
629,7.60e-04,
630,-4.00e-05,
631,3.60e-04,
632,2.80e-04,
633,-2.40e-04,
634,3.60e-04,
635,-2.00e-04,
636,3.60e-04,
637,-2.80e-04,
638,4.40e-04,
639,-2.00e-04,
640,-1.20e-04,
641,5.20e-04,
642,-1.20e-04,
643,3.60e-04,
644,3.60e-04,
645,-2.00e-04,
646,2.80e-04,
647,-1.20e-04,
648,-2.00e-04,
649,3.60e-04,
650,-1.20e-04,
651,4.40e-04,
652,3.60e-04,
653,-1.20e-04,
654,3.60e-04,
655,-1.20e-04,
656,3.60e-04,
657,-2.00e-04,
658,3.60e-04,
659,-1.20e-04,
660,4.40e-04,
661,-2.00e-04,
662,3.60e-04,
663,-3.20e-04,
664,-2.00e-04,
665,3.60e-04,
666,4.40e-04,
667,-1.20e-04,
668,3.60e-04,
669,-2.80e-04,
670,2.80e-04,
671,-2.00e-04,
672,3.60e-04,
673,-1.20e-04,
674,-1.20e-04,
675,3.60e-04,
676,-1.20e-04,
677,5.20e-04,
678,4.40e-04,
679,-2.00e-04,
680,-2.80e-04,
681,3.60e-04,
682,4.40e-04,
683,-1.20e-04,
684,-2.00e-04,
685,3.60e-04,
686,3.60e-04,
687,-2.00e-04,
688,4.40e-04,
689,-1.20e-04,
690,-2.00e-04,
691,4.40e-04,
692,9.20e-04,
693,-2.00e-04,
694,3.60e-04,
695,-2.00e-04,
696,-2.00e-04,
697,4.40e-04,
698,3.20e-04,
699,-4.00e-05,
700,3.60e-04,
701,-2.00e-04,
702,4.40e-04,
703,-2.00e-04,
704,3.60e-04,
705,-1.20e-04,
706,3.60e-04,
707,-2.80e-04,
708,4.40e-04,
709,-2.00e-04,
710,-2.80e-04,
711,3.60e-04,
712,-2.80e-04,
713,4.40e-04,
714,3.60e-04,
715,-2.00e-04,
716,-2.00e-04,
717,3.60e-04,
718,-1.20e-04,
719,3.60e-04,
720,2.80e-04,
721,-2.00e-04,
722,2.80e-04,
723,-4.80e-04,
724,3.60e-04,
725,-2.00e-04,
726,3.60e-04,
727,-2.00e-04,
728,-1.20e-04,
729,4.00e-04,
730,3.60e-04,
731,-2.00e-04,
732,3.60e-04,
733,-2.80e-04,
734,-1.20e-04,
735,4.40e-04,
736,4.40e-04,
737,-2.00e-04,
738,3.60e-04,
739,-1.20e-04,
740,6.80e-04,
741,-2.00e-04,
742,2.80e-04,
743,-4.40e-04,
744,4.40e-04,
745,-3.60e-04,
746,-1.20e-04,
747,5.20e-04,
748,-2.00e-04,
749,4.40e-04,
750,4.40e-04,
751,-1.20e-04,
752,-2.00e-04,
753,3.60e-04,
754,2.80e-04,
755,-1.20e-04,
756,-2.00e-04,
757,6.00e-04,
758,-1.20e-04,
759,3.60e-04,
760,-1.20e-04,
761,3.60e-04,
762,-4.00e-05,
763,4.40e-04,
764,-2.00e-04,
765,4.40e-04,
766,3.60e-04,
767,-2.80e-04,
768,3.60e-04,
769,-1.20e-04,
770,-1.20e-04,
771,3.60e-04,
772,6.00e-04,
773,-2.00e-04,
774,-1.20e-04,
775,3.60e-04,
776,3.60e-04,
777,-2.00e-04,
778,3.60e-04,
779,-1.20e-04,
780,-2.00e-04,
781,3.60e-04,
782,3.60e-04,
783,-1.20e-04,
784,3.60e-04,
785,-3.60e-04,
786,3.60e-04,
787,-8.00e-05,
788,3.60e-04,
789,-1.20e-04,
790,-2.00e-04,
791,3.60e-04,
792,3.60e-04,
793,-6.00e-04,
794,3.60e-04,
795,-2.00e-04,
796,4.40e-04,
797,-2.00e-04,
798,2.80e-04,
799,-1.20e-04,
800,-2.00e-04,
801,3.60e-04,
802,-1.20e-04,
803,4.40e-04,
804,3.60e-04,
805,-1.60e-04,
806,-1.20e-04,
807,6.00e-04,
808,-2.80e-04,
809,3.60e-04,
810,2.80e-04,
811,-2.00e-04,
812,3.60e-04,
813,-1.20e-04,
814,-2.00e-04,
815,3.20e-04,
816,-2.00e-04,
817,4.40e-04,
818,-2.00e-04,
819,3.60e-04,
820,-4.40e-04,
821,3.60e-04,
822,-4.00e-05,
823,3.60e-04,
824,-3.60e-04,
825,3.60e-04,
826,3.60e-04,
827,-1.20e-04,
828,-2.00e-04,
829,3.60e-04,
830,3.60e-04,
831,-2.00e-04,
832,-1.20e-04,
833,4.40e-04,
834,-2.00e-04,
835,2.80e-04,
836,-2.80e-04,
837,3.60e-04,
838,-2.80e-04,
839,2.80e-04,
840,-1.20e-04,
841,3.60e-04,
842,-2.80e-04,
843,4.40e-04,
844,-2.00e-04,
845,3.60e-04,
846,3.20e-04,
847,-2.00e-04,
848,-1.20e-04,
849,3.60e-04,
850,4.40e-04,
851,-2.00e-04,
852,3.60e-04,
853,-4.00e-05,
854,-2.00e-04,
855,6.80e-04,
856,3.60e-04,
857,-1.20e-04,
858,-5.20e-04,
859,4.40e-04,
860,-1.20e-04,
861,3.60e-04,
862,2.80e-04,
863,-1.20e-04,
864,-2.00e-04,
865,4.40e-04,
866,3.60e-04,
867,-2.00e-04,
868,-2.00e-04,
869,2.80e-04,
870,-1.20e-04,
871,4.40e-04,
872,2.80e-04,
873,-1.20e-04,
874,-3.60e-04,
875,4.40e-04,
876,-1.20e-04,
877,2.80e-04,
878,3.60e-04,
879,-3.60e-04,
880,-2.80e-04,
881,3.60e-04,
882,-1.20e-04,
883,2.80e-04,
884,-1.20e-04,
885,5.60e-04,
886,3.60e-04,
887,-2.80e-04,
888,-1.20e-04,
889,3.60e-04,
890,-2.00e-04,
891,3.60e-04,
892,-2.00e-04,
893,3.60e-04,
894,3.60e-04,
895,-2.00e-04,
896,2.80e-04,
897,-2.00e-04,
898,3.60e-04,
899,-2.80e-04,
900,2.80e-04,
901,-1.20e-04,
902,-1.20e-04,
903,3.60e-04,
904,-2.00e-04,
905,3.60e-04,
906,5.20e-04,
907,-2.00e-04,
908,-1.20e-04,
909,3.60e-04,
910,-2.80e-04,
911,2.80e-04,
912,-1.20e-04,
913,3.60e-04,
914,-1.20e-04,
915,3.60e-04,
916,3.60e-04,
917,-2.00e-04,
918,3.60e-04,
919,-2.00e-04,
920,-2.00e-04,
921,5.20e-04,
922,-1.20e-04,
923,3.60e-04,
924,3.60e-04,
925,-1.20e-04,
926,-2.80e-04,
927,2.80e-04,
928,-2.80e-04,
929,3.60e-04,
930,-2.00e-04,
931,3.60e-04,
932,3.60e-04,
933,-1.20e-04,
934,-1.20e-04,
935,4.40e-04,
936,3.60e-04,
937,-1.20e-04,
938,3.60e-04,
939,-2.80e-04,
940,2.80e-04,
941,-1.20e-04,
942,5.20e-04,
943,-2.80e-04,
944,3.60e-04,
945,-1.20e-04,
946,5.20e-04,
947,-2.80e-04,
948,3.60e-04,
949,-2.00e-04,
950,2.80e-04,
951,-1.20e-04,
952,-2.00e-04,
953,3.60e-04,
954,-1.20e-04,
955,4.40e-04,
956,-2.00e-04,
957,3.60e-04,
958,3.60e-04,
959,-2.00e-04,
960,-1.20e-04,
961,3.60e-04,
962,-2.00e-04,
963,3.60e-04,
964,-1.20e-04,
965,5.20e-04,
966,4.40e-04,
967,-2.00e-04,
968,-2.00e-04,
969,4.40e-04,
970,3.60e-04,
971,-1.20e-04,
972,4.40e-04,
973,-1.20e-04,
974,4.40e-04,
975,-1.20e-04,
976,-2.00e-04,
977,3.60e-04,
978,4.40e-04,
979,-1.20e-04,
980,-4.00e-05,
981,3.60e-04,
982,3.60e-04,
983,-4.00e-05,
984,-2.00e-04,
985,3.60e-04,
986,3.60e-04,
987,-3.60e-04,
988,3.60e-04,
989,-1.20e-04,
990,-1.20e-04,
991,3.60e-04,
992,2.80e-04,
993,-2.00e-04,
994,-1.20e-04,
995,3.60e-04,
996,-2.00e-04,
997,2.80e-04,
998,-2.00e-04,
999,3.60e-04,
1000,-2.00e-04,
1001,3.60e-04,
1002,6.00e-04,
1003,-2.80e-04,
1004,3.60e-04,
1005,-2.00e-04,
1006,-2.00e-04,
1007,3.60e-04,
1008,-1.20e-04,
1009,3.60e-04,
1010,3.60e-04,
1011,-1.20e-04,
1012,-2.00e-04,
1013,3.60e-04,
1014,5.20e-04,
1015,-2.00e-04,
1016,-2.00e-04,
1017,2.80e-04,
1018,3.60e-04,
1019,-2.00e-04,
1020,-2.00e-04,
1021,3.60e-04,
1022,3.60e-04,
1023,-1.20e-04,
1024,-1.20e-04,
1025,4.40e-04,
1026,-4.00e-05,
1027,4.40e-04,
1028,2.80e-04,
1029,-2.80e-04,
1030,6.00e-04,
1031,-2.80e-04,
1032,-1.20e-04,
1033,3.60e-04,
1034,-2.00e-04,
1035,4.40e-04,
1036,-2.80e-04,
1037,3.60e-04,
1038,3.60e-04,
1039,-2.80e-04,
1040,-1.20e-04,
1041,7.60e-04,
1042,-2.80e-04,
1043,3.60e-04,
1044,3.60e-04,
1045,-2.00e-04,
1046,2.80e-04,
1047,-2.00e-04,
1048,2.80e-04,
1049,-2.00e-04,
1050,2.80e-04,
1051,-2.00e-04,
1052,-1.20e-04,
1053,4.40e-04,
1054,3.60e-04,
1055,-1.20e-04,
1056,2.80e-04,
1057,-1.20e-04,
1058,-1.20e-04,
1059,4.40e-04,
1060,-2.00e-04,
1061,5.20e-04,
1062,4.40e-04,
1063,-1.60e-04,
1064,-2.00e-04,
1065,5.20e-04,
1066,-1.20e-04,
1067,3.60e-04,
1068,-2.80e-04,
1069,3.60e-04,
1070,4.40e-04,
1071,-2.00e-04,
1072,-2.00e-04,
1073,3.60e-04,
1074,2.80e-04,
1075,-2.00e-04,
1076,-1.20e-04,
1077,3.60e-04,
1078,-4.00e-05,
1079,4.40e-04,
1080,-1.20e-04,
1081,4.40e-04,
1082,-1.20e-04,
1083,4.40e-04,
1084,-1.20e-04,
1085,3.60e-04,
1086,2.80e-04,
1087,-2.80e-04,
1088,4.40e-04,
1089,-2.00e-04,
1090,5.20e-04,
1091,-1.20e-04,
1092,3.60e-04,
1093,-2.00e-04,
1094,3.60e-04,
1095,-1.20e-04,
1096,3.60e-04,
1097,-2.00e-04,
1098,3.60e-04,
1099,-4.40e-04,
1100,-1.20e-04,
1101,4.40e-04,
1102,-2.80e-04,
1103,3.60e-04,
1104,4.40e-04,
1105,-2.00e-04,
1106,-1.20e-04,
1107,3.60e-04,
1108,-1.20e-04,
1109,4.40e-04,
1110,3.60e-04,
1111,-5.20e-04,
1112,4.40e-04,
1113,-2.00e-04,
1114,-1.20e-04,
1115,5.20e-04,
1116,-2.00e-04,
1117,3.60e-04,
1118,3.60e-04,
1119,-1.20e-04,
1120,-2.00e-04,
1121,4.40e-04,
1122,3.60e-04,
1123,-2.80e-04,
1124,-2.00e-04,
1125,5.20e-04,
1126,-2.00e-04,
1127,3.60e-04,
1128,4.40e-04,
1129,-2.00e-04,
1130,2.80e-04,
1131,-2.00e-04,
1132,-2.00e-04,
1133,3.60e-04,
1134,3.60e-04,
1135,-2.00e-04,
1136,-2.80e-04,
1137,5.20e-04,
1138,-2.00e-04,
1139,6.00e-04,
1140,-1.20e-04,
1141,6.00e-04,
1142,4.40e-04,
1143,-1.20e-04,
1144,4.40e-04,
1145,-1.20e-04,
1146,3.60e-04,
1147,-1.20e-04,
1148,-1.20e-04,
1149,3.60e-04,
1150,-6.80e-04,
1151,3.60e-04,
1152,3.60e-04,
1153,-2.00e-04,
1154,-2.00e-04,
1155,6.80e-04,
1156,5.20e-04,
1157,-2.00e-04,
1158,-1.20e-04,
1159,3.60e-04,
1160,3.60e-04,
1161,-1.20e-04,
1162,-2.00e-04,
1163,3.60e-04,
1164,-2.00e-04,
1165,3.60e-04,
1166,6.00e-04,
1167,-1.20e-04,
1168,-2.80e-04,
1169,5.20e-04,
1170,4.40e-04,
1171,-2.00e-04,
1172,4.40e-04,
1173,-5.20e-04,
1174,3.60e-04,
1175,-4.00e-05,
1176,2.80e-04,
1177,-2.00e-04,
1178,3.60e-04,
1179,-2.80e-04,
1180,-2.80e-04,
1181,4.40e-04,
1182,4.40e-04,
1183,-4.40e-04,
1184,4.40e-04,
1185,-2.00e-04,
1186,2.80e-04,
1187,-2.80e-04,
1188,4.40e-04,
1189,-1.20e-04,
1190,3.60e-04,
1191,-1.20e-04,
1192,3.60e-04,
1193,-2.00e-04,
1194,2.80e-04,
1195,-2.00e-04,
1196,2.80e-04,
1197,-2.00e-04,
1198,-2.00e-04,
1199,3.60e-04,
