fastdiffamp/data-noise-set/str-wk-unb/NewFile2.csv

X,CH1,Start,Increment,
Sequence,Volt,-1.148000e+01,2.000000e-02
0,-8.40e-03,
1,-1.52e-02,
2,-1.44e-02,
3,-7.20e-03,
4,-1.44e-02,
5,-7.60e-03,
6,-6.40e-03,
7,-1.60e-02,
8,-8.00e-03,
9,-1.52e-02,
10,-8.00e-03,
11,-1.52e-02,
12,-1.44e-02,
13,-8.40e-03,
14,-8.40e-03,
15,-1.52e-02,
16,-1.52e-02,
17,-8.00e-03,
18,-1.52e-02,
19,-6.80e-03,
20,-7.60e-03,
21,-1.52e-02,
22,-1.60e-02,
23,-7.60e-03,
24,-1.52e-02,
25,-8.40e-03,
26,-1.60e-02,
27,-7.60e-03,
28,-1.52e-02,
29,2.00e-03,
30,-1.52e-02,
31,-7.60e-03,
32,2.40e-03,
33,-1.60e-02,
34,-6.80e-03,
35,-1.52e-02,
36,-1.44e-02,
37,-8.00e-03,
38,-7.60e-03,
39,-1.44e-02,
40,-1.44e-02,
41,-7.60e-03,
42,-1.60e-02,
43,-7.60e-03,
44,-8.00e-03,
45,-1.56e-02,
46,-8.00e-03,
47,-1.52e-02,
48,-1.52e-02,
49,-8.00e-03,
50,-1.60e-02,
51,2.80e-03,
52,2.80e-03,
53,-1.60e-03,
54,2.40e-03,
55,-1.36e-02,
56,-1.52e-02,
57,2.40e-03,
58,-1.52e-02,
59,-6.80e-03,
60,-1.60e-02,
61,-7.60e-03,
62,-1.52e-02,
63,-8.00e-03,
64,-8.40e-03,
65,-1.48e-02,
66,-1.44e-02,
67,-6.40e-03,
68,-7.20e-03,
69,-1.52e-02,
70,-1.44e-02,
71,-7.60e-03,
72,-1.52e-02,
73,-6.80e-03,
74,-1.52e-02,
75,-7.60e-03,
76,-1.52e-02,
77,-6.00e-03,
78,-1.44e-02,
79,-7.20e-03,
80,-8.00e-03,
81,-1.52e-02,
82,-7.20e-03,
83,-1.44e-02,
84,-1.44e-02,
85,-8.00e-03,
86,-6.80e-03,
87,-1.60e-02,
88,-6.80e-03,
89,-1.52e-02,
90,-1.36e-02,
91,2.80e-03,
92,3.20e-03,
93,-1.60e-03,
94,2.80e-03,
95,-1.60e-03,
96,3.20e-03,
97,-1.36e-02,
98,-1.52e-02,
99,2.00e-03,
100,-1.52e-02,
101,-5.60e-03,
102,-1.44e-02,
103,-7.20e-03,
104,-6.80e-03,
105,-1.44e-02,
106,-1.44e-02,
107,-8.00e-03,
108,-1.60e-02,
109,-7.20e-03,
110,-1.44e-02,
111,-7.20e-03,
112,-7.20e-03,
113,-1.44e-02,
114,-7.20e-03,
115,-1.52e-02,
116,-1.36e-02,
117,-7.20e-03,
118,-8.00e-03,
119,-1.52e-02,
120,-7.60e-03,
121,-1.56e-02,
122,-1.44e-02,
123,-7.20e-03,
124,-1.36e-02,
125,-7.20e-03,
126,-7.20e-03,
127,-1.36e-02,
128,-8.00e-03,
129,-1.36e-02,
130,-6.40e-03,
131,-1.36e-02,
132,-1.36e-02,
133,3.20e-03,
134,-1.28e-02,
135,3.20e-03,
136,2.80e-03,
137,-1.44e-02,
138,-1.40e-02,
139,-7.60e-03,
140,-1.44e-02,
141,-7.60e-03,
142,-1.44e-02,
143,-7.60e-03,
144,-1.36e-02,
145,3.20e-03,
146,2.40e-03,
147,-1.44e-02,
148,-1.44e-02,
149,-7.60e-03,
150,-1.48e-02,
151,-6.00e-03,
152,-1.44e-02,
153,-6.80e-03,
154,-6.80e-03,
155,-1.44e-02,
156,-1.44e-02,
157,-7.20e-03,
158,-1.52e-02,
159,1.60e-03,
160,2.00e-03,
161,-1.52e-02,
162,-1.36e-02,
163,-8.40e-03,
164,-8.00e-03,
165,-1.52e-02,
166,-8.40e-03,
167,-1.44e-02,
168,-7.60e-03,
169,-1.36e-02,
170,-8.00e-03,
171,-1.44e-02,
172,-1.44e-02,
173,-7.60e-03,
174,-7.60e-03,
175,-1.44e-02,
176,-8.40e-03,
177,-1.44e-02,
178,-1.44e-02,
179,-8.40e-03,
180,-1.40e-02,
181,-7.60e-03,
182,-1.52e-02,
183,-7.20e-03,
184,-1.36e-02,
185,-6.80e-03,
186,-1.44e-02,
187,-7.60e-03,
188,-7.60e-03,
189,-1.44e-02,
190,-1.44e-02,
191,-7.60e-03,
192,-1.44e-02,
193,-8.00e-03,
194,-1.60e-02,
195,-7.60e-03,
196,-1.44e-02,
197,-8.40e-03,
198,-7.60e-03,
199,-1.44e-02,
200,-1.44e-02,
201,-8.00e-03,
202,-1.36e-02,
203,-7.60e-03,
204,-1.44e-02,
205,-7.60e-03,
206,-1.36e-02,
207,-7.20e-03,
208,-8.00e-03,
209,-1.36e-02,
210,-1.36e-02,
211,-7.60e-03,
212,-8.00e-03,
213,-1.44e-02,
214,-6.80e-03,
215,-1.36e-02,
216,-1.44e-02,
217,-6.40e-03,
218,-1.36e-02,
219,-7.20e-03,
220,-1.36e-02,
221,-7.60e-03,
222,-1.44e-02,
223,-6.80e-03,
224,-1.32e-02,
225,-6.00e-03,
226,-7.60e-03,
227,-1.44e-02,
228,-1.44e-02,
229,-7.60e-03,
230,-1.52e-02,
231,-7.60e-03,
232,-1.44e-02,
233,-7.20e-03,
234,-1.44e-02,
235,-8.00e-03,
236,-1.44e-02,
237,-8.00e-03,
238,-7.60e-03,
239,-1.44e-02,
240,-7.60e-03,
241,-1.36e-02,
242,-6.40e-03,
243,-1.40e-02,
244,-1.36e-02,
245,-7.20e-03,
246,-6.80e-03,
247,-1.44e-02,
248,-1.36e-02,
249,-7.20e-03,
250,-8.00e-03,
251,-1.44e-02,
252,-1.36e-02,
253,-6.80e-03,
254,-6.80e-03,
255,-1.36e-02,
256,-1.36e-02,
257,-7.60e-03,
258,-7.60e-03,
259,-1.40e-02,
260,-1.36e-02,
261,-7.60e-03,
262,-8.40e-03,
263,-1.36e-02,
264,-1.36e-02,
265,-7.60e-03,
266,-7.60e-03,
267,-1.44e-02,
268,-1.28e-02,
269,-6.40e-03,
270,-7.20e-03,
271,-1.36e-02,
272,-1.36e-02,
273,-6.80e-03,
274,-1.36e-02,
275,-7.20e-03,
276,-1.36e-02,
277,-6.00e-03,
278,-1.44e-02,
279,-7.20e-03,
280,-7.60e-03,
281,-1.44e-02,
282,-1.36e-02,
283,-8.40e-03,
284,-1.36e-02,
285,-7.20e-03,
286,-7.20e-03,
287,-1.36e-02,
288,-8.00e-03,
289,-1.44e-02,
290,-1.36e-02,
291,-6.80e-03,
292,-7.60e-03,
293,-1.36e-02,
294,-7.20e-03,
295,-1.44e-02,
296,-7.60e-03,
297,-1.32e-02,
298,-6.80e-03,
299,-1.36e-02,
300,-8.00e-03,
301,-1.36e-02,
302,-1.28e-02,
303,-7.20e-03,
304,-1.36e-02,
305,-7.60e-03,
306,-1.36e-02,
307,-7.20e-03,
308,-1.36e-02,
309,-8.00e-03,
310,-1.36e-02,
311,-7.60e-03,
312,-1.40e-02,
313,-7.60e-03,
314,-1.36e-02,
315,-7.20e-03,
316,-1.36e-02,
317,-8.00e-03,
318,-1.36e-02,
319,-8.00e-03,
320,-1.44e-02,
321,-6.40e-03,
322,-8.00e-03,
323,-1.36e-02,
324,-1.36e-02,
325,-7.60e-03,
326,-8.00e-03,
327,-1.36e-02,
328,-8.00e-03,
329,-1.36e-02,
330,-1.40e-02,
331,-7.20e-03,
332,-1.44e-02,
333,-7.60e-03,
334,-1.44e-02,
335,-7.20e-03,
336,-1.36e-02,
337,-7.60e-03,
338,-7.20e-03,
339,-1.40e-02,
340,-1.44e-02,
341,-7.20e-03,
342,-8.00e-03,
343,-1.44e-02,
344,-7.60e-03,
345,-1.36e-02,
346,-8.40e-03,
347,-1.36e-02,
348,-1.40e-02,
349,-7.20e-03,
350,-7.60e-03,
351,-1.44e-02,
352,-7.20e-03,
353,-1.44e-02,
354,-1.36e-02,
355,-7.20e-03,
356,-1.44e-02,
357,-6.80e-03,
358,-7.60e-03,
359,-1.36e-02,
360,-1.28e-02,
361,3.20e-03,
362,2.40e-03,
363,-1.36e-02,
364,-1.44e-02,
365,-6.40e-03,
366,-1.36e-02,
367,-6.80e-03,
368,-1.36e-02,
369,-7.60e-03,
370,-7.60e-03,
371,-1.36e-02,
372,-7.60e-03,
373,-1.44e-02,
374,-6.80e-03,
375,-1.44e-02,
376,-7.60e-03,
377,-1.36e-02,
378,-1.52e-02,
379,-6.80e-03,
380,-6.80e-03,
381,-1.36e-02,
382,-7.20e-03,
383,-1.44e-02,
384,-1.40e-02,
385,-6.80e-03,
386,-8.00e-03,
387,-1.44e-02,
388,-1.36e-02,
389,-7.60e-03,
390,-7.20e-03,
391,-1.36e-02,
392,-7.20e-03,
393,-1.44e-02,
394,-1.36e-02,
395,-6.40e-03,
396,-1.36e-02,
397,-6.80e-03,
398,-7.20e-03,
399,-1.44e-02,
400,-1.36e-02,
401,-6.00e-03,
402,-1.44e-02,
403,-6.80e-03,
404,-7.60e-03,
405,-1.36e-02,
406,-6.80e-03,
407,-1.36e-02,
408,-1.36e-02,
409,-7.20e-03,
410,-1.36e-02,
411,-7.60e-03,
412,-8.00e-03,
413,-1.36e-02,
414,-8.00e-03,
415,-1.52e-02,
416,-7.20e-03,
417,-1.36e-02,
418,-6.80e-03,
419,-1.36e-02,
420,-1.28e-02,
421,-7.20e-03,
422,-7.60e-03,
423,-1.36e-02,
424,-1.36e-02,
425,-6.80e-03,
426,-1.36e-02,
427,-7.20e-03,
428,-7.60e-03,
429,-1.36e-02,
430,-1.36e-02,
431,-7.20e-03,
432,-7.20e-03,
433,-1.44e-02,
434,-1.36e-02,
435,-6.80e-03,
436,-8.00e-03,
437,-1.44e-02,
438,-7.60e-03,
439,-1.36e-02,
440,-7.20e-03,
441,-1.44e-02,
442,-1.44e-02,
443,-7.20e-03,
444,-8.00e-03,
445,-1.52e-02,
446,-7.60e-03,
447,-1.52e-02,
448,-7.20e-03,
449,-1.44e-02,
450,-1.52e-02,
451,-7.60e-03,
452,-1.44e-02,
453,-7.60e-03,
454,-1.44e-02,
455,-7.60e-03,
456,-1.52e-02,
457,-7.60e-03,
458,-8.40e-03,
459,-1.52e-02,
460,-8.80e-03,
461,-1.52e-02,
462,-7.60e-03,
463,-1.52e-02,
464,-8.80e-03,
465,-1.44e-02,
466,-1.52e-02,
467,-8.00e-03,
468,-1.52e-02,
469,-7.60e-03,
470,-7.60e-03,
471,-1.52e-02,
472,-7.60e-03,
473,-1.48e-02,
474,-1.36e-02,
475,-7.60e-03,
476,-6.80e-03,
477,-1.44e-02,
478,-7.60e-03,
479,-1.52e-02,
480,-1.36e-02,
481,-8.00e-03,
482,-1.36e-02,
483,-6.00e-03,
484,-1.28e-02,
485,-6.80e-03,
486,-6.40e-03,
487,-1.36e-02,
488,-1.44e-02,
489,-7.60e-03,
490,-1.44e-02,
491,-6.80e-03,
492,-1.36e-02,
493,-7.20e-03,
494,-1.36e-02,
495,-8.00e-03,
496,-1.36e-02,
497,-6.80e-03,
498,-7.20e-03,
499,-1.32e-02,
500,-6.80e-03,
501,-1.44e-02,
502,-7.20e-03,
503,-1.36e-02,
504,-1.36e-02,
505,-7.20e-03,
506,-7.20e-03,
507,-1.36e-02,
508,-7.60e-03,
509,-1.44e-02,
510,-6.80e-03,
511,-1.44e-02,
512,-7.20e-03,
513,-1.44e-02,
514,-1.36e-02,
515,-8.00e-03,
516,-7.60e-03,
517,-1.44e-02,
518,-1.36e-02,
519,-7.20e-03,
520,-7.60e-03,
521,-1.44e-02,
522,-7.60e-03,
523,-1.36e-02,
524,-8.00e-03,
525,-1.44e-02,
526,-1.44e-02,
527,-7.20e-03,
528,-7.60e-03,
529,-1.40e-02,
530,-1.36e-02,
531,-7.20e-03,
532,-1.28e-02,
533,-7.60e-03,
534,-1.36e-02,
535,-7.20e-03,
536,-7.20e-03,
537,-1.44e-02,
538,-1.44e-02,
539,-7.60e-03,
540,-1.40e-02,
541,-8.00e-03,
542,-1.36e-02,
543,-8.00e-03,
544,-7.20e-03,
545,-1.36e-02,
546,-1.44e-02,
547,-8.00e-03,
548,-1.36e-02,
549,-7.20e-03,
550,-1.36e-02,
551,-6.40e-03,
552,-1.36e-02,
553,-7.60e-03,
554,-1.36e-02,
555,-7.20e-03,
556,-1.36e-02,
557,-7.20e-03,
558,-1.44e-02,
559,-6.80e-03,
560,-7.60e-03,
561,-1.44e-02,
562,-7.20e-03,
563,-1.28e-02,
564,-1.44e-02,
565,-7.60e-03,
566,-7.60e-03,
567,-1.44e-02,
568,-1.28e-02,
569,-7.60e-03,
570,-8.00e-03,
571,-1.36e-02,
572,-1.36e-02,
573,-7.60e-03,
574,-1.44e-02,
575,-7.60e-03,
576,-7.60e-03,
577,-1.44e-02,
578,-1.52e-02,
579,-7.20e-03,
580,-7.60e-03,
581,-1.44e-02,
582,-7.60e-03,
583,-1.28e-02,
584,-7.20e-03,
585,-1.44e-02,
586,-6.80e-03,
587,-1.44e-02,
588,-1.32e-02,
589,-6.80e-03,
590,-1.36e-02,
591,-6.80e-03,
592,-7.60e-03,
593,-1.36e-02,
594,-8.40e-03,
595,-1.36e-02,
596,-1.36e-02,
597,-8.00e-03,
598,-1.36e-02,
599,-5.60e-03,
600,-6.00e-03,
601,-1.44e-02,
602,-1.40e-02,
603,-6.40e-03,
604,-1.44e-02,
605,-7.20e-03,
606,-7.60e-03,
607,-1.44e-02,
608,-1.44e-02,
609,-7.20e-03,
610,-1.44e-02,
611,-6.00e-03,
612,-7.20e-03,
613,-1.40e-02,
614,-6.40e-03,
615,-1.36e-02,
616,-7.20e-03,
617,-1.44e-02,
618,-1.52e-02,
619,-6.00e-03,
620,-6.80e-03,
621,-1.52e-02,
622,-1.44e-02,
623,-7.60e-03,
624,-1.40e-02,
625,-7.20e-03,
626,-1.36e-02,
627,-7.20e-03,
628,-7.20e-03,
629,-1.36e-02,
630,-8.00e-03,
631,-1.44e-02,
632,-1.36e-02,
633,-6.80e-03,
634,-7.20e-03,
635,-1.44e-02,
636,-1.36e-02,
637,-7.20e-03,
638,-1.36e-02,
639,-7.60e-03,
640,-1.44e-02,
641,-7.60e-03,
642,-1.52e-02,
643,-8.00e-03,
644,-7.20e-03,
645,-1.36e-02,
646,-1.44e-02,
647,-7.60e-03,
648,-1.44e-02,
649,-6.80e-03,
650,-8.00e-03,
651,-1.36e-02,
652,-1.36e-02,
653,-7.20e-03,
654,-1.40e-02,
655,-6.80e-03,
656,-1.44e-02,
657,-7.60e-03,
658,-1.44e-02,
659,-7.20e-03,
660,-7.60e-03,
661,-1.44e-02,
662,-1.44e-02,
663,-7.20e-03,
664,-7.20e-03,
665,-1.40e-02,
666,-7.60e-03,
667,-1.44e-02,
668,-7.60e-03,
669,-1.44e-02,
670,-7.60e-03,
671,-1.44e-02,
672,-1.36e-02,
673,-7.20e-03,
674,-7.60e-03,
675,-1.44e-02,
676,-6.80e-03,
677,-1.48e-02,
678,-7.60e-03,
679,-1.36e-02,
680,-5.60e-03,
681,-1.44e-02,
682,-1.44e-02,
683,-7.60e-03,
684,-1.28e-02,
685,-7.20e-03,
686,-1.28e-02,
687,-6.40e-03,
688,-1.44e-02,
689,-6.80e-03,
690,-1.36e-02,
691,-6.40e-03,
692,-1.44e-02,
693,-6.00e-03,
694,-1.44e-02,
695,-7.20e-03,
696,-1.36e-02,
697,-7.20e-03,
698,-1.44e-02,
699,-6.40e-03,
700,-1.60e-02,
701,-8.00e-03,
702,-1.48e-02,
703,-6.80e-03,
704,-1.44e-02,
705,-7.60e-03,
706,-7.20e-03,
707,-1.44e-02,
708,-6.00e-03,
709,-1.52e-02,
710,-1.36e-02,
711,-7.60e-03,
712,-7.20e-03,
713,-1.44e-02,
714,-1.44e-02,
715,-7.20e-03,
716,-1.36e-02,
717,-6.80e-03,
718,-6.80e-03,
719,-1.44e-02,
720,-1.44e-02,
721,-7.60e-03,
722,-7.20e-03,
723,-1.44e-02,
724,-7.60e-03,
725,-1.44e-02,
726,-1.44e-02,
727,-7.20e-03,
728,-7.20e-03,
729,-1.44e-02,
730,-7.20e-03,
731,-1.44e-02,
732,-1.44e-02,
733,-6.80e-03,
734,-1.52e-02,
735,-6.80e-03,
736,-7.60e-03,
737,-1.52e-02,
738,-1.52e-02,
739,-8.40e-03,
740,-8.80e-03,
741,-1.56e-02,
742,-6.80e-03,
743,-1.52e-02,
744,-7.20e-03,
745,-1.52e-02,
746,-1.44e-02,
747,-7.20e-03,
748,-6.80e-03,
749,-1.60e-02,
750,-1.52e-02,
751,-6.80e-03,
752,-1.52e-02,
753,-8.40e-03,
754,-1.60e-02,
755,-7.60e-03,
756,-1.60e-02,
757,-8.40e-03,
758,-8.00e-03,
759,-1.68e-02,
760,-6.80e-03,
761,-1.68e-02,
762,-1.60e-02,
763,-6.80e-03,
764,-8.40e-03,
765,-1.68e-02,
766,-7.60e-03,
767,-1.52e-02,
768,-7.20e-03,
769,-1.52e-02,
770,-7.20e-03,
771,-1.68e-02,
772,-8.00e-03,
773,-1.64e-02,
774,-8.40e-03,
775,-1.60e-02,
776,-1.60e-02,
777,-8.00e-03,
778,-1.60e-02,
779,-8.00e-03,
780,-1.60e-02,
781,-8.40e-03,
782,-6.80e-03,
783,-1.60e-02,
784,-1.52e-02,
785,-7.60e-03,
786,-1.44e-02,
787,-6.00e-03,
788,-1.52e-02,
789,-6.80e-03,
790,-7.60e-03,
791,-1.60e-02,
792,-1.68e-02,
793,-7.60e-03,
794,-1.48e-02,
795,-7.60e-03,
796,-1.36e-02,
797,-6.80e-03,
798,-1.44e-02,
799,-7.60e-03,
800,-1.52e-02,
801,-7.20e-03,
802,-1.52e-02,
803,-7.20e-03,
804,-7.60e-03,
805,-1.44e-02,
806,-1.44e-02,
807,-6.80e-03,
808,-1.36e-02,
809,-7.60e-03,
810,-7.60e-03,
811,-1.52e-02,
812,-8.00e-03,
813,-1.44e-02,
814,-1.36e-02,
815,-7.20e-03,
816,-1.52e-02,
817,-8.00e-03,
818,-6.80e-03,
819,-1.52e-02,
820,-8.00e-03,
821,-1.52e-02,
822,-5.20e-03,
823,-1.52e-02,
824,-7.20e-03,
825,-1.52e-02,
826,-1.44e-02,
827,-7.20e-03,
828,-7.60e-03,
829,-1.52e-02,
830,-8.00e-03,
831,-1.52e-02,
832,-7.60e-03,
833,-1.60e-02,
834,-7.20e-03,
835,-1.44e-02,
836,-1.36e-02,
837,-7.60e-03,
838,-8.00e-03,
839,-1.52e-02,
840,-1.44e-02,
841,-7.60e-03,
842,-7.20e-03,
843,-1.44e-02,
844,-1.44e-02,
845,-7.20e-03,
846,-1.52e-02,
847,-6.40e-03,
848,-7.60e-03,
849,-1.44e-02,
850,-6.00e-03,
851,-1.52e-02,
852,-1.52e-02,
853,-7.60e-03,
854,-7.20e-03,
855,-1.52e-02,
856,-1.44e-02,
857,-6.80e-03,
858,-6.40e-03,
859,-1.36e-02,
860,-1.44e-02,
861,-7.60e-03,
862,-1.36e-02,
863,-7.60e-03,
864,-8.00e-03,
865,-1.44e-02,
866,-1.36e-02,
867,-6.80e-03,
868,-1.48e-02,
869,-8.00e-03,
870,-8.00e-03,
871,-1.44e-02,
872,-1.44e-02,
873,-7.20e-03,
874,-6.40e-03,
875,-1.44e-02,
876,-8.00e-03,
877,-1.44e-02,
878,-1.32e-02,
879,-7.20e-03,
880,-7.60e-03,
881,-1.44e-02,
882,-7.20e-03,
883,-1.44e-02,
884,-1.36e-02,
885,-6.40e-03,
886,-6.80e-03,
887,-1.52e-02,
888,-7.60e-03,
889,-1.44e-02,
890,-1.52e-02,
891,-7.60e-03,
892,-7.60e-03,
893,-1.40e-02,
894,-1.44e-02,
895,-6.40e-03,
896,-6.80e-03,
897,-1.52e-02,
898,-7.60e-03,
899,-1.52e-02,
900,-7.60e-03,
901,-1.44e-02,
902,-1.52e-02,
903,-8.00e-03,
904,-1.36e-02,
905,-6.80e-03,
906,-1.44e-02,
907,-6.80e-03,
908,-7.20e-03,
909,-1.44e-02,
910,-1.44e-02,
911,-7.60e-03,
912,-1.36e-02,
913,-6.40e-03,
914,-1.44e-02,
915,-6.80e-03,
916,-7.60e-03,
917,-1.44e-02,
918,-6.80e-03,
919,-1.44e-02,
920,-7.60e-03,
921,-1.44e-02,
922,-6.80e-03,
923,-1.52e-02,
924,-7.20e-03,
925,-1.44e-02,
926,-8.00e-03,
927,-1.44e-02,
928,-1.52e-02,
929,-7.60e-03,
930,-7.60e-03,
931,-1.44e-02,
932,-7.20e-03,
933,-1.36e-02,
934,-1.44e-02,
935,-6.80e-03,
936,-1.44e-02,
937,-6.40e-03,
938,-7.20e-03,
939,-1.44e-02,
940,-1.44e-02,
941,-7.20e-03,
942,-1.36e-02,
943,-6.00e-03,
944,-1.36e-02,
945,-7.20e-03,
946,-7.60e-03,
947,-1.44e-02,
948,-1.44e-02,
949,-6.80e-03,
950,-6.40e-03,
951,-1.44e-02,
952,-1.44e-02,
953,-8.00e-03,
954,-1.44e-02,
955,-6.40e-03,
956,-1.36e-02,
957,-7.60e-03,
958,-1.44e-02,
959,-6.80e-03,
960,-6.80e-03,
961,-1.44e-02,
962,-7.20e-03,
963,-1.44e-02,
964,-1.36e-02,
965,-7.20e-03,
966,-6.80e-03,
967,-1.60e-02,
968,-1.52e-02,
969,-7.20e-03,
970,-1.44e-02,
971,-7.20e-03,
972,-7.60e-03,
973,-1.44e-02,
974,-1.44e-02,
975,-7.20e-03,
976,-8.00e-03,
977,-1.56e-02,
978,-1.44e-02,
979,-8.40e-03,
980,-7.20e-03,
981,-1.44e-02,
982,-7.60e-03,
983,-1.44e-02,
984,-7.20e-03,
985,-1.44e-02,
986,-1.44e-02,
987,-7.20e-03,
988,-1.44e-02,
989,-7.60e-03,
990,-1.52e-02,
991,-8.00e-03,
992,-1.44e-02,
993,-6.80e-03,
994,-1.44e-02,
995,-7.20e-03,
996,-1.52e-02,
997,-6.80e-03,
998,-1.36e-02,
999,-8.00e-03,
1000,-7.60e-03,
1001,-1.44e-02,
1002,-7.60e-03,
1003,-1.44e-02,
1004,-6.40e-03,
1005,-1.44e-02,
1006,-1.44e-02,
1007,-7.60e-03,
1008,-7.60e-03,
1009,-1.52e-02,
1010,-1.44e-02,
1011,-8.00e-03,
1012,-7.20e-03,
1013,-1.44e-02,
1014,-7.20e-03,
1015,-1.52e-02,
1016,-7.60e-03,
1017,-1.44e-02,
1018,-7.60e-03,
1019,-1.36e-02,
1020,-1.44e-02,
1021,-8.00e-03,
1022,-7.20e-03,
1023,-1.52e-02,
1024,-1.52e-02,
1025,-7.20e-03,
1026,-6.80e-03,
1027,-1.52e-02,
1028,-8.00e-03,
1029,-1.44e-02,
1030,-1.36e-02,
1031,-6.80e-03,
1032,-1.44e-02,
1033,-7.20e-03,
1034,-7.20e-03,
1035,-1.40e-02,
1036,-7.20e-03,
1037,-1.44e-02,
1038,-8.00e-03,
1039,-1.44e-02,
1040,-1.52e-02,
1041,-7.20e-03,
1042,-1.36e-02,
1043,-7.20e-03,
1044,-1.44e-02,
1045,-6.80e-03,
1046,-6.40e-03,
1047,-1.40e-02,
1048,-1.44e-02,
1049,-7.60e-03,
1050,-1.44e-02,
1051,-7.20e-03,
1052,-7.60e-03,
1053,-1.40e-02,
1054,-7.20e-03,
1055,-1.44e-02,
1056,-7.60e-03,
1057,-1.44e-02,
1058,-7.20e-03,
1059,-1.44e-02,
1060,-7.20e-03,
1061,-1.68e-02,
1062,-1.44e-02,
1063,-8.40e-03,
1064,-1.56e-02,
1065,-8.40e-03,
1066,-8.00e-03,
1067,-1.52e-02,
1068,-8.00e-03,
1069,-1.52e-02,
1070,-8.40e-03,
1071,-1.64e-02,
1072,-8.00e-03,
1073,-1.60e-02,
1074,-1.60e-02,
1075,-6.80e-03,
1076,-8.00e-03,
1077,-1.68e-02,
1078,-1.68e-02,
1079,-6.80e-03,
1080,-1.52e-02,
1081,-6.40e-03,
1082,-1.60e-02,
1083,-6.80e-03,
1084,-8.40e-03,
1085,-1.68e-02,
1086,-7.20e-03,
1087,-1.60e-02,
1088,-1.56e-02,
1089,1.60e-03,
1090,-1.36e-02,
1091,3.20e-03,
1092,4.00e-03,
1093,-1.60e-02,
1094,-1.60e-02,
1095,-8.00e-03,
1096,-1.60e-02,
1097,-6.80e-03,
1098,-6.00e-03,
1099,-1.52e-02,
1100,-1.52e-02,
1101,-6.40e-03,
1102,-1.52e-02,
1103,-6.40e-03,
1104,-1.52e-02,
1105,-7.60e-03,
1106,-1.44e-02,
1107,-7.60e-03,
1108,-1.52e-02,
1109,-6.00e-03,
1110,-1.52e-02,
1111,3.20e-03,
1112,-7.20e-03,
1113,-1.60e-02,
1114,-1.48e-02,
1115,-7.60e-03,
1116,-1.44e-02,
1117,-8.00e-03,
1118,-7.20e-03,
1119,-1.52e-02,
1120,-1.52e-02,
1121,-8.00e-03,
1122,-7.20e-03,
1123,-1.52e-02,
1124,-7.60e-03,
1125,-1.60e-02,
1126,-1.44e-02,
1127,-6.80e-03,
1128,-1.52e-02,
1129,-8.00e-03,
1130,-1.60e-02,
1131,-7.60e-03,
1132,-1.52e-02,
1133,-8.00e-03,
1134,-1.44e-02,
1135,1.60e-03,
1136,-1.44e-02,
1137,-7.20e-03,
1138,-1.60e-02,
1139,-7.60e-03,
1140,-1.44e-02,
1141,-6.40e-03,
1142,-7.20e-03,
1143,-1.52e-02,
1144,-7.60e-03,
1145,-1.36e-02,
1146,-7.20e-03,
1147,-1.52e-02,
1148,-7.60e-03,
1149,-1.52e-02,
1150,-1.44e-02,
1151,-7.20e-03,
1152,-1.52e-02,
1153,-6.40e-03,
1154,-8.00e-03,
1155,-1.56e-02,
1156,-6.40e-03,
1157,-1.36e-02,
1158,-1.44e-02,
1159,-8.00e-03,
1160,-7.20e-03,
1161,-1.44e-02,
1162,-7.60e-03,
1163,-1.52e-02,
1164,-7.60e-03,
1165,-1.48e-02,
1166,-6.80e-03,
1167,-1.44e-02,
1168,-1.44e-02,
1169,-6.40e-03,
1170,-1.52e-02,
1171,-7.20e-03,
1172,-7.20e-03,
1173,-1.36e-02,
1174,-6.80e-03,
1175,-1.44e-02,
1176,-1.36e-02,
1177,-6.00e-03,
1178,-7.20e-03,
1179,-1.44e-02,
1180,-1.36e-02,
1181,-6.80e-03,
1182,-7.60e-03,
1183,-1.44e-02,
1184,-1.52e-02,
1185,-7.60e-03,
1186,-8.00e-03,
1187,-1.52e-02,
1188,-7.60e-03,
1189,-1.52e-02,
1190,-8.00e-03,
1191,-1.44e-02,
1192,-1.44e-02,
1193,-6.80e-03,
1194,-1.44e-02,
1195,-7.60e-03,
1196,-6.80e-03,
1197,-1.44e-02,
1198,-1.44e-02,
1199,-7.20e-03,
