fastdiffamp/data-noise-set/unb-left-9to925/NewFile7.csv

X,CH1,Start,Increment,
Sequence,Volt,-5.990000e+00,1.000000e-02
0,5.60e-04,
1,-8.00e-05,
2,8.00e-05,
3,4.00e-04,
4,8.00e-05,
5,4.00e-04,
6,4.80e-04,
7,-8.00e-05,
8,4.00e-04,
9,-8.00e-05,
10,-8.00e-05,
11,4.80e-04,
12,3.20e-04,
13,0.00e+00,
14,0.00e+00,
15,4.00e-04,
16,4.00e-04,
17,0.00e+00,
18,0.00e+00,
19,4.00e-04,
20,4.00e-04,
21,0.00e+00,
22,-8.00e-05,
23,4.00e-04,
24,3.20e-04,
25,-8.00e-05,
26,4.00e-04,
27,0.00e+00,
28,3.20e-04,
29,-8.00e-05,
30,0.00e+00,
31,4.00e-04,
32,4.00e-04,
33,-8.00e-05,
34,4.00e-04,
35,-8.00e-05,
36,4.00e-04,
37,0.00e+00,
38,4.00e-04,
39,-8.00e-05,
40,3.20e-04,
41,0.00e+00,
42,4.00e-04,
43,0.00e+00,
44,4.00e-04,
45,0.00e+00,
46,4.00e-04,
47,-8.00e-05,
48,0.00e+00,
49,4.00e-04,
50,8.00e-05,
51,4.00e-04,
52,-8.00e-05,
53,4.00e-04,
54,4.00e-04,
55,0.00e+00,
56,4.00e-04,
57,-8.00e-05,
58,3.20e-04,
59,-8.00e-05,
60,4.00e-04,
61,0.00e+00,
62,0.00e+00,
63,4.80e-04,
64,0.00e+00,
65,4.00e-04,
66,4.80e-04,
67,0.00e+00,
68,0.00e+00,
69,4.00e-04,
70,4.80e-04,
71,0.00e+00,
72,4.00e-04,
73,8.00e-05,
74,0.00e+00,
75,4.00e-04,
76,0.00e+00,
77,4.00e-04,
78,4.00e-04,
79,0.00e+00,
80,3.20e-04,
81,-8.00e-05,
82,4.00e-04,
83,-8.00e-05,
84,4.00e-04,
85,-8.00e-05,
86,3.20e-04,
87,-8.00e-05,
88,0.00e+00,
89,3.20e-04,
90,0.00e+00,
91,4.00e-04,
92,8.00e-05,
93,4.00e-04,
94,4.80e-04,
95,-8.00e-05,
96,0.00e+00,
97,4.00e-04,
98,3.20e-04,
99,-8.00e-05,
100,0.00e+00,
101,4.00e-04,
102,4.00e-04,
103,8.00e-05,
104,4.80e-04,
105,-8.00e-05,
106,-8.00e-05,
107,4.00e-04,
108,0.00e+00,
109,4.80e-04,
110,0.00e+00,
111,4.80e-04,
112,0.00e+00,
113,4.00e-04,
114,4.00e-04,
115,-8.00e-05,
116,-8.00e-05,
117,4.00e-04,
118,3.20e-04,
119,-8.00e-05,
120,-8.00e-05,
121,3.20e-04,
122,4.80e-04,
123,0.00e+00,
124,0.00e+00,
125,5.60e-04,
126,5.60e-04,
127,-8.00e-05,
128,4.00e-04,
129,-8.00e-05,
130,4.80e-04,
131,-8.00e-05,
132,4.00e-04,
133,-8.00e-05,
134,4.00e-04,
135,-8.00e-05,
136,4.00e-04,
137,-8.00e-05,
138,4.00e-04,
139,-8.00e-05,
140,4.00e-04,
141,0.00e+00,
142,0.00e+00,
143,4.80e-04,
144,-8.00e-05,
145,4.00e-04,
146,0.00e+00,
147,4.00e-04,
148,0.00e+00,
149,4.00e-04,
150,4.00e-04,
151,-8.00e-05,
152,0.00e+00,
153,4.00e-04,
154,-8.00e-05,
155,3.20e-04,
156,4.00e-04,
157,-8.00e-05,
158,3.20e-04,
159,-8.00e-05,
160,0.00e+00,
161,4.00e-04,
162,0.00e+00,
163,4.00e-04,
164,0.00e+00,
165,4.00e-04,
166,0.00e+00,
167,3.20e-04,
168,4.00e-04,
169,-8.00e-05,
170,4.00e-04,
171,-8.00e-05,
172,3.20e-04,
173,-8.00e-05,
174,-8.00e-05,
175,4.00e-04,
176,3.20e-04,
177,-8.00e-05,
178,0.00e+00,
179,4.00e-04,
180,-8.00e-05,
181,3.20e-04,
182,4.00e-04,
183,-8.00e-05,
184,0.00e+00,
185,3.20e-04,
186,-8.00e-05,
187,4.00e-04,
188,4.00e-04,
189,0.00e+00,
190,4.00e-04,
191,-8.00e-05,
192,3.60e-04,
193,0.00e+00,
194,-8.00e-05,
195,4.00e-04,
196,0.00e+00,
197,3.20e-04,
198,0.00e+00,
199,4.00e-04,
200,0.00e+00,
201,4.00e-04,
202,3.20e-04,
203,-8.00e-05,
204,-8.00e-05,
205,4.00e-04,
206,4.00e-04,
207,0.00e+00,
208,3.20e-04,
209,-1.60e-04,
210,3.20e-04,
211,-8.00e-05,
212,3.20e-04,
213,0.00e+00,
214,4.00e-04,
215,-8.00e-05,
216,0.00e+00,
217,4.00e-04,
218,0.00e+00,
219,4.00e-04,
220,0.00e+00,
221,4.00e-04,
222,4.00e-04,
223,0.00e+00,
224,-8.00e-05,
225,3.60e-04,
226,4.00e-04,
227,-8.00e-05,
228,4.80e-04,
229,0.00e+00,
230,0.00e+00,
231,4.00e-04,
232,-8.00e-05,
233,4.00e-04,
234,3.20e-04,
235,-8.00e-05,
236,4.00e-04,
237,-8.00e-05,
238,4.00e-04,
239,-8.00e-05,
240,3.20e-04,
241,0.00e+00,
242,0.00e+00,
243,4.40e-04,
244,0.00e+00,
245,3.60e-04,
246,-8.00e-05,
247,3.20e-04,
248,0.00e+00,
249,4.00e-04,
250,0.00e+00,
251,4.00e-04,
252,4.00e-04,
253,0.00e+00,
254,-8.00e-05,
255,4.00e-04,
256,4.00e-04,
257,-1.60e-04,
258,-8.00e-05,
259,4.00e-04,
260,0.00e+00,
261,3.20e-04,
262,0.00e+00,
263,4.80e-04,
264,4.00e-04,
265,0.00e+00,
266,0.00e+00,
267,4.00e-04,
268,0.00e+00,
269,3.20e-04,
270,0.00e+00,
271,4.00e-04,
272,4.00e-04,
273,8.00e-05,
274,-8.00e-05,
275,4.00e-04,
276,4.80e-04,
277,-8.00e-05,
278,3.20e-04,
279,0.00e+00,
280,0.00e+00,
281,4.00e-04,
282,8.00e-05,
283,4.00e-04,
284,-8.00e-05,
285,4.00e-04,
286,3.20e-04,
287,-8.00e-05,
288,-8.00e-05,
289,5.60e-04,
290,4.80e-04,
291,0.00e+00,
292,3.20e-04,
293,-8.00e-05,
294,4.00e-04,
295,-8.00e-05,
296,0.00e+00,
297,3.20e-04,
298,0.00e+00,
299,4.00e-04,
300,0.00e+00,
301,4.00e-04,
302,0.00e+00,
303,4.00e-04,
304,0.00e+00,
305,4.00e-04,
306,4.00e-04,
307,0.00e+00,
308,4.00e-04,
309,-8.00e-05,
310,4.80e-04,
311,-8.00e-05,
312,3.20e-04,
313,0.00e+00,
314,0.00e+00,
315,4.00e-04,
316,4.00e-04,
317,0.00e+00,
318,0.00e+00,
319,4.00e-04,
320,4.00e-04,
321,0.00e+00,
322,-8.00e-05,
323,3.20e-04,
324,4.00e-04,
325,-8.00e-05,
326,3.20e-04,
327,0.00e+00,
328,0.00e+00,
329,4.00e-04,
330,3.20e-04,
331,-8.00e-05,
332,0.00e+00,
333,4.00e-04,
334,0.00e+00,
335,4.00e-04,
336,0.00e+00,
337,3.60e-04,
338,3.20e-04,
339,-4.00e-05,
340,0.00e+00,
341,3.20e-04,
342,0.00e+00,
343,4.00e-04,
344,0.00e+00,
345,4.00e-04,
346,3.20e-04,
347,0.00e+00,
348,0.00e+00,
349,4.00e-04,
350,0.00e+00,
351,4.00e-04,
352,0.00e+00,
353,4.00e-04,
354,4.00e-04,
355,8.00e-05,
356,3.20e-04,
357,0.00e+00,
358,0.00e+00,
359,4.80e-04,
360,0.00e+00,
361,4.80e-04,
362,8.00e-05,
363,4.00e-04,
364,0.00e+00,
365,4.00e-04,
366,0.00e+00,
367,4.80e-04,
368,8.00e-05,
369,4.00e-04,
370,4.00e-04,
371,0.00e+00,
372,-8.00e-05,
373,4.80e-04,
374,4.00e-04,
375,0.00e+00,
376,0.00e+00,
377,4.80e-04,
378,-8.00e-05,
379,4.00e-04,
380,4.00e-04,
381,-8.00e-05,
382,4.00e-04,
383,0.00e+00,
384,0.00e+00,
385,4.00e-04,
386,3.20e-04,
387,-8.00e-05,
388,0.00e+00,
389,3.20e-04,
390,0.00e+00,
391,4.00e-04,
392,0.00e+00,
393,4.00e-04,
394,0.00e+00,
395,4.80e-04,
396,4.00e-04,
397,-8.00e-05,
398,-8.00e-05,
399,4.00e-04,
400,3.20e-04,
401,-8.00e-05,
402,0.00e+00,
403,4.00e-04,
404,4.00e-04,
405,-4.00e-05,
406,-1.60e-04,
407,3.20e-04,
408,0.00e+00,
409,3.20e-04,
410,-8.00e-05,
411,3.20e-04,
412,0.00e+00,
413,4.80e-04,
414,3.20e-04,
415,0.00e+00,
416,0.00e+00,
417,4.00e-04,
418,-8.00e-05,
419,4.00e-04,
420,5.60e-04,
421,-8.00e-05,
422,4.00e-04,
423,-1.60e-04,
424,0.00e+00,
425,3.20e-04,
426,0.00e+00,
427,4.00e-04,
428,0.00e+00,
429,3.60e-04,
430,-1.60e-04,
431,4.00e-04,
432,3.20e-04,
433,0.00e+00,
434,4.00e-04,
435,-4.00e-05,
436,0.00e+00,
437,3.20e-04,
438,0.00e+00,
439,4.00e-04,
440,3.20e-04,
441,-8.00e-05,
442,-8.00e-05,
443,4.00e-04,
444,3.20e-04,
445,-4.00e-05,
446,0.00e+00,
447,4.00e-04,
448,0.00e+00,
449,3.20e-04,
450,-1.60e-04,
451,4.80e-04,
452,4.00e-04,
453,-1.20e-04,
454,-8.00e-05,
455,4.80e-04,
456,-8.00e-05,
457,3.20e-04,
458,0.00e+00,
459,4.00e-04,
460,0.00e+00,
461,4.00e-04,
462,0.00e+00,
463,3.20e-04,
464,0.00e+00,
465,3.60e-04,
466,4.00e-04,
467,0.00e+00,
468,0.00e+00,
469,4.00e-04,
470,-8.00e-05,
471,4.00e-04,
472,0.00e+00,
473,4.00e-04,
474,3.20e-04,
475,0.00e+00,
476,0.00e+00,
477,4.00e-04,
478,0.00e+00,
479,4.00e-04,
480,-8.00e-05,
481,4.00e-04,
482,0.00e+00,
483,3.20e-04,
484,4.00e-04,
485,0.00e+00,
486,0.00e+00,
487,4.00e-04,
488,0.00e+00,
489,4.00e-04,
490,0.00e+00,
491,4.00e-04,
492,0.00e+00,
493,3.60e-04,
494,0.00e+00,
495,4.00e-04,
496,0.00e+00,
497,4.00e-04,
498,4.80e-04,
499,0.00e+00,
500,0.00e+00,
501,4.00e-04,
502,-8.00e-05,
503,4.00e-04,
504,0.00e+00,
505,4.00e-04,
506,3.20e-04,
507,0.00e+00,
508,0.00e+00,
509,4.00e-04,
510,3.20e-04,
511,-8.00e-05,
512,3.20e-04,
513,-8.00e-05,
514,0.00e+00,
515,4.00e-04,
516,-8.00e-05,
517,3.20e-04,
518,3.20e-04,
519,-8.00e-05,
520,3.20e-04,
521,-8.00e-05,
522,0.00e+00,
523,4.00e-04,
524,3.60e-04,
525,-8.00e-05,
526,0.00e+00,
527,4.80e-04,
528,4.00e-04,
529,0.00e+00,
530,-8.00e-05,
531,4.00e-04,
532,0.00e+00,
533,3.20e-04,
534,-8.00e-05,
535,3.20e-04,
536,4.00e-04,
537,0.00e+00,
538,0.00e+00,
539,3.20e-04,
540,4.00e-04,
541,0.00e+00,
542,3.20e-04,
543,-8.00e-05,
544,0.00e+00,
545,4.00e-04,
546,0.00e+00,
547,4.00e-04,
548,-8.00e-05,
549,4.00e-04,
550,-8.00e-05,
551,4.00e-04,
552,0.00e+00,
553,4.00e-04,
554,-8.00e-05,
555,4.00e-04,
556,-8.00e-05,
557,4.00e-04,
558,4.00e-04,
559,-4.00e-05,
560,0.00e+00,
561,4.00e-04,
562,-8.00e-05,
563,4.00e-04,
564,-8.00e-05,
565,4.00e-04,
566,0.00e+00,
567,3.60e-04,
568,0.00e+00,
569,4.00e-04,
570,3.20e-04,
571,0.00e+00,
572,0.00e+00,
573,4.00e-04,
574,0.00e+00,
575,4.80e-04,
576,0.00e+00,
577,3.20e-04,
578,0.00e+00,
579,4.00e-04,
580,0.00e+00,
581,3.20e-04,
582,0.00e+00,
583,4.00e-04,
584,0.00e+00,
585,4.80e-04,
586,-8.00e-05,
587,3.20e-04,
588,0.00e+00,
589,3.20e-04,
590,0.00e+00,
591,3.60e-04,
592,-8.00e-05,
593,4.80e-04,
594,4.80e-04,
595,0.00e+00,
596,0.00e+00,
597,4.00e-04,
598,4.00e-04,
599,-8.00e-05,
600,-1.60e-04,
601,4.80e-04,
602,4.00e-04,
603,0.00e+00,
604,3.20e-04,
605,0.00e+00,
606,-8.00e-05,
607,3.20e-04,
608,0.00e+00,
609,4.00e-04,
610,0.00e+00,
611,4.00e-04,
612,4.00e-04,
613,-8.00e-05,
614,3.20e-04,
615,-8.00e-05,
616,-8.00e-05,
617,4.80e-04,
618,3.20e-04,
619,-8.00e-05,
620,0.00e+00,
621,4.00e-04,
622,4.80e-04,
623,0.00e+00,
624,0.00e+00,
625,4.00e-04,
626,0.00e+00,
627,4.80e-04,
628,4.80e-04,
629,8.00e-05,
630,3.20e-04,
631,0.00e+00,
632,-8.00e-05,
633,5.60e-04,
634,4.00e-04,
635,0.00e+00,
636,4.80e-04,
637,-8.00e-05,
638,4.00e-04,
639,0.00e+00,
640,0.00e+00,
641,3.20e-04,
642,0.00e+00,
643,4.00e-04,
644,4.80e-04,
645,0.00e+00,
646,-8.00e-05,
647,3.20e-04,
648,-8.00e-05,
649,3.60e-04,
650,0.00e+00,
651,4.80e-04,
652,-8.00e-05,
653,4.00e-04,
654,4.00e-04,
655,0.00e+00,
656,0.00e+00,
657,4.80e-04,
658,0.00e+00,
659,4.00e-04,
660,-8.00e-05,
661,4.00e-04,
662,4.00e-04,
663,0.00e+00,
664,0.00e+00,
665,4.80e-04,
666,0.00e+00,
667,4.80e-04,
668,-8.00e-05,
669,4.00e-04,
670,-8.00e-05,
671,4.00e-04,
672,4.00e-04,
673,0.00e+00,
674,3.20e-04,
675,-8.00e-05,
676,0.00e+00,
677,4.00e-04,
678,3.20e-04,
679,-1.60e-04,
680,3.20e-04,
681,-8.00e-05,
682,3.20e-04,
683,0.00e+00,
684,3.20e-04,
685,-8.00e-05,
686,0.00e+00,
687,4.00e-04,
688,3.20e-04,
689,-8.00e-05,
690,-1.60e-04,
691,3.20e-04,
692,-8.00e-05,
693,4.00e-04,
694,-8.00e-05,
695,4.80e-04,
696,0.00e+00,
697,4.00e-04,
698,0.00e+00,
699,4.00e-04,
700,3.20e-04,
701,0.00e+00,
702,8.00e-05,
703,4.80e-04,
704,4.00e-04,
705,0.00e+00,
706,-8.00e-05,
707,4.00e-04,
708,4.80e-04,
709,0.00e+00,
710,0.00e+00,
711,4.00e-04,
712,4.80e-04,
713,0.00e+00,
714,4.00e-04,
715,0.00e+00,
716,4.00e-04,
717,-1.60e-04,
718,0.00e+00,
719,4.00e-04,
720,-8.00e-05,
721,4.80e-04,
722,4.00e-04,
723,-8.00e-05,
724,0.00e+00,
725,3.20e-04,
726,4.80e-04,
727,-8.00e-05,
728,0.00e+00,
729,4.00e-04,
730,4.80e-04,
731,0.00e+00,
732,0.00e+00,
733,4.80e-04,
734,0.00e+00,
735,3.20e-04,
736,4.00e-04,
737,-8.00e-05,
738,0.00e+00,
739,4.00e-04,
740,-8.00e-05,
741,4.00e-04,
742,4.00e-04,
743,0.00e+00,
744,0.00e+00,
745,4.00e-04,
746,4.00e-04,
747,0.00e+00,
748,4.00e-04,
749,0.00e+00,
750,4.80e-04,
751,0.00e+00,
752,0.00e+00,
753,4.00e-04,
754,0.00e+00,
755,5.60e-04,
756,4.00e-04,
757,0.00e+00,
758,-8.00e-05,
759,4.00e-04,
760,0.00e+00,
761,4.00e-04,
762,4.00e-04,
763,-8.00e-05,
764,4.80e-04,
765,0.00e+00,
766,0.00e+00,
767,4.80e-04,
768,0.00e+00,
769,4.00e-04,
770,-8.00e-05,
771,4.80e-04,
772,4.00e-04,
773,-8.00e-05,
774,3.20e-04,
775,0.00e+00,
776,0.00e+00,
777,4.80e-04,
778,0.00e+00,
779,4.00e-04,
780,4.80e-04,
781,0.00e+00,
782,0.00e+00,
783,4.00e-04,
784,3.20e-04,
785,0.00e+00,
786,0.00e+00,
787,4.80e-04,
788,-8.00e-05,
789,4.00e-04,
790,-8.00e-05,
791,4.00e-04,
792,-8.00e-05,
793,4.80e-04,
794,0.00e+00,
795,4.00e-04,
796,4.00e-04,
797,-8.00e-05,
798,-8.00e-05,
799,4.80e-04,
800,4.00e-04,
801,0.00e+00,
802,4.00e-04,
803,-8.00e-05,
804,-8.00e-05,
805,4.00e-04,
806,4.80e-04,
807,0.00e+00,
808,-1.60e-04,
809,4.80e-04,
810,4.00e-04,
811,8.00e-05,
812,0.00e+00,
813,4.00e-04,
814,0.00e+00,
815,4.80e-04,
816,4.00e-04,
817,0.00e+00,
818,3.20e-04,
819,0.00e+00,
820,4.00e-04,
821,0.00e+00,
822,-8.00e-05,
823,3.20e-04,
824,0.00e+00,
825,4.00e-04,
826,4.00e-04,
827,-8.00e-05,
828,-8.00e-05,
829,4.00e-04,
830,0.00e+00,
831,4.00e-04,
832,3.20e-04,
833,0.00e+00,
834,0.00e+00,
835,4.00e-04,
836,0.00e+00,
837,4.00e-04,
838,0.00e+00,
839,4.00e-04,
840,0.00e+00,
841,3.20e-04,
842,0.00e+00,
843,4.00e-04,
844,3.60e-04,
845,0.00e+00,
846,4.00e-04,
847,-8.00e-05,
848,0.00e+00,
849,4.00e-04,
850,-8.00e-05,
851,4.00e-04,
852,4.00e-04,
853,0.00e+00,
854,0.00e+00,
855,4.00e-04,
856,0.00e+00,
857,4.80e-04,
858,3.20e-04,
859,-8.00e-05,
860,4.80e-04,
861,-8.00e-05,
862,0.00e+00,
863,4.00e-04,
864,4.00e-04,
865,-8.00e-05,
866,3.20e-04,
867,0.00e+00,
868,0.00e+00,
869,4.00e-04,
870,3.20e-04,
871,-8.00e-05,
872,4.00e-04,
873,0.00e+00,
874,4.00e-04,
875,-8.00e-05,
876,-8.00e-05,
877,3.20e-04,
878,0.00e+00,
879,4.00e-04,
880,4.00e-04,
881,0.00e+00,
882,4.00e-04,
883,-8.00e-05,
884,0.00e+00,
885,4.00e-04,
886,-1.60e-04,
887,4.00e-04,
888,4.80e-04,
889,-8.00e-05,
890,-8.00e-05,
891,5.60e-04,
892,3.20e-04,
893,-8.00e-05,
894,4.80e-04,
895,0.00e+00,
896,4.00e-04,
897,0.00e+00,
898,0.00e+00,
899,4.00e-04,
900,0.00e+00,
901,4.80e-04,
902,4.00e-04,
903,0.00e+00,
904,-8.00e-05,
905,4.00e-04,
906,0.00e+00,
907,4.00e-04,
908,0.00e+00,
909,4.80e-04,
910,3.60e-04,
911,-8.00e-05,
912,3.20e-04,
913,-8.00e-05,
914,3.20e-04,
915,-1.60e-04,
916,0.00e+00,
917,4.00e-04,
918,-8.00e-05,
919,4.00e-04,
920,-8.00e-05,
921,3.20e-04,
922,4.00e-04,
923,-8.00e-05,
924,-8.00e-05,
925,3.20e-04,
926,4.00e-04,
927,-8.00e-05,
928,3.20e-04,
929,0.00e+00,
930,-8.00e-05,
931,4.80e-04,
932,4.80e-04,
933,-8.00e-05,
934,-8.00e-05,
935,3.20e-04,
936,-1.60e-04,
937,4.80e-04,
938,3.20e-04,
939,-8.00e-05,
940,4.00e-04,
941,-8.00e-05,
942,-8.00e-05,
943,3.20e-04,
944,-8.00e-05,
945,3.20e-04,
946,-8.00e-05,
947,3.20e-04,
948,-8.00e-05,
949,4.00e-04,
950,-8.00e-05,
951,4.00e-04,
952,3.20e-04,
953,-8.00e-05,
954,3.20e-04,
955,-8.00e-05,
956,0.00e+00,
957,4.00e-04,
958,-8.00e-05,
959,4.00e-04,
960,3.20e-04,
961,-8.00e-05,
962,-4.00e-05,
963,4.00e-04,
964,-8.00e-05,
965,3.20e-04,
966,-8.00e-05,
967,4.00e-04,
968,4.00e-04,
969,-8.00e-05,
970,4.80e-04,
971,-8.00e-05,
972,0.00e+00,
973,4.00e-04,
974,3.20e-04,
975,-8.00e-05,
976,3.20e-04,
977,-8.00e-05,
978,-8.00e-05,
979,3.20e-04,
980,-8.00e-05,
981,4.00e-04,
982,4.00e-04,
983,-8.00e-05,
984,3.20e-04,
985,-8.00e-05,
986,-8.00e-05,
987,4.80e-04,
988,4.00e-04,
989,0.00e+00,
990,0.00e+00,
991,4.00e-04,
992,4.80e-04,
993,-8.00e-05,
994,4.80e-04,
995,-8.00e-05,
996,-8.00e-05,
997,4.00e-04,
998,-8.00e-05,
999,4.00e-04,
1000,0.00e+00,
1001,4.80e-04,
1002,0.00e+00,
1003,4.00e-04,
1004,-8.00e-05,
1005,4.00e-04,
1006,3.20e-04,
1007,-8.00e-05,
1008,0.00e+00,
1009,4.00e-04,
1010,4.80e-04,
1011,0.00e+00,
1012,0.00e+00,
1013,4.00e-04,
1014,8.00e-05,
1015,4.00e-04,
1016,-8.00e-05,
1017,4.00e-04,
1018,3.20e-04,
1019,-8.00e-05,
1020,0.00e+00,
1021,4.00e-04,
1022,0.00e+00,
1023,4.00e-04,
1024,4.80e-04,
1025,-4.00e-05,
1026,0.00e+00,
1027,4.00e-04,
1028,0.00e+00,
1029,4.00e-04,
1030,0.00e+00,
1031,4.00e-04,
1032,5.60e-04,
1033,0.00e+00,
1034,4.80e-04,
1035,0.00e+00,
1036,4.80e-04,
1037,0.00e+00,
1038,4.00e-04,
1039,0.00e+00,
1040,4.00e-04,
1041,-8.00e-05,
1042,0.00e+00,
1043,4.80e-04,
1044,0.00e+00,
1045,4.00e-04,
1046,4.80e-04,
1047,-8.00e-05,
1048,4.00e-04,
1049,0.00e+00,
1050,4.00e-04,
1051,0.00e+00,
1052,4.00e-04,
1053,-8.00e-05,
1054,0.00e+00,
1055,4.00e-04,
1056,0.00e+00,
1057,4.80e-04,
1058,4.00e-04,
1059,0.00e+00,
1060,4.00e-04,
1061,-8.00e-05,
1062,4.80e-04,
1063,0.00e+00,
1064,4.00e-04,
1065,-8.00e-05,
1066,4.80e-04,
1067,-8.00e-05,
1068,-8.00e-05,
1069,4.00e-04,
1070,4.00e-04,
1071,-8.00e-05,
1072,-8.00e-05,
1073,4.00e-04,
1074,3.20e-04,
1075,-1.60e-04,
1076,4.00e-04,
1077,0.00e+00,
1078,4.00e-04,
1079,-8.00e-05,
1080,4.00e-04,
1081,0.00e+00,
1082,3.20e-04,
1083,0.00e+00,
1084,4.00e-04,
1085,-8.00e-05,
1086,4.00e-04,
1087,0.00e+00,
1088,0.00e+00,
1089,4.80e-04,
1090,-8.00e-05,
1091,3.20e-04,
1092,-8.00e-05,
1093,4.00e-04,
1094,-8.00e-05,
1095,4.00e-04,
1096,4.00e-04,
1097,-8.00e-05,
1098,0.00e+00,
1099,3.60e-04,
1100,4.00e-04,
1101,0.00e+00,
1102,0.00e+00,
1103,4.00e-04,
1104,-8.00e-05,
1105,4.00e-04,
1106,-8.00e-05,
1107,4.00e-04,
1108,3.20e-04,
1109,-8.00e-05,
1110,4.00e-04,
1111,0.00e+00,
1112,-8.00e-05,
1113,4.00e-04,
1114,4.00e-04,
1115,-8.00e-05,
1116,3.20e-04,
1117,-8.00e-05,
1118,4.80e-04,
1119,-8.00e-05,
1120,-8.00e-05,
1121,4.00e-04,
1122,-8.00e-05,
1123,3.20e-04,
1124,0.00e+00,
1125,4.00e-04,
1126,-1.60e-04,
1127,4.00e-04,
1128,0.00e+00,
1129,4.00e-04,
1130,4.00e-04,
1131,0.00e+00,
1132,0.00e+00,
1133,4.00e-04,
1134,4.00e-04,
1135,0.00e+00,
1136,0.00e+00,
1137,4.00e-04,
1138,4.00e-04,
1139,0.00e+00,
1140,0.00e+00,
1141,4.80e-04,
1142,4.00e-04,
1143,0.00e+00,
1144,4.80e-04,
1145,-8.00e-05,
1146,4.00e-04,
1147,0.00e+00,
1148,0.00e+00,
1149,4.80e-04,
1150,4.00e-04,
1151,-8.00e-05,
1152,4.00e-04,
1153,0.00e+00,
1154,-8.00e-05,
1155,4.00e-04,
1156,-8.00e-05,
1157,4.80e-04,
1158,4.00e-04,
1159,0.00e+00,
1160,8.00e-05,
1161,4.80e-04,
1162,4.00e-04,
1163,0.00e+00,
1164,4.00e-04,
1165,0.00e+00,
1166,0.00e+00,
1167,4.00e-04,
1168,4.80e-04,
1169,-8.00e-05,
1170,4.80e-04,
1171,-1.60e-04,
1172,4.00e-04,
1173,-8.00e-05,
1174,4.80e-04,
1175,0.00e+00,
1176,8.00e-05,
1177,4.80e-04,
1178,4.00e-04,
1179,0.00e+00,
1180,8.00e-05,
1181,4.00e-04,
1182,4.00e-04,
1183,0.00e+00,
1184,0.00e+00,
1185,4.00e-04,
1186,8.00e-05,
1187,4.00e-04,
1188,0.00e+00,
1189,3.60e-04,
1190,3.20e-04,
1191,-8.00e-05,
1192,4.00e-04,
1193,-8.00e-05,
1194,0.00e+00,
1195,4.00e-04,
1196,4.00e-04,
1197,0.00e+00,
1198,4.00e-04,
1199,4.00e-05,
