fastdiffamp/data-noise-set/first-try/NewFile5.csv

CH1,Start,Increment,
Volt,-1.200000e-06,2.000000e-09
-5.60e-04,
-5.60e-04,
-5.60e-04,
-5.60e-04,
-8.00e-04,
-8.00e-04,
-7.60e-04,
-7.60e-04,
-8.80e-04,
-8.80e-04,
-8.80e-04,
-8.80e-04,
-8.40e-04,
-8.40e-04,
-8.40e-04,
-8.40e-04,
-8.80e-04,
-8.80e-04,
-8.80e-04,
-8.80e-04,
-6.40e-04,
-6.40e-04,
-6.40e-04,
-6.40e-04,
-5.60e-04,
-5.60e-04,
-5.60e-04,
-5.60e-04,
-4.80e-04,
-4.80e-04,
-4.80e-04,
-4.80e-04,
-2.40e-04,
-2.40e-04,
-2.40e-04,
-2.40e-04,
1.60e-04,
1.60e-04,
1.60e-04,
1.60e-04,
2.40e-04,
2.40e-04,
2.40e-04,
2.40e-04,
3.20e-04,
3.20e-04,
3.20e-04,
3.20e-04,
8.00e-05,
8.00e-05,
8.00e-05,
8.00e-05,
3.20e-04,
3.20e-04,
3.20e-04,
3.20e-04,
2.40e-04,
2.40e-04,
2.40e-04,
2.40e-04,
4.80e-04,
4.80e-04,
4.80e-04,
4.80e-04,
6.40e-04,
6.40e-04,
6.40e-04,
6.40e-04,
5.60e-04,
5.60e-04,
5.60e-04,
5.60e-04,
6.40e-04,
6.40e-04,
6.40e-04,
6.40e-04,
5.60e-04,
5.60e-04,
5.60e-04,
5.60e-04,
4.00e-04,
4.00e-04,
4.00e-04,
4.00e-04,
3.20e-04,
3.20e-04,
3.20e-04,
3.20e-04,
8.00e-05,
8.00e-05,
8.00e-05,
8.00e-05,
-8.00e-05,
-8.00e-05,
-8.00e-05,
-8.00e-05,
-2.40e-04,
-2.40e-04,
-2.40e-04,
-2.40e-04,
-2.40e-04,
-2.40e-04,
-2.40e-04,
-2.40e-04,
8.00e-05,
8.00e-05,
8.00e-05,
8.00e-05,
8.00e-05,
8.00e-05,
8.00e-05,
8.00e-05,
8.00e-05,
8.00e-05,
8.00e-05,
8.00e-05,
-8.00e-05,
-8.00e-05,
-8.00e-05,
-8.00e-05,
-8.00e-05,
-8.00e-05,
-8.00e-05,
-8.00e-05,
1.60e-04,
1.60e-04,
1.60e-04,
1.60e-04,
2.40e-04,
2.40e-04,
2.40e-04,
2.40e-04,
3.20e-04,
3.20e-04,
3.20e-04,
3.20e-04,
4.00e-04,
4.00e-04,
4.00e-04,
4.00e-04,
7.20e-04,
7.20e-04,
7.20e-04,
7.20e-04,
8.00e-04,
8.00e-04,
8.00e-04,
8.00e-04,
1.04e-03,
1.04e-03,
1.04e-03,
1.04e-03,
1.12e-03,
1.12e-03,
1.12e-03,
1.12e-03,
6.40e-04,
6.40e-04,
6.40e-04,
6.40e-04,
2.40e-04,
2.40e-04,
2.40e-04,
2.40e-04,
-1.60e-04,
-1.60e-04,
-1.60e-04,
-1.60e-04,
-5.60e-04,
-5.60e-04,
-5.60e-04,
-5.60e-04,
-8.40e-04,
-8.40e-04,
-8.80e-04,
-8.80e-04,
-7.20e-04,
-7.20e-04,
-7.20e-04,
-7.20e-04,
-6.40e-04,
-6.40e-04,
-6.40e-04,
-6.40e-04,
-8.00e-05,
-8.00e-05,
-8.00e-05,
-8.00e-05,
1.60e-04,
1.60e-04,
2.00e-04,
2.00e-04,
6.40e-04,
6.40e-04,
6.40e-04,
6.40e-04,
8.00e-04,
8.00e-04,
8.00e-04,
8.00e-04,
7.20e-04,
7.20e-04,
7.20e-04,
7.20e-04,
3.20e-04,
3.20e-04,
3.20e-04,
3.20e-04,
3.20e-04,
3.20e-04,
3.20e-04,
3.20e-04,
8.00e-05,
8.00e-05,
8.00e-05,
8.00e-05,
2.40e-04,
2.40e-04,
2.40e-04,
2.40e-04,
1.60e-04,
1.60e-04,
1.60e-04,
1.60e-04,
0.00e+00,
0.00e+00,
0.00e+00,
0.00e+00,
1.60e-04,
1.60e-04,
1.60e-04,
1.60e-04,
0.00e+00,
0.00e+00,
0.00e+00,
0.00e+00,
-8.00e-05,
-8.00e-05,
-8.00e-05,
-8.00e-05,
-8.00e-05,
-8.00e-05,
-8.00e-05,
-8.00e-05,
-3.20e-04,
-3.20e-04,
-3.20e-04,
-3.20e-04,
-4.80e-04,
-4.80e-04,
-4.80e-04,
-4.80e-04,
-7.20e-04,
-7.20e-04,
-6.80e-04,
-6.80e-04,
-4.80e-04,
-4.80e-04,
-4.80e-04,
-4.80e-04,
0.00e+00,
0.00e+00,
0.00e+00,
0.00e+00,
3.20e-04,
3.20e-04,
3.20e-04,
3.20e-04,
4.00e-04,
4.00e-04,
4.00e-04,
4.00e-04,
5.60e-04,
5.60e-04,
5.60e-04,
5.60e-04,
4.00e-04,
4.00e-04,
4.00e-04,
4.00e-04,
3.20e-04,
3.20e-04,
3.20e-04,
3.20e-04,
0.00e+00,
0.00e+00,
0.00e+00,
0.00e+00,
0.00e+00,
0.00e+00,
0.00e+00,
0.00e+00,
-2.40e-04,
-2.40e-04,
-2.40e-04,
-2.40e-04,
-3.20e-04,
-3.20e-04,
-2.80e-04,
-2.80e-04,
-3.60e-04,
-3.60e-04,
-4.00e-04,
-4.00e-04,
-4.80e-04,
-4.80e-04,
-4.80e-04,
-4.80e-04,
-2.40e-04,
-2.40e-04,
-2.40e-04,
-2.40e-04,
0.00e+00,
0.00e+00,
0.00e+00,
0.00e+00,
8.00e-05,
8.00e-05,
8.00e-05,
8.00e-05,
1.60e-04,
1.60e-04,
1.60e-04,
1.60e-04,
0.00e+00,
0.00e+00,
0.00e+00,
0.00e+00,
-8.00e-05,
-8.00e-05,
-8.00e-05,
-8.00e-05,
-3.20e-04,
-3.20e-04,
-3.20e-04,
-3.20e-04,
-1.20e-04,
-1.20e-04,
-1.60e-04,
-1.60e-04,
-2.40e-04,
-2.40e-04,
-2.40e-04,
-2.40e-04,
-1.60e-04,
-1.60e-04,
-1.60e-04,
-1.60e-04,
-1.60e-04,
-1.60e-04,
-1.60e-04,
-1.60e-04,
-8.00e-05,
-8.00e-05,
-4.00e-05,
-4.00e-05,
-2.00e-04,
-2.00e-04,
-2.40e-04,
-2.40e-04,
-2.40e-04,
-2.40e-04,
-2.40e-04,
-2.40e-04,
-3.20e-04,
-3.20e-04,
-2.80e-04,
-2.80e-04,
-2.40e-04,
-2.40e-04,
-2.40e-04,
-2.40e-04,
-2.40e-04,
-2.40e-04,
-2.40e-04,
-2.40e-04,
-2.40e-04,
-2.40e-04,
-2.40e-04,
-2.40e-04,
-1.60e-04,
-1.60e-04,
-1.20e-04,
-1.20e-04,
-4.00e-05,
-4.00e-05,
-8.00e-05,
-8.00e-05,
-1.60e-04,
-1.60e-04,
-1.60e-04,
-1.60e-04,
-2.40e-04,
-2.40e-04,
-2.40e-04,
-2.40e-04,
-2.40e-04,
-2.40e-04,
-2.40e-04,
-2.40e-04,
-3.20e-04,
-3.20e-04,
-3.20e-04,
-3.20e-04,
-5.60e-04,
-5.60e-04,
-5.60e-04,
-5.60e-04,
-6.40e-04,
-6.40e-04,
-6.00e-04,
-6.00e-04,
-8.00e-04,
-8.00e-04,
-8.00e-04,
-8.00e-04,
-6.80e-04,
-6.80e-04,
-6.80e-04,
-6.80e-04,
-2.80e-04,
-2.80e-04,
-2.80e-04,
-2.80e-04,
-2.40e-04,
-2.40e-04,
-2.40e-04,
-2.40e-04,
-8.00e-05,
-8.00e-05,
-8.00e-05,
-8.00e-05,
3.20e-04,
3.20e-04,
3.20e-04,
3.20e-04,
4.00e-04,
4.00e-04,
4.00e-04,
4.00e-04,
2.40e-04,
2.40e-04,
2.40e-04,
2.40e-04,
5.60e-04,
5.60e-04,
5.60e-04,
5.60e-04,
5.60e-04,
5.60e-04,
5.60e-04,
5.60e-04,
2.40e-04,
2.40e-04,
2.40e-04,
2.40e-04,
1.60e-04,
1.60e-04,
1.60e-04,
1.60e-04,
-1.60e-04,
-1.60e-04,
-1.60e-04,
-1.60e-04,
-2.40e-04,
-2.40e-04,
-2.40e-04,
-2.40e-04,
-4.40e-04,
-4.40e-04,
-4.40e-04,
-4.40e-04,
-2.80e-04,
-2.80e-04,
-2.80e-04,
-2.80e-04,
-4.00e-04,
-4.00e-04,
-4.00e-04,
-4.00e-04,
-2.80e-04,
-2.80e-04,
-3.20e-04,
-3.20e-04,
-1.60e-04,
-1.60e-04,
-1.60e-04,
-1.60e-04,
8.00e-05,
8.00e-05,
8.00e-05,
8.00e-05,
0.00e+00,
0.00e+00,
0.00e+00,
0.00e+00,
2.40e-04,
2.40e-04,
2.40e-04,
2.40e-04,
1.60e-04,
1.60e-04,
1.60e-04,
1.60e-04,
2.40e-04,
2.40e-04,
2.40e-04,
2.40e-04,
0.00e+00,
0.00e+00,
0.00e+00,
0.00e+00,
3.20e-04,
3.20e-04,
3.20e-04,
3.20e-04,
0.00e+00,
0.00e+00,
0.00e+00,
0.00e+00,
8.00e-05,
8.00e-05,
8.00e-05,
8.00e-05,
0.00e+00,
0.00e+00,
0.00e+00,
0.00e+00,
-8.00e-05,
-8.00e-05,
-8.00e-05,
-8.00e-05,
-1.60e-04,
-1.60e-04,
-1.60e-04,
-1.60e-04,
-8.00e-05,
-8.00e-05,
-8.00e-05,
-8.00e-05,
-3.20e-04,
-3.20e-04,
-2.80e-04,
-2.80e-04,
-2.40e-04,
-2.40e-04,
-2.40e-04,
-2.40e-04,
-6.40e-04,
-6.40e-04,
-6.00e-04,
-6.00e-04,
-8.40e-04,
-8.40e-04,
-8.40e-04,
-8.40e-04,
-9.20e-04,
-9.20e-04,
-9.20e-04,
-9.20e-04,
-9.20e-04,
-9.20e-04,
-9.60e-04,
-9.60e-04,
-9.20e-04,
-9.20e-04,
-9.20e-04,
-9.20e-04,
-9.60e-04,
-9.60e-04,
-9.60e-04,
-9.60e-04,
-1.36e-03,
-1.36e-03,
-1.36e-03,
-1.36e-03,
-1.28e-03,
-1.28e-03,
-1.28e-03,
-1.28e-03,
-1.44e-03,
-1.44e-03,
-1.44e-03,
-1.44e-03,
-1.20e-03,
-1.20e-03,
-1.16e-03,
-1.16e-03,
-9.60e-04,
-9.60e-04,
-9.60e-04,
-9.60e-04,
-8.80e-04,
-8.80e-04,
-8.80e-04,
-8.80e-04,
-4.80e-04,
-4.80e-04,
-4.80e-04,
-4.80e-04,
8.00e-05,
8.00e-05,
8.00e-05,
8.00e-05,
1.60e-04,
1.60e-04,
1.60e-04,
1.60e-04,
3.20e-04,
3.20e-04,
3.20e-04,
3.20e-04,
2.40e-04,
2.40e-04,
2.40e-04,
2.40e-04,
0.00e+00,
0.00e+00,
4.00e-05,
4.00e-05,
-4.00e-04,
-4.00e-04,
-4.00e-04,
-4.00e-04,
-4.80e-04,
-4.80e-04,
-4.80e-04,
-4.80e-04,
-5.60e-04,
-5.60e-04,
-5.60e-04,
-5.60e-04,
-3.20e-04,
-3.20e-04,
-3.20e-04,
-3.20e-04,
-3.60e-04,
-3.60e-04,
-3.60e-04,
-3.60e-04,
-1.60e-04,
-1.60e-04,
-1.60e-04,
-1.60e-04,
-3.60e-04,
-3.60e-04,
-4.00e-04,
-4.00e-04,
-4.00e-04,
-4.00e-04,
-4.00e-04,
-4.00e-04,
-4.80e-04,
-4.80e-04,
-4.80e-04,
-4.80e-04,
-1.60e-04,
-1.60e-04,
-1.60e-04,
-1.60e-04,
8.00e-05,
8.00e-05,
8.00e-05,
8.00e-05,
0.00e+00,
0.00e+00,
0.00e+00,
0.00e+00,
4.00e-05,
4.00e-05,
0.00e+00,
0.00e+00,
4.80e-04,
4.80e-04,
4.80e-04,
4.80e-04,
4.80e-04,
4.80e-04,
4.80e-04,
4.80e-04,
6.40e-04,
6.40e-04,
6.40e-04,
6.40e-04,
4.80e-04,
4.80e-04,
4.80e-04,
4.80e-04,
3.20e-04,
3.20e-04,
3.20e-04,
3.20e-04,
-8.00e-05,
-8.00e-05,
-8.00e-05,
-8.00e-05,
-1.60e-04,
-1.60e-04,
-1.60e-04,
-1.60e-04,
-3.20e-04,
-3.20e-04,
-3.20e-04,
-3.20e-04,
-2.40e-04,
-2.40e-04,
-2.40e-04,
-2.40e-04,
-8.00e-05,
-8.00e-05,
-8.00e-05,
-8.00e-05,
0.00e+00,
0.00e+00,
0.00e+00,
0.00e+00,
4.80e-04,
4.80e-04,
4.80e-04,
4.80e-04,
6.40e-04,
6.40e-04,
6.40e-04,
6.40e-04,
1.04e-03,
1.04e-03,
1.00e-03,
1.00e-03,
1.04e-03,
1.04e-03,
1.04e-03,
1.04e-03,
8.00e-04,
8.00e-04,
8.00e-04,
8.00e-04,
5.60e-04,
5.60e-04,
5.60e-04,
5.60e-04,
2.40e-04,
2.40e-04,
2.40e-04,
2.40e-04,
1.60e-04,
1.60e-04,
1.60e-04,
1.60e-04,
1.60e-04,
1.60e-04,
1.60e-04,
1.60e-04,
4.00e-04,
4.00e-04,
4.00e-04,
4.00e-04,
4.80e-04,
4.80e-04,
4.80e-04,
4.80e-04,
6.40e-04,
6.40e-04,
6.40e-04,
6.40e-04,
9.60e-04,
9.60e-04,
9.60e-04,
9.60e-04,
1.28e-03,
1.28e-03,
1.24e-03,
1.24e-03,
1.44e-03,
1.44e-03,
1.44e-03,
1.44e-03,
1.56e-03,
1.56e-03,
1.56e-03,
1.56e-03,
1.44e-03,
1.44e-03,
1.44e-03,
1.44e-03,
1.12e-03,
1.12e-03,
1.12e-03,
1.12e-03,
8.00e-04,
8.00e-04,
8.00e-04,
8.00e-04,
7.20e-04,
7.20e-04,
7.20e-04,
7.20e-04,
5.60e-04,
5.60e-04,
5.60e-04,
5.60e-04,
2.40e-04,
2.40e-04,
2.40e-04,
2.40e-04,
1.60e-04,
1.60e-04,
1.60e-04,
1.60e-04,
0.00e+00,
0.00e+00,
0.00e+00,
0.00e+00,
2.40e-04,
2.40e-04,
2.40e-04,
2.40e-04,
4.00e-04,
4.00e-04,
4.00e-04,
4.00e-04,
4.80e-04,
4.80e-04,
4.80e-04,
4.80e-04,
4.00e-04,
4.00e-04,
4.00e-04,
4.00e-04,
2.40e-04,
2.40e-04,
2.40e-04,
2.40e-04,
4.80e-04,
4.80e-04,
4.80e-04,
4.80e-04,
3.20e-04,
3.20e-04,
3.20e-04,
3.20e-04,
3.20e-04,
3.20e-04,
3.20e-04,
3.20e-04,
8.00e-05,
8.00e-05,
8.00e-05,
8.00e-05,
1.60e-04,
1.60e-04,
1.60e-04,
1.60e-04,
1.60e-04,
1.60e-04,
2.00e-04,
2.00e-04,
5.60e-04,
5.60e-04,
5.60e-04,
5.60e-04,
8.80e-04,
8.80e-04,
8.40e-04,
8.40e-04,
1.08e-03,
1.08e-03,
1.12e-03,
1.12e-03,
1.44e-03,
1.44e-03,
1.44e-03,
1.44e-03,
1.44e-03,
1.44e-03,
1.44e-03,
1.44e-03,
1.12e-03,
1.12e-03,
1.12e-03,
1.12e-03,
1.12e-03,
1.12e-03,
1.12e-03,
1.12e-03,
9.60e-04,
9.60e-04,
9.60e-04,
9.60e-04,
7.20e-04,
7.20e-04,
7.20e-04,
7.20e-04,
4.80e-04,
4.80e-04,
4.80e-04,
4.80e-04,
8.00e-05,
8.00e-05,
8.00e-05,
8.00e-05,
0.00e+00,
0.00e+00,
0.00e+00,
0.00e+00,
1.60e-04,
1.60e-04,
1.60e-04,
1.60e-04,
1.60e-04,
1.60e-04,
1.60e-04,
1.60e-04,
4.80e-04,
4.80e-04,
4.80e-04,
4.80e-04,
3.20e-04,
3.20e-04,
3.20e-04,
3.20e-04,
3.20e-04,
3.20e-04,
3.20e-04,
3.20e-04,
1.60e-04,
1.60e-04,
1.60e-04,
1.60e-04,
4.00e-04,
4.00e-04,
4.00e-04,
4.00e-04,
3.20e-04,
3.20e-04,
3.20e-04,
3.20e-04,
4.00e-04,
4.00e-04,
4.00e-04,
4.00e-04,
5.60e-04,
5.60e-04,
5.60e-04,
5.60e-04,
5.60e-04,
5.60e-04,
5.60e-04,
5.60e-04,
8.00e-04,
8.00e-04,
8.00e-04,
8.00e-04,
9.60e-04,
9.60e-04,
9.60e-04,
9.60e-04,
7.20e-04,
7.20e-04,
7.20e-04,
7.20e-04,
4.80e-04,
4.80e-04,
4.80e-04,
4.80e-04,
8.00e-05,
8.00e-05,
8.00e-05,
8.00e-05,
-1.60e-04,
-1.60e-04,
-1.60e-04,
-1.60e-04,
-1.60e-04,
-1.60e-04,
-1.60e-04,
-1.60e-04,
-4.80e-04,
-4.80e-04,
-4.80e-04,
-4.80e-04,
-4.00e-04,
-4.00e-04,
-4.00e-04,
-4.00e-04,
-3.20e-04,
-3.20e-04,
-3.20e-04,
-3.20e-04,
-4.00e-04,
-4.00e-04,
-4.00e-04,
-4.00e-04,
-8.00e-05,
-8.00e-05,
-8.00e-05,
-8.00e-05,
0.00e+00,
0.00e+00,
0.00e+00,
0.00e+00,
1.60e-04,
1.60e-04,
1.60e-04,
1.60e-04,
1.60e-04,
1.60e-04,
1.60e-04,
1.60e-04,
1.60e-04,
1.60e-04,
1.60e-04,
1.60e-04,
-1.60e-04,
-1.60e-04,
-1.60e-04,
-1.60e-04,
-2.40e-04,
-2.40e-04,
-2.40e-04,
-2.40e-04,
-4.00e-04,
-4.00e-04,
-3.60e-04,
-3.60e-04,
-5.60e-04,
-5.60e-04,
-5.60e-04,
-5.60e-04,
-5.60e-04,
-5.60e-04,
-5.60e-04,
-5.60e-04,
-9.60e-04,
-9.60e-04,
-9.20e-04,
-9.20e-04,
-8.40e-04,
-8.40e-04,
-8.40e-04,
-8.40e-04,
-6.00e-04,
-6.00e-04,
-6.40e-04,
-6.40e-04,
-7.20e-04,
-7.20e-04,
-7.20e-04,
-7.20e-04,
-3.20e-04,
-3.20e-04,
-3.20e-04,
-3.20e-04,
8.00e-05,
8.00e-05,
8.00e-05,
8.00e-05,
-2.40e-04,
-2.40e-04,
-2.40e-04,
-2.40e-04,
0.00e+00,
0.00e+00,
0.00e+00,
0.00e+00,
2.40e-04,
2.40e-04,
2.40e-04,
2.40e-04,
2.40e-04,
2.40e-04,
2.40e-04,
2.40e-04,
2.40e-04,
2.40e-04,
2.40e-04,
2.40e-04,
1.60e-04,
1.60e-04,
1.60e-04,
1.60e-04,
-1.60e-04,
-1.60e-04,
-1.60e-04,
-1.60e-04,
-4.00e-04,
-4.00e-04,
-4.00e-04,
-4.00e-04,
-5.60e-04,
-5.60e-04,
-5.60e-04,
-5.60e-04,
-6.00e-04,
-6.00e-04,
-6.00e-04,
-6.00e-04,
-6.80e-04,
-6.80e-04,
-6.80e-04,
-6.80e-04,
-9.20e-04,
-9.20e-04,
-9.60e-04,
-9.60e-04,
-9.60e-04,
-9.60e-04,
-9.60e-04,
-9.60e-04,
-8.40e-04,
-8.40e-04,
-8.80e-04,
-8.80e-04,
-5.60e-04,
-5.60e-04,
-5.60e-04,
-5.60e-04,
-4.00e-04,
-4.00e-04,
-4.00e-04,
-4.00e-04,
-2.40e-04,
-2.40e-04,
-2.40e-04,
-2.40e-04,
-2.40e-04,
-2.40e-04,
-2.40e-04,
-2.40e-04,
0.00e+00,
0.00e+00,
4.00e-05,
4.00e-05,
3.20e-04,
3.20e-04,
3.20e-04,
3.20e-04,
5.60e-04,
5.60e-04,
5.60e-04,
5.60e-04,
7.20e-04,
7.20e-04,
7.20e-04,
7.20e-04,
4.00e-04,
4.00e-04,
4.00e-04,
4.00e-04,
8.00e-05,
8.00e-05,
8.00e-05,
8.00e-05,
-3.20e-04,
-3.20e-04,
-3.20e-04,
-3.20e-04,
-6.40e-04,
-6.40e-04,
-6.40e-04,
-6.40e-04,
-7.20e-04,
-7.20e-04,
-6.80e-04,
-6.80e-04,
-1.20e-03,
-1.20e-03,
-1.20e-03,
-1.20e-03,
-1.60e-03,
-1.60e-03,
-1.60e-03,
-1.60e-03,
-1.52e-03,
-1.52e-03,
-1.52e-03,
-1.52e-03,
-1.44e-03,
-1.44e-03,
-1.44e-03,
-1.44e-03,
-1.28e-03,
-1.28e-03,
-1.24e-03,
-1.24e-03,
-8.40e-04,
-8.40e-04,
-8.80e-04,
-8.80e-04,
-4.80e-04,
-4.80e-04,
-4.80e-04,
-4.80e-04,
0.00e+00,
0.00e+00,
0.00e+00,
0.00e+00,
2.40e-04,
2.40e-04,
2.40e-04,
2.40e-04,
