fastdiffamp/data-noise-set/str-wk-balanced/NewFile4.csv

X,CH1,Start,Increment,
Sequence,Volt,-1.148000e+01,2.000000e-02
0,-1.60e-03,
1,3.20e-03,
2,4.00e-03,
3,-1.60e-03,
4,3.20e-03,
5,-8.00e-04,
6,-8.00e-04,
7,3.20e-03,
8,-8.00e-04,
9,4.00e-03,
10,0.00e+00,
11,4.00e-03,
12,3.20e-03,
13,-8.00e-04,
14,-8.00e-04,
15,4.00e-03,
16,3.20e-03,
17,-8.00e-04,
18,3.20e-03,
19,-8.00e-04,
20,-8.00e-04,
21,3.20e-03,
22,-1.60e-03,
23,4.00e-03,
24,3.20e-03,
25,-8.00e-04,
26,-1.60e-03,
27,4.00e-03,
28,0.00e+00,
29,4.00e-03,
30,3.20e-03,
31,-1.60e-03,
32,3.20e-03,
33,-8.00e-04,
34,-8.00e-04,
35,4.00e-03,
36,4.00e-03,
37,-8.00e-04,
38,-1.60e-03,
39,4.00e-03,
40,3.20e-03,
41,-8.00e-04,
42,4.00e-03,
43,-1.60e-03,
44,4.80e-03,
45,-8.00e-04,
46,4.00e-03,
47,-8.00e-04,
48,4.00e-03,
49,-8.00e-04,
50,3.20e-03,
51,-8.00e-04,
52,4.00e-03,
53,-8.00e-04,
54,0.00e+00,
55,4.00e-03,
56,4.00e-03,
57,-8.00e-04,
58,-8.00e-04,
59,4.00e-03,
60,4.00e-03,
61,-8.00e-04,
62,3.20e-03,
63,-8.00e-04,
64,-8.00e-04,
65,4.00e-03,
66,3.20e-03,
67,-8.00e-04,
68,3.20e-03,
69,-8.00e-04,
70,3.20e-03,
71,-1.20e-03,
72,-8.00e-04,
73,3.20e-03,
74,4.00e-03,
75,-1.60e-03,
76,3.20e-03,
77,-8.00e-04,
78,-1.60e-03,
79,3.20e-03,
80,4.80e-03,
81,-8.00e-04,
82,-8.00e-04,
83,3.20e-03,
84,-8.00e-04,
85,4.00e-03,
86,4.00e-03,
87,-1.60e-03,
88,3.20e-03,
89,-8.00e-04,
90,3.20e-03,
91,0.00e+00,
92,3.20e-03,
93,-8.00e-04,
94,0.00e+00,
95,4.00e-03,
96,4.00e-03,
97,-8.00e-04,
98,0.00e+00,
99,4.00e-03,
100,4.00e-03,
101,-8.00e-04,
102,-8.00e-04,
103,4.00e-03,
104,0.00e+00,
105,4.00e-03,
106,-8.00e-04,
107,4.00e-03,
108,3.20e-03,
109,-8.00e-04,
110,3.20e-03,
111,-8.00e-04,
112,3.20e-03,
113,-8.00e-04,
114,-8.00e-04,
115,4.80e-03,
116,3.60e-03,
117,-8.00e-04,
118,3.20e-03,
119,0.00e+00,
120,-8.00e-04,
121,4.00e-03,
122,4.00e-03,
123,-8.00e-04,
124,0.00e+00,
125,3.20e-03,
126,3.20e-03,
127,-8.00e-04,
128,4.00e-03,
129,-8.00e-04,
130,4.00e-03,
131,-8.00e-04,
132,-8.00e-04,
133,3.20e-03,
134,3.20e-03,
135,-8.00e-04,
136,3.20e-03,
137,0.00e+00,
138,0.00e+00,
139,4.00e-03,
140,3.20e-03,
141,-8.00e-04,
142,4.00e-03,
143,-8.00e-04,
144,-8.00e-04,
145,3.20e-03,
146,3.20e-03,
147,-8.00e-04,
148,0.00e+00,
149,3.20e-03,
150,-8.00e-04,
151,4.00e-03,
152,-8.00e-04,
153,3.20e-03,
154,-8.00e-04,
155,3.20e-03,
156,3.20e-03,
157,-8.00e-04,
158,4.00e-03,
159,-8.00e-04,
160,3.20e-03,
161,-8.00e-04,
162,-1.60e-03,
163,3.20e-03,
164,-1.60e-03,
165,3.20e-03,
166,-8.00e-04,
167,4.00e-03,
168,3.20e-03,
169,-8.00e-04,
170,-1.60e-03,
171,4.00e-03,
172,3.20e-03,
173,-1.60e-03,
174,-8.00e-04,
175,3.20e-03,
176,0.00e+00,
177,4.00e-03,
178,-8.00e-04,
179,3.20e-03,
180,3.20e-03,
181,-8.00e-04,
182,4.00e-03,
183,-8.00e-04,
184,4.00e-03,
185,-1.60e-03,
186,3.20e-03,
187,-8.00e-04,
188,3.20e-03,
189,-8.00e-04,
190,3.20e-03,
191,-8.00e-04,
192,-8.00e-04,
193,4.00e-03,
194,4.00e-03,
195,-8.00e-04,
196,-8.00e-04,
197,3.20e-03,
198,-8.00e-04,
199,3.20e-03,
200,3.20e-03,
201,-8.00e-04,
202,3.20e-03,
203,-8.00e-04,
204,3.20e-03,
205,-8.00e-04,
206,4.00e-03,
207,-8.00e-04,
208,3.60e-03,
209,-8.00e-04,
210,-1.60e-03,
211,4.00e-03,
212,0.00e+00,
213,4.00e-03,
214,4.00e-03,
215,-8.00e-04,
216,3.20e-03,
217,-8.00e-04,
218,3.20e-03,
219,-1.60e-03,
220,-8.00e-04,
221,3.20e-03,
222,3.20e-03,
223,-8.00e-04,
224,-8.00e-04,
225,4.00e-03,
226,4.00e-03,
227,-8.00e-04,
228,-8.00e-04,
229,3.20e-03,
230,-8.00e-04,
231,3.60e-03,
232,3.20e-03,
233,-8.00e-04,
234,3.20e-03,
235,-1.60e-03,
236,0.00e+00,
237,3.20e-03,
238,-8.00e-04,
239,3.20e-03,
240,0.00e+00,
241,4.00e-03,
242,-8.00e-04,
243,3.20e-03,
244,-8.00e-04,
245,3.20e-03,
246,3.20e-03,
247,-1.60e-03,
248,2.40e-03,
249,-1.60e-03,
250,2.80e-03,
251,-8.00e-04,
252,3.20e-03,
253,-1.60e-03,
254,3.20e-03,
255,-1.60e-03,
256,3.20e-03,
257,-8.00e-04,
258,-8.00e-04,
259,3.20e-03,
260,4.00e-03,
261,-8.00e-04,
262,3.20e-03,
263,-8.00e-04,
264,4.00e-03,
265,-1.60e-03,
266,4.00e-03,
267,-1.60e-03,
268,3.20e-03,
269,-8.00e-04,
270,3.20e-03,
271,-8.00e-04,
272,-8.00e-04,
273,3.20e-03,
274,-8.00e-04,
275,3.20e-03,
276,-1.60e-03,
277,3.20e-03,
278,3.20e-03,
279,-8.00e-04,
280,-8.00e-04,
281,3.20e-03,
282,-8.00e-04,
283,3.20e-03,
284,-8.00e-04,
285,4.00e-03,
286,-8.00e-04,
287,3.20e-03,
288,-8.00e-04,
289,3.20e-03,
290,3.20e-03,
291,-8.00e-04,
292,-1.20e-03,
293,2.80e-03,
294,3.20e-03,
295,-8.00e-04,
296,2.80e-03,
297,-1.60e-03,
298,3.20e-03,
299,-1.60e-03,
300,-8.00e-04,
301,4.00e-03,
302,3.20e-03,
303,-1.60e-03,
304,-8.00e-04,
305,3.20e-03,
306,0.00e+00,
307,4.00e-03,
308,-8.00e-04,
309,4.00e-03,
310,4.00e-03,
311,-8.00e-04,
312,-8.00e-04,
313,4.00e-03,
314,4.00e-03,
315,-8.00e-04,
316,3.20e-03,
317,-8.00e-04,
318,4.00e-03,
319,-1.60e-03,
320,3.20e-03,
321,-8.00e-04,
322,3.20e-03,
323,-1.60e-03,
324,3.20e-03,
325,-1.60e-03,
326,-1.60e-03,
327,4.00e-03,
328,3.20e-03,
329,-8.00e-04,
330,-8.00e-04,
331,3.60e-03,
332,-8.00e-04,
333,4.00e-03,
334,-8.00e-04,
335,2.80e-03,
336,4.00e-03,
337,-8.00e-04,
338,-8.00e-04,
339,3.20e-03,
340,-1.60e-03,
341,4.00e-03,
342,-8.00e-04,
343,3.20e-03,
344,4.00e-03,
345,-8.00e-04,
346,3.20e-03,
347,-8.00e-04,
348,3.20e-03,
349,-8.00e-04,
350,2.40e-03,
351,-1.60e-03,
352,3.20e-03,
353,-8.00e-04,
354,4.00e-03,
355,-8.00e-04,
356,-8.00e-04,
357,3.20e-03,
358,4.00e-03,
359,-8.00e-04,
360,3.20e-03,
361,-1.60e-03,
362,0.00e+00,
363,3.20e-03,
364,-8.00e-04,
365,4.00e-03,
366,3.20e-03,
367,0.00e+00,
368,3.20e-03,
369,-8.00e-04,
370,-8.00e-04,
371,4.00e-03,
372,3.20e-03,
373,-8.00e-04,
374,-8.00e-04,
375,3.20e-03,
376,3.20e-03,
377,-1.60e-03,
378,3.20e-03,
379,-8.00e-04,
380,-8.00e-04,
381,4.00e-03,
382,-8.00e-04,
383,3.20e-03,
384,3.20e-03,
385,-8.00e-04,
386,-8.00e-04,
387,3.20e-03,
388,-8.00e-04,
389,4.00e-03,
390,-8.00e-04,
391,2.80e-03,
392,-8.00e-04,
393,3.20e-03,
394,-8.00e-04,
395,3.20e-03,
396,3.20e-03,
397,-8.00e-04,
398,-8.00e-04,
399,3.20e-03,
400,0.00e+00,
401,4.00e-03,
402,3.20e-03,
403,-8.00e-04,
404,4.00e-03,
405,-8.00e-04,
406,3.20e-03,
407,-1.60e-03,
408,4.00e-03,
409,-8.00e-04,
410,4.00e-03,
411,-8.00e-04,
412,-1.60e-03,
413,3.20e-03,
414,-8.00e-04,
415,3.20e-03,
416,3.20e-03,
417,-8.00e-04,
418,3.20e-03,
419,-8.00e-04,
420,-8.00e-04,
421,3.20e-03,
422,0.00e+00,
423,4.00e-03,
424,3.20e-03,
425,-8.00e-04,
426,3.20e-03,
427,-8.00e-04,
428,-8.00e-04,
429,3.20e-03,
430,-8.00e-04,
431,3.60e-03,
432,-8.00e-04,
433,3.20e-03,
434,-8.00e-04,
435,4.80e-03,
436,3.20e-03,
437,-1.60e-03,
438,3.20e-03,
439,-8.00e-04,
440,-8.00e-04,
441,4.00e-03,
442,3.20e-03,
443,-1.60e-03,
444,-8.00e-04,
445,4.00e-03,
446,-1.60e-03,
447,4.00e-03,
448,4.00e-03,
449,-8.00e-04,
450,-8.00e-04,
451,4.00e-03,
452,0.00e+00,
453,4.00e-03,
454,3.20e-03,
455,-8.00e-04,
456,-8.00e-04,
457,4.00e-03,
458,3.20e-03,
459,-8.00e-04,
460,-8.00e-04,
461,4.00e-03,
462,3.20e-03,
463,-8.00e-04,
464,3.20e-03,
465,0.00e+00,
466,-8.00e-04,
467,3.20e-03,
468,3.20e-03,
469,-8.00e-04,
470,-8.00e-04,
471,3.20e-03,
472,3.20e-03,
473,-8.00e-04,
474,-1.60e-03,
475,3.20e-03,
476,3.20e-03,
477,-8.00e-04,
478,4.00e-03,
479,-8.00e-04,
480,-8.00e-04,
481,4.00e-03,
482,-8.00e-04,
483,4.00e-03,
484,-8.00e-04,
485,4.00e-03,
486,0.00e+00,
487,4.00e-03,
488,-8.00e-04,
489,4.00e-03,
490,4.00e-03,
491,-8.00e-04,
492,3.20e-03,
493,-1.60e-03,
494,3.20e-03,
495,-8.00e-04,
496,3.20e-03,
497,-8.00e-04,
498,-8.00e-04,
499,3.20e-03,
500,4.00e-03,
501,-8.00e-04,
502,3.20e-03,
503,-8.00e-04,
504,-8.00e-04,
505,3.20e-03,
506,-8.00e-04,
507,3.20e-03,
508,-8.00e-04,
509,2.80e-03,
510,-8.00e-04,
511,3.20e-03,
512,3.20e-03,
513,0.00e+00,
514,4.00e-03,
515,-8.00e-04,
516,3.20e-03,
517,-1.60e-03,
518,-8.00e-04,
519,4.00e-03,
520,-8.00e-04,
521,4.00e-03,
522,-8.00e-04,
523,3.20e-03,
524,4.00e-03,
525,-1.60e-03,
526,3.20e-03,
527,-1.60e-03,
528,-8.00e-04,
529,3.20e-03,
530,3.20e-03,
531,-8.00e-04,
532,3.20e-03,
533,-8.00e-04,
534,-8.00e-04,
535,3.20e-03,
536,3.20e-03,
537,-8.00e-04,
538,0.00e+00,
539,4.00e-03,
540,-8.00e-04,
541,3.20e-03,
542,-8.00e-04,
543,3.20e-03,
544,4.00e-03,
545,-8.00e-04,
546,4.00e-03,
547,-8.00e-04,
548,3.20e-03,
549,-1.60e-03,
550,3.20e-03,
551,-1.60e-03,
552,3.20e-03,
553,-1.60e-03,
554,-8.00e-04,
555,3.20e-03,
556,-1.60e-03,
557,4.00e-03,
558,4.00e-03,
559,-8.00e-04,
560,-8.00e-04,
561,4.00e-03,
562,3.20e-03,
563,-8.00e-04,
564,-8.00e-04,
565,3.20e-03,
566,-8.00e-04,
567,3.20e-03,
568,-1.60e-03,
569,2.80e-03,
570,-1.60e-03,
571,3.20e-03,
572,3.20e-03,
573,-8.00e-04,
574,3.20e-03,
575,-8.00e-04,
576,3.20e-03,
577,-8.00e-04,
578,3.20e-03,
579,-8.00e-04,
580,-8.00e-04,
581,3.20e-03,
582,3.20e-03,
583,-8.00e-04,
584,3.20e-03,
585,-1.60e-03,
586,3.20e-03,
587,-8.00e-04,
588,4.00e-03,
589,-1.60e-03,
590,0.00e+00,
591,4.00e-03,
592,-1.60e-03,
593,3.20e-03,
594,3.20e-03,
595,-8.00e-04,
596,3.20e-03,
597,-8.00e-04,
598,-8.00e-04,
599,3.20e-03,
600,-8.00e-04,
601,3.20e-03,
602,-8.00e-04,
603,3.20e-03,
604,3.20e-03,
605,-8.00e-04,
606,-1.60e-03,
607,3.20e-03,
608,-8.00e-04,
609,3.20e-03,
610,-1.60e-03,
611,3.20e-03,
612,-8.00e-04,
613,4.00e-03,
614,-1.60e-03,
615,3.20e-03,
616,4.00e-03,
617,-8.00e-04,
618,4.00e-03,
619,-1.60e-03,
620,-8.00e-04,
621,4.80e-03,
622,3.20e-03,
623,-8.00e-04,
624,-1.60e-03,
625,4.00e-03,
626,4.00e-03,
627,-8.00e-04,
628,-4.00e-04,
629,4.80e-03,
630,4.00e-03,
631,-8.00e-04,
632,4.00e-03,
633,0.00e+00,
634,3.20e-03,
635,-1.60e-03,
636,4.80e-03,
637,-8.00e-04,
638,-8.00e-04,
639,4.00e-03,
640,4.00e-03,
641,-8.00e-04,
642,-8.00e-04,
643,3.20e-03,
644,-8.00e-04,
645,3.20e-03,
646,3.20e-03,
647,-8.00e-04,
648,-8.00e-04,
649,3.20e-03,
650,3.20e-03,
651,-8.00e-04,
652,-8.00e-04,
653,3.20e-03,
654,3.20e-03,
655,-8.00e-04,
656,-8.00e-04,
657,4.80e-03,
658,-1.60e-03,
659,3.20e-03,
660,4.00e-03,
661,-8.00e-04,
662,3.20e-03,
663,-8.00e-04,
664,3.20e-03,
665,-8.00e-04,
666,4.80e-03,
667,-8.00e-04,
668,3.20e-03,
669,-1.60e-03,
670,-8.00e-04,
671,3.20e-03,
672,3.20e-03,
673,-8.00e-04,
674,3.20e-03,
675,-8.00e-04,
676,-8.00e-04,
677,4.00e-03,
678,-8.00e-04,
679,4.80e-03,
680,-1.60e-03,
681,4.00e-03,
682,4.80e-03,
683,-8.00e-04,
684,-8.00e-04,
685,4.80e-03,
686,-8.00e-04,
687,4.40e-03,
688,-8.00e-04,
689,4.80e-03,
690,-8.00e-04,
691,4.00e-03,
692,-8.00e-04,
693,4.00e-03,
694,4.00e-03,
695,-8.00e-04,
696,3.20e-03,
697,-8.00e-04,
698,0.00e+00,
699,4.00e-03,
700,0.00e+00,
701,4.00e-03,
702,3.20e-03,
703,-8.00e-04,
704,-8.00e-04,
705,4.00e-03,
706,-8.00e-04,
707,4.00e-03,
708,3.20e-03,
709,0.00e+00,
710,-1.60e-03,
711,4.00e-03,
712,4.80e-03,
713,-1.60e-03,
714,4.80e-03,
715,-8.00e-04,
716,-8.00e-04,
717,3.20e-03,
718,-1.20e-03,
719,4.00e-03,
720,3.20e-03,
721,-8.00e-04,
722,3.20e-03,
723,-8.00e-04,
724,-1.60e-03,
725,3.20e-03,
726,0.00e+00,
727,4.80e-03,
728,3.20e-03,
729,-8.00e-04,
730,0.00e+00,
731,4.80e-03,
732,-8.00e-04,
733,4.80e-03,
734,4.00e-03,
735,-8.00e-04,
736,4.00e-03,
737,-1.60e-03,
738,-8.00e-04,
739,3.20e-03,
740,4.00e-03,
741,0.00e+00,
742,-8.00e-04,
743,4.80e-03,
744,4.00e-03,
745,-2.40e-03,
746,-8.00e-04,
747,4.00e-03,
748,3.20e-03,
749,-8.00e-04,
750,-8.00e-04,
751,3.20e-03,
752,3.20e-03,
753,-8.00e-04,
754,-8.00e-04,
755,4.00e-03,
756,-8.00e-04,
757,3.20e-03,
758,-8.00e-04,
759,4.00e-03,
760,4.00e-03,
761,-2.40e-03,
762,4.80e-03,
763,-1.60e-03,
764,-8.00e-04,
765,4.00e-03,
766,4.00e-03,
767,-8.00e-04,
768,-8.00e-04,
769,4.00e-03,
770,-8.00e-04,
771,4.00e-03,
772,-8.00e-04,
773,4.80e-03,
774,3.20e-03,
775,-8.00e-04,
776,-8.00e-04,
777,3.20e-03,
778,4.00e-03,
779,-8.00e-04,
780,-1.60e-03,
781,3.20e-03,
782,-1.60e-03,
783,4.80e-03,
784,4.00e-03,
785,-8.00e-04,
786,-8.00e-04,
787,4.00e-03,
788,4.00e-03,
789,-8.00e-04,
790,-8.00e-04,
791,4.00e-03,
792,-8.00e-04,
793,4.00e-03,
794,-1.60e-03,
795,4.00e-03,
796,4.00e-03,
797,-8.00e-04,
798,4.40e-03,
799,-8.00e-04,
800,-8.00e-04,
801,4.80e-03,
802,4.00e-03,
803,-8.00e-04,
804,3.20e-03,
805,-1.60e-03,
806,-1.60e-03,
807,3.20e-03,
808,3.20e-03,
809,-8.00e-04,
810,3.20e-03,
811,-8.00e-04,
812,3.60e-03,
813,-8.00e-04,
814,-8.00e-04,
815,3.20e-03,
816,0.00e+00,
817,4.80e-03,
818,4.80e-03,
819,-8.00e-04,
820,4.00e-03,
821,-8.00e-04,
822,4.00e-03,
823,-8.00e-04,
824,3.20e-03,
825,-8.00e-04,
826,-8.00e-04,
827,4.00e-03,
828,-8.00e-04,
829,4.80e-03,
830,-8.00e-04,
831,3.20e-03,
832,-1.60e-03,
833,3.60e-03,
834,0.00e+00,
835,4.00e-03,
836,4.00e-03,
837,-8.00e-04,
838,-8.00e-04,
839,3.20e-03,
840,-8.00e-04,
841,4.00e-03,
842,3.20e-03,
843,-8.00e-04,
844,3.20e-03,
845,-8.00e-04,
846,4.00e-03,
847,-8.00e-04,
848,3.20e-03,
849,-8.00e-04,
850,3.20e-03,
851,-8.00e-04,
852,4.80e-03,
853,-8.00e-04,
854,4.00e-03,
855,-8.00e-04,
856,3.20e-03,
857,-8.00e-04,
858,-8.00e-04,
859,3.20e-03,
860,4.00e-03,
861,-8.00e-04,
862,-8.00e-04,
863,4.80e-03,
864,3.20e-03,
865,-1.60e-03,
866,0.00e+00,
867,4.80e-03,
868,-8.00e-04,
869,4.00e-03,
870,4.00e-03,
871,-8.00e-04,
872,-1.60e-03,
873,4.00e-03,
874,4.00e-03,
875,-8.00e-04,
876,-8.00e-04,
877,4.80e-03,
878,-1.60e-03,
879,3.20e-03,
880,3.20e-03,
881,-1.60e-03,
882,-8.00e-04,
883,3.20e-03,
884,3.20e-03,
885,-8.00e-04,
886,3.20e-03,
887,-8.00e-04,
888,-8.00e-04,
889,4.00e-03,
890,4.00e-03,
891,-8.00e-04,
892,-8.00e-04,
893,4.00e-03,
894,-8.00e-04,
895,4.80e-03,
896,-8.00e-04,
897,4.00e-03,
898,4.00e-03,
899,-8.00e-04,
900,-8.00e-04,
901,3.20e-03,
902,-1.60e-03,
903,3.20e-03,
904,0.00e+00,
905,4.00e-03,
906,4.00e-03,
907,-1.60e-03,
908,4.80e-03,
909,-8.00e-04,
910,-8.00e-04,
911,4.80e-03,
912,-8.00e-04,
913,4.00e-03,
914,4.00e-03,
915,0.00e+00,
916,4.00e-03,
917,-4.00e-04,
918,4.00e-03,
919,-8.00e-04,
920,-1.60e-03,
921,4.00e-03,
922,-8.00e-04,
923,4.00e-03,
924,-8.00e-04,
925,4.00e-03,
926,4.80e-03,
927,-1.60e-03,
928,3.60e-03,
929,-1.60e-03,
930,4.00e-03,
931,-1.60e-03,
932,-1.60e-03,
933,4.80e-03,
934,4.00e-03,
935,-1.60e-03,
936,4.00e-03,
937,-1.60e-03,
938,-8.00e-04,
939,3.20e-03,
940,-1.60e-03,
941,4.00e-03,
942,4.00e-03,
943,-8.00e-04,
944,-1.60e-03,
945,4.00e-03,
946,-8.00e-04,
947,4.00e-03,
948,-8.00e-04,
949,4.00e-03,
950,4.00e-03,
951,-8.00e-04,
952,3.20e-03,
953,-2.40e-03,
954,-1.60e-03,
955,4.00e-03,
956,-8.00e-04,
957,4.00e-03,
958,-8.00e-04,
959,5.60e-03,
960,4.00e-03,
961,-8.00e-04,
962,3.20e-03,
963,-8.00e-04,
964,-8.00e-04,
965,4.00e-03,
966,4.00e-03,
967,-8.00e-04,
968,-8.00e-04,
969,3.20e-03,
970,-1.60e-03,
971,3.20e-03,
972,3.20e-03,
973,-8.00e-04,
974,4.00e-03,
975,-8.00e-04,
976,3.20e-03,
977,-8.00e-04,
978,3.20e-03,
979,-8.00e-04,
980,-8.00e-04,
981,4.00e-03,
982,4.00e-03,
983,-8.00e-04,
984,-8.00e-04,
985,4.00e-03,
986,-8.00e-04,
987,3.20e-03,
988,-8.00e-04,
989,4.00e-03,
990,3.20e-03,
991,-1.60e-03,
992,3.20e-03,
993,-1.60e-03,
994,4.00e-03,
995,-1.60e-03,
996,3.20e-03,
997,-8.00e-04,
998,-8.00e-04,
999,4.00e-03,
1000,-8.00e-04,
1001,3.60e-03,
1002,4.80e-03,
1003,-1.60e-03,
1004,4.00e-03,
1005,-8.00e-04,
1006,-1.60e-03,
1007,4.80e-03,
1008,3.20e-03,
1009,-1.60e-03,
1010,-8.00e-04,
1011,3.20e-03,
1012,3.20e-03,
1013,-8.00e-04,
1014,3.20e-03,
1015,-8.00e-04,
1016,4.00e-03,
1017,-8.00e-04,
1018,-8.00e-04,
1019,4.00e-03,
1020,4.80e-03,
1021,-1.60e-03,
1022,4.00e-03,
1023,-1.60e-03,
1024,4.00e-03,
1025,-1.60e-03,
1026,-8.00e-04,
1027,4.00e-03,
1028,3.20e-03,
1029,-8.00e-04,
1030,-1.60e-03,
1031,3.20e-03,
1032,-8.00e-04,
1033,3.20e-03,
1034,-8.00e-04,
1035,3.20e-03,
1036,-8.00e-04,
1037,3.20e-03,
1038,-1.60e-03,
1039,4.80e-03,
1040,4.00e-03,
1041,-1.60e-03,
1042,-8.00e-04,
1043,3.20e-03,
1044,3.20e-03,
1045,-1.60e-03,
1046,-8.00e-04,
1047,3.20e-03,
1048,4.00e-03,
1049,-1.60e-03,
1050,3.20e-03,
1051,-1.60e-03,
1052,3.20e-03,
1053,-8.00e-04,
1054,-8.00e-04,
1055,4.00e-03,
1056,2.80e-03,
1057,-1.60e-03,
1058,-8.00e-04,
1059,3.20e-03,
1060,-2.40e-03,
1061,3.20e-03,
1062,-1.60e-03,
1063,3.20e-03,
1064,4.00e-03,
1065,-8.00e-04,
1066,-8.00e-04,
1067,2.80e-03,
1068,-8.00e-04,
1069,4.00e-03,
1070,4.00e-03,
1071,-1.20e-03,
1072,3.20e-03,
1073,-8.00e-04,
1074,4.00e-03,
1075,-8.00e-04,
1076,-8.00e-04,
1077,3.20e-03,
1078,4.00e-03,
1079,-8.00e-04,
1080,4.00e-03,
1081,-8.00e-04,
1082,4.80e-03,
1083,-1.60e-03,
1084,3.20e-03,
1085,-8.00e-04,
1086,3.20e-03,
1087,-8.00e-04,
1088,-1.60e-03,
1089,4.80e-03,
1090,3.20e-03,
1091,-1.20e-03,
1092,4.00e-03,
1093,-8.00e-04,
1094,4.00e-03,
1095,-8.00e-04,
1096,-8.00e-04,
1097,3.20e-03,
1098,3.20e-03,
1099,-8.00e-04,
1100,4.00e-03,
1101,-1.60e-03,
1102,-1.60e-03,
1103,4.00e-03,
1104,3.20e-03,
1105,-1.60e-03,
1106,4.80e-03,
1107,-1.60e-03,
1108,4.00e-03,
1109,-1.60e-03,
1110,-8.00e-04,
1111,4.80e-03,
1112,4.00e-03,
1113,-8.00e-04,
1114,-8.00e-04,
1115,3.20e-03,
1116,4.00e-03,
1117,-1.60e-03,
1118,-8.00e-04,
1119,4.80e-03,
1120,-1.60e-03,
1121,4.80e-03,
1122,3.20e-03,
1123,-8.00e-04,
1124,-1.60e-03,
1125,4.80e-03,
1126,4.80e-03,
1127,-1.60e-03,
1128,4.00e-03,
1129,-8.00e-04,
1130,-8.00e-04,
1131,3.20e-03,
1132,3.20e-03,
1133,-1.60e-03,
1134,-8.00e-04,
1135,3.20e-03,
1136,-1.60e-03,
1137,4.00e-03,
1138,-8.00e-04,
1139,2.80e-03,
1140,4.80e-03,
1141,-1.60e-03,
1142,-8.00e-04,
1143,3.20e-03,
1144,-8.00e-04,
1145,3.20e-03,
1146,-1.60e-03,
1147,3.20e-03,
1148,3.20e-03,
1149,-1.60e-03,
1150,3.20e-03,
1151,-1.60e-03,
1152,-8.00e-04,
1153,4.00e-03,
1154,2.40e-03,
1155,-1.60e-03,
1156,-1.60e-03,
1157,3.20e-03,
1158,-8.00e-04,
1159,4.00e-03,
1160,-8.00e-04,
1161,3.20e-03,
1162,3.20e-03,
1163,-1.60e-03,
1164,3.20e-03,
1165,-8.00e-04,
1166,4.00e-03,
1167,-8.00e-04,
1168,4.00e-03,
1169,-1.60e-03,
1170,3.20e-03,
1171,-8.00e-04,
1172,-1.20e-03,
1173,3.20e-03,
1174,-8.00e-04,
1175,3.20e-03,
1176,3.20e-03,
1177,-1.60e-03,
1178,4.00e-03,
1179,-8.00e-04,
1180,3.20e-03,
1181,-8.00e-04,
1182,-8.00e-04,
1183,4.00e-03,
1184,3.20e-03,
1185,-8.00e-04,
1186,3.20e-03,
1187,-1.60e-03,
1188,3.20e-03,
1189,-8.00e-04,
1190,4.80e-03,
1191,-1.60e-03,
1192,-1.60e-03,
1193,3.20e-03,
1194,-1.60e-03,
1195,4.00e-03,
1196,4.00e-03,
1197,-1.60e-03,
1198,4.00e-03,
1199,-8.00e-04,
