fastdiffamp/data-noise-set/NewFolder15/NewFile7.csv

X,CH1,Start,Increment,
Sequence,Volt,-5.990000e+00,1.000000e-02
0,-3.60e-04,
1,2.04e-03,
2,5.20e-04,
3,-1.20e-04,
4,5.20e-04,
5,-2.80e-04,
6,6.00e-04,
7,-2.80e-04,
8,-7.60e-04,
9,7.60e-04,
10,-2.00e-04,
11,5.20e-04,
12,-2.80e-04,
13,4.40e-04,
14,-3.60e-04,
15,1.16e-03,
16,5.20e-04,
17,-8.00e-04,
18,8.40e-04,
19,-1.16e-03,
20,-2.80e-04,
21,4.40e-04,
22,-6.80e-04,
23,9.20e-04,
24,-3.60e-04,
25,8.40e-04,
26,-4.40e-04,
27,7.60e-04,
28,-4.40e-04,
29,7.60e-04,
30,4.40e-04,
31,-3.60e-04,
32,-1.20e-04,
33,8.40e-04,
34,4.40e-04,
35,-2.00e-04,
36,-8.40e-04,
37,4.40e-04,
38,8.40e-04,
39,-3.60e-04,
40,8.80e-04,
41,-2.80e-04,
42,-6.00e-04,
43,6.80e-04,
44,4.40e-04,
45,-6.80e-04,
46,6.00e-04,
47,-6.80e-04,
48,-6.80e-04,
49,5.20e-04,
50,7.60e-04,
51,-3.60e-04,
52,-4.40e-04,
53,7.60e-04,
54,-7.60e-04,
55,8.40e-04,
56,-7.60e-04,
57,8.40e-04,
58,-8.40e-04,
59,1.00e-03,
60,6.00e-04,
61,-3.60e-04,
62,4.40e-04,
63,-4.40e-04,
64,9.20e-04,
65,-1.20e-04,
66,9.60e-04,
67,-2.80e-04,
68,-1.16e-03,
69,6.80e-04,
70,7.60e-04,
71,-1.20e-04,
72,-6.00e-04,
73,1.40e-03,
74,-3.60e-04,
75,8.40e-04,
76,-5.20e-04,
77,9.20e-04,
78,7.60e-04,
79,-7.60e-04,
80,-6.00e-04,
81,1.40e-03,
82,-4.40e-04,
83,7.60e-04,
84,5.20e-04,
85,-8.00e-04,
86,-4.40e-04,
87,9.20e-04,
88,-7.60e-04,
89,8.40e-04,
90,-1.00e-03,
91,8.40e-04,
92,-5.20e-04,
93,7.60e-04,
94,-2.80e-04,
95,6.80e-04,
96,1.40e-03,
97,-6.00e-04,
98,-3.60e-04,
99,8.40e-04,
100,9.60e-04,
101,-5.20e-04,
102,-5.20e-04,
103,6.80e-04,
104,6.80e-04,
105,-3.60e-04,
106,6.00e-04,
107,-2.80e-04,
108,1.56e-03,
109,-3.60e-04,
110,6.00e-04,
111,-3.60e-04,
112,8.40e-04,
113,-7.60e-04,
114,-3.60e-04,
115,1.08e-03,
116,-6.80e-04,
117,8.40e-04,
118,-6.00e-04,
119,9.20e-04,
120,-3.60e-04,
121,8.40e-04,
122,1.00e-03,
123,-5.20e-04,
124,-3.60e-04,
125,9.20e-04,
126,1.00e-03,
127,-4.40e-04,
128,5.20e-04,
129,-2.80e-04,
130,-3.60e-04,
131,5.60e-04,
132,7.60e-04,
133,-6.00e-04,
134,1.24e-03,
135,-4.40e-04,
136,-7.60e-04,
137,1.00e-03,
138,6.00e-04,
139,-6.00e-04,
140,6.00e-04,
141,-1.00e-03,
142,-1.16e-03,
143,1.00e-03,
144,1.00e-03,
145,-1.16e-03,
146,-6.80e-04,
147,1.16e-03,
148,6.00e-04,
149,-9.20e-04,
150,-6.00e-04,
151,7.60e-04,
152,-4.40e-04,
153,1.40e-03,
154,6.80e-04,
155,-3.60e-04,
156,9.20e-04,
157,-1.24e-03,
158,-2.00e-04,
159,1.16e-03,
160,-1.16e-03,
161,1.00e-03,
162,-6.00e-04,
163,7.60e-04,
164,6.80e-04,
165,-4.40e-04,
166,8.40e-04,
167,-4.40e-04,
168,6.80e-04,
169,-2.80e-04,
170,1.00e-03,
171,-7.60e-04,
172,1.56e-03,
173,-7.60e-04,
174,9.20e-04,
175,-3.20e-04,
176,-6.00e-04,
177,1.00e-03,
178,-6.80e-04,
179,4.40e-04,
180,1.56e-03,
181,-6.00e-04,
182,-4.40e-04,
183,1.16e-03,
184,-5.20e-04,
185,9.20e-04,
186,8.40e-04,
187,-1.08e-03,
188,1.08e-03,
189,-8.80e-04,
190,9.20e-04,
191,-7.60e-04,
192,1.00e-03,
193,-5.20e-04,
194,-2.00e-04,
195,9.20e-04,
196,1.16e-03,
197,-1.08e-03,
198,8.40e-04,
199,-6.40e-04,
200,-5.20e-04,
201,8.40e-04,
202,6.00e-04,
203,-6.00e-04,
204,-4.40e-04,
205,6.80e-04,
206,-5.20e-04,
207,1.32e-03,
208,1.24e-03,
209,-4.40e-04,
210,7.60e-04,
211,-5.20e-04,
212,-8.40e-04,
213,1.32e-03,
214,1.04e-03,
215,-1.28e-03,
216,8.40e-04,
217,-8.40e-04,
218,-4.40e-04,
219,1.40e-03,
220,6.00e-04,
221,-2.80e-04,
222,1.08e-03,
223,-8.40e-04,
224,1.40e-03,
225,-1.08e-03,
226,-6.00e-04,
227,1.32e-03,
228,1.00e-03,
229,-6.00e-04,
230,1.16e-03,
231,-1.00e-03,
232,-1.00e-03,
233,1.08e-03,
234,-8.40e-04,
235,1.00e-03,
236,1.00e-03,
237,-1.08e-03,
238,1.80e-03,
239,-9.20e-04,
240,-5.20e-04,
241,1.24e-03,
242,-6.80e-04,
243,1.16e-03,
244,1.64e-03,
245,-7.60e-04,
246,-9.20e-04,
247,1.24e-03,
248,-3.60e-04,
249,9.20e-04,
250,-8.40e-04,
251,1.00e-03,
252,-4.40e-04,
253,9.20e-04,
254,8.40e-04,
255,-6.00e-04,
256,7.60e-04,
257,-6.80e-04,
258,-5.20e-04,
259,1.00e-03,
260,-5.20e-04,
261,1.16e-03,
262,1.00e-03,
263,-4.40e-04,
264,6.80e-04,
265,-6.80e-04,
266,1.00e-03,
267,-3.60e-04,
268,-6.00e-04,
269,8.40e-04,
270,-1.08e-03,
271,1.08e-03,
272,-9.20e-04,
273,6.80e-04,
274,1.08e-03,
275,-6.00e-04,
276,-1.16e-03,
277,9.20e-04,
278,7.60e-04,
279,-6.00e-04,
280,-5.20e-04,
281,7.60e-04,
282,-1.32e-03,
283,6.00e-04,
284,-8.40e-04,
285,6.00e-04,
286,1.00e-03,
287,-9.20e-04,
288,9.20e-04,
289,-5.20e-04,
290,1.16e-03,
291,-8.40e-04,
292,9.20e-04,
293,-6.00e-04,
294,-9.60e-04,
295,6.00e-04,
296,-5.20e-04,
297,2.20e-03,
298,-4.40e-04,
299,1.72e-03,
300,1.00e-03,
301,-6.00e-04,
302,-7.60e-04,
303,1.16e-03,
304,-4.40e-04,
305,8.80e-04,
306,1.08e-03,
307,-3.60e-04,
308,1.08e-03,
309,-6.00e-04,
310,1.64e-03,
311,-8.40e-04,
312,-6.80e-04,
313,8.40e-04,
314,-4.40e-04,
315,1.80e-03,
316,-6.00e-04,
317,9.20e-04,
318,1.68e-03,
319,-6.00e-04,
320,8.40e-04,
321,-8.40e-04,
322,-7.60e-04,
323,1.48e-03,
324,-3.60e-04,
325,9.60e-04,
326,-6.00e-04,
327,1.92e-03,
328,-1.00e-03,
329,8.40e-04,
330,-8.40e-04,
331,9.60e-04,
332,-6.80e-04,
333,9.20e-04,
334,-6.00e-04,
335,6.00e-04,
336,-8.40e-04,
337,1.16e-03,
338,-5.20e-04,
339,6.80e-04,
340,8.80e-04,
341,-6.40e-04,
342,1.00e-03,
343,-6.80e-04,
344,-6.80e-04,
345,7.60e-04,
346,1.16e-03,
347,-4.80e-04,
348,8.40e-04,
349,-3.60e-04,
350,9.20e-04,
351,-3.60e-04,
352,-4.40e-04,
353,1.64e-03,
354,1.16e-03,
355,-8.40e-04,
356,-5.60e-04,
357,8.40e-04,
358,-6.00e-04,
359,7.60e-04,
360,-2.80e-04,
361,9.60e-04,
362,1.24e-03,
363,-7.60e-04,
364,-7.60e-04,
365,6.80e-04,
366,1.00e-03,
367,-6.40e-04,
368,-7.60e-04,
369,6.80e-04,
370,-6.00e-04,
371,1.16e-03,
372,9.20e-04,
373,-1.00e-03,
374,-1.16e-03,
375,6.00e-04,
376,1.00e-03,
377,-1.32e-03,
378,7.60e-04,
379,-6.00e-04,
380,-2.80e-04,
381,7.60e-04,
382,-6.00e-04,
383,1.16e-03,
384,9.20e-04,
385,-6.80e-04,
386,6.00e-04,
387,-5.20e-04,
388,-1.16e-03,
389,9.20e-04,
390,1.00e-03,
391,-7.60e-04,
392,1.08e-03,
393,-1.16e-03,
394,2.04e-03,
395,-7.60e-04,
396,8.40e-04,
397,-9.20e-04,
398,-9.60e-04,
399,8.40e-04,
400,1.16e-03,
401,-7.60e-04,
402,-8.40e-04,
403,8.40e-04,
404,-4.40e-04,
405,6.80e-04,
406,7.60e-04,
407,-8.40e-04,
408,1.00e-03,
409,-9.20e-04,
410,1.08e-03,
411,-7.60e-04,
412,9.60e-04,
413,-5.20e-04,
414,-7.60e-04,
415,1.32e-03,
416,6.80e-04,
417,-7.60e-04,
418,7.60e-04,
419,-8.40e-04,
420,1.24e-03,
421,-7.60e-04,
422,-6.00e-04,
423,1.00e-03,
424,-8.40e-04,
425,1.00e-03,
426,1.48e-03,
427,-1.08e-03,
428,1.24e-03,
429,-3.60e-04,
430,-7.60e-04,
431,7.60e-04,
432,-4.40e-04,
433,1.24e-03,
434,-8.40e-04,
435,9.20e-04,
436,-4.40e-04,
437,1.32e-03,
438,1.24e-03,
439,-5.20e-04,
440,1.08e-03,
441,-1.08e-03,
442,-1.00e-03,
443,1.08e-03,
444,9.60e-04,
445,-7.60e-04,
446,-1.08e-03,
447,1.08e-03,
448,9.20e-04,
449,-5.20e-04,
450,1.08e-03,
451,-7.60e-04,
452,9.20e-04,
453,-1.00e-03,
454,-6.80e-04,
455,7.60e-04,
456,-6.00e-04,
457,1.40e-03,
458,1.00e-03,
459,-1.16e-03,
460,8.40e-04,
461,-6.00e-04,
462,1.24e-03,
463,-7.60e-04,
464,-5.20e-04,
465,1.16e-03,
466,-8.40e-04,
467,1.56e-03,
468,1.16e-03,
469,-1.08e-03,
470,9.20e-04,
471,-4.40e-04,
472,1.32e-03,
473,-3.60e-04,
474,1.32e-03,
475,-6.00e-04,
476,-7.60e-04,
477,1.00e-03,
478,1.00e-03,
479,-4.40e-04,
480,-5.20e-04,
481,1.00e-03,
482,-1.16e-03,
483,1.32e-03,
484,6.80e-04,
485,-4.40e-04,
486,1.00e-03,
487,-6.80e-04,
488,8.40e-04,
489,-7.20e-04,
490,-4.40e-04,
491,1.00e-03,
492,-1.00e-03,
493,1.16e-03,
494,-1.00e-03,
495,1.00e-03,
496,8.40e-04,
497,-6.80e-04,
498,-4.40e-04,
499,1.60e-03,
500,1.00e-03,
501,-1.24e-03,
502,1.32e-03,
503,-1.16e-03,
504,-1.16e-03,
505,1.16e-03,
506,9.20e-04,
507,-6.80e-04,
508,-7.60e-04,
509,1.08e-03,
510,-1.08e-03,
511,1.32e-03,
512,1.24e-03,
513,-9.20e-04,
514,-8.40e-04,
515,7.60e-04,
516,9.20e-04,
517,-7.60e-04,
518,1.24e-03,
519,-5.20e-04,
520,-8.40e-04,
521,1.16e-03,
522,-4.40e-04,
523,1.40e-03,
524,1.24e-03,
525,-6.00e-04,
526,-7.60e-04,
527,2.04e-03,
528,7.60e-04,
529,-9.20e-04,
530,1.40e-03,
531,-5.20e-04,
532,1.08e-03,
533,-8.40e-04,
534,-7.60e-04,
535,1.24e-03,
536,9.20e-04,
537,-7.60e-04,
538,-7.60e-04,
539,6.80e-04,
540,-5.20e-04,
541,6.80e-04,
542,1.00e-03,
543,-4.40e-04,
544,1.00e-03,
545,-8.40e-04,
546,-8.40e-04,
547,9.20e-04,
548,-8.40e-04,
549,8.40e-04,
550,8.00e-04,
551,-6.80e-04,
552,-5.20e-04,
553,1.40e-03,
554,-6.80e-04,
555,1.08e-03,
556,1.64e-03,
557,-9.20e-04,
558,-6.80e-04,
559,8.40e-04,
560,-6.40e-04,
561,7.60e-04,
562,1.08e-03,
563,-8.40e-04,
564,8.40e-04,
565,-6.00e-04,
566,-8.40e-04,
567,2.04e-03,
568,9.20e-04,
569,-1.00e-03,
570,-5.20e-04,
571,1.16e-03,
572,8.40e-04,
573,-6.80e-04,
574,1.24e-03,
575,-1.16e-03,
576,-7.20e-04,
577,1.00e-03,
578,1.24e-03,
579,-1.00e-03,
580,7.60e-04,
581,-6.80e-04,
582,-4.40e-04,
583,1.68e-03,
584,-6.00e-04,
585,1.00e-03,
586,-8.40e-04,
587,7.60e-04,
588,7.60e-04,
589,-5.20e-04,
590,7.60e-04,
591,-7.60e-04,
592,-8.40e-04,
593,1.40e-03,
594,1.32e-03,
595,-1.24e-03,
596,-5.20e-04,
597,7.60e-04,
598,1.24e-03,
599,-7.60e-04,
600,-9.20e-04,
601,1.16e-03,
602,1.56e-03,
603,-1.40e-03,
604,1.72e-03,
605,-9.20e-04,
606,9.20e-04,
607,-9.20e-04,
608,1.40e-03,
609,-3.60e-04,
610,1.00e-03,
611,-7.20e-04,
612,6.80e-04,
613,-8.40e-04,
614,-1.16e-03,
615,9.20e-04,
616,-5.20e-04,
617,1.40e-03,
618,-6.80e-04,
619,8.40e-04,
620,7.60e-04,
621,-6.80e-04,
622,-1.00e-03,
623,1.36e-03,
624,-5.20e-04,
625,1.36e-03,
626,-4.40e-04,
627,1.08e-03,
628,8.40e-04,
629,-1.48e-03,
630,-5.20e-04,
631,9.20e-04,
632,-1.56e-03,
633,1.48e-03,
634,-8.80e-04,
635,9.20e-04,
636,-6.80e-04,
637,1.00e-03,
638,1.00e-03,
639,-5.20e-04,
640,1.24e-03,
641,-8.40e-04,
642,-9.60e-04,
643,1.00e-03,
644,-1.08e-03,
645,1.36e-03,
646,1.16e-03,
647,-1.16e-03,
648,-1.00e-03,
649,1.08e-03,
650,-6.80e-04,
651,1.08e-03,
652,-5.60e-04,
653,1.56e-03,
654,1.56e-03,
655,-1.08e-03,
656,7.20e-04,
657,-1.32e-03,
658,-8.40e-04,
659,8.40e-04,
660,1.24e-03,
661,-7.60e-04,
662,7.60e-04,
663,-1.00e-03,
664,-5.20e-04,
665,1.32e-03,
666,-1.00e-03,
667,7.60e-04,
668,-2.80e-04,
669,1.16e-03,
670,6.80e-04,
671,-9.20e-04,
672,-3.60e-04,
673,6.40e-04,
674,-9.20e-04,
675,1.16e-03,
676,6.00e-04,
677,-8.40e-04,
678,-9.20e-04,
679,1.00e-03,
680,1.24e-03,
681,-1.36e-03,
682,-3.60e-04,
683,7.60e-04,
684,-6.80e-04,
685,1.40e-03,
686,-9.20e-04,
687,9.20e-04,
688,1.08e-03,
689,-6.00e-04,
690,-7.60e-04,
691,1.16e-03,
692,-5.20e-04,
693,9.20e-04,
694,6.80e-04,
695,-5.20e-04,
696,-1.08e-03,
697,2.04e-03,
698,-8.40e-04,
699,1.00e-03,
700,8.00e-04,
701,-7.60e-04,
702,-5.20e-04,
703,1.64e-03,
704,-7.60e-04,
705,8.40e-04,
706,-1.00e-03,
707,7.60e-04,
708,-9.20e-04,
709,1.16e-03,
710,-9.20e-04,
711,1.16e-03,
712,-1.00e-03,
713,7.60e-04,
714,8.40e-04,
715,-8.40e-04,
716,-7.60e-04,
717,1.16e-03,
718,1.40e-03,
719,-1.48e-03,
720,1.00e-03,
721,-6.00e-04,
722,1.72e-03,
723,-6.80e-04,
724,-9.20e-04,
725,1.20e-03,
726,-6.00e-04,
727,1.16e-03,
728,1.00e-03,
729,-6.00e-04,
730,-6.80e-04,
731,1.32e-03,
732,7.60e-04,
733,-1.56e-03,
734,1.72e-03,
735,-7.60e-04,
736,1.16e-03,
737,-7.60e-04,
738,1.24e-03,
739,-5.20e-04,
740,1.72e-03,
741,-7.60e-04,
742,-5.20e-04,
743,1.40e-03,
744,-9.60e-04,
745,9.20e-04,
746,-3.60e-04,
747,9.20e-04,
748,-9.20e-04,
749,1.32e-03,
750,9.20e-04,
751,-5.20e-04,
752,7.60e-04,
753,-6.40e-04,
754,-7.60e-04,
755,1.00e-03,
756,-1.00e-03,
757,1.32e-03,
758,7.60e-04,
759,-1.24e-03,
760,1.32e-03,
761,-7.60e-04,
762,1.24e-03,
763,-8.40e-04,
764,1.24e-03,
765,-7.60e-04,
766,1.00e-03,
767,-7.60e-04,
768,1.08e-03,
769,-9.60e-04,
770,1.16e-03,
771,-1.00e-03,
772,1.40e-03,
773,-9.20e-04,
774,1.08e-03,
775,-4.00e-04,
776,-4.80e-04,
777,1.08e-03,
778,1.40e-03,
779,-1.16e-03,
780,9.20e-04,
781,-4.80e-04,
782,-5.20e-04,
783,1.16e-03,
784,-9.20e-04,
785,1.24e-03,
786,-4.40e-04,
787,9.20e-04,
788,-9.20e-04,
789,1.00e-03,
790,1.00e-03,
791,-9.20e-04,
792,-1.08e-03,
793,1.56e-03,
794,1.40e-03,
795,-1.16e-03,
796,1.48e-03,
797,-9.20e-04,
798,-5.20e-04,
799,9.20e-04,
800,-1.28e-03,
801,1.00e-03,
802,-8.80e-04,
803,9.20e-04,
804,-7.60e-04,
805,9.20e-04,
806,-7.60e-04,
807,1.32e-03,
808,1.16e-03,
809,-8.00e-04,
810,-4.40e-04,
811,7.60e-04,
812,-8.40e-04,
813,1.08e-03,
814,-6.80e-04,
815,1.56e-03,
816,-5.20e-04,
817,1.12e-03,
818,-8.40e-04,
819,1.72e-03,
820,7.60e-04,
821,-9.20e-04,
822,-1.08e-03,
823,1.08e-03,
824,-5.20e-04,
825,1.72e-03,
826,-1.08e-03,
827,1.16e-03,
828,1.40e-03,
829,-6.00e-04,
830,1.24e-03,
831,-1.24e-03,
832,8.40e-04,
833,-1.08e-03,
834,1.16e-03,
835,-5.20e-04,
836,-4.80e-04,
837,8.40e-04,
838,-6.80e-04,
839,1.00e-03,
840,-9.20e-04,
841,8.40e-04,
842,9.20e-04,
843,-4.40e-04,
844,-3.60e-04,
845,9.20e-04,
846,-1.24e-03,
847,1.56e-03,
848,-8.40e-04,
849,1.56e-03,
850,-8.40e-04,
851,1.00e-03,
852,9.60e-04,
853,-1.24e-03,
854,-4.40e-04,
855,1.24e-03,
856,-9.20e-04,
857,1.32e-03,
858,8.40e-04,
859,-1.00e-03,
860,-8.40e-04,
861,1.16e-03,
862,1.56e-03,
863,-6.80e-04,
864,-6.00e-04,
865,1.16e-03,
866,8.40e-04,
867,-5.60e-04,
868,1.20e-03,
869,-8.40e-04,
870,1.00e-03,
871,-7.60e-04,
872,-7.60e-04,
873,8.40e-04,
874,9.20e-04,
875,-1.16e-03,
876,8.40e-04,
877,-7.60e-04,
878,1.08e-03,
879,-9.20e-04,
880,-6.00e-04,
881,8.40e-04,
882,-7.60e-04,
883,1.16e-03,
884,6.00e-04,
885,-8.40e-04,
886,8.40e-04,
887,-9.20e-04,
888,-5.20e-04,
889,1.08e-03,
890,-1.00e-03,
891,1.16e-03,
892,-4.80e-04,
893,7.60e-04,
894,8.40e-04,
895,-3.60e-04,
896,-7.60e-04,
897,1.48e-03,
898,-1.00e-03,
899,1.56e-03,
900,9.20e-04,
901,-1.08e-03,
902,1.00e-03,
903,-7.60e-04,
904,-6.80e-04,
905,1.32e-03,
906,8.40e-04,
907,-1.00e-03,
908,-6.00e-04,
909,1.68e-03,
910,1.48e-03,
911,-7.60e-04,
912,1.00e-03,
913,-6.80e-04,
914,-7.60e-04,
915,8.40e-04,
916,1.08e-03,
917,-7.60e-04,
918,-1.28e-03,
919,1.20e-03,
920,1.08e-03,
921,-7.60e-04,
922,-1.00e-03,
923,1.08e-03,
924,1.80e-03,
925,-6.80e-04,
926,-8.40e-04,
927,1.24e-03,
928,8.40e-04,
929,-6.40e-04,
930,1.08e-03,
931,-6.40e-04,
932,-6.80e-04,
933,1.08e-03,
934,-9.20e-04,
935,1.00e-03,
936,7.60e-04,
937,-5.20e-04,
938,1.24e-03,
939,-6.00e-04,
940,-6.00e-04,
941,7.60e-04,
942,7.60e-04,
943,-4.40e-04,
944,-1.36e-03,
945,8.40e-04,
946,-7.60e-04,
947,1.32e-03,
948,1.64e-03,
949,-1.00e-03,
950,2.04e-03,
951,-1.20e-03,
952,9.20e-04,
953,-1.00e-03,
954,-4.40e-04,
955,1.08e-03,
956,-9.20e-04,
957,1.16e-03,
958,-6.00e-04,
959,1.32e-03,
960,1.24e-03,
961,-6.00e-04,
962,-8.40e-04,
963,8.40e-04,
964,-7.60e-04,
965,9.20e-04,
966,1.16e-03,
967,-1.40e-03,
968,-7.60e-04,
969,8.40e-04,
970,-7.20e-04,
971,1.16e-03,
972,-8.40e-04,
973,8.40e-04,
974,-6.00e-04,
975,9.20e-04,
976,1.16e-03,
977,-7.20e-04,
978,8.40e-04,
979,-4.40e-04,
980,-6.00e-04,
981,1.32e-03,
982,-1.00e-03,
983,9.20e-04,
984,1.16e-03,
985,-8.40e-04,
986,-6.00e-04,
987,1.08e-03,
988,-1.24e-03,
989,1.24e-03,
990,-6.80e-04,
991,6.80e-04,
992,-7.60e-04,
993,1.24e-03,
994,1.08e-03,
995,-7.60e-04,
996,-8.40e-04,
997,1.16e-03,
998,1.16e-03,
999,-6.80e-04,
1000,-5.20e-04,
1001,8.40e-04,
1002,-1.08e-03,
1003,1.00e-03,
1004,-6.80e-04,
1005,1.04e-03,
1006,8.40e-04,
1007,-1.08e-03,
1008,-9.20e-04,
1009,1.08e-03,
1010,-7.60e-04,
1011,1.40e-03,
1012,-5.20e-04,
1013,1.32e-03,
1014,9.20e-04,
1015,-9.20e-04,
1016,-4.40e-04,
1017,2.28e-03,
1018,-3.60e-04,
1019,8.00e-04,
1020,-9.20e-04,
1021,1.32e-03,
1022,-6.00e-04,
1023,1.20e-03,
1024,7.60e-04,
1025,-7.60e-04,
1026,9.20e-04,
1027,-9.20e-04,
1028,-7.60e-04,
1029,1.24e-03,
1030,1.16e-03,
1031,-6.80e-04,
1032,-4.40e-04,
1033,1.00e-03,
1034,1.56e-03,
1035,-8.40e-04,
1036,1.36e-03,
1037,-1.16e-03,
1038,-9.20e-04,
1039,1.48e-03,
1040,7.60e-04,
1041,-1.04e-03,
1042,-1.32e-03,
1043,1.08e-03,
1044,-5.20e-04,
1045,8.40e-04,
1046,6.80e-04,
1047,-6.00e-04,
1048,-8.40e-04,
1049,1.32e-03,
1050,-6.00e-04,
1051,9.20e-04,
1052,-1.08e-03,
1053,1.00e-03,
1054,-7.60e-04,
1055,1.00e-03,
1056,-5.20e-04,
1057,1.68e-03,
1058,-7.60e-04,
1059,1.24e-03,
1060,-7.60e-04,
1061,1.48e-03,
1062,1.08e-03,
1063,-8.40e-04,
1064,1.16e-03,
1065,-9.20e-04,
1066,9.20e-04,
1067,-8.40e-04,
1068,-5.20e-04,
1069,1.00e-03,
1070,-8.00e-04,
1071,1.80e-03,
1072,-6.80e-04,
1073,7.60e-04,
1074,-9.20e-04,
1075,9.20e-04,
1076,1.24e-03,
1077,-6.80e-04,
1078,7.60e-04,
1079,-6.80e-04,
1080,9.20e-04,
1081,-1.00e-03,
1082,1.32e-03,
1083,-6.00e-04,
1084,1.56e-03,
1085,-5.20e-04,
1086,1.00e-03,
1087,-6.80e-04,
1088,9.20e-04,
1089,-1.32e-03,
1090,1.16e-03,
1091,-1.00e-03,
1092,-7.60e-04,
1093,1.56e-03,
1094,1.08e-03,
1095,-6.80e-04,
1096,-6.80e-04,
1097,1.08e-03,
1098,1.24e-03,
1099,-8.40e-04,
1100,-1.16e-03,
1101,1.40e-03,
1102,9.60e-04,
1103,-6.00e-04,
1104,1.40e-03,
1105,-6.80e-04,
1106,-6.00e-04,
1107,9.20e-04,
1108,-8.40e-04,
1109,1.56e-03,
1110,-4.40e-04,
1111,1.48e-03,
1112,-4.80e-04,
1113,1.24e-03,
1114,-6.00e-04,
1115,1.20e-03,
1116,-8.40e-04,
1117,1.00e-03,
1118,-8.80e-04,
1119,1.32e-03,
1120,1.00e-03,
1121,-5.20e-04,
1122,-7.60e-04,
1123,1.08e-03,
1124,-9.20e-04,
1125,1.08e-03,
1126,-9.20e-04,
1127,1.48e-03,
1128,1.32e-03,
1129,-8.40e-04,
1130,9.20e-04,
1131,-9.20e-04,
1132,-1.00e-03,
1133,1.08e-03,
1134,1.00e-03,
1135,-4.80e-04,
1136,1.00e-03,
1137,-4.40e-04,
1138,-7.60e-04,
1139,9.20e-04,
1140,1.08e-03,
1141,-1.04e-03,
1142,-7.60e-04,
1143,1.08e-03,
1144,9.20e-04,
1145,-5.20e-04,
1146,-7.60e-04,
1147,1.16e-03,
1148,-1.00e-03,
1149,8.80e-04,
1150,1.08e-03,
1151,-9.20e-04,
1152,1.08e-03,
1153,-6.00e-04,
1154,9.20e-04,
1155,-1.04e-03,
1156,-1.08e-03,
1157,1.00e-03,
1158,-7.20e-04,
1159,1.08e-03,
1160,-5.20e-04,
1161,1.00e-03,
1162,1.16e-03,
1163,-6.00e-04,
1164,8.40e-04,
1165,-9.20e-04,
1166,1.16e-03,
1167,-9.20e-04,
1168,6.00e-04,
1169,-5.20e-04,
1170,1.16e-03,
1171,-4.40e-04,
1172,1.08e-03,
1173,-6.80e-04,
1174,-5.20e-04,
1175,1.40e-03,
1176,1.16e-03,
1177,-1.32e-03,
1178,-1.32e-03,
1179,8.40e-04,
1180,-7.60e-04,
1181,1.80e-03,
1182,-7.60e-04,
1183,1.56e-03,
1184,-9.20e-04,
1185,1.64e-03,
1186,1.00e-03,
1187,-7.60e-04,
1188,1.40e-03,
1189,-1.00e-03,
1190,8.40e-04,
1191,-1.00e-03,
1192,-1.00e-03,
1193,1.00e-03,
1194,-8.40e-04,
1195,1.00e-03,
1196,-1.16e-03,
1197,1.24e-03,
1198,1.16e-03,
1199,-1.16e-03,
