fastdiffamp/data-noise-set/NewFolder15/NewFile12.csv

X,CH1,Start,Increment,
Sequence,Volt,-5.490000e+00,1.000000e-02
0,2.80e-04,
1,-1.20e-04,
2,3.60e-04,
3,-4.00e-05,
4,3.60e-04,
5,-4.00e-05,
6,4.40e-04,
7,-1.20e-04,
8,-4.00e-05,
9,3.60e-04,
10,3.60e-04,
11,-4.00e-05,
12,-4.00e-05,
13,2.80e-04,
14,-4.00e-05,
15,3.60e-04,
16,3.60e-04,
17,-4.00e-05,
18,3.60e-04,
19,-4.00e-05,
20,-4.00e-05,
21,3.60e-04,
22,2.80e-04,
23,-4.00e-05,
24,3.60e-04,
25,-1.20e-04,
26,-4.00e-05,
27,3.60e-04,
28,2.80e-04,
29,-4.00e-05,
30,2.80e-04,
31,-4.00e-05,
32,-4.00e-05,
33,2.80e-04,
34,-1.20e-04,
35,3.60e-04,
36,4.40e-04,
37,-4.00e-05,
38,-4.00e-05,
39,3.60e-04,
40,-2.00e-04,
41,2.80e-04,
42,-1.20e-04,
43,2.80e-04,
44,2.80e-04,
45,-4.00e-05,
46,2.80e-04,
47,-1.20e-04,
48,-4.00e-05,
49,2.80e-04,
50,4.00e-05,
51,2.80e-04,
52,-1.20e-04,
53,2.80e-04,
54,-4.00e-05,
55,3.60e-04,
56,4.00e-05,
57,2.80e-04,
58,-1.20e-04,
59,2.80e-04,
60,3.60e-04,
61,-4.00e-05,
62,4.00e-05,
63,2.80e-04,
64,4.00e-05,
65,3.60e-04,
66,4.00e-05,
67,2.80e-04,
68,2.80e-04,
69,-4.00e-05,
70,3.60e-04,
71,-4.00e-05,
72,2.80e-04,
73,-4.00e-05,
74,-4.00e-05,
75,3.60e-04,
76,3.20e-04,
77,-4.00e-05,
78,-1.20e-04,
79,2.80e-04,
80,3.60e-04,
81,-4.00e-05,
82,-1.20e-04,
83,5.20e-04,
84,3.60e-04,
85,-1.20e-04,
86,4.00e-05,
87,3.60e-04,
88,2.80e-04,
89,-1.20e-04,
90,-1.20e-04,
91,3.60e-04,
92,-4.00e-05,
93,3.60e-04,
94,-4.00e-05,
95,3.60e-04,
96,2.80e-04,
97,-4.00e-05,
98,-4.00e-05,
99,3.60e-04,
100,-4.00e-05,
101,3.60e-04,
102,-1.20e-04,
103,3.60e-04,
104,-4.00e-05,
105,3.60e-04,
106,4.40e-04,
107,-4.00e-05,
108,2.00e-04,
109,-4.00e-05,
110,-4.00e-05,
111,3.60e-04,
112,3.60e-04,
113,-1.20e-04,
114,-1.20e-04,
115,2.80e-04,
116,-4.00e-05,
117,2.80e-04,
118,4.00e-05,
119,3.60e-04,
120,4.40e-04,
121,0.00e+00,
122,2.80e-04,
123,-4.00e-05,
124,3.60e-04,
125,-4.00e-05,
126,-4.00e-05,
127,3.60e-04,
128,4.00e-05,
129,4.40e-04,
130,3.60e-04,
131,4.00e-05,
132,-4.00e-05,
133,3.60e-04,
134,2.80e-04,
135,-4.00e-05,
136,-1.20e-04,
137,2.80e-04,
138,-4.00e-05,
139,2.80e-04,
140,-4.00e-05,
141,3.60e-04,
142,-4.00e-05,
143,3.60e-04,
144,-4.00e-05,
145,2.80e-04,
146,2.80e-04,
147,-4.00e-05,
148,2.80e-04,
149,-4.00e-05,
150,-1.20e-04,
151,2.40e-04,
152,3.60e-04,
153,-4.00e-05,
154,3.60e-04,
155,-1.20e-04,
156,-4.00e-05,
157,3.60e-04,
158,4.00e-05,
159,2.80e-04,
160,-4.00e-05,
161,3.60e-04,
162,-4.00e-05,
163,3.20e-04,
164,2.80e-04,
165,-1.20e-04,
166,2.80e-04,
167,-4.00e-05,
168,3.60e-04,
169,-1.20e-04,
170,2.80e-04,
171,-1.20e-04,
172,-4.00e-05,
173,2.80e-04,
174,3.60e-04,
175,0.00e+00,
176,3.60e-04,
177,-1.20e-04,
178,-1.20e-04,
179,2.80e-04,
180,-2.00e-04,
181,3.60e-04,
182,2.80e-04,
183,-1.20e-04,
184,-1.20e-04,
185,2.80e-04,
186,-1.20e-04,
187,2.80e-04,
188,-4.00e-05,
189,3.60e-04,
190,-4.00e-05,
191,2.80e-04,
192,-1.20e-04,
193,3.60e-04,
194,2.80e-04,
195,-1.20e-04,
196,3.60e-04,
197,-1.20e-04,
198,-1.20e-04,
199,2.80e-04,
200,-4.00e-05,
201,3.60e-04,
202,-4.00e-05,
203,2.80e-04,
204,2.80e-04,
205,-4.00e-05,
206,2.80e-04,
207,-1.20e-04,
208,2.80e-04,
209,-1.20e-04,
210,-1.20e-04,
211,3.60e-04,
212,-4.00e-05,
213,2.80e-04,
214,-4.00e-05,
215,3.60e-04,
216,2.80e-04,
217,-4.00e-05,
218,-4.00e-05,
219,3.60e-04,
220,3.60e-04,
221,-4.00e-05,
222,-1.20e-04,
223,2.80e-04,
224,-4.00e-05,
225,2.80e-04,
226,2.80e-04,
227,-1.20e-04,
228,-4.00e-05,
229,3.60e-04,
230,-4.00e-05,
231,2.80e-04,
232,2.80e-04,
233,-4.00e-05,
234,-4.00e-05,
235,2.80e-04,
236,-1.20e-04,
237,3.60e-04,
238,4.00e-05,
239,3.60e-04,
240,2.80e-04,
241,-4.00e-05,
242,-4.00e-05,
243,3.60e-04,
244,4.00e-05,
245,2.80e-04,
246,-4.00e-05,
247,3.60e-04,
248,2.80e-04,
249,-1.20e-04,
250,2.80e-04,
251,-1.20e-04,
252,-1.20e-04,
253,2.80e-04,
254,3.60e-04,
255,-4.00e-05,
256,-4.00e-05,
257,2.80e-04,
258,-1.20e-04,
259,3.60e-04,
260,-1.20e-04,
261,3.60e-04,
262,3.60e-04,
263,-4.00e-05,
264,-4.00e-05,
265,2.80e-04,
266,-4.00e-05,
267,3.60e-04,
268,-4.00e-05,
269,2.80e-04,
270,-1.20e-04,
271,2.80e-04,
272,-4.00e-05,
273,3.60e-04,
274,2.80e-04,
275,-4.00e-05,
276,-4.00e-05,
277,3.60e-04,
278,4.40e-04,
279,-1.20e-04,
280,-1.20e-04,
281,3.60e-04,
282,2.80e-04,
283,-1.20e-04,
284,2.80e-04,
285,-4.00e-05,
286,4.00e-05,
287,2.80e-04,
288,-4.00e-05,
289,2.80e-04,
290,-4.00e-05,
291,3.60e-04,
292,-4.00e-05,
293,3.60e-04,
294,3.60e-04,
295,-4.00e-05,
296,-4.00e-05,
297,3.60e-04,
298,-1.20e-04,
299,3.60e-04,
300,4.40e-04,
301,-4.00e-05,
302,-4.00e-05,
303,3.60e-04,
304,-1.20e-04,
305,2.80e-04,
306,4.00e-05,
307,2.80e-04,
308,2.80e-04,
309,4.00e-05,
310,2.80e-04,
311,-4.00e-05,
312,2.80e-04,
313,-1.20e-04,
314,-4.00e-05,
315,2.80e-04,
316,2.80e-04,
317,-1.20e-04,
318,2.80e-04,
319,-1.20e-04,
320,2.80e-04,
321,-4.00e-05,
322,2.80e-04,
323,-1.20e-04,
324,-4.00e-05,
325,2.80e-04,
326,2.80e-04,
327,-4.00e-05,
328,2.80e-04,
329,-4.00e-05,
330,3.60e-04,
331,-4.00e-05,
332,-4.00e-05,
333,3.60e-04,
334,3.60e-04,
335,4.00e-05,
336,3.60e-04,
337,-4.00e-05,
338,2.80e-04,
339,-1.20e-04,
340,2.80e-04,
341,-4.00e-05,
342,-4.00e-05,
343,2.80e-04,
344,3.60e-04,
345,-4.00e-05,
346,3.60e-04,
347,-4.00e-05,
348,-4.00e-05,
349,3.60e-04,
350,3.60e-04,
351,-4.00e-05,
352,2.80e-04,
353,-1.20e-04,
354,2.80e-04,
355,-1.20e-04,
356,2.80e-04,
357,-1.20e-04,
358,2.80e-04,
359,-1.20e-04,
360,-4.00e-05,
361,2.80e-04,
362,-1.20e-04,
363,3.60e-04,
364,-4.00e-05,
365,3.60e-04,
366,-4.00e-05,
367,2.80e-04,
368,2.80e-04,
369,-4.00e-05,
370,3.60e-04,
371,-4.00e-05,
372,-1.20e-04,
373,3.60e-04,
374,-4.00e-05,
375,2.80e-04,
376,-4.00e-05,
377,2.80e-04,
378,3.20e-04,
379,-1.20e-04,
380,-4.00e-05,
381,2.80e-04,
382,-1.20e-04,
383,3.60e-04,
384,-1.20e-04,
385,2.80e-04,
386,-4.00e-05,
387,3.60e-04,
388,-4.00e-05,
389,3.60e-04,
390,-1.20e-04,
391,2.80e-04,
392,-1.20e-04,
393,3.60e-04,
394,2.80e-04,
395,-1.20e-04,
396,2.80e-04,
397,-1.20e-04,
398,3.60e-04,
399,-4.00e-05,
400,2.80e-04,
401,-1.20e-04,
402,-1.20e-04,
403,2.80e-04,
404,-4.00e-05,
405,3.60e-04,
406,3.60e-04,
407,-1.20e-04,
408,-4.00e-05,
409,3.60e-04,
410,2.80e-04,
411,-4.00e-05,
412,3.60e-04,
413,-4.00e-05,
414,2.80e-04,
415,-4.00e-05,
416,-4.00e-05,
417,3.60e-04,
418,2.80e-04,
419,-4.00e-05,
420,-4.00e-05,
421,2.80e-04,
422,-4.00e-05,
423,3.60e-04,
424,-4.00e-05,
425,2.80e-04,
426,-1.20e-04,
427,3.60e-04,
428,-4.00e-05,
429,3.60e-04,
430,-4.00e-05,
431,2.80e-04,
432,2.80e-04,
433,-4.00e-05,
434,2.80e-04,
435,-4.00e-05,
436,-4.00e-05,
437,2.80e-04,
438,-4.00e-05,
439,2.80e-04,
440,2.80e-04,
441,-4.00e-05,
442,2.80e-04,
443,-1.20e-04,
444,2.80e-04,
445,-1.20e-04,
446,4.00e-05,
447,3.60e-04,
448,-4.00e-05,
449,3.60e-04,
450,2.80e-04,
451,-1.20e-04,
452,2.80e-04,
453,-1.20e-04,
454,3.60e-04,
455,-1.20e-04,
456,2.80e-04,
457,-1.20e-04,
458,-1.20e-04,
459,2.80e-04,
460,-4.00e-05,
461,2.80e-04,
462,3.60e-04,
463,-4.00e-05,
464,-4.00e-05,
465,2.80e-04,
466,-4.00e-05,
467,2.80e-04,
468,-4.00e-05,
469,3.60e-04,
470,-1.20e-04,
471,3.60e-04,
472,4.00e-05,
473,3.60e-04,
474,-4.00e-05,
475,3.60e-04,
476,-4.00e-05,
477,3.60e-04,
478,-4.00e-05,
479,2.80e-04,
480,-4.00e-05,
481,2.80e-04,
482,3.60e-04,
483,-1.20e-04,
484,-4.00e-05,
485,2.80e-04,
486,3.60e-04,
487,-4.00e-05,
488,-1.20e-04,
489,3.60e-04,
490,-1.20e-04,
491,2.80e-04,
492,3.60e-04,
493,-4.00e-05,
494,3.60e-04,
495,-4.00e-05,
496,3.60e-04,
497,-1.20e-04,
498,-4.00e-05,
499,3.60e-04,
500,-4.00e-05,
501,2.80e-04,
502,2.80e-04,
503,-1.20e-04,
504,-4.00e-05,
505,3.60e-04,
506,3.20e-04,
507,-4.00e-05,
508,2.80e-04,
509,-1.20e-04,
510,3.60e-04,
511,-1.20e-04,
512,-4.00e-05,
513,3.60e-04,
514,-4.00e-05,
515,3.60e-04,
516,3.60e-04,
517,-1.20e-04,
518,-4.00e-05,
519,3.60e-04,
520,3.60e-04,
521,-4.00e-05,
522,3.60e-04,
523,-4.00e-05,
524,2.80e-04,
525,4.00e-05,
526,3.60e-04,
527,-4.00e-05,
528,3.60e-04,
529,-4.00e-05,
530,-4.00e-05,
531,3.20e-04,
532,2.80e-04,
533,-1.20e-04,
534,-4.00e-05,
535,3.60e-04,
536,2.80e-04,
537,-4.00e-05,
538,-4.00e-05,
539,3.60e-04,
540,-4.00e-05,
541,3.60e-04,
542,3.60e-04,
543,-4.00e-05,
544,-4.00e-05,
545,3.60e-04,
546,-4.00e-05,
547,2.80e-04,
548,3.60e-04,
549,-4.00e-05,
550,3.60e-04,
551,-4.00e-05,
552,-4.00e-05,
553,3.60e-04,
554,2.00e-04,
555,-1.20e-04,
556,-1.20e-04,
557,4.40e-04,
558,-4.00e-05,
559,2.80e-04,
560,2.80e-04,
561,-4.00e-05,
562,-4.00e-05,
563,3.60e-04,
564,3.60e-04,
565,-4.00e-05,
566,3.60e-04,
567,-1.20e-04,
568,4.00e-05,
569,3.60e-04,
570,-1.20e-04,
571,3.60e-04,
572,4.00e-05,
573,3.60e-04,
574,3.60e-04,
575,-4.00e-05,
576,3.60e-04,
577,-4.00e-05,
578,2.80e-04,
579,-4.00e-05,
580,3.60e-04,
581,-4.00e-05,
582,-4.00e-05,
583,3.60e-04,
584,3.60e-04,
585,-4.00e-05,
586,-4.00e-05,
587,2.80e-04,
588,3.60e-04,
589,-4.00e-05,
590,-4.00e-05,
591,3.60e-04,
592,4.00e-05,
593,3.60e-04,
594,-4.00e-05,
595,4.40e-04,
596,-4.00e-05,
597,4.40e-04,
598,2.80e-04,
599,-1.20e-04,
600,3.60e-04,
601,-4.00e-05,
602,4.00e-05,
603,2.80e-04,
604,-4.00e-05,
605,3.60e-04,
606,3.60e-04,
607,-4.00e-05,
608,-4.00e-05,
609,3.60e-04,
610,2.80e-04,
611,-1.20e-04,
612,2.80e-04,
613,-1.20e-04,
614,2.80e-04,
615,-1.20e-04,
616,-4.00e-05,
617,4.40e-04,
618,-1.20e-04,
619,3.60e-04,
620,-1.20e-04,
621,2.80e-04,
622,3.60e-04,
623,-1.20e-04,
624,-4.00e-05,
625,4.40e-04,
626,-4.00e-05,
627,3.60e-04,
628,3.60e-04,
629,-4.00e-05,
630,-4.00e-05,
631,3.60e-04,
632,-4.00e-05,
633,3.60e-04,
634,-1.20e-04,
635,5.20e-04,
636,3.60e-04,
637,-1.20e-04,
638,3.60e-04,
639,-1.20e-04,
640,3.60e-04,
641,-4.00e-05,
642,3.60e-04,
643,-1.20e-04,
644,3.60e-04,
645,-4.00e-05,
646,-4.00e-05,
647,3.60e-04,
648,-1.20e-04,
649,3.60e-04,
650,4.00e-05,
651,3.60e-04,
652,3.60e-04,
653,-4.00e-05,
654,3.60e-04,
655,-1.20e-04,
656,2.80e-04,
657,-4.00e-05,
658,-4.00e-05,
659,2.80e-04,
660,3.60e-04,
661,-1.20e-04,
662,-1.20e-04,
663,3.60e-04,
664,2.80e-04,
665,-4.00e-05,
666,3.60e-04,
667,-4.00e-05,
668,-4.00e-05,
669,4.40e-04,
670,-4.00e-05,
671,3.60e-04,
672,-4.00e-05,
673,4.40e-04,
674,-4.00e-05,
675,3.60e-04,
676,-4.00e-05,
677,2.80e-04,
678,-4.00e-05,
679,3.20e-04,
680,3.60e-04,
681,-4.00e-05,
682,-4.00e-05,
683,3.60e-04,
684,-1.20e-04,
685,3.60e-04,
686,-1.20e-04,
687,3.60e-04,
688,-1.20e-04,
689,3.60e-04,
690,3.60e-04,
691,-4.00e-05,
692,-4.00e-05,
693,3.60e-04,
694,3.60e-04,
695,4.00e-05,
696,4.40e-04,
697,-4.00e-05,
698,-4.00e-05,
699,3.60e-04,
700,-4.00e-05,
701,3.60e-04,
702,2.80e-04,
703,-1.20e-04,
704,3.60e-04,
705,-1.20e-04,
706,5.20e-04,
707,-1.20e-04,
708,-1.20e-04,
709,3.60e-04,
710,2.80e-04,
711,-1.20e-04,
712,-1.20e-04,
713,2.80e-04,
714,3.60e-04,
715,-4.00e-05,
716,4.40e-04,
717,-1.20e-04,
718,-4.00e-05,
719,3.60e-04,
720,2.80e-04,
721,-1.20e-04,
722,3.60e-04,
723,-1.20e-04,
724,3.60e-04,
725,-4.00e-05,
726,-4.00e-05,
727,4.40e-04,
728,-4.00e-05,
729,2.80e-04,
730,-1.20e-04,
731,2.40e-04,
732,2.80e-04,
733,-4.00e-05,
734,2.80e-04,
735,-8.00e-05,
736,-4.00e-05,
737,2.80e-04,
738,-4.00e-05,
739,4.40e-04,
740,3.60e-04,
741,-1.20e-04,
742,2.80e-04,
743,-4.00e-05,
744,2.80e-04,
745,-4.00e-05,
746,2.80e-04,
747,-1.20e-04,
748,3.60e-04,
749,-1.20e-04,
750,-1.20e-04,
751,2.80e-04,
752,3.60e-04,
753,-4.00e-05,
754,2.80e-04,
755,-4.00e-05,
756,3.60e-04,
757,-1.20e-04,
758,3.60e-04,
759,-1.20e-04,
760,-4.00e-05,
761,3.60e-04,
762,3.60e-04,
763,-1.20e-04,
764,-8.00e-05,
765,3.60e-04,
766,2.80e-04,
767,-2.00e-04,
768,-1.20e-04,
769,2.80e-04,
770,-4.00e-05,
771,2.80e-04,
772,3.60e-04,
773,-1.20e-04,
774,-1.20e-04,
775,2.80e-04,
776,-4.00e-05,
777,3.60e-04,
778,-4.00e-05,
779,2.80e-04,
780,-4.00e-05,
781,2.80e-04,
782,3.60e-04,
783,-4.00e-05,
784,2.80e-04,
785,-4.00e-05,
786,3.60e-04,
787,-1.20e-04,
788,4.40e-04,
789,-4.00e-05,
790,3.60e-04,
791,-1.20e-04,
792,4.00e-05,
793,4.40e-04,
794,4.40e-04,
795,-4.00e-05,
796,2.80e-04,
797,-4.00e-05,
798,2.80e-04,
799,-1.20e-04,
800,-4.00e-05,
801,2.80e-04,
802,-1.20e-04,
803,3.60e-04,
804,-4.00e-05,
805,4.40e-04,
806,3.60e-04,
807,-1.20e-04,
808,-8.00e-05,
809,4.40e-04,
810,2.80e-04,
811,-4.00e-05,
812,3.60e-04,
813,-1.20e-04,
814,-4.00e-05,
815,3.60e-04,
816,3.60e-04,
817,-1.20e-04,
818,2.80e-04,
819,-1.20e-04,
820,3.60e-04,
821,-1.20e-04,
822,2.80e-04,
823,-1.20e-04,
824,4.40e-04,
825,-1.20e-04,
826,3.60e-04,
827,-4.00e-05,
828,-4.00e-05,
829,2.80e-04,
830,-1.20e-04,
831,3.60e-04,
832,4.40e-04,
833,4.00e-05,
834,-4.00e-05,
835,4.40e-04,
836,4.40e-04,
837,-4.00e-05,
838,3.60e-04,
839,-1.20e-04,
840,4.40e-04,
841,-1.20e-04,
842,-1.20e-04,
843,4.40e-04,
844,3.60e-04,
845,-4.00e-05,
846,-4.00e-05,
847,3.60e-04,
848,3.60e-04,
849,-4.00e-05,
850,2.80e-04,
851,-8.00e-05,
852,3.60e-04,
853,-1.20e-04,
854,-2.00e-04,
855,4.40e-04,
856,3.60e-04,
857,-1.20e-04,
858,-1.20e-04,
859,3.60e-04,
860,2.80e-04,
861,-1.20e-04,
862,2.80e-04,
863,-4.00e-05,
864,4.40e-04,
865,-4.00e-05,
866,2.80e-04,
867,-1.20e-04,
868,-4.00e-05,
869,3.60e-04,
870,2.80e-04,
871,-1.20e-04,
872,2.80e-04,
873,-1.20e-04,
874,3.60e-04,
875,-1.20e-04,
876,2.80e-04,
877,-1.20e-04,
878,2.80e-04,
879,-2.00e-04,
880,-1.20e-04,
881,4.40e-04,
882,-4.00e-05,
883,2.80e-04,
884,3.60e-04,
885,-4.00e-05,
886,-1.20e-04,
887,4.40e-04,
888,3.60e-04,
889,-1.20e-04,
890,2.80e-04,
891,-1.20e-04,
892,-1.20e-04,
893,2.80e-04,
894,-2.00e-04,
895,3.60e-04,
896,2.80e-04,
897,-4.00e-05,
898,-1.20e-04,
899,2.80e-04,
900,-4.00e-05,
901,3.60e-04,
902,2.80e-04,
903,-1.20e-04,
904,3.60e-04,
905,-1.20e-04,
906,2.80e-04,
907,-1.20e-04,
908,-4.00e-05,
909,3.60e-04,
910,-1.20e-04,
911,3.60e-04,
912,-1.20e-04,
913,3.60e-04,
914,-4.00e-05,
915,3.60e-04,
916,-1.20e-04,
917,3.60e-04,
918,3.60e-04,
919,-1.20e-04,
920,-4.00e-05,
921,3.60e-04,
922,-4.00e-05,
923,3.60e-04,
924,-1.20e-04,
925,3.60e-04,
926,-4.00e-05,
927,3.60e-04,
928,4.40e-04,
929,-1.20e-04,
930,-4.00e-05,
931,2.80e-04,
932,-1.20e-04,
933,5.20e-04,
934,2.80e-04,
935,-1.20e-04,
936,-4.00e-05,
937,4.40e-04,
938,3.60e-04,
939,-4.00e-05,
940,4.40e-04,
941,-4.00e-05,
942,3.60e-04,
943,-2.00e-04,
944,-4.00e-05,
945,3.20e-04,
946,-1.20e-04,
947,2.80e-04,
948,3.60e-04,
949,-4.00e-05,
950,4.40e-04,
951,-1.20e-04,
952,-4.00e-05,
953,3.60e-04,
954,2.80e-04,
955,-1.20e-04,
956,2.80e-04,
957,-4.00e-05,
958,-4.00e-05,
959,4.40e-04,
960,-4.00e-05,
961,3.60e-04,
962,-4.00e-05,
963,4.40e-04,
964,3.60e-04,
965,-1.20e-04,
966,3.60e-04,
967,-1.20e-04,
968,3.60e-04,
969,-1.20e-04,
970,-1.20e-04,
971,3.60e-04,
972,3.60e-04,
973,-4.00e-05,
974,3.60e-04,
975,-1.20e-04,
976,2.80e-04,
977,-1.20e-04,
978,3.60e-04,
979,-4.00e-05,
980,-4.00e-05,
981,3.60e-04,
982,4.00e-05,
983,3.60e-04,
984,-1.20e-04,
985,4.40e-04,
986,-1.20e-04,
987,3.60e-04,
988,3.60e-04,
989,-1.20e-04,
990,-1.20e-04,
991,2.80e-04,
992,-4.00e-05,
993,2.80e-04,
994,3.60e-04,
995,-4.00e-05,
996,3.60e-04,
997,-1.20e-04,
998,-4.00e-05,
999,3.60e-04,
1000,-1.20e-04,
1001,3.60e-04,
1002,-4.00e-05,
1003,2.80e-04,
1004,3.60e-04,
1005,-1.20e-04,
1006,4.00e-05,
1007,4.40e-04,
1008,3.60e-04,
1009,-4.00e-05,
1010,-4.00e-05,
1011,3.60e-04,
1012,3.60e-04,
1013,-2.00e-04,
1014,-4.00e-05,
1015,4.40e-04,
1016,2.80e-04,
1017,-4.00e-05,
1018,-4.00e-05,
1019,4.40e-04,
1020,-1.20e-04,
1021,3.60e-04,
1022,3.60e-04,
1023,-4.00e-05,
1024,-4.00e-05,
1025,3.60e-04,
1026,-1.20e-04,
1027,3.60e-04,
1028,-1.20e-04,
1029,3.60e-04,
1030,-4.00e-05,
1031,3.60e-04,
1032,-4.00e-05,
1033,2.80e-04,
1034,3.60e-04,
1035,-4.00e-05,
1036,-1.20e-04,
1037,3.60e-04,
1038,4.40e-04,
1039,-4.00e-05,
1040,4.40e-04,
1041,-4.00e-05,
1042,-4.00e-05,
1043,3.60e-04,
1044,3.60e-04,
1045,-1.20e-04,
1046,3.60e-04,
1047,-4.00e-05,
1048,-1.20e-04,
1049,4.40e-04,
1050,2.80e-04,
1051,-1.20e-04,
1052,3.60e-04,
1053,-4.00e-05,
1054,-4.00e-05,
1055,4.40e-04,
1056,-4.00e-05,
1057,3.60e-04,
1058,4.00e-05,
1059,4.40e-04,
1060,3.60e-04,
1061,-1.20e-04,
1062,3.60e-04,
1063,-4.00e-05,
1064,2.80e-04,
1065,-4.00e-05,
1066,4.40e-04,
1067,4.00e-05,
1068,4.00e-05,
1069,3.60e-04,
1070,-1.20e-04,
1071,2.80e-04,
1072,3.60e-04,
1073,-4.00e-05,
1074,-4.00e-05,
1075,3.20e-04,
1076,-4.00e-05,
1077,3.60e-04,
1078,-4.00e-05,
1079,2.80e-04,
1080,4.40e-04,
1081,-4.00e-05,
1082,3.60e-04,
1083,-1.20e-04,
1084,-4.00e-05,
1085,3.60e-04,
1086,3.60e-04,
1087,-4.00e-05,
1088,4.40e-04,
1089,-4.00e-05,
1090,3.60e-04,
1091,-4.00e-05,
1092,-1.20e-04,
1093,3.60e-04,
1094,4.40e-04,
1095,-1.20e-04,
1096,3.60e-04,
1097,-1.20e-04,
1098,-1.20e-04,
1099,3.60e-04,
1100,-1.20e-04,
1101,3.60e-04,
1102,2.80e-04,
1103,-1.20e-04,
1104,2.80e-04,
1105,-1.20e-04,
1106,3.60e-04,
1107,-4.00e-05,
1108,4.40e-04,
1109,-4.00e-05,
1110,3.60e-04,
1111,-4.00e-05,
1112,4.40e-04,
1113,-4.00e-05,
1114,2.80e-04,
1115,-1.20e-04,
1116,3.60e-04,
1117,-4.00e-05,
1118,2.80e-04,
1119,4.00e-05,
1120,2.80e-04,
1121,-1.20e-04,
1122,3.60e-04,
1123,-1.20e-04,
1124,3.60e-04,
1125,-4.00e-05,
1126,2.80e-04,
1127,-4.00e-05,
1128,3.60e-04,
1129,-4.00e-05,
1130,-4.00e-05,
1131,3.60e-04,
1132,-4.00e-05,
1133,4.40e-04,
1134,-1.20e-04,
1135,3.20e-04,
1136,3.60e-04,
1137,-4.00e-05,
1138,3.60e-04,
1139,-1.20e-04,
1140,-4.00e-05,
1141,3.60e-04,
1142,3.60e-04,
1143,-1.20e-04,
1144,2.80e-04,
1145,-4.00e-05,
1146,2.80e-04,
1147,-1.20e-04,
1148,4.40e-04,
1149,-1.20e-04,
1150,-1.20e-04,
1151,3.60e-04,
1152,-4.00e-05,
1153,2.80e-04,
1154,2.00e-04,
1155,-1.60e-04,
1156,-4.00e-05,
1157,2.80e-04,
1158,2.80e-04,
1159,-1.20e-04,
1160,2.80e-04,
1161,-1.20e-04,
1162,-1.20e-04,
1163,2.80e-04,
1164,3.60e-04,
1165,-1.20e-04,
1166,3.20e-04,
1167,-1.20e-04,
1168,-1.20e-04,
1169,3.60e-04,
1170,3.60e-04,
1171,-1.20e-04,
1172,2.80e-04,
1173,-1.20e-04,
1174,3.60e-04,
1175,-1.20e-04,
1176,-4.00e-05,
1177,2.80e-04,
1178,-4.00e-05,
1179,2.80e-04,
1180,2.80e-04,
1181,-4.00e-05,
1182,3.60e-04,
1183,-4.00e-05,
1184,3.60e-04,
1185,-1.20e-04,
1186,-4.00e-05,
1187,3.60e-04,
1188,3.60e-04,
1189,-1.20e-04,
1190,4.40e-04,
1191,-1.20e-04,
1192,-1.20e-04,
1193,2.80e-04,
1194,3.60e-04,
1195,-4.00e-05,
1196,-4.00e-05,
1197,2.80e-04,
1198,-4.00e-05,
1199,4.40e-04,
