fastdiffamp/data-noise-set/NewFolder15/NewFile8.csv

X,CH1,Start,Increment,
Sequence,Volt,-5.990000e+00,1.000000e-02
0,-1.08e-03,
1,3.00e-03,
2,-1.48e-03,
3,1.52e-03,
4,2.12e-03,
5,-1.48e-03,
6,1.72e-03,
7,-1.80e-03,
8,1.28e-03,
9,-1.12e-03,
10,-1.16e-03,
11,1.88e-03,
12,2.20e-03,
13,-1.12e-03,
14,-1.24e-03,
15,2.04e-03,
16,2.24e-03,
17,-1.64e-03,
18,3.08e-03,
19,-1.16e-03,
20,1.60e-03,
21,-1.00e-03,
22,-1.16e-03,
23,2.92e-03,
24,1.64e-03,
25,-1.48e-03,
26,-1.64e-03,
27,1.72e-03,
28,2.76e-03,
29,-1.16e-03,
30,-1.32e-03,
31,1.80e-03,
32,-1.24e-03,
33,2.12e-03,
34,1.64e-03,
35,-1.72e-03,
36,-1.16e-03,
37,2.04e-03,
38,1.64e-03,
39,-1.16e-03,
40,2.72e-03,
41,-1.48e-03,
42,2.12e-03,
43,-1.16e-03,
44,1.72e-03,
45,-1.16e-03,
46,-1.48e-03,
47,2.20e-03,
48,-1.72e-03,
49,1.72e-03,
50,-1.24e-03,
51,1.48e-03,
52,1.84e-03,
53,-1.08e-03,
54,2.12e-03,
55,-1.08e-03,
56,-1.24e-03,
57,1.80e-03,
58,1.64e-03,
59,-1.32e-03,
60,-1.40e-03,
61,1.96e-03,
62,2.28e-03,
63,-1.48e-03,
64,2.36e-03,
65,-1.48e-03,
66,1.96e-03,
67,-1.00e-03,
68,1.80e-03,
69,-1.24e-03,
70,-1.48e-03,
71,2.04e-03,
72,2.20e-03,
73,-1.32e-03,
74,1.72e-03,
75,-1.36e-03,
76,2.00e-03,
77,-1.56e-03,
78,2.04e-03,
79,-1.24e-03,
80,-1.68e-03,
81,1.96e-03,
82,1.40e-03,
83,-1.48e-03,
84,-1.32e-03,
85,1.48e-03,
86,3.00e-03,
87,-1.32e-03,
88,-1.48e-03,
89,1.72e-03,
90,2.88e-03,
91,-1.32e-03,
92,-1.72e-03,
93,2.16e-03,
94,-1.48e-03,
95,3.08e-03,
96,1.80e-03,
97,-1.40e-03,
98,1.92e-03,
99,-1.16e-03,
100,2.12e-03,
101,-1.32e-03,
102,1.64e-03,
103,-1.08e-03,
104,1.72e-03,
105,-1.64e-03,
106,-1.20e-03,
107,1.56e-03,
108,2.44e-03,
109,-1.32e-03,
110,2.04e-03,
111,-1.48e-03,
112,-1.76e-03,
113,3.00e-03,
114,2.80e-03,
115,-1.32e-03,
116,-1.40e-03,
117,1.72e-03,
118,-2.20e-03,
119,3.00e-03,
120,-1.40e-03,
121,1.72e-03,
122,-1.24e-03,
123,1.56e-03,
124,2.76e-03,
125,-1.24e-03,
126,2.04e-03,
127,-1.32e-03,
128,2.52e-03,
129,-1.44e-03,
130,1.80e-03,
131,-2.36e-03,
132,-1.64e-03,
133,1.64e-03,
134,1.56e-03,
135,-1.80e-03,
136,-1.56e-03,
137,1.88e-03,
138,2.60e-03,
139,-1.48e-03,
140,1.92e-03,
141,-1.84e-03,
142,2.84e-03,
143,-1.64e-03,
144,2.16e-03,
145,-1.32e-03,
146,1.88e-03,
147,-1.24e-03,
148,1.96e-03,
149,-1.72e-03,
150,2.20e-03,
151,-1.08e-03,
152,2.12e-03,
153,-1.56e-03,
154,-1.56e-03,
155,2.12e-03,
156,1.76e-03,
157,-1.48e-03,
158,3.00e-03,
159,-1.24e-03,
160,1.88e-03,
161,-1.60e-03,
162,2.04e-03,
163,-1.24e-03,
164,-1.16e-03,
165,2.04e-03,
166,2.12e-03,
167,-1.40e-03,
168,-1.00e-03,
169,2.44e-03,
170,-1.64e-03,
171,2.04e-03,
172,-1.56e-03,
173,2.12e-03,
174,1.96e-03,
175,-1.48e-03,
176,2.32e-03,
177,-1.24e-03,
178,2.04e-03,
179,-1.20e-03,
180,-1.64e-03,
181,2.52e-03,
182,2.28e-03,
183,-1.80e-03,
184,1.64e-03,
185,-1.32e-03,
186,-2.04e-03,
187,1.80e-03,
188,-1.60e-03,
189,2.52e-03,
190,1.88e-03,
191,-1.40e-03,
192,-1.32e-03,
193,1.80e-03,
194,-1.48e-03,
195,1.96e-03,
196,-1.24e-03,
197,2.32e-03,
198,-1.32e-03,
199,2.84e-03,
200,-1.64e-03,
201,1.88e-03,
202,-1.64e-03,
203,2.92e-03,
204,-1.56e-03,
205,2.92e-03,
206,-1.48e-03,
207,1.96e-03,
208,-1.84e-03,
209,2.76e-03,
210,2.20e-03,
211,-1.80e-03,
212,-1.40e-03,
213,2.60e-03,
214,-1.32e-03,
215,2.68e-03,
216,-1.40e-03,
217,2.12e-03,
218,2.60e-03,
219,-1.36e-03,
220,-1.48e-03,
221,3.24e-03,
222,3.40e-03,
223,-1.36e-03,
224,-1.48e-03,
225,2.92e-03,
226,1.96e-03,
227,-1.76e-03,
228,2.76e-03,
229,-1.72e-03,
230,2.28e-03,
231,-1.72e-03,
232,-1.80e-03,
233,1.80e-03,
234,2.36e-03,
235,-1.16e-03,
236,2.28e-03,
237,-2.12e-03,
238,-1.64e-03,
239,3.24e-03,
240,-1.40e-03,
241,2.28e-03,
242,2.32e-03,
243,-1.56e-03,
244,-1.48e-03,
245,2.12e-03,
246,-1.72e-03,
247,2.60e-03,
248,-2.12e-03,
249,1.96e-03,
250,2.16e-03,
251,-1.44e-03,
252,-1.32e-03,
253,3.40e-03,
254,2.56e-03,
255,-1.72e-03,
256,-1.40e-03,
257,2.68e-03,
258,3.12e-03,
259,-1.72e-03,
260,2.68e-03,
261,-1.96e-03,
262,2.60e-03,
263,-1.60e-03,
264,-1.96e-03,
265,3.32e-03,
266,-1.44e-03,
267,2.28e-03,
268,-1.92e-03,
269,2.84e-03,
270,2.60e-03,
271,-1.88e-03,
272,-2.00e-03,
273,2.44e-03,
274,-2.28e-03,
275,2.92e-03,
276,2.68e-03,
277,-1.24e-03,
278,-1.88e-03,
279,2.92e-03,
280,-1.72e-03,
281,2.36e-03,
282,-1.48e-03,
283,2.72e-03,
284,3.72e-03,
285,-1.32e-03,
286,-1.24e-03,
287,3.00e-03,
288,-1.64e-03,
289,2.60e-03,
290,-1.80e-03,
291,2.20e-03,
292,3.04e-03,
293,-1.72e-03,
294,2.52e-03,
295,-1.92e-03,
296,-2.12e-03,
297,3.88e-03,
298,-1.48e-03,
299,2.88e-03,
300,-1.48e-03,
301,3.08e-03,
302,4.96e-03,
303,-1.88e-03,
304,-1.56e-03,
305,4.24e-03,
306,-1.56e-03,
307,2.52e-03,
308,-2.12e-03,
309,2.44e-03,
310,-1.80e-03,
311,2.52e-03,
312,2.76e-03,
313,-1.48e-03,
314,-1.08e-03,
315,3.84e-03,
316,-1.48e-03,
317,2.80e-03,
318,2.36e-03,
319,-1.56e-03,
320,-1.80e-03,
321,2.92e-03,
322,-2.40e-03,
323,3.40e-03,
324,3.12e-03,
325,-2.04e-03,
326,3.40e-03,
327,-1.72e-03,
328,2.64e-03,
329,-1.96e-03,
330,-1.32e-03,
331,3.24e-03,
332,-2.16e-03,
333,3.04e-03,
334,3.16e-03,
335,-1.48e-03,
336,3.40e-03,
337,-2.44e-03,
338,-1.64e-03,
339,3.00e-03,
340,2.92e-03,
341,-1.80e-03,
342,-1.72e-03,
343,3.60e-03,
344,-1.92e-03,
345,3.16e-03,
346,-1.84e-03,
347,2.52e-03,
348,3.00e-03,
349,-1.56e-03,
350,3.68e-03,
351,-1.56e-03,
352,-1.96e-03,
353,3.44e-03,
354,-1.96e-03,
355,2.80e-03,
356,-1.72e-03,
357,3.04e-03,
358,3.64e-03,
359,-1.84e-03,
360,3.08e-03,
361,-1.56e-03,
362,4.12e-03,
363,-2.12e-03,
364,-2.16e-03,
365,3.08e-03,
366,-1.80e-03,
367,3.92e-03,
368,3.84e-03,
369,-1.96e-03,
370,2.64e-03,
371,-1.96e-03,
372,3.92e-03,
373,-1.88e-03,
374,-1.88e-03,
375,3.00e-03,
376,-1.64e-03,
377,5.08e-03,
378,-1.64e-03,
379,3.40e-03,
380,-1.72e-03,
381,4.48e-03,
382,-2.20e-03,
383,3.96e-03,
384,-1.92e-03,
385,4.04e-03,
386,5.08e-03,
387,-3.00e-03,
388,-1.88e-03,
389,2.88e-03,
390,-2.04e-03,
391,4.56e-03,
392,-1.92e-03,
393,3.20e-03,
394,3.32e-03,
395,-1.80e-03,
396,-1.40e-03,
397,3.68e-03,
398,-1.48e-03,
399,4.96e-03,
400,4.00e-03,
401,-2.28e-03,
402,-2.20e-03,
403,2.44e-03,
404,-1.56e-03,
405,3.00e-03,
406,-2.04e-03,
407,5.08e-03,
408,3.04e-03,
409,-3.28e-03,
410,2.96e-03,
411,-2.44e-03,
412,4.80e-03,
413,-2.28e-03,
414,-1.60e-03,
415,3.32e-03,
416,-2.68e-03,
417,3.44e-03,
418,3.56e-03,
419,-1.72e-03,
420,2.92e-03,
421,-1.72e-03,
422,-3.04e-03,
423,4.80e-03,
424,4.44e-03,
425,-2.32e-03,
426,-2.04e-03,
427,3.92e-03,
428,3.84e-03,
429,-1.48e-03,
430,-1.96e-03,
431,3.76e-03,
432,3.32e-03,
433,-1.80e-03,
434,-2.32e-03,
435,4.24e-03,
436,3.76e-03,
437,-3.40e-03,
438,3.36e-03,
439,-2.04e-03,
440,5.08e-03,
441,-1.64e-03,
442,5.08e-03,
443,-2.52e-03,
444,-1.64e-03,
445,3.68e-03,
446,4.72e-03,
447,-1.80e-03,
448,3.20e-03,
449,-1.80e-03,
450,-2.24e-03,
451,3.20e-03,
452,5.08e-03,
453,-1.88e-03,
454,2.92e-03,
455,-2.08e-03,
456,-2.04e-03,
457,4.64e-03,
458,-1.72e-03,
459,3.20e-03,
460,5.04e-03,
461,-1.76e-03,
462,-2.12e-03,
463,4.40e-03,
464,-1.64e-03,
465,4.00e-03,
466,4.44e-03,
467,-2.76e-03,
468,-2.40e-03,
469,5.08e-03,
470,5.04e-03,
471,-2.44e-03,
472,4.64e-03,
473,-2.44e-03,
474,-2.04e-03,
475,3.80e-03,
476,3.56e-03,
477,-2.44e-03,
478,4.28e-03,
479,-1.88e-03,
480,3.84e-03,
481,-2.04e-03,
482,-2.44e-03,
483,5.08e-03,
484,3.28e-03,
485,-2.20e-03,
486,5.08e-03,
487,-1.88e-03,
488,4.40e-03,
489,-1.36e-03,
490,4.88e-03,
491,-2.36e-03,
492,-1.88e-03,
493,5.04e-03,
494,-1.96e-03,
495,5.08e-03,
496,4.68e-03,
497,-2.20e-03,
498,4.60e-03,
499,-1.60e-03,
500,-2.68e-03,
501,3.56e-03,
502,3.92e-03,
503,-2.80e-03,
504,-2.92e-03,
505,4.16e-03,
506,5.08e-03,
507,-2.52e-03,
508,-2.12e-03,
509,3.80e-03,
510,5.08e-03,
511,-2.48e-03,
512,-2.84e-03,
513,5.00e-03,
514,4.96e-03,
515,-1.80e-03,
516,3.48e-03,
517,-2.12e-03,
518,-1.80e-03,
519,3.48e-03,
520,5.08e-03,
521,-2.16e-03,
522,-2.60e-03,
523,4.20e-03,
524,5.08e-03,
525,-1.88e-03,
526,3.80e-03,
527,-2.68e-03,
528,-2.36e-03,
529,4.88e-03,
530,3.24e-03,
531,-3.00e-03,
532,-1.92e-03,
533,3.40e-03,
534,-3.00e-03,
535,4.56e-03,
536,4.56e-03,
537,-2.92e-03,
538,3.24e-03,
539,-2.40e-03,
540,5.04e-03,
541,-2.68e-03,
542,-2.48e-03,
543,5.08e-03,
544,5.08e-03,
545,-2.24e-03,
546,-2.64e-03,
547,5.08e-03,
548,-2.12e-03,
549,3.84e-03,
550,5.04e-03,
551,-2.20e-03,
552,-2.60e-03,
553,4.12e-03,
554,5.08e-03,
555,-2.44e-03,
556,-1.68e-03,
557,4.00e-03,
558,5.08e-03,
559,-1.36e-03,
560,-2.80e-03,
561,4.36e-03,
562,5.08e-03,
563,-1.64e-03,
564,4.40e-03,
565,-2.60e-03,
566,-2.60e-03,
567,5.08e-03,
568,4.20e-03,
569,-2.44e-03,
570,4.40e-03,
571,-2.36e-03,
572,-2.48e-03,
573,3.72e-03,
574,-1.88e-03,
575,4.84e-03,
576,-2.36e-03,
577,4.40e-03,
578,-1.80e-03,
579,4.24e-03,
580,-1.96e-03,
581,5.08e-03,
582,-2.12e-03,
583,3.56e-03,
584,-1.80e-03,
585,3.80e-03,
586,3.92e-03,
587,-1.80e-03,
588,-2.28e-03,
589,4.00e-03,
590,-2.12e-03,
591,4.04e-03,
592,4.80e-03,
593,-1.96e-03,
594,-2.20e-03,
595,3.92e-03,
596,3.72e-03,
597,-2.92e-03,
598,-2.44e-03,
599,5.08e-03,
600,4.16e-03,
601,-1.88e-03,
602,-2.68e-03,
603,5.04e-03,
604,4.04e-03,
605,-2.32e-03,
606,4.12e-03,
607,-2.44e-03,
608,3.96e-03,
609,-2.12e-03,
610,-2.80e-03,
611,5.08e-03,
612,3.76e-03,
613,-2.04e-03,
614,-2.48e-03,
615,4.00e-03,
616,5.08e-03,
617,-2.92e-03,
618,-2.44e-03,
619,4.56e-03,
620,-2.36e-03,
621,5.08e-03,
622,5.08e-03,
623,-2.68e-03,
624,5.08e-03,
625,-2.32e-03,
626,4.32e-03,
627,-2.28e-03,
628,-2.76e-03,
629,4.28e-03,
630,5.08e-03,
631,-2.52e-03,
632,-2.60e-03,
633,5.08e-03,
634,4.64e-03,
635,-1.96e-03,
636,4.28e-03,
637,-2.36e-03,
638,4.68e-03,
639,-3.12e-03,
640,4.28e-03,
641,-2.44e-03,
642,4.12e-03,
643,-2.44e-03,
644,5.08e-03,
645,-2.32e-03,
646,3.68e-03,
647,-3.40e-03,
648,-2.04e-03,
649,4.28e-03,
650,-2.76e-03,
651,4.64e-03,
652,3.20e-03,
653,-2.28e-03,
654,5.08e-03,
655,-1.88e-03,
656,4.52e-03,
657,-2.44e-03,
658,5.08e-03,
659,-1.88e-03,
660,-2.32e-03,
661,4.24e-03,
662,5.08e-03,
663,-1.96e-03,
664,4.60e-03,
665,-2.76e-03,
666,-1.80e-03,
667,4.72e-03,
668,4.96e-03,
669,-2.72e-03,
670,-2.36e-03,
671,4.04e-03,
672,5.08e-03,
673,-2.20e-03,
674,-1.96e-03,
675,4.20e-03,
676,-2.60e-03,
677,4.60e-03,
678,5.08e-03,
679,-2.48e-03,
680,-2.04e-03,
681,5.04e-03,
682,-2.04e-03,
683,5.08e-03,
684,-2.52e-03,
685,5.08e-03,
686,-2.52e-03,
687,5.08e-03,
688,-2.04e-03,
689,5.08e-03,
690,-2.04e-03,
691,4.00e-03,
692,-3.32e-03,
693,4.72e-03,
694,-2.12e-03,
695,3.96e-03,
696,-1.96e-03,
697,4.36e-03,
698,-2.52e-03,
699,5.08e-03,
700,5.08e-03,
701,-1.96e-03,
702,-2.12e-03,
703,4.72e-03,
704,5.08e-03,
705,-2.12e-03,
706,-2.60e-03,
707,4.56e-03,
708,-2.60e-03,
709,4.04e-03,
710,5.08e-03,
711,-2.36e-03,
712,-2.08e-03,
713,3.96e-03,
714,4.64e-03,
715,-2.28e-03,
716,4.56e-03,
717,-1.92e-03,
718,-1.80e-03,
719,5.08e-03,
720,-1.92e-03,
721,4.04e-03,
722,-2.12e-03,
723,4.76e-03,
724,4.20e-03,
725,-2.84e-03,
726,-1.88e-03,
727,4.48e-03,
728,5.08e-03,
729,-1.72e-03,
730,-2.20e-03,
731,5.08e-03,
732,-2.84e-03,
733,4.20e-03,
734,-2.20e-03,
735,5.08e-03,
736,-2.16e-03,
737,4.72e-03,
738,-3.08e-03,
739,4.84e-03,
740,3.84e-03,
741,-2.96e-03,
742,-3.12e-03,
743,4.28e-03,
744,4.20e-03,
745,-2.28e-03,
746,-2.32e-03,
747,4.88e-03,
748,5.08e-03,
749,-2.36e-03,
750,5.08e-03,
751,-2.12e-03,
752,-2.44e-03,
753,5.08e-03,
754,4.64e-03,
755,-2.28e-03,
756,-2.68e-03,
757,3.52e-03,
758,4.44e-03,
759,-2.48e-03,
760,-2.44e-03,
761,4.64e-03,
762,5.08e-03,
763,-2.04e-03,
764,-2.56e-03,
765,5.08e-03,
766,5.08e-03,
767,-1.64e-03,
768,-1.88e-03,
769,3.72e-03,
770,5.08e-03,
771,-2.44e-03,
772,-2.12e-03,
773,4.96e-03,
774,4.48e-03,
775,-2.64e-03,
776,3.96e-03,
777,-2.44e-03,
778,-2.28e-03,
779,4.40e-03,
780,3.92e-03,
781,-2.52e-03,
782,5.08e-03,
783,-2.56e-03,
784,-2.52e-03,
785,5.08e-03,
786,5.08e-03,
787,-2.52e-03,
788,-2.12e-03,
789,5.08e-03,
790,5.08e-03,
791,-2.12e-03,
792,-1.88e-03,
793,4.76e-03,
794,5.08e-03,
795,-2.04e-03,
796,-3.04e-03,
797,5.08e-03,
798,-2.28e-03,
799,5.08e-03,
800,-2.16e-03,
801,5.08e-03,
802,4.64e-03,
803,-2.60e-03,
804,-2.12e-03,
805,5.08e-03,
806,4.72e-03,
807,-2.04e-03,
808,5.08e-03,
809,-2.84e-03,
810,5.08e-03,
811,-2.12e-03,
812,4.36e-03,
813,-2.60e-03,
814,5.08e-03,
815,-1.80e-03,
816,-2.20e-03,
817,4.20e-03,
818,-3.04e-03,
819,5.04e-03,
820,4.08e-03,
821,-2.20e-03,
822,-2.60e-03,
823,4.08e-03,
824,-2.60e-03,
825,3.48e-03,
826,-1.96e-03,
827,5.08e-03,
828,-2.24e-03,
829,5.04e-03,
830,-3.04e-03,
831,4.52e-03,
832,-2.16e-03,
833,5.00e-03,
834,4.80e-03,
835,-2.40e-03,
836,5.08e-03,
837,-1.48e-03,
838,-2.68e-03,
839,5.00e-03,
840,-2.56e-03,
841,5.04e-03,
842,5.08e-03,
843,-1.84e-03,
844,-2.24e-03,
845,5.08e-03,
846,5.08e-03,
847,-1.96e-03,
848,4.44e-03,
849,-2.20e-03,
850,4.72e-03,
851,-2.60e-03,
852,5.08e-03,
853,-2.52e-03,
854,-1.96e-03,
855,5.08e-03,
856,-1.96e-03,
857,4.64e-03,
858,5.08e-03,
859,-2.28e-03,
860,-2.84e-03,
861,4.48e-03,
862,-2.12e-03,
863,4.96e-03,
864,-1.88e-03,
865,4.52e-03,
866,4.80e-03,
867,-1.80e-03,
868,-2.04e-03,
869,4.16e-03,
870,-2.52e-03,
871,5.08e-03,
872,4.52e-03,
873,-2.12e-03,
874,-2.44e-03,
875,4.28e-03,
876,4.88e-03,
877,-3.00e-03,
878,5.08e-03,
879,-1.96e-03,
880,-2.60e-03,
881,5.08e-03,
882,4.80e-03,
883,-2.80e-03,
884,4.56e-03,
885,-2.12e-03,
886,5.08e-03,
887,-3.00e-03,
888,-2.96e-03,
889,4.88e-03,
890,5.08e-03,
891,-2.60e-03,
892,5.08e-03,
893,-2.36e-03,
894,-2.04e-03,
895,5.08e-03,
896,-2.08e-03,
897,4.48e-03,
898,-2.12e-03,
899,3.88e-03,
900,3.92e-03,
901,-1.88e-03,
902,5.08e-03,
903,-2.36e-03,
904,4.68e-03,
905,-2.28e-03,
906,-1.80e-03,
907,3.84e-03,
908,5.08e-03,
909,-2.64e-03,
910,-2.44e-03,
911,4.64e-03,
912,5.08e-03,
913,-2.28e-03,
914,5.08e-03,
915,-2.04e-03,
916,-2.04e-03,
917,4.32e-03,
918,4.28e-03,
919,-2.64e-03,
920,-2.36e-03,
921,5.08e-03,
922,-1.84e-03,
923,5.08e-03,
924,5.08e-03,
925,-2.04e-03,
926,3.84e-03,
927,-2.20e-03,
928,4.80e-03,
929,-2.60e-03,
930,4.48e-03,
931,-1.88e-03,
932,-1.64e-03,
933,5.08e-03,
934,5.08e-03,
935,-2.52e-03,
936,5.08e-03,
937,-2.12e-03,
938,-2.28e-03,
939,4.96e-03,
940,5.08e-03,
941,-2.36e-03,
942,4.64e-03,
943,-2.56e-03,
944,-3.28e-03,
945,5.08e-03,
946,4.72e-03,
947,-2.64e-03,
948,4.96e-03,
949,-2.68e-03,
950,-1.64e-03,
951,5.08e-03,
952,-1.80e-03,
953,5.08e-03,
954,-1.64e-03,
955,5.08e-03,
956,-2.12e-03,
957,5.08e-03,
958,-2.80e-03,
959,5.08e-03,
960,5.08e-03,
961,-2.20e-03,
962,5.08e-03,
963,-2.36e-03,
964,5.08e-03,
965,-1.96e-03,
966,5.08e-03,
967,-2.44e-03,
968,5.08e-03,
969,-1.80e-03,
970,5.08e-03,
971,-3.08e-03,
972,4.48e-03,
973,-2.84e-03,
974,5.08e-03,
975,-1.80e-03,
976,-2.20e-03,
977,4.80e-03,
978,5.08e-03,
979,-2.16e-03,
980,-2.12e-03,
981,5.08e-03,
982,5.08e-03,
983,-1.88e-03,
984,5.08e-03,
985,-2.04e-03,
986,-2.52e-03,
987,4.32e-03,
988,4.60e-03,
989,-1.88e-03,
990,5.08e-03,
991,-2.04e-03,
992,4.80e-03,
993,-2.68e-03,
994,5.08e-03,
995,-1.96e-03,
996,4.68e-03,
997,-2.08e-03,
998,3.84e-03,
999,-2.60e-03,
1000,4.68e-03,
1001,-1.96e-03,
1002,4.20e-03,
1003,-1.92e-03,
1004,-2.40e-03,
1005,3.88e-03,
1006,4.72e-03,
1007,-2.76e-03,
1008,-2.68e-03,
1009,5.08e-03,
1010,5.08e-03,
1011,-2.36e-03,
1012,-2.32e-03,
1013,5.08e-03,
1014,4.96e-03,
1015,-2.00e-03,
1016,-2.28e-03,
1017,4.28e-03,
1018,-2.76e-03,
1019,5.08e-03,
1020,5.08e-03,
1021,-2.44e-03,
1022,4.32e-03,
1023,-2.36e-03,
1024,5.08e-03,
1025,-2.32e-03,
1026,5.08e-03,
1027,-3.40e-03,
1028,4.96e-03,
1029,-2.00e-03,
1030,5.08e-03,
1031,-1.88e-03,
1032,5.08e-03,
1033,-2.52e-03,
1034,5.08e-03,
1035,-2.52e-03,
1036,4.48e-03,
1037,-1.96e-03,
1038,-2.52e-03,
1039,4.28e-03,
1040,5.04e-03,
1041,-2.12e-03,
1042,5.08e-03,
1043,-2.36e-03,
1044,5.08e-03,
1045,-2.20e-03,
1046,-2.68e-03,
1047,4.40e-03,
1048,4.48e-03,
1049,-2.68e-03,
1050,5.08e-03,
1051,-1.88e-03,
1052,-2.28e-03,
1053,5.08e-03,
1054,-2.44e-03,
1055,5.08e-03,
1056,-2.56e-03,
1057,4.64e-03,
1058,-2.36e-03,
1059,5.08e-03,
1060,-2.56e-03,
1061,5.08e-03,
1062,-2.28e-03,
1063,5.08e-03,
1064,4.76e-03,
1065,-2.52e-03,
1066,4.96e-03,
1067,-1.84e-03,
1068,-2.36e-03,
1069,5.08e-03,
1070,-2.36e-03,
1071,5.08e-03,
1072,5.00e-03,
1073,-2.60e-03,
1074,4.36e-03,
1075,-2.68e-03,
1076,4.20e-03,
1077,-2.28e-03,
1078,4.88e-03,
1079,-2.44e-03,
1080,5.08e-03,
1081,-2.60e-03,
1082,-1.72e-03,
1083,5.08e-03,
1084,-1.88e-03,
1085,4.96e-03,
1086,-2.32e-03,
1087,5.08e-03,
1088,-3.12e-03,
1089,5.08e-03,
1090,-3.04e-03,
1091,5.08e-03,
1092,4.96e-03,
1093,-2.52e-03,
1094,5.08e-03,
1095,-2.52e-03,
1096,-2.36e-03,
1097,4.16e-03,
1098,-2.56e-03,
1099,4.56e-03,
1100,-2.76e-03,
1101,4.28e-03,
1102,-2.28e-03,
1103,4.28e-03,
1104,4.16e-03,
1105,-2.52e-03,
1106,4.96e-03,
1107,-2.12e-03,
1108,5.08e-03,
1109,-2.88e-03,
1110,-2.28e-03,
1111,5.08e-03,
1112,-2.68e-03,
1113,4.76e-03,
1114,5.08e-03,
1115,-2.40e-03,
1116,-1.80e-03,
1117,5.08e-03,
1118,-1.72e-03,
1119,4.16e-03,
1120,4.40e-03,
1121,-2.32e-03,
1122,5.08e-03,
1123,-2.20e-03,
1124,5.08e-03,
1125,-2.48e-03,
1126,4.96e-03,
1127,-2.48e-03,
1128,5.08e-03,
1129,-2.36e-03,
1130,4.72e-03,
1131,-2.60e-03,
1132,5.08e-03,
1133,-2.60e-03,
1134,-2.36e-03,
1135,5.08e-03,
1136,4.56e-03,
1137,-2.60e-03,
1138,-2.12e-03,
1139,5.08e-03,
1140,-2.20e-03,
1141,5.08e-03,
1142,5.08e-03,
1143,-2.44e-03,
1144,-2.16e-03,
1145,4.88e-03,
1146,5.08e-03,
1147,-2.76e-03,
1148,-2.64e-03,
1149,4.80e-03,
1150,-2.76e-03,
1151,3.68e-03,
1152,-2.40e-03,
1153,4.88e-03,
1154,5.08e-03,
1155,-2.36e-03,
1156,-2.44e-03,
1157,5.08e-03,
1158,-2.28e-03,
1159,5.08e-03,
1160,5.08e-03,
1161,-2.36e-03,
1162,5.08e-03,
1163,-3.16e-03,
1164,5.08e-03,
1165,-2.56e-03,
1166,-2.64e-03,
1167,5.08e-03,
1168,-2.80e-03,
1169,4.56e-03,
1170,4.56e-03,
1171,-1.88e-03,
1172,-2.52e-03,
1173,5.04e-03,
1174,-2.44e-03,
1175,4.40e-03,
1176,4.96e-03,
1177,-3.08e-03,
1178,-2.04e-03,
1179,5.08e-03,
1180,4.72e-03,
1181,-2.68e-03,
1182,5.08e-03,
1183,-2.28e-03,
1184,-2.28e-03,
1185,3.80e-03,
1186,-2.76e-03,
1187,4.88e-03,
1188,5.08e-03,
1189,-2.60e-03,
1190,4.56e-03,
1191,-2.16e-03,
1192,5.08e-03,
1193,-2.52e-03,
1194,5.08e-03,
1195,-2.76e-03,
1196,-2.44e-03,
1197,4.44e-03,
1198,-1.68e-03,
1199,5.08e-03,
