fastdiffamp/data-noise-set/bal-mean/NewFile9.csv

X,CH1,Start,Increment,
Sequence,Volt,-5.990000e+00,1.000000e-02
0,-4.80e-02,
1,-1.12e-01,
2,-3.60e-02,
3,-1.20e-01,
4,-4.40e-02,
5,-1.20e-01,
6,-1.24e-01,
7,-4.00e-02,
8,-1.16e-01,
9,-4.00e-02,
10,-1.16e-01,
11,-2.80e-02,
12,-1.12e-01,
13,-2.80e-02,
14,-1.28e-01,
15,-3.20e-02,
16,-4.00e-02,
17,-1.12e-01,
18,-1.12e-01,
19,-3.20e-02,
20,-1.04e-01,
21,-2.80e-02,
22,-4.40e-02,
23,-1.24e-01,
24,-4.40e-02,
25,-1.12e-01,
26,-1.32e-01,
27,-4.00e-02,
28,-3.20e-02,
29,-1.24e-01,
30,-4.40e-02,
31,-1.28e-01,
32,-1.12e-01,
33,-3.20e-02,
34,-4.40e-02,
35,-1.24e-01,
36,-1.20e-01,
37,-4.00e-02,
38,-1.12e-01,
39,-4.00e-02,
40,-4.80e-02,
41,-1.12e-01,
42,-4.40e-02,
43,-1.12e-01,
44,-3.60e-02,
45,-1.12e-01,
46,-1.20e-01,
47,-4.00e-02,
48,-1.16e-01,
49,-4.00e-02,
50,-4.40e-02,
51,-1.12e-01,
52,-3.20e-02,
53,-1.16e-01,
54,-1.16e-01,
55,-4.00e-02,
56,-4.40e-02,
57,-1.12e-01,
58,-4.40e-02,
59,-1.20e-01,
60,-4.40e-02,
61,-1.16e-01,
62,-4.40e-02,
63,-1.12e-01,
64,-4.00e-02,
65,-1.08e-01,
66,-4.40e-02,
67,-1.12e-01,
68,-4.40e-02,
69,-1.08e-01,
70,-1.20e-01,
71,-3.60e-02,
72,-4.40e-02,
73,-1.28e-01,
74,-1.16e-01,
75,-3.60e-02,
76,-1.20e-01,
77,-3.60e-02,
78,-4.40e-02,
79,-1.12e-01,
80,-4.40e-02,
81,-1.24e-01,
82,-1.08e-01,
83,-5.20e-02,
84,-1.08e-01,
85,-4.00e-02,
86,-4.40e-02,
87,-1.16e-01,
88,-1.12e-01,
89,-4.00e-02,
90,-4.40e-02,
91,-1.08e-01,
92,-1.08e-01,
93,-4.00e-02,
94,-4.40e-02,
95,-1.20e-01,
96,-1.08e-01,
97,-4.40e-02,
98,-4.40e-02,
99,-1.12e-01,
100,-1.24e-01,
101,-4.00e-02,
102,-4.40e-02,
103,-1.20e-01,
104,-1.12e-01,
105,-3.60e-02,
106,-4.80e-02,
107,-1.24e-01,
108,-4.40e-02,
109,-1.16e-01,
110,-3.20e-02,
111,-1.24e-01,
112,-4.80e-02,
113,-1.20e-01,
114,-4.00e-02,
115,-1.12e-01,
116,-1.12e-01,
117,-4.40e-02,
118,-3.60e-02,
119,-1.20e-01,
120,-1.16e-01,
121,-4.40e-02,
122,-1.20e-01,
123,-3.60e-02,
124,-1.20e-01,
125,-4.00e-02,
126,-4.00e-02,
127,-1.16e-01,
128,-1.20e-01,
129,-3.60e-02,
130,-3.60e-02,
131,-1.08e-01,
132,-2.80e-02,
133,-1.24e-01,
134,-1.24e-01,
135,-4.00e-02,
136,-4.00e-02,
137,-1.04e-01,
138,-1.20e-01,
139,-3.60e-02,
140,-1.08e-01,
141,-4.00e-02,
142,-1.04e-01,
143,-4.40e-02,
144,-4.00e-02,
145,-1.16e-01,
146,-1.08e-01,
147,-4.40e-02,
148,-4.40e-02,
149,-1.20e-01,
150,-1.12e-01,
151,-4.00e-02,
152,-2.80e-02,
153,-1.16e-01,
154,-4.40e-02,
155,-1.12e-01,
156,-4.40e-02,
157,-1.12e-01,
158,-1.20e-01,
159,-4.40e-02,
160,-1.12e-01,
161,-3.20e-02,
162,-4.80e-02,
163,-1.24e-01,
164,-4.40e-02,
165,-1.12e-01,
166,-4.00e-02,
167,-1.20e-01,
168,-1.16e-01,
169,-3.60e-02,
170,-3.60e-02,
171,-1.20e-01,
172,-1.16e-01,
173,-4.40e-02,
174,-1.20e-01,
175,-3.20e-02,
176,-4.80e-02,
177,-1.28e-01,
178,-3.20e-02,
179,-1.36e-01,
180,-1.12e-01,
181,-4.00e-02,
182,-4.80e-02,
183,-1.20e-01,
184,-3.60e-02,
185,-1.12e-01,
186,-3.20e-02,
187,-1.12e-01,
188,-1.16e-01,
189,-3.20e-02,
190,-4.00e-02,
191,-1.12e-01,
192,-1.08e-01,
193,-4.00e-02,
194,-3.20e-02,
195,-1.12e-01,
196,-1.16e-01,
197,-3.60e-02,
198,-4.00e-02,
199,-1.12e-01,
200,-1.24e-01,
201,-4.00e-02,
202,-1.20e-01,
203,-3.60e-02,
204,-4.40e-02,
205,-1.20e-01,
206,-1.20e-01,
207,-3.60e-02,
208,-1.16e-01,
209,-3.20e-02,
210,-1.24e-01,
211,-4.40e-02,
212,-3.20e-02,
213,-1.12e-01,
214,-2.80e-02,
215,-1.08e-01,
216,-4.00e-02,
217,-1.24e-01,
218,-4.00e-02,
219,-1.16e-01,
220,-1.20e-01,
221,-4.00e-02,
222,-4.40e-02,
223,-1.12e-01,
224,-1.12e-01,
225,-3.20e-02,
226,-4.40e-02,
227,-1.24e-01,
228,-3.60e-02,
229,-1.16e-01,
230,-1.12e-01,
231,-4.40e-02,
232,-1.20e-01,
233,-4.00e-02,
234,-1.12e-01,
235,-3.20e-02,
236,-4.00e-02,
237,-1.16e-01,
238,-4.40e-02,
239,-1.16e-01,
240,-4.00e-02,
241,-1.08e-01,
242,-1.28e-01,
243,-4.00e-02,
244,-4.00e-02,
245,-1.12e-01,
246,-4.00e-02,
247,-1.12e-01,
248,-1.16e-01,
249,-3.20e-02,
250,-1.12e-01,
251,-3.60e-02,
252,-3.60e-02,
253,-1.16e-01,
254,-1.12e-01,
255,-4.00e-02,
256,-1.20e-01,
257,-4.00e-02,
258,-1.36e-01,
259,-3.20e-02,
260,-4.00e-02,
261,-1.20e-01,
262,-4.40e-02,
263,-1.12e-01,
264,-4.40e-02,
265,-1.20e-01,
266,-1.28e-01,
267,-4.40e-02,
268,-4.00e-02,
269,-1.20e-01,
270,-4.00e-02,
271,-1.20e-01,
272,-4.00e-02,
273,-1.12e-01,
274,-1.24e-01,
275,-4.40e-02,
276,-3.60e-02,
277,-1.24e-01,
278,-1.12e-01,
279,-3.60e-02,
280,-1.16e-01,
281,-3.20e-02,
282,-1.24e-01,
283,-4.00e-02,
284,-2.40e-02,
285,-1.16e-01,
286,-1.24e-01,
287,-4.40e-02,
288,-4.40e-02,
289,-1.12e-01,
290,-4.40e-02,
291,-1.12e-01,
292,-3.60e-02,
293,-1.12e-01,
294,-4.00e-02,
295,-1.20e-01,
296,-4.40e-02,
297,-1.12e-01,
298,-4.00e-02,
299,-1.08e-01,
300,-4.40e-02,
301,-1.12e-01,
302,-1.28e-01,
303,-2.80e-02,
304,-4.00e-02,
305,-1.16e-01,
306,-2.80e-02,
307,-1.16e-01,
308,-1.12e-01,
309,-4.00e-02,
310,-4.40e-02,
311,-1.20e-01,
312,-1.20e-01,
313,-4.80e-02,
314,-3.60e-02,
315,-1.12e-01,
316,-3.60e-02,
317,-1.12e-01,
318,-1.12e-01,
319,-4.00e-02,
320,-1.16e-01,
321,-4.00e-02,
322,-1.20e-01,
323,-4.80e-02,
324,-4.40e-02,
325,-1.12e-01,
326,-1.20e-01,
327,-2.80e-02,
328,-4.80e-02,
329,-1.12e-01,
330,-1.04e-01,
331,-4.40e-02,
332,-1.12e-01,
333,-4.00e-02,
334,-4.00e-02,
335,-1.08e-01,
336,-1.16e-01,
337,-4.80e-02,
338,-4.40e-02,
339,-1.12e-01,
340,-1.20e-01,
341,-4.40e-02,
342,-1.08e-01,
343,-3.60e-02,
344,-4.00e-02,
345,-1.12e-01,
346,-1.08e-01,
347,-2.80e-02,
348,-1.20e-01,
349,-4.40e-02,
350,-4.00e-02,
351,-1.08e-01,
352,-1.12e-01,
353,-4.40e-02,
354,-4.40e-02,
355,-1.20e-01,
356,-4.00e-02,
357,-1.08e-01,
358,-1.12e-01,
359,-4.00e-02,
360,-1.16e-01,
361,-4.00e-02,
362,-4.00e-02,
363,-1.24e-01,
364,-1.16e-01,
365,-4.00e-02,
366,-1.12e-01,
367,-4.40e-02,
368,-4.40e-02,
369,-1.20e-01,
370,-1.20e-01,
371,-4.00e-02,
372,-4.00e-02,
373,-1.12e-01,
374,-1.16e-01,
375,-3.60e-02,
376,-1.16e-01,
377,-3.20e-02,
378,-4.40e-02,
379,-1.20e-01,
380,-4.00e-02,
381,-1.16e-01,
382,-4.40e-02,
383,-1.08e-01,
384,-1.16e-01,
385,-4.00e-02,
386,-1.16e-01,
387,-4.00e-02,
388,-3.20e-02,
389,-1.20e-01,
390,-2.40e-02,
391,-1.12e-01,
392,-4.40e-02,
393,-1.12e-01,
394,-1.16e-01,
395,-4.00e-02,
396,-4.00e-02,
397,-1.16e-01,
398,-1.20e-01,
399,-4.40e-02,
400,-3.60e-02,
401,-1.12e-01,
402,-4.00e-02,
403,-1.12e-01,
404,-1.20e-01,
405,-3.60e-02,
406,-4.00e-02,
407,-1.28e-01,
408,-3.60e-02,
409,-1.20e-01,
410,-4.40e-02,
411,-1.24e-01,
412,-4.40e-02,
413,-1.20e-01,
414,-4.00e-02,
415,-1.12e-01,
416,-4.00e-02,
417,-1.20e-01,
418,-1.16e-01,
419,-3.60e-02,
420,-4.40e-02,
421,-1.20e-01,
422,-4.40e-02,
423,-1.12e-01,
424,-4.40e-02,
425,-1.12e-01,
426,-4.40e-02,
427,-1.12e-01,
428,-2.80e-02,
429,-1.08e-01,
430,-1.28e-01,
431,-2.80e-02,
432,-4.40e-02,
433,-1.16e-01,
434,-4.00e-02,
435,-1.24e-01,
436,-4.00e-02,
437,-1.16e-01,
438,-4.80e-02,
439,-1.12e-01,
440,-3.60e-02,
441,-1.20e-01,
442,-1.12e-01,
443,-3.60e-02,
444,-1.16e-01,
445,-4.80e-02,
446,-1.08e-01,
447,-3.60e-02,
448,-4.00e-02,
449,-1.20e-01,
450,-1.24e-01,
451,-2.80e-02,
452,-4.00e-02,
453,-1.20e-01,
454,-3.60e-02,
455,-1.12e-01,
456,-4.00e-02,
457,-1.24e-01,
458,-4.80e-02,
459,-1.20e-01,
460,-1.20e-01,
461,-4.00e-02,
462,-2.40e-02,
463,-1.24e-01,
464,-1.16e-01,
465,-4.00e-02,
466,-1.24e-01,
467,-3.20e-02,
468,-1.16e-01,
469,-2.80e-02,
470,-1.16e-01,
471,-3.60e-02,
472,-4.00e-02,
473,-1.12e-01,
474,-1.08e-01,
475,-3.60e-02,
476,-4.00e-02,
477,-1.12e-01,
478,-4.00e-02,
479,-1.16e-01,
480,-4.00e-02,
481,-1.12e-01,
482,-1.12e-01,
483,-4.00e-02,
484,-1.16e-01,
485,-4.00e-02,
486,-3.60e-02,
487,-1.08e-01,
488,-1.12e-01,
489,-4.00e-02,
490,-4.00e-02,
491,-1.12e-01,
492,-1.16e-01,
493,-4.40e-02,
494,-1.08e-01,
495,-4.00e-02,
496,-1.20e-01,
497,-4.00e-02,
498,-4.00e-02,
499,-1.12e-01,
500,-4.40e-02,
501,-1.12e-01,
502,-4.40e-02,
503,-1.24e-01,
504,-1.20e-01,
505,-4.40e-02,
506,-4.00e-02,
507,-1.16e-01,
508,-4.80e-02,
509,-1.12e-01,
510,-1.16e-01,
511,-4.40e-02,
512,-4.40e-02,
513,-1.24e-01,
514,-1.04e-01,
515,-4.00e-02,
516,-3.60e-02,
517,-1.12e-01,
518,-4.80e-02,
519,-1.12e-01,
520,-1.16e-01,
521,-3.60e-02,
522,-4.00e-02,
523,-1.24e-01,
524,-4.00e-02,
525,-1.20e-01,
526,-1.24e-01,
527,-4.00e-02,
528,-1.08e-01,
529,-3.20e-02,
530,-1.20e-01,
531,-3.60e-02,
532,-1.28e-01,
533,-4.00e-02,
534,-4.00e-02,
535,-1.12e-01,
536,-3.60e-02,
537,-1.20e-01,
538,-3.60e-02,
539,-1.12e-01,
540,-1.16e-01,
541,-4.00e-02,
542,-4.40e-02,
543,-1.24e-01,
544,-1.16e-01,
545,-3.60e-02,
546,-4.80e-02,
547,-1.20e-01,
548,-1.12e-01,
549,-4.00e-02,
550,-2.80e-02,
551,-1.12e-01,
552,-4.00e-02,
553,-1.08e-01,
554,-4.00e-02,
555,-1.12e-01,
556,-4.00e-02,
557,-1.28e-01,
558,-1.24e-01,
559,-2.80e-02,
560,-4.80e-02,
561,-1.20e-01,
562,-4.40e-02,
563,-1.20e-01,
564,-4.00e-02,
565,-1.16e-01,
566,-4.40e-02,
567,-1.20e-01,
568,-4.40e-02,
569,-1.24e-01,
570,-1.24e-01,
571,-3.20e-02,
572,-2.80e-02,
573,-1.16e-01,
574,-4.00e-02,
575,-1.20e-01,
576,-4.40e-02,
577,-1.20e-01,
578,-1.16e-01,
579,-4.40e-02,
580,-4.00e-02,
581,-1.28e-01,
582,-1.08e-01,
583,-4.40e-02,
584,-4.80e-02,
585,-1.16e-01,
586,-4.40e-02,
587,-1.12e-01,
588,-1.08e-01,
589,-4.40e-02,
590,-1.12e-01,
591,-4.00e-02,
592,-4.40e-02,
593,-1.12e-01,
594,-3.60e-02,
595,-1.16e-01,
596,-4.00e-02,
597,-1.12e-01,
598,-1.24e-01,
599,-2.40e-02,
600,-4.40e-02,
601,-1.20e-01,
602,-4.40e-02,
603,-1.24e-01,
604,-1.08e-01,
605,-2.80e-02,
606,-1.12e-01,
607,-3.60e-02,
608,-1.16e-01,
609,-4.00e-02,
610,-4.40e-02,
611,-1.24e-01,
612,-4.80e-02,
613,-1.24e-01,
614,-4.80e-02,
615,-1.08e-01,
616,-4.80e-02,
617,-1.12e-01,
618,-4.00e-02,
619,-1.20e-01,
620,-4.00e-02,
621,-1.20e-01,
622,-1.16e-01,
623,-3.20e-02,
624,-5.20e-02,
625,-1.12e-01,
626,-1.08e-01,
627,-4.00e-02,
628,-4.80e-02,
629,-1.12e-01,
630,-1.20e-01,
631,-4.00e-02,
632,-1.12e-01,
633,-2.80e-02,
634,-4.40e-02,
635,-1.28e-01,
636,-1.28e-01,
637,-3.20e-02,
638,-1.16e-01,
639,-4.00e-02,
640,-3.60e-02,
641,-1.12e-01,
642,-4.00e-02,
643,-1.16e-01,
644,-1.16e-01,
645,-3.60e-02,
646,-1.12e-01,
647,-3.60e-02,
648,-3.20e-02,
649,-1.20e-01,
650,-1.08e-01,
651,-4.00e-02,
652,-3.60e-02,
653,-1.04e-01,
654,-3.60e-02,
655,-1.12e-01,
656,-1.12e-01,
657,-4.40e-02,
658,-1.08e-01,
659,-4.00e-02,
660,-3.60e-02,
661,-1.16e-01,
662,-1.08e-01,
663,-4.40e-02,
664,-1.24e-01,
665,-3.20e-02,
666,-4.40e-02,
667,-1.16e-01,
668,-1.16e-01,
669,-4.00e-02,
670,-3.20e-02,
671,-1.20e-01,
672,-2.80e-02,
673,-1.24e-01,
674,-4.00e-02,
675,-1.16e-01,
676,-2.80e-02,
677,-1.12e-01,
678,-2.00e-02,
679,-1.12e-01,
680,-1.08e-01,
681,-4.40e-02,
682,-3.60e-02,
683,-1.16e-01,
684,-4.80e-02,
685,-1.12e-01,
686,-4.40e-02,
687,-1.20e-01,
688,-1.16e-01,
689,-4.40e-02,
690,-4.00e-02,
691,-1.08e-01,
692,-4.40e-02,
693,-1.16e-01,
694,-2.80e-02,
695,-1.12e-01,
696,-1.08e-01,
697,-4.80e-02,
698,-4.40e-02,
699,-1.28e-01,
700,-1.24e-01,
701,-4.00e-02,
702,-4.40e-02,
703,-1.20e-01,
704,-4.40e-02,
705,-1.16e-01,
706,-1.08e-01,
707,-4.00e-02,
708,-1.08e-01,
709,-4.40e-02,
710,-1.08e-01,
711,-4.00e-02,
712,-1.20e-01,
713,-4.40e-02,
714,-4.00e-02,
715,-1.24e-01,
716,-1.08e-01,
717,-4.00e-02,
718,-4.00e-02,
719,-1.16e-01,
720,-1.12e-01,
721,-3.60e-02,
722,-2.80e-02,
723,-1.16e-01,
724,-1.16e-01,
725,-2.80e-02,
726,-1.20e-01,
727,-4.00e-02,
728,-4.00e-02,
729,-1.12e-01,
730,-3.20e-02,
731,-1.28e-01,
732,-1.12e-01,
733,-4.00e-02,
734,-1.20e-01,
735,-4.00e-02,
736,-4.40e-02,
737,-1.20e-01,
738,-1.12e-01,
739,-3.20e-02,
740,-2.80e-02,
741,-1.20e-01,
742,-1.20e-01,
743,-3.60e-02,
744,-3.20e-02,
745,-1.20e-01,
746,-4.00e-02,
747,-1.24e-01,
748,-2.80e-02,
749,-1.12e-01,
750,-2.80e-02,
751,-1.12e-01,
752,-1.20e-01,
753,-4.40e-02,
754,-1.36e-01,
755,-4.00e-02,
756,-4.00e-02,
757,-1.24e-01,
758,-1.16e-01,
759,-4.40e-02,
760,-1.20e-01,
761,-4.40e-02,
762,-1.16e-01,
763,-4.00e-02,
764,-1.16e-01,
765,-4.40e-02,
766,-1.24e-01,
767,-4.00e-02,
768,-3.60e-02,
769,-1.12e-01,
770,-1.20e-01,
771,-4.40e-02,
772,-1.12e-01,
773,-3.60e-02,
774,-4.40e-02,
775,-1.24e-01,
776,-1.08e-01,
777,-4.00e-02,
778,-1.16e-01,
779,-4.00e-02,
780,-4.40e-02,
781,-1.16e-01,
782,-1.12e-01,
783,-2.40e-02,
784,-4.00e-02,
785,-1.24e-01,
786,-3.20e-02,
787,-1.12e-01,
788,-1.20e-01,
789,-3.20e-02,
790,-1.16e-01,
791,-4.40e-02,
792,-1.16e-01,
793,-2.80e-02,
794,-1.20e-01,
795,-4.40e-02,
796,-3.60e-02,
797,-1.20e-01,
798,-1.08e-01,
799,-4.00e-02,
800,-4.00e-02,
801,-1.12e-01,
802,-4.00e-02,
803,-1.20e-01,
804,-1.12e-01,
805,-4.00e-02,
806,-1.24e-01,
807,-4.00e-02,
808,-1.24e-01,
809,-4.80e-02,
810,-4.40e-02,
811,-1.24e-01,
812,-4.00e-02,
813,-1.20e-01,
814,-4.00e-02,
815,-1.20e-01,
816,-1.28e-01,
817,-4.00e-02,
818,-4.00e-02,
819,-1.16e-01,
820,-1.12e-01,
821,-3.20e-02,
822,-2.80e-02,
823,-1.16e-01,
824,-1.12e-01,
825,-4.80e-02,
826,-4.40e-02,
827,-1.16e-01,
828,-1.20e-01,
829,-4.00e-02,
830,-1.16e-01,
831,-4.00e-02,
832,-3.20e-02,
833,-1.12e-01,
834,-1.16e-01,
835,-3.20e-02,
836,-4.00e-02,
837,-1.16e-01,
838,-1.12e-01,
839,-3.20e-02,
840,-4.00e-02,
841,-1.12e-01,
842,-1.20e-01,
843,-4.00e-02,
844,-1.12e-01,
845,-4.00e-02,
846,-4.40e-02,
847,-1.12e-01,
848,-2.40e-02,
849,-1.24e-01,
850,-1.20e-01,
851,-4.40e-02,
852,-4.00e-02,
853,-1.20e-01,
854,-3.20e-02,
855,-1.08e-01,
856,-1.20e-01,
857,-3.60e-02,
858,-4.00e-02,
859,-1.32e-01,
860,-1.12e-01,
861,-4.00e-02,
862,-3.60e-02,
863,-1.24e-01,
864,-4.00e-02,
865,-1.08e-01,
866,-4.40e-02,
867,-1.20e-01,
868,-4.00e-02,
869,-1.20e-01,
870,-1.08e-01,
871,-4.40e-02,
872,-2.80e-02,
873,-1.20e-01,
874,-1.12e-01,
875,-4.40e-02,
876,-1.08e-01,
877,-4.00e-02,
878,-4.40e-02,
879,-1.12e-01,
880,-4.40e-02,
881,-1.28e-01,
882,-1.12e-01,
883,-4.40e-02,
884,-1.20e-01,
885,-4.00e-02,
886,-1.16e-01,
887,-2.80e-02,
888,-3.20e-02,
889,-1.12e-01,
890,-4.00e-02,
891,-1.08e-01,
892,-4.00e-02,
893,-1.12e-01,
894,-1.12e-01,
895,-3.60e-02,
896,-1.12e-01,
897,-4.40e-02,
898,-1.20e-01,
899,-4.00e-02,
900,-1.16e-01,
901,-4.00e-02,
902,-1.12e-01,
903,-4.40e-02,
904,-1.20e-01,
905,-2.80e-02,
906,-1.12e-01,
907,-3.60e-02,
908,-2.00e-02,
909,-1.12e-01,
910,-3.60e-02,
911,-1.12e-01,
912,-1.12e-01,
913,-3.20e-02,
914,-4.40e-02,
915,-1.12e-01,
916,-1.28e-01,
917,-4.40e-02,
918,-2.40e-02,
919,-1.24e-01,
920,-4.00e-02,
921,-1.32e-01,
922,-4.40e-02,
923,-1.20e-01,
924,-1.20e-01,
925,-4.00e-02,
926,-1.12e-01,
927,-3.60e-02,
928,-1.12e-01,
929,-3.20e-02,
930,-4.40e-02,
931,-1.28e-01,
932,-1.12e-01,
933,-4.40e-02,
934,-4.00e-02,
935,-1.08e-01,
936,-4.00e-02,
937,-1.20e-01,
938,-4.00e-02,
939,-1.24e-01,
940,-1.20e-01,
941,-3.60e-02,
942,-1.36e-01,
943,-3.60e-02,
944,-4.80e-02,
945,-1.08e-01,
946,-1.08e-01,
947,-3.20e-02,
948,-1.28e-01,
949,-3.60e-02,
950,-1.12e-01,
951,-3.60e-02,
952,-4.00e-02,
953,-1.28e-01,
954,-4.40e-02,
955,-1.12e-01,
956,-4.40e-02,
957,-1.24e-01,
958,-3.20e-02,
959,-1.12e-01,
960,-4.00e-02,
961,-1.20e-01,
962,-1.08e-01,
963,-3.60e-02,
964,-1.24e-01,
965,-3.60e-02,
966,-4.40e-02,
967,-1.24e-01,
968,-4.40e-02,
969,-1.20e-01,
970,-1.08e-01,
971,-4.00e-02,
972,-4.00e-02,
973,-1.12e-01,
974,-3.60e-02,
975,-1.20e-01,
976,-3.20e-02,
977,-1.20e-01,
978,-1.12e-01,
979,-3.20e-02,
980,-1.24e-01,
981,-4.00e-02,
982,-1.20e-01,
983,-4.00e-02,
984,-4.00e-02,
985,-1.20e-01,
986,-1.16e-01,
987,-3.60e-02,
988,-1.20e-01,
989,-2.40e-02,
990,-4.40e-02,
991,-1.16e-01,
992,-4.00e-02,
993,-1.28e-01,
994,-1.08e-01,
995,-4.40e-02,
996,-3.60e-02,
997,-1.20e-01,
998,-4.40e-02,
999,-1.12e-01,
1000,-4.00e-02,
1001,-1.12e-01,
1002,-1.12e-01,
1003,-3.20e-02,
1004,-1.24e-01,
1005,-4.00e-02,
1006,-4.80e-02,
1007,-1.24e-01,
1008,-1.20e-01,
1009,-3.60e-02,
1010,-1.08e-01,
1011,-4.40e-02,
1012,-3.20e-02,
1013,-1.16e-01,
1014,-3.60e-02,
1015,-1.12e-01,
1016,-4.80e-02,
1017,-1.24e-01,
1018,-1.20e-01,
1019,-3.60e-02,
1020,-1.24e-01,
1021,-3.20e-02,
1022,-1.12e-01,
1023,-3.20e-02,
1024,-1.12e-01,
1025,-4.00e-02,
1026,-2.40e-02,
1027,-1.12e-01,
1028,-4.00e-02,
1029,-1.16e-01,
1030,-1.20e-01,
1031,-4.80e-02,
1032,-4.00e-02,
1033,-1.24e-01,
1034,-3.20e-02,
1035,-1.16e-01,
1036,-4.00e-02,
1037,-1.20e-01,
1038,-1.12e-01,
1039,-3.60e-02,
1040,-1.20e-01,
1041,-4.00e-02,
1042,-1.16e-01,
1043,-4.00e-02,
1044,-1.20e-01,
1045,-4.00e-02,
1046,-1.16e-01,
1047,-4.00e-02,
1048,-1.08e-01,
1049,-4.00e-02,
1050,-4.00e-02,
1051,-1.20e-01,
1052,-1.12e-01,
1053,-4.40e-02,
1054,-4.00e-02,
1055,-1.20e-01,
1056,-1.12e-01,
1057,-3.60e-02,
1058,-4.00e-02,
1059,-1.24e-01,
1060,-1.08e-01,
1061,-4.40e-02,
1062,-3.20e-02,
1063,-1.16e-01,
1064,-4.00e-02,
1065,-1.20e-01,
1066,-1.16e-01,
1067,-4.00e-02,
1068,-3.20e-02,
1069,-1.24e-01,
1070,-1.12e-01,
1071,-4.40e-02,
1072,-2.40e-02,
1073,-1.12e-01,
1074,-4.00e-02,
1075,-1.08e-01,
1076,-1.12e-01,
1077,-4.00e-02,
1078,-1.16e-01,
1079,-4.40e-02,
1080,-4.40e-02,
1081,-1.24e-01,
1082,-1.20e-01,
1083,-4.40e-02,
1084,-1.20e-01,
1085,-4.00e-02,
1086,-3.20e-02,
1087,-1.20e-01,
1088,-1.24e-01,
1089,-3.60e-02,
1090,-1.24e-01,
1091,-4.40e-02,
1092,-3.60e-02,
1093,-1.16e-01,
1094,-1.12e-01,
1095,-3.20e-02,
1096,-1.16e-01,
1097,-3.60e-02,
1098,-1.24e-01,
1099,-3.20e-02,
1100,-1.24e-01,
1101,-4.00e-02,
1102,-1.16e-01,
1103,-4.40e-02,
1104,-3.20e-02,
1105,-1.16e-01,
1106,-1.20e-01,
1107,-2.80e-02,
1108,-1.12e-01,
1109,-3.20e-02,
1110,-1.16e-01,
1111,-2.80e-02,
1112,-4.00e-02,
1113,-1.24e-01,
1114,-1.16e-01,
1115,-4.00e-02,
1116,-1.16e-01,
1117,-4.00e-02,
1118,-1.12e-01,
1119,-4.40e-02,
1120,-1.24e-01,
1121,-4.40e-02,
1122,-4.00e-02,
1123,-1.24e-01,
1124,-1.24e-01,
1125,-4.40e-02,
1126,-1.16e-01,
1127,-3.60e-02,
1128,-4.00e-02,
1129,-1.12e-01,
1130,-1.20e-01,
1131,-4.40e-02,
1132,-4.00e-02,
1133,-1.12e-01,
1134,-1.08e-01,
1135,-4.00e-02,
1136,-1.16e-01,
1137,-4.40e-02,
1138,-4.80e-02,
1139,-1.12e-01,
1140,-1.12e-01,
1141,-2.80e-02,
1142,-1.20e-01,
1143,-3.60e-02,
1144,-4.40e-02,
1145,-1.16e-01,
1146,-4.00e-02,
1147,-1.08e-01,
1148,-4.00e-02,
1149,-1.16e-01,
1150,-1.16e-01,
1151,-3.20e-02,
1152,-3.60e-02,
1153,-1.20e-01,
1154,-4.00e-02,
1155,-1.12e-01,
1156,-1.12e-01,
1157,-3.20e-02,
1158,-1.12e-01,
1159,-4.00e-02,
1160,-4.00e-02,
1161,-1.12e-01,
1162,-1.16e-01,
1163,-4.00e-02,
1164,-4.00e-02,
1165,-1.12e-01,
1166,-4.00e-02,
1167,-1.12e-01,
1168,-1.08e-01,
1169,-3.60e-02,
1170,-2.80e-02,
1171,-1.20e-01,
1172,-1.20e-01,
1173,-4.40e-02,
1174,-1.16e-01,
1175,-3.60e-02,
1176,-1.20e-01,
1177,-3.60e-02,
1178,-1.12e-01,
1179,-3.60e-02,
1180,-4.00e-02,
1181,-1.12e-01,
1182,-1.20e-01,
1183,-4.00e-02,
1184,-1.20e-01,
1185,-3.60e-02,
1186,-4.00e-02,
1187,-1.32e-01,
1188,-4.00e-02,
1189,-1.20e-01,
1190,-1.24e-01,
1191,-4.40e-02,
1192,-1.24e-01,
1193,-2.80e-02,
1194,-4.40e-02,
1195,-1.16e-01,
1196,-3.20e-02,
1197,-1.12e-01,
1198,-3.60e-02,
1199,-1.12e-01,
