fastdiffamp/data-noise-set/bal-mean/NewFile2.csv

X,CH1,Start,Increment,
Sequence,Volt,-5.990000e+00,1.000000e-02
0,-2.48e-01,
1,-1.68e-01,
2,-1.68e-01,
3,-2.40e-01,
4,-1.68e-01,
5,-2.36e-01,
6,-2.40e-01,
7,-1.68e-01,
8,-1.68e-01,
9,-2.44e-01,
10,-1.72e-01,
11,-2.44e-01,
12,-2.32e-01,
13,-1.68e-01,
14,-2.36e-01,
15,-1.72e-01,
16,-1.68e-01,
17,-2.52e-01,
18,-1.76e-01,
19,-2.52e-01,
20,-2.48e-01,
21,-1.68e-01,
22,-2.48e-01,
23,-1.64e-01,
24,-2.52e-01,
25,-1.64e-01,
26,-2.40e-01,
27,-1.72e-01,
28,-2.44e-01,
29,-1.64e-01,
30,-1.68e-01,
31,-2.52e-01,
32,-1.64e-01,
33,-2.56e-01,
34,-1.72e-01,
35,-2.44e-01,
36,-1.68e-01,
37,-2.44e-01,
38,-1.60e-01,
39,-2.48e-01,
40,-2.44e-01,
41,-1.64e-01,
42,-2.36e-01,
43,-1.56e-01,
44,-2.36e-01,
45,-1.56e-01,
46,-2.44e-01,
47,-1.68e-01,
48,-2.44e-01,
49,-1.64e-01,
50,-2.44e-01,
51,-1.64e-01,
52,-1.68e-01,
53,-2.52e-01,
54,-2.40e-01,
55,-1.68e-01,
56,-1.64e-01,
57,-2.52e-01,
58,-2.36e-01,
59,-1.68e-01,
60,-2.48e-01,
61,-1.64e-01,
62,-1.64e-01,
63,-2.44e-01,
64,-2.40e-01,
65,-1.72e-01,
66,-1.64e-01,
67,-2.48e-01,
68,-2.44e-01,
69,-1.56e-01,
70,-1.72e-01,
71,-2.36e-01,
72,-1.68e-01,
73,-2.56e-01,
74,-1.68e-01,
75,-2.48e-01,
76,-2.44e-01,
77,-1.64e-01,
78,-1.56e-01,
79,-2.44e-01,
80,-2.56e-01,
81,-1.68e-01,
82,-1.68e-01,
83,-2.56e-01,
84,-1.72e-01,
85,-2.36e-01,
86,-2.44e-01,
87,-1.68e-01,
88,-2.48e-01,
89,-1.64e-01,
90,-1.64e-01,
91,-2.40e-01,
92,-1.64e-01,
93,-2.40e-01,
94,-1.68e-01,
95,-2.48e-01,
96,-2.52e-01,
97,-1.72e-01,
98,-2.44e-01,
99,-1.64e-01,
100,-2.36e-01,
101,-1.60e-01,
102,-2.32e-01,
103,-1.72e-01,
104,-2.44e-01,
105,-1.64e-01,
106,-2.44e-01,
107,-1.48e-01,
108,-2.36e-01,
109,-1.64e-01,
110,-1.68e-01,
111,-2.40e-01,
112,-1.68e-01,
113,-2.40e-01,
114,-1.68e-01,
115,-2.44e-01,
116,-1.72e-01,
117,-2.36e-01,
118,-1.68e-01,
119,-2.36e-01,
120,-2.36e-01,
121,-1.64e-01,
122,-1.56e-01,
123,-2.48e-01,
124,-2.44e-01,
125,-1.52e-01,
126,-1.72e-01,
127,-2.48e-01,
128,-2.36e-01,
129,-1.64e-01,
130,-2.48e-01,
131,-1.68e-01,
132,-2.44e-01,
133,-1.68e-01,
134,-2.48e-01,
135,-1.68e-01,
136,-2.52e-01,
137,-1.72e-01,
138,-1.68e-01,
139,-2.44e-01,
140,-2.44e-01,
141,-1.68e-01,
142,-1.68e-01,
143,-2.48e-01,
144,-2.36e-01,
145,-1.64e-01,
146,-1.68e-01,
147,-2.52e-01,
148,-1.72e-01,
149,-2.44e-01,
150,-1.64e-01,
151,-2.52e-01,
152,-2.44e-01,
153,-1.72e-01,
154,-2.40e-01,
155,-1.68e-01,
156,-2.48e-01,
157,-1.52e-01,
158,-2.52e-01,
159,-1.68e-01,
160,-1.72e-01,
161,-2.44e-01,
162,-1.72e-01,
163,-2.48e-01,
164,-1.64e-01,
165,-2.52e-01,
166,-2.44e-01,
167,-1.60e-01,
168,-2.36e-01,
169,-1.72e-01,
170,-2.56e-01,
171,-1.68e-01,
172,-1.68e-01,
173,-2.40e-01,
174,-1.68e-01,
175,-2.52e-01,
176,-1.60e-01,
177,-2.44e-01,
178,-2.48e-01,
179,-1.64e-01,
180,-2.36e-01,
181,-1.68e-01,
182,-1.68e-01,
183,-2.36e-01,
184,-1.64e-01,
185,-2.52e-01,
186,-2.36e-01,
187,-1.72e-01,
188,-2.36e-01,
189,-1.64e-01,
190,-1.68e-01,
191,-2.44e-01,
192,-2.52e-01,
193,-1.68e-01,
194,-1.64e-01,
195,-2.64e-01,
196,-1.72e-01,
197,-2.44e-01,
198,-2.44e-01,
199,-1.64e-01,
200,-1.68e-01,
201,-2.52e-01,
202,-1.64e-01,
203,-2.44e-01,
204,-2.36e-01,
205,-1.68e-01,
206,-2.52e-01,
207,-1.56e-01,
208,-1.64e-01,
209,-2.60e-01,
210,-1.64e-01,
211,-2.52e-01,
212,-2.44e-01,
213,-1.64e-01,
214,-2.52e-01,
215,-1.68e-01,
216,-2.44e-01,
217,-1.72e-01,
218,-1.68e-01,
219,-2.48e-01,
220,-2.52e-01,
221,-1.68e-01,
222,-2.36e-01,
223,-1.68e-01,
224,-2.56e-01,
225,-1.64e-01,
226,-1.72e-01,
227,-2.36e-01,
228,-1.72e-01,
229,-2.40e-01,
230,-1.72e-01,
231,-2.44e-01,
232,-1.64e-01,
233,-2.44e-01,
234,-1.72e-01,
235,-2.40e-01,
236,-2.44e-01,
237,-1.64e-01,
238,-2.40e-01,
239,-1.68e-01,
240,-2.48e-01,
241,-1.72e-01,
242,-1.64e-01,
243,-2.48e-01,
244,-2.52e-01,
245,-1.68e-01,
246,-2.48e-01,
247,-1.64e-01,
248,-1.72e-01,
249,-2.36e-01,
250,-1.64e-01,
251,-2.40e-01,
252,-2.48e-01,
253,-1.64e-01,
254,-1.64e-01,
255,-2.40e-01,
256,-1.68e-01,
257,-2.48e-01,
258,-1.72e-01,
259,-2.36e-01,
260,-1.72e-01,
261,-2.52e-01,
262,-1.68e-01,
263,-2.36e-01,
264,-1.72e-01,
265,-2.44e-01,
266,-2.44e-01,
267,-1.64e-01,
268,-2.36e-01,
269,-1.56e-01,
270,-1.72e-01,
271,-2.44e-01,
272,-1.68e-01,
273,-2.48e-01,
274,-1.68e-01,
275,-2.48e-01,
276,-1.72e-01,
277,-2.60e-01,
278,-1.72e-01,
279,-2.60e-01,
280,-1.68e-01,
281,-2.44e-01,
282,-2.36e-01,
283,-1.68e-01,
284,-2.36e-01,
285,-1.64e-01,
286,-1.72e-01,
287,-2.52e-01,
288,-1.72e-01,
289,-2.40e-01,
290,-1.72e-01,
291,-2.36e-01,
292,-2.48e-01,
293,-1.72e-01,
294,-2.40e-01,
295,-1.56e-01,
296,-1.60e-01,
297,-2.52e-01,
298,-1.64e-01,
299,-2.44e-01,
300,-2.40e-01,
301,-1.64e-01,
302,-1.72e-01,
303,-2.36e-01,
304,-2.64e-01,
305,-1.72e-01,
306,-2.52e-01,
307,-1.72e-01,
308,-1.76e-01,
309,-2.52e-01,
310,-2.44e-01,
311,-1.60e-01,
312,-2.44e-01,
313,-1.64e-01,
314,-1.72e-01,
315,-2.44e-01,
316,-2.44e-01,
317,-1.72e-01,
318,-2.36e-01,
319,-1.64e-01,
320,-2.36e-01,
321,-1.60e-01,
322,-1.64e-01,
323,-2.44e-01,
324,-1.56e-01,
325,-2.40e-01,
326,-1.64e-01,
327,-2.48e-01,
328,-1.68e-01,
329,-2.52e-01,
330,-1.68e-01,
331,-2.52e-01,
332,-2.44e-01,
333,-1.64e-01,
334,-1.76e-01,
335,-2.36e-01,
336,-1.72e-01,
337,-2.48e-01,
338,-1.68e-01,
339,-2.52e-01,
340,-2.44e-01,
341,-1.52e-01,
342,-1.68e-01,
343,-2.44e-01,
344,-2.32e-01,
345,-1.68e-01,
346,-1.64e-01,
347,-2.44e-01,
348,-2.44e-01,
349,-1.68e-01,
350,-1.68e-01,
351,-2.52e-01,
352,-1.64e-01,
353,-2.36e-01,
354,-2.48e-01,
355,-1.60e-01,
356,-2.40e-01,
357,-1.68e-01,
358,-2.52e-01,
359,-1.52e-01,
360,-1.68e-01,
361,-2.52e-01,
362,-1.68e-01,
363,-2.48e-01,
364,-2.52e-01,
365,-1.64e-01,
366,-2.52e-01,
367,-1.68e-01,
368,-1.68e-01,
369,-2.48e-01,
370,-1.68e-01,
371,-2.52e-01,
372,-1.64e-01,
373,-2.52e-01,
374,-2.44e-01,
375,-1.76e-01,
376,-2.36e-01,
377,-1.68e-01,
378,-1.72e-01,
379,-2.52e-01,
380,-2.40e-01,
381,-1.64e-01,
382,-1.72e-01,
383,-2.48e-01,
384,-2.48e-01,
385,-1.68e-01,
386,-1.72e-01,
387,-2.36e-01,
388,-1.72e-01,
389,-2.64e-01,
390,-2.36e-01,
391,-1.72e-01,
392,-1.68e-01,
393,-2.48e-01,
394,-2.40e-01,
395,-1.64e-01,
396,-1.72e-01,
397,-2.56e-01,
398,-1.64e-01,
399,-2.44e-01,
400,-2.48e-01,
401,-1.52e-01,
402,-1.68e-01,
403,-2.36e-01,
404,-1.72e-01,
405,-2.48e-01,
406,-2.40e-01,
407,-1.68e-01,
408,-1.60e-01,
409,-2.40e-01,
410,-2.36e-01,
411,-1.64e-01,
412,-1.64e-01,
413,-2.52e-01,
414,-1.72e-01,
415,-2.48e-01,
416,-1.68e-01,
417,-2.40e-01,
418,-1.64e-01,
419,-2.52e-01,
420,-2.32e-01,
421,-1.64e-01,
422,-2.48e-01,
423,-1.68e-01,
424,-2.40e-01,
425,-1.64e-01,
426,-1.72e-01,
427,-2.40e-01,
428,-2.40e-01,
429,-1.68e-01,
430,-1.68e-01,
431,-2.44e-01,
432,-2.40e-01,
433,-1.56e-01,
434,-2.48e-01,
435,-1.64e-01,
436,-1.60e-01,
437,-2.44e-01,
438,-1.64e-01,
439,-2.48e-01,
440,-2.40e-01,
441,-1.64e-01,
442,-1.72e-01,
443,-2.44e-01,
444,-1.72e-01,
445,-2.44e-01,
446,-2.52e-01,
447,-1.64e-01,
448,-2.40e-01,
449,-1.68e-01,
450,-1.64e-01,
451,-2.44e-01,
452,-1.68e-01,
453,-2.36e-01,
454,-1.64e-01,
455,-2.44e-01,
456,-1.68e-01,
457,-2.48e-01,
458,-1.76e-01,
459,-2.52e-01,
460,-2.48e-01,
461,-1.68e-01,
462,-2.44e-01,
463,-1.56e-01,
464,-2.48e-01,
465,-1.68e-01,
466,-1.72e-01,
467,-2.40e-01,
468,-2.36e-01,
469,-1.64e-01,
470,-1.68e-01,
471,-2.48e-01,
472,-2.48e-01,
473,-1.64e-01,
474,-2.48e-01,
475,-1.68e-01,
476,-1.68e-01,
477,-2.36e-01,
478,-2.52e-01,
479,-1.64e-01,
480,-2.40e-01,
481,-1.64e-01,
482,-1.68e-01,
483,-2.40e-01,
484,-1.72e-01,
485,-2.48e-01,
486,-2.40e-01,
487,-1.72e-01,
488,-1.68e-01,
489,-2.44e-01,
490,-2.40e-01,
491,-1.68e-01,
492,-1.68e-01,
493,-2.56e-01,
494,-2.48e-01,
495,-1.76e-01,
496,-2.36e-01,
497,-1.64e-01,
498,-2.48e-01,
499,-1.56e-01,
500,-1.68e-01,
501,-2.40e-01,
502,-1.72e-01,
503,-2.44e-01,
504,-2.52e-01,
505,-1.64e-01,
506,-2.40e-01,
507,-1.64e-01,
508,-2.60e-01,
509,-1.64e-01,
510,-2.40e-01,
511,-1.60e-01,
512,-1.72e-01,
513,-2.44e-01,
514,-2.40e-01,
515,-1.64e-01,
516,-1.72e-01,
517,-2.44e-01,
518,-2.44e-01,
519,-1.72e-01,
520,-2.44e-01,
521,-1.72e-01,
522,-2.44e-01,
523,-1.76e-01,
524,-2.52e-01,
525,-1.72e-01,
526,-2.52e-01,
527,-1.56e-01,
528,-2.48e-01,
529,-1.68e-01,
530,-1.64e-01,
531,-2.48e-01,
532,-2.44e-01,
533,-1.72e-01,
534,-2.48e-01,
535,-1.68e-01,
536,-1.64e-01,
537,-2.36e-01,
538,-1.72e-01,
539,-2.36e-01,
540,-2.48e-01,
541,-1.64e-01,
542,-2.36e-01,
543,-1.64e-01,
544,-1.68e-01,
545,-2.40e-01,
546,-2.48e-01,
547,-1.64e-01,
548,-1.72e-01,
549,-2.44e-01,
550,-2.52e-01,
551,-1.60e-01,
552,-1.76e-01,
553,-2.44e-01,
554,-1.44e-01,
555,-2.48e-01,
556,-2.44e-01,
557,-1.68e-01,
558,-1.76e-01,
559,-2.36e-01,
560,-1.64e-01,
561,-2.40e-01,
562,-1.68e-01,
563,-2.36e-01,
564,-1.68e-01,
565,-2.40e-01,
566,-2.56e-01,
567,-1.48e-01,
568,-2.44e-01,
569,-1.72e-01,
570,-2.36e-01,
571,-1.72e-01,
572,-2.44e-01,
573,-1.72e-01,
574,-2.40e-01,
575,-1.68e-01,
576,-1.76e-01,
577,-2.48e-01,
578,-2.48e-01,
579,-1.68e-01,
580,-1.64e-01,
581,-2.52e-01,
582,-1.72e-01,
583,-2.44e-01,
584,-2.48e-01,
585,-1.68e-01,
586,-1.60e-01,
587,-2.48e-01,
588,-2.44e-01,
589,-1.72e-01,
590,-2.40e-01,
591,-1.64e-01,
592,-1.68e-01,
593,-2.56e-01,
594,-1.60e-01,
595,-2.44e-01,
596,-1.68e-01,
597,-2.40e-01,
598,-1.72e-01,
599,-2.40e-01,
600,-1.64e-01,
601,-2.52e-01,
602,-2.36e-01,
603,-1.64e-01,
604,-1.56e-01,
605,-2.48e-01,
606,-1.52e-01,
607,-2.36e-01,
608,-1.72e-01,
609,-2.40e-01,
610,-1.60e-01,
611,-2.52e-01,
612,-1.68e-01,
613,-2.56e-01,
614,-1.68e-01,
615,-2.40e-01,
616,-1.72e-01,
617,-2.44e-01,
618,-1.68e-01,
619,-2.48e-01,
620,-2.48e-01,
621,-1.68e-01,
622,-1.68e-01,
623,-2.44e-01,
624,-2.44e-01,
625,-1.72e-01,
626,-2.48e-01,
627,-1.72e-01,
628,-2.44e-01,
629,-1.68e-01,
630,-1.72e-01,
631,-2.52e-01,
632,-1.68e-01,
633,-2.48e-01,
634,-1.72e-01,
635,-2.48e-01,
636,-1.64e-01,
637,-2.52e-01,
638,-2.52e-01,
639,-1.64e-01,
640,-1.68e-01,
641,-2.44e-01,
642,-2.36e-01,
643,-1.64e-01,
644,-2.44e-01,
645,-1.72e-01,
646,-2.44e-01,
647,-1.68e-01,
648,-1.68e-01,
649,-2.48e-01,
650,-2.44e-01,
651,-1.68e-01,
652,-1.72e-01,
653,-2.44e-01,
654,-1.72e-01,
655,-2.44e-01,
656,-1.56e-01,
657,-2.52e-01,
658,-2.36e-01,
659,-1.68e-01,
660,-1.64e-01,
661,-2.48e-01,
662,-1.68e-01,
663,-2.52e-01,
664,-2.48e-01,
665,-1.72e-01,
666,-2.48e-01,
667,-1.68e-01,
668,-1.68e-01,
669,-2.44e-01,
670,-2.52e-01,
671,-1.72e-01,
672,-1.76e-01,
673,-2.48e-01,
674,-1.72e-01,
675,-2.40e-01,
676,-1.72e-01,
677,-2.44e-01,
678,-1.64e-01,
679,-2.40e-01,
680,-1.72e-01,
681,-2.44e-01,
682,-2.44e-01,
683,-1.72e-01,
684,-2.44e-01,
685,-1.64e-01,
686,-2.52e-01,
687,-1.72e-01,
688,-1.72e-01,
689,-2.48e-01,
690,-2.36e-01,
691,-1.64e-01,
692,-1.68e-01,
693,-2.44e-01,
694,-1.72e-01,
695,-2.44e-01,
696,-2.48e-01,
697,-1.64e-01,
698,-2.40e-01,
699,-1.64e-01,
700,-2.44e-01,
701,-1.56e-01,
702,-2.48e-01,
703,-1.72e-01,
704,-1.64e-01,
705,-2.48e-01,
706,-2.44e-01,
707,-1.68e-01,
708,-1.72e-01,
709,-2.40e-01,
710,-2.44e-01,
711,-1.56e-01,
712,-2.44e-01,
713,-1.64e-01,
714,-1.72e-01,
715,-2.44e-01,
716,-1.64e-01,
717,-2.36e-01,
718,-2.52e-01,
719,-1.72e-01,
720,-2.48e-01,
721,-1.56e-01,
722,-1.64e-01,
723,-2.44e-01,
724,-1.76e-01,
725,-2.44e-01,
726,-1.64e-01,
727,-2.40e-01,
728,-2.48e-01,
729,-1.64e-01,
730,-2.44e-01,
731,-1.68e-01,
732,-1.64e-01,
733,-2.44e-01,
734,-1.64e-01,
735,-2.44e-01,
736,-2.36e-01,
737,-1.68e-01,
738,-1.72e-01,
739,-2.56e-01,
740,-2.40e-01,
741,-1.64e-01,
742,-1.52e-01,
743,-2.40e-01,
744,-2.44e-01,
745,-1.60e-01,
746,-2.44e-01,
747,-1.64e-01,
748,-1.64e-01,
749,-2.36e-01,
750,-1.72e-01,
751,-2.40e-01,
752,-1.72e-01,
753,-2.52e-01,
754,-1.60e-01,
755,-2.48e-01,
756,-2.44e-01,
757,-1.68e-01,
758,-2.44e-01,
759,-1.60e-01,
760,-1.76e-01,
761,-2.44e-01,
762,-1.68e-01,
763,-2.44e-01,
764,-1.68e-01,
765,-2.48e-01,
766,-2.56e-01,
767,-1.72e-01,
768,-1.68e-01,
769,-2.44e-01,
770,-2.44e-01,
771,-1.68e-01,
772,-2.36e-01,
773,-1.68e-01,
774,-1.72e-01,
775,-2.44e-01,
776,-1.68e-01,
777,-2.44e-01,
778,-2.44e-01,
779,-1.64e-01,
780,-2.40e-01,
781,-1.68e-01,
782,-2.44e-01,
783,-1.68e-01,
784,-1.68e-01,
785,-2.36e-01,
786,-2.40e-01,
787,-1.68e-01,
788,-1.64e-01,
789,-2.48e-01,
790,-2.40e-01,
791,-1.60e-01,
792,-2.52e-01,
793,-1.64e-01,
794,-1.72e-01,
795,-2.48e-01,
796,-1.60e-01,
797,-2.48e-01,
798,-1.72e-01,
799,-2.36e-01,
800,-2.40e-01,
801,-1.64e-01,
802,-1.68e-01,
803,-2.48e-01,
804,-2.36e-01,
805,-1.68e-01,
806,-2.44e-01,
807,-1.64e-01,
808,-2.32e-01,
809,-1.64e-01,
810,-2.36e-01,
811,-1.76e-01,
812,-1.64e-01,
813,-2.44e-01,
814,-1.72e-01,
815,-2.44e-01,
816,-2.40e-01,
817,-1.72e-01,
818,-1.68e-01,
819,-2.52e-01,
820,-2.64e-01,
821,-1.68e-01,
822,-2.36e-01,
823,-1.56e-01,
824,-1.72e-01,
825,-2.40e-01,
826,-2.44e-01,
827,-1.72e-01,
828,-1.64e-01,
829,-2.44e-01,
830,-2.48e-01,
831,-1.60e-01,
832,-2.44e-01,
833,-1.56e-01,
834,-1.48e-01,
835,-2.40e-01,
836,-1.72e-01,
837,-2.44e-01,
838,-2.36e-01,
839,-1.72e-01,
840,-1.64e-01,
841,-2.48e-01,
842,-1.60e-01,
843,-2.44e-01,
844,-2.40e-01,
845,-1.60e-01,
846,-1.64e-01,
847,-2.44e-01,
848,-1.52e-01,
849,-2.40e-01,
850,-2.44e-01,
851,-1.64e-01,
852,-2.52e-01,
853,-1.64e-01,
854,-2.48e-01,
855,-1.68e-01,
856,-1.76e-01,
857,-2.52e-01,
858,-2.36e-01,
859,-1.68e-01,
860,-1.64e-01,
861,-2.60e-01,
862,-1.68e-01,
863,-2.48e-01,
864,-2.36e-01,
865,-1.76e-01,
866,-1.72e-01,
867,-2.48e-01,
868,-1.68e-01,
869,-2.48e-01,
870,-1.68e-01,
871,-2.48e-01,
872,-2.40e-01,
873,-1.72e-01,
874,-2.40e-01,
875,-1.64e-01,
876,-1.72e-01,
877,-2.40e-01,
878,-1.76e-01,
879,-2.52e-01,
880,-2.36e-01,
881,-1.68e-01,
882,-1.68e-01,
883,-2.44e-01,
884,-2.36e-01,
885,-1.68e-01,
886,-2.48e-01,
887,-1.64e-01,
888,-1.76e-01,
889,-2.48e-01,
890,-1.68e-01,
891,-2.52e-01,
892,-2.40e-01,
893,-1.68e-01,
894,-2.48e-01,
895,-1.76e-01,
896,-1.72e-01,
897,-2.48e-01,
898,-2.52e-01,
899,-1.64e-01,
900,-1.56e-01,
901,-2.44e-01,
902,-2.48e-01,
903,-1.68e-01,
904,-2.40e-01,
905,-1.68e-01,
906,-2.36e-01,
907,-1.72e-01,
908,-2.48e-01,
909,-1.48e-01,
910,-1.68e-01,
911,-2.48e-01,
912,-1.64e-01,
913,-2.56e-01,
914,-2.40e-01,
915,-1.68e-01,
916,-1.64e-01,
917,-2.48e-01,
918,-2.48e-01,
919,-1.60e-01,
920,-2.52e-01,
921,-1.72e-01,
922,-2.40e-01,
923,-1.64e-01,
924,-2.48e-01,
925,-1.64e-01,
926,-1.76e-01,
927,-2.44e-01,
928,-1.76e-01,
929,-2.44e-01,
930,-2.48e-01,
931,-1.64e-01,
932,-1.72e-01,
933,-2.48e-01,
934,-2.48e-01,
935,-1.72e-01,
936,-2.44e-01,
937,-1.68e-01,
938,-1.68e-01,
939,-2.36e-01,
940,-1.68e-01,
941,-2.44e-01,
942,-2.44e-01,
943,-1.72e-01,
944,-1.64e-01,
945,-2.48e-01,
946,-1.72e-01,
947,-2.40e-01,
948,-1.68e-01,
949,-2.36e-01,
950,-1.64e-01,
951,-2.44e-01,
952,-1.68e-01,
953,-2.44e-01,
954,-2.52e-01,
955,-1.72e-01,
956,-1.68e-01,
957,-2.52e-01,
958,-1.68e-01,
959,-2.44e-01,
960,-2.36e-01,
961,-1.68e-01,
962,-1.56e-01,
963,-2.48e-01,
964,-1.68e-01,
965,-2.44e-01,
966,-2.36e-01,
967,-1.64e-01,
968,-2.44e-01,
969,-1.72e-01,
970,-1.72e-01,
971,-2.40e-01,
972,-2.52e-01,
973,-1.68e-01,
974,-1.68e-01,
975,-2.48e-01,
976,-2.40e-01,
977,-1.60e-01,
978,-2.36e-01,
979,-1.60e-01,
980,-1.68e-01,
981,-2.64e-01,
982,-1.72e-01,
983,-2.52e-01,
984,-1.68e-01,
985,-2.48e-01,
986,-2.60e-01,
987,-1.68e-01,
988,-2.40e-01,
989,-1.68e-01,
990,-2.44e-01,
991,-1.60e-01,
992,-2.48e-01,
993,-1.72e-01,
994,-1.72e-01,
995,-2.52e-01,
996,-2.36e-01,
997,-1.56e-01,
998,-1.68e-01,
999,-2.48e-01,
1000,-1.56e-01,
1001,-2.36e-01,
1002,-2.48e-01,
1003,-1.60e-01,
1004,-2.44e-01,
1005,-1.64e-01,
1006,-2.40e-01,
1007,-1.68e-01,
1008,-1.68e-01,
1009,-2.48e-01,
1010,-2.44e-01,
1011,-1.72e-01,
1012,-2.52e-01,
1013,-1.64e-01,
1014,-1.68e-01,
1015,-2.48e-01,
1016,-2.44e-01,
1017,-1.72e-01,
1018,-1.68e-01,
1019,-2.44e-01,
1020,-1.72e-01,
1021,-2.44e-01,
1022,-2.44e-01,
1023,-1.68e-01,
1024,-1.48e-01,
1025,-2.48e-01,
1026,-1.60e-01,
1027,-2.44e-01,
1028,-1.68e-01,
1029,-2.36e-01,
1030,-2.48e-01,
1031,-1.56e-01,
1032,-2.48e-01,
1033,-1.68e-01,
1034,-1.72e-01,
1035,-2.44e-01,
1036,-2.56e-01,
1037,-1.68e-01,
1038,-2.52e-01,
1039,-1.56e-01,
1040,-1.68e-01,
1041,-2.52e-01,
1042,-2.52e-01,
1043,-1.64e-01,
1044,-2.44e-01,
1045,-1.72e-01,
1046,-1.60e-01,
1047,-2.44e-01,
1048,-1.68e-01,
1049,-2.68e-01,
1050,-1.72e-01,
1051,-2.36e-01,
1052,-2.36e-01,
1053,-1.68e-01,
1054,-2.48e-01,
1055,-1.68e-01,
1056,-2.48e-01,
1057,-1.60e-01,
1058,-1.72e-01,
1059,-2.44e-01,
1060,-2.40e-01,
1061,-1.72e-01,
1062,-2.48e-01,
1063,-1.64e-01,
1064,-1.64e-01,
1065,-2.48e-01,
1066,-1.68e-01,
1067,-2.40e-01,
1068,-2.48e-01,
1069,-1.72e-01,
1070,-1.68e-01,
1071,-2.44e-01,
1072,-1.64e-01,
1073,-2.36e-01,
1074,-2.60e-01,
1075,-1.64e-01,
1076,-1.72e-01,
1077,-2.52e-01,
1078,-2.44e-01,
1079,-1.64e-01,
1080,-2.48e-01,
1081,-1.72e-01,
1082,-2.44e-01,
1083,-1.68e-01,
1084,-2.44e-01,
1085,-1.68e-01,
1086,-2.48e-01,
1087,-1.68e-01,
1088,-2.48e-01,
1089,-1.68e-01,
1090,-1.68e-01,
1091,-2.36e-01,
1092,-2.36e-01,
1093,-1.64e-01,
1094,-2.36e-01,
1095,-1.72e-01,
1096,-2.44e-01,
1097,-1.56e-01,
1098,-1.64e-01,
1099,-2.52e-01,
1100,-2.44e-01,
1101,-1.64e-01,
1102,-2.32e-01,
1103,-1.64e-01,
1104,-1.64e-01,
1105,-2.44e-01,
1106,-2.48e-01,
1107,-1.68e-01,
1108,-1.68e-01,
1109,-2.48e-01,
1110,-2.48e-01,
1111,-1.60e-01,
1112,-2.48e-01,
1113,-1.72e-01,
1114,-2.44e-01,
1115,-1.64e-01,
1116,-2.32e-01,
1117,-1.52e-01,
1118,-1.68e-01,
1119,-2.48e-01,
1120,-2.40e-01,
1121,-1.68e-01,
1122,-1.68e-01,
1123,-2.44e-01,
1124,-1.68e-01,
1125,-2.48e-01,
1126,-2.56e-01,
1127,-1.64e-01,
1128,-2.44e-01,
1129,-1.72e-01,
1130,-1.68e-01,
1131,-2.52e-01,
1132,-2.52e-01,
1133,-1.64e-01,
1134,-2.36e-01,
1135,-1.68e-01,
1136,-2.44e-01,
1137,-1.64e-01,
1138,-2.44e-01,
1139,-1.64e-01,
1140,-2.36e-01,
1141,-1.56e-01,
1142,-1.72e-01,
1143,-2.44e-01,
1144,-1.64e-01,
1145,-2.52e-01,
1146,-2.44e-01,
1147,-1.72e-01,
1148,-1.68e-01,
1149,-2.48e-01,
1150,-2.44e-01,
1151,-1.60e-01,
1152,-2.48e-01,
1153,-1.68e-01,
1154,-1.56e-01,
1155,-2.52e-01,
1156,-2.44e-01,
1157,-1.76e-01,
1158,-1.72e-01,
1159,-2.44e-01,
1160,-1.64e-01,
1161,-2.48e-01,
1162,-1.72e-01,
1163,-2.40e-01,
1164,-2.48e-01,
1165,-1.72e-01,
1166,-1.64e-01,
1167,-2.44e-01,
1168,-2.36e-01,
1169,-1.68e-01,
1170,-1.76e-01,
1171,-2.48e-01,
1172,-2.44e-01,
1173,-1.52e-01,
1174,-2.44e-01,
1175,-1.60e-01,
1176,-2.44e-01,
1177,-1.68e-01,
1178,-1.68e-01,
1179,-2.48e-01,
1180,-1.56e-01,
1181,-2.44e-01,
1182,-2.48e-01,
1183,-1.68e-01,
1184,-1.68e-01,
1185,-2.48e-01,
1186,-1.64e-01,
1187,-2.48e-01,
1188,-2.40e-01,
1189,-1.60e-01,
1190,-1.64e-01,
1191,-2.52e-01,
1192,-1.72e-01,
1193,-2.56e-01,
1194,-2.48e-01,
1195,-1.68e-01,
1196,-1.60e-01,
1197,-2.44e-01,
1198,-2.48e-01,
1199,-1.64e-01,
