fastdiffamp/data-noise-set/bal-mean/NewFile16.csv

X,CH1,Start,Increment,
Sequence,Volt,-5.990000e+00,1.000000e-02
0,-1.04e-01,
1,-2.40e-02,
2,-2.00e-02,
3,-1.04e-01,
4,-1.00e-01,
5,-1.60e-02,
6,-2.80e-02,
7,-9.60e-02,
8,-1.00e-01,
9,-2.00e-02,
10,-1.00e-01,
11,-2.40e-02,
12,-2.40e-02,
13,-1.04e-01,
14,-1.08e-01,
15,-2.80e-02,
16,-9.20e-02,
17,-2.80e-02,
18,-2.40e-02,
19,-1.04e-01,
20,-1.60e-02,
21,-1.00e-01,
22,-9.20e-02,
23,-1.60e-02,
24,-1.08e-01,
25,-2.80e-02,
26,-2.40e-02,
27,-9.60e-02,
28,-1.04e-01,
29,-1.60e-02,
30,-2.40e-02,
31,-9.60e-02,
32,-2.00e-02,
33,-1.00e-01,
34,-2.40e-02,
35,-1.00e-01,
36,-8.80e-02,
37,-2.40e-02,
38,-1.00e-01,
39,-1.60e-02,
40,-1.04e-01,
41,-2.40e-02,
42,-2.40e-02,
43,-9.20e-02,
44,-2.80e-02,
45,-9.20e-02,
46,-1.04e-01,
47,-2.40e-02,
48,-9.20e-02,
49,-2.40e-02,
50,-9.60e-02,
51,-2.40e-02,
52,-2.80e-02,
53,-9.20e-02,
54,-2.40e-02,
55,-1.00e-01,
56,-9.20e-02,
57,-2.40e-02,
58,-9.60e-02,
59,-2.80e-02,
60,-1.00e-01,
61,-2.00e-02,
62,-2.40e-02,
63,-1.04e-01,
64,-2.40e-02,
65,-1.04e-01,
66,-2.40e-02,
67,-9.60e-02,
68,-9.20e-02,
69,-2.40e-02,
70,-2.00e-02,
71,-1.08e-01,
72,-9.20e-02,
73,-2.40e-02,
74,-1.00e-01,
75,-2.80e-02,
76,-2.00e-02,
77,-1.00e-01,
78,-1.20e-02,
79,-1.00e-01,
80,-3.20e-02,
81,-1.00e-01,
82,-2.80e-02,
83,-1.04e-01,
84,-2.40e-02,
85,-1.12e-01,
86,-9.20e-02,
87,-2.40e-02,
88,-1.04e-01,
89,-2.40e-02,
90,-1.04e-01,
91,-2.40e-02,
92,-1.04e-01,
93,-2.40e-02,
94,-1.20e-02,
95,-1.00e-01,
96,-1.00e-01,
97,-2.80e-02,
98,-3.20e-02,
99,-9.60e-02,
100,-9.20e-02,
101,-2.80e-02,
102,-2.00e-02,
103,-9.60e-02,
104,-1.00e-01,
105,-2.40e-02,
106,-9.20e-02,
107,-2.40e-02,
108,-2.40e-02,
109,-9.60e-02,
110,-2.40e-02,
111,-8.80e-02,
112,-9.20e-02,
113,-2.40e-02,
114,-2.80e-02,
115,-1.20e-01,
116,-2.00e-02,
117,-1.00e-01,
118,-2.40e-02,
119,-9.20e-02,
120,-2.40e-02,
121,-1.08e-01,
122,-2.00e-02,
123,-9.20e-02,
124,-2.40e-02,
125,-1.00e-01,
126,-2.80e-02,
127,-1.00e-01,
128,-2.40e-02,
129,-1.00e-01,
130,-2.80e-02,
131,-1.08e-01,
132,-9.20e-02,
133,-2.00e-02,
134,-2.40e-02,
135,-9.60e-02,
136,-9.20e-02,
137,-2.40e-02,
138,-8.80e-02,
139,-2.40e-02,
140,-2.00e-02,
141,-9.60e-02,
142,-9.20e-02,
143,-2.40e-02,
144,-2.80e-02,
145,-9.60e-02,
146,-2.40e-02,
147,-1.04e-01,
148,-9.20e-02,
149,-2.40e-02,
150,-2.00e-02,
151,-1.04e-01,
152,-2.00e-02,
153,-1.00e-01,
154,-9.20e-02,
155,-2.00e-02,
156,-2.40e-02,
157,-9.60e-02,
158,-2.40e-02,
159,-1.00e-01,
160,-2.80e-02,
161,-1.04e-01,
162,-1.04e-01,
163,-2.40e-02,
164,-1.00e-01,
165,-2.00e-02,
166,-2.40e-02,
167,-1.04e-01,
168,-2.80e-02,
169,-1.08e-01,
170,-2.40e-02,
171,-9.60e-02,
172,-2.80e-02,
173,-1.00e-01,
174,-1.04e-01,
175,-2.40e-02,
176,-2.40e-02,
177,-9.20e-02,
178,-2.80e-02,
179,-9.20e-02,
180,-1.00e-01,
181,-2.40e-02,
182,-2.40e-02,
183,-1.04e-01,
184,-2.40e-02,
185,-9.60e-02,
186,-8.80e-02,
187,-2.40e-02,
188,-1.60e-02,
189,-9.60e-02,
190,-1.20e-02,
191,-9.20e-02,
192,-2.00e-02,
193,-1.00e-01,
194,-9.20e-02,
195,-2.80e-02,
196,-1.00e-01,
197,-2.80e-02,
198,-2.00e-02,
199,-1.08e-01,
200,-2.80e-02,
201,-1.04e-01,
202,-1.04e-01,
203,-1.20e-02,
204,-8.00e-03,
205,-1.08e-01,
206,-9.20e-02,
207,-1.20e-02,
208,-2.40e-02,
209,-9.20e-02,
210,-2.40e-02,
211,-1.20e-01,
212,-2.40e-02,
213,-9.60e-02,
214,-9.20e-02,
215,-1.60e-02,
216,-2.40e-02,
217,-1.04e-01,
218,-9.60e-02,
219,-2.00e-02,
220,-2.00e-02,
221,-1.00e-01,
222,-1.00e-01,
223,-2.40e-02,
224,-1.04e-01,
225,-2.40e-02,
226,-1.00e-01,
227,-2.40e-02,
228,-2.00e-02,
229,-1.08e-01,
230,-2.40e-02,
231,-1.04e-01,
232,-2.40e-02,
233,-1.00e-01,
234,-2.80e-02,
235,-9.20e-02,
236,-1.04e-01,
237,-3.20e-02,
238,-1.60e-02,
239,-1.00e-01,
240,-2.80e-02,
241,-9.20e-02,
242,-8.80e-02,
243,-2.00e-02,
244,-3.20e-02,
245,-9.60e-02,
246,-9.20e-02,
247,-8.00e-03,
248,-9.20e-02,
249,-2.40e-02,
250,-1.04e-01,
251,-1.60e-02,
252,-1.04e-01,
253,-1.60e-02,
254,-1.00e-01,
255,-3.20e-02,
256,-2.00e-02,
257,-9.60e-02,
258,-9.60e-02,
259,-2.80e-02,
260,-1.00e-01,
261,-2.00e-02,
262,-1.60e-02,
263,-1.08e-01,
264,-1.00e-01,
265,-1.20e-02,
266,-1.04e-01,
267,-2.40e-02,
268,-2.80e-02,
269,-1.00e-01,
270,-9.60e-02,
271,-2.40e-02,
272,-9.60e-02,
273,-2.80e-02,
274,-1.04e-01,
275,-2.40e-02,
276,-1.60e-02,
277,-9.20e-02,
278,-2.80e-02,
279,-1.08e-01,
280,-1.60e-02,
281,-9.20e-02,
282,-2.40e-02,
283,-1.00e-01,
284,-1.00e-01,
285,-2.80e-02,
286,-9.60e-02,
287,-3.20e-02,
288,-9.60e-02,
289,-2.40e-02,
290,-1.20e-02,
291,-1.00e-01,
292,-2.00e-02,
293,-9.60e-02,
294,-8.80e-02,
295,-2.00e-02,
296,-2.80e-02,
297,-1.04e-01,
298,-2.40e-02,
299,-9.60e-02,
300,-2.40e-02,
301,-9.60e-02,
302,-1.00e-01,
303,-2.40e-02,
304,-2.40e-02,
305,-9.20e-02,
306,-1.08e-01,
307,-2.80e-02,
308,-1.04e-01,
309,-1.60e-02,
310,-9.60e-02,
311,-2.80e-02,
312,-8.80e-02,
313,-2.40e-02,
314,-9.20e-02,
315,-2.80e-02,
316,-1.04e-01,
317,-2.40e-02,
318,-9.60e-02,
319,-2.40e-02,
320,-9.60e-02,
321,-2.40e-02,
322,-1.04e-01,
323,-2.00e-02,
324,-2.40e-02,
325,-1.00e-01,
326,-2.00e-02,
327,-1.04e-01,
328,-2.80e-02,
329,-1.04e-01,
330,-1.12e-01,
331,-2.40e-02,
332,-2.40e-02,
333,-1.00e-01,
334,-9.20e-02,
335,-2.80e-02,
336,-2.80e-02,
337,-9.20e-02,
338,-1.04e-01,
339,-2.40e-02,
340,-9.20e-02,
341,-2.80e-02,
342,-2.40e-02,
343,-1.00e-01,
344,-1.16e-01,
345,-1.60e-02,
346,-1.60e-02,
347,-1.08e-01,
348,-2.40e-02,
349,-9.20e-02,
350,-1.20e-02,
351,-1.00e-01,
352,-1.04e-01,
353,-2.00e-02,
354,-2.40e-02,
355,-9.60e-02,
356,-2.00e-02,
357,-9.60e-02,
358,-2.40e-02,
359,-1.08e-01,
360,-2.40e-02,
361,-1.08e-01,
362,-9.60e-02,
363,-2.80e-02,
364,-2.80e-02,
365,-1.04e-01,
366,-1.60e-02,
367,-1.12e-01,
368,-2.40e-02,
369,-9.20e-02,
370,-2.80e-02,
371,-9.60e-02,
372,-9.20e-02,
373,-2.40e-02,
374,-2.40e-02,
375,-1.08e-01,
376,-2.40e-02,
377,-1.00e-01,
378,-9.20e-02,
379,-2.40e-02,
380,-2.00e-02,
381,-1.16e-01,
382,-2.00e-02,
383,-9.60e-02,
384,-8.00e-03,
385,-1.04e-01,
386,-2.80e-02,
387,-9.20e-02,
388,-2.80e-02,
389,-1.08e-01,
390,-3.20e-02,
391,-1.00e-01,
392,-9.60e-02,
393,-2.00e-02,
394,-2.00e-02,
395,-1.08e-01,
396,-2.80e-02,
397,-1.00e-01,
398,-1.20e-02,
399,-9.20e-02,
400,-2.80e-02,
401,-1.16e-01,
402,-1.20e-02,
403,-1.04e-01,
404,-1.04e-01,
405,-2.40e-02,
406,-2.00e-02,
407,-1.12e-01,
408,-1.04e-01,
409,-2.40e-02,
410,-3.20e-02,
411,-1.00e-01,
412,-8.00e-03,
413,-9.20e-02,
414,-2.40e-02,
415,-1.00e-01,
416,-1.60e-02,
417,-1.12e-01,
418,-9.20e-02,
419,-2.00e-02,
420,-1.04e-01,
421,-2.40e-02,
422,-1.60e-02,
423,-1.04e-01,
424,-1.08e-01,
425,-2.00e-02,
426,-2.80e-02,
427,-1.00e-01,
428,-2.40e-02,
429,-8.80e-02,
430,-9.60e-02,
431,-2.80e-02,
432,-9.20e-02,
433,-1.60e-02,
434,-2.80e-02,
435,-9.60e-02,
436,-2.80e-02,
437,-1.04e-01,
438,-1.00e-01,
439,-2.80e-02,
440,-9.20e-02,
441,-2.00e-02,
442,-2.80e-02,
443,-1.00e-01,
444,-1.04e-01,
445,-2.00e-02,
446,-9.60e-02,
447,-2.00e-02,
448,-8.80e-02,
449,-2.80e-02,
450,-2.40e-02,
451,-1.12e-01,
452,-1.00e-01,
453,-2.40e-02,
454,-1.08e-01,
455,-1.60e-02,
456,-1.08e-01,
457,-2.40e-02,
458,-1.04e-01,
459,-2.40e-02,
460,-1.04e-01,
461,-2.00e-02,
462,-9.20e-02,
463,-2.40e-02,
464,-2.00e-02,
465,-9.20e-02,
466,-1.60e-02,
467,-1.08e-01,
468,-2.40e-02,
469,-1.20e-01,
470,-9.20e-02,
471,-2.00e-02,
472,-2.40e-02,
473,-1.00e-01,
474,-2.80e-02,
475,-9.20e-02,
476,-9.60e-02,
477,-2.80e-02,
478,-2.80e-02,
479,-9.20e-02,
480,-1.04e-01,
481,-2.80e-02,
482,-1.60e-02,
483,-1.04e-01,
484,-9.60e-02,
485,-8.00e-03,
486,-9.60e-02,
487,-2.40e-02,
488,-2.00e-02,
489,-9.20e-02,
490,-1.00e-01,
491,-2.80e-02,
492,-1.04e-01,
493,-2.00e-02,
494,-1.20e-02,
495,-9.20e-02,
496,-2.40e-02,
497,-1.04e-01,
498,-1.00e-01,
499,-3.20e-02,
500,-2.40e-02,
501,-1.04e-01,
502,-9.20e-02,
503,-2.40e-02,
504,-2.40e-02,
505,-1.12e-01,
506,-2.40e-02,
507,-1.12e-01,
508,-1.00e-01,
509,-2.40e-02,
510,-1.08e-01,
511,-2.40e-02,
512,-1.20e-02,
513,-1.04e-01,
514,-2.80e-02,
515,-1.04e-01,
516,-2.40e-02,
517,-1.16e-01,
518,-2.40e-02,
519,-1.00e-01,
520,-3.20e-02,
521,-1.04e-01,
522,-2.40e-02,
523,-1.00e-01,
524,-2.40e-02,
525,-8.80e-02,
526,-8.00e-03,
527,-9.60e-02,
528,-2.00e-02,
529,-9.60e-02,
530,-1.04e-01,
531,-2.40e-02,
532,-2.40e-02,
533,-1.00e-01,
534,-2.40e-02,
535,-9.60e-02,
536,-1.04e-01,
537,-2.40e-02,
538,-2.80e-02,
539,-1.04e-01,
540,-1.04e-01,
541,-1.20e-02,
542,-1.20e-02,
543,-1.00e-01,
544,-2.40e-02,
545,-9.20e-02,
546,-1.04e-01,
547,-1.60e-02,
548,-1.00e-01,
549,-2.40e-02,
550,-2.80e-02,
551,-1.00e-01,
552,-2.40e-02,
553,-1.04e-01,
554,-1.20e-02,
555,-9.60e-02,
556,-9.20e-02,
557,-2.00e-02,
558,-9.20e-02,
559,-2.40e-02,
560,-2.40e-02,
561,-1.00e-01,
562,-1.04e-01,
563,-2.80e-02,
564,-2.00e-02,
565,-1.08e-01,
566,-2.40e-02,
567,-9.60e-02,
568,-9.20e-02,
569,-2.00e-02,
570,-2.80e-02,
571,-9.60e-02,
572,-2.40e-02,
573,-9.20e-02,
574,-2.80e-02,
575,-1.04e-01,
576,-8.80e-02,
577,-2.80e-02,
578,-1.20e-02,
579,-9.20e-02,
580,-9.20e-02,
581,-2.00e-02,
582,-1.00e-01,
583,-2.40e-02,
584,-1.04e-01,
585,-1.60e-02,
586,-2.00e-02,
587,-1.00e-01,
588,-2.00e-02,
589,-1.04e-01,
590,-9.20e-02,
591,-2.40e-02,
592,-9.60e-02,
593,-2.80e-02,
594,-9.20e-02,
595,-2.40e-02,
596,-1.00e-01,
597,-3.20e-02,
598,-9.60e-02,
599,-2.00e-02,
600,-8.00e-03,
601,-9.20e-02,
602,-9.60e-02,
603,-1.60e-02,
604,-9.60e-02,
605,-2.00e-02,
606,-1.08e-01,
607,-2.80e-02,
608,-1.00e-01,
609,-2.40e-02,
610,-1.04e-01,
611,-2.00e-02,
612,-2.40e-02,
613,-9.60e-02,
614,-2.40e-02,
615,-1.12e-01,
616,-2.00e-02,
617,-9.20e-02,
618,-9.20e-02,
619,-2.00e-02,
620,-2.80e-02,
621,-9.20e-02,
622,-1.04e-01,
623,-2.40e-02,
624,-9.60e-02,
625,-1.60e-02,
626,-2.80e-02,
627,-9.20e-02,
628,-1.04e-01,
629,-2.40e-02,
630,-1.08e-01,
631,-2.40e-02,
632,-2.40e-02,
633,-1.00e-01,
634,-2.80e-02,
635,-1.00e-01,
636,-9.60e-02,
637,-1.60e-02,
638,-1.20e-01,
639,-2.00e-02,
640,-1.08e-01,
641,-2.40e-02,
642,-1.00e-01,
643,-2.80e-02,
644,-2.40e-02,
645,-1.08e-01,
646,-1.20e-02,
647,-1.12e-01,
648,-1.08e-01,
649,-2.40e-02,
650,-1.00e-01,
651,-8.00e-03,
652,-1.60e-02,
653,-9.60e-02,
654,-2.80e-02,
655,-9.60e-02,
656,-1.08e-01,
657,-2.80e-02,
658,-9.20e-02,
659,-1.20e-02,
660,-2.80e-02,
661,-1.00e-01,
662,-9.60e-02,
663,-1.20e-02,
664,-1.00e-01,
665,-2.80e-02,
666,-2.40e-02,
667,-1.00e-01,
668,-3.20e-02,
669,-9.20e-02,
670,-2.80e-02,
671,-9.20e-02,
672,-3.20e-02,
673,-9.20e-02,
674,-1.08e-01,
675,-2.40e-02,
676,-9.60e-02,
677,-2.40e-02,
678,-2.00e-02,
679,-1.04e-01,
680,-1.00e-01,
681,-2.00e-02,
682,-2.40e-02,
683,-9.60e-02,
684,-2.80e-02,
685,-1.08e-01,
686,-2.80e-02,
687,-1.04e-01,
688,-2.00e-02,
689,-1.08e-01,
690,-2.40e-02,
691,-1.04e-01,
692,-2.00e-02,
693,-1.20e-01,
694,-9.60e-02,
695,-2.40e-02,
696,-1.20e-02,
697,-9.60e-02,
698,-1.04e-01,
699,-1.20e-02,
700,-1.12e-01,
701,-2.80e-02,
702,-1.08e-01,
703,-2.80e-02,
704,-2.40e-02,
705,-1.08e-01,
706,-1.00e-01,
707,-1.20e-02,
708,-1.12e-01,
709,-2.80e-02,
710,-9.60e-02,
711,-2.00e-02,
712,-1.60e-02,
713,-1.00e-01,
714,-1.00e-01,
715,-1.60e-02,
716,-2.80e-02,
717,-9.60e-02,
718,-2.80e-02,
719,-1.00e-01,
720,-2.40e-02,
721,-9.60e-02,
722,-1.00e-01,
723,-2.40e-02,
724,-2.00e-02,
725,-9.60e-02,
726,-2.80e-02,
727,-1.04e-01,
728,-1.00e-01,
729,-2.40e-02,
730,-1.04e-01,
731,-2.00e-02,
732,-1.00e-01,
733,-2.00e-02,
734,-1.00e-01,
735,-2.00e-02,
736,-2.40e-02,
737,-1.12e-01,
738,-1.60e-02,
739,-1.00e-01,
740,-9.60e-02,
741,-2.00e-02,
742,-1.20e-02,
743,-1.04e-01,
744,-1.60e-02,
745,-1.04e-01,
746,-1.60e-02,
747,-1.08e-01,
748,-2.40e-02,
749,-1.04e-01,
750,-1.04e-01,
751,-2.00e-02,
752,-9.20e-02,
753,-2.00e-02,
754,-9.60e-02,
755,-1.20e-02,
756,-2.40e-02,
757,-1.08e-01,
758,-2.80e-02,
759,-9.60e-02,
760,-2.80e-02,
761,-9.60e-02,
762,-1.04e-01,
763,-2.80e-02,
764,-2.00e-02,
765,-9.20e-02,
766,-1.20e-02,
767,-1.00e-01,
768,-1.04e-01,
769,-4.00e-03,
770,-2.80e-02,
771,-1.00e-01,
772,-1.60e-02,
773,-1.12e-01,
774,-1.08e-01,
775,-2.40e-02,
776,-1.12e-01,
777,-2.40e-02,
778,-9.60e-02,
779,-2.00e-02,
780,-2.40e-02,
781,-9.60e-02,
782,-9.20e-02,
783,-2.80e-02,
784,-2.40e-02,
785,-1.12e-01,
786,-9.60e-02,
787,-2.80e-02,
788,-2.00e-02,
789,-1.04e-01,
790,-2.40e-02,
791,-1.08e-01,
792,-2.40e-02,
793,-1.04e-01,
794,-2.00e-02,
795,-1.00e-01,
796,-3.20e-02,
797,-1.12e-01,
798,-2.00e-02,
799,-9.20e-02,
800,-2.40e-02,
801,-1.04e-01,
802,-1.00e-01,
803,-2.00e-02,
804,-2.00e-02,
805,-1.04e-01,
806,-2.80e-02,
807,-1.08e-01,
808,-1.00e-01,
809,-2.40e-02,
810,-1.00e-01,
811,-2.00e-02,
812,-9.60e-02,
813,-4.00e-03,
814,-2.40e-02,
815,-1.08e-01,
816,-2.40e-02,
817,-9.60e-02,
818,-2.00e-02,
819,-9.60e-02,
820,-2.80e-02,
821,-9.20e-02,
822,-2.00e-02,
823,-9.60e-02,
824,-9.20e-02,
825,-1.20e-02,
826,-1.60e-02,
827,-9.60e-02,
828,-2.80e-02,
829,-1.00e-01,
830,-2.00e-02,
831,-9.60e-02,
832,-2.40e-02,
833,-1.00e-01,
834,-1.20e-02,
835,-9.60e-02,
836,-2.40e-02,
837,-1.04e-01,
838,-9.20e-02,
839,-1.20e-02,
840,-8.00e-03,
841,-1.04e-01,
842,-1.04e-01,
843,-2.80e-02,
844,-9.60e-02,
845,-2.40e-02,
846,-9.60e-02,
847,-2.40e-02,
848,-1.04e-01,
849,-2.00e-02,
850,-1.60e-02,
851,-1.00e-01,
852,-2.00e-02,
853,-9.60e-02,
854,-1.00e-01,
855,-2.40e-02,
856,-9.60e-02,
857,-2.00e-02,
858,-1.04e-01,
859,-2.80e-02,
860,-1.08e-01,
861,-2.00e-02,
862,-2.80e-02,
863,-9.20e-02,
864,-8.80e-02,
865,-1.60e-02,
866,-2.40e-02,
867,-1.04e-01,
868,-9.20e-02,
869,-2.40e-02,
870,-2.40e-02,
871,-1.00e-01,
872,-2.00e-02,
873,-1.04e-01,
874,-2.40e-02,
875,-9.60e-02,
876,-2.00e-02,
877,-9.20e-02,
878,-2.80e-02,
879,-9.60e-02,
880,-1.00e-01,
881,-2.40e-02,
882,-2.40e-02,
883,-1.08e-01,
884,-2.80e-02,
885,-9.20e-02,
886,-2.40e-02,
887,-1.04e-01,
888,-2.80e-02,
889,-1.00e-01,
890,-4.00e-03,
891,-9.60e-02,
892,-2.80e-02,
893,-1.00e-01,
894,-2.40e-02,
895,-1.04e-01,
896,-1.00e-01,
897,-2.00e-02,
898,-2.40e-02,
899,-9.60e-02,
900,-1.60e-02,
901,-1.00e-01,
902,-9.60e-02,
903,-1.20e-02,
904,-1.04e-01,
905,-2.80e-02,
906,-9.60e-02,
907,-2.40e-02,
908,-1.00e-01,
909,-2.40e-02,
910,-9.20e-02,
911,-2.40e-02,
912,-1.12e-01,
913,-2.00e-02,
914,-9.60e-02,
915,-2.80e-02,
916,-1.00e-01,
917,-2.40e-02,
918,-2.00e-02,
919,-9.20e-02,
920,-2.40e-02,
921,-1.04e-01,
922,-2.00e-02,
923,-1.00e-01,
924,-2.80e-02,
925,-1.08e-01,
926,-2.40e-02,
927,-9.20e-02,
928,-1.20e-01,
929,-2.00e-02,
930,-2.00e-02,
931,-1.04e-01,
932,-3.20e-02,
933,-1.00e-01,
934,-9.20e-02,
935,-2.00e-02,
936,-9.20e-02,
937,-2.40e-02,
938,-2.80e-02,
939,-1.08e-01,
940,-1.08e-01,
941,-2.40e-02,
942,-2.40e-02,
943,-9.60e-02,
944,-9.20e-02,
945,-3.20e-02,
946,-2.00e-02,
947,-1.00e-01,
948,-1.00e-01,
949,-2.80e-02,
950,-1.04e-01,
951,-2.00e-02,
952,-2.40e-02,
953,-1.04e-01,
954,-2.00e-02,
955,-1.00e-01,
956,-2.00e-02,
957,-1.04e-01,
958,-2.00e-02,
959,-1.04e-01,
960,-2.40e-02,
961,-9.60e-02,
962,-1.20e-02,
963,-1.00e-01,
964,-8.80e-02,
965,-2.00e-02,
966,-1.20e-02,
967,-1.00e-01,
968,-2.80e-02,
969,-1.00e-01,
970,-2.80e-02,
971,-1.08e-01,
972,-9.20e-02,
973,-2.80e-02,
974,-2.40e-02,
975,-9.60e-02,
976,-2.00e-02,
977,-1.04e-01,
978,-2.80e-02,
979,-1.00e-01,
980,-2.40e-02,
981,-9.20e-02,
982,-9.20e-02,
983,-2.00e-02,
984,-9.60e-02,
985,-2.00e-02,
986,-1.00e-01,
987,-2.40e-02,
988,-9.60e-02,
989,-2.00e-02,
990,-8.80e-02,
991,-2.80e-02,
992,-9.20e-02,
993,-2.40e-02,
994,-2.40e-02,
995,-9.20e-02,
996,-9.20e-02,
997,-2.00e-02,
998,-1.04e-01,
999,-2.40e-02,
1000,-1.04e-01,
1001,-1.60e-02,
1002,-1.00e-01,
1003,-2.40e-02,
1004,-2.40e-02,
1005,-9.60e-02,
1006,-2.40e-02,
1007,-9.60e-02,
1008,-9.20e-02,
1009,-1.60e-02,
1010,-1.60e-02,
1011,-9.60e-02,
1012,-9.60e-02,
1013,-2.40e-02,
1014,-2.00e-02,
1015,-1.04e-01,
1016,-3.20e-02,
1017,-1.00e-01,
1018,-9.60e-02,
1019,-2.40e-02,
1020,-9.60e-02,
1021,-2.80e-02,
1022,-3.20e-02,
1023,-1.00e-01,
1024,-1.04e-01,
1025,-2.00e-02,
1026,-3.20e-02,
1027,-9.20e-02,
1028,-1.00e-01,
1029,-2.40e-02,
1030,-1.00e-01,
1031,-2.40e-02,
1032,-1.60e-02,
1033,-1.08e-01,
1034,-1.04e-01,
1035,-1.60e-02,
1036,-2.00e-02,
1037,-1.08e-01,
1038,-1.00e-01,
1039,-2.00e-02,
1040,-2.40e-02,
1041,-9.20e-02,
1042,-8.00e-03,
1043,-1.00e-01,
1044,-9.60e-02,
1045,-2.80e-02,
1046,-1.04e-01,
1047,-1.20e-02,
1048,-1.00e-01,
1049,-2.00e-02,
1050,-1.04e-01,
1051,-2.80e-02,
1052,-2.40e-02,
1053,-9.60e-02,
1054,-2.40e-02,
1055,-1.04e-01,
1056,-2.00e-02,
1057,-1.00e-01,
1058,-2.40e-02,
1059,-1.00e-01,
1060,-2.80e-02,
1061,-1.04e-01,
1062,-3.20e-02,
1063,-9.60e-02,
1064,-2.40e-02,
1065,-9.20e-02,
1066,-2.00e-02,
1067,-9.20e-02,
1068,-1.00e-01,
1069,-2.00e-02,
1070,-2.40e-02,
1071,-1.04e-01,
1072,-9.60e-02,
1073,-2.40e-02,
1074,-2.40e-02,
1075,-9.60e-02,
1076,-1.00e-01,
1077,-2.40e-02,
1078,-2.40e-02,
1079,-1.04e-01,
1080,-9.60e-02,
1081,-2.00e-02,
1082,-1.00e-01,
1083,-2.40e-02,
1084,-1.04e-01,
1085,-2.40e-02,
1086,-2.80e-02,
1087,-9.60e-02,
1088,-2.00e-02,
1089,-1.00e-01,
1090,-2.40e-02,
1091,-1.04e-01,
1092,-2.40e-02,
1093,-9.60e-02,
1094,-2.80e-02,
1095,-1.08e-01,
1096,-9.20e-02,
1097,-2.40e-02,
1098,-9.20e-02,
1099,-2.00e-02,
1100,-2.40e-02,
1101,-9.60e-02,
1102,-9.20e-02,
1103,-2.40e-02,
1104,-9.20e-02,
1105,-2.40e-02,
1106,-1.04e-01,
1107,-2.40e-02,
1108,-2.40e-02,
1109,-1.00e-01,
1110,-2.40e-02,
1111,-1.00e-01,
1112,-1.04e-01,
1113,-2.80e-02,
1114,-2.40e-02,
1115,-1.08e-01,
1116,-9.20e-02,
1117,-2.40e-02,
1118,-9.60e-02,
1119,-1.60e-02,
1120,-9.60e-02,
1121,-2.80e-02,
1122,-1.04e-01,
1123,-2.40e-02,
1124,-1.00e-01,
1125,-2.40e-02,
1126,-1.00e-01,
1127,-2.40e-02,
1128,-1.00e-01,
1129,-2.00e-02,
1130,-1.60e-02,
1131,-1.12e-01,
1132,-1.00e-01,
1133,-2.80e-02,
1134,-1.00e-01,
1135,-2.40e-02,
1136,-2.40e-02,
1137,-1.04e-01,
1138,-2.80e-02,
1139,-9.20e-02,
1140,-1.08e-01,
1141,-2.40e-02,
1142,-2.00e-02,
1143,-1.00e-01,
1144,-9.60e-02,
1145,-2.00e-02,
1146,-1.20e-02,
1147,-1.04e-01,
1148,-9.20e-02,
1149,-2.40e-02,
1150,-9.60e-02,
1151,-2.40e-02,
1152,-1.00e-01,
1153,-1.60e-02,
1154,-9.60e-02,
1155,-2.00e-02,
1156,-9.60e-02,
1157,-1.60e-02,
1158,-1.08e-01,
1159,-2.40e-02,
1160,-1.60e-02,
1161,-1.08e-01,
1162,-1.00e-01,
1163,-2.40e-02,
1164,-1.04e-01,
1165,-2.80e-02,
1166,-2.40e-02,
1167,-1.00e-01,
1168,-2.40e-02,
1169,-1.00e-01,
1170,-9.20e-02,
1171,-2.40e-02,
1172,-2.00e-02,
1173,-9.60e-02,
1174,-1.00e-01,
1175,-1.20e-02,
1176,-1.60e-02,
1177,-1.08e-01,
1178,-9.20e-02,
1179,-2.40e-02,
1180,-2.40e-02,
1181,-9.20e-02,
1182,-9.60e-02,
1183,-2.00e-02,
1184,-1.00e-01,
1185,-1.60e-02,
1186,-2.00e-02,
1187,-9.60e-02,
1188,-2.80e-02,
1189,-9.60e-02,
1190,-9.60e-02,
1191,-2.80e-02,
1192,-1.08e-01,
1193,-2.00e-02,
1194,-2.80e-02,
1195,-9.60e-02,
1196,-2.40e-02,
1197,-1.04e-01,
1198,-9.60e-02,
1199,-2.40e-02,
