fastdiffamp/data-noise-set/bal-mean/NewFile13.csv

X,CH1,Start,Increment,
Sequence,Volt,-5.990000e+00,1.000000e-02
0,-2.80e-02,
1,-1.04e-01,
2,-1.00e-01,
3,-1.60e-02,
4,-2.00e-02,
5,-1.12e-01,
6,-1.04e-01,
7,-2.80e-02,
8,-1.60e-02,
9,-1.16e-01,
10,-3.20e-02,
11,-1.04e-01,
12,-2.40e-02,
13,-9.60e-02,
14,-1.08e-01,
15,-3.20e-02,
16,-9.20e-02,
17,-2.80e-02,
18,-1.04e-01,
19,-2.40e-02,
20,-3.20e-02,
21,-1.08e-01,
22,-1.08e-01,
23,-2.80e-02,
24,-1.12e-01,
25,-2.00e-02,
26,-1.00e-01,
27,-2.40e-02,
28,-2.80e-02,
29,-1.08e-01,
30,-1.00e-01,
31,-2.40e-02,
32,-1.04e-01,
33,-3.20e-02,
34,-4.00e-02,
35,-1.04e-01,
36,-2.80e-02,
37,-1.04e-01,
38,-3.20e-02,
39,-1.00e-01,
40,-1.00e-01,
41,-2.80e-02,
42,-9.60e-02,
43,-2.80e-02,
44,-1.00e-01,
45,-2.80e-02,
46,-1.00e-01,
47,-2.40e-02,
48,-2.40e-02,
49,-1.12e-01,
50,-1.04e-01,
51,-2.40e-02,
52,-2.80e-02,
53,-1.00e-01,
54,-3.20e-02,
55,-9.60e-02,
56,-1.08e-01,
57,-1.20e-02,
58,-1.16e-01,
59,-2.80e-02,
60,-1.08e-01,
61,-3.20e-02,
62,-2.00e-02,
63,-1.24e-01,
64,-1.00e-01,
65,-2.40e-02,
66,-1.08e-01,
67,-2.40e-02,
68,-1.04e-01,
69,-2.40e-02,
70,-2.40e-02,
71,-1.04e-01,
72,-2.80e-02,
73,-1.04e-01,
74,-2.80e-02,
75,-1.08e-01,
76,-3.60e-02,
77,-1.04e-01,
78,-2.40e-02,
79,-1.04e-01,
80,-2.40e-02,
81,-1.04e-01,
82,-2.40e-02,
83,-1.08e-01,
84,-2.00e-02,
85,-1.00e-01,
86,-1.04e-01,
87,-2.40e-02,
88,-2.80e-02,
89,-1.08e-01,
90,-1.04e-01,
91,-2.80e-02,
92,-1.04e-01,
93,-2.80e-02,
94,-1.08e-01,
95,-3.20e-02,
96,-2.80e-02,
97,-1.04e-01,
98,-3.20e-02,
99,-9.60e-02,
100,-1.00e-01,
101,-2.80e-02,
102,-2.40e-02,
103,-9.60e-02,
104,-1.08e-01,
105,-3.20e-02,
106,-2.00e-02,
107,-1.04e-01,
108,-9.60e-02,
109,-2.40e-02,
110,-1.16e-01,
111,-2.80e-02,
112,-1.00e-01,
113,-2.40e-02,
114,-2.40e-02,
115,-1.08e-01,
116,-1.04e-01,
117,-2.40e-02,
118,-1.04e-01,
119,-2.80e-02,
120,-1.60e-02,
121,-1.08e-01,
122,-1.04e-01,
123,-3.20e-02,
124,-2.80e-02,
125,-1.04e-01,
126,-9.60e-02,
127,-2.40e-02,
128,-3.20e-02,
129,-1.08e-01,
130,-1.00e-01,
131,-2.00e-02,
132,-3.20e-02,
133,-1.08e-01,
134,-1.04e-01,
135,-2.00e-02,
136,-2.40e-02,
137,-1.00e-01,
138,-3.20e-02,
139,-1.00e-01,
140,-2.80e-02,
141,-1.00e-01,
142,-2.80e-02,
143,-1.12e-01,
144,-2.80e-02,
145,-1.00e-01,
146,-1.00e-01,
147,-2.40e-02,
148,-2.80e-02,
149,-1.04e-01,
150,-2.80e-02,
151,-1.00e-01,
152,-1.08e-01,
153,-2.00e-02,
154,-9.60e-02,
155,-2.40e-02,
156,-2.00e-02,
157,-1.08e-01,
158,-1.04e-01,
159,-2.40e-02,
160,-2.40e-02,
161,-9.60e-02,
162,-1.00e-01,
163,-2.40e-02,
164,-1.04e-01,
165,-3.20e-02,
166,-2.80e-02,
167,-1.12e-01,
168,-1.00e-01,
169,-2.80e-02,
170,-2.80e-02,
171,-9.60e-02,
172,-2.80e-02,
173,-9.60e-02,
174,-2.00e-02,
175,-1.04e-01,
176,-1.12e-01,
177,-3.20e-02,
178,-1.08e-01,
179,-2.80e-02,
180,-2.00e-02,
181,-1.00e-01,
182,-2.40e-02,
183,-1.08e-01,
184,-2.00e-02,
185,-1.04e-01,
186,-1.08e-01,
187,-3.20e-02,
188,-1.60e-02,
189,-1.08e-01,
190,-1.08e-01,
191,-2.40e-02,
192,-2.40e-02,
193,-1.20e-01,
194,-9.20e-02,
195,-3.20e-02,
196,-1.20e-01,
197,-2.00e-02,
198,-1.04e-01,
199,-3.60e-02,
200,-2.40e-02,
201,-1.08e-01,
202,-1.04e-01,
203,-2.40e-02,
204,-9.60e-02,
205,-1.60e-02,
206,-3.20e-02,
207,-1.04e-01,
208,-2.40e-02,
209,-1.04e-01,
210,-1.00e-01,
211,-2.80e-02,
212,-9.60e-02,
213,-2.00e-02,
214,-3.20e-02,
215,-9.60e-02,
216,-2.00e-02,
217,-1.08e-01,
218,-9.20e-02,
219,-1.60e-02,
220,-2.40e-02,
221,-1.04e-01,
222,-1.20e-01,
223,-2.00e-02,
224,-2.80e-02,
225,-1.08e-01,
226,-1.08e-01,
227,-3.20e-02,
228,-2.00e-02,
229,-9.60e-02,
230,-2.80e-02,
231,-1.00e-01,
232,-1.24e-01,
233,-2.80e-02,
234,-2.40e-02,
235,-1.04e-01,
236,-2.80e-02,
237,-1.04e-01,
238,-2.80e-02,
239,-1.04e-01,
240,-2.80e-02,
241,-1.00e-01,
242,-2.80e-02,
243,-1.00e-01,
244,-2.80e-02,
245,-1.08e-01,
246,-3.20e-02,
247,-1.00e-01,
248,-1.12e-01,
249,-3.20e-02,
250,-9.60e-02,
251,-3.20e-02,
252,-3.20e-02,
253,-1.04e-01,
254,-2.80e-02,
255,-1.08e-01,
256,-1.12e-01,
257,-3.20e-02,
258,-1.04e-01,
259,-2.40e-02,
260,-2.00e-02,
261,-1.16e-01,
262,-2.40e-02,
263,-1.04e-01,
264,-2.00e-02,
265,-1.04e-01,
266,-1.04e-01,
267,-2.00e-02,
268,-1.08e-01,
269,-1.20e-02,
270,-2.00e-02,
271,-9.20e-02,
272,-2.80e-02,
273,-9.60e-02,
274,-2.80e-02,
275,-9.20e-02,
276,-1.00e-01,
277,-2.80e-02,
278,-1.08e-01,
279,-2.40e-02,
280,-1.04e-01,
281,-2.40e-02,
282,-2.80e-02,
283,-9.60e-02,
284,-1.04e-01,
285,-2.80e-02,
286,-1.00e-01,
287,-2.40e-02,
288,-3.20e-02,
289,-9.60e-02,
290,-2.80e-02,
291,-1.00e-01,
292,-1.12e-01,
293,-2.80e-02,
294,-2.80e-02,
295,-9.60e-02,
296,-1.04e-01,
297,-3.20e-02,
298,-2.40e-02,
299,-1.00e-01,
300,-3.20e-02,
301,-1.04e-01,
302,-2.40e-02,
303,-1.00e-01,
304,-1.00e-01,
305,-2.00e-02,
306,-1.00e-01,
307,-3.20e-02,
308,-9.60e-02,
309,-2.40e-02,
310,-3.20e-02,
311,-1.00e-01,
312,-1.00e-01,
313,-2.80e-02,
314,-2.40e-02,
315,-1.04e-01,
316,-1.00e-01,
317,-2.80e-02,
318,-2.80e-02,
319,-9.60e-02,
320,-1.04e-01,
321,-2.40e-02,
322,-2.40e-02,
323,-1.04e-01,
324,-2.00e-02,
325,-1.04e-01,
326,-1.04e-01,
327,-3.20e-02,
328,-2.80e-02,
329,-1.08e-01,
330,-3.20e-02,
331,-9.60e-02,
332,-1.04e-01,
333,-2.40e-02,
334,-3.20e-02,
335,-1.04e-01,
336,-3.60e-02,
337,-1.00e-01,
338,-2.00e-02,
339,-1.04e-01,
340,-2.40e-02,
341,-1.12e-01,
342,-1.20e-02,
343,-1.08e-01,
344,-3.20e-02,
345,-1.04e-01,
346,-1.04e-01,
347,-2.80e-02,
348,-9.60e-02,
349,-1.60e-02,
350,-1.04e-01,
351,-3.20e-02,
352,-1.12e-01,
353,-2.40e-02,
354,-2.40e-02,
355,-1.00e-01,
356,-2.80e-02,
357,-1.16e-01,
358,-1.04e-01,
359,-2.80e-02,
360,-3.20e-02,
361,-9.60e-02,
362,-1.00e-01,
363,-2.40e-02,
364,-1.00e-01,
365,-2.40e-02,
366,-1.04e-01,
367,-2.80e-02,
368,-3.20e-02,
369,-1.08e-01,
370,-2.80e-02,
371,-1.08e-01,
372,-2.80e-02,
373,-1.08e-01,
374,-1.04e-01,
375,-2.80e-02,
376,-2.80e-02,
377,-1.04e-01,
378,-1.00e-01,
379,-2.80e-02,
380,-9.60e-02,
381,-3.20e-02,
382,-1.08e-01,
383,-2.40e-02,
384,-1.08e-01,
385,-2.00e-02,
386,-9.60e-02,
387,-2.40e-02,
388,-2.80e-02,
389,-1.04e-01,
390,-2.80e-02,
391,-1.12e-01,
392,-1.08e-01,
393,-3.20e-02,
394,-2.40e-02,
395,-1.04e-01,
396,-2.00e-02,
397,-1.04e-01,
398,-2.40e-02,
399,-1.08e-01,
400,-3.20e-02,
401,-1.12e-01,
402,-2.80e-02,
403,-1.04e-01,
404,-1.12e-01,
405,-1.20e-02,
406,-1.04e-01,
407,-2.80e-02,
408,-1.04e-01,
409,-2.40e-02,
410,-3.20e-02,
411,-1.00e-01,
412,-1.00e-01,
413,-2.80e-02,
414,-2.80e-02,
415,-1.04e-01,
416,-3.20e-02,
417,-1.00e-01,
418,-1.04e-01,
419,-3.60e-02,
420,-2.40e-02,
421,-1.00e-01,
422,-2.80e-02,
423,-9.60e-02,
424,-2.80e-02,
425,-1.16e-01,
426,-2.80e-02,
427,-1.04e-01,
428,-1.04e-01,
429,-1.60e-02,
430,-1.00e-01,
431,-2.80e-02,
432,-1.00e-01,
433,-2.80e-02,
434,-3.20e-02,
435,-1.04e-01,
436,-2.80e-02,
437,-1.12e-01,
438,-3.60e-02,
439,-1.04e-01,
440,-9.20e-02,
441,-2.80e-02,
442,-2.80e-02,
443,-1.04e-01,
444,-1.04e-01,
445,-2.80e-02,
446,-4.00e-03,
447,-1.00e-01,
448,-1.08e-01,
449,-2.40e-02,
450,-2.40e-02,
451,-1.04e-01,
452,-2.40e-02,
453,-1.04e-01,
454,-1.00e-01,
455,-3.20e-02,
456,-2.80e-02,
457,-1.12e-01,
458,-2.40e-02,
459,-9.20e-02,
460,-2.80e-02,
461,-9.60e-02,
462,-1.20e-01,
463,-2.40e-02,
464,-1.04e-01,
465,-2.80e-02,
466,-2.80e-02,
467,-9.60e-02,
468,-1.08e-01,
469,-2.40e-02,
470,-1.00e-01,
471,-2.40e-02,
472,-2.80e-02,
473,-1.00e-01,
474,-3.20e-02,
475,-1.08e-01,
476,-9.60e-02,
477,-2.40e-02,
478,-2.80e-02,
479,-1.08e-01,
480,-3.20e-02,
481,-1.04e-01,
482,-1.00e-01,
483,-2.40e-02,
484,-1.08e-01,
485,-3.20e-02,
486,-3.20e-02,
487,-1.00e-01,
488,-3.20e-02,
489,-9.60e-02,
490,-1.08e-01,
491,-2.40e-02,
492,-1.04e-01,
493,-2.80e-02,
494,-1.60e-02,
495,-1.08e-01,
496,-2.80e-02,
497,-1.00e-01,
498,-2.80e-02,
499,-1.08e-01,
500,-2.80e-02,
501,-1.08e-01,
502,-2.40e-02,
503,-1.08e-01,
504,-1.04e-01,
505,-3.60e-02,
506,-2.40e-02,
507,-1.08e-01,
508,-2.80e-02,
509,-1.08e-01,
510,-2.40e-02,
511,-1.04e-01,
512,-1.12e-01,
513,-2.00e-02,
514,-1.00e-01,
515,-2.40e-02,
516,-1.08e-01,
517,-2.40e-02,
518,-3.20e-02,
519,-1.00e-01,
520,-1.08e-01,
521,-3.20e-02,
522,-1.08e-01,
523,-3.60e-02,
524,-1.20e-02,
525,-1.12e-01,
526,-1.00e-01,
527,-2.00e-02,
528,-9.60e-02,
529,-2.00e-02,
530,-2.00e-02,
531,-1.08e-01,
532,-1.04e-01,
533,-2.40e-02,
534,-2.80e-02,
535,-1.12e-01,
536,-3.20e-02,
537,-1.04e-01,
538,-3.20e-02,
539,-1.08e-01,
540,-2.80e-02,
541,-1.04e-01,
542,-2.40e-02,
543,-1.12e-01,
544,-3.20e-02,
545,-1.20e-01,
546,-1.04e-01,
547,-2.40e-02,
548,-2.80e-02,
549,-1.08e-01,
550,-3.20e-02,
551,-1.04e-01,
552,-1.00e-01,
553,-3.20e-02,
554,-2.40e-02,
555,-9.60e-02,
556,-2.40e-02,
557,-1.00e-01,
558,-2.40e-02,
559,-1.24e-01,
560,-1.12e-01,
561,-2.40e-02,
562,-3.20e-02,
563,-1.00e-01,
564,-1.60e-02,
565,-1.04e-01,
566,-1.60e-02,
567,-9.60e-02,
568,-3.60e-02,
569,-1.00e-01,
570,-2.00e-02,
571,-1.04e-01,
572,-1.04e-01,
573,-2.40e-02,
574,-1.04e-01,
575,-2.80e-02,
576,-1.04e-01,
577,-2.80e-02,
578,-3.20e-02,
579,-1.20e-01,
580,-2.80e-02,
581,-1.08e-01,
582,-1.00e-01,
583,-2.40e-02,
584,-1.60e-02,
585,-9.60e-02,
586,-1.00e-01,
587,-2.40e-02,
588,-2.40e-02,
589,-1.04e-01,
590,-2.40e-02,
591,-1.24e-01,
592,-1.00e-01,
593,-2.40e-02,
594,-2.80e-02,
595,-1.12e-01,
596,-2.40e-02,
597,-1.04e-01,
598,-2.40e-02,
599,-1.04e-01,
600,-1.04e-01,
601,-3.20e-02,
602,-1.12e-01,
603,-2.80e-02,
604,-3.20e-02,
605,-1.04e-01,
606,-2.80e-02,
607,-1.08e-01,
608,-9.60e-02,
609,-3.60e-02,
610,-1.08e-01,
611,-2.00e-02,
612,-2.80e-02,
613,-1.04e-01,
614,-2.80e-02,
615,-1.00e-01,
616,-1.08e-01,
617,-3.20e-02,
618,-2.80e-02,
619,-1.08e-01,
620,-1.04e-01,
621,-2.80e-02,
622,-1.00e-01,
623,-2.40e-02,
624,-2.80e-02,
625,-1.08e-01,
626,-2.80e-02,
627,-1.00e-01,
628,-2.80e-02,
629,-9.20e-02,
630,-1.08e-01,
631,-3.20e-02,
632,-1.60e-02,
633,-1.04e-01,
634,-1.00e-01,
635,-2.40e-02,
636,-2.80e-02,
637,-1.04e-01,
638,-1.04e-01,
639,-2.00e-02,
640,-1.00e-01,
641,-2.80e-02,
642,-1.00e-01,
643,-2.40e-02,
644,-2.80e-02,
645,-1.08e-01,
646,-1.04e-01,
647,-2.40e-02,
648,-3.20e-02,
649,-1.04e-01,
650,-2.40e-02,
651,-1.12e-01,
652,-9.60e-02,
653,-2.80e-02,
654,-2.40e-02,
655,-1.08e-01,
656,-1.04e-01,
657,-2.80e-02,
658,-2.80e-02,
659,-1.08e-01,
660,-8.00e-03,
661,-1.08e-01,
662,-3.60e-02,
663,-1.04e-01,
664,-1.04e-01,
665,-3.20e-02,
666,-9.60e-02,
667,-2.80e-02,
668,-1.04e-01,
669,-3.20e-02,
670,-2.80e-02,
671,-1.00e-01,
672,-1.04e-01,
673,-2.80e-02,
674,-3.60e-02,
675,-1.08e-01,
676,-2.40e-02,
677,-1.04e-01,
678,-2.80e-02,
679,-1.12e-01,
680,-1.08e-01,
681,-2.80e-02,
682,-1.08e-01,
683,-2.40e-02,
684,-9.60e-02,
685,-2.00e-02,
686,-1.04e-01,
687,-2.80e-02,
688,-1.04e-01,
689,-2.80e-02,
690,-1.08e-01,
691,-3.60e-02,
692,-1.04e-01,
693,-1.20e-02,
694,-2.80e-02,
695,-1.12e-01,
696,-1.04e-01,
697,-8.00e-03,
698,-2.40e-02,
699,-1.00e-01,
700,-2.40e-02,
701,-9.60e-02,
702,-3.20e-02,
703,-1.04e-01,
704,-2.80e-02,
705,-1.08e-01,
706,-2.80e-02,
707,-1.00e-01,
708,-1.00e-01,
709,-2.80e-02,
710,-2.00e-02,
711,-1.08e-01,
712,-1.04e-01,
713,-2.80e-02,
714,-1.04e-01,
715,-2.00e-02,
716,-2.80e-02,
717,-1.08e-01,
718,-2.40e-02,
719,-1.08e-01,
720,-1.12e-01,
721,-2.40e-02,
722,-2.80e-02,
723,-1.04e-01,
724,-2.40e-02,
725,-1.00e-01,
726,-3.20e-02,
727,-1.04e-01,
728,-1.04e-01,
729,-2.40e-02,
730,-2.40e-02,
731,-1.08e-01,
732,-1.04e-01,
733,-2.80e-02,
734,-2.80e-02,
735,-1.08e-01,
736,-2.00e-02,
737,-1.04e-01,
738,-2.80e-02,
739,-1.08e-01,
740,-3.60e-02,
741,-1.04e-01,
742,-9.20e-02,
743,-2.40e-02,
744,-2.80e-02,
745,-1.04e-01,
746,-9.20e-02,
747,-3.20e-02,
748,-1.04e-01,
749,-2.40e-02,
750,-2.80e-02,
751,-1.04e-01,
752,-3.20e-02,
753,-1.04e-01,
754,-2.40e-02,
755,-1.00e-01,
756,-1.04e-01,
757,-3.20e-02,
758,-1.12e-01,
759,-2.40e-02,
760,-1.00e-01,
761,-2.40e-02,
762,-3.60e-02,
763,-9.60e-02,
764,-1.00e-01,
765,-3.60e-02,
766,-1.08e-01,
767,-2.40e-02,
768,-1.20e-02,
769,-1.00e-01,
770,-2.40e-02,
771,-1.04e-01,
772,-8.00e-03,
773,-1.12e-01,
774,-2.00e-02,
775,-1.12e-01,
776,-9.60e-02,
777,-2.80e-02,
778,-2.80e-02,
779,-9.60e-02,
780,-9.60e-02,
781,-2.80e-02,
782,-3.20e-02,
783,-1.04e-01,
784,-9.60e-02,
785,-2.80e-02,
786,-2.00e-02,
787,-1.00e-01,
788,-1.00e-01,
789,-3.20e-02,
790,-1.04e-01,
791,-2.80e-02,
792,-2.80e-02,
793,-1.00e-01,
794,-1.04e-01,
795,-2.80e-02,
796,-2.40e-02,
797,-1.00e-01,
798,-9.60e-02,
799,-2.40e-02,
800,-2.00e-02,
801,-1.00e-01,
802,-2.40e-02,
803,-1.04e-01,
804,-2.00e-02,
805,-1.24e-01,
806,-2.80e-02,
807,-1.08e-01,
808,-2.00e-02,
809,-1.04e-01,
810,-1.04e-01,
811,-3.60e-02,
812,-2.80e-02,
813,-1.04e-01,
814,-2.80e-02,
815,-1.00e-01,
816,-1.08e-01,
817,-3.20e-02,
818,-1.12e-01,
819,-2.80e-02,
820,-1.04e-01,
821,-3.20e-02,
822,-1.08e-01,
823,-3.20e-02,
824,-1.08e-01,
825,-2.40e-02,
826,-2.40e-02,
827,-1.04e-01,
828,-2.80e-02,
829,-1.08e-01,
830,-2.40e-02,
831,-1.04e-01,
832,-1.60e-02,
833,-1.00e-01,
834,-3.20e-02,
835,-1.04e-01,
836,-3.20e-02,
837,-1.08e-01,
838,-2.80e-02,
839,-9.60e-02,
840,-1.08e-01,
841,-2.40e-02,
842,-1.00e-01,
843,-2.40e-02,
844,-1.60e-02,
845,-1.04e-01,
846,-2.80e-02,
847,-1.08e-01,
848,-9.60e-02,
849,-1.60e-02,
850,-1.08e-01,
851,-2.80e-02,
852,-2.40e-02,
853,-1.20e-01,
854,-1.08e-01,
855,-2.00e-02,
856,-1.04e-01,
857,-2.40e-02,
858,-1.08e-01,
859,-2.40e-02,
860,-2.00e-02,
861,-1.04e-01,
862,-1.00e-01,
863,-2.40e-02,
864,-2.80e-02,
865,-1.04e-01,
866,-3.20e-02,
867,-1.08e-01,
868,-2.80e-02,
869,-1.08e-01,
870,-2.00e-02,
871,-1.04e-01,
872,-3.20e-02,
873,-1.04e-01,
874,-2.40e-02,
875,-1.04e-01,
876,-1.08e-01,
877,-2.80e-02,
878,-1.60e-02,
879,-1.12e-01,
880,-1.04e-01,
881,-2.80e-02,
882,-2.40e-02,
883,-1.08e-01,
884,-1.12e-01,
885,-2.00e-02,
886,-1.00e-01,
887,-2.80e-02,
888,-3.20e-02,
889,-1.04e-01,
890,-2.80e-02,
891,-1.04e-01,
892,-2.00e-02,
893,-9.60e-02,
894,-1.00e-01,
895,-2.40e-02,
896,-2.00e-02,
897,-1.04e-01,
898,-2.80e-02,
899,-1.00e-01,
900,-1.04e-01,
901,-3.20e-02,
902,-2.80e-02,
903,-1.04e-01,
904,-2.80e-02,
905,-1.08e-01,
906,-1.04e-01,
907,-2.00e-02,
908,-2.40e-02,
909,-1.00e-01,
910,-2.80e-02,
911,-1.08e-01,
912,-9.60e-02,
913,-2.40e-02,
914,-2.80e-02,
915,-1.08e-01,
916,-3.20e-02,
917,-1.00e-01,
918,-2.40e-02,
919,-1.04e-01,
920,-3.60e-02,
921,-1.04e-01,
922,-1.60e-02,
923,-1.04e-01,
924,-2.40e-02,
925,-1.12e-01,
926,-1.08e-01,
927,-2.80e-02,
928,-1.20e-02,
929,-1.04e-01,
930,-1.16e-01,
931,-3.20e-02,
932,-1.00e-01,
933,-2.40e-02,
934,-2.40e-02,
935,-1.08e-01,
936,-9.60e-02,
937,-2.40e-02,
938,-1.04e-01,
939,-2.40e-02,
940,-1.00e-01,
941,-2.00e-02,
942,-2.80e-02,
943,-1.12e-01,
944,-1.04e-01,
945,-2.40e-02,
946,-9.60e-02,
947,-2.40e-02,
948,-2.40e-02,
949,-1.04e-01,
950,-3.20e-02,
951,-1.00e-01,
952,-2.80e-02,
953,-1.04e-01,
954,-1.60e-02,
955,-1.08e-01,
956,-1.04e-01,
957,-3.20e-02,
958,-1.08e-01,
959,-2.00e-02,
960,-2.80e-02,
961,-1.04e-01,
962,-3.20e-02,
963,-9.60e-02,
964,-9.60e-02,
965,-2.80e-02,
966,-2.40e-02,
967,-1.08e-01,
968,-2.80e-02,
969,-1.04e-01,
970,-1.16e-01,
971,-2.80e-02,
972,-1.04e-01,
973,-2.80e-02,
974,-1.60e-02,
975,-1.00e-01,
976,-1.00e-01,
977,-2.80e-02,
978,-2.80e-02,
979,-1.04e-01,
980,-1.04e-01,
981,-2.40e-02,
982,-1.00e-01,
983,-2.00e-02,
984,-1.12e-01,
985,-2.00e-02,
986,-1.04e-01,
987,-2.80e-02,
988,-9.60e-02,
989,-1.20e-02,
990,-9.60e-02,
991,-2.80e-02,
992,-1.00e-01,
993,-2.40e-02,
994,-2.40e-02,
995,-1.04e-01,
996,-3.20e-02,
997,-1.00e-01,
998,-2.40e-02,
999,-1.04e-01,
1000,-2.80e-02,
1001,-1.08e-01,
1002,-1.04e-01,
1003,-3.20e-02,
1004,-2.80e-02,
1005,-1.04e-01,
1006,-1.08e-01,
1007,-3.60e-02,
1008,-1.00e-01,
1009,-2.80e-02,
1010,-2.80e-02,
1011,-1.04e-01,
1012,-1.04e-01,
1013,-2.80e-02,
1014,-2.40e-02,
1015,-1.04e-01,
1016,-2.40e-02,
1017,-1.00e-01,
1018,-1.04e-01,
1019,-2.40e-02,
1020,-9.60e-02,
1021,-2.40e-02,
1022,-2.80e-02,
1023,-1.08e-01,
1024,-2.80e-02,
1025,-1.04e-01,
1026,-1.04e-01,
1027,-3.60e-02,
1028,-2.80e-02,
1029,-1.00e-01,
1030,-2.00e-02,
1031,-1.04e-01,
1032,-2.80e-02,
1033,-1.12e-01,
1034,-1.00e-01,
1035,-2.80e-02,
1036,-2.80e-02,
1037,-1.04e-01,
1038,-1.00e-01,
1039,-2.80e-02,
1040,-1.08e-01,
1041,-2.80e-02,
1042,-1.60e-02,
1043,-1.04e-01,
1044,-1.00e-01,
1045,-2.80e-02,
1046,-2.00e-02,
1047,-1.12e-01,
1048,-1.04e-01,
1049,-2.40e-02,
1050,-9.60e-02,
1051,-2.80e-02,
1052,-3.20e-02,
1053,-1.08e-01,
1054,-1.04e-01,
1055,-2.80e-02,
1056,-9.20e-02,
1057,-2.80e-02,
1058,-3.20e-02,
1059,-1.08e-01,
1060,-1.20e-01,
1061,-3.20e-02,
1062,-2.80e-02,
1063,-9.60e-02,
1064,-1.04e-01,
1065,-3.20e-02,
1066,-2.80e-02,
1067,-1.04e-01,
1068,-9.20e-02,
1069,-2.80e-02,
1070,-1.00e-01,
1071,-1.20e-02,
1072,-2.40e-02,
1073,-1.04e-01,
1074,-2.80e-02,
1075,-1.04e-01,
1076,-3.20e-02,
1077,-1.04e-01,
1078,-1.08e-01,
1079,-1.20e-02,
1080,-2.40e-02,
1081,-1.08e-01,
1082,-1.12e-01,
1083,-2.40e-02,
1084,-1.04e-01,
1085,-2.80e-02,
1086,-1.08e-01,
1087,-2.80e-02,
1088,-2.80e-02,
1089,-1.08e-01,
1090,-3.20e-02,
1091,-1.16e-01,
1092,-2.00e-02,
1093,-1.16e-01,
1094,-3.20e-02,
1095,-1.04e-01,
1096,-1.04e-01,
1097,-2.40e-02,
1098,-3.20e-02,
1099,-1.04e-01,
1100,-1.08e-01,
1101,-2.80e-02,
1102,-2.80e-02,
1103,-1.04e-01,
1104,-9.60e-02,
1105,-3.60e-02,
1106,-8.80e-02,
1107,-2.00e-02,
1108,-1.00e-01,
1109,-2.40e-02,
1110,-1.16e-01,
1111,-1.60e-02,
1112,-3.60e-02,
1113,-1.08e-01,
1114,-1.04e-01,
1115,-2.80e-02,
1116,-3.60e-02,
1117,-1.04e-01,
1118,-2.80e-02,
1119,-1.08e-01,
1120,-2.40e-02,
1121,-1.04e-01,
1122,-1.12e-01,
1123,-2.80e-02,
1124,-2.40e-02,
1125,-1.04e-01,
1126,-1.04e-01,
1127,-2.00e-02,
1128,-1.60e-02,
1129,-1.00e-01,
1130,-2.40e-02,
1131,-1.04e-01,
1132,-1.00e-01,
1133,-2.00e-02,
1134,-2.80e-02,
1135,-1.08e-01,
1136,-1.08e-01,
1137,-2.40e-02,
1138,-1.04e-01,
1139,-3.60e-02,
1140,-2.80e-02,
1141,-9.60e-02,
1142,-1.00e-01,
1143,-2.00e-02,
1144,-1.04e-01,
1145,-1.60e-02,
1146,-2.80e-02,
1147,-1.08e-01,
1148,-1.08e-01,
1149,-2.80e-02,
1150,-2.80e-02,
1151,-1.08e-01,
1152,-1.04e-01,
1153,-3.20e-02,
1154,-1.08e-01,
1155,-2.80e-02,
1156,-2.80e-02,
1157,-1.08e-01,
1158,-1.04e-01,
1159,-2.80e-02,
1160,-2.80e-02,
1161,-1.08e-01,
1162,-2.40e-02,
1163,-1.04e-01,
1164,-1.08e-01,
1165,-2.80e-02,
1166,-1.08e-01,
1167,-2.80e-02,
1168,-2.00e-02,
1169,-1.12e-01,
1170,-1.00e-01,
1171,-2.80e-02,
1172,-1.04e-01,
1173,-2.80e-02,
1174,-2.40e-02,
1175,-1.04e-01,
1176,-1.00e-01,
1177,-3.60e-02,
1178,-8.00e-03,
1179,-9.60e-02,
1180,-2.80e-02,
1181,-1.04e-01,
1182,-3.20e-02,
1183,-1.00e-01,
1184,-3.20e-02,
1185,-1.00e-01,
1186,-2.40e-02,
1187,-9.60e-02,
1188,-1.04e-01,
1189,-2.40e-02,
1190,-9.60e-02,
1191,-3.20e-02,
1192,-2.80e-02,
1193,-1.08e-01,
1194,-1.08e-01,
1195,-2.00e-02,
1196,-2.40e-02,
1197,-1.04e-01,
1198,-2.40e-02,
1199,-1.08e-01,
