fastdiffamp/data-noise-set/bal-mean/NewFile1.csv

X,CH1,Start,Increment,
Sequence,Volt,-5.990000e+00,1.000000e-02
0,-2.64e-01,
1,-1.72e-01,
2,-1.84e-01,
3,-2.60e-01,
4,-2.64e-01,
5,-1.84e-01,
6,-1.92e-01,
7,-2.60e-01,
8,-1.84e-01,
9,-2.64e-01,
10,-1.84e-01,
11,-2.52e-01,
12,-2.52e-01,
13,-1.80e-01,
14,-2.60e-01,
15,-1.84e-01,
16,-1.72e-01,
17,-2.64e-01,
18,-2.60e-01,
19,-1.84e-01,
20,-2.64e-01,
21,-1.80e-01,
22,-2.56e-01,
23,-1.80e-01,
24,-2.72e-01,
25,-1.84e-01,
26,-2.64e-01,
27,-1.80e-01,
28,-1.88e-01,
29,-2.64e-01,
30,-2.64e-01,
31,-1.76e-01,
32,-2.52e-01,
33,-1.84e-01,
34,-2.60e-01,
35,-1.84e-01,
36,-1.92e-01,
37,-2.48e-01,
38,-1.84e-01,
39,-2.64e-01,
40,-1.92e-01,
41,-2.56e-01,
42,-2.52e-01,
43,-1.88e-01,
44,-1.84e-01,
45,-2.52e-01,
46,-2.52e-01,
47,-1.76e-01,
48,-2.64e-01,
49,-1.88e-01,
50,-1.84e-01,
51,-2.64e-01,
52,-2.52e-01,
53,-1.84e-01,
54,-1.84e-01,
55,-2.64e-01,
56,-2.80e-01,
57,-1.76e-01,
58,-1.68e-01,
59,-2.56e-01,
60,-1.88e-01,
61,-2.60e-01,
62,-1.76e-01,
63,-2.64e-01,
64,-2.60e-01,
65,-1.84e-01,
66,-2.52e-01,
67,-1.84e-01,
68,-1.84e-01,
69,-2.64e-01,
70,-1.84e-01,
71,-2.52e-01,
72,-1.88e-01,
73,-2.52e-01,
74,-2.64e-01,
75,-1.84e-01,
76,-1.84e-01,
77,-2.64e-01,
78,-1.88e-01,
79,-2.56e-01,
80,-2.52e-01,
81,-1.80e-01,
82,-2.52e-01,
83,-1.84e-01,
84,-1.80e-01,
85,-2.60e-01,
86,-1.84e-01,
87,-2.60e-01,
88,-1.72e-01,
89,-2.68e-01,
90,-2.68e-01,
91,-1.84e-01,
92,-1.84e-01,
93,-2.56e-01,
94,-1.76e-01,
95,-2.68e-01,
96,-1.80e-01,
97,-2.60e-01,
98,-2.52e-01,
99,-1.84e-01,
100,-2.56e-01,
101,-1.84e-01,
102,-2.56e-01,
103,-1.80e-01,
104,-1.80e-01,
105,-2.72e-01,
106,-1.92e-01,
107,-2.64e-01,
108,-2.64e-01,
109,-1.88e-01,
110,-2.48e-01,
111,-1.84e-01,
112,-1.80e-01,
113,-2.68e-01,
114,-1.84e-01,
115,-2.64e-01,
116,-2.60e-01,
117,-1.72e-01,
118,-2.60e-01,
119,-1.80e-01,
120,-1.84e-01,
121,-2.52e-01,
122,-1.84e-01,
123,-2.84e-01,
124,-2.52e-01,
125,-1.84e-01,
126,-1.80e-01,
127,-2.60e-01,
128,-2.60e-01,
129,-1.76e-01,
130,-2.52e-01,
131,-1.80e-01,
132,-2.56e-01,
133,-1.84e-01,
134,-1.84e-01,
135,-2.60e-01,
136,-2.60e-01,
137,-1.80e-01,
138,-2.56e-01,
139,-1.84e-01,
140,-1.92e-01,
141,-2.68e-01,
142,-2.60e-01,
143,-1.72e-01,
144,-1.64e-01,
145,-2.68e-01,
146,-2.52e-01,
147,-1.72e-01,
148,-1.72e-01,
149,-2.56e-01,
150,-1.84e-01,
151,-2.60e-01,
152,-1.72e-01,
153,-2.60e-01,
154,-2.72e-01,
155,-1.92e-01,
156,-1.80e-01,
157,-2.60e-01,
158,-2.56e-01,
159,-1.88e-01,
160,-2.80e-01,
161,-1.88e-01,
162,-1.76e-01,
163,-2.60e-01,
164,-1.76e-01,
165,-2.60e-01,
166,-2.68e-01,
167,-1.84e-01,
168,-1.84e-01,
169,-2.52e-01,
170,-2.56e-01,
171,-1.76e-01,
172,-1.80e-01,
173,-2.68e-01,
174,-1.84e-01,
175,-2.80e-01,
176,-1.88e-01,
177,-2.56e-01,
178,-1.84e-01,
179,-2.72e-01,
180,-1.80e-01,
181,-2.56e-01,
182,-2.60e-01,
183,-1.88e-01,
184,-1.88e-01,
185,-2.64e-01,
186,-2.60e-01,
187,-1.92e-01,
188,-2.68e-01,
189,-1.84e-01,
190,-2.52e-01,
191,-1.84e-01,
192,-1.92e-01,
193,-2.60e-01,
194,-1.84e-01,
195,-2.68e-01,
196,-1.84e-01,
197,-2.52e-01,
198,-2.52e-01,
199,-1.84e-01,
200,-2.60e-01,
201,-1.84e-01,
202,-1.92e-01,
203,-2.56e-01,
204,-2.52e-01,
205,-1.84e-01,
206,-2.60e-01,
207,-1.80e-01,
208,-2.68e-01,
209,-1.92e-01,
210,-1.84e-01,
211,-2.56e-01,
212,-2.52e-01,
213,-1.88e-01,
214,-2.56e-01,
215,-1.80e-01,
216,-2.52e-01,
217,-1.84e-01,
218,-2.64e-01,
219,-1.92e-01,
220,-2.56e-01,
221,-1.76e-01,
222,-1.84e-01,
223,-2.60e-01,
224,-1.84e-01,
225,-2.56e-01,
226,-2.60e-01,
227,-1.84e-01,
228,-2.60e-01,
229,-1.80e-01,
230,-1.88e-01,
231,-2.52e-01,
232,-1.84e-01,
233,-2.64e-01,
234,-2.64e-01,
235,-1.88e-01,
236,-1.76e-01,
237,-2.64e-01,
238,-2.56e-01,
239,-1.80e-01,
240,-1.80e-01,
241,-2.64e-01,
242,-1.88e-01,
243,-2.64e-01,
244,-1.84e-01,
245,-2.64e-01,
246,-1.84e-01,
247,-2.60e-01,
248,-1.88e-01,
249,-2.60e-01,
250,-2.64e-01,
251,-1.84e-01,
252,-1.88e-01,
253,-2.52e-01,
254,-2.52e-01,
255,-1.84e-01,
256,-2.64e-01,
257,-1.88e-01,
258,-2.64e-01,
259,-1.92e-01,
260,-2.64e-01,
261,-1.84e-01,
262,-2.60e-01,
263,-1.76e-01,
264,-1.88e-01,
265,-2.64e-01,
266,-1.72e-01,
267,-2.52e-01,
268,-1.84e-01,
269,-2.52e-01,
270,-2.52e-01,
271,-1.84e-01,
272,-1.92e-01,
273,-2.56e-01,
274,-1.88e-01,
275,-2.72e-01,
276,-2.64e-01,
277,-1.84e-01,
278,-2.60e-01,
279,-1.80e-01,
280,-2.52e-01,
281,-1.88e-01,
282,-2.52e-01,
283,-1.88e-01,
284,-1.88e-01,
285,-2.60e-01,
286,-2.60e-01,
287,-1.84e-01,
288,-1.84e-01,
289,-2.56e-01,
290,-2.80e-01,
291,-1.76e-01,
292,-2.64e-01,
293,-1.84e-01,
294,-2.60e-01,
295,-1.88e-01,
296,-2.52e-01,
297,-1.80e-01,
298,-2.68e-01,
299,-1.80e-01,
300,-1.80e-01,
301,-2.52e-01,
302,-2.60e-01,
303,-1.76e-01,
304,-2.52e-01,
305,-1.76e-01,
306,-2.56e-01,
307,-1.84e-01,
308,-2.64e-01,
309,-1.80e-01,
310,-1.84e-01,
311,-2.52e-01,
312,-2.64e-01,
313,-1.80e-01,
314,-2.60e-01,
315,-1.84e-01,
316,-1.88e-01,
317,-2.64e-01,
318,-2.52e-01,
319,-1.72e-01,
320,-2.68e-01,
321,-1.88e-01,
322,-2.56e-01,
323,-1.88e-01,
324,-2.60e-01,
325,-1.88e-01,
326,-2.60e-01,
327,-1.88e-01,
328,-1.84e-01,
329,-2.52e-01,
330,-2.60e-01,
331,-1.84e-01,
332,-1.80e-01,
333,-2.60e-01,
334,-2.60e-01,
335,-1.88e-01,
336,-2.60e-01,
337,-1.88e-01,
338,-1.68e-01,
339,-2.60e-01,
340,-1.84e-01,
341,-2.56e-01,
342,-2.68e-01,
343,-1.88e-01,
344,-1.84e-01,
345,-2.56e-01,
346,-1.88e-01,
347,-2.64e-01,
348,-1.88e-01,
349,-2.64e-01,
350,-2.52e-01,
351,-1.84e-01,
352,-2.56e-01,
353,-1.76e-01,
354,-1.84e-01,
355,-2.52e-01,
356,-1.88e-01,
357,-2.64e-01,
358,-2.60e-01,
359,-1.88e-01,
360,-2.64e-01,
361,-1.92e-01,
362,-2.68e-01,
363,-1.88e-01,
364,-2.52e-01,
365,-1.84e-01,
366,-2.56e-01,
367,-1.84e-01,
368,-2.56e-01,
369,-1.84e-01,
370,-2.52e-01,
371,-1.84e-01,
372,-2.64e-01,
373,-1.88e-01,
374,-2.60e-01,
375,-1.84e-01,
376,-2.72e-01,
377,-1.84e-01,
378,-1.92e-01,
379,-2.52e-01,
380,-1.76e-01,
381,-2.64e-01,
382,-1.84e-01,
383,-2.68e-01,
384,-1.80e-01,
385,-2.64e-01,
386,-2.64e-01,
387,-1.92e-01,
388,-2.68e-01,
389,-1.88e-01,
390,-1.72e-01,
391,-2.60e-01,
392,-2.52e-01,
393,-1.84e-01,
394,-2.56e-01,
395,-1.80e-01,
396,-2.52e-01,
397,-1.84e-01,
398,-1.80e-01,
399,-2.52e-01,
400,-1.72e-01,
401,-2.60e-01,
402,-2.68e-01,
403,-1.80e-01,
404,-2.64e-01,
405,-1.84e-01,
406,-2.60e-01,
407,-1.84e-01,
408,-1.84e-01,
409,-2.56e-01,
410,-2.64e-01,
411,-1.72e-01,
412,-2.56e-01,
413,-1.84e-01,
414,-1.80e-01,
415,-2.68e-01,
416,-2.72e-01,
417,-1.80e-01,
418,-1.72e-01,
419,-2.64e-01,
420,-2.56e-01,
421,-1.88e-01,
422,-1.84e-01,
423,-2.64e-01,
424,-1.84e-01,
425,-2.56e-01,
426,-2.60e-01,
427,-1.76e-01,
428,-1.88e-01,
429,-2.64e-01,
430,-2.52e-01,
431,-1.92e-01,
432,-2.60e-01,
433,-1.84e-01,
434,-2.60e-01,
435,-1.84e-01,
436,-2.68e-01,
437,-1.84e-01,
438,-1.88e-01,
439,-2.64e-01,
440,-1.84e-01,
441,-2.52e-01,
442,-1.84e-01,
443,-2.60e-01,
444,-1.88e-01,
445,-2.64e-01,
446,-1.92e-01,
447,-2.64e-01,
448,-1.84e-01,
449,-2.60e-01,
450,-1.80e-01,
451,-2.56e-01,
452,-1.84e-01,
453,-2.64e-01,
454,-1.88e-01,
455,-2.64e-01,
456,-2.64e-01,
457,-1.80e-01,
458,-1.84e-01,
459,-2.64e-01,
460,-1.84e-01,
461,-2.68e-01,
462,-2.52e-01,
463,-1.76e-01,
464,-2.52e-01,
465,-1.76e-01,
466,-1.84e-01,
467,-2.72e-01,
468,-1.84e-01,
469,-2.52e-01,
470,-1.84e-01,
471,-2.68e-01,
472,-1.76e-01,
473,-2.56e-01,
474,-2.56e-01,
475,-1.76e-01,
476,-1.72e-01,
477,-2.60e-01,
478,-1.88e-01,
479,-2.56e-01,
480,-1.84e-01,
481,-2.60e-01,
482,-1.84e-01,
483,-2.56e-01,
484,-1.92e-01,
485,-2.72e-01,
486,-2.60e-01,
487,-1.80e-01,
488,-1.84e-01,
489,-2.60e-01,
490,-2.60e-01,
491,-1.80e-01,
492,-1.84e-01,
493,-2.64e-01,
494,-1.88e-01,
495,-2.68e-01,
496,-1.84e-01,
497,-2.64e-01,
498,-2.52e-01,
499,-1.72e-01,
500,-2.56e-01,
501,-1.84e-01,
502,-1.80e-01,
503,-2.56e-01,
504,-2.56e-01,
505,-1.88e-01,
506,-1.84e-01,
507,-2.64e-01,
508,-2.68e-01,
509,-1.80e-01,
510,-1.72e-01,
511,-2.56e-01,
512,-2.52e-01,
513,-1.80e-01,
514,-2.64e-01,
515,-1.76e-01,
516,-1.88e-01,
517,-2.60e-01,
518,-1.88e-01,
519,-2.64e-01,
520,-1.88e-01,
521,-2.64e-01,
522,-2.60e-01,
523,-1.80e-01,
524,-2.60e-01,
525,-1.76e-01,
526,-2.52e-01,
527,-1.88e-01,
528,-1.88e-01,
529,-2.60e-01,
530,-2.60e-01,
531,-1.84e-01,
532,-2.60e-01,
533,-1.84e-01,
534,-2.52e-01,
535,-1.80e-01,
536,-2.64e-01,
537,-1.72e-01,
538,-1.80e-01,
539,-2.52e-01,
540,-1.92e-01,
541,-2.60e-01,
542,-1.80e-01,
543,-2.56e-01,
544,-2.56e-01,
545,-1.80e-01,
546,-2.64e-01,
547,-1.84e-01,
548,-1.88e-01,
549,-2.64e-01,
550,-2.60e-01,
551,-1.84e-01,
552,-2.64e-01,
553,-1.76e-01,
554,-1.84e-01,
555,-2.60e-01,
556,-2.60e-01,
557,-1.88e-01,
558,-1.84e-01,
559,-2.76e-01,
560,-1.84e-01,
561,-2.68e-01,
562,-1.80e-01,
563,-2.56e-01,
564,-2.60e-01,
565,-1.76e-01,
566,-2.80e-01,
567,-1.84e-01,
568,-1.84e-01,
569,-2.64e-01,
570,-1.84e-01,
571,-2.60e-01,
572,-2.60e-01,
573,-1.64e-01,
574,-2.60e-01,
575,-1.84e-01,
576,-2.64e-01,
577,-1.96e-01,
578,-2.64e-01,
579,-1.88e-01,
580,-2.64e-01,
581,-1.72e-01,
582,-1.80e-01,
583,-2.56e-01,
584,-2.72e-01,
585,-1.88e-01,
586,-1.76e-01,
587,-2.60e-01,
588,-1.84e-01,
589,-2.60e-01,
590,-2.64e-01,
591,-1.80e-01,
592,-2.68e-01,
593,-1.80e-01,
594,-1.84e-01,
595,-2.52e-01,
596,-2.60e-01,
597,-1.88e-01,
598,-2.64e-01,
599,-1.72e-01,
600,-1.76e-01,
601,-2.68e-01,
602,-2.60e-01,
603,-1.80e-01,
604,-1.72e-01,
605,-2.72e-01,
606,-2.64e-01,
607,-1.88e-01,
608,-1.88e-01,
609,-2.72e-01,
610,-1.76e-01,
611,-2.60e-01,
612,-1.80e-01,
613,-2.64e-01,
614,-1.84e-01,
615,-2.68e-01,
616,-2.72e-01,
617,-1.80e-01,
618,-1.84e-01,
619,-2.56e-01,
620,-1.80e-01,
621,-2.72e-01,
622,-2.64e-01,
623,-1.84e-01,
624,-1.88e-01,
625,-2.60e-01,
626,-2.64e-01,
627,-1.84e-01,
628,-2.64e-01,
629,-1.88e-01,
630,-2.52e-01,
631,-1.84e-01,
632,-1.80e-01,
633,-2.68e-01,
634,-1.80e-01,
635,-2.60e-01,
636,-1.88e-01,
637,-2.60e-01,
638,-2.64e-01,
639,-1.88e-01,
640,-2.52e-01,
641,-1.92e-01,
642,-1.88e-01,
643,-2.56e-01,
644,-1.88e-01,
645,-2.64e-01,
646,-1.84e-01,
647,-2.68e-01,
648,-1.88e-01,
649,-2.56e-01,
650,-1.84e-01,
651,-2.64e-01,
652,-1.92e-01,
653,-2.68e-01,
654,-1.84e-01,
655,-2.64e-01,
656,-1.84e-01,
657,-2.60e-01,
658,-2.64e-01,
659,-1.80e-01,
660,-1.84e-01,
661,-2.64e-01,
662,-2.64e-01,
663,-1.84e-01,
664,-1.88e-01,
665,-2.68e-01,
666,-1.84e-01,
667,-2.72e-01,
668,-1.80e-01,
669,-2.64e-01,
670,-2.60e-01,
671,-1.92e-01,
672,-1.84e-01,
673,-2.56e-01,
674,-1.88e-01,
675,-2.64e-01,
676,-2.64e-01,
677,-1.96e-01,
678,-2.56e-01,
679,-1.76e-01,
680,-2.64e-01,
681,-1.84e-01,
682,-2.60e-01,
683,-1.80e-01,
684,-2.64e-01,
685,-1.80e-01,
686,-1.80e-01,
687,-2.68e-01,
688,-1.80e-01,
689,-2.64e-01,
690,-1.84e-01,
691,-2.60e-01,
692,-1.80e-01,
693,-2.68e-01,
694,-2.64e-01,
695,-1.88e-01,
696,-1.88e-01,
697,-2.60e-01,
698,-2.56e-01,
699,-1.84e-01,
700,-2.60e-01,
701,-1.80e-01,
702,-2.52e-01,
703,-1.72e-01,
704,-1.80e-01,
705,-2.60e-01,
706,-2.68e-01,
707,-1.88e-01,
708,-2.56e-01,
709,-1.84e-01,
710,-2.60e-01,
711,-1.84e-01,
712,-2.52e-01,
713,-1.76e-01,
714,-2.52e-01,
715,-1.88e-01,
716,-1.68e-01,
717,-2.64e-01,
718,-1.80e-01,
719,-2.56e-01,
720,-2.60e-01,
721,-1.68e-01,
722,-1.80e-01,
723,-2.64e-01,
724,-2.68e-01,
725,-1.88e-01,
726,-2.52e-01,
727,-1.72e-01,
728,-1.80e-01,
729,-2.56e-01,
730,-1.72e-01,
731,-2.76e-01,
732,-2.60e-01,
733,-1.68e-01,
734,-1.84e-01,
735,-2.64e-01,
736,-2.64e-01,
737,-1.72e-01,
738,-1.88e-01,
739,-2.60e-01,
740,-1.88e-01,
741,-2.64e-01,
742,-1.84e-01,
743,-2.52e-01,
744,-2.68e-01,
745,-1.80e-01,
746,-2.56e-01,
747,-1.92e-01,
748,-1.88e-01,
749,-2.56e-01,
750,-1.80e-01,
751,-2.68e-01,
752,-2.64e-01,
753,-1.88e-01,
754,-1.88e-01,
755,-2.64e-01,
756,-1.92e-01,
757,-2.64e-01,
758,-2.64e-01,
759,-1.92e-01,
760,-2.68e-01,
761,-1.88e-01,
762,-2.64e-01,
763,-1.84e-01,
764,-1.88e-01,
765,-2.68e-01,
766,-2.64e-01,
767,-1.80e-01,
768,-2.60e-01,
769,-1.80e-01,
770,-2.68e-01,
771,-1.88e-01,
772,-2.56e-01,
773,-1.84e-01,
774,-1.80e-01,
775,-2.64e-01,
776,-2.64e-01,
777,-1.80e-01,
778,-1.80e-01,
779,-2.64e-01,
780,-1.88e-01,
781,-2.60e-01,
782,-2.56e-01,
783,-1.68e-01,
784,-2.52e-01,
785,-1.80e-01,
786,-1.72e-01,
787,-2.68e-01,
788,-2.52e-01,
789,-1.88e-01,
790,-2.56e-01,
791,-1.88e-01,
792,-1.88e-01,
793,-2.60e-01,
794,-2.68e-01,
795,-1.88e-01,
796,-2.64e-01,
797,-1.88e-01,
798,-2.52e-01,
799,-1.76e-01,
800,-2.56e-01,
801,-1.80e-01,
802,-2.56e-01,
803,-1.88e-01,
804,-2.52e-01,
805,-1.84e-01,
806,-1.76e-01,
807,-2.60e-01,
808,-2.52e-01,
809,-1.80e-01,
810,-1.92e-01,
811,-2.60e-01,
812,-1.84e-01,
813,-2.68e-01,
814,-1.84e-01,
815,-2.64e-01,
816,-2.64e-01,
817,-1.84e-01,
818,-1.84e-01,
819,-2.64e-01,
820,-1.88e-01,
821,-2.56e-01,
822,-1.88e-01,
823,-2.64e-01,
824,-1.84e-01,
825,-2.64e-01,
826,-2.60e-01,
827,-1.84e-01,
828,-2.60e-01,
829,-1.80e-01,
830,-2.68e-01,
831,-1.84e-01,
832,-1.84e-01,
833,-2.56e-01,
834,-1.84e-01,
835,-2.64e-01,
836,-2.60e-01,
837,-1.76e-01,
838,-2.68e-01,
839,-1.88e-01,
840,-1.88e-01,
841,-2.60e-01,
842,-2.76e-01,
843,-1.84e-01,
844,-1.88e-01,
845,-2.68e-01,
846,-2.56e-01,
847,-1.80e-01,
848,-1.88e-01,
849,-2.64e-01,
850,-2.68e-01,
851,-1.88e-01,
852,-1.76e-01,
853,-2.60e-01,
854,-2.64e-01,
855,-1.92e-01,
856,-2.56e-01,
857,-1.84e-01,
858,-1.72e-01,
859,-2.64e-01,
860,-2.64e-01,
861,-1.76e-01,
862,-1.88e-01,
863,-2.60e-01,
864,-2.56e-01,
865,-1.88e-01,
866,-1.92e-01,
867,-2.52e-01,
868,-1.92e-01,
869,-2.60e-01,
870,-1.84e-01,
871,-2.68e-01,
872,-1.84e-01,
873,-2.64e-01,
874,-1.92e-01,
875,-2.68e-01,
876,-1.68e-01,
877,-2.60e-01,
878,-1.92e-01,
879,-2.56e-01,
880,-1.92e-01,
881,-2.68e-01,
882,-1.80e-01,
883,-2.52e-01,
884,-1.88e-01,
885,-2.56e-01,
886,-1.84e-01,
887,-2.64e-01,
888,-1.88e-01,
889,-2.56e-01,
890,-1.88e-01,
891,-2.60e-01,
892,-2.60e-01,
893,-1.88e-01,
894,-2.56e-01,
895,-1.76e-01,
896,-2.64e-01,
897,-1.80e-01,
898,-1.80e-01,
899,-2.64e-01,
900,-1.84e-01,
901,-2.64e-01,
902,-1.80e-01,
903,-2.56e-01,
904,-1.88e-01,
905,-2.56e-01,
906,-2.64e-01,
907,-1.84e-01,
908,-1.88e-01,
909,-2.60e-01,
910,-2.72e-01,
911,-1.84e-01,
912,-2.52e-01,
913,-1.88e-01,
914,-2.60e-01,
915,-1.84e-01,
916,-1.88e-01,
917,-2.60e-01,
918,-2.56e-01,
919,-1.88e-01,
920,-2.56e-01,
921,-1.84e-01,
922,-1.84e-01,
923,-2.64e-01,
924,-2.68e-01,
925,-1.80e-01,
926,-2.60e-01,
927,-1.76e-01,
928,-2.52e-01,
929,-1.92e-01,
930,-2.72e-01,
931,-1.80e-01,
932,-2.64e-01,
933,-1.84e-01,
934,-2.60e-01,
935,-1.84e-01,
936,-1.88e-01,
937,-2.68e-01,
938,-1.84e-01,
939,-2.64e-01,
940,-1.84e-01,
941,-2.60e-01,
942,-1.80e-01,
943,-2.60e-01,
944,-1.84e-01,
945,-2.68e-01,
946,-1.84e-01,
947,-2.60e-01,
948,-1.84e-01,
949,-2.60e-01,
950,-1.84e-01,
951,-2.56e-01,
952,-1.88e-01,
953,-2.56e-01,
954,-1.84e-01,
955,-2.52e-01,
956,-1.84e-01,
957,-2.64e-01,
958,-1.76e-01,
959,-2.64e-01,
960,-2.56e-01,
961,-1.84e-01,
962,-2.56e-01,
963,-1.88e-01,
964,-1.80e-01,
965,-2.68e-01,
966,-2.56e-01,
967,-1.88e-01,
968,-1.76e-01,
969,-2.56e-01,
970,-2.64e-01,
971,-1.80e-01,
972,-2.56e-01,
973,-1.88e-01,
974,-1.88e-01,
975,-2.60e-01,
976,-1.84e-01,
977,-2.60e-01,
978,-1.80e-01,
979,-2.64e-01,
980,-1.84e-01,
981,-2.60e-01,
982,-2.68e-01,
983,-1.88e-01,
984,-1.88e-01,
985,-2.56e-01,
986,-1.88e-01,
987,-2.60e-01,
988,-1.76e-01,
989,-2.56e-01,
990,-2.64e-01,
991,-1.88e-01,
992,-2.60e-01,
993,-1.84e-01,
994,-1.84e-01,
995,-2.60e-01,
996,-2.68e-01,
997,-1.88e-01,
998,-2.52e-01,
999,-1.84e-01,
1000,-1.88e-01,
1001,-2.52e-01,
1002,-2.56e-01,
1003,-1.76e-01,
1004,-1.88e-01,
1005,-2.64e-01,
1006,-2.56e-01,
1007,-1.88e-01,
1008,-2.64e-01,
1009,-1.64e-01,
1010,-2.56e-01,
1011,-1.88e-01,
1012,-2.52e-01,
1013,-1.84e-01,
1014,-1.80e-01,
1015,-2.68e-01,
1016,-1.76e-01,
1017,-2.60e-01,
1018,-2.60e-01,
1019,-1.84e-01,
1020,-1.84e-01,
1021,-2.60e-01,
1022,-1.88e-01,
1023,-2.60e-01,
1024,-2.56e-01,
1025,-1.88e-01,
1026,-2.72e-01,
1027,-1.76e-01,
1028,-2.60e-01,
1029,-1.84e-01,
1030,-1.88e-01,
1031,-2.56e-01,
1032,-2.56e-01,
1033,-1.80e-01,
1034,-2.64e-01,
1035,-1.88e-01,
1036,-2.52e-01,
1037,-1.80e-01,
1038,-2.56e-01,
1039,-1.80e-01,
1040,-1.84e-01,
1041,-2.56e-01,
1042,-2.64e-01,
1043,-1.84e-01,
1044,-1.88e-01,
1045,-2.60e-01,
1046,-2.64e-01,
1047,-1.72e-01,
1048,-2.68e-01,
1049,-1.84e-01,
1050,-1.72e-01,
1051,-2.68e-01,
1052,-1.88e-01,
1053,-2.64e-01,
1054,-1.80e-01,
1055,-2.60e-01,
1056,-1.84e-01,
1057,-2.64e-01,
1058,-2.56e-01,
1059,-1.88e-01,
1060,-1.84e-01,
1061,-2.60e-01,
1062,-1.80e-01,
1063,-2.68e-01,
1064,-2.72e-01,
1065,-1.84e-01,
1066,-1.72e-01,
1067,-2.60e-01,
1068,-1.84e-01,
1069,-2.60e-01,
1070,-2.60e-01,
1071,-1.84e-01,
1072,-1.84e-01,
1073,-2.68e-01,
1074,-1.80e-01,
1075,-2.64e-01,
1076,-1.84e-01,
1077,-2.60e-01,
1078,-1.88e-01,
1079,-2.56e-01,
1080,-2.60e-01,
1081,-1.72e-01,
1082,-1.84e-01,
1083,-2.56e-01,
1084,-2.80e-01,
1085,-1.76e-01,
1086,-1.76e-01,
1087,-2.60e-01,
1088,-1.80e-01,
1089,-2.60e-01,
1090,-1.84e-01,
1091,-2.72e-01,
1092,-1.88e-01,
1093,-2.60e-01,
1094,-1.84e-01,
1095,-2.52e-01,
1096,-2.64e-01,
1097,-1.80e-01,
1098,-1.84e-01,
1099,-2.52e-01,
1100,-1.88e-01,
1101,-2.60e-01,
1102,-2.64e-01,
1103,-1.84e-01,
1104,-2.56e-01,
1105,-1.72e-01,
1106,-1.80e-01,
1107,-2.64e-01,
1108,-2.60e-01,
1109,-1.76e-01,
1110,-2.60e-01,
1111,-1.68e-01,
1112,-1.72e-01,
1113,-2.64e-01,
1114,-1.80e-01,
1115,-2.64e-01,
1116,-1.88e-01,
1117,-2.56e-01,
1118,-2.64e-01,
1119,-1.80e-01,
1120,-2.52e-01,
1121,-1.88e-01,
1122,-2.60e-01,
1123,-1.88e-01,
1124,-1.84e-01,
1125,-2.56e-01,
1126,-2.64e-01,
1127,-1.84e-01,
1128,-1.80e-01,
1129,-2.60e-01,
1130,-2.60e-01,
1131,-1.84e-01,
1132,-2.64e-01,
1133,-1.88e-01,
1134,-1.84e-01,
1135,-2.56e-01,
1136,-2.56e-01,
1137,-1.84e-01,
1138,-2.60e-01,
1139,-1.76e-01,
1140,-1.88e-01,
1141,-2.56e-01,
1142,-2.72e-01,
1143,-1.84e-01,
1144,-2.60e-01,
1145,-1.88e-01,
1146,-1.88e-01,
1147,-2.56e-01,
1148,-2.60e-01,
1149,-1.88e-01,
1150,-2.52e-01,
1151,-1.80e-01,
1152,-2.60e-01,
1153,-1.88e-01,
1154,-2.64e-01,
1155,-1.88e-01,
1156,-1.84e-01,
1157,-2.56e-01,
1158,-1.88e-01,
1159,-2.60e-01,
1160,-1.84e-01,
1161,-2.64e-01,
1162,-2.60e-01,
1163,-1.76e-01,
1164,-2.60e-01,
1165,-1.72e-01,
1166,-2.60e-01,
1167,-1.84e-01,
1168,-1.84e-01,
1169,-2.60e-01,
1170,-1.84e-01,
1171,-2.56e-01,
1172,-2.68e-01,
1173,-1.88e-01,
1174,-1.84e-01,
1175,-2.60e-01,
1176,-2.64e-01,
1177,-1.84e-01,
1178,-2.52e-01,
1179,-1.84e-01,
1180,-2.68e-01,
1181,-1.92e-01,
1182,-1.88e-01,
1183,-2.60e-01,
1184,-2.52e-01,
1185,-1.92e-01,
1186,-2.64e-01,
1187,-1.92e-01,
1188,-2.64e-01,
1189,-1.88e-01,
1190,-2.68e-01,
1191,-1.80e-01,
1192,-2.56e-01,
1193,-1.72e-01,
1194,-2.64e-01,
1195,-1.72e-01,
1196,-1.84e-01,
1197,-2.64e-01,
1198,-2.52e-01,
1199,-1.84e-01,
