fastdiffamp/data-noise-set/bal-mean/NewFile3.csv

X,CH1,Start,Increment,
Sequence,Volt,-5.990000e+00,1.000000e-02
0,-2.20e-01,
1,-1.48e-01,
2,-2.36e-01,
3,-1.44e-01,
4,-2.20e-01,
5,-1.52e-01,
6,-1.52e-01,
7,-2.28e-01,
8,-1.52e-01,
9,-2.20e-01,
10,-1.48e-01,
11,-2.32e-01,
12,-2.16e-01,
13,-1.44e-01,
14,-2.16e-01,
15,-1.64e-01,
16,-1.40e-01,
17,-2.32e-01,
18,-2.36e-01,
19,-1.52e-01,
20,-2.20e-01,
21,-1.32e-01,
22,-2.16e-01,
23,-1.52e-01,
24,-1.48e-01,
25,-2.24e-01,
26,-2.20e-01,
27,-1.56e-01,
28,-1.44e-01,
29,-2.20e-01,
30,-2.16e-01,
31,-1.36e-01,
32,-2.28e-01,
33,-1.48e-01,
34,-2.20e-01,
35,-1.48e-01,
36,-1.36e-01,
37,-2.20e-01,
38,-1.48e-01,
39,-2.20e-01,
40,-1.56e-01,
41,-2.20e-01,
42,-1.44e-01,
43,-2.24e-01,
44,-2.24e-01,
45,-1.48e-01,
46,-2.20e-01,
47,-1.48e-01,
48,-2.24e-01,
49,-1.44e-01,
50,-1.60e-01,
51,-2.16e-01,
52,-1.52e-01,
53,-2.28e-01,
54,-1.48e-01,
55,-2.28e-01,
56,-1.52e-01,
57,-2.28e-01,
58,-2.24e-01,
59,-1.56e-01,
60,-1.44e-01,
61,-2.20e-01,
62,-2.36e-01,
63,-1.52e-01,
64,-2.32e-01,
65,-1.48e-01,
66,-2.20e-01,
67,-1.48e-01,
68,-1.52e-01,
69,-2.16e-01,
70,-2.32e-01,
71,-1.56e-01,
72,-2.12e-01,
73,-1.48e-01,
74,-2.28e-01,
75,-1.36e-01,
76,-1.48e-01,
77,-2.16e-01,
78,-2.28e-01,
79,-1.36e-01,
80,-1.52e-01,
81,-2.28e-01,
82,-1.52e-01,
83,-2.20e-01,
84,-1.52e-01,
85,-2.28e-01,
86,-1.48e-01,
87,-2.28e-01,
88,-2.28e-01,
89,-1.52e-01,
90,-1.56e-01,
91,-2.28e-01,
92,-2.48e-01,
93,-1.48e-01,
94,-1.40e-01,
95,-2.24e-01,
96,-1.48e-01,
97,-2.20e-01,
98,-1.52e-01,
99,-2.32e-01,
100,-2.24e-01,
101,-1.56e-01,
102,-1.56e-01,
103,-2.32e-01,
104,-2.16e-01,
105,-1.48e-01,
106,-1.48e-01,
107,-2.28e-01,
108,-1.48e-01,
109,-2.16e-01,
110,-2.20e-01,
111,-1.44e-01,
112,-1.48e-01,
113,-2.24e-01,
114,-2.20e-01,
115,-1.44e-01,
116,-2.28e-01,
117,-1.44e-01,
118,-1.48e-01,
119,-2.32e-01,
120,-2.32e-01,
121,-1.48e-01,
122,-1.56e-01,
123,-2.32e-01,
124,-1.56e-01,
125,-2.28e-01,
126,-2.24e-01,
127,-1.48e-01,
128,-2.16e-01,
129,-1.52e-01,
130,-1.48e-01,
131,-2.28e-01,
132,-2.32e-01,
133,-1.44e-01,
134,-1.52e-01,
135,-2.28e-01,
136,-1.40e-01,
137,-2.20e-01,
138,-2.16e-01,
139,-1.40e-01,
140,-1.52e-01,
141,-2.20e-01,
142,-1.52e-01,
143,-2.36e-01,
144,-2.32e-01,
145,-1.52e-01,
146,-1.56e-01,
147,-2.24e-01,
148,-2.24e-01,
149,-1.48e-01,
150,-2.28e-01,
151,-1.48e-01,
152,-1.56e-01,
153,-2.24e-01,
154,-1.48e-01,
155,-2.20e-01,
156,-2.16e-01,
157,-1.52e-01,
158,-2.24e-01,
159,-1.52e-01,
160,-1.52e-01,
161,-2.28e-01,
162,-1.48e-01,
163,-2.20e-01,
164,-1.48e-01,
165,-2.24e-01,
166,-2.20e-01,
167,-1.48e-01,
168,-2.16e-01,
169,-1.36e-01,
170,-2.16e-01,
171,-1.52e-01,
172,-1.48e-01,
173,-2.28e-01,
174,-1.52e-01,
175,-2.28e-01,
176,-2.28e-01,
177,-1.48e-01,
178,-1.56e-01,
179,-2.24e-01,
180,-2.32e-01,
181,-1.48e-01,
182,-1.48e-01,
183,-2.28e-01,
184,-1.52e-01,
185,-2.24e-01,
186,-1.48e-01,
187,-2.28e-01,
188,-2.24e-01,
189,-1.40e-01,
190,-2.28e-01,
191,-1.60e-01,
192,-1.44e-01,
193,-2.28e-01,
194,-2.28e-01,
195,-1.44e-01,
196,-1.48e-01,
197,-2.24e-01,
198,-1.44e-01,
199,-2.32e-01,
200,-1.44e-01,
201,-2.24e-01,
202,-1.48e-01,
203,-2.40e-01,
204,-2.24e-01,
205,-1.48e-01,
206,-1.36e-01,
207,-2.28e-01,
208,-2.28e-01,
209,-1.52e-01,
210,-1.52e-01,
211,-2.24e-01,
212,-2.24e-01,
213,-1.44e-01,
214,-2.28e-01,
215,-1.36e-01,
216,-1.48e-01,
217,-2.16e-01,
218,-2.16e-01,
219,-1.48e-01,
220,-1.48e-01,
221,-2.20e-01,
222,-1.48e-01,
223,-2.24e-01,
224,-1.44e-01,
225,-2.28e-01,
226,-2.24e-01,
227,-1.44e-01,
228,-1.44e-01,
229,-2.24e-01,
230,-2.24e-01,
231,-1.44e-01,
232,-2.16e-01,
233,-1.48e-01,
234,-1.48e-01,
235,-2.36e-01,
236,-1.44e-01,
237,-2.32e-01,
238,-2.24e-01,
239,-1.48e-01,
240,-2.16e-01,
241,-1.52e-01,
242,-1.48e-01,
243,-2.28e-01,
244,-1.48e-01,
245,-2.20e-01,
246,-1.48e-01,
247,-2.16e-01,
248,-1.48e-01,
249,-2.32e-01,
250,-1.44e-01,
251,-2.28e-01,
252,-2.28e-01,
253,-1.56e-01,
254,-2.24e-01,
255,-1.52e-01,
256,-1.48e-01,
257,-2.32e-01,
258,-2.36e-01,
259,-1.48e-01,
260,-1.48e-01,
261,-2.32e-01,
262,-2.24e-01,
263,-1.48e-01,
264,-2.20e-01,
265,-1.44e-01,
266,-2.24e-01,
267,-1.48e-01,
268,-2.28e-01,
269,-1.56e-01,
270,-1.56e-01,
271,-2.32e-01,
272,-2.24e-01,
273,-1.36e-01,
274,-2.20e-01,
275,-1.52e-01,
276,-1.36e-01,
277,-2.44e-01,
278,-1.48e-01,
279,-2.28e-01,
280,-2.20e-01,
281,-1.52e-01,
282,-1.52e-01,
283,-2.28e-01,
284,-1.40e-01,
285,-2.24e-01,
286,-1.52e-01,
287,-2.28e-01,
288,-2.28e-01,
289,-1.52e-01,
290,-2.16e-01,
291,-1.48e-01,
292,-2.28e-01,
293,-1.24e-01,
294,-2.20e-01,
295,-1.40e-01,
296,-2.32e-01,
297,-1.52e-01,
298,-1.52e-01,
299,-2.20e-01,
300,-2.28e-01,
301,-1.56e-01,
302,-1.44e-01,
303,-2.28e-01,
304,-2.32e-01,
305,-1.52e-01,
306,-2.28e-01,
307,-1.52e-01,
308,-1.48e-01,
309,-2.28e-01,
310,-1.48e-01,
311,-2.24e-01,
312,-2.16e-01,
313,-1.52e-01,
314,-1.48e-01,
315,-2.20e-01,
316,-1.40e-01,
317,-2.20e-01,
318,-1.52e-01,
319,-2.24e-01,
320,-2.28e-01,
321,-1.48e-01,
322,-1.40e-01,
323,-2.16e-01,
324,-1.48e-01,
325,-2.28e-01,
326,-2.20e-01,
327,-1.48e-01,
328,-1.52e-01,
329,-2.28e-01,
330,-2.16e-01,
331,-1.52e-01,
332,-1.52e-01,
333,-2.32e-01,
334,-1.36e-01,
335,-2.32e-01,
336,-2.24e-01,
337,-1.44e-01,
338,-2.20e-01,
339,-1.28e-01,
340,-2.28e-01,
341,-1.52e-01,
342,-1.44e-01,
343,-2.32e-01,
344,-2.20e-01,
345,-1.48e-01,
346,-1.44e-01,
347,-2.20e-01,
348,-1.52e-01,
349,-2.16e-01,
350,-1.52e-01,
351,-2.40e-01,
352,-1.48e-01,
353,-2.20e-01,
354,-1.52e-01,
355,-2.16e-01,
356,-1.48e-01,
357,-2.24e-01,
358,-1.44e-01,
359,-2.24e-01,
360,-2.32e-01,
361,-1.44e-01,
362,-2.24e-01,
363,-1.48e-01,
364,-2.20e-01,
365,-1.44e-01,
366,-2.24e-01,
367,-1.44e-01,
368,-1.52e-01,
369,-2.40e-01,
370,-1.48e-01,
371,-2.16e-01,
372,-1.48e-01,
373,-2.24e-01,
374,-1.48e-01,
375,-2.20e-01,
376,-1.52e-01,
377,-2.28e-01,
378,-2.16e-01,
379,-1.48e-01,
380,-1.48e-01,
381,-2.28e-01,
382,-1.48e-01,
383,-2.28e-01,
384,-1.48e-01,
385,-2.32e-01,
386,-1.52e-01,
387,-2.20e-01,
388,-1.52e-01,
389,-2.16e-01,
390,-1.44e-01,
391,-2.28e-01,
392,-1.40e-01,
393,-2.32e-01,
394,-1.52e-01,
395,-2.28e-01,
396,-2.36e-01,
397,-1.44e-01,
398,-2.24e-01,
399,-1.44e-01,
400,-1.44e-01,
401,-2.28e-01,
402,-1.48e-01,
403,-2.32e-01,
404,-2.20e-01,
405,-1.52e-01,
406,-1.48e-01,
407,-2.16e-01,
408,-2.32e-01,
409,-1.48e-01,
410,-1.52e-01,
411,-2.24e-01,
412,-2.24e-01,
413,-1.44e-01,
414,-2.16e-01,
415,-1.52e-01,
416,-1.36e-01,
417,-2.16e-01,
418,-2.16e-01,
419,-1.48e-01,
420,-2.20e-01,
421,-1.32e-01,
422,-2.24e-01,
423,-1.48e-01,
424,-2.28e-01,
425,-1.52e-01,
426,-1.40e-01,
427,-2.28e-01,
428,-1.48e-01,
429,-2.20e-01,
430,-1.44e-01,
431,-2.20e-01,
432,-2.24e-01,
433,-1.48e-01,
434,-1.48e-01,
435,-2.16e-01,
436,-1.52e-01,
437,-2.16e-01,
438,-2.20e-01,
439,-1.48e-01,
440,-2.20e-01,
441,-1.52e-01,
442,-1.60e-01,
443,-2.28e-01,
444,-2.28e-01,
445,-1.36e-01,
446,-1.36e-01,
447,-2.20e-01,
448,-1.40e-01,
449,-2.32e-01,
450,-2.32e-01,
451,-1.48e-01,
452,-1.40e-01,
453,-2.24e-01,
454,-2.24e-01,
455,-1.48e-01,
456,-2.24e-01,
457,-1.52e-01,
458,-1.56e-01,
459,-2.24e-01,
460,-1.52e-01,
461,-2.20e-01,
462,-1.48e-01,
463,-2.28e-01,
464,-1.48e-01,
465,-2.24e-01,
466,-1.48e-01,
467,-2.20e-01,
468,-1.52e-01,
469,-2.28e-01,
470,-2.28e-01,
471,-1.52e-01,
472,-2.28e-01,
473,-1.48e-01,
474,-2.24e-01,
475,-1.60e-01,
476,-1.44e-01,
477,-2.32e-01,
478,-1.48e-01,
479,-2.20e-01,
480,-2.20e-01,
481,-1.56e-01,
482,-2.20e-01,
483,-1.48e-01,
484,-2.20e-01,
485,-1.52e-01,
486,-2.32e-01,
487,-1.44e-01,
488,-2.16e-01,
489,-1.48e-01,
490,-1.44e-01,
491,-2.20e-01,
492,-2.32e-01,
493,-1.56e-01,
494,-2.16e-01,
495,-1.48e-01,
496,-2.20e-01,
497,-1.36e-01,
498,-1.48e-01,
499,-2.28e-01,
500,-2.28e-01,
501,-1.48e-01,
502,-2.20e-01,
503,-1.40e-01,
504,-2.20e-01,
505,-1.44e-01,
506,-2.20e-01,
507,-1.48e-01,
508,-2.36e-01,
509,-1.52e-01,
510,-2.32e-01,
511,-1.48e-01,
512,-2.28e-01,
513,-1.56e-01,
514,-1.52e-01,
515,-2.36e-01,
516,-2.24e-01,
517,-1.48e-01,
518,-1.40e-01,
519,-2.24e-01,
520,-2.28e-01,
521,-1.52e-01,
522,-1.52e-01,
523,-2.28e-01,
524,-1.48e-01,
525,-2.32e-01,
526,-1.20e-01,
527,-2.36e-01,
528,-1.36e-01,
529,-2.32e-01,
530,-1.48e-01,
531,-2.28e-01,
532,-2.20e-01,
533,-1.48e-01,
534,-1.40e-01,
535,-2.24e-01,
536,-1.56e-01,
537,-2.24e-01,
538,-2.24e-01,
539,-1.48e-01,
540,-1.48e-01,
541,-2.20e-01,
542,-2.28e-01,
543,-1.48e-01,
544,-2.20e-01,
545,-1.48e-01,
546,-1.48e-01,
547,-2.24e-01,
548,-1.44e-01,
549,-2.16e-01,
550,-2.36e-01,
551,-1.48e-01,
552,-2.16e-01,
553,-1.48e-01,
554,-1.48e-01,
555,-2.16e-01,
556,-2.32e-01,
557,-1.48e-01,
558,-2.20e-01,
559,-1.52e-01,
560,-1.52e-01,
561,-2.36e-01,
562,-1.36e-01,
563,-2.28e-01,
564,-2.24e-01,
565,-1.48e-01,
566,-2.16e-01,
567,-1.48e-01,
568,-2.32e-01,
569,-1.52e-01,
570,-1.56e-01,
571,-2.24e-01,
572,-1.36e-01,
573,-2.24e-01,
574,-2.16e-01,
575,-1.44e-01,
576,-1.44e-01,
577,-2.32e-01,
578,-1.44e-01,
579,-2.28e-01,
580,-2.20e-01,
581,-1.44e-01,
582,-1.48e-01,
583,-2.36e-01,
584,-2.16e-01,
585,-1.36e-01,
586,-2.32e-01,
587,-1.52e-01,
588,-1.56e-01,
589,-2.24e-01,
590,-2.24e-01,
591,-1.44e-01,
592,-2.20e-01,
593,-1.40e-01,
594,-1.52e-01,
595,-2.28e-01,
596,-2.24e-01,
597,-1.52e-01,
598,-2.20e-01,
599,-1.48e-01,
600,-1.40e-01,
601,-2.28e-01,
602,-1.40e-01,
603,-2.28e-01,
604,-1.48e-01,
605,-2.32e-01,
606,-2.16e-01,
607,-1.48e-01,
608,-1.48e-01,
609,-2.24e-01,
610,-2.44e-01,
611,-1.44e-01,
612,-1.44e-01,
613,-2.28e-01,
614,-2.28e-01,
615,-1.52e-01,
616,-2.32e-01,
617,-1.48e-01,
618,-1.48e-01,
619,-2.20e-01,
620,-1.52e-01,
621,-2.20e-01,
622,-2.24e-01,
623,-1.52e-01,
624,-2.32e-01,
625,-1.48e-01,
626,-1.48e-01,
627,-2.28e-01,
628,-2.28e-01,
629,-1.44e-01,
630,-1.48e-01,
631,-2.20e-01,
632,-2.28e-01,
633,-1.40e-01,
634,-1.56e-01,
635,-2.28e-01,
636,-2.20e-01,
637,-1.44e-01,
638,-2.24e-01,
639,-1.48e-01,
640,-1.48e-01,
641,-2.32e-01,
642,-1.44e-01,
643,-2.24e-01,
644,-2.28e-01,
645,-1.44e-01,
646,-2.16e-01,
647,-1.44e-01,
648,-1.48e-01,
649,-2.32e-01,
650,-2.20e-01,
651,-1.44e-01,
652,-2.12e-01,
653,-1.48e-01,
654,-1.44e-01,
655,-2.32e-01,
656,-1.40e-01,
657,-2.24e-01,
658,-2.28e-01,
659,-1.48e-01,
660,-1.48e-01,
661,-2.28e-01,
662,-1.48e-01,
663,-2.20e-01,
664,-2.24e-01,
665,-1.48e-01,
666,-1.52e-01,
667,-2.24e-01,
668,-2.32e-01,
669,-1.48e-01,
670,-1.44e-01,
671,-2.24e-01,
672,-2.24e-01,
673,-1.40e-01,
674,-1.48e-01,
675,-2.24e-01,
676,-1.52e-01,
677,-2.32e-01,
678,-2.28e-01,
679,-1.52e-01,
680,-2.28e-01,
681,-1.36e-01,
682,-1.48e-01,
683,-2.24e-01,
684,-2.24e-01,
685,-1.48e-01,
686,-1.48e-01,
687,-2.20e-01,
688,-1.48e-01,
689,-2.32e-01,
690,-2.28e-01,
691,-1.48e-01,
692,-2.32e-01,
693,-1.52e-01,
694,-1.44e-01,
695,-2.28e-01,
696,-2.40e-01,
697,-1.52e-01,
698,-2.24e-01,
699,-1.32e-01,
700,-1.44e-01,
701,-2.28e-01,
702,-1.32e-01,
703,-2.24e-01,
704,-2.20e-01,
705,-1.48e-01,
706,-2.28e-01,
707,-1.40e-01,
708,-2.28e-01,
709,-1.48e-01,
710,-2.36e-01,
711,-1.44e-01,
712,-1.40e-01,
713,-2.32e-01,
714,-2.28e-01,
715,-1.52e-01,
716,-1.48e-01,
717,-2.40e-01,
718,-2.24e-01,
719,-1.52e-01,
720,-1.48e-01,
721,-2.20e-01,
722,-2.20e-01,
723,-1.48e-01,
724,-2.24e-01,
725,-1.52e-01,
726,-1.56e-01,
727,-2.16e-01,
728,-2.32e-01,
729,-1.48e-01,
730,-1.44e-01,
731,-2.24e-01,
732,-1.52e-01,
733,-2.20e-01,
734,-2.24e-01,
735,-1.52e-01,
736,-1.48e-01,
737,-2.32e-01,
738,-2.20e-01,
739,-1.52e-01,
740,-2.28e-01,
741,-1.48e-01,
742,-2.20e-01,
743,-1.48e-01,
744,-1.52e-01,
745,-2.24e-01,
746,-1.48e-01,
747,-2.24e-01,
748,-1.52e-01,
749,-2.16e-01,
750,-1.36e-01,
751,-2.28e-01,
752,-2.16e-01,
753,-1.44e-01,
754,-1.48e-01,
755,-2.20e-01,
756,-2.24e-01,
757,-1.44e-01,
758,-2.24e-01,
759,-1.48e-01,
760,-1.52e-01,
761,-2.24e-01,
762,-2.36e-01,
763,-1.48e-01,
764,-1.44e-01,
765,-2.24e-01,
766,-2.28e-01,
767,-1.48e-01,
768,-1.48e-01,
769,-2.28e-01,
770,-2.16e-01,
771,-1.32e-01,
772,-1.44e-01,
773,-2.28e-01,
774,-2.32e-01,
775,-1.52e-01,
776,-2.32e-01,
777,-1.48e-01,
778,-1.44e-01,
779,-2.32e-01,
780,-1.52e-01,
781,-2.20e-01,
782,-1.56e-01,
783,-2.24e-01,
784,-2.16e-01,
785,-1.52e-01,
786,-2.20e-01,
787,-1.48e-01,
788,-1.52e-01,
789,-2.32e-01,
790,-1.52e-01,
791,-2.28e-01,
792,-2.20e-01,
793,-1.52e-01,
794,-1.52e-01,
795,-2.28e-01,
796,-2.32e-01,
797,-1.48e-01,
798,-2.20e-01,
799,-1.52e-01,
800,-1.52e-01,
801,-2.28e-01,
802,-2.20e-01,
803,-1.52e-01,
804,-1.48e-01,
805,-2.16e-01,
806,-2.20e-01,
807,-1.44e-01,
808,-2.20e-01,
809,-1.52e-01,
810,-2.32e-01,
811,-1.44e-01,
812,-1.56e-01,
813,-2.20e-01,
814,-1.56e-01,
815,-2.24e-01,
816,-2.28e-01,
817,-1.48e-01,
818,-2.20e-01,
819,-1.44e-01,
820,-1.48e-01,
821,-2.24e-01,
822,-1.52e-01,
823,-2.24e-01,
824,-2.28e-01,
825,-1.48e-01,
826,-1.44e-01,
827,-2.16e-01,
828,-1.48e-01,
829,-2.24e-01,
830,-2.28e-01,
831,-1.56e-01,
832,-1.64e-01,
833,-2.20e-01,
834,-2.32e-01,
835,-1.44e-01,
836,-2.16e-01,
837,-1.52e-01,
838,-1.36e-01,
839,-2.20e-01,
840,-1.52e-01,
841,-2.28e-01,
842,-1.44e-01,
843,-2.24e-01,
844,-2.16e-01,
845,-1.52e-01,
846,-1.52e-01,
847,-2.32e-01,
848,-1.52e-01,
849,-2.28e-01,
850,-1.48e-01,
851,-2.24e-01,
852,-2.24e-01,
853,-1.40e-01,
854,-1.52e-01,
855,-2.32e-01,
856,-2.28e-01,
857,-1.52e-01,
858,-1.48e-01,
859,-2.20e-01,
860,-1.48e-01,
861,-2.24e-01,
862,-1.44e-01,
863,-2.28e-01,
864,-1.56e-01,
865,-2.40e-01,
866,-2.32e-01,
867,-1.40e-01,
868,-1.52e-01,
869,-2.24e-01,
870,-2.24e-01,
871,-1.48e-01,
872,-1.48e-01,
873,-2.28e-01,
874,-2.36e-01,
875,-1.44e-01,
876,-2.28e-01,
877,-1.56e-01,
878,-1.44e-01,
879,-2.28e-01,
880,-2.32e-01,
881,-1.44e-01,
882,-2.28e-01,
883,-1.56e-01,
884,-1.48e-01,
885,-2.20e-01,
886,-2.20e-01,
887,-1.48e-01,
888,-2.16e-01,
889,-1.48e-01,
890,-1.48e-01,
891,-2.32e-01,
892,-2.28e-01,
893,-1.48e-01,
894,-2.28e-01,
895,-1.48e-01,
896,-1.44e-01,
897,-2.20e-01,
898,-1.52e-01,
899,-2.28e-01,
900,-2.36e-01,
901,-1.52e-01,
902,-1.44e-01,
903,-2.20e-01,
904,-2.20e-01,
905,-1.48e-01,
906,-1.52e-01,
907,-2.28e-01,
908,-2.24e-01,
909,-1.48e-01,
910,-1.52e-01,
911,-2.28e-01,
912,-2.24e-01,
913,-1.36e-01,
914,-2.28e-01,
915,-1.56e-01,
916,-1.40e-01,
917,-2.28e-01,
918,-2.28e-01,
919,-1.56e-01,
920,-2.20e-01,
921,-1.48e-01,
922,-2.28e-01,
923,-1.52e-01,
924,-2.24e-01,
925,-1.48e-01,
926,-2.28e-01,
927,-1.52e-01,
928,-1.48e-01,
929,-2.20e-01,
930,-2.24e-01,
931,-1.48e-01,
932,-1.48e-01,
933,-2.32e-01,
934,-2.24e-01,
935,-1.52e-01,
936,-1.36e-01,
937,-2.20e-01,
938,-2.16e-01,
939,-1.52e-01,
940,-2.20e-01,
941,-1.48e-01,
942,-2.28e-01,
943,-1.48e-01,
944,-1.56e-01,
945,-2.36e-01,
946,-2.36e-01,
947,-1.48e-01,
948,-1.52e-01,
949,-2.24e-01,
950,-1.52e-01,
951,-2.32e-01,
952,-2.16e-01,
953,-1.48e-01,
954,-2.24e-01,
955,-1.44e-01,
956,-1.56e-01,
957,-2.24e-01,
958,-1.48e-01,
959,-2.16e-01,
960,-1.56e-01,
961,-2.28e-01,
962,-1.52e-01,
963,-2.24e-01,
964,-2.20e-01,
965,-1.48e-01,
966,-2.24e-01,
967,-1.40e-01,
968,-2.24e-01,
969,-1.52e-01,
970,-1.44e-01,
971,-2.24e-01,
972,-2.24e-01,
973,-1.48e-01,
974,-1.44e-01,
975,-2.24e-01,
976,-1.48e-01,
977,-2.16e-01,
978,-1.44e-01,
979,-2.24e-01,
980,-2.28e-01,
981,-1.36e-01,
982,-2.48e-01,
983,-1.52e-01,
984,-1.52e-01,
985,-2.28e-01,
986,-1.48e-01,
987,-2.24e-01,
988,-2.24e-01,
989,-1.48e-01,
990,-1.52e-01,
991,-2.28e-01,
992,-2.28e-01,
993,-1.32e-01,
994,-1.48e-01,
995,-2.24e-01,
996,-2.32e-01,
997,-1.48e-01,
998,-2.32e-01,
999,-1.48e-01,
1000,-2.20e-01,
1001,-1.52e-01,
1002,-1.44e-01,
1003,-2.24e-01,
1004,-1.48e-01,
1005,-2.16e-01,
1006,-1.44e-01,
1007,-2.32e-01,
1008,-2.20e-01,
1009,-1.60e-01,
1010,-1.48e-01,
1011,-2.20e-01,
1012,-1.52e-01,
1013,-2.32e-01,
1014,-2.32e-01,
1015,-1.48e-01,
1016,-2.28e-01,
1017,-1.36e-01,
1018,-1.20e-01,
1019,-2.28e-01,
1020,-1.48e-01,
1021,-2.28e-01,
1022,-1.52e-01,
1023,-2.20e-01,
1024,-1.44e-01,
1025,-2.28e-01,
1026,-2.32e-01,
1027,-1.48e-01,
1028,-1.48e-01,
1029,-2.36e-01,
1030,-1.48e-01,
1031,-2.24e-01,
1032,-1.52e-01,
1033,-2.24e-01,
1034,-2.24e-01,
1035,-1.52e-01,
1036,-1.48e-01,
1037,-2.32e-01,
1038,-2.20e-01,
1039,-1.48e-01,
1040,-1.52e-01,
1041,-2.32e-01,
1042,-1.52e-01,
1043,-2.20e-01,
1044,-2.28e-01,
1045,-1.48e-01,
1046,-2.24e-01,
1047,-1.48e-01,
1048,-1.48e-01,
1049,-2.20e-01,
1050,-2.16e-01,
1051,-1.40e-01,
1052,-2.24e-01,
1053,-1.40e-01,
1054,-2.28e-01,
1055,-1.48e-01,
1056,-1.56e-01,
1057,-2.32e-01,
1058,-2.24e-01,
1059,-1.52e-01,
1060,-1.48e-01,
1061,-2.20e-01,
1062,-1.36e-01,
1063,-2.28e-01,
1064,-1.52e-01,
1065,-2.32e-01,
1066,-1.60e-01,
1067,-2.24e-01,
1068,-2.44e-01,
1069,-1.48e-01,
1070,-2.24e-01,
1071,-1.52e-01,
1072,-2.32e-01,
1073,-1.44e-01,
1074,-2.32e-01,
1075,-1.48e-01,
1076,-2.28e-01,
1077,-1.48e-01,
1078,-2.16e-01,
1079,-1.48e-01,
1080,-1.36e-01,
1081,-2.36e-01,
1082,-1.48e-01,
1083,-2.28e-01,
1084,-1.48e-01,
1085,-2.28e-01,
1086,-1.44e-01,
1087,-2.36e-01,
1088,-2.24e-01,
1089,-1.48e-01,
1090,-1.44e-01,
1091,-2.28e-01,
1092,-1.40e-01,
1093,-2.28e-01,
1094,-1.56e-01,
1095,-2.20e-01,
1096,-2.20e-01,
1097,-1.48e-01,
1098,-1.44e-01,
1099,-2.32e-01,
1100,-2.20e-01,
1101,-1.48e-01,
1102,-1.36e-01,
1103,-2.44e-01,
1104,-1.40e-01,
1105,-2.24e-01,
1106,-1.44e-01,
1107,-2.28e-01,
1108,-2.28e-01,
1109,-1.44e-01,
1110,-2.24e-01,
1111,-1.40e-01,
1112,-2.20e-01,
1113,-1.36e-01,
1114,-2.40e-01,
1115,-1.36e-01,
1116,-2.28e-01,
1117,-1.44e-01,
1118,-1.52e-01,
1119,-2.28e-01,
1120,-2.28e-01,
1121,-1.52e-01,
1122,-1.32e-01,
1123,-2.28e-01,
1124,-2.28e-01,
1125,-1.40e-01,
1126,-2.32e-01,
1127,-1.48e-01,
1128,-1.48e-01,
1129,-2.16e-01,
1130,-1.48e-01,
1131,-2.24e-01,
1132,-2.48e-01,
1133,-1.48e-01,
1134,-2.36e-01,
1135,-1.52e-01,
1136,-2.16e-01,
1137,-1.52e-01,
1138,-2.16e-01,
1139,-1.52e-01,
1140,-2.24e-01,
1141,-1.48e-01,
1142,-1.48e-01,
1143,-2.36e-01,
1144,-2.16e-01,
1145,-1.44e-01,
1146,-2.16e-01,
1147,-1.40e-01,
1148,-2.28e-01,
1149,-1.44e-01,
1150,-1.48e-01,
1151,-2.28e-01,
1152,-2.32e-01,
1153,-1.40e-01,
1154,-2.32e-01,
1155,-1.52e-01,
1156,-1.52e-01,
1157,-2.28e-01,
1158,-2.24e-01,
1159,-1.48e-01,
1160,-2.20e-01,
1161,-1.48e-01,
1162,-2.20e-01,
1163,-1.48e-01,
1164,-2.28e-01,
1165,-1.48e-01,
1166,-2.24e-01,
1167,-1.48e-01,
1168,-1.52e-01,
1169,-2.28e-01,
1170,-2.24e-01,
1171,-1.52e-01,
1172,-1.36e-01,
1173,-2.20e-01,
1174,-1.52e-01,
1175,-2.24e-01,
1176,-2.20e-01,
1177,-1.32e-01,
1178,-1.48e-01,
1179,-2.24e-01,
1180,-2.24e-01,
1181,-1.36e-01,
1182,-2.32e-01,
1183,-1.44e-01,
1184,-2.28e-01,
1185,-1.44e-01,
1186,-2.28e-01,
1187,-1.48e-01,
1188,-1.56e-01,
1189,-2.24e-01,
1190,-1.48e-01,
1191,-2.24e-01,
1192,-2.40e-01,
1193,-1.48e-01,
1194,-1.48e-01,
1195,-2.28e-01,
1196,-1.48e-01,
1197,-2.28e-01,
1198,-1.48e-01,
1199,-2.20e-01,
