fastdiffamp/data-noise-set/bal-mean/NewFile5.csv

X,CH1,Start,Increment,
Sequence,Volt,-5.990000e+00,1.000000e-02
0,-1.84e-01,
1,-1.04e-01,
2,-1.88e-01,
3,-1.20e-01,
4,-1.00e-01,
5,-2.00e-01,
6,-1.96e-01,
7,-1.24e-01,
8,-1.08e-01,
9,-1.84e-01,
10,-2.00e-01,
11,-1.20e-01,
12,-1.92e-01,
13,-1.16e-01,
14,-1.92e-01,
15,-1.12e-01,
16,-1.84e-01,
17,-1.12e-01,
18,-1.80e-01,
19,-1.00e-01,
20,-2.04e-01,
21,-1.08e-01,
22,-1.84e-01,
23,-1.04e-01,
24,-2.08e-01,
25,-1.16e-01,
26,-1.84e-01,
27,-1.12e-01,
28,-1.16e-01,
29,-1.92e-01,
30,-1.96e-01,
31,-1.00e-01,
32,-1.12e-01,
33,-1.88e-01,
34,-1.04e-01,
35,-1.96e-01,
36,-1.92e-01,
37,-1.08e-01,
38,-1.16e-01,
39,-1.92e-01,
40,-1.04e-01,
41,-1.88e-01,
42,-1.00e-01,
43,-1.92e-01,
44,-1.92e-01,
45,-1.20e-01,
46,-1.00e-01,
47,-1.92e-01,
48,-1.92e-01,
49,-1.12e-01,
50,-1.92e-01,
51,-1.12e-01,
52,-1.12e-01,
53,-1.92e-01,
54,-1.12e-01,
55,-1.96e-01,
56,-1.88e-01,
57,-1.16e-01,
58,-1.80e-01,
59,-1.12e-01,
60,-1.84e-01,
61,-1.16e-01,
62,-1.84e-01,
63,-1.16e-01,
64,-1.76e-01,
65,-1.16e-01,
66,-1.92e-01,
67,-1.12e-01,
68,-1.12e-01,
69,-1.88e-01,
70,-1.08e-01,
71,-1.88e-01,
72,-1.88e-01,
73,-1.12e-01,
74,-1.88e-01,
75,-1.12e-01,
76,-1.92e-01,
77,-1.12e-01,
78,-1.16e-01,
79,-1.96e-01,
80,-1.84e-01,
81,-1.12e-01,
82,-1.12e-01,
83,-1.88e-01,
84,-1.92e-01,
85,-1.08e-01,
86,-2.08e-01,
87,-1.08e-01,
88,-1.12e-01,
89,-1.96e-01,
90,-1.20e-01,
91,-1.88e-01,
92,-1.16e-01,
93,-1.96e-01,
94,-1.92e-01,
95,-1.12e-01,
96,-1.16e-01,
97,-1.88e-01,
98,-1.16e-01,
99,-1.92e-01,
100,-1.80e-01,
101,-1.16e-01,
102,-1.16e-01,
103,-2.00e-01,
104,-1.92e-01,
105,-1.12e-01,
106,-1.16e-01,
107,-1.84e-01,
108,-1.16e-01,
109,-1.96e-01,
110,-1.08e-01,
111,-1.88e-01,
112,-1.16e-01,
113,-1.84e-01,
114,-1.08e-01,
115,-1.88e-01,
116,-1.20e-01,
117,-1.84e-01,
118,-1.84e-01,
119,-1.16e-01,
120,-1.92e-01,
121,-1.16e-01,
122,-1.92e-01,
123,-1.16e-01,
124,-9.60e-02,
125,-2.00e-01,
126,-1.92e-01,
127,-1.16e-01,
128,-1.16e-01,
129,-1.88e-01,
130,-1.92e-01,
131,-1.16e-01,
132,-1.08e-01,
133,-1.92e-01,
134,-1.12e-01,
135,-1.88e-01,
136,-1.92e-01,
137,-1.16e-01,
138,-1.84e-01,
139,-1.00e-01,
140,-2.00e-01,
141,-1.16e-01,
142,-1.92e-01,
143,-1.16e-01,
144,-1.12e-01,
145,-1.80e-01,
146,-1.16e-01,
147,-1.96e-01,
148,-1.20e-01,
149,-1.96e-01,
150,-1.20e-01,
151,-1.96e-01,
152,-1.88e-01,
153,-1.00e-01,
154,-1.08e-01,
155,-2.00e-01,
156,-1.92e-01,
157,-1.16e-01,
158,-2.00e-01,
159,-1.08e-01,
160,-1.16e-01,
161,-1.84e-01,
162,-1.88e-01,
163,-1.08e-01,
164,-1.88e-01,
165,-1.12e-01,
166,-1.08e-01,
167,-1.88e-01,
168,-1.08e-01,
169,-2.00e-01,
170,-1.84e-01,
171,-1.12e-01,
172,-1.88e-01,
173,-1.12e-01,
174,-1.08e-01,
175,-1.92e-01,
176,-1.16e-01,
177,-1.92e-01,
178,-1.12e-01,
179,-2.00e-01,
180,-1.20e-01,
181,-1.96e-01,
182,-1.88e-01,
183,-1.08e-01,
184,-1.16e-01,
185,-1.88e-01,
186,-1.88e-01,
187,-1.04e-01,
188,-1.84e-01,
189,-1.16e-01,
190,-1.92e-01,
191,-1.12e-01,
192,-2.00e-01,
193,-1.00e-01,
194,-1.16e-01,
195,-1.80e-01,
196,-1.88e-01,
197,-1.04e-01,
198,-1.80e-01,
199,-1.16e-01,
200,-1.80e-01,
201,-1.12e-01,
202,-1.04e-01,
203,-1.88e-01,
204,-1.84e-01,
205,-1.08e-01,
206,-1.16e-01,
207,-2.04e-01,
208,-1.08e-01,
209,-1.92e-01,
210,-1.88e-01,
211,-1.12e-01,
212,-1.88e-01,
213,-1.20e-01,
214,-1.96e-01,
215,-1.16e-01,
216,-2.00e-01,
217,-1.16e-01,
218,-1.12e-01,
219,-2.04e-01,
220,-2.08e-01,
221,-1.16e-01,
222,-1.92e-01,
223,-1.12e-01,
224,-1.88e-01,
225,-1.12e-01,
226,-1.92e-01,
227,-1.16e-01,
228,-1.84e-01,
229,-1.16e-01,
230,-1.12e-01,
231,-1.88e-01,
232,-1.24e-01,
233,-1.92e-01,
234,-1.84e-01,
235,-1.12e-01,
236,-1.88e-01,
237,-1.12e-01,
238,-1.92e-01,
239,-1.20e-01,
240,-1.12e-01,
241,-1.84e-01,
242,-1.92e-01,
243,-1.08e-01,
244,-1.16e-01,
245,-1.88e-01,
246,-1.80e-01,
247,-1.12e-01,
248,-1.80e-01,
249,-1.12e-01,
250,-1.92e-01,
251,-1.12e-01,
252,-1.96e-01,
253,-1.16e-01,
254,-1.16e-01,
255,-1.84e-01,
256,-1.16e-01,
257,-2.00e-01,
258,-1.12e-01,
259,-1.84e-01,
260,-1.84e-01,
261,-1.12e-01,
262,-1.12e-01,
263,-1.84e-01,
264,-1.16e-01,
265,-1.84e-01,
266,-1.84e-01,
267,-1.16e-01,
268,-1.92e-01,
269,-1.12e-01,
270,-1.84e-01,
271,-1.12e-01,
272,-1.16e-01,
273,-1.84e-01,
274,-1.16e-01,
275,-1.92e-01,
276,-1.84e-01,
277,-1.04e-01,
278,-1.20e-01,
279,-1.84e-01,
280,-1.88e-01,
281,-1.12e-01,
282,-1.92e-01,
283,-1.16e-01,
284,-1.08e-01,
285,-1.96e-01,
286,-1.16e-01,
287,-1.92e-01,
288,-1.84e-01,
289,-1.12e-01,
290,-1.16e-01,
291,-1.84e-01,
292,-1.00e-01,
293,-1.92e-01,
294,-1.16e-01,
295,-1.88e-01,
296,-1.16e-01,
297,-1.96e-01,
298,-1.84e-01,
299,-1.12e-01,
300,-1.92e-01,
301,-1.08e-01,
302,-1.12e-01,
303,-1.92e-01,
304,-1.80e-01,
305,-1.12e-01,
306,-1.84e-01,
307,-1.00e-01,
308,-1.84e-01,
309,-1.16e-01,
310,-1.20e-01,
311,-1.96e-01,
312,-1.92e-01,
313,-1.12e-01,
314,-1.08e-01,
315,-1.92e-01,
316,-1.80e-01,
317,-1.20e-01,
318,-1.20e-01,
319,-1.88e-01,
320,-1.24e-01,
321,-1.92e-01,
322,-1.92e-01,
323,-1.16e-01,
324,-1.12e-01,
325,-1.88e-01,
326,-1.12e-01,
327,-1.92e-01,
328,-1.96e-01,
329,-1.12e-01,
330,-2.00e-01,
331,-1.12e-01,
332,-1.88e-01,
333,-1.16e-01,
334,-1.92e-01,
335,-1.12e-01,
336,-1.84e-01,
337,-1.12e-01,
338,-1.92e-01,
339,-1.12e-01,
340,-1.92e-01,
341,-1.04e-01,
342,-1.12e-01,
343,-1.92e-01,
344,-1.12e-01,
345,-1.88e-01,
346,-1.80e-01,
347,-1.12e-01,
348,-1.16e-01,
349,-1.92e-01,
350,-1.80e-01,
351,-1.16e-01,
352,-1.16e-01,
353,-1.92e-01,
354,-1.08e-01,
355,-2.00e-01,
356,-1.92e-01,
357,-1.08e-01,
358,-1.16e-01,
359,-1.92e-01,
360,-1.16e-01,
361,-1.88e-01,
362,-1.96e-01,
363,-1.16e-01,
364,-1.92e-01,
365,-1.20e-01,
366,-1.12e-01,
367,-1.84e-01,
368,-1.88e-01,
369,-1.12e-01,
370,-1.12e-01,
371,-1.92e-01,
372,-1.80e-01,
373,-1.16e-01,
374,-1.84e-01,
375,-1.08e-01,
376,-1.88e-01,
377,-1.16e-01,
378,-1.16e-01,
379,-1.92e-01,
380,-1.80e-01,
381,-1.12e-01,
382,-1.12e-01,
383,-1.88e-01,
384,-1.84e-01,
385,-1.08e-01,
386,-1.88e-01,
387,-1.16e-01,
388,-1.20e-01,
389,-1.96e-01,
390,-1.92e-01,
391,-1.16e-01,
392,-1.12e-01,
393,-1.84e-01,
394,-1.16e-01,
395,-1.80e-01,
396,-1.16e-01,
397,-1.88e-01,
398,-1.16e-01,
399,-1.88e-01,
400,-1.88e-01,
401,-1.00e-01,
402,-1.92e-01,
403,-1.12e-01,
404,-1.96e-01,
405,-9.60e-02,
406,-1.04e-01,
407,-1.92e-01,
408,-1.92e-01,
409,-1.08e-01,
410,-1.08e-01,
411,-2.00e-01,
412,-1.16e-01,
413,-1.84e-01,
414,-1.08e-01,
415,-1.92e-01,
416,-1.16e-01,
417,-1.84e-01,
418,-1.12e-01,
419,-1.88e-01,
420,-1.88e-01,
421,-1.12e-01,
422,-1.12e-01,
423,-1.92e-01,
424,-1.12e-01,
425,-1.84e-01,
426,-1.96e-01,
427,-1.16e-01,
428,-1.92e-01,
429,-1.08e-01,
430,-1.92e-01,
431,-1.12e-01,
432,-2.00e-01,
433,-1.12e-01,
434,-1.96e-01,
435,-1.16e-01,
436,-1.96e-01,
437,-1.12e-01,
438,-1.84e-01,
439,-1.16e-01,
440,-1.84e-01,
441,-1.16e-01,
442,-1.88e-01,
443,-1.12e-01,
444,-1.92e-01,
445,-1.16e-01,
446,-1.92e-01,
447,-1.20e-01,
448,-1.88e-01,
449,-1.16e-01,
450,-1.08e-01,
451,-1.88e-01,
452,-1.16e-01,
453,-1.92e-01,
454,-1.80e-01,
455,-1.16e-01,
456,-1.20e-01,
457,-1.88e-01,
458,-1.92e-01,
459,-1.00e-01,
460,-1.92e-01,
461,-1.20e-01,
462,-1.84e-01,
463,-1.08e-01,
464,-1.16e-01,
465,-2.00e-01,
466,-1.16e-01,
467,-1.88e-01,
468,-1.84e-01,
469,-1.16e-01,
470,-1.16e-01,
471,-1.92e-01,
472,-1.08e-01,
473,-1.88e-01,
474,-1.12e-01,
475,-1.88e-01,
476,-1.80e-01,
477,-1.12e-01,
478,-1.04e-01,
479,-1.80e-01,
480,-1.12e-01,
481,-1.84e-01,
482,-1.84e-01,
483,-1.04e-01,
484,-1.92e-01,
485,-1.12e-01,
486,-1.96e-01,
487,-1.12e-01,
488,-1.20e-01,
489,-1.84e-01,
490,-1.84e-01,
491,-1.08e-01,
492,-1.16e-01,
493,-1.92e-01,
494,-1.12e-01,
495,-1.92e-01,
496,-1.84e-01,
497,-1.12e-01,
498,-1.12e-01,
499,-1.92e-01,
500,-1.04e-01,
501,-1.92e-01,
502,-1.16e-01,
503,-1.96e-01,
504,-1.16e-01,
505,-1.92e-01,
506,-1.80e-01,
507,-1.00e-01,
508,-1.16e-01,
509,-1.96e-01,
510,-1.12e-01,
511,-1.84e-01,
512,-1.04e-01,
513,-1.88e-01,
514,-1.12e-01,
515,-1.88e-01,
516,-1.96e-01,
517,-1.12e-01,
518,-1.84e-01,
519,-1.12e-01,
520,-1.08e-01,
521,-1.92e-01,
522,-1.16e-01,
523,-1.88e-01,
524,-1.12e-01,
525,-1.84e-01,
526,-1.16e-01,
527,-1.84e-01,
528,-1.16e-01,
529,-1.88e-01,
530,-1.92e-01,
531,-9.60e-02,
532,-1.84e-01,
533,-1.16e-01,
534,-1.80e-01,
535,-1.12e-01,
536,-1.04e-01,
537,-1.88e-01,
538,-1.84e-01,
539,-1.12e-01,
540,-1.16e-01,
541,-1.88e-01,
542,-2.00e-01,
543,-1.12e-01,
544,-1.16e-01,
545,-1.84e-01,
546,-1.80e-01,
547,-1.12e-01,
548,-1.96e-01,
549,-1.16e-01,
550,-1.88e-01,
551,-1.16e-01,
552,-1.20e-01,
553,-1.84e-01,
554,-1.16e-01,
555,-1.96e-01,
556,-1.84e-01,
557,-1.16e-01,
558,-1.12e-01,
559,-1.92e-01,
560,-1.12e-01,
561,-1.88e-01,
562,-1.92e-01,
563,-1.12e-01,
564,-1.12e-01,
565,-1.88e-01,
566,-1.84e-01,
567,-1.20e-01,
568,-1.92e-01,
569,-1.16e-01,
570,-1.96e-01,
571,-1.16e-01,
572,-1.16e-01,
573,-1.88e-01,
574,-1.92e-01,
575,-1.00e-01,
576,-1.80e-01,
577,-1.16e-01,
578,-1.92e-01,
579,-1.16e-01,
580,-1.84e-01,
581,-1.12e-01,
582,-1.80e-01,
583,-1.16e-01,
584,-1.20e-01,
585,-1.92e-01,
586,-1.92e-01,
587,-1.12e-01,
588,-1.96e-01,
589,-1.12e-01,
590,-1.12e-01,
591,-1.84e-01,
592,-1.96e-01,
593,-1.12e-01,
594,-1.88e-01,
595,-1.16e-01,
596,-1.12e-01,
597,-1.84e-01,
598,-1.12e-01,
599,-1.92e-01,
600,-1.20e-01,
601,-1.92e-01,
602,-1.96e-01,
603,-1.16e-01,
604,-1.16e-01,
605,-1.92e-01,
606,-1.20e-01,
607,-1.92e-01,
608,-1.88e-01,
609,-9.60e-02,
610,-1.16e-01,
611,-1.96e-01,
612,-1.08e-01,
613,-1.84e-01,
614,-1.88e-01,
615,-1.12e-01,
616,-1.12e-01,
617,-1.92e-01,
618,-1.80e-01,
619,-1.12e-01,
620,-1.16e-01,
621,-1.92e-01,
622,-1.88e-01,
623,-1.04e-01,
624,-1.16e-01,
625,-1.96e-01,
626,-1.20e-01,
627,-1.92e-01,
628,-1.04e-01,
629,-1.92e-01,
630,-1.04e-01,
631,-2.00e-01,
632,-1.16e-01,
633,-1.96e-01,
634,-1.92e-01,
635,-1.16e-01,
636,-1.84e-01,
637,-1.16e-01,
638,-1.96e-01,
639,-1.12e-01,
640,-1.88e-01,
641,-1.12e-01,
642,-1.96e-01,
643,-1.16e-01,
644,-2.04e-01,
645,-1.16e-01,
646,-1.84e-01,
647,-1.16e-01,
648,-1.12e-01,
649,-1.92e-01,
650,-1.16e-01,
651,-1.88e-01,
652,-1.80e-01,
653,-1.12e-01,
654,-1.84e-01,
655,-9.60e-02,
656,-1.04e-01,
657,-1.96e-01,
658,-1.12e-01,
659,-1.96e-01,
660,-2.00e-01,
661,-1.12e-01,
662,-1.08e-01,
663,-1.88e-01,
664,-1.80e-01,
665,-1.20e-01,
666,-9.60e-02,
667,-1.92e-01,
668,-1.80e-01,
669,-1.12e-01,
670,-1.12e-01,
671,-1.88e-01,
672,-1.84e-01,
673,-1.16e-01,
674,-1.92e-01,
675,-1.12e-01,
676,-1.16e-01,
677,-1.96e-01,
678,-1.04e-01,
679,-1.96e-01,
680,-1.00e-01,
681,-1.84e-01,
682,-1.16e-01,
683,-1.84e-01,
684,-1.92e-01,
685,-1.16e-01,
686,-1.84e-01,
687,-1.12e-01,
688,-1.92e-01,
689,-1.16e-01,
690,-1.12e-01,
691,-1.84e-01,
692,-1.12e-01,
693,-1.84e-01,
694,-1.92e-01,
695,-1.08e-01,
696,-1.16e-01,
697,-1.88e-01,
698,-1.88e-01,
699,-1.16e-01,
700,-1.12e-01,
701,-1.84e-01,
702,-1.24e-01,
703,-1.88e-01,
704,-1.08e-01,
705,-1.84e-01,
706,-1.12e-01,
707,-1.88e-01,
708,-1.88e-01,
709,-1.12e-01,
710,-1.84e-01,
711,-1.08e-01,
712,-1.08e-01,
713,-1.92e-01,
714,-1.80e-01,
715,-1.16e-01,
716,-1.04e-01,
717,-1.84e-01,
718,-1.12e-01,
719,-1.92e-01,
720,-1.96e-01,
721,-1.12e-01,
722,-1.88e-01,
723,-1.16e-01,
724,-1.92e-01,
725,-1.12e-01,
726,-1.92e-01,
727,-1.08e-01,
728,-1.96e-01,
729,-1.20e-01,
730,-1.92e-01,
731,-1.16e-01,
732,-1.96e-01,
733,-1.16e-01,
734,-1.20e-01,
735,-2.00e-01,
736,-1.84e-01,
737,-1.20e-01,
738,-1.84e-01,
739,-1.12e-01,
740,-1.12e-01,
741,-1.96e-01,
742,-1.20e-01,
743,-1.92e-01,
744,-1.84e-01,
745,-1.12e-01,
746,-1.88e-01,
747,-1.16e-01,
748,-1.20e-01,
749,-2.00e-01,
750,-1.88e-01,
751,-1.08e-01,
752,-1.84e-01,
753,-1.16e-01,
754,-1.16e-01,
755,-1.88e-01,
756,-1.92e-01,
757,-1.16e-01,
758,-1.16e-01,
759,-1.96e-01,
760,-2.00e-01,
761,-1.08e-01,
762,-1.88e-01,
763,-1.08e-01,
764,-1.24e-01,
765,-1.96e-01,
766,-1.12e-01,
767,-1.96e-01,
768,-1.08e-01,
769,-1.84e-01,
770,-1.04e-01,
771,-1.92e-01,
772,-1.12e-01,
773,-1.92e-01,
774,-1.16e-01,
775,-1.92e-01,
776,-1.84e-01,
777,-1.16e-01,
778,-1.92e-01,
779,-1.08e-01,
780,-1.96e-01,
781,-1.16e-01,
782,-1.04e-01,
783,-1.88e-01,
784,-1.12e-01,
785,-1.88e-01,
786,-1.04e-01,
787,-1.88e-01,
788,-1.92e-01,
789,-1.00e-01,
790,-1.96e-01,
791,-1.00e-01,
792,-1.16e-01,
793,-2.04e-01,
794,-1.88e-01,
795,-1.12e-01,
796,-1.84e-01,
797,-1.12e-01,
798,-1.84e-01,
799,-1.08e-01,
800,-1.92e-01,
801,-1.16e-01,
802,-1.92e-01,
803,-1.20e-01,
804,-1.96e-01,
805,-1.04e-01,
806,-1.04e-01,
807,-1.92e-01,
808,-1.84e-01,
809,-1.12e-01,
810,-1.04e-01,
811,-1.88e-01,
812,-1.92e-01,
813,-1.16e-01,
814,-1.88e-01,
815,-1.12e-01,
816,-1.92e-01,
817,-1.12e-01,
818,-1.84e-01,
819,-1.12e-01,
820,-1.92e-01,
821,-1.16e-01,
822,-1.84e-01,
823,-1.16e-01,
824,-1.04e-01,
825,-1.96e-01,
826,-1.16e-01,
827,-1.80e-01,
828,-1.92e-01,
829,-1.16e-01,
830,-1.08e-01,
831,-1.88e-01,
832,-1.92e-01,
833,-1.16e-01,
834,-1.84e-01,
835,-1.12e-01,
836,-1.96e-01,
837,-1.12e-01,
838,-1.12e-01,
839,-1.84e-01,
840,-1.16e-01,
841,-1.84e-01,
842,-1.76e-01,
843,-1.00e-01,
844,-1.80e-01,
845,-1.08e-01,
846,-1.96e-01,
847,-1.16e-01,
848,-1.88e-01,
849,-1.12e-01,
850,-1.12e-01,
851,-1.96e-01,
852,-1.16e-01,
853,-1.92e-01,
854,-1.16e-01,
855,-1.92e-01,
856,-1.80e-01,
857,-1.16e-01,
858,-1.92e-01,
859,-1.16e-01,
860,-1.20e-01,
861,-2.00e-01,
862,-1.92e-01,
863,-1.12e-01,
864,-1.00e-01,
865,-1.92e-01,
866,-1.80e-01,
867,-1.20e-01,
868,-1.80e-01,
869,-1.16e-01,
870,-1.20e-01,
871,-2.00e-01,
872,-1.12e-01,
873,-1.92e-01,
874,-1.12e-01,
875,-2.00e-01,
876,-1.84e-01,
877,-1.20e-01,
878,-1.08e-01,
879,-1.88e-01,
880,-1.16e-01,
881,-1.96e-01,
882,-1.12e-01,
883,-1.92e-01,
884,-1.16e-01,
885,-1.92e-01,
886,-1.92e-01,
887,-1.12e-01,
888,-1.88e-01,
889,-1.08e-01,
890,-1.12e-01,
891,-1.92e-01,
892,-1.96e-01,
893,-1.12e-01,
894,-1.84e-01,
895,-1.12e-01,
896,-1.92e-01,
897,-1.12e-01,
898,-1.16e-01,
899,-1.92e-01,
900,-1.96e-01,
901,-1.16e-01,
902,-1.12e-01,
903,-1.92e-01,
904,-1.12e-01,
905,-2.08e-01,
906,-1.16e-01,
907,-1.92e-01,
908,-1.08e-01,
909,-1.84e-01,
910,-2.04e-01,
911,-1.08e-01,
912,-1.92e-01,
913,-1.12e-01,
914,-1.96e-01,
915,-1.08e-01,
916,-1.84e-01,
917,-1.12e-01,
918,-1.00e-01,
919,-1.88e-01,
920,-1.84e-01,
921,-1.04e-01,
922,-1.24e-01,
923,-1.92e-01,
924,-1.12e-01,
925,-1.92e-01,
926,-1.92e-01,
927,-1.16e-01,
928,-1.12e-01,
929,-1.92e-01,
930,-1.16e-01,
931,-1.92e-01,
932,-1.04e-01,
933,-2.00e-01,
934,-1.96e-01,
935,-1.04e-01,
936,-1.92e-01,
937,-1.04e-01,
938,-1.96e-01,
939,-1.12e-01,
940,-1.16e-01,
941,-1.92e-01,
942,-1.96e-01,
943,-1.16e-01,
944,-1.96e-01,
945,-1.12e-01,
946,-1.12e-01,
947,-1.84e-01,
948,-1.12e-01,
949,-1.96e-01,
950,-1.80e-01,
951,-1.16e-01,
952,-1.92e-01,
953,-1.16e-01,
954,-1.08e-01,
955,-1.88e-01,
956,-1.12e-01,
957,-1.96e-01,
958,-1.88e-01,
959,-1.08e-01,
960,-1.12e-01,
961,-2.00e-01,
962,-1.88e-01,
963,-1.12e-01,
964,-1.12e-01,
965,-1.88e-01,
966,-1.12e-01,
967,-1.80e-01,
968,-1.88e-01,
969,-1.12e-01,
970,-1.12e-01,
971,-1.88e-01,
972,-1.84e-01,
973,-1.08e-01,
974,-1.08e-01,
975,-1.80e-01,
976,-1.20e-01,
977,-1.96e-01,
978,-1.12e-01,
979,-1.96e-01,
980,-1.92e-01,
981,-1.12e-01,
982,-1.80e-01,
983,-1.00e-01,
984,-1.12e-01,
985,-1.84e-01,
986,-1.08e-01,
987,-1.96e-01,
988,-1.84e-01,
989,-1.16e-01,
990,-1.80e-01,
991,-1.12e-01,
992,-1.84e-01,
993,-1.16e-01,
994,-1.08e-01,
995,-1.96e-01,
996,-1.92e-01,
997,-1.04e-01,
998,-1.12e-01,
999,-1.92e-01,
1000,-1.88e-01,
1001,-1.16e-01,
1002,-1.84e-01,
1003,-1.08e-01,
1004,-1.96e-01,
1005,-1.12e-01,
1006,-1.96e-01,
1007,-1.16e-01,
1008,-1.16e-01,
1009,-1.92e-01,
1010,-1.08e-01,
1011,-1.84e-01,
1012,-1.16e-01,
1013,-1.88e-01,
1014,-1.08e-01,
1015,-2.00e-01,
1016,-1.92e-01,
1017,-1.08e-01,
1018,-1.92e-01,
1019,-1.16e-01,
1020,-1.96e-01,
1021,-1.04e-01,
1022,-1.92e-01,
1023,-1.16e-01,
1024,-1.96e-01,
1025,-1.16e-01,
1026,-1.12e-01,
1027,-1.84e-01,
1028,-1.12e-01,
1029,-1.84e-01,
1030,-1.28e-01,
1031,-1.92e-01,
1032,-1.92e-01,
1033,-1.12e-01,
1034,-1.88e-01,
1035,-1.12e-01,
1036,-1.92e-01,
1037,-1.04e-01,
1038,-1.96e-01,
1039,-1.12e-01,
1040,-1.08e-01,
1041,-2.00e-01,
1042,-1.92e-01,
1043,-1.08e-01,
1044,-1.16e-01,
1045,-1.92e-01,
1046,-1.20e-01,
1047,-1.84e-01,
1048,-1.92e-01,
1049,-1.08e-01,
1050,-1.92e-01,
1051,-1.04e-01,
1052,-1.92e-01,
1053,-1.00e-01,
1054,-1.12e-01,
1055,-1.88e-01,
1056,-1.16e-01,
1057,-1.92e-01,
1058,-1.12e-01,
1059,-1.84e-01,
1060,-1.16e-01,
1061,-1.84e-01,
1062,-1.16e-01,
1063,-1.92e-01,
1064,-1.12e-01,
1065,-1.92e-01,
1066,-1.20e-01,
1067,-1.88e-01,
1068,-1.96e-01,
1069,-1.00e-01,
1070,-1.96e-01,
1071,-1.16e-01,
1072,-1.16e-01,
1073,-1.96e-01,
1074,-1.96e-01,
1075,-1.16e-01,
1076,-1.96e-01,
1077,-1.12e-01,
1078,-1.12e-01,
1079,-1.92e-01,
1080,-1.16e-01,
1081,-1.84e-01,
1082,-1.92e-01,
1083,-1.12e-01,
1084,-1.16e-01,
1085,-1.92e-01,
1086,-1.12e-01,
1087,-1.96e-01,
1088,-1.16e-01,
1089,-2.00e-01,
1090,-1.24e-01,
1091,-1.84e-01,
1092,-1.88e-01,
1093,-1.12e-01,
1094,-1.16e-01,
1095,-1.92e-01,
1096,-1.16e-01,
1097,-1.92e-01,
1098,-1.88e-01,
1099,-1.12e-01,
1100,-1.88e-01,
1101,-1.16e-01,
1102,-1.16e-01,
1103,-1.92e-01,
1104,-1.20e-01,
1105,-1.92e-01,
1106,-1.84e-01,
1107,-1.12e-01,
1108,-1.04e-01,
1109,-1.92e-01,
1110,-1.08e-01,
1111,-1.80e-01,
1112,-1.92e-01,
1113,-1.12e-01,
1114,-1.84e-01,
1115,-1.16e-01,
1116,-1.16e-01,
1117,-1.96e-01,
1118,-1.88e-01,
1119,-1.08e-01,
1120,-1.04e-01,
1121,-1.92e-01,
1122,-1.88e-01,
1123,-1.12e-01,
1124,-1.96e-01,
1125,-1.12e-01,
1126,-1.16e-01,
1127,-1.92e-01,
1128,-1.00e-01,
1129,-1.80e-01,
1130,-1.16e-01,
1131,-1.92e-01,
1132,-1.88e-01,
1133,-1.16e-01,
1134,-1.00e-01,
1135,-1.92e-01,
1136,-1.92e-01,
1137,-1.12e-01,
1138,-1.80e-01,
1139,-1.16e-01,
1140,-1.84e-01,
1141,-1.04e-01,
1142,-1.12e-01,
1143,-1.92e-01,
1144,-1.12e-01,
1145,-1.96e-01,
1146,-1.92e-01,
1147,-1.12e-01,
1148,-1.92e-01,
1149,-1.16e-01,
1150,-1.12e-01,
1151,-1.84e-01,
1152,-1.88e-01,
1153,-1.08e-01,
1154,-1.00e-01,
1155,-1.88e-01,
1156,-1.92e-01,
1157,-1.12e-01,
1158,-1.92e-01,
1159,-1.16e-01,
1160,-1.88e-01,
1161,-1.12e-01,
1162,-1.12e-01,
1163,-1.92e-01,
1164,-1.88e-01,
1165,-1.16e-01,
1166,-1.16e-01,
1167,-2.12e-01,
1168,-1.88e-01,
1169,-1.00e-01,
1170,-1.08e-01,
1171,-2.00e-01,
1172,-1.92e-01,
1173,-1.12e-01,
1174,-1.04e-01,
1175,-1.92e-01,
1176,-1.12e-01,
1177,-1.88e-01,
1178,-1.92e-01,
1179,-1.16e-01,
1180,-1.16e-01,
1181,-1.84e-01,
1182,-1.96e-01,
1183,-1.12e-01,
1184,-1.92e-01,
1185,-1.20e-01,
1186,-1.96e-01,
1187,-1.12e-01,
1188,-2.04e-01,
1189,-1.20e-01,
1190,-1.88e-01,
1191,-1.16e-01,
1192,-1.16e-01,
1193,-1.96e-01,
1194,-1.80e-01,
1195,-1.04e-01,
1196,-1.80e-01,
1197,-1.12e-01,
1198,-1.92e-01,
1199,-1.12e-01,
