fastdiffamp/data-noise-set/bal-mean/NewFile14.csv

X,CH1,Start,Increment,
Sequence,Volt,-5.990000e+00,1.000000e-02
0,-1.20e-02,
1,-9.60e-02,
2,-1.08e-01,
3,-2.80e-02,
4,-1.00e-01,
5,-2.40e-02,
6,-1.20e-01,
7,-2.40e-02,
8,-2.80e-02,
9,-1.00e-01,
10,-1.08e-01,
11,-2.00e-02,
12,-2.40e-02,
13,-9.60e-02,
14,-2.80e-02,
15,-9.60e-02,
16,-2.40e-02,
17,-1.04e-01,
18,-9.60e-02,
19,-3.20e-02,
20,-1.04e-01,
21,-3.20e-02,
22,-1.00e-01,
23,-2.00e-02,
24,-9.20e-02,
25,-2.80e-02,
26,-2.00e-02,
27,-1.04e-01,
28,-2.40e-02,
29,-9.20e-02,
30,-9.60e-02,
31,-2.40e-02,
32,-2.80e-02,
33,-1.00e-01,
34,-9.60e-02,
35,-2.40e-02,
36,-2.40e-02,
37,-1.12e-01,
38,-2.80e-02,
39,-1.04e-01,
40,-3.20e-02,
41,-1.00e-01,
42,-2.80e-02,
43,-1.12e-01,
44,-2.40e-02,
45,-1.04e-01,
46,-1.12e-01,
47,-2.40e-02,
48,-1.04e-01,
49,-2.80e-02,
50,-3.20e-02,
51,-1.04e-01,
52,-2.80e-02,
53,-1.00e-01,
54,-1.04e-01,
55,-2.40e-02,
56,-2.40e-02,
57,-1.04e-01,
58,-1.00e-01,
59,-2.40e-02,
60,-1.08e-01,
61,-2.40e-02,
62,-2.00e-02,
63,-1.04e-01,
64,-1.00e-01,
65,-2.80e-02,
66,-2.80e-02,
67,-1.08e-01,
68,-2.40e-02,
69,-1.04e-01,
70,-3.20e-02,
71,-9.60e-02,
72,-1.12e-01,
73,-2.40e-02,
74,-2.40e-02,
75,-1.00e-01,
76,-2.40e-02,
77,-1.00e-01,
78,-1.12e-01,
79,-2.00e-02,
80,-2.80e-02,
81,-9.60e-02,
82,-1.60e-02,
83,-1.08e-01,
84,-1.04e-01,
85,-2.80e-02,
86,-1.00e-01,
87,-2.40e-02,
88,-2.40e-02,
89,-9.60e-02,
90,-1.04e-01,
91,-2.80e-02,
92,-1.04e-01,
93,-2.00e-02,
94,-9.60e-02,
95,-8.00e-03,
96,-1.24e-01,
97,-2.40e-02,
98,-1.04e-01,
99,-2.40e-02,
100,-1.12e-01,
101,-2.80e-02,
102,-1.04e-01,
103,-2.80e-02,
104,-1.04e-01,
105,-2.40e-02,
106,-2.80e-02,
107,-1.00e-01,
108,-2.40e-02,
109,-1.08e-01,
110,-2.00e-02,
111,-1.00e-01,
112,-1.04e-01,
113,-3.20e-02,
114,-9.20e-02,
115,-2.00e-02,
116,-1.00e-01,
117,-2.00e-02,
118,-1.12e-01,
119,-1.60e-02,
120,-9.60e-02,
121,-2.80e-02,
122,-9.20e-02,
123,-1.60e-02,
124,-1.04e-01,
125,-3.20e-02,
126,-9.60e-02,
127,-3.60e-02,
128,-2.40e-02,
129,-1.04e-01,
130,-2.80e-02,
131,-9.20e-02,
132,-9.20e-02,
133,-2.80e-02,
134,-2.00e-02,
135,-1.00e-01,
136,-8.00e-03,
137,-1.00e-01,
138,-1.08e-01,
139,-2.00e-02,
140,-9.60e-02,
141,-2.80e-02,
142,-2.80e-02,
143,-1.00e-01,
144,-1.00e-01,
145,-2.00e-02,
146,-2.40e-02,
147,-9.20e-02,
148,-2.80e-02,
149,-1.08e-01,
150,-1.20e-02,
151,-1.00e-01,
152,-9.60e-02,
153,-2.40e-02,
154,-9.60e-02,
155,-1.60e-02,
156,-2.80e-02,
157,-1.00e-01,
158,-3.20e-02,
159,-1.08e-01,
160,-1.00e-01,
161,-1.20e-02,
162,-9.20e-02,
163,-2.40e-02,
164,-9.20e-02,
165,-2.80e-02,
166,-2.80e-02,
167,-9.60e-02,
168,-1.04e-01,
169,-2.40e-02,
170,-1.08e-01,
171,-2.80e-02,
172,-2.40e-02,
173,-9.20e-02,
174,-9.60e-02,
175,-2.40e-02,
176,-9.60e-02,
177,-2.40e-02,
178,-2.80e-02,
179,-1.04e-01,
180,-2.00e-02,
181,-9.60e-02,
182,-2.80e-02,
183,-1.08e-01,
184,-2.80e-02,
185,-1.08e-01,
186,-1.04e-01,
187,-1.60e-02,
188,-2.40e-02,
189,-1.04e-01,
190,-2.80e-02,
191,-9.60e-02,
192,-1.08e-01,
193,-2.00e-02,
194,-1.00e-01,
195,-2.00e-02,
196,-2.40e-02,
197,-1.08e-01,
198,-1.00e-01,
199,-2.80e-02,
200,-1.08e-01,
201,-2.40e-02,
202,-9.60e-02,
203,-2.40e-02,
204,-2.00e-02,
205,-1.00e-01,
206,-1.04e-01,
207,-2.40e-02,
208,-1.00e-01,
209,-2.40e-02,
210,-1.04e-01,
211,-2.80e-02,
212,-2.80e-02,
213,-1.08e-01,
214,-1.00e-01,
215,-2.00e-02,
216,-2.40e-02,
217,-1.16e-01,
218,-2.80e-02,
219,-9.60e-02,
220,-1.00e-01,
221,-2.40e-02,
222,-3.20e-02,
223,-1.04e-01,
224,-1.04e-01,
225,-2.80e-02,
226,-9.60e-02,
227,-2.00e-02,
228,-1.08e-01,
229,-2.00e-02,
230,-2.40e-02,
231,-9.60e-02,
232,-1.04e-01,
233,-2.80e-02,
234,-1.04e-01,
235,-2.80e-02,
236,-9.60e-02,
237,-2.40e-02,
238,-1.08e-01,
239,-2.80e-02,
240,-1.04e-01,
241,-2.80e-02,
242,-9.20e-02,
243,-2.40e-02,
244,-2.80e-02,
245,-9.60e-02,
246,-1.08e-01,
247,-2.40e-02,
248,-2.40e-02,
249,-1.00e-01,
250,-2.40e-02,
251,-1.00e-01,
252,-9.60e-02,
253,-2.00e-02,
254,-1.00e-01,
255,-2.00e-02,
256,-1.00e-01,
257,-2.00e-02,
258,-2.40e-02,
259,-1.08e-01,
260,-9.60e-02,
261,-2.80e-02,
262,-3.20e-02,
263,-1.08e-01,
264,-1.08e-01,
265,-2.80e-02,
266,-2.00e-02,
267,-9.60e-02,
268,-1.04e-01,
269,-2.40e-02,
270,-9.60e-02,
271,-1.60e-02,
272,-2.40e-02,
273,-1.00e-01,
274,-2.80e-02,
275,-1.04e-01,
276,-2.00e-02,
277,-1.00e-01,
278,-2.40e-02,
279,-9.60e-02,
280,-1.08e-01,
281,-2.80e-02,
282,-1.00e-01,
283,-2.00e-02,
284,-1.00e-01,
285,-2.00e-02,
286,-9.60e-02,
287,-8.00e-03,
288,-9.60e-02,
289,-2.40e-02,
290,-2.40e-02,
291,-1.04e-01,
292,-2.40e-02,
293,-1.12e-01,
294,-9.60e-02,
295,-2.40e-02,
296,-1.00e-01,
297,-2.40e-02,
298,-2.00e-02,
299,-9.60e-02,
300,-1.08e-01,
301,-2.80e-02,
302,-2.40e-02,
303,-1.00e-01,
304,-1.60e-02,
305,-1.04e-01,
306,-1.12e-01,
307,-2.00e-02,
308,-1.20e-01,
309,-2.80e-02,
310,-1.00e-01,
311,-2.40e-02,
312,-1.00e-01,
313,-1.60e-02,
314,-9.20e-02,
315,-2.80e-02,
316,-2.40e-02,
317,-1.08e-01,
318,-3.20e-02,
319,-1.08e-01,
320,-1.00e-01,
321,-2.40e-02,
322,-1.04e-01,
323,-2.80e-02,
324,-2.40e-02,
325,-1.04e-01,
326,-2.00e-02,
327,-1.12e-01,
328,-2.80e-02,
329,-1.04e-01,
330,-1.08e-01,
331,-2.80e-02,
332,-2.80e-02,
333,-1.00e-01,
334,-2.80e-02,
335,-1.04e-01,
336,-1.00e-01,
337,-2.40e-02,
338,-1.04e-01,
339,-1.60e-02,
340,-9.20e-02,
341,-3.20e-02,
342,-1.20e-02,
343,-1.16e-01,
344,-1.00e-01,
345,-2.80e-02,
346,-1.04e-01,
347,-2.80e-02,
348,-3.60e-02,
349,-1.04e-01,
350,-1.04e-01,
351,-3.20e-02,
352,-1.00e-01,
353,-2.80e-02,
354,-2.40e-02,
355,-1.08e-01,
356,-1.12e-01,
357,-2.00e-02,
358,-2.40e-02,
359,-1.08e-01,
360,-1.04e-01,
361,-2.00e-02,
362,-2.80e-02,
363,-9.60e-02,
364,-2.80e-02,
365,-1.04e-01,
366,-2.40e-02,
367,-1.00e-01,
368,-2.00e-02,
369,-1.00e-01,
370,-1.24e-01,
371,-1.60e-02,
372,-2.40e-02,
373,-1.00e-01,
374,-2.00e-02,
375,-1.04e-01,
376,-1.00e-01,
377,-2.40e-02,
378,-1.08e-01,
379,-1.60e-02,
380,-1.00e-01,
381,-2.40e-02,
382,-3.20e-02,
383,-1.00e-01,
384,-3.20e-02,
385,-1.00e-01,
386,-1.20e-02,
387,-1.04e-01,
388,-3.60e-02,
389,-9.60e-02,
390,-2.80e-02,
391,-1.04e-01,
392,-1.00e-01,
393,-2.80e-02,
394,-1.04e-01,
395,-3.20e-02,
396,-2.00e-02,
397,-1.00e-01,
398,-1.20e-02,
399,-1.04e-01,
400,-1.04e-01,
401,-1.60e-02,
402,-1.04e-01,
403,-2.80e-02,
404,-1.04e-01,
405,-2.40e-02,
406,-2.80e-02,
407,-1.08e-01,
408,-1.00e-01,
409,-1.60e-02,
410,-1.00e-01,
411,-2.40e-02,
412,-1.00e-01,
413,-2.80e-02,
414,-1.00e-01,
415,-2.00e-02,
416,-2.80e-02,
417,-1.04e-01,
418,-1.04e-01,
419,-1.60e-02,
420,-1.00e-01,
421,-2.40e-02,
422,-9.60e-02,
423,-2.00e-02,
424,-2.40e-02,
425,-1.00e-01,
426,-9.20e-02,
427,-2.80e-02,
428,-9.60e-02,
429,-2.00e-02,
430,-1.04e-01,
431,-2.80e-02,
432,-2.80e-02,
433,-1.08e-01,
434,-2.00e-02,
435,-1.04e-01,
436,-1.04e-01,
437,-2.80e-02,
438,-2.80e-02,
439,-1.00e-01,
440,-2.80e-02,
441,-9.60e-02,
442,-1.12e-01,
443,-2.80e-02,
444,-1.00e-01,
445,-2.80e-02,
446,-2.80e-02,
447,-9.60e-02,
448,-2.00e-02,
449,-1.00e-01,
450,-9.60e-02,
451,-2.00e-02,
452,-2.40e-02,
453,-1.04e-01,
454,-1.60e-02,
455,-9.60e-02,
456,-1.04e-01,
457,-2.80e-02,
458,-1.00e-01,
459,-2.80e-02,
460,-2.40e-02,
461,-1.08e-01,
462,-1.04e-01,
463,-1.60e-02,
464,-2.80e-02,
465,-1.04e-01,
466,-2.80e-02,
467,-1.04e-01,
468,-1.08e-01,
469,-2.00e-02,
470,-1.08e-01,
471,-2.80e-02,
472,-2.80e-02,
473,-1.08e-01,
474,-9.60e-02,
475,-2.80e-02,
476,-1.08e-01,
477,-2.40e-02,
478,-1.60e-02,
479,-1.08e-01,
480,-2.40e-02,
481,-1.00e-01,
482,-1.00e-01,
483,-2.40e-02,
484,-1.08e-01,
485,-2.40e-02,
486,-9.20e-02,
487,-1.60e-02,
488,-2.80e-02,
489,-9.20e-02,
490,-2.80e-02,
491,-1.00e-01,
492,-1.00e-01,
493,-2.00e-02,
494,-1.04e-01,
495,-1.60e-02,
496,-2.80e-02,
497,-1.08e-01,
498,-3.60e-02,
499,-1.00e-01,
500,-2.80e-02,
501,-9.60e-02,
502,-9.20e-02,
503,-2.40e-02,
504,-1.04e-01,
505,-2.00e-02,
506,-2.80e-02,
507,-1.04e-01,
508,-2.80e-02,
509,-1.00e-01,
510,-2.80e-02,
511,-1.04e-01,
512,-3.20e-02,
513,-1.08e-01,
514,-1.60e-02,
515,-9.60e-02,
516,-9.60e-02,
517,-2.40e-02,
518,-9.20e-02,
519,-2.40e-02,
520,-1.04e-01,
521,-2.40e-02,
522,-1.04e-01,
523,-2.40e-02,
524,-9.60e-02,
525,-3.20e-02,
526,-2.80e-02,
527,-1.00e-01,
528,-1.04e-01,
529,-2.40e-02,
530,-9.20e-02,
531,-2.40e-02,
532,-2.00e-02,
533,-1.04e-01,
534,-2.80e-02,
535,-1.04e-01,
536,-2.80e-02,
537,-1.04e-01,
538,-2.80e-02,
539,-1.00e-01,
540,-1.12e-01,
541,-2.80e-02,
542,-8.00e-03,
543,-1.04e-01,
544,-9.60e-02,
545,-2.00e-02,
546,-1.00e-01,
547,-2.00e-02,
548,-3.20e-02,
549,-1.00e-01,
550,-1.00e-01,
551,-2.40e-02,
552,-2.80e-02,
553,-9.60e-02,
554,-2.40e-02,
555,-1.08e-01,
556,-2.40e-02,
557,-9.60e-02,
558,-2.80e-02,
559,-1.04e-01,
560,-1.04e-01,
561,-2.40e-02,
562,-3.20e-02,
563,-9.60e-02,
564,-1.20e-02,
565,-1.04e-01,
566,-2.80e-02,
567,-1.00e-01,
568,-1.20e-02,
569,-9.60e-02,
570,-3.20e-02,
571,-1.00e-01,
572,-2.40e-02,
573,-1.04e-01,
574,-9.20e-02,
575,-2.40e-02,
576,-9.60e-02,
577,-1.20e-02,
578,-2.80e-02,
579,-1.08e-01,
580,-1.04e-01,
581,-2.80e-02,
582,-1.04e-01,
583,-2.00e-02,
584,-2.40e-02,
585,-1.08e-01,
586,-1.00e-01,
587,-2.80e-02,
588,-2.80e-02,
589,-1.00e-01,
590,-9.20e-02,
591,-3.20e-02,
592,-2.80e-02,
593,-1.04e-01,
594,-1.20e-02,
595,-1.04e-01,
596,-1.04e-01,
597,-2.40e-02,
598,-1.08e-01,
599,-2.80e-02,
600,-3.20e-02,
601,-1.08e-01,
602,-1.60e-02,
603,-1.08e-01,
604,-2.00e-02,
605,-1.08e-01,
606,-1.20e-02,
607,-1.08e-01,
608,-9.60e-02,
609,-3.20e-02,
610,-2.80e-02,
611,-1.04e-01,
612,-2.80e-02,
613,-9.60e-02,
614,-9.60e-02,
615,-1.20e-02,
616,-1.04e-01,
617,-3.20e-02,
618,-2.40e-02,
619,-9.20e-02,
620,-2.40e-02,
621,-1.08e-01,
622,-1.00e-01,
623,-2.40e-02,
624,-2.80e-02,
625,-1.00e-01,
626,-1.12e-01,
627,-2.80e-02,
628,-2.40e-02,
629,-9.60e-02,
630,-9.60e-02,
631,-2.40e-02,
632,-1.08e-01,
633,-1.20e-02,
634,-2.40e-02,
635,-1.00e-01,
636,-1.08e-01,
637,-2.80e-02,
638,-1.04e-01,
639,-2.80e-02,
640,-1.08e-01,
641,-2.80e-02,
642,-2.40e-02,
643,-1.04e-01,
644,-1.04e-01,
645,-2.40e-02,
646,-2.40e-02,
647,-1.08e-01,
648,-1.04e-01,
649,-2.40e-02,
650,-2.00e-02,
651,-1.08e-01,
652,-3.60e-02,
653,-1.08e-01,
654,-2.40e-02,
655,-9.60e-02,
656,-2.40e-02,
657,-1.00e-01,
658,-1.00e-01,
659,-1.20e-02,
660,-1.00e-01,
661,-2.80e-02,
662,-2.80e-02,
663,-1.04e-01,
664,-2.40e-02,
665,-1.04e-01,
666,-1.08e-01,
667,-2.00e-02,
668,-1.04e-01,
669,-2.00e-02,
670,-1.00e-01,
671,-2.80e-02,
672,-9.60e-02,
673,-2.00e-02,
674,-1.04e-01,
675,-2.00e-02,
676,-2.40e-02,
677,-1.00e-01,
678,-2.00e-02,
679,-1.12e-01,
680,-2.80e-02,
681,-1.08e-01,
682,-3.20e-02,
683,-9.60e-02,
684,-2.80e-02,
685,-1.12e-01,
686,-9.20e-02,
687,-2.40e-02,
688,-3.20e-02,
689,-1.08e-01,
690,-1.04e-01,
691,-2.40e-02,
692,-2.40e-02,
693,-1.08e-01,
694,-1.00e-01,
695,-2.00e-02,
696,-2.80e-02,
697,-9.60e-02,
698,-3.20e-02,
699,-9.60e-02,
700,-1.08e-01,
701,-3.20e-02,
702,-2.00e-02,
703,-9.60e-02,
704,-4.00e-02,
705,-1.08e-01,
706,-1.00e-01,
707,-2.40e-02,
708,-2.80e-02,
709,-1.04e-01,
710,-3.20e-02,
711,-1.08e-01,
712,-2.00e-02,
713,-1.08e-01,
714,-1.04e-01,
715,-2.00e-02,
716,-1.04e-01,
717,-2.80e-02,
718,-9.20e-02,
719,-2.00e-02,
720,-1.08e-01,
721,-2.80e-02,
722,-1.08e-01,
723,-2.40e-02,
724,-3.20e-02,
725,-9.20e-02,
726,-1.04e-01,
727,-2.80e-02,
728,-1.08e-01,
729,-2.40e-02,
730,-1.00e-01,
731,-2.80e-02,
732,-9.20e-02,
733,-1.20e-02,
734,-9.60e-02,
735,-1.60e-02,
736,-2.40e-02,
737,-1.08e-01,
738,-2.80e-02,
739,-1.04e-01,
740,-2.80e-02,
741,-1.04e-01,
742,-8.80e-02,
743,-2.00e-02,
744,-1.08e-01,
745,-2.40e-02,
746,-2.80e-02,
747,-1.04e-01,
748,-1.00e-01,
749,-2.40e-02,
750,-1.04e-01,
751,-2.80e-02,
752,-3.20e-02,
753,-9.60e-02,
754,-2.40e-02,
755,-1.12e-01,
756,-2.40e-02,
757,-9.60e-02,
758,-2.40e-02,
759,-1.00e-01,
760,-1.00e-01,
761,-1.20e-02,
762,-2.80e-02,
763,-1.04e-01,
764,-9.60e-02,
765,-2.40e-02,
766,-2.00e-02,
767,-9.20e-02,
768,-2.40e-02,
769,-1.04e-01,
770,-1.00e-01,
771,-2.40e-02,
772,-2.80e-02,
773,-1.00e-01,
774,-2.40e-02,
775,-9.20e-02,
776,-1.00e-01,
777,-3.20e-02,
778,-2.40e-02,
779,-1.08e-01,
780,-2.00e-02,
781,-1.04e-01,
782,-4.00e-02,
783,-1.04e-01,
784,-1.08e-01,
785,-2.80e-02,
786,-2.40e-02,
787,-9.60e-02,
788,-1.08e-01,
789,-8.00e-03,
790,-2.80e-02,
791,-1.00e-01,
792,-1.20e-02,
793,-1.24e-01,
794,-2.00e-02,
795,-1.00e-01,
796,-2.40e-02,
797,-1.04e-01,
798,-3.20e-02,
799,-1.00e-01,
800,-9.60e-02,
801,-2.40e-02,
802,-2.80e-02,
803,-1.04e-01,
804,-9.20e-02,
805,-2.40e-02,
806,-1.20e-02,
807,-9.60e-02,
808,-9.60e-02,
809,-2.80e-02,
810,-2.40e-02,
811,-1.16e-01,
812,-2.00e-02,
813,-1.08e-01,
814,-1.08e-01,
815,-2.40e-02,
816,-1.04e-01,
817,-2.80e-02,
818,-2.80e-02,
819,-9.60e-02,
820,-2.40e-02,
821,-1.08e-01,
822,-3.20e-02,
823,-1.04e-01,
824,-1.00e-01,
825,-2.80e-02,
826,-1.00e-01,
827,-2.80e-02,
828,-9.20e-02,
829,-2.80e-02,
830,-1.00e-01,
831,-3.20e-02,
832,-2.80e-02,
833,-1.08e-01,
834,-2.40e-02,
835,-1.04e-01,
836,-1.60e-02,
837,-1.04e-01,
838,-1.08e-01,
839,-2.00e-02,
840,-1.08e-01,
841,-1.20e-02,
842,-2.00e-02,
843,-1.08e-01,
844,-2.80e-02,
845,-1.04e-01,
846,-2.40e-02,
847,-1.04e-01,
848,-2.40e-02,
849,-1.04e-01,
850,-9.60e-02,
851,-1.20e-02,
852,-2.40e-02,
853,-1.00e-01,
854,-1.04e-01,
855,-2.40e-02,
856,-2.00e-02,
857,-1.08e-01,
858,-9.60e-02,
859,-3.20e-02,
860,-1.20e-02,
861,-1.04e-01,
862,-2.00e-02,
863,-1.08e-01,
864,-9.60e-02,
865,-1.60e-02,
866,-9.60e-02,
867,-2.40e-02,
868,-2.00e-02,
869,-1.16e-01,
870,-1.04e-01,
871,-2.80e-02,
872,-1.00e-01,
873,-2.00e-02,
874,-9.60e-02,
875,-2.40e-02,
876,-2.80e-02,
877,-9.20e-02,
878,-2.00e-02,
879,-1.00e-01,
880,-2.40e-02,
881,-1.04e-01,
882,-2.80e-02,
883,-9.60e-02,
884,-1.60e-02,
885,-1.08e-01,
886,-1.00e-01,
887,-2.40e-02,
888,-1.08e-01,
889,-3.20e-02,
890,-2.00e-02,
891,-1.00e-01,
892,-9.20e-02,
893,-2.00e-02,
894,-2.80e-02,
895,-1.00e-01,
896,-1.08e-01,
897,-2.40e-02,
898,-1.00e-01,
899,-2.80e-02,
900,-1.00e-01,
901,-2.40e-02,
902,-2.40e-02,
903,-1.12e-01,
904,-2.40e-02,
905,-1.00e-01,
906,-9.60e-02,
907,-2.00e-02,
908,-2.40e-02,
909,-1.04e-01,
910,-2.80e-02,
911,-9.60e-02,
912,-2.80e-02,
913,-1.00e-01,
914,-9.20e-02,
915,-2.80e-02,
916,-1.00e-01,
917,-3.20e-02,
918,-1.04e-01,
919,-3.20e-02,
920,-1.00e-01,
921,-1.20e-02,
922,-2.80e-02,
923,-1.04e-01,
924,-2.80e-02,
925,-1.08e-01,
926,-2.40e-02,
927,-1.00e-01,
928,-2.40e-02,
929,-1.04e-01,
930,-1.00e-01,
931,-2.00e-02,
932,-1.04e-01,
933,-1.20e-02,
934,-2.80e-02,
935,-1.08e-01,
936,-2.40e-02,
937,-1.04e-01,
938,-1.00e-01,
939,-2.00e-02,
940,-1.08e-01,
941,-2.00e-02,
942,-1.00e-01,
943,-2.80e-02,
944,-2.80e-02,
945,-1.08e-01,
946,-2.40e-02,
947,-1.04e-01,
948,-2.40e-02,
949,-1.08e-01,
950,-9.60e-02,
951,-2.40e-02,
952,-1.04e-01,
953,-2.40e-02,
954,-2.80e-02,
955,-1.08e-01,
956,-1.00e-01,
957,-2.80e-02,
958,-2.80e-02,
959,-1.04e-01,
960,-1.08e-01,
961,-2.40e-02,
962,-1.00e-01,
963,-2.80e-02,
964,-2.80e-02,
965,-9.60e-02,
966,-1.00e-01,
967,-2.40e-02,
968,-2.80e-02,
969,-1.08e-01,
970,-2.40e-02,
971,-1.04e-01,
972,-3.20e-02,
973,-9.20e-02,
974,-2.00e-02,
975,-1.04e-01,
976,-3.20e-02,
977,-1.00e-01,
978,-2.80e-02,
979,-1.12e-01,
980,-1.08e-01,
981,-1.20e-02,
982,-2.80e-02,
983,-1.08e-01,
984,-2.80e-02,
985,-9.20e-02,
986,-1.08e-01,
987,-2.40e-02,
988,-3.20e-02,
989,-1.16e-01,
990,-2.40e-02,
991,-9.20e-02,
992,-3.20e-02,
993,-1.04e-01,
994,-2.40e-02,
995,-1.08e-01,
996,-1.60e-02,
997,-9.60e-02,
998,-2.00e-02,
999,-1.04e-01,
1000,-9.60e-02,
1001,-2.80e-02,
1002,-9.60e-02,
1003,-2.40e-02,
1004,-2.80e-02,
1005,-1.04e-01,
1006,-1.00e-01,
1007,-3.20e-02,
1008,-2.40e-02,
1009,-1.20e-01,
1010,-1.00e-01,
1011,-2.80e-02,
1012,-3.20e-02,
1013,-1.04e-01,
1014,-2.80e-02,
1015,-1.04e-01,
1016,-1.04e-01,
1017,-2.40e-02,
1018,-2.00e-02,
1019,-1.08e-01,
1020,-9.60e-02,
1021,-2.40e-02,
1022,-1.60e-02,
1023,-1.04e-01,
1024,-1.20e-01,
1025,-2.40e-02,
1026,-3.20e-02,
1027,-1.00e-01,
1028,-1.08e-01,
1029,-2.80e-02,
1030,-2.80e-02,
1031,-1.04e-01,
1032,-1.04e-01,
1033,-2.00e-02,
1034,-1.04e-01,
1035,-2.40e-02,
1036,-1.04e-01,
1037,-3.20e-02,
1038,-2.40e-02,
1039,-1.04e-01,
1040,-1.04e-01,
1041,-2.80e-02,
1042,-9.20e-02,
1043,-2.00e-02,
1044,-2.40e-02,
1045,-1.04e-01,
1046,-1.00e-01,
1047,-1.20e-02,
1048,-1.08e-01,
1049,-2.40e-02,
1050,-1.04e-01,
1051,-3.60e-02,
1052,-9.20e-02,
1053,-2.00e-02,
1054,-2.40e-02,
1055,-1.04e-01,
1056,-9.60e-02,
1057,-2.00e-02,
1058,-2.40e-02,
1059,-1.04e-01,
1060,-2.80e-02,
1061,-9.60e-02,
1062,-9.20e-02,
1063,-2.40e-02,
1064,-2.40e-02,
1065,-1.00e-01,
1066,-2.00e-02,
1067,-1.08e-01,
1068,-9.60e-02,
1069,-2.80e-02,
1070,-1.00e-01,
1071,-2.80e-02,
1072,-1.04e-01,
1073,-2.00e-02,
1074,-1.04e-01,
1075,-2.80e-02,
1076,-9.60e-02,
1077,-2.00e-02,
1078,-3.20e-02,
1079,-1.00e-01,
1080,-1.00e-01,
1081,-2.00e-02,
1082,-3.60e-02,
1083,-9.60e-02,
1084,-1.00e-01,
1085,-2.00e-02,
1086,-2.40e-02,
1087,-1.00e-01,
1088,-3.60e-02,
1089,-9.60e-02,
1090,-9.60e-02,
1091,-2.80e-02,
1092,-9.60e-02,
1093,-2.80e-02,
1094,-1.60e-02,
1095,-9.60e-02,
1096,-1.08e-01,
1097,-2.80e-02,
1098,-1.00e-01,
1099,-2.80e-02,
1100,-2.00e-02,
1101,-1.00e-01,
1102,-2.40e-02,
1103,-1.04e-01,
1104,-1.12e-01,
1105,-2.40e-02,
1106,-3.20e-02,
1107,-1.12e-01,
1108,-9.60e-02,
1109,-2.80e-02,
1110,-2.40e-02,
1111,-1.04e-01,
1112,-2.00e-02,
1113,-1.00e-01,
1114,-1.00e-01,
1115,-2.40e-02,
1116,-1.08e-01,
1117,-2.40e-02,
1118,-2.80e-02,
1119,-1.12e-01,
1120,-2.00e-02,
1121,-9.60e-02,
1122,-1.00e-01,
1123,-2.40e-02,
1124,-2.80e-02,
1125,-9.60e-02,
1126,-1.04e-01,
1127,-2.80e-02,
1128,-9.60e-02,
1129,-2.80e-02,
1130,-3.60e-02,
1131,-9.60e-02,
1132,-3.20e-02,
1133,-1.00e-01,
1134,-1.20e-02,
1135,-1.08e-01,
1136,-2.80e-02,
1137,-1.08e-01,
1138,-2.40e-02,
1139,-1.00e-01,
1140,-2.80e-02,
1141,-1.04e-01,
1142,-1.08e-01,
1143,-2.00e-02,
1144,-1.00e-01,
1145,-2.80e-02,
1146,-2.80e-02,
1147,-1.00e-01,
1148,-1.60e-02,
1149,-9.60e-02,
1150,-2.80e-02,
1151,-1.00e-01,
1152,-2.80e-02,
1153,-1.04e-01,
1154,-2.80e-02,
1155,-1.08e-01,
1156,-2.80e-02,
1157,-1.04e-01,
1158,-1.04e-01,
1159,-2.40e-02,
1160,-1.08e-01,
1161,-2.80e-02,
1162,-2.80e-02,
1163,-9.60e-02,
1164,-1.00e-01,
1165,-2.80e-02,
1166,-1.08e-01,
1167,-2.80e-02,
1168,-2.40e-02,
1169,-1.00e-01,
1170,-2.80e-02,
1171,-1.12e-01,
1172,-1.04e-01,
1173,-2.80e-02,
1174,-2.80e-02,
1175,-1.00e-01,
1176,-9.60e-02,
1177,-1.60e-02,
1178,-2.40e-02,
1179,-1.12e-01,
1180,-2.80e-02,
1181,-1.00e-01,
1182,-2.80e-02,
1183,-1.04e-01,
1184,-9.60e-02,
1185,-2.40e-02,
1186,-1.00e-01,
1187,-2.80e-02,
1188,-2.00e-02,
1189,-1.00e-01,
1190,-1.00e-01,
1191,-2.80e-02,
1192,-1.00e-01,
1193,-2.40e-02,
1194,-1.20e-02,
1195,-1.00e-01,
1196,-2.80e-02,
1197,-1.04e-01,
1198,-1.08e-01,
1199,-2.40e-02,
