fastdiffamp/data-noise-set/bal-mean/NewFile6.csv

X,CH1,Start,Increment,
Sequence,Volt,-5.990000e+00,1.000000e-02
0,-1.76e-01,
1,-9.60e-02,
2,-9.60e-02,
3,-1.72e-01,
4,-8.40e-02,
5,-1.72e-01,
6,-1.64e-01,
7,-1.00e-01,
8,-1.00e-01,
9,-1.60e-01,
10,-9.60e-02,
11,-1.72e-01,
12,-9.60e-02,
13,-1.72e-01,
14,-1.00e-01,
15,-1.80e-01,
16,-1.76e-01,
17,-8.80e-02,
18,-1.72e-01,
19,-1.00e-01,
20,-8.00e-02,
21,-1.64e-01,
22,-1.72e-01,
23,-1.04e-01,
24,-1.68e-01,
25,-1.00e-01,
26,-1.64e-01,
27,-9.60e-02,
28,-1.76e-01,
29,-9.60e-02,
30,-1.64e-01,
31,-9.60e-02,
32,-1.00e-01,
33,-1.84e-01,
34,-1.64e-01,
35,-9.20e-02,
36,-1.76e-01,
37,-9.20e-02,
38,-1.64e-01,
39,-8.80e-02,
40,-1.64e-01,
41,-1.00e-01,
42,-1.00e-01,
43,-1.76e-01,
44,-9.60e-02,
45,-1.68e-01,
46,-9.60e-02,
47,-1.76e-01,
48,-9.20e-02,
49,-1.88e-01,
50,-1.76e-01,
51,-9.60e-02,
52,-1.72e-01,
53,-8.80e-02,
54,-1.00e-01,
55,-1.76e-01,
56,-1.76e-01,
57,-9.20e-02,
58,-9.20e-02,
59,-1.72e-01,
60,-1.72e-01,
61,-9.60e-02,
62,-1.00e-01,
63,-1.84e-01,
64,-1.00e-01,
65,-1.64e-01,
66,-8.40e-02,
67,-1.64e-01,
68,-1.64e-01,
69,-7.60e-02,
70,-1.00e-01,
71,-1.72e-01,
72,-1.68e-01,
73,-9.20e-02,
74,-8.80e-02,
75,-1.64e-01,
76,-1.04e-01,
77,-1.76e-01,
78,-1.72e-01,
79,-9.60e-02,
80,-8.80e-02,
81,-1.80e-01,
82,-1.00e-01,
83,-1.68e-01,
84,-1.00e-01,
85,-1.68e-01,
86,-9.20e-02,
87,-1.76e-01,
88,-9.20e-02,
89,-1.72e-01,
90,-1.68e-01,
91,-8.80e-02,
92,-1.00e-01,
93,-1.72e-01,
94,-1.00e-01,
95,-1.80e-01,
96,-9.60e-02,
97,-1.72e-01,
98,-1.64e-01,
99,-9.20e-02,
100,-9.60e-02,
101,-1.72e-01,
102,-1.72e-01,
103,-1.04e-01,
104,-1.76e-01,
105,-9.60e-02,
106,-1.72e-01,
107,-1.00e-01,
108,-1.76e-01,
109,-9.20e-02,
110,-1.76e-01,
111,-9.20e-02,
112,-8.40e-02,
113,-1.68e-01,
114,-1.80e-01,
115,-9.20e-02,
116,-1.00e-01,
117,-1.80e-01,
118,-1.68e-01,
119,-8.40e-02,
120,-1.76e-01,
121,-9.60e-02,
122,-9.60e-02,
123,-1.72e-01,
124,-9.60e-02,
125,-1.72e-01,
126,-1.00e-01,
127,-1.76e-01,
128,-1.84e-01,
129,-9.60e-02,
130,-1.04e-01,
131,-1.76e-01,
132,-1.00e-01,
133,-1.80e-01,
134,-1.80e-01,
135,-8.80e-02,
136,-1.04e-01,
137,-1.72e-01,
138,-1.00e-01,
139,-1.88e-01,
140,-1.80e-01,
141,-1.00e-01,
142,-1.64e-01,
143,-8.00e-02,
144,-1.68e-01,
145,-9.60e-02,
146,-1.00e-01,
147,-1.84e-01,
148,-1.76e-01,
149,-9.60e-02,
150,-1.00e-01,
151,-1.76e-01,
152,-1.08e-01,
153,-1.92e-01,
154,-1.00e-01,
155,-1.80e-01,
156,-1.76e-01,
157,-1.04e-01,
158,-1.80e-01,
159,-1.00e-01,
160,-1.80e-01,
161,-9.60e-02,
162,-1.76e-01,
163,-1.00e-01,
164,-1.80e-01,
165,-1.08e-01,
166,-1.72e-01,
167,-1.08e-01,
168,-1.76e-01,
169,-8.80e-02,
170,-1.80e-01,
171,-9.20e-02,
172,-1.76e-01,
173,-9.20e-02,
174,-1.04e-01,
175,-1.80e-01,
176,-9.20e-02,
177,-1.72e-01,
178,-1.80e-01,
179,-1.04e-01,
180,-1.84e-01,
181,-9.60e-02,
182,-1.00e-01,
183,-1.84e-01,
184,-1.00e-01,
185,-1.84e-01,
186,-1.00e-01,
187,-1.76e-01,
188,-1.72e-01,
189,-1.00e-01,
190,-9.60e-02,
191,-1.80e-01,
192,-9.20e-02,
193,-1.84e-01,
194,-1.72e-01,
195,-1.00e-01,
196,-1.76e-01,
197,-9.60e-02,
198,-1.00e-01,
199,-1.72e-01,
200,-9.60e-02,
201,-1.72e-01,
202,-9.20e-02,
203,-1.68e-01,
204,-1.00e-01,
205,-1.76e-01,
206,-9.20e-02,
207,-1.72e-01,
208,-9.60e-02,
209,-1.68e-01,
210,-1.68e-01,
211,-9.20e-02,
212,-1.68e-01,
213,-9.60e-02,
214,-9.20e-02,
215,-1.76e-01,
216,-1.64e-01,
217,-9.60e-02,
218,-8.00e-02,
219,-1.76e-01,
220,-1.64e-01,
221,-9.60e-02,
222,-1.00e-01,
223,-1.68e-01,
224,-1.80e-01,
225,-9.20e-02,
226,-1.64e-01,
227,-9.60e-02,
228,-1.72e-01,
229,-9.60e-02,
230,-8.80e-02,
231,-1.68e-01,
232,-9.60e-02,
233,-1.72e-01,
234,-9.20e-02,
235,-1.64e-01,
236,-1.00e-01,
237,-1.68e-01,
238,-1.72e-01,
239,-9.20e-02,
240,-1.00e-01,
241,-1.68e-01,
242,-1.72e-01,
243,-9.60e-02,
244,-1.00e-01,
245,-1.68e-01,
246,-1.76e-01,
247,-9.60e-02,
248,-1.64e-01,
249,-9.60e-02,
250,-9.20e-02,
251,-1.76e-01,
252,-1.76e-01,
253,-8.00e-02,
254,-8.80e-02,
255,-1.64e-01,
256,-1.64e-01,
257,-8.80e-02,
258,-9.60e-02,
259,-1.76e-01,
260,-9.20e-02,
261,-1.76e-01,
262,-1.64e-01,
263,-8.80e-02,
264,-8.80e-02,
265,-1.72e-01,
266,-1.72e-01,
267,-9.60e-02,
268,-9.60e-02,
269,-1.72e-01,
270,-1.64e-01,
271,-1.00e-01,
272,-9.60e-02,
273,-1.64e-01,
274,-9.60e-02,
275,-1.64e-01,
276,-9.20e-02,
277,-1.68e-01,
278,-1.80e-01,
279,-8.40e-02,
280,-1.64e-01,
281,-9.20e-02,
282,-1.68e-01,
283,-9.20e-02,
284,-1.76e-01,
285,-9.60e-02,
286,-1.76e-01,
287,-8.40e-02,
288,-1.80e-01,
289,-9.60e-02,
290,-1.00e-01,
291,-1.68e-01,
292,-8.40e-02,
293,-1.64e-01,
294,-1.60e-01,
295,-9.60e-02,
296,-8.80e-02,
297,-1.72e-01,
298,-1.72e-01,
299,-9.20e-02,
300,-1.72e-01,
301,-9.20e-02,
302,-1.76e-01,
303,-9.60e-02,
304,-9.60e-02,
305,-1.72e-01,
306,-9.20e-02,
307,-1.72e-01,
308,-9.20e-02,
309,-1.72e-01,
310,-9.20e-02,
311,-1.68e-01,
312,-1.72e-01,
313,-9.20e-02,
314,-1.72e-01,
315,-9.60e-02,
316,-9.20e-02,
317,-1.72e-01,
318,-9.60e-02,
319,-1.80e-01,
320,-1.72e-01,
321,-9.20e-02,
322,-1.72e-01,
323,-1.00e-01,
324,-1.00e-01,
325,-1.88e-01,
326,-1.00e-01,
327,-1.72e-01,
328,-1.68e-01,
329,-9.20e-02,
330,-9.20e-02,
331,-1.76e-01,
332,-9.20e-02,
333,-1.72e-01,
334,-9.20e-02,
335,-1.76e-01,
336,-1.64e-01,
337,-9.20e-02,
338,-1.76e-01,
339,-9.60e-02,
340,-1.00e-01,
341,-1.64e-01,
342,-9.60e-02,
343,-1.80e-01,
344,-1.00e-01,
345,-1.68e-01,
346,-1.76e-01,
347,-8.80e-02,
348,-1.76e-01,
349,-9.20e-02,
350,-8.80e-02,
351,-1.72e-01,
352,-1.64e-01,
353,-9.60e-02,
354,-1.76e-01,
355,-1.00e-01,
356,-9.20e-02,
357,-1.72e-01,
358,-1.84e-01,
359,-1.00e-01,
360,-9.60e-02,
361,-1.80e-01,
362,-9.20e-02,
363,-1.68e-01,
364,-9.60e-02,
365,-1.72e-01,
366,-1.64e-01,
367,-1.00e-01,
368,-1.76e-01,
369,-9.20e-02,
370,-1.00e-01,
371,-1.72e-01,
372,-1.76e-01,
373,-9.60e-02,
374,-1.72e-01,
375,-9.20e-02,
376,-9.60e-02,
377,-1.76e-01,
378,-9.60e-02,
379,-1.76e-01,
380,-9.20e-02,
381,-1.76e-01,
382,-1.00e-01,
383,-1.76e-01,
384,-1.68e-01,
385,-8.40e-02,
386,-1.76e-01,
387,-8.80e-02,
388,-1.72e-01,
389,-1.00e-01,
390,-9.20e-02,
391,-1.72e-01,
392,-1.00e-01,
393,-1.72e-01,
394,-1.88e-01,
395,-9.20e-02,
396,-9.20e-02,
397,-1.68e-01,
398,-9.60e-02,
399,-1.84e-01,
400,-9.60e-02,
401,-1.64e-01,
402,-1.76e-01,
403,-9.60e-02,
404,-1.00e-01,
405,-1.72e-01,
406,-1.00e-01,
407,-1.76e-01,
408,-9.20e-02,
409,-1.72e-01,
410,-1.00e-01,
411,-1.76e-01,
412,-1.00e-01,
413,-1.72e-01,
414,-1.80e-01,
415,-1.00e-01,
416,-9.60e-02,
417,-1.76e-01,
418,-9.60e-02,
419,-1.64e-01,
420,-1.04e-01,
421,-1.64e-01,
422,-1.72e-01,
423,-9.20e-02,
424,-1.00e-01,
425,-1.72e-01,
426,-1.68e-01,
427,-9.60e-02,
428,-9.60e-02,
429,-1.68e-01,
430,-1.60e-01,
431,-8.00e-02,
432,-1.72e-01,
433,-9.60e-02,
434,-1.04e-01,
435,-1.68e-01,
436,-1.68e-01,
437,-8.40e-02,
438,-9.20e-02,
439,-1.68e-01,
440,-9.60e-02,
441,-1.72e-01,
442,-1.80e-01,
443,-9.20e-02,
444,-9.20e-02,
445,-1.72e-01,
446,-8.80e-02,
447,-1.72e-01,
448,-1.76e-01,
449,-8.80e-02,
450,-1.68e-01,
451,-9.60e-02,
452,-1.00e-01,
453,-1.68e-01,
454,-9.20e-02,
455,-1.72e-01,
456,-9.60e-02,
457,-1.72e-01,
458,-1.68e-01,
459,-9.20e-02,
460,-8.80e-02,
461,-1.88e-01,
462,-8.00e-02,
463,-1.80e-01,
464,-9.20e-02,
465,-1.72e-01,
466,-1.72e-01,
467,-9.60e-02,
468,-9.60e-02,
469,-1.76e-01,
470,-1.04e-01,
471,-1.68e-01,
472,-1.80e-01,
473,-8.80e-02,
474,-1.00e-01,
475,-1.68e-01,
476,-9.20e-02,
477,-1.72e-01,
478,-1.76e-01,
479,-1.00e-01,
480,-1.00e-01,
481,-1.72e-01,
482,-1.72e-01,
483,-9.20e-02,
484,-1.60e-01,
485,-9.60e-02,
486,-1.00e-01,
487,-1.72e-01,
488,-9.60e-02,
489,-1.80e-01,
490,-9.20e-02,
491,-1.64e-01,
492,-1.72e-01,
493,-9.20e-02,
494,-9.20e-02,
495,-1.64e-01,
496,-9.20e-02,
497,-1.80e-01,
498,-1.84e-01,
499,-9.60e-02,
500,-1.64e-01,
501,-9.20e-02,
502,-8.00e-02,
503,-1.68e-01,
504,-9.60e-02,
505,-1.76e-01,
506,-1.64e-01,
507,-1.00e-01,
508,-1.76e-01,
509,-9.60e-02,
510,-9.60e-02,
511,-1.68e-01,
512,-1.80e-01,
513,-8.80e-02,
514,-1.72e-01,
515,-9.60e-02,
516,-1.72e-01,
517,-8.00e-02,
518,-1.80e-01,
519,-8.80e-02,
520,-1.64e-01,
521,-9.60e-02,
522,-8.00e-02,
523,-1.84e-01,
524,-9.20e-02,
525,-1.64e-01,
526,-1.72e-01,
527,-9.20e-02,
528,-9.20e-02,
529,-1.68e-01,
530,-9.60e-02,
531,-1.80e-01,
532,-1.68e-01,
533,-9.60e-02,
534,-9.20e-02,
535,-1.76e-01,
536,-9.60e-02,
537,-1.68e-01,
538,-9.60e-02,
539,-1.80e-01,
540,-8.80e-02,
541,-1.72e-01,
542,-1.60e-01,
543,-9.20e-02,
544,-9.60e-02,
545,-1.72e-01,
546,-1.00e-01,
547,-1.76e-01,
548,-1.72e-01,
549,-1.00e-01,
550,-9.60e-02,
551,-1.64e-01,
552,-1.00e-01,
553,-1.76e-01,
554,-1.04e-01,
555,-1.84e-01,
556,-1.68e-01,
557,-9.20e-02,
558,-1.76e-01,
559,-8.40e-02,
560,-1.00e-01,
561,-1.72e-01,
562,-9.60e-02,
563,-1.76e-01,
564,-8.00e-02,
565,-1.64e-01,
566,-1.64e-01,
567,-9.20e-02,
568,-1.00e-01,
569,-1.76e-01,
570,-9.60e-02,
571,-1.84e-01,
572,-1.64e-01,
573,-8.40e-02,
574,-1.00e-01,
575,-1.68e-01,
576,-7.60e-02,
577,-1.64e-01,
578,-9.60e-02,
579,-1.76e-01,
580,-1.00e-01,
581,-1.64e-01,
582,-1.00e-01,
583,-1.68e-01,
584,-1.00e-01,
585,-1.72e-01,
586,-9.20e-02,
587,-1.64e-01,
588,-9.20e-02,
589,-1.64e-01,
590,-1.72e-01,
591,-8.80e-02,
592,-9.20e-02,
593,-1.72e-01,
594,-1.64e-01,
595,-9.20e-02,
596,-9.60e-02,
597,-1.72e-01,
598,-1.00e-01,
599,-1.68e-01,
600,-9.60e-02,
601,-1.76e-01,
602,-1.72e-01,
603,-9.60e-02,
604,-1.00e-01,
605,-1.72e-01,
606,-8.40e-02,
607,-1.72e-01,
608,-9.20e-02,
609,-1.72e-01,
610,-9.20e-02,
611,-1.76e-01,
612,-9.60e-02,
613,-1.76e-01,
614,-1.64e-01,
615,-9.20e-02,
616,-9.20e-02,
617,-1.68e-01,
618,-1.64e-01,
619,-1.00e-01,
620,-1.80e-01,
621,-9.20e-02,
622,-9.60e-02,
623,-1.80e-01,
624,-9.60e-02,
625,-1.72e-01,
626,-1.76e-01,
627,-9.60e-02,
628,-9.60e-02,
629,-1.60e-01,
630,-1.60e-01,
631,-9.60e-02,
632,-1.80e-01,
633,-8.80e-02,
634,-9.60e-02,
635,-1.72e-01,
636,-9.60e-02,
637,-1.68e-01,
638,-1.64e-01,
639,-9.20e-02,
640,-1.64e-01,
641,-9.60e-02,
642,-9.60e-02,
643,-1.80e-01,
644,-1.72e-01,
645,-9.20e-02,
646,-9.60e-02,
647,-1.76e-01,
648,-8.80e-02,
649,-1.64e-01,
650,-1.00e-01,
651,-1.64e-01,
652,-1.60e-01,
653,-9.60e-02,
654,-1.60e-01,
655,-9.60e-02,
656,-9.60e-02,
657,-1.72e-01,
658,-8.80e-02,
659,-1.68e-01,
660,-9.60e-02,
661,-1.76e-01,
662,-1.64e-01,
663,-9.60e-02,
664,-8.40e-02,
665,-1.68e-01,
666,-1.80e-01,
667,-9.60e-02,
668,-1.64e-01,
669,-9.60e-02,
670,-9.60e-02,
671,-1.72e-01,
672,-1.72e-01,
673,-1.00e-01,
674,-1.56e-01,
675,-1.00e-01,
676,-1.68e-01,
677,-9.20e-02,
678,-1.76e-01,
679,-8.80e-02,
680,-1.76e-01,
681,-9.60e-02,
682,-9.60e-02,
683,-1.88e-01,
684,-9.20e-02,
685,-1.72e-01,
686,-9.60e-02,
687,-1.80e-01,
688,-8.40e-02,
689,-1.64e-01,
690,-1.00e-01,
691,-1.80e-01,
692,-1.00e-01,
693,-1.80e-01,
694,-1.84e-01,
695,-9.60e-02,
696,-1.68e-01,
697,-8.80e-02,
698,-1.76e-01,
699,-8.80e-02,
700,-1.88e-01,
701,-9.60e-02,
702,-1.72e-01,
703,-8.80e-02,
704,-9.60e-02,
705,-1.72e-01,
706,-9.20e-02,
707,-1.76e-01,
708,-9.60e-02,
709,-1.80e-01,
710,-9.60e-02,
711,-1.76e-01,
712,-1.00e-01,
713,-1.72e-01,
714,-8.40e-02,
715,-1.68e-01,
716,-1.64e-01,
717,-9.60e-02,
718,-8.80e-02,
719,-1.64e-01,
720,-1.80e-01,
721,-9.60e-02,
722,-9.60e-02,
723,-1.68e-01,
724,-9.60e-02,
725,-1.80e-01,
726,-9.60e-02,
727,-1.80e-01,
728,-9.60e-02,
729,-1.72e-01,
730,-9.20e-02,
731,-1.64e-01,
732,-8.40e-02,
733,-1.68e-01,
734,-1.00e-01,
735,-1.64e-01,
736,-1.72e-01,
737,-9.60e-02,
738,-1.68e-01,
739,-9.60e-02,
740,-9.60e-02,
741,-1.72e-01,
742,-9.20e-02,
743,-1.72e-01,
744,-1.76e-01,
745,-1.00e-01,
746,-9.20e-02,
747,-1.72e-01,
748,-1.76e-01,
749,-9.60e-02,
750,-1.80e-01,
751,-8.80e-02,
752,-9.60e-02,
753,-1.80e-01,
754,-9.60e-02,
755,-1.88e-01,
756,-9.20e-02,
757,-1.76e-01,
758,-9.60e-02,
759,-1.64e-01,
760,-1.76e-01,
761,-9.60e-02,
762,-1.68e-01,
763,-9.20e-02,
764,-1.64e-01,
765,-1.00e-01,
766,-1.76e-01,
767,-9.60e-02,
768,-1.72e-01,
769,-9.20e-02,
770,-1.68e-01,
771,-9.20e-02,
772,-1.64e-01,
773,-8.00e-02,
774,-9.20e-02,
775,-1.64e-01,
776,-9.60e-02,
777,-1.72e-01,
778,-1.72e-01,
779,-9.20e-02,
780,-9.60e-02,
781,-1.76e-01,
782,-1.80e-01,
783,-9.60e-02,
784,-9.60e-02,
785,-1.76e-01,
786,-1.72e-01,
787,-9.20e-02,
788,-9.60e-02,
789,-1.76e-01,
790,-1.68e-01,
791,-9.60e-02,
792,-9.60e-02,
793,-1.92e-01,
794,-9.20e-02,
795,-1.72e-01,
796,-9.20e-02,
797,-1.84e-01,
798,-8.40e-02,
799,-1.68e-01,
800,-8.40e-02,
801,-1.72e-01,
802,-1.68e-01,
803,-1.00e-01,
804,-9.20e-02,
805,-1.76e-01,
806,-1.64e-01,
807,-9.20e-02,
808,-1.76e-01,
809,-8.80e-02,
810,-1.68e-01,
811,-1.00e-01,
812,-9.60e-02,
813,-1.76e-01,
814,-9.60e-02,
815,-1.80e-01,
816,-1.76e-01,
817,-9.60e-02,
818,-9.20e-02,
819,-1.88e-01,
820,-1.76e-01,
821,-8.40e-02,
822,-9.60e-02,
823,-1.72e-01,
824,-1.72e-01,
825,-8.40e-02,
826,-1.00e-01,
827,-1.80e-01,
828,-1.76e-01,
829,-9.20e-02,
830,-1.64e-01,
831,-8.80e-02,
832,-8.80e-02,
833,-1.68e-01,
834,-9.60e-02,
835,-1.76e-01,
836,-1.64e-01,
837,-9.20e-02,
838,-1.64e-01,
839,-8.00e-02,
840,-1.84e-01,
841,-9.20e-02,
842,-1.76e-01,
843,-9.20e-02,
844,-1.84e-01,
845,-8.40e-02,
846,-1.68e-01,
847,-9.60e-02,
848,-1.00e-01,
849,-1.68e-01,
850,-1.80e-01,
851,-9.20e-02,
852,-1.76e-01,
853,-7.60e-02,
854,-9.20e-02,
855,-1.76e-01,
856,-9.60e-02,
857,-1.64e-01,
858,-1.64e-01,
859,-8.80e-02,
860,-9.60e-02,
861,-1.72e-01,
862,-6.20e-01,
863,-8.80e-02,
864,-9.60e-02,
865,-1.80e-01,
866,-1.76e-01,
867,-9.20e-02,
868,-8.80e-02,
869,-1.76e-01,
870,-8.40e-02,
871,-1.80e-01,
872,-1.84e-01,
873,-9.60e-02,
874,-9.60e-02,
875,-1.80e-01,
876,-9.60e-02,
877,-1.80e-01,
878,-1.72e-01,
879,-9.60e-02,
880,-1.72e-01,
881,-8.80e-02,
882,-1.72e-01,
883,-9.20e-02,
884,-1.00e-01,
885,-1.68e-01,
886,-1.80e-01,
887,-9.60e-02,
888,-9.60e-02,
889,-1.72e-01,
890,-1.72e-01,
891,-9.20e-02,
892,-1.00e-01,
893,-1.80e-01,
894,-9.60e-02,
895,-1.76e-01,
896,-1.00e-01,
897,-1.76e-01,
898,-1.76e-01,
899,-1.04e-01,
900,-9.20e-02,
901,-1.68e-01,
902,-1.76e-01,
903,-9.60e-02,
904,-1.72e-01,
905,-9.20e-02,
906,-1.72e-01,
907,-9.60e-02,
908,-1.76e-01,
909,-9.60e-02,
910,-1.72e-01,
911,-8.80e-02,
912,-1.76e-01,
913,-9.20e-02,
914,-1.76e-01,
915,-8.80e-02,
916,-9.60e-02,
917,-1.80e-01,
918,-8.80e-02,
919,-1.72e-01,
920,-1.72e-01,
921,-9.60e-02,
922,-1.00e-01,
923,-1.80e-01,
924,-9.60e-02,
925,-1.72e-01,
926,-1.84e-01,
927,-9.60e-02,
928,-1.76e-01,
929,-9.20e-02,
930,-8.00e-02,
931,-1.72e-01,
932,-1.84e-01,
933,-8.40e-02,
934,-1.68e-01,
935,-9.20e-02,
936,-1.76e-01,
937,-8.80e-02,
938,-9.20e-02,
939,-1.68e-01,
940,-9.60e-02,
941,-1.72e-01,
942,-8.00e-02,
943,-1.76e-01,
944,-1.00e-01,
945,-1.84e-01,
946,-9.20e-02,
947,-1.64e-01,
948,-1.64e-01,
949,-1.00e-01,
950,-1.72e-01,
951,-9.20e-02,
952,-1.72e-01,
953,-9.20e-02,
954,-9.20e-02,
955,-1.84e-01,
956,-1.68e-01,
957,-9.60e-02,
958,-1.80e-01,
959,-7.20e-02,
960,-9.20e-02,
961,-1.68e-01,
962,-1.00e-01,
963,-1.72e-01,
964,-1.00e-01,
965,-1.72e-01,
966,-9.60e-02,
967,-1.68e-01,
968,-1.72e-01,
969,-8.80e-02,
970,-9.60e-02,
971,-1.64e-01,
972,-9.20e-02,
973,-1.68e-01,
974,-1.64e-01,
975,-9.20e-02,
976,-1.76e-01,
977,-9.60e-02,
978,-1.00e-01,
979,-1.76e-01,
980,-1.72e-01,
981,-9.60e-02,
982,-8.80e-02,
983,-1.68e-01,
984,-1.00e-01,
985,-1.72e-01,
986,-1.00e-01,
987,-1.76e-01,
988,-9.60e-02,
989,-1.72e-01,
990,-1.00e-01,
991,-1.76e-01,
992,-1.00e-01,
993,-1.76e-01,
994,-9.20e-02,
995,-1.76e-01,
996,-9.60e-02,
997,-1.76e-01,
998,-9.20e-02,
999,-1.92e-01,
1000,-1.00e-01,
1001,-1.76e-01,
1002,-1.80e-01,
1003,-1.00e-01,
1004,-9.60e-02,
1005,-1.68e-01,
1006,-1.00e-01,
1007,-1.68e-01,
1008,-1.64e-01,
1009,-9.20e-02,
1010,-9.20e-02,
1011,-1.72e-01,
1012,-9.60e-02,
1013,-1.76e-01,
1014,-1.64e-01,
1015,-1.00e-01,
1016,-1.64e-01,
1017,-1.00e-01,
1018,-9.60e-02,
1019,-1.64e-01,
1020,-9.60e-02,
1021,-1.68e-01,
1022,-1.80e-01,
1023,-9.20e-02,
1024,-1.60e-01,
1025,-9.60e-02,
1026,-8.80e-02,
1027,-1.72e-01,
1028,-1.80e-01,
1029,-8.40e-02,
1030,-1.68e-01,
1031,-9.20e-02,
1032,-1.76e-01,
1033,-8.80e-02,
1034,-1.72e-01,
1035,-9.20e-02,
1036,-9.60e-02,
1037,-1.80e-01,
1038,-1.72e-01,
1039,-1.00e-01,
1040,-1.00e-01,
1041,-1.76e-01,
1042,-9.60e-02,
1043,-1.76e-01,
1044,-9.20e-02,
1045,-1.68e-01,
1046,-1.72e-01,
1047,-9.60e-02,
1048,-9.60e-02,
1049,-1.80e-01,
1050,-1.00e-01,
1051,-1.76e-01,
1052,-9.60e-02,
1053,-1.68e-01,
1054,-1.72e-01,
1055,-9.60e-02,
1056,-1.76e-01,
1057,-8.80e-02,
1058,-1.72e-01,
1059,-7.60e-02,
1060,-9.60e-02,
1061,-1.76e-01,
1062,-1.00e-01,
1063,-1.64e-01,
1064,-8.80e-02,
1065,-1.76e-01,
1066,-9.60e-02,
1067,-1.72e-01,
1068,-1.64e-01,
1069,-9.60e-02,
1070,-8.80e-02,
1071,-1.64e-01,
1072,-9.20e-02,
1073,-1.76e-01,
1074,-1.64e-01,
1075,-8.80e-02,
1076,-9.20e-02,
1077,-1.64e-01,
1078,-1.80e-01,
1079,-9.60e-02,
1080,-9.60e-02,
1081,-1.72e-01,
1082,-1.76e-01,
1083,-9.20e-02,
1084,-1.60e-01,
1085,-9.60e-02,
1086,-1.72e-01,
1087,-8.80e-02,
1088,-9.20e-02,
1089,-1.72e-01,
1090,-1.80e-01,
1091,-9.60e-02,
1092,-9.60e-02,
1093,-1.72e-01,
1094,-9.20e-02,
1095,-1.72e-01,
1096,-1.76e-01,
1097,-9.20e-02,
1098,-1.04e-01,
1099,-1.72e-01,
1100,-9.60e-02,
1101,-1.64e-01,
1102,-9.60e-02,
1103,-1.88e-01,
1104,-9.60e-02,
1105,-1.72e-01,
1106,-9.60e-02,
1107,-1.68e-01,
1108,-1.76e-01,
1109,-9.60e-02,
1110,-9.60e-02,
1111,-1.68e-01,
1112,-9.60e-02,
1113,-1.72e-01,
1114,-1.00e-01,
1115,-1.68e-01,
1116,-1.76e-01,
1117,-9.20e-02,
1118,-1.64e-01,
1119,-9.60e-02,
1120,-1.64e-01,
1121,-9.60e-02,
1122,-1.76e-01,
1123,-9.20e-02,
1124,-1.80e-01,
1125,-9.60e-02,
1126,-1.84e-01,
1127,-9.20e-02,
1128,-9.60e-02,
1129,-1.68e-01,
1130,-1.00e-01,
1131,-1.64e-01,
1132,-9.20e-02,
1133,-1.92e-01,
1134,-1.76e-01,
1135,-1.00e-01,
1136,-1.80e-01,
1137,-8.00e-02,
1138,-1.68e-01,
1139,-8.80e-02,
1140,-1.64e-01,
1141,-9.60e-02,
1142,-8.00e-02,
1143,-1.76e-01,
1144,-1.76e-01,
1145,-9.60e-02,
1146,-9.20e-02,
1147,-1.80e-01,
1148,-1.80e-01,
1149,-9.20e-02,
1150,-1.00e-01,
1151,-1.68e-01,
1152,-1.84e-01,
1153,-9.20e-02,
1154,-9.20e-02,
1155,-1.72e-01,
1156,-1.64e-01,
1157,-9.20e-02,
1158,-9.60e-02,
1159,-1.76e-01,
1160,-9.20e-02,
1161,-1.84e-01,
1162,-1.64e-01,
1163,-9.20e-02,
1164,-1.64e-01,
1165,-9.20e-02,
1166,-9.60e-02,
1167,-1.76e-01,
1168,-9.60e-02,
1169,-1.64e-01,
1170,-1.68e-01,
1171,-9.60e-02,
1172,-9.60e-02,
1173,-1.80e-01,
1174,-1.80e-01,
1175,-9.60e-02,
1176,-9.60e-02,
1177,-1.76e-01,
1178,-1.04e-01,
1179,-1.72e-01,
1180,-1.68e-01,
1181,-9.20e-02,
1182,-1.76e-01,
1183,-8.80e-02,
1184,-9.20e-02,
1185,-1.72e-01,
1186,-9.60e-02,
1187,-1.68e-01,
1188,-1.68e-01,
1189,-9.60e-02,
1190,-9.60e-02,
1191,-1.76e-01,
1192,-9.20e-02,
1193,-1.80e-01,
1194,-9.60e-02,
1195,-1.72e-01,
1196,-1.84e-01,
1197,-1.00e-01,
1198,-1.68e-01,
1199,-8.80e-02,
