fastdiffamp/data-noise-set/bal-mean/NewFile8.csv

X,CH1,Start,Increment,
Sequence,Volt,-5.990000e+00,1.000000e-02
0,-1.24e-01,
1,-6.00e-02,
2,-6.00e-02,
3,-1.36e-01,
4,-1.36e-01,
5,-5.20e-02,
6,-1.28e-01,
7,-5.60e-02,
8,-1.40e-01,
9,-5.60e-02,
10,-6.00e-02,
11,-1.32e-01,
12,-5.60e-02,
13,-1.28e-01,
14,-1.24e-01,
15,-5.60e-02,
16,-6.00e-02,
17,-1.28e-01,
18,-4.80e-02,
19,-1.36e-01,
20,-6.40e-02,
21,-1.40e-01,
22,-1.32e-01,
23,-5.20e-02,
24,-6.40e-02,
25,-1.32e-01,
26,-1.36e-01,
27,-4.80e-02,
28,-6.40e-02,
29,-1.36e-01,
30,-5.60e-02,
31,-1.32e-01,
32,-1.28e-01,
33,-5.60e-02,
34,-4.40e-02,
35,-1.40e-01,
36,-1.36e-01,
37,-6.00e-02,
38,-1.28e-01,
39,-6.00e-02,
40,-6.00e-02,
41,-1.32e-01,
42,-1.40e-01,
43,-6.00e-02,
44,-4.80e-02,
45,-1.40e-01,
46,-6.00e-02,
47,-1.32e-01,
48,-1.28e-01,
49,-6.00e-02,
50,-1.32e-01,
51,-6.00e-02,
52,-1.28e-01,
53,-6.00e-02,
54,-1.36e-01,
55,-5.60e-02,
56,-1.28e-01,
57,-5.60e-02,
58,-6.00e-02,
59,-1.44e-01,
60,-1.28e-01,
61,-6.00e-02,
62,-1.28e-01,
63,-5.60e-02,
64,-6.00e-02,
65,-1.44e-01,
66,-1.40e-01,
67,-4.80e-02,
68,-6.40e-02,
69,-1.44e-01,
70,-4.80e-02,
71,-1.32e-01,
72,-5.20e-02,
73,-1.28e-01,
74,-1.40e-01,
75,-5.60e-02,
76,-6.00e-02,
77,-1.44e-01,
78,-6.40e-02,
79,-1.40e-01,
80,-6.40e-02,
81,-1.40e-01,
82,-1.28e-01,
83,-4.80e-02,
84,-4.80e-02,
85,-1.40e-01,
86,-1.32e-01,
87,-6.00e-02,
88,-6.00e-02,
89,-1.28e-01,
90,-1.60e-01,
91,-4.80e-02,
92,-1.28e-01,
93,-6.40e-02,
94,-6.00e-02,
95,-1.32e-01,
96,-6.00e-02,
97,-1.32e-01,
98,-4.80e-02,
99,-1.36e-01,
100,-1.36e-01,
101,-6.00e-02,
102,-1.24e-01,
103,-6.40e-02,
104,-1.24e-01,
105,-4.00e-02,
106,-1.36e-01,
107,-6.40e-02,
108,-4.80e-02,
109,-1.28e-01,
110,-1.24e-01,
111,-5.20e-02,
112,-6.00e-02,
113,-1.40e-01,
114,-6.00e-02,
115,-1.32e-01,
116,-6.00e-02,
117,-1.32e-01,
118,-1.44e-01,
119,-6.00e-02,
120,-1.40e-01,
121,-5.60e-02,
122,-1.40e-01,
123,-5.60e-02,
124,-1.52e-01,
125,-5.20e-02,
126,-1.32e-01,
127,-6.40e-02,
128,-1.36e-01,
129,-6.40e-02,
130,-5.60e-02,
131,-1.24e-01,
132,-1.40e-01,
133,-5.60e-02,
134,-6.40e-02,
135,-1.32e-01,
136,-5.20e-02,
137,-1.28e-01,
138,-6.00e-02,
139,-1.40e-01,
140,-1.40e-01,
141,-5.60e-02,
142,-1.28e-01,
143,-5.60e-02,
144,-1.44e-01,
145,-5.60e-02,
146,-6.40e-02,
147,-1.28e-01,
148,-1.28e-01,
149,-5.20e-02,
150,-6.40e-02,
151,-1.32e-01,
152,-6.00e-02,
153,-1.36e-01,
154,-5.60e-02,
155,-1.44e-01,
156,-1.28e-01,
157,-6.00e-02,
158,-1.32e-01,
159,-6.00e-02,
160,-6.00e-02,
161,-1.40e-01,
162,-5.60e-02,
163,-1.40e-01,
164,-5.60e-02,
165,-1.40e-01,
166,-5.20e-02,
167,-1.28e-01,
168,-5.20e-02,
169,-1.32e-01,
170,-4.80e-02,
171,-1.28e-01,
172,-6.40e-02,
173,-1.36e-01,
174,-6.00e-02,
175,-1.32e-01,
176,-1.32e-01,
177,-4.80e-02,
178,-5.60e-02,
179,-1.36e-01,
180,-1.48e-01,
181,-4.40e-02,
182,-5.20e-02,
183,-1.32e-01,
184,-5.60e-02,
185,-1.40e-01,
186,-1.32e-01,
187,-6.40e-02,
188,-6.00e-02,
189,-1.36e-01,
190,-5.60e-02,
191,-1.44e-01,
192,-5.60e-02,
193,-1.44e-01,
194,-1.40e-01,
195,-6.00e-02,
196,-1.28e-01,
197,-4.80e-02,
198,-5.60e-02,
199,-1.40e-01,
200,-1.28e-01,
201,-4.80e-02,
202,-1.36e-01,
203,-5.20e-02,
204,-4.80e-02,
205,-1.36e-01,
206,-1.28e-01,
207,-4.40e-02,
208,-5.20e-02,
209,-1.36e-01,
210,-1.32e-01,
211,-6.00e-02,
212,-1.28e-01,
213,-6.00e-02,
214,-1.36e-01,
215,-5.60e-02,
216,-6.00e-02,
217,-1.40e-01,
218,-1.32e-01,
219,-6.40e-02,
220,-4.00e-02,
221,-1.40e-01,
222,-1.28e-01,
223,-6.00e-02,
224,-5.60e-02,
225,-1.32e-01,
226,-6.40e-02,
227,-1.28e-01,
228,-1.40e-01,
229,-6.00e-02,
230,-5.60e-02,
231,-1.40e-01,
232,-6.00e-02,
233,-1.44e-01,
234,-1.40e-01,
235,-5.60e-02,
236,-1.40e-01,
237,-5.20e-02,
238,-1.44e-01,
239,-5.60e-02,
240,-6.00e-02,
241,-1.40e-01,
242,-6.40e-02,
243,-1.36e-01,
244,-6.00e-02,
245,-1.40e-01,
246,-1.28e-01,
247,-5.60e-02,
248,-6.00e-02,
249,-1.40e-01,
250,-5.60e-02,
251,-1.36e-01,
252,-1.32e-01,
253,-4.80e-02,
254,-6.40e-02,
255,-1.28e-01,
256,-6.00e-02,
257,-1.28e-01,
258,-6.00e-02,
259,-1.28e-01,
260,-6.00e-02,
261,-1.40e-01,
262,-6.00e-02,
263,-1.28e-01,
264,-6.40e-02,
265,-1.28e-01,
266,-6.40e-02,
267,-1.28e-01,
268,-1.28e-01,
269,-5.20e-02,
270,-6.40e-02,
271,-1.36e-01,
272,-1.48e-01,
273,-5.60e-02,
274,-1.28e-01,
275,-5.60e-02,
276,-6.00e-02,
277,-1.32e-01,
278,-1.28e-01,
279,-6.00e-02,
280,-6.80e-02,
281,-1.44e-01,
282,-1.44e-01,
283,-4.00e-02,
284,-1.40e-01,
285,-6.00e-02,
286,-6.40e-02,
287,-1.40e-01,
288,-5.60e-02,
289,-1.28e-01,
290,-5.20e-02,
291,-1.28e-01,
292,-1.24e-01,
293,-6.40e-02,
294,-1.28e-01,
295,-6.00e-02,
296,-6.00e-02,
297,-1.32e-01,
298,-5.60e-02,
299,-1.40e-01,
300,-4.80e-02,
301,-1.44e-01,
302,-1.36e-01,
303,-5.60e-02,
304,-1.32e-01,
305,-6.00e-02,
306,-6.00e-02,
307,-1.28e-01,
308,-6.40e-02,
309,-1.40e-01,
310,-4.80e-02,
311,-1.44e-01,
312,-4.00e-02,
313,-1.28e-01,
314,-1.40e-01,
315,-5.20e-02,
316,-5.20e-02,
317,-1.40e-01,
318,-1.28e-01,
319,-6.00e-02,
320,-1.28e-01,
321,-6.00e-02,
322,-6.40e-02,
323,-1.40e-01,
324,-5.60e-02,
325,-1.32e-01,
326,-1.32e-01,
327,-5.20e-02,
328,-1.28e-01,
329,-6.40e-02,
330,-5.60e-02,
331,-1.36e-01,
332,-5.20e-02,
333,-1.36e-01,
334,-1.36e-01,
335,-5.60e-02,
336,-1.36e-01,
337,-5.60e-02,
338,-4.80e-02,
339,-1.36e-01,
340,-1.24e-01,
341,-6.00e-02,
342,-1.32e-01,
343,-6.80e-02,
344,-1.52e-01,
345,-5.60e-02,
346,-1.40e-01,
347,-5.60e-02,
348,-6.00e-02,
349,-1.28e-01,
350,-1.24e-01,
351,-5.20e-02,
352,-6.40e-02,
353,-1.28e-01,
354,-5.20e-02,
355,-1.36e-01,
356,-1.36e-01,
357,-6.00e-02,
358,-6.40e-02,
359,-1.24e-01,
360,-5.20e-02,
361,-1.36e-01,
362,-5.60e-02,
363,-1.32e-01,
364,-1.28e-01,
365,-6.00e-02,
366,-1.24e-01,
367,-6.40e-02,
368,-1.48e-01,
369,-5.60e-02,
370,-5.60e-02,
371,-1.28e-01,
372,-1.28e-01,
373,-6.00e-02,
374,-1.32e-01,
375,-6.00e-02,
376,-1.36e-01,
377,-6.00e-02,
378,-1.36e-01,
379,-6.40e-02,
380,-6.00e-02,
381,-1.28e-01,
382,-1.28e-01,
383,-6.00e-02,
384,-1.36e-01,
385,-5.20e-02,
386,-4.80e-02,
387,-1.40e-01,
388,-5.60e-02,
389,-1.28e-01,
390,-1.24e-01,
391,-5.60e-02,
392,-1.32e-01,
393,-6.00e-02,
394,-1.32e-01,
395,-6.00e-02,
396,-1.36e-01,
397,-5.20e-02,
398,-1.44e-01,
399,-6.00e-02,
400,-1.36e-01,
401,-6.00e-02,
402,-1.32e-01,
403,-4.00e-02,
404,-1.28e-01,
405,-5.20e-02,
406,-1.28e-01,
407,-6.00e-02,
408,-1.48e-01,
409,-6.00e-02,
410,-5.60e-02,
411,-1.28e-01,
412,-5.20e-02,
413,-1.40e-01,
414,-6.00e-02,
415,-1.32e-01,
416,-1.32e-01,
417,-5.60e-02,
418,-4.80e-02,
419,-1.28e-01,
420,-6.00e-02,
421,-1.40e-01,
422,-1.28e-01,
423,-5.60e-02,
424,-1.36e-01,
425,-6.40e-02,
426,-1.28e-01,
427,-4.80e-02,
428,-5.60e-02,
429,-1.28e-01,
430,-6.00e-02,
431,-1.44e-01,
432,-5.60e-02,
433,-1.32e-01,
434,-6.80e-02,
435,-1.36e-01,
436,-1.28e-01,
437,-6.00e-02,
438,-6.40e-02,
439,-1.40e-01,
440,-6.40e-02,
441,-1.32e-01,
442,-6.00e-02,
443,-1.32e-01,
444,-1.28e-01,
445,-5.60e-02,
446,-6.00e-02,
447,-1.28e-01,
448,-6.40e-02,
449,-1.36e-01,
450,-1.28e-01,
451,-5.60e-02,
452,-5.20e-02,
453,-1.32e-01,
454,-1.40e-01,
455,-5.20e-02,
456,-1.28e-01,
457,-5.60e-02,
458,-6.40e-02,
459,-1.40e-01,
460,-6.00e-02,
461,-1.20e-01,
462,-1.36e-01,
463,-4.80e-02,
464,-6.00e-02,
465,-1.44e-01,
466,-1.28e-01,
467,-4.80e-02,
468,-6.40e-02,
469,-1.28e-01,
470,-5.60e-02,
471,-1.32e-01,
472,-1.28e-01,
473,-5.20e-02,
474,-5.60e-02,
475,-1.24e-01,
476,-1.32e-01,
477,-6.00e-02,
478,-5.60e-02,
479,-1.52e-01,
480,-5.60e-02,
481,-1.28e-01,
482,-5.60e-02,
483,-1.28e-01,
484,-1.44e-01,
485,-5.60e-02,
486,-6.00e-02,
487,-1.32e-01,
488,-6.40e-02,
489,-1.36e-01,
490,-1.40e-01,
491,-5.20e-02,
492,-5.60e-02,
493,-1.40e-01,
494,-5.60e-02,
495,-1.40e-01,
496,-6.00e-02,
497,-1.36e-01,
498,-1.32e-01,
499,-6.00e-02,
500,-6.40e-02,
501,-1.36e-01,
502,-6.40e-02,
503,-1.28e-01,
504,-1.40e-01,
505,-6.40e-02,
506,-1.28e-01,
507,-5.20e-02,
508,-6.40e-02,
509,-1.44e-01,
510,-1.32e-01,
511,-5.60e-02,
512,-6.00e-02,
513,-1.32e-01,
514,-6.00e-02,
515,-1.40e-01,
516,-1.32e-01,
517,-6.40e-02,
518,-1.40e-01,
519,-5.20e-02,
520,-1.28e-01,
521,-4.80e-02,
522,-1.36e-01,
523,-5.60e-02,
524,-1.28e-01,
525,-5.60e-02,
526,-6.00e-02,
527,-1.40e-01,
528,-1.32e-01,
529,-5.60e-02,
530,-1.40e-01,
531,-6.00e-02,
532,-1.32e-01,
533,-6.40e-02,
534,-1.28e-01,
535,-5.60e-02,
536,-4.80e-02,
537,-1.36e-01,
538,-6.00e-02,
539,-1.32e-01,
540,-6.00e-02,
541,-1.40e-01,
542,-1.32e-01,
543,-4.80e-02,
544,-6.40e-02,
545,-1.32e-01,
546,-4.80e-02,
547,-1.40e-01,
548,-1.28e-01,
549,-6.00e-02,
550,-3.60e-02,
551,-1.32e-01,
552,-1.36e-01,
553,-5.60e-02,
554,-1.28e-01,
555,-4.40e-02,
556,-5.60e-02,
557,-1.32e-01,
558,-6.40e-02,
559,-1.36e-01,
560,-6.00e-02,
561,-1.44e-01,
562,-6.00e-02,
563,-1.28e-01,
564,-5.20e-02,
565,-1.40e-01,
566,-1.32e-01,
567,-6.40e-02,
568,-1.28e-01,
569,-6.00e-02,
570,-1.32e-01,
571,-5.20e-02,
572,-1.44e-01,
573,-5.60e-02,
574,-5.60e-02,
575,-1.48e-01,
576,-6.80e-02,
577,-1.36e-01,
578,-1.20e-01,
579,-5.20e-02,
580,-6.00e-02,
581,-1.32e-01,
582,-6.00e-02,
583,-1.28e-01,
584,-1.44e-01,
585,-6.00e-02,
586,-6.00e-02,
587,-1.24e-01,
588,-1.32e-01,
589,-6.40e-02,
590,-6.40e-02,
591,-1.32e-01,
592,-1.28e-01,
593,-4.40e-02,
594,-6.40e-02,
595,-1.28e-01,
596,-6.00e-02,
597,-1.36e-01,
598,-1.40e-01,
599,-6.00e-02,
600,-1.28e-01,
601,-5.60e-02,
602,-1.36e-01,
603,-6.40e-02,
604,-6.40e-02,
605,-1.36e-01,
606,-1.32e-01,
607,-5.20e-02,
608,-1.28e-01,
609,-5.20e-02,
610,-5.60e-02,
611,-1.36e-01,
612,-5.60e-02,
613,-1.32e-01,
614,-5.60e-02,
615,-1.36e-01,
616,-4.80e-02,
617,-1.40e-01,
618,-6.00e-02,
619,-1.36e-01,
620,-6.00e-02,
621,-1.40e-01,
622,-1.36e-01,
623,-6.40e-02,
624,-5.60e-02,
625,-1.28e-01,
626,-1.36e-01,
627,-5.60e-02,
628,-1.36e-01,
629,-6.00e-02,
630,-1.44e-01,
631,-5.60e-02,
632,-1.32e-01,
633,-6.00e-02,
634,-1.36e-01,
635,-5.20e-02,
636,-6.00e-02,
637,-1.32e-01,
638,-1.24e-01,
639,-6.40e-02,
640,-6.00e-02,
641,-1.48e-01,
642,-1.40e-01,
643,-6.00e-02,
644,-6.00e-02,
645,-1.32e-01,
646,-1.28e-01,
647,-5.60e-02,
648,-6.00e-02,
649,-1.28e-01,
650,-1.32e-01,
651,-5.60e-02,
652,-1.32e-01,
653,-5.60e-02,
654,-1.32e-01,
655,-5.60e-02,
656,-1.36e-01,
657,-4.40e-02,
658,-5.60e-02,
659,-1.28e-01,
660,-5.20e-02,
661,-1.28e-01,
662,-5.60e-02,
663,-1.40e-01,
664,-3.60e-02,
665,-1.32e-01,
666,-5.20e-02,
667,-1.28e-01,
668,-5.60e-02,
669,-1.32e-01,
670,-6.00e-02,
671,-1.44e-01,
672,-1.32e-01,
673,-5.60e-02,
674,-6.40e-02,
675,-1.36e-01,
676,-1.28e-01,
677,-6.00e-02,
678,-6.00e-02,
679,-1.28e-01,
680,-1.32e-01,
681,-6.00e-02,
682,-1.36e-01,
683,-6.00e-02,
684,-1.28e-01,
685,-5.60e-02,
686,-6.00e-02,
687,-1.28e-01,
688,-6.40e-02,
689,-1.36e-01,
690,-5.60e-02,
691,-1.40e-01,
692,-6.00e-02,
693,-1.28e-01,
694,-5.60e-02,
695,-1.28e-01,
696,-6.00e-02,
697,-1.36e-01,
698,-1.28e-01,
699,-5.20e-02,
700,-1.32e-01,
701,-5.60e-02,
702,-1.28e-01,
703,-4.40e-02,
704,-1.36e-01,
705,-4.00e-02,
706,-1.28e-01,
707,-5.60e-02,
708,-5.60e-02,
709,-1.28e-01,
710,-1.36e-01,
711,-4.80e-02,
712,-1.32e-01,
713,-6.00e-02,
714,-1.28e-01,
715,-5.20e-02,
716,-1.40e-01,
717,-6.00e-02,
718,-6.40e-02,
719,-1.32e-01,
720,-1.44e-01,
721,-6.00e-02,
722,-5.20e-02,
723,-1.28e-01,
724,-5.60e-02,
725,-1.40e-01,
726,-1.36e-01,
727,-5.60e-02,
728,-1.32e-01,
729,-4.80e-02,
730,-1.32e-01,
731,-6.40e-02,
732,-1.40e-01,
733,-6.00e-02,
734,-1.36e-01,
735,-6.00e-02,
736,-1.28e-01,
737,-6.00e-02,
738,-1.32e-01,
739,-5.20e-02,
740,-4.40e-02,
741,-1.40e-01,
742,-6.00e-02,
743,-1.24e-01,
744,-6.40e-02,
745,-1.36e-01,
746,-1.60e-01,
747,-6.00e-02,
748,-1.36e-01,
749,-5.60e-02,
750,-6.40e-02,
751,-1.36e-01,
752,-1.44e-01,
753,-5.60e-02,
754,-1.44e-01,
755,-6.00e-02,
756,-1.28e-01,
757,-6.00e-02,
758,-1.32e-01,
759,-6.00e-02,
760,-1.28e-01,
761,-6.00e-02,
762,-6.00e-02,
763,-1.40e-01,
764,-1.36e-01,
765,-6.40e-02,
766,-1.32e-01,
767,-6.00e-02,
768,-1.36e-01,
769,-5.20e-02,
770,-1.52e-01,
771,-6.00e-02,
772,-1.36e-01,
773,-5.60e-02,
774,-5.60e-02,
775,-1.36e-01,
776,-5.20e-02,
777,-1.36e-01,
778,-1.44e-01,
779,-5.60e-02,
780,-5.60e-02,
781,-1.28e-01,
782,-5.20e-02,
783,-1.28e-01,
784,-1.28e-01,
785,-5.60e-02,
786,-1.28e-01,
787,-5.20e-02,
788,-1.36e-01,
789,-6.00e-02,
790,-5.60e-02,
791,-1.36e-01,
792,-6.00e-02,
793,-1.32e-01,
794,-6.00e-02,
795,-1.44e-01,
796,-1.28e-01,
797,-5.60e-02,
798,-1.28e-01,
799,-5.20e-02,
800,-1.40e-01,
801,-4.40e-02,
802,-1.28e-01,
803,-6.40e-02,
804,-6.40e-02,
805,-1.44e-01,
806,-1.28e-01,
807,-5.20e-02,
808,-1.32e-01,
809,-6.00e-02,
810,-5.60e-02,
811,-1.40e-01,
812,-5.60e-02,
813,-1.36e-01,
814,-5.60e-02,
815,-1.28e-01,
816,-6.40e-02,
817,-1.44e-01,
818,-1.36e-01,
819,-4.40e-02,
820,-1.36e-01,
821,-6.00e-02,
822,-1.40e-01,
823,-5.60e-02,
824,-1.32e-01,
825,-5.60e-02,
826,-1.40e-01,
827,-6.00e-02,
828,-1.48e-01,
829,-6.40e-02,
830,-5.60e-02,
831,-1.28e-01,
832,-1.28e-01,
833,-4.40e-02,
834,-1.32e-01,
835,-6.00e-02,
836,-6.00e-02,
837,-1.28e-01,
838,-1.36e-01,
839,-5.60e-02,
840,-1.36e-01,
841,-5.20e-02,
842,-6.00e-02,
843,-1.32e-01,
844,-1.36e-01,
845,-6.00e-02,
846,-1.36e-01,
847,-4.40e-02,
848,-5.60e-02,
849,-1.40e-01,
850,-1.28e-01,
851,-5.20e-02,
852,-6.40e-02,
853,-1.36e-01,
854,-4.80e-02,
855,-1.32e-01,
856,-4.80e-02,
857,-1.32e-01,
858,-1.28e-01,
859,-6.00e-02,
860,-1.36e-01,
861,-5.20e-02,
862,-4.40e-02,
863,-1.28e-01,
864,-1.28e-01,
865,-6.00e-02,
866,-6.00e-02,
867,-1.28e-01,
868,-5.20e-02,
869,-1.36e-01,
870,-6.40e-02,
871,-1.36e-01,
872,-1.32e-01,
873,-6.00e-02,
874,-1.28e-01,
875,-6.00e-02,
876,-1.28e-01,
877,-5.20e-02,
878,-1.28e-01,
879,-5.60e-02,
880,-1.36e-01,
881,-4.80e-02,
882,-6.00e-02,
883,-1.36e-01,
884,-1.28e-01,
885,-5.60e-02,
886,-4.40e-02,
887,-1.24e-01,
888,-5.20e-02,
889,-1.32e-01,
890,-6.40e-02,
891,-1.28e-01,
892,-6.40e-02,
893,-1.36e-01,
894,-1.28e-01,
895,-5.60e-02,
896,-6.00e-02,
897,-1.32e-01,
898,-5.20e-02,
899,-1.36e-01,
900,-6.40e-02,
901,-1.36e-01,
902,-6.00e-02,
903,-1.40e-01,
904,-6.40e-02,
905,-1.36e-01,
906,-6.00e-02,
907,-1.48e-01,
908,-1.32e-01,
909,-5.60e-02,
910,-1.28e-01,
911,-6.00e-02,
912,-4.80e-02,
913,-1.28e-01,
914,-1.36e-01,
915,-6.00e-02,
916,-6.00e-02,
917,-1.40e-01,
918,-6.00e-02,
919,-1.40e-01,
920,-1.36e-01,
921,-6.00e-02,
922,-6.00e-02,
923,-1.28e-01,
924,-1.24e-01,
925,-5.60e-02,
926,-5.60e-02,
927,-1.32e-01,
928,-6.00e-02,
929,-1.32e-01,
930,-6.00e-02,
931,-1.44e-01,
932,-1.36e-01,
933,-5.60e-02,
934,-6.40e-02,
935,-1.48e-01,
936,-1.36e-01,
937,-6.40e-02,
938,-5.20e-02,
939,-1.36e-01,
940,-5.60e-02,
941,-1.40e-01,
942,-5.60e-02,
943,-1.40e-01,
944,-1.28e-01,
945,-6.80e-02,
946,-5.60e-02,
947,-1.28e-01,
948,-5.60e-02,
949,-1.32e-01,
950,-5.60e-02,
951,-1.36e-01,
952,-6.00e-02,
953,-1.44e-01,
954,-1.36e-01,
955,-6.40e-02,
956,-1.28e-01,
957,-5.60e-02,
958,-1.32e-01,
959,-5.60e-02,
960,-1.40e-01,
961,-4.80e-02,
962,-1.24e-01,
963,-6.00e-02,
964,-1.28e-01,
965,-6.40e-02,
966,-1.32e-01,
967,-5.20e-02,
968,-1.28e-01,
969,-6.00e-02,
970,-1.32e-01,
971,-5.20e-02,
972,-1.36e-01,
973,-6.00e-02,
974,-5.60e-02,
975,-1.36e-01,
976,-6.00e-02,
977,-1.44e-01,
978,-6.40e-02,
979,-1.28e-01,
980,-1.36e-01,
981,-5.60e-02,
982,-1.32e-01,
983,-5.20e-02,
984,-1.28e-01,
985,-6.40e-02,
986,-1.44e-01,
987,-4.80e-02,
988,-4.80e-02,
989,-1.28e-01,
990,-1.32e-01,
991,-5.20e-02,
992,-1.32e-01,
993,-6.00e-02,
994,-1.28e-01,
995,-5.60e-02,
996,-1.40e-01,
997,-5.60e-02,
998,-6.00e-02,
999,-1.40e-01,
1000,-1.36e-01,
1001,-4.80e-02,
1002,-6.80e-02,
1003,-1.28e-01,
1004,-1.28e-01,
1005,-6.40e-02,
1006,-1.40e-01,
1007,-6.00e-02,
1008,-6.00e-02,
1009,-1.36e-01,
1010,-1.32e-01,
1011,-6.00e-02,
1012,-6.40e-02,
1013,-1.40e-01,
1014,-1.32e-01,
1015,-6.00e-02,
1016,-1.48e-01,
1017,-6.00e-02,
1018,-6.00e-02,
1019,-1.36e-01,
1020,-6.00e-02,
1021,-1.40e-01,
1022,-5.60e-02,
1023,-1.36e-01,
1024,-1.32e-01,
1025,-6.40e-02,
1026,-5.60e-02,
1027,-1.40e-01,
1028,-5.20e-02,
1029,-1.32e-01,
1030,-1.36e-01,
1031,-5.60e-02,
1032,-1.28e-01,
1033,-5.60e-02,
1034,-1.36e-01,
1035,-5.20e-02,
1036,-1.32e-01,
1037,-6.00e-02,
1038,-5.20e-02,
1039,-1.40e-01,
1040,-6.00e-02,
1041,-1.40e-01,
1042,-1.40e-01,
1043,-4.40e-02,
1044,-6.00e-02,
1045,-1.28e-01,
1046,-6.00e-02,
1047,-1.32e-01,
1048,-6.00e-02,
1049,-1.36e-01,
1050,-1.28e-01,
1051,-5.60e-02,
1052,-4.40e-02,
1053,-1.36e-01,
1054,-1.32e-01,
1055,-5.60e-02,
1056,-1.32e-01,
1057,-4.40e-02,
1058,-5.60e-02,
1059,-1.36e-01,
1060,-1.36e-01,
1061,-6.40e-02,
1062,-1.32e-01,
1063,-4.80e-02,
1064,-5.60e-02,
1065,-1.44e-01,
1066,-6.00e-02,
1067,-1.40e-01,
1068,-1.28e-01,
1069,-4.80e-02,
1070,-6.00e-02,
1071,-1.44e-01,
1072,-1.28e-01,
1073,-6.00e-02,
1074,-4.80e-02,
1075,-1.36e-01,
1076,-5.60e-02,
1077,-1.36e-01,
1078,-6.40e-02,
1079,-1.36e-01,
1080,-1.48e-01,
1081,-6.00e-02,
1082,-5.20e-02,
1083,-1.28e-01,
1084,-6.40e-02,
1085,-1.40e-01,
1086,-1.44e-01,
1087,-5.60e-02,
1088,-1.36e-01,
1089,-6.40e-02,
1090,-1.28e-01,
1091,-6.00e-02,
1092,-1.24e-01,
1093,-5.60e-02,
1094,-1.28e-01,
1095,-5.20e-02,
1096,-6.40e-02,
1097,-1.28e-01,
1098,-6.00e-02,
1099,-1.40e-01,
1100,-1.36e-01,
1101,-5.20e-02,
1102,-5.20e-02,
1103,-1.32e-01,
1104,-1.36e-01,
1105,-5.60e-02,
1106,-5.20e-02,
1107,-1.44e-01,
1108,-1.36e-01,
1109,-5.20e-02,
1110,-1.32e-01,
1111,-5.60e-02,
1112,-6.40e-02,
1113,-1.48e-01,
1114,-1.36e-01,
1115,-5.60e-02,
1116,-1.40e-01,
1117,-5.20e-02,
1118,-5.60e-02,
1119,-1.28e-01,
1120,-6.00e-02,
1121,-1.36e-01,
1122,-1.32e-01,
1123,-5.60e-02,
1124,-6.00e-02,
1125,-1.36e-01,
1126,-1.24e-01,
1127,-6.40e-02,
1128,-1.40e-01,
1129,-4.80e-02,
1130,-5.20e-02,
1131,-1.36e-01,
1132,-5.20e-02,
1133,-1.36e-01,
1134,-1.44e-01,
1135,-5.60e-02,
1136,-1.36e-01,
1137,-5.60e-02,
1138,-1.32e-01,
1139,-5.20e-02,
1140,-5.20e-02,
1141,-1.36e-01,
1142,-5.60e-02,
1143,-1.28e-01,
1144,-1.28e-01,
1145,-6.00e-02,
1146,-1.44e-01,
1147,-5.60e-02,
1148,-5.20e-02,
1149,-1.36e-01,
1150,-1.28e-01,
1151,-6.00e-02,
1152,-1.36e-01,
1153,-4.40e-02,
1154,-4.80e-02,
1155,-1.36e-01,
1156,-6.00e-02,
1157,-1.32e-01,
1158,-1.28e-01,
1159,-6.40e-02,
1160,-1.28e-01,
1161,-6.00e-02,
1162,-1.32e-01,
1163,-4.40e-02,
1164,-5.60e-02,
1165,-1.32e-01,
1166,-6.00e-02,
1167,-1.32e-01,
1168,-1.32e-01,
1169,-4.80e-02,
1170,-6.00e-02,
1171,-1.40e-01,
1172,-1.40e-01,
1173,-5.60e-02,
1174,-5.60e-02,
1175,-1.40e-01,
1176,-1.36e-01,
1177,-5.20e-02,
1178,-5.20e-02,
1179,-1.28e-01,
1180,-4.80e-02,
1181,-1.36e-01,
1182,-1.28e-01,
1183,-6.40e-02,
1184,-1.36e-01,
1185,-5.20e-02,
1186,-1.28e-01,
1187,-6.00e-02,
1188,-5.60e-02,
1189,-1.44e-01,
1190,-1.24e-01,
1191,-6.00e-02,
1192,-6.00e-02,
1193,-1.44e-01,
1194,-1.28e-01,
1195,-6.00e-02,
1196,-1.32e-01,
1197,-6.00e-02,
1198,-6.00e-02,
1199,-1.32e-01,
