fastdiffamp/data-noise-set/bal-mean/NewFile4.csv

X,CH1,Start,Increment,
Sequence,Volt,-5.990000e+00,1.000000e-02
0,-1.36e-01,
1,-1.96e-01,
2,-1.24e-01,
3,-2.08e-01,
4,-1.28e-01,
5,-2.08e-01,
6,-1.36e-01,
7,-2.16e-01,
8,-1.36e-01,
9,-2.04e-01,
10,-1.36e-01,
11,-2.08e-01,
12,-1.20e-01,
13,-2.08e-01,
14,-2.08e-01,
15,-1.28e-01,
16,-2.12e-01,
17,-1.28e-01,
18,-1.32e-01,
19,-2.12e-01,
20,-2.20e-01,
21,-1.28e-01,
22,-2.08e-01,
23,-1.24e-01,
24,-1.36e-01,
25,-2.04e-01,
26,-1.36e-01,
27,-2.12e-01,
28,-1.32e-01,
29,-2.08e-01,
30,-2.16e-01,
31,-1.20e-01,
32,-1.28e-01,
33,-2.08e-01,
34,-2.08e-01,
35,-1.28e-01,
36,-1.16e-01,
37,-2.12e-01,
38,-1.32e-01,
39,-2.12e-01,
40,-2.12e-01,
41,-1.32e-01,
42,-1.36e-01,
43,-2.12e-01,
44,-2.16e-01,
45,-1.32e-01,
46,-2.08e-01,
47,-1.32e-01,
48,-1.28e-01,
49,-2.00e-01,
50,-1.36e-01,
51,-2.08e-01,
52,-2.12e-01,
53,-1.36e-01,
54,-2.08e-01,
55,-1.28e-01,
56,-2.08e-01,
57,-1.32e-01,
58,-2.12e-01,
59,-1.28e-01,
60,-1.32e-01,
61,-2.00e-01,
62,-1.36e-01,
63,-2.12e-01,
64,-2.12e-01,
65,-1.32e-01,
66,-2.16e-01,
67,-1.40e-01,
68,-2.00e-01,
69,-1.36e-01,
70,-2.12e-01,
71,-1.28e-01,
72,-1.32e-01,
73,-2.04e-01,
74,-2.08e-01,
75,-1.28e-01,
76,-2.04e-01,
77,-1.36e-01,
78,-1.20e-01,
79,-2.04e-01,
80,-2.12e-01,
81,-1.32e-01,
82,-2.08e-01,
83,-1.20e-01,
84,-1.24e-01,
85,-2.00e-01,
86,-1.32e-01,
87,-2.12e-01,
88,-2.08e-01,
89,-1.28e-01,
90,-1.32e-01,
91,-2.12e-01,
92,-1.16e-01,
93,-2.16e-01,
94,-1.36e-01,
95,-2.04e-01,
96,-2.04e-01,
97,-1.28e-01,
98,-1.32e-01,
99,-2.04e-01,
100,-2.08e-01,
101,-1.28e-01,
102,-2.00e-01,
103,-1.20e-01,
104,-2.20e-01,
105,-1.20e-01,
106,-1.32e-01,
107,-2.08e-01,
108,-2.08e-01,
109,-1.32e-01,
110,-2.12e-01,
111,-1.24e-01,
112,-1.32e-01,
113,-2.00e-01,
114,-1.36e-01,
115,-1.96e-01,
116,-1.36e-01,
117,-2.08e-01,
118,-1.32e-01,
119,-2.12e-01,
120,-2.00e-01,
121,-1.32e-01,
122,-2.12e-01,
123,-1.36e-01,
124,-1.36e-01,
125,-2.12e-01,
126,-1.28e-01,
127,-2.08e-01,
128,-2.12e-01,
129,-1.40e-01,
130,-1.32e-01,
131,-2.08e-01,
132,-2.16e-01,
133,-1.16e-01,
134,-2.20e-01,
135,-1.12e-01,
136,-1.32e-01,
137,-2.12e-01,
138,-1.36e-01,
139,-2.04e-01,
140,-2.00e-01,
141,-1.32e-01,
142,-1.36e-01,
143,-2.04e-01,
144,-2.16e-01,
145,-1.20e-01,
146,-1.12e-01,
147,-2.12e-01,
148,-2.08e-01,
149,-1.32e-01,
150,-1.40e-01,
151,-2.04e-01,
152,-1.36e-01,
153,-2.12e-01,
154,-1.32e-01,
155,-2.08e-01,
156,-2.00e-01,
157,-1.28e-01,
158,-1.32e-01,
159,-2.12e-01,
160,-2.12e-01,
161,-1.28e-01,
162,-1.28e-01,
163,-2.16e-01,
164,-2.00e-01,
165,-1.36e-01,
166,-1.32e-01,
167,-2.04e-01,
168,-1.32e-01,
169,-2.12e-01,
170,-1.36e-01,
171,-2.08e-01,
172,-2.04e-01,
173,-1.36e-01,
174,-1.28e-01,
175,-2.00e-01,
176,-2.16e-01,
177,-1.32e-01,
178,-2.24e-01,
179,-1.36e-01,
180,-2.12e-01,
181,-1.28e-01,
182,-2.16e-01,
183,-1.28e-01,
184,-1.36e-01,
185,-2.04e-01,
186,-2.12e-01,
187,-1.24e-01,
188,-2.04e-01,
189,-1.28e-01,
190,-2.16e-01,
191,-1.16e-01,
192,-2.08e-01,
193,-1.28e-01,
194,-2.08e-01,
195,-1.36e-01,
196,-2.08e-01,
197,-1.16e-01,
198,-2.16e-01,
199,-1.28e-01,
200,-1.28e-01,
201,-2.12e-01,
202,-2.04e-01,
203,-1.40e-01,
204,-2.12e-01,
205,-1.28e-01,
206,-1.36e-01,
207,-2.00e-01,
208,-1.32e-01,
209,-2.08e-01,
210,-1.32e-01,
211,-2.08e-01,
212,-2.04e-01,
213,-1.28e-01,
214,-1.32e-01,
215,-2.16e-01,
216,-2.12e-01,
217,-1.36e-01,
218,-2.16e-01,
219,-1.28e-01,
220,-1.44e-01,
221,-2.20e-01,
222,-2.12e-01,
223,-1.28e-01,
224,-1.32e-01,
225,-2.04e-01,
226,-2.20e-01,
227,-1.20e-01,
228,-1.36e-01,
229,-2.00e-01,
230,-2.08e-01,
231,-1.20e-01,
232,-2.04e-01,
233,-1.32e-01,
234,-1.36e-01,
235,-2.08e-01,
236,-1.36e-01,
237,-2.24e-01,
238,-1.32e-01,
239,-2.24e-01,
240,-1.32e-01,
241,-2.04e-01,
242,-1.32e-01,
243,-2.08e-01,
244,-2.00e-01,
245,-1.36e-01,
246,-1.24e-01,
247,-2.00e-01,
248,-2.08e-01,
249,-1.20e-01,
250,-1.32e-01,
251,-2.16e-01,
252,-1.36e-01,
253,-2.20e-01,
254,-2.04e-01,
255,-1.16e-01,
256,-1.36e-01,
257,-2.12e-01,
258,-1.24e-01,
259,-2.16e-01,
260,-1.32e-01,
261,-2.12e-01,
262,-2.16e-01,
263,-1.36e-01,
264,-2.04e-01,
265,-1.32e-01,
266,-2.00e-01,
267,-1.32e-01,
268,-2.12e-01,
269,-1.28e-01,
270,-1.28e-01,
271,-2.04e-01,
272,-1.32e-01,
273,-2.20e-01,
274,-2.12e-01,
275,-1.24e-01,
276,-1.36e-01,
277,-2.16e-01,
278,-1.32e-01,
279,-2.08e-01,
280,-1.36e-01,
281,-2.12e-01,
282,-1.32e-01,
283,-2.00e-01,
284,-2.08e-01,
285,-1.36e-01,
286,-1.28e-01,
287,-2.12e-01,
288,-1.24e-01,
289,-2.08e-01,
290,-2.08e-01,
291,-1.28e-01,
292,-2.16e-01,
293,-1.24e-01,
294,-2.08e-01,
295,-1.28e-01,
296,-2.08e-01,
297,-1.40e-01,
298,-1.32e-01,
299,-2.08e-01,
300,-1.28e-01,
301,-2.16e-01,
302,-2.08e-01,
303,-1.32e-01,
304,-1.32e-01,
305,-2.00e-01,
306,-2.08e-01,
307,-1.28e-01,
308,-1.32e-01,
309,-2.28e-01,
310,-1.32e-01,
311,-2.08e-01,
312,-2.16e-01,
313,-1.32e-01,
314,-2.12e-01,
315,-1.32e-01,
316,-2.08e-01,
317,-1.36e-01,
318,-2.00e-01,
319,-1.32e-01,
320,-2.08e-01,
321,-1.36e-01,
322,-2.04e-01,
323,-1.36e-01,
324,-1.40e-01,
325,-2.04e-01,
326,-1.32e-01,
327,-2.12e-01,
328,-2.04e-01,
329,-1.28e-01,
330,-1.36e-01,
331,-2.12e-01,
332,-1.28e-01,
333,-2.00e-01,
334,-1.32e-01,
335,-2.08e-01,
336,-1.36e-01,
337,-2.04e-01,
338,-1.28e-01,
339,-2.16e-01,
340,-2.16e-01,
341,-1.36e-01,
342,-2.12e-01,
343,-1.24e-01,
344,-2.04e-01,
345,-1.32e-01,
346,-1.96e-01,
347,-1.28e-01,
348,-1.28e-01,
349,-2.12e-01,
350,-1.24e-01,
351,-2.12e-01,
352,-1.32e-01,
353,-2.00e-01,
354,-1.32e-01,
355,-2.16e-01,
356,-2.12e-01,
357,-1.28e-01,
358,-2.04e-01,
359,-1.32e-01,
360,-1.24e-01,
361,-2.08e-01,
362,-2.04e-01,
363,-1.20e-01,
364,-1.32e-01,
365,-2.16e-01,
366,-2.04e-01,
367,-1.32e-01,
368,-1.28e-01,
369,-2.04e-01,
370,-1.32e-01,
371,-2.04e-01,
372,-1.28e-01,
373,-2.04e-01,
374,-1.28e-01,
375,-2.12e-01,
376,-1.24e-01,
377,-2.00e-01,
378,-1.36e-01,
379,-2.08e-01,
380,-2.00e-01,
381,-1.20e-01,
382,-1.40e-01,
383,-2.12e-01,
384,-1.28e-01,
385,-2.08e-01,
386,-1.28e-01,
387,-2.12e-01,
388,-1.40e-01,
389,-2.08e-01,
390,-2.04e-01,
391,-1.32e-01,
392,-1.32e-01,
393,-2.12e-01,
394,-2.00e-01,
395,-1.28e-01,
396,-2.00e-01,
397,-1.32e-01,
398,-1.32e-01,
399,-2.08e-01,
400,-1.32e-01,
401,-2.00e-01,
402,-1.32e-01,
403,-2.00e-01,
404,-2.00e-01,
405,-1.40e-01,
406,-1.32e-01,
407,-2.12e-01,
408,-2.12e-01,
409,-1.28e-01,
410,-1.32e-01,
411,-2.04e-01,
412,-2.04e-01,
413,-1.32e-01,
414,-1.36e-01,
415,-2.12e-01,
416,-1.32e-01,
417,-2.16e-01,
418,-1.36e-01,
419,-2.12e-01,
420,-2.00e-01,
421,-1.32e-01,
422,-1.28e-01,
423,-2.12e-01,
424,-1.24e-01,
425,-2.20e-01,
426,-1.36e-01,
427,-2.12e-01,
428,-1.24e-01,
429,-2.12e-01,
430,-2.04e-01,
431,-1.28e-01,
432,-2.16e-01,
433,-1.20e-01,
434,-2.04e-01,
435,-1.32e-01,
436,-1.32e-01,
437,-2.08e-01,
438,-1.20e-01,
439,-2.12e-01,
440,-2.00e-01,
441,-1.36e-01,
442,-1.32e-01,
443,-2.16e-01,
444,-2.04e-01,
445,-1.32e-01,
446,-1.28e-01,
447,-2.16e-01,
448,-2.08e-01,
449,-1.28e-01,
450,-1.32e-01,
451,-2.08e-01,
452,-2.04e-01,
453,-1.28e-01,
454,-1.16e-01,
455,-2.12e-01,
456,-2.00e-01,
457,-1.32e-01,
458,-1.32e-01,
459,-2.00e-01,
460,-2.08e-01,
461,-1.28e-01,
462,-2.04e-01,
463,-1.20e-01,
464,-2.12e-01,
465,-1.28e-01,
466,-2.12e-01,
467,-1.28e-01,
468,-2.08e-01,
469,-1.36e-01,
470,-1.32e-01,
471,-2.12e-01,
472,-1.32e-01,
473,-2.12e-01,
474,-2.16e-01,
475,-1.28e-01,
476,-2.08e-01,
477,-1.28e-01,
478,-2.24e-01,
479,-1.36e-01,
480,-2.12e-01,
481,-1.36e-01,
482,-1.36e-01,
483,-2.00e-01,
484,-1.32e-01,
485,-2.12e-01,
486,-1.28e-01,
487,-2.04e-01,
488,-1.36e-01,
489,-2.04e-01,
490,-1.32e-01,
491,-2.16e-01,
492,-2.08e-01,
493,-1.28e-01,
494,-2.04e-01,
495,-1.32e-01,
496,-2.16e-01,
497,-1.32e-01,
498,-2.12e-01,
499,-1.32e-01,
500,-1.28e-01,
501,-2.08e-01,
502,-1.32e-01,
503,-2.12e-01,
504,-1.32e-01,
505,-2.12e-01,
506,-2.08e-01,
507,-1.28e-01,
508,-1.36e-01,
509,-2.12e-01,
510,-2.04e-01,
511,-1.36e-01,
512,-1.32e-01,
513,-2.08e-01,
514,-2.04e-01,
515,-1.32e-01,
516,-1.32e-01,
517,-2.04e-01,
518,-2.20e-01,
519,-1.32e-01,
520,-1.28e-01,
521,-2.12e-01,
522,-2.12e-01,
523,-1.24e-01,
524,-1.32e-01,
525,-2.12e-01,
526,-2.16e-01,
527,-1.28e-01,
528,-2.04e-01,
529,-1.32e-01,
530,-1.28e-01,
531,-2.24e-01,
532,-1.32e-01,
533,-2.08e-01,
534,-2.12e-01,
535,-1.36e-01,
536,-1.16e-01,
537,-2.04e-01,
538,-2.08e-01,
539,-1.32e-01,
540,-1.12e-01,
541,-2.16e-01,
542,-2.04e-01,
543,-1.32e-01,
544,-1.36e-01,
545,-2.04e-01,
546,-1.36e-01,
547,-2.04e-01,
548,-2.04e-01,
549,-1.32e-01,
550,-1.32e-01,
551,-2.08e-01,
552,-1.36e-01,
553,-2.16e-01,
554,-2.12e-01,
555,-1.32e-01,
556,-2.08e-01,
557,-1.28e-01,
558,-2.16e-01,
559,-1.28e-01,
560,-1.28e-01,
561,-2.04e-01,
562,-2.12e-01,
563,-1.28e-01,
564,-1.36e-01,
565,-2.04e-01,
566,-1.28e-01,
567,-2.12e-01,
568,-2.00e-01,
569,-1.36e-01,
570,-2.00e-01,
571,-1.32e-01,
572,-1.32e-01,
573,-2.12e-01,
574,-1.36e-01,
575,-2.08e-01,
576,-2.04e-01,
577,-1.28e-01,
578,-1.32e-01,
579,-2.08e-01,
580,-2.08e-01,
581,-1.28e-01,
582,-2.00e-01,
583,-1.32e-01,
584,-2.16e-01,
585,-1.32e-01,
586,-1.24e-01,
587,-2.12e-01,
588,-1.36e-01,
589,-2.04e-01,
590,-1.44e-01,
591,-2.04e-01,
592,-1.28e-01,
593,-2.08e-01,
594,-1.36e-01,
595,-2.12e-01,
596,-1.28e-01,
597,-2.12e-01,
598,-1.32e-01,
599,-2.12e-01,
600,-1.36e-01,
601,-2.04e-01,
602,-1.32e-01,
603,-2.08e-01,
604,-2.16e-01,
605,-1.12e-01,
606,-2.08e-01,
607,-1.28e-01,
608,-1.24e-01,
609,-2.12e-01,
610,-1.28e-01,
611,-2.08e-01,
612,-1.32e-01,
613,-2.08e-01,
614,-2.00e-01,
615,-1.32e-01,
616,-2.16e-01,
617,-1.24e-01,
618,-1.40e-01,
619,-2.08e-01,
620,-2.00e-01,
621,-1.28e-01,
622,-1.32e-01,
623,-2.04e-01,
624,-2.08e-01,
625,-1.32e-01,
626,-2.24e-01,
627,-1.32e-01,
628,-2.12e-01,
629,-1.32e-01,
630,-1.28e-01,
631,-2.04e-01,
632,-2.08e-01,
633,-1.36e-01,
634,-1.32e-01,
635,-2.24e-01,
636,-1.32e-01,
637,-2.04e-01,
638,-2.16e-01,
639,-1.32e-01,
640,-1.32e-01,
641,-2.00e-01,
642,-2.04e-01,
643,-1.32e-01,
644,-2.12e-01,
645,-1.32e-01,
646,-2.00e-01,
647,-1.28e-01,
648,-2.08e-01,
649,-1.28e-01,
650,-1.24e-01,
651,-2.16e-01,
652,-2.00e-01,
653,-1.32e-01,
654,-1.16e-01,
655,-2.08e-01,
656,-2.08e-01,
657,-1.32e-01,
658,-1.32e-01,
659,-2.04e-01,
660,-2.28e-01,
661,-1.36e-01,
662,-2.08e-01,
663,-1.36e-01,
664,-2.04e-01,
665,-1.28e-01,
666,-1.28e-01,
667,-2.12e-01,
668,-1.36e-01,
669,-2.08e-01,
670,-1.32e-01,
671,-2.00e-01,
672,-1.28e-01,
673,-2.16e-01,
674,-2.08e-01,
675,-1.28e-01,
676,-1.32e-01,
677,-2.12e-01,
678,-1.36e-01,
679,-2.16e-01,
680,-1.32e-01,
681,-2.16e-01,
682,-2.04e-01,
683,-1.32e-01,
684,-1.32e-01,
685,-2.16e-01,
686,-1.36e-01,
687,-2.16e-01,
688,-2.08e-01,
689,-1.32e-01,
690,-1.32e-01,
691,-2.04e-01,
692,-2.12e-01,
693,-1.20e-01,
694,-1.28e-01,
695,-2.08e-01,
696,-1.32e-01,
697,-2.04e-01,
698,-2.08e-01,
699,-1.24e-01,
700,-2.12e-01,
701,-1.28e-01,
702,-1.32e-01,
703,-2.08e-01,
704,-1.32e-01,
705,-2.00e-01,
706,-1.40e-01,
707,-2.08e-01,
708,-2.12e-01,
709,-1.32e-01,
710,-1.36e-01,
711,-2.00e-01,
712,-2.16e-01,
713,-1.32e-01,
714,-2.08e-01,
715,-1.36e-01,
716,-2.04e-01,
717,-1.32e-01,
718,-1.24e-01,
719,-2.08e-01,
720,-2.16e-01,
721,-1.36e-01,
722,-1.32e-01,
723,-2.00e-01,
724,-2.08e-01,
725,-1.28e-01,
726,-2.12e-01,
727,-1.32e-01,
728,-1.28e-01,
729,-2.08e-01,
730,-1.36e-01,
731,-2.00e-01,
732,-2.00e-01,
733,-1.28e-01,
734,-1.32e-01,
735,-2.12e-01,
736,-1.32e-01,
737,-2.00e-01,
738,-2.00e-01,
739,-1.28e-01,
740,-1.32e-01,
741,-2.08e-01,
742,-2.12e-01,
743,-1.32e-01,
744,-2.08e-01,
745,-1.36e-01,
746,-2.04e-01,
747,-1.32e-01,
748,-1.32e-01,
749,-2.12e-01,
750,-1.32e-01,
751,-2.08e-01,
752,-2.04e-01,
753,-1.28e-01,
754,-2.12e-01,
755,-1.32e-01,
756,-2.04e-01,
757,-1.36e-01,
758,-2.04e-01,
759,-1.36e-01,
760,-1.36e-01,
761,-2.12e-01,
762,-2.00e-01,
763,-1.28e-01,
764,-1.44e-01,
765,-2.08e-01,
766,-2.08e-01,
767,-1.24e-01,
768,-2.16e-01,
769,-1.24e-01,
770,-2.04e-01,
771,-1.36e-01,
772,-2.12e-01,
773,-1.32e-01,
774,-2.00e-01,
775,-1.28e-01,
776,-2.00e-01,
777,-1.32e-01,
778,-1.36e-01,
779,-2.12e-01,
780,-2.12e-01,
781,-1.28e-01,
782,-1.28e-01,
783,-2.04e-01,
784,-1.32e-01,
785,-2.08e-01,
786,-1.12e-01,
787,-2.00e-01,
788,-1.28e-01,
789,-2.12e-01,
790,-2.12e-01,
791,-1.28e-01,
792,-1.20e-01,
793,-2.12e-01,
794,-2.12e-01,
795,-1.32e-01,
796,-1.36e-01,
797,-2.16e-01,
798,-2.08e-01,
799,-1.32e-01,
800,-2.12e-01,
801,-1.24e-01,
802,-1.28e-01,
803,-2.12e-01,
804,-1.16e-01,
805,-2.16e-01,
806,-2.08e-01,
807,-1.36e-01,
808,-2.16e-01,
809,-1.32e-01,
810,-1.24e-01,
811,-2.12e-01,
812,-2.00e-01,
813,-1.32e-01,
814,-1.32e-01,
815,-2.08e-01,
816,-1.32e-01,
817,-2.08e-01,
818,-1.24e-01,
819,-2.20e-01,
820,-2.08e-01,
821,-1.32e-01,
822,-1.32e-01,
823,-2.12e-01,
824,-2.12e-01,
825,-1.36e-01,
826,-2.04e-01,
827,-1.36e-01,
828,-2.20e-01,
829,-1.32e-01,
830,-1.32e-01,
831,-2.12e-01,
832,-1.32e-01,
833,-2.04e-01,
834,-2.12e-01,
835,-1.28e-01,
836,-1.36e-01,
837,-2.00e-01,
838,-1.28e-01,
839,-2.08e-01,
840,-1.36e-01,
841,-2.20e-01,
842,-1.32e-01,
843,-2.04e-01,
844,-2.16e-01,
845,-1.32e-01,
846,-1.28e-01,
847,-2.08e-01,
848,-2.04e-01,
849,-1.36e-01,
850,-1.28e-01,
851,-2.04e-01,
852,-1.32e-01,
853,-2.12e-01,
854,-2.12e-01,
855,-1.40e-01,
856,-1.28e-01,
857,-2.04e-01,
858,-1.32e-01,
859,-2.20e-01,
860,-2.12e-01,
861,-1.32e-01,
862,-1.36e-01,
863,-2.16e-01,
864,-1.36e-01,
865,-2.04e-01,
866,-2.00e-01,
867,-1.20e-01,
868,-2.08e-01,
869,-1.32e-01,
870,-1.28e-01,
871,-2.12e-01,
872,-2.20e-01,
873,-1.32e-01,
874,-1.32e-01,
875,-2.08e-01,
876,-1.32e-01,
877,-2.12e-01,
878,-2.08e-01,
879,-1.36e-01,
880,-2.04e-01,
881,-1.28e-01,
882,-1.28e-01,
883,-2.00e-01,
884,-2.32e-01,
885,-1.32e-01,
886,-2.08e-01,
887,-1.32e-01,
888,-2.00e-01,
889,-1.36e-01,
890,-2.12e-01,
891,-1.32e-01,
892,-1.28e-01,
893,-2.00e-01,
894,-1.32e-01,
895,-2.08e-01,
896,-1.32e-01,
897,-2.04e-01,
898,-1.28e-01,
899,-2.12e-01,
900,-2.12e-01,
901,-1.40e-01,
902,-1.36e-01,
903,-2.04e-01,
904,-1.40e-01,
905,-2.16e-01,
906,-2.16e-01,
907,-1.24e-01,
908,-1.28e-01,
909,-2.12e-01,
910,-2.12e-01,
911,-1.28e-01,
912,-1.36e-01,
913,-2.04e-01,
914,-2.12e-01,
915,-1.28e-01,
916,-1.44e-01,
917,-2.08e-01,
918,-2.08e-01,
919,-1.36e-01,
920,-2.12e-01,
921,-1.28e-01,
922,-2.00e-01,
923,-1.24e-01,
924,-1.32e-01,
925,-2.28e-01,
926,-1.32e-01,
927,-2.04e-01,
928,-1.32e-01,
929,-2.12e-01,
930,-1.36e-01,
931,-2.04e-01,
932,-2.08e-01,
933,-1.36e-01,
934,-1.36e-01,
935,-2.12e-01,
936,-1.28e-01,
937,-2.12e-01,
938,-2.00e-01,
939,-1.24e-01,
940,-1.32e-01,
941,-2.12e-01,
942,-2.00e-01,
943,-1.32e-01,
944,-2.16e-01,
945,-1.36e-01,
946,-1.20e-01,
947,-2.08e-01,
948,-2.12e-01,
949,-1.36e-01,
950,-2.08e-01,
951,-1.20e-01,
952,-2.00e-01,
953,-1.32e-01,
954,-2.08e-01,
955,-1.36e-01,
956,-1.36e-01,
957,-2.04e-01,
958,-1.32e-01,
959,-2.16e-01,
960,-2.08e-01,
961,-1.32e-01,
962,-1.28e-01,
963,-2.20e-01,
964,-2.00e-01,
965,-1.16e-01,
966,-1.24e-01,
967,-2.08e-01,
968,-1.32e-01,
969,-2.12e-01,
970,-2.12e-01,
971,-1.24e-01,
972,-2.12e-01,
973,-1.32e-01,
974,-2.08e-01,
975,-1.36e-01,
976,-1.28e-01,
977,-2.04e-01,
978,-2.16e-01,
979,-1.28e-01,
980,-2.08e-01,
981,-1.36e-01,
982,-1.36e-01,
983,-2.08e-01,
984,-1.20e-01,
985,-2.12e-01,
986,-2.04e-01,
987,-1.36e-01,
988,-2.24e-01,
989,-1.32e-01,
990,-1.32e-01,
991,-2.12e-01,
992,-2.00e-01,
993,-1.36e-01,
994,-2.04e-01,
995,-1.24e-01,
996,-2.12e-01,
997,-1.28e-01,
998,-1.36e-01,
999,-2.12e-01,
1000,-2.08e-01,
1001,-1.32e-01,
1002,-2.00e-01,
1003,-1.32e-01,
1004,-1.40e-01,
1005,-2.16e-01,
1006,-2.04e-01,
1007,-1.40e-01,
1008,-2.00e-01,
1009,-1.28e-01,
1010,-2.08e-01,
1011,-1.28e-01,
1012,-2.00e-01,
1013,-1.32e-01,
1014,-1.36e-01,
1015,-2.00e-01,
1016,-2.04e-01,
1017,-1.36e-01,
1018,-1.36e-01,
1019,-2.28e-01,
1020,-2.00e-01,
1021,-1.32e-01,
1022,-1.36e-01,
1023,-2.12e-01,
1024,-2.00e-01,
1025,-1.32e-01,
1026,-2.12e-01,
1027,-1.32e-01,
1028,-1.32e-01,
1029,-2.12e-01,
1030,-1.36e-01,
1031,-2.04e-01,
1032,-1.36e-01,
1033,-2.08e-01,
1034,-2.08e-01,
1035,-1.32e-01,
1036,-1.36e-01,
1037,-2.04e-01,
1038,-2.12e-01,
1039,-1.36e-01,
1040,-2.08e-01,
1041,-1.32e-01,
1042,-1.36e-01,
1043,-2.12e-01,
1044,-1.32e-01,
1045,-2.12e-01,
1046,-1.32e-01,
1047,-2.20e-01,
1048,-2.04e-01,
1049,-1.20e-01,
1050,-1.32e-01,
1051,-2.12e-01,
1052,-1.28e-01,
1053,-2.12e-01,
1054,-2.16e-01,
1055,-1.28e-01,
1056,-1.36e-01,
1057,-2.12e-01,
1058,-1.32e-01,
1059,-2.12e-01,
1060,-1.36e-01,
1061,-2.12e-01,
1062,-1.28e-01,
1063,-2.08e-01,
1064,-1.32e-01,
1065,-2.08e-01,
1066,-1.36e-01,
1067,-2.08e-01,
1068,-2.04e-01,
1069,-1.28e-01,
1070,-2.16e-01,
1071,-1.12e-01,
1072,-2.08e-01,
1073,-1.28e-01,
1074,-2.12e-01,
1075,-1.36e-01,
1076,-1.36e-01,
1077,-2.12e-01,
1078,-1.32e-01,
1079,-2.12e-01,
1080,-1.20e-01,
1081,-2.08e-01,
1082,-1.16e-01,
1083,-2.12e-01,
1084,-1.36e-01,
1085,-2.08e-01,
1086,-1.32e-01,
1087,-2.12e-01,
1088,-2.12e-01,
1089,-1.32e-01,
1090,-2.08e-01,
1091,-1.36e-01,
1092,-2.08e-01,
1093,-1.28e-01,
1094,-2.04e-01,
1095,-1.28e-01,
1096,-1.20e-01,
1097,-2.08e-01,
1098,-1.28e-01,
1099,-2.16e-01,
1100,-1.36e-01,
1101,-2.08e-01,
1102,-2.00e-01,
1103,-1.32e-01,
1104,-2.08e-01,
1105,-1.32e-01,
1106,-1.32e-01,
1107,-2.12e-01,
1108,-2.08e-01,
1109,-1.16e-01,
1110,-1.32e-01,
1111,-2.08e-01,
1112,-2.08e-01,
1113,-1.32e-01,
1114,-2.04e-01,
1115,-1.36e-01,
1116,-1.32e-01,
1117,-2.12e-01,
1118,-1.36e-01,
1119,-2.04e-01,
1120,-1.20e-01,
1121,-2.12e-01,
1122,-1.44e-01,
1123,-2.08e-01,
1124,-2.04e-01,
1125,-1.36e-01,
1126,-2.04e-01,
1127,-1.28e-01,
1128,-1.28e-01,
1129,-2.08e-01,
1130,-2.08e-01,
1131,-1.36e-01,
1132,-1.28e-01,
1133,-2.24e-01,
1134,-2.00e-01,
1135,-1.32e-01,
1136,-2.16e-01,
1137,-1.24e-01,
1138,-2.08e-01,
1139,-1.32e-01,
1140,-2.12e-01,
1141,-1.28e-01,
1142,-2.12e-01,
1143,-1.36e-01,
1144,-1.20e-01,
1145,-2.12e-01,
1146,-1.32e-01,
1147,-2.08e-01,
1148,-2.04e-01,
1149,-1.28e-01,
1150,-2.16e-01,
1151,-1.20e-01,
1152,-2.12e-01,
1153,-1.40e-01,
1154,-1.28e-01,
1155,-2.16e-01,
1156,-1.28e-01,
1157,-2.12e-01,
1158,-2.12e-01,
1159,-1.32e-01,
1160,-2.04e-01,
1161,-1.20e-01,
1162,-1.28e-01,
1163,-2.12e-01,
1164,-2.04e-01,
1165,-1.32e-01,
1166,-2.12e-01,
1167,-1.36e-01,
1168,-1.20e-01,
1169,-2.08e-01,
1170,-2.20e-01,
1171,-1.20e-01,
1172,-2.00e-01,
1173,-1.12e-01,
1174,-2.04e-01,
1175,-1.28e-01,
1176,-1.36e-01,
1177,-2.16e-01,
1178,-2.16e-01,
1179,-1.36e-01,
1180,-1.32e-01,
1181,-2.08e-01,
1182,-1.32e-01,
1183,-2.04e-01,
1184,-2.16e-01,
1185,-1.36e-01,
1186,-1.32e-01,
1187,-2.16e-01,
1188,-2.04e-01,
1189,-1.28e-01,
1190,-2.04e-01,
1191,-1.28e-01,
1192,-2.00e-01,
1193,-1.24e-01,
1194,-2.04e-01,
1195,-1.28e-01,
1196,-2.12e-01,
1197,-1.32e-01,
1198,-1.32e-01,
1199,-2.12e-01,
