fastdiffamp/data-noise-set/bal-mean/NewFile11.csv

X,CH1,Start,Increment,
Sequence,Volt,-5.990000e+00,1.000000e-02
0,-1.16e-01,
1,-2.80e-02,
2,-2.40e-02,
3,-1.04e-01,
4,-1.08e-01,
5,-2.80e-02,
6,-3.20e-02,
7,-1.04e-01,
8,-3.60e-02,
9,-1.12e-01,
10,-1.08e-01,
11,-2.80e-02,
12,-1.08e-01,
13,-2.80e-02,
14,-1.08e-01,
15,-4.40e-02,
16,-3.20e-02,
17,-1.20e-01,
18,-2.80e-02,
19,-1.04e-01,
20,-2.40e-02,
21,-1.12e-01,
22,-3.60e-02,
23,-1.12e-01,
24,-1.04e-01,
25,-3.20e-02,
26,-3.20e-02,
27,-1.08e-01,
28,-1.08e-01,
29,-4.00e-02,
30,-1.04e-01,
31,-3.20e-02,
32,-4.00e-02,
33,-1.08e-01,
34,-4.00e-02,
35,-1.12e-01,
36,-4.00e-02,
37,-1.20e-01,
38,-1.08e-01,
39,-2.80e-02,
40,-3.20e-02,
41,-1.08e-01,
42,-1.24e-01,
43,-4.00e-02,
44,-1.04e-01,
45,-3.20e-02,
46,-3.20e-02,
47,-1.08e-01,
48,-4.00e-02,
49,-1.08e-01,
50,-4.00e-02,
51,-1.04e-01,
52,-1.08e-01,
53,-4.00e-02,
54,-2.40e-02,
55,-1.12e-01,
56,-2.80e-02,
57,-1.12e-01,
58,-2.80e-02,
59,-1.12e-01,
60,-3.60e-02,
61,-1.08e-01,
62,-3.20e-02,
63,-1.08e-01,
64,-1.12e-01,
65,-4.00e-02,
66,-1.08e-01,
67,-2.40e-02,
68,-1.08e-01,
69,-3.20e-02,
70,-1.04e-01,
71,-3.20e-02,
72,-3.20e-02,
73,-1.20e-01,
74,-2.40e-02,
75,-1.20e-01,
76,-2.80e-02,
77,-1.08e-01,
78,-4.40e-02,
79,-1.12e-01,
80,-2.80e-02,
81,-1.00e-01,
82,-3.20e-02,
83,-1.04e-01,
84,-1.00e-01,
85,-3.20e-02,
86,-1.04e-01,
87,-2.80e-02,
88,-2.40e-02,
89,-1.04e-01,
90,-1.12e-01,
91,-3.20e-02,
92,-3.60e-02,
93,-1.04e-01,
94,-1.00e-01,
95,-3.20e-02,
96,-2.40e-02,
97,-1.08e-01,
98,-1.04e-01,
99,-4.00e-02,
100,-1.04e-01,
101,-3.20e-02,
102,-1.20e-01,
103,-2.80e-02,
104,-2.80e-02,
105,-1.12e-01,
106,-1.08e-01,
107,-2.80e-02,
108,-1.24e-01,
109,-4.00e-02,
110,-1.08e-01,
111,-3.60e-02,
112,-3.20e-02,
113,-1.12e-01,
114,-2.80e-02,
115,-1.08e-01,
116,-2.80e-02,
117,-1.00e-01,
118,-1.08e-01,
119,-1.60e-02,
120,-1.60e-02,
121,-1.04e-01,
122,-4.00e-02,
123,-1.08e-01,
124,-1.08e-01,
125,-3.20e-02,
126,-1.08e-01,
127,-3.20e-02,
128,-1.08e-01,
129,-3.20e-02,
130,-1.08e-01,
131,-2.40e-02,
132,-1.08e-01,
133,-3.20e-02,
134,-1.08e-01,
135,-2.80e-02,
136,-3.20e-02,
137,-1.08e-01,
138,-2.40e-02,
139,-1.08e-01,
140,-1.08e-01,
141,-1.60e-02,
142,-4.00e-02,
143,-1.12e-01,
144,-1.04e-01,
145,-4.00e-02,
146,-1.24e-01,
147,-2.80e-02,
148,-1.20e-01,
149,-3.60e-02,
150,-3.60e-02,
151,-1.08e-01,
152,-1.04e-01,
153,-3.20e-02,
154,-2.80e-02,
155,-1.12e-01,
156,-3.20e-02,
157,-1.12e-01,
158,-4.00e-02,
159,-1.04e-01,
160,-1.04e-01,
161,-3.60e-02,
162,-1.12e-01,
163,-1.20e-02,
164,-2.80e-02,
165,-1.20e-01,
166,-3.20e-02,
167,-1.08e-01,
168,-1.08e-01,
169,-3.20e-02,
170,-4.00e-02,
171,-1.16e-01,
172,-1.04e-01,
173,-3.20e-02,
174,-1.04e-01,
175,-3.20e-02,
176,-3.60e-02,
177,-1.04e-01,
178,-2.40e-02,
179,-1.04e-01,
180,-1.04e-01,
181,-2.80e-02,
182,-4.00e-02,
183,-1.08e-01,
184,-1.08e-01,
185,-2.80e-02,
186,-1.12e-01,
187,-3.20e-02,
188,-1.08e-01,
189,-2.80e-02,
190,-1.04e-01,
191,-4.00e-02,
192,-3.20e-02,
193,-1.16e-01,
194,-4.00e-02,
195,-1.08e-01,
196,-4.40e-02,
197,-1.12e-01,
198,-1.08e-01,
199,-2.80e-02,
200,-1.04e-01,
201,-3.60e-02,
202,-2.80e-02,
203,-1.04e-01,
204,-1.04e-01,
205,-2.80e-02,
206,-2.80e-02,
207,-1.20e-01,
208,-1.08e-01,
209,-2.80e-02,
210,-4.00e-02,
211,-1.12e-01,
212,-3.20e-02,
213,-1.04e-01,
214,-3.60e-02,
215,-1.08e-01,
216,-3.60e-02,
217,-1.12e-01,
218,-4.00e-02,
219,-1.08e-01,
220,-1.12e-01,
221,-2.40e-02,
222,-2.80e-02,
223,-1.04e-01,
224,-3.60e-02,
225,-1.04e-01,
226,-2.80e-02,
227,-1.12e-01,
228,-1.12e-01,
229,-4.00e-02,
230,-1.08e-01,
231,-3.20e-02,
232,-1.08e-01,
233,-2.00e-02,
234,-3.60e-02,
235,-1.08e-01,
236,-3.60e-02,
237,-1.04e-01,
238,-1.04e-01,
239,-2.80e-02,
240,-1.00e-01,
241,-2.80e-02,
242,-1.12e-01,
243,-3.60e-02,
244,-1.20e-01,
245,-2.80e-02,
246,-3.20e-02,
247,-1.08e-01,
248,-1.00e-01,
249,-3.20e-02,
250,-2.40e-02,
251,-1.04e-01,
252,-3.20e-02,
253,-1.16e-01,
254,-1.08e-01,
255,-3.20e-02,
256,-3.20e-02,
257,-1.04e-01,
258,-1.04e-01,
259,-4.00e-02,
260,-1.04e-01,
261,-3.20e-02,
262,-1.08e-01,
263,-3.20e-02,
264,-1.04e-01,
265,-3.20e-02,
266,-2.40e-02,
267,-1.12e-01,
268,-1.04e-01,
269,-4.00e-02,
270,-3.20e-02,
271,-1.04e-01,
272,-1.08e-01,
273,-3.20e-02,
274,-3.60e-02,
275,-1.08e-01,
276,-1.12e-01,
277,-4.00e-02,
278,-3.20e-02,
279,-1.04e-01,
280,-1.04e-01,
281,-3.20e-02,
282,-2.80e-02,
283,-1.08e-01,
284,-1.08e-01,
285,-8.00e-03,
286,-3.20e-02,
287,-1.08e-01,
288,-4.00e-02,
289,-1.12e-01,
290,-4.00e-02,
291,-1.04e-01,
292,-1.08e-01,
293,-2.80e-02,
294,-1.12e-01,
295,-3.60e-02,
296,-2.80e-02,
297,-1.08e-01,
298,-1.04e-01,
299,-3.20e-02,
300,-3.60e-02,
301,-1.08e-01,
302,-2.80e-02,
303,-1.04e-01,
304,-3.20e-02,
305,-1.20e-01,
306,-2.40e-02,
307,-1.08e-01,
308,-4.00e-02,
309,-1.12e-01,
310,-1.12e-01,
311,-3.20e-02,
312,-1.04e-01,
313,-3.20e-02,
314,-1.00e-01,
315,-3.60e-02,
316,-3.60e-02,
317,-1.08e-01,
318,-2.40e-02,
319,-1.04e-01,
320,-3.20e-02,
321,-1.04e-01,
322,-2.00e-02,
323,-1.12e-01,
324,-1.04e-01,
325,-2.00e-02,
326,-3.20e-02,
327,-1.16e-01,
328,-1.08e-01,
329,-2.80e-02,
330,-4.00e-02,
331,-1.04e-01,
332,-2.80e-02,
333,-1.08e-01,
334,-1.12e-01,
335,-3.20e-02,
336,-1.08e-01,
337,-2.80e-02,
338,-1.04e-01,
339,-2.80e-02,
340,-2.40e-02,
341,-1.04e-01,
342,-1.24e-01,
343,-4.00e-02,
344,-1.04e-01,
345,-3.60e-02,
346,-1.08e-01,
347,-2.80e-02,
348,-1.00e-01,
349,-2.80e-02,
350,-1.08e-01,
351,-2.40e-02,
352,-1.08e-01,
353,-3.20e-02,
354,-3.20e-02,
355,-1.12e-01,
356,-2.80e-02,
357,-1.12e-01,
358,-1.12e-01,
359,-2.80e-02,
360,-1.12e-01,
361,-2.00e-02,
362,-4.00e-02,
363,-1.04e-01,
364,-3.60e-02,
365,-1.04e-01,
366,-1.08e-01,
367,-4.00e-02,
368,-2.80e-02,
369,-1.00e-01,
370,-3.20e-02,
371,-1.20e-01,
372,-3.60e-02,
373,-1.08e-01,
374,-3.60e-02,
375,-1.20e-01,
376,-3.20e-02,
377,-1.08e-01,
378,-1.08e-01,
379,-2.40e-02,
380,-1.08e-01,
381,-2.80e-02,
382,-1.04e-01,
383,-4.00e-03,
384,-4.00e-02,
385,-1.08e-01,
386,-3.60e-02,
387,-1.12e-01,
388,-1.08e-01,
389,-3.20e-02,
390,-1.04e-01,
391,-3.20e-02,
392,-2.80e-02,
393,-1.08e-01,
394,-4.00e-02,
395,-1.04e-01,
396,-3.20e-02,
397,-1.04e-01,
398,-2.40e-02,
399,-1.00e-01,
400,-1.04e-01,
401,-2.80e-02,
402,-1.16e-01,
403,-2.80e-02,
404,-3.20e-02,
405,-1.12e-01,
406,-1.00e-01,
407,-2.40e-02,
408,-1.04e-01,
409,-3.20e-02,
410,-1.16e-01,
411,-3.20e-02,
412,-1.08e-01,
413,-2.00e-02,
414,-1.28e-01,
415,-2.80e-02,
416,-1.08e-01,
417,-2.80e-02,
418,-4.00e-02,
419,-1.08e-01,
420,-1.04e-01,
421,-3.20e-02,
422,-1.04e-01,
423,-2.80e-02,
424,-1.04e-01,
425,-2.80e-02,
426,-2.80e-02,
427,-1.04e-01,
428,-3.20e-02,
429,-1.08e-01,
430,-1.08e-01,
431,-3.60e-02,
432,-3.20e-02,
433,-1.08e-01,
434,-1.04e-01,
435,-4.00e-02,
436,-4.00e-02,
437,-1.08e-01,
438,-1.20e-01,
439,-3.20e-02,
440,-1.16e-01,
441,-2.80e-02,
442,-1.08e-01,
443,-2.40e-02,
444,-3.20e-02,
445,-1.16e-01,
446,-1.08e-01,
447,-2.40e-02,
448,-1.12e-01,
449,-2.40e-02,
450,-3.60e-02,
451,-1.04e-01,
452,-1.08e-01,
453,-3.60e-02,
454,-3.20e-02,
455,-1.12e-01,
456,-2.80e-02,
457,-1.08e-01,
458,-1.08e-01,
459,-3.60e-02,
460,-4.00e-02,
461,-1.04e-01,
462,-1.08e-01,
463,-3.20e-02,
464,-3.20e-02,
465,-1.12e-01,
466,-2.40e-02,
467,-1.00e-01,
468,-1.20e-01,
469,-2.40e-02,
470,-1.12e-01,
471,-3.60e-02,
472,-1.20e-02,
473,-1.08e-01,
474,-2.80e-02,
475,-1.24e-01,
476,-1.04e-01,
477,-2.80e-02,
478,-3.60e-02,
479,-1.08e-01,
480,-1.24e-01,
481,-2.40e-02,
482,-3.20e-02,
483,-1.04e-01,
484,-2.80e-02,
485,-1.04e-01,
486,-1.04e-01,
487,-3.20e-02,
488,-1.00e-01,
489,-3.60e-02,
490,-1.00e-01,
491,-2.80e-02,
492,-1.08e-01,
493,-3.20e-02,
494,-4.00e-02,
495,-1.04e-01,
496,-3.60e-02,
497,-1.12e-01,
498,-3.20e-02,
499,-1.08e-01,
500,-3.20e-02,
501,-1.08e-01,
502,-1.08e-01,
503,-2.40e-02,
504,-3.60e-02,
505,-1.04e-01,
506,-1.04e-01,
507,-4.00e-02,
508,-3.60e-02,
509,-1.24e-01,
510,-2.80e-02,
511,-1.08e-01,
512,-2.80e-02,
513,-1.00e-01,
514,-1.08e-01,
515,-3.20e-02,
516,-1.08e-01,
517,-2.80e-02,
518,-2.40e-02,
519,-1.12e-01,
520,-2.80e-02,
521,-1.24e-01,
522,-3.20e-02,
523,-1.12e-01,
524,-4.00e-02,
525,-1.16e-01,
526,-2.80e-02,
527,-1.04e-01,
528,-1.12e-01,
529,-3.20e-02,
530,-1.04e-01,
531,-2.80e-02,
532,-3.20e-02,
533,-1.20e-01,
534,-1.08e-01,
535,-4.00e-02,
536,-1.12e-01,
537,-2.80e-02,
538,-1.12e-01,
539,-2.80e-02,
540,-1.08e-01,
541,-4.00e-02,
542,-1.08e-01,
543,-4.00e-02,
544,-3.20e-02,
545,-1.04e-01,
546,-1.04e-01,
547,-3.60e-02,
548,-3.20e-02,
549,-1.08e-01,
550,-1.16e-01,
551,-2.80e-02,
552,-3.60e-02,
553,-1.04e-01,
554,-1.08e-01,
555,-3.20e-02,
556,-3.60e-02,
557,-1.04e-01,
558,-1.04e-01,
559,-2.80e-02,
560,-1.08e-01,
561,-2.40e-02,
562,-1.08e-01,
563,-2.80e-02,
564,-3.20e-02,
565,-1.04e-01,
566,-3.60e-02,
567,-1.12e-01,
568,-1.12e-01,
569,-3.20e-02,
570,-2.40e-02,
571,-1.08e-01,
572,-3.20e-02,
573,-1.08e-01,
574,-1.12e-01,
575,-2.80e-02,
576,-1.24e-01,
577,-3.60e-02,
578,-2.80e-02,
579,-1.08e-01,
580,-1.08e-01,
581,-2.80e-02,
582,-1.08e-01,
583,-2.80e-02,
584,-1.04e-01,
585,-2.40e-02,
586,-1.04e-01,
587,-3.60e-02,
588,-1.12e-01,
589,-3.20e-02,
590,-1.08e-01,
591,-3.20e-02,
592,-2.80e-02,
593,-1.08e-01,
594,-3.60e-02,
595,-1.08e-01,
596,-4.00e-02,
597,-1.12e-01,
598,-3.60e-02,
599,-1.04e-01,
600,-1.08e-01,
601,-2.40e-02,
602,-4.00e-02,
603,-1.08e-01,
604,-2.40e-02,
605,-1.08e-01,
606,-3.60e-02,
607,-1.04e-01,
608,-3.20e-02,
609,-1.04e-01,
610,-1.04e-01,
611,-3.20e-02,
612,-2.80e-02,
613,-1.00e-01,
614,-2.80e-02,
615,-1.04e-01,
616,-2.00e-02,
617,-1.08e-01,
618,-1.12e-01,
619,-3.60e-02,
620,-1.04e-01,
621,-2.80e-02,
622,-3.60e-02,
623,-1.08e-01,
624,-3.20e-02,
625,-1.04e-01,
626,-1.12e-01,
627,-2.80e-02,
628,-1.08e-01,
629,-2.40e-02,
630,-4.00e-02,
631,-1.08e-01,
632,-1.08e-01,
633,-3.20e-02,
634,-2.40e-02,
635,-1.08e-01,
636,-2.80e-02,
637,-1.28e-01,
638,-4.00e-02,
639,-1.08e-01,
640,-1.08e-01,
641,-2.80e-02,
642,-1.12e-01,
643,-3.60e-02,
644,-2.40e-02,
645,-1.08e-01,
646,-1.08e-01,
647,-4.00e-02,
648,-1.04e-01,
649,-3.20e-02,
650,-1.04e-01,
651,-3.60e-02,
652,-1.16e-01,
653,-2.80e-02,
654,-1.12e-01,
655,-3.20e-02,
656,-2.80e-02,
657,-1.08e-01,
658,-2.80e-02,
659,-1.20e-01,
660,-2.40e-02,
661,-1.12e-01,
662,-1.04e-01,
663,-3.20e-02,
664,-1.08e-01,
665,-3.20e-02,
666,-3.60e-02,
667,-1.04e-01,
668,-3.20e-02,
669,-1.08e-01,
670,-3.20e-02,
671,-1.20e-01,
672,-1.08e-01,
673,-2.40e-02,
674,-1.00e-01,
675,-2.80e-02,
676,-3.20e-02,
677,-1.08e-01,
678,-3.60e-02,
679,-1.12e-01,
680,-4.00e-02,
681,-1.24e-01,
682,-3.60e-02,
683,-1.04e-01,
684,-1.08e-01,
685,-2.80e-02,
686,-4.00e-02,
687,-1.08e-01,
688,-2.40e-02,
689,-1.20e-01,
690,-1.20e-01,
691,-2.40e-02,
692,-1.08e-01,
693,-3.60e-02,
694,-2.40e-02,
695,-1.12e-01,
696,-4.00e-02,
697,-1.04e-01,
698,-2.80e-02,
699,-1.08e-01,
700,-2.00e-02,
701,-1.12e-01,
702,-3.20e-02,
703,-1.08e-01,
704,-3.60e-02,
705,-1.12e-01,
706,-1.04e-01,
707,-2.80e-02,
708,-1.04e-01,
709,-2.80e-02,
710,-2.80e-02,
711,-1.08e-01,
712,-1.08e-01,
713,-2.80e-02,
714,-3.20e-02,
715,-1.12e-01,
716,-1.20e-01,
717,-2.80e-02,
718,-1.12e-01,
719,-2.80e-02,
720,-2.40e-02,
721,-1.08e-01,
722,-4.00e-02,
723,-1.08e-01,
724,-2.80e-02,
725,-1.08e-01,
726,-4.00e-02,
727,-1.08e-01,
728,-2.80e-02,
729,-1.16e-01,
730,-2.40e-02,
731,-1.08e-01,
732,-1.12e-01,
733,-2.80e-02,
734,-3.20e-02,
735,-1.04e-01,
736,-1.12e-01,
737,-2.80e-02,
738,-1.08e-01,
739,-2.80e-02,
740,-2.80e-02,
741,-1.12e-01,
742,-3.60e-02,
743,-1.08e-01,
744,-4.00e-02,
745,-1.12e-01,
746,-1.08e-01,
747,-3.60e-02,
748,-1.04e-01,
749,-3.20e-02,
750,-2.80e-02,
751,-1.08e-01,
752,-1.08e-01,
753,-3.60e-02,
754,-1.08e-01,
755,-2.40e-02,
756,-3.20e-02,
757,-1.04e-01,
758,-1.04e-01,
759,-2.80e-02,
760,-1.08e-01,
761,-2.40e-02,
762,-1.08e-01,
763,-2.40e-02,
764,-2.80e-02,
765,-1.24e-01,
766,-4.00e-02,
767,-1.16e-01,
768,-1.04e-01,
769,-3.20e-02,
770,-1.04e-01,
771,-2.00e-02,
772,-1.08e-01,
773,-2.40e-02,
774,-2.00e-02,
775,-1.12e-01,
776,-2.40e-02,
777,-1.08e-01,
778,-1.04e-01,
779,-2.80e-02,
780,-1.08e-01,
781,-2.40e-02,
782,-1.08e-01,
783,-4.00e-02,
784,-1.08e-01,
785,-3.60e-02,
786,-1.20e-01,
787,-2.80e-02,
788,-1.08e-01,
789,-3.60e-02,
790,-1.12e-01,
791,-4.00e-02,
792,-1.08e-01,
793,-4.00e-02,
794,-3.60e-02,
795,-1.12e-01,
796,-1.04e-01,
797,-2.80e-02,
798,-3.20e-02,
799,-1.12e-01,
800,-1.08e-01,
801,-3.20e-02,
802,-2.80e-02,
803,-1.08e-01,
804,-4.00e-02,
805,-1.04e-01,
806,-2.80e-02,
807,-1.04e-01,
808,-2.40e-02,
809,-1.08e-01,
810,-1.08e-01,
811,-2.40e-02,
812,-1.04e-01,
813,-3.60e-02,
814,-1.08e-01,
815,-3.60e-02,
816,-4.00e-02,
817,-1.04e-01,
818,-3.60e-02,
819,-1.08e-01,
820,-3.20e-02,
821,-1.08e-01,
822,-2.80e-02,
823,-1.08e-01,
824,-3.20e-02,
825,-1.12e-01,
826,-2.40e-02,
827,-1.16e-01,
828,-4.00e-02,
829,-1.08e-01,
830,-1.04e-01,
831,-2.40e-02,
832,-2.80e-02,
833,-1.08e-01,
834,-1.08e-01,
835,-3.60e-02,
836,-1.04e-01,
837,-4.00e-02,
838,-3.60e-02,
839,-1.12e-01,
840,-2.80e-02,
841,-1.08e-01,
842,-1.04e-01,
843,-1.20e-02,
844,-2.40e-02,
845,-1.04e-01,
846,-3.20e-02,
847,-1.04e-01,
848,-1.04e-01,
849,-3.20e-02,
850,-1.04e-01,
851,-3.20e-02,
852,-1.08e-01,
853,-2.00e-02,
854,-1.16e-01,
855,-3.60e-02,
856,-1.04e-01,
857,-3.20e-02,
858,-2.80e-02,
859,-1.24e-01,
860,-1.12e-01,
861,-4.00e-02,
862,-1.08e-01,
863,-1.60e-02,
864,-3.60e-02,
865,-1.04e-01,
866,-3.20e-02,
867,-1.08e-01,
868,-4.00e-02,
869,-1.08e-01,
870,-1.08e-01,
871,-3.60e-02,
872,-3.60e-02,
873,-1.16e-01,
874,-1.08e-01,
875,-4.00e-02,
876,-2.80e-02,
877,-1.20e-01,
878,-3.20e-02,
879,-1.08e-01,
880,-1.08e-01,
881,-4.00e-02,
882,-1.08e-01,
883,-3.60e-02,
884,-1.04e-01,
885,-3.20e-02,
886,-3.20e-02,
887,-1.08e-01,
888,-1.04e-01,
889,-2.80e-02,
890,-1.08e-01,
891,-2.80e-02,
892,-2.80e-02,
893,-1.04e-01,
894,-3.20e-02,
895,-1.04e-01,
896,-2.40e-02,
897,-1.08e-01,
898,-1.16e-01,
899,-1.60e-02,
900,-2.80e-02,
901,-1.04e-01,
902,-1.12e-01,
903,-1.60e-02,
904,-3.60e-02,
905,-1.04e-01,
906,-1.04e-01,
907,-2.80e-02,
908,-2.40e-02,
909,-1.12e-01,
910,-1.04e-01,
911,-3.60e-02,
912,-1.12e-01,
913,-3.20e-02,
914,-4.00e-02,
915,-1.08e-01,
916,-1.00e-01,
917,-3.20e-02,
918,-2.80e-02,
919,-1.00e-01,
920,-1.08e-01,
921,-3.60e-02,
922,-2.40e-02,
923,-1.20e-01,
924,-2.80e-02,
925,-1.08e-01,
926,-1.08e-01,
927,-3.20e-02,
928,-1.12e-01,
929,-3.20e-02,
930,-3.60e-02,
931,-1.08e-01,
932,-3.60e-02,
933,-1.12e-01,
934,-1.04e-01,
935,-3.60e-02,
936,-2.40e-02,
937,-1.04e-01,
938,-1.08e-01,
939,-4.00e-02,
940,-2.80e-02,
941,-1.04e-01,
942,-4.00e-02,
943,-1.00e-01,
944,-1.20e-02,
945,-1.04e-01,
946,-4.00e-02,
947,-1.08e-01,
948,-3.20e-02,
949,-1.04e-01,
950,-3.20e-02,
951,-1.04e-01,
952,-1.12e-01,
953,-3.20e-02,
954,-1.08e-01,
955,-2.80e-02,
956,-1.08e-01,
957,-3.60e-02,
958,-1.04e-01,
959,-3.20e-02,
960,-1.12e-01,
961,-2.00e-02,
962,-3.60e-02,
963,-1.08e-01,
964,-1.16e-01,
965,-2.40e-02,
966,-4.00e-02,
967,-1.08e-01,
968,-1.08e-01,
969,-2.40e-02,
970,-1.04e-01,
971,-4.00e-02,
972,-3.60e-02,
973,-1.12e-01,
974,-4.00e-02,
975,-1.08e-01,
976,-2.80e-02,
977,-1.08e-01,
978,-2.80e-02,
979,-1.00e-01,
980,-1.16e-01,
981,-3.60e-02,
982,-1.04e-01,
983,-2.40e-02,
984,-1.04e-01,
985,-3.20e-02,
986,-1.24e-01,
987,-3.20e-02,
988,-3.20e-02,
989,-1.08e-01,
990,-1.04e-01,
991,-3.20e-02,
992,-1.20e-01,
993,-2.40e-02,
994,-3.60e-02,
995,-1.08e-01,
996,-2.40e-02,
997,-1.12e-01,
998,-1.12e-01,
999,-2.80e-02,
1000,-3.20e-02,
1001,-1.04e-01,
1002,-1.12e-01,
1003,-3.20e-02,
1004,-2.40e-02,
1005,-1.12e-01,
1006,-1.12e-01,
1007,-3.60e-02,
1008,-2.80e-02,
1009,-1.08e-01,
1010,-4.00e-02,
1011,-1.04e-01,
1012,-2.00e-02,
1013,-1.12e-01,
1014,-1.08e-01,
1015,-3.60e-02,
1016,-1.16e-01,
1017,-2.80e-02,
1018,-3.20e-02,
1019,-1.08e-01,
1020,-2.80e-02,
1021,-1.08e-01,
1022,-3.20e-02,
1023,-1.12e-01,
1024,-2.80e-02,
1025,-1.08e-01,
1026,-1.04e-01,
1027,-3.20e-02,
1028,-4.00e-02,
1029,-1.00e-01,
1030,-1.08e-01,
1031,-3.20e-02,
1032,-1.04e-01,
1033,-2.40e-02,
1034,-1.08e-01,
1035,-2.80e-02,
1036,-2.80e-02,
1037,-1.16e-01,
1038,-4.00e-02,
1039,-1.20e-01,
1040,-4.40e-02,
1041,-1.08e-01,
1042,-1.04e-01,
1043,-2.40e-02,
1044,-1.04e-01,
1045,-2.80e-02,
1046,-1.08e-01,
1047,-2.80e-02,
1048,-1.08e-01,
1049,-2.40e-02,
1050,-2.80e-02,
1051,-1.16e-01,
1052,-2.80e-02,
1053,-1.16e-01,
1054,-3.60e-02,
1055,-1.20e-01,
1056,-1.08e-01,
1057,-3.20e-02,
1058,-1.04e-01,
1059,-4.00e-02,
1060,-1.04e-01,
1061,-2.80e-02,
1062,-3.20e-02,
1063,-1.04e-01,
1064,-1.08e-01,
1065,-2.00e-02,
1066,-2.40e-02,
1067,-1.08e-01,
1068,-2.40e-02,
1069,-1.08e-01,
1070,-1.04e-01,
1071,-4.00e-02,
1072,-2.80e-02,
1073,-1.04e-01,
1074,-2.80e-02,
1075,-1.20e-01,
1076,-3.60e-02,
1077,-1.16e-01,
1078,-3.20e-02,
1079,-1.16e-01,
1080,-3.20e-02,
1081,-1.08e-01,
1082,-3.20e-02,
1083,-1.04e-01,
1084,-2.80e-02,
1085,-1.12e-01,
1086,-1.12e-01,
1087,-3.20e-02,
1088,-1.08e-01,
1089,-3.60e-02,
1090,-4.40e-02,
1091,-1.08e-01,
1092,-2.80e-02,
1093,-1.12e-01,
1094,-3.60e-02,
1095,-1.16e-01,
1096,-1.04e-01,
1097,-3.60e-02,
1098,-1.08e-01,
1099,-3.20e-02,
1100,-3.20e-02,
1101,-1.12e-01,
1102,-4.00e-02,
1103,-1.08e-01,
1104,-3.60e-02,
1105,-1.08e-01,
1106,-1.12e-01,
1107,-3.20e-02,
1108,-2.40e-02,
1109,-1.08e-01,
1110,-4.00e-02,
1111,-1.04e-01,
1112,-3.20e-02,
1113,-1.08e-01,
1114,-3.60e-02,
1115,-1.12e-01,
1116,-1.12e-01,
1117,-3.20e-02,
1118,-1.08e-01,
1119,-3.20e-02,
1120,-2.80e-02,
1121,-1.16e-01,
1122,-3.20e-02,
1123,-1.24e-01,
1124,-2.80e-02,
1125,-1.04e-01,
1126,-1.16e-01,
1127,-3.60e-02,
1128,-2.40e-02,
1129,-1.08e-01,
1130,-4.00e-02,
1131,-1.28e-01,
1132,-2.40e-02,
1133,-1.08e-01,
1134,-1.04e-01,
1135,-3.20e-02,
1136,-1.00e-01,
1137,-3.60e-02,
1138,-2.80e-02,
1139,-1.20e-01,
1140,-2.40e-02,
1141,-1.08e-01,
1142,-1.16e-01,
1143,-4.00e-02,
1144,-2.80e-02,
1145,-1.12e-01,
1146,-3.20e-02,
1147,-1.04e-01,
1148,-1.12e-01,
1149,-3.20e-02,
1150,-4.00e-02,
1151,-1.04e-01,
1152,-1.20e-01,
1153,-2.00e-02,
1154,-1.04e-01,
1155,-2.80e-02,
1156,-1.00e-01,
1157,-2.80e-02,
1158,-1.08e-01,
1159,-1.60e-02,
1160,-1.16e-01,
1161,-2.80e-02,
1162,-2.80e-02,
1163,-1.08e-01,
1164,-1.16e-01,
1165,-3.60e-02,
1166,-3.60e-02,
1167,-1.16e-01,
1168,-3.20e-02,
1169,-1.00e-01,
1170,-3.20e-02,
1171,-1.04e-01,
1172,-3.20e-02,
1173,-1.08e-01,
1174,-1.08e-01,
1175,-3.20e-02,
1176,-2.80e-02,
1177,-1.20e-01,
1178,-3.20e-02,
1179,-1.04e-01,
1180,-1.04e-01,
1181,-2.40e-02,
1182,-1.08e-01,
1183,-2.80e-02,
1184,-4.00e-02,
1185,-1.04e-01,
1186,-1.08e-01,
1187,-4.00e-02,
1188,-1.04e-01,
1189,-2.40e-02,
1190,-3.20e-02,
1191,-1.08e-01,
1192,-1.04e-01,
1193,-2.80e-02,
1194,-1.08e-01,
1195,-3.20e-02,
1196,-1.00e-01,
1197,-2.80e-02,
1198,-9.60e-02,
1199,-3.20e-02,
