fastdiffamp/data-noise-set/bal-mean/NewFile17.csv

X,CH1,Start,Increment,
Sequence,Volt,-5.990000e+00,1.000000e-02
0,-1.08e-01,
1,-2.40e-02,
2,-2.00e-02,
3,-9.60e-02,
4,-2.40e-02,
5,-1.00e-01,
6,-9.60e-02,
7,-2.00e-02,
8,-2.80e-02,
9,-1.04e-01,
10,-2.40e-02,
11,-9.60e-02,
12,-9.20e-02,
13,-2.00e-02,
14,-9.60e-02,
15,-1.20e-02,
16,-1.00e-01,
17,-2.40e-02,
18,-2.80e-02,
19,-1.04e-01,
20,-9.20e-02,
21,-1.20e-02,
22,-2.00e-02,
23,-9.60e-02,
24,-1.08e-01,
25,-2.00e-02,
26,-1.04e-01,
27,-2.40e-02,
28,-1.60e-02,
29,-1.04e-01,
30,-9.20e-02,
31,-2.40e-02,
32,-1.08e-01,
33,-1.60e-02,
34,-8.80e-02,
35,-2.00e-02,
36,-9.60e-02,
37,-2.40e-02,
38,-1.08e-01,
39,-1.20e-02,
40,-2.00e-02,
41,-1.12e-01,
42,-1.04e-01,
43,-1.20e-02,
44,-3.20e-02,
45,-1.08e-01,
46,-2.40e-02,
47,-1.00e-01,
48,-1.60e-02,
49,-1.00e-01,
50,-2.00e-02,
51,-9.20e-02,
52,-1.08e-01,
53,-2.40e-02,
54,-2.40e-02,
55,-9.20e-02,
56,-2.00e-02,
57,-9.60e-02,
58,-2.80e-02,
59,-1.04e-01,
60,-1.00e-01,
61,-2.40e-02,
62,-2.00e-02,
63,-9.20e-02,
64,-9.20e-02,
65,-1.60e-02,
66,-3.20e-02,
67,-1.00e-01,
68,-1.04e-01,
69,-2.80e-02,
70,-2.40e-02,
71,-1.00e-01,
72,-8.80e-02,
73,-2.40e-02,
74,-1.00e-01,
75,-2.40e-02,
76,-3.60e-02,
77,-1.08e-01,
78,-9.20e-02,
79,-2.40e-02,
80,-2.40e-02,
81,-1.04e-01,
82,-1.00e-01,
83,-2.40e-02,
84,-9.20e-02,
85,-2.00e-02,
86,-2.80e-02,
87,-9.60e-02,
88,-2.40e-02,
89,-1.00e-01,
90,-1.08e-01,
91,-2.40e-02,
92,-1.04e-01,
93,-2.80e-02,
94,-2.00e-02,
95,-1.00e-01,
96,-1.04e-01,
97,-2.00e-02,
98,-2.40e-02,
99,-9.60e-02,
100,-9.20e-02,
101,-2.80e-02,
102,-8.80e-02,
103,-2.00e-02,
104,-2.80e-02,
105,-1.04e-01,
106,-2.40e-02,
107,-1.00e-01,
108,-1.60e-02,
109,-1.12e-01,
110,-9.20e-02,
111,-2.80e-02,
112,-9.20e-02,
113,-2.40e-02,
114,-2.40e-02,
115,-9.60e-02,
116,-9.20e-02,
117,-2.40e-02,
118,-1.08e-01,
119,-2.00e-02,
120,-9.60e-02,
121,-2.00e-02,
122,-2.40e-02,
123,-9.60e-02,
124,-2.40e-02,
125,-9.20e-02,
126,-9.60e-02,
127,-2.40e-02,
128,-2.40e-02,
129,-9.60e-02,
130,-1.00e-01,
131,-1.60e-02,
132,-2.80e-02,
133,-9.60e-02,
134,-9.20e-02,
135,-2.80e-02,
136,-9.20e-02,
137,-2.40e-02,
138,-2.80e-02,
139,-9.20e-02,
140,-2.40e-02,
141,-9.60e-02,
142,-9.60e-02,
143,-2.80e-02,
144,-9.20e-02,
145,-2.40e-02,
146,-2.80e-02,
147,-9.20e-02,
148,-2.00e-02,
149,-1.00e-01,
150,-2.40e-02,
151,-8.80e-02,
152,-2.80e-02,
153,-1.20e-01,
154,-9.60e-02,
155,-1.20e-02,
156,-2.40e-02,
157,-9.60e-02,
158,-2.80e-02,
159,-9.60e-02,
160,-9.60e-02,
161,-2.40e-02,
162,-1.00e-01,
163,-2.80e-02,
164,-1.00e-01,
165,-2.80e-02,
166,-2.80e-02,
167,-9.60e-02,
168,-2.80e-02,
169,-1.04e-01,
170,-1.04e-01,
171,4.00e-03,
172,-1.12e-01,
173,-2.00e-02,
174,-9.60e-02,
175,-2.80e-02,
176,-2.40e-02,
177,-9.20e-02,
178,-1.04e-01,
179,-2.80e-02,
180,-9.60e-02,
181,-2.00e-02,
182,-2.40e-02,
183,-1.08e-01,
184,-2.80e-02,
185,-1.12e-01,
186,-1.00e-01,
187,-1.60e-02,
188,-9.60e-02,
189,0.00e+00,
190,-1.04e-01,
191,-2.40e-02,
192,-1.00e-01,
193,-2.80e-02,
194,-1.00e-01,
195,-2.40e-02,
196,-1.04e-01,
197,-2.40e-02,
198,-2.40e-02,
199,-1.00e-01,
200,-9.60e-02,
201,-2.00e-02,
202,-9.60e-02,
203,-1.60e-02,
204,-2.40e-02,
205,-9.20e-02,
206,-8.00e-03,
207,-1.00e-01,
208,-1.00e-01,
209,-1.20e-02,
210,-1.04e-01,
211,-2.80e-02,
212,-8.00e-03,
213,-9.60e-02,
214,-2.00e-02,
215,-1.12e-01,
216,-2.40e-02,
217,-9.60e-02,
218,-1.00e-01,
219,-1.20e-02,
220,-9.60e-02,
221,-2.40e-02,
222,-9.60e-02,
223,-2.00e-02,
224,-1.04e-01,
225,-2.40e-02,
226,-3.20e-02,
227,-9.60e-02,
228,-9.20e-02,
229,-2.80e-02,
230,-2.00e-02,
231,-9.20e-02,
232,-9.60e-02,
233,-2.80e-02,
234,-2.00e-02,
235,-1.00e-01,
236,-1.60e-02,
237,-9.60e-02,
238,-1.00e-01,
239,-2.40e-02,
240,-2.00e-02,
241,-1.04e-01,
242,-1.08e-01,
243,-2.40e-02,
244,-1.08e-01,
245,-1.20e-02,
246,-9.20e-02,
247,-2.40e-02,
248,-9.60e-02,
249,-2.80e-02,
250,-1.00e-01,
251,-2.40e-02,
252,-9.20e-02,
253,-2.40e-02,
254,-2.40e-02,
255,-9.60e-02,
256,-9.20e-02,
257,-1.60e-02,
258,-2.40e-02,
259,-9.20e-02,
260,-1.04e-01,
261,-2.40e-02,
262,-2.40e-02,
263,-9.60e-02,
264,-9.60e-02,
265,-2.00e-02,
266,-2.40e-02,
267,-9.60e-02,
268,-2.00e-02,
269,-9.60e-02,
270,-2.80e-02,
271,-9.60e-02,
272,-2.00e-02,
273,-9.60e-02,
274,-9.20e-02,
275,-2.40e-02,
276,-1.04e-01,
277,-2.40e-02,
278,-2.40e-02,
279,-1.04e-01,
280,-9.20e-02,
281,-1.20e-02,
282,-2.80e-02,
283,-1.20e-01,
284,-1.00e-01,
285,-2.80e-02,
286,-2.00e-02,
287,-9.60e-02,
288,-2.40e-02,
289,-1.04e-01,
290,-9.20e-02,
291,-1.60e-02,
292,-1.04e-01,
293,-2.80e-02,
294,-9.20e-02,
295,-2.00e-02,
296,-2.80e-02,
297,-9.60e-02,
298,-1.00e-01,
299,-1.60e-02,
300,-1.60e-02,
301,-1.00e-01,
302,-8.80e-02,
303,-2.40e-02,
304,-2.80e-02,
305,-9.60e-02,
306,-1.00e-01,
307,-1.20e-02,
308,-2.00e-02,
309,-1.00e-01,
310,-1.08e-01,
311,-2.40e-02,
312,-2.80e-02,
313,-9.20e-02,
314,-1.08e-01,
315,-2.40e-02,
316,-9.20e-02,
317,-2.40e-02,
318,-2.00e-02,
319,-9.20e-02,
320,-9.60e-02,
321,-2.80e-02,
322,-1.08e-01,
323,-2.40e-02,
324,-9.20e-02,
325,-2.40e-02,
326,-2.00e-02,
327,-9.20e-02,
328,-1.00e-01,
329,-2.40e-02,
330,-8.80e-02,
331,-2.40e-02,
332,-1.20e-02,
333,-1.00e-01,
334,-2.80e-02,
335,-1.04e-01,
336,-9.20e-02,
337,-2.40e-02,
338,-1.20e-02,
339,-1.04e-01,
340,-2.00e-02,
341,-1.04e-01,
342,-2.40e-02,
343,-9.60e-02,
344,-1.00e-01,
345,-1.20e-02,
346,-2.40e-02,
347,-9.60e-02,
348,-1.20e-02,
349,-1.00e-01,
350,-1.00e-01,
351,-2.80e-02,
352,-9.20e-02,
353,-8.00e-03,
354,-2.80e-02,
355,-9.60e-02,
356,-2.40e-02,
357,-1.08e-01,
358,-1.00e-01,
359,-2.40e-02,
360,-9.60e-02,
361,-2.40e-02,
362,-1.20e-02,
363,-9.60e-02,
364,-2.40e-02,
365,-9.20e-02,
366,-2.40e-02,
367,-9.60e-02,
368,-1.12e-01,
369,-2.00e-02,
370,-2.00e-02,
371,-1.04e-01,
372,-1.04e-01,
373,-2.80e-02,
374,-9.20e-02,
375,-2.40e-02,
376,-2.80e-02,
377,-9.60e-02,
378,-2.40e-02,
379,-1.04e-01,
380,-2.80e-02,
381,-9.60e-02,
382,-1.04e-01,
383,-1.60e-02,
384,-9.20e-02,
385,-1.60e-02,
386,-1.00e-01,
387,-2.00e-02,
388,-1.08e-01,
389,-2.40e-02,
390,-2.00e-02,
391,-9.60e-02,
392,-1.00e-01,
393,-1.20e-02,
394,-3.20e-02,
395,-1.04e-01,
396,-1.12e-01,
397,-2.00e-02,
398,-1.00e-01,
399,-8.00e-03,
400,-9.20e-02,
401,-2.80e-02,
402,-2.40e-02,
403,-1.04e-01,
404,-2.40e-02,
405,-1.00e-01,
406,-2.00e-02,
407,-1.00e-01,
408,-1.04e-01,
409,-2.40e-02,
410,-2.40e-02,
411,-1.04e-01,
412,-9.60e-02,
413,-2.40e-02,
414,-2.40e-02,
415,-1.04e-01,
416,-1.04e-01,
417,-2.40e-02,
418,-2.40e-02,
419,-9.20e-02,
420,-1.08e-01,
421,-2.00e-02,
422,-1.04e-01,
423,-2.80e-02,
424,-1.04e-01,
425,-2.80e-02,
426,-9.60e-02,
427,-2.40e-02,
428,-9.20e-02,
429,-2.00e-02,
430,-2.80e-02,
431,-9.60e-02,
432,-1.08e-01,
433,-2.40e-02,
434,-2.80e-02,
435,-1.04e-01,
436,-2.80e-02,
437,-1.08e-01,
438,-2.00e-02,
439,-8.80e-02,
440,-9.60e-02,
441,-2.40e-02,
442,-1.60e-02,
443,-9.60e-02,
444,-2.40e-02,
445,-9.60e-02,
446,-2.40e-02,
447,-9.20e-02,
448,-9.20e-02,
449,-2.00e-02,
450,-1.00e-01,
451,-2.80e-02,
452,-9.60e-02,
453,-2.40e-02,
454,-2.40e-02,
455,-1.12e-01,
456,-9.20e-02,
457,-1.60e-02,
458,-9.20e-02,
459,-2.40e-02,
460,-9.20e-02,
461,-2.80e-02,
462,-1.04e-01,
463,-2.80e-02,
464,-1.00e-01,
465,-2.40e-02,
466,-2.40e-02,
467,-1.04e-01,
468,-2.80e-02,
469,-9.60e-02,
470,-1.00e-01,
471,-1.60e-02,
472,-1.20e-02,
473,-1.00e-01,
474,-1.08e-01,
475,-1.60e-02,
476,-1.00e-01,
477,-2.00e-02,
478,-9.60e-02,
479,-2.00e-02,
480,-2.40e-02,
481,-1.16e-01,
482,-9.60e-02,
483,-2.40e-02,
484,-2.80e-02,
485,-1.00e-01,
486,-9.20e-02,
487,-2.00e-02,
488,-2.40e-02,
489,-1.04e-01,
490,-2.00e-02,
491,-9.60e-02,
492,-2.40e-02,
493,-1.04e-01,
494,-9.20e-02,
495,-2.40e-02,
496,-1.20e-02,
497,-9.20e-02,
498,-1.04e-01,
499,-1.60e-02,
500,-9.60e-02,
501,-2.40e-02,
502,-9.60e-02,
503,-2.40e-02,
504,-2.40e-02,
505,-1.04e-01,
506,-2.40e-02,
507,-1.00e-01,
508,-2.40e-02,
509,-9.20e-02,
510,-1.60e-02,
511,-1.00e-01,
512,-1.04e-01,
513,-2.40e-02,
514,-1.08e-01,
515,-2.80e-02,
516,-2.00e-02,
517,-9.20e-02,
518,-9.20e-02,
519,-2.00e-02,
520,-1.60e-02,
521,-9.60e-02,
522,-3.20e-02,
523,-1.04e-01,
524,-2.80e-02,
525,-1.08e-01,
526,-2.80e-02,
527,-1.00e-01,
528,-2.00e-02,
529,-1.08e-01,
530,-2.40e-02,
531,-9.20e-02,
532,-2.80e-02,
533,-9.60e-02,
534,-8.00e-03,
535,-1.08e-01,
536,-1.20e-02,
537,-9.20e-02,
538,-2.80e-02,
539,-9.60e-02,
540,-1.04e-01,
541,-2.40e-02,
542,-2.80e-02,
543,-9.20e-02,
544,-2.00e-02,
545,-1.08e-01,
546,-1.04e-01,
547,-2.80e-02,
548,-2.40e-02,
549,-1.04e-01,
550,-2.80e-02,
551,-9.20e-02,
552,-1.04e-01,
553,-2.00e-02,
554,-2.80e-02,
555,-9.60e-02,
556,-1.00e-01,
557,-2.80e-02,
558,-1.04e-01,
559,-3.20e-02,
560,-2.40e-02,
561,-9.20e-02,
562,-9.60e-02,
563,0.00e+00,
564,-2.00e-02,
565,-1.08e-01,
566,-1.04e-01,
567,-2.00e-02,
568,-1.04e-01,
569,-2.80e-02,
570,-1.08e-01,
571,-1.60e-02,
572,-1.24e-01,
573,-2.00e-02,
574,-9.60e-02,
575,-1.20e-02,
576,-9.60e-02,
577,-2.40e-02,
578,-2.40e-02,
579,-1.12e-01,
580,-2.80e-02,
581,-9.20e-02,
582,-9.20e-02,
583,-2.40e-02,
584,-3.20e-02,
585,-1.00e-01,
586,-1.00e-01,
587,-2.00e-02,
588,-1.04e-01,
589,-2.80e-02,
590,-8.80e-02,
591,-2.80e-02,
592,-1.00e-01,
593,-2.80e-02,
594,-9.20e-02,
595,-2.00e-02,
596,-1.00e-01,
597,-2.40e-02,
598,-1.60e-02,
599,-9.60e-02,
600,-2.00e-02,
601,-1.04e-01,
602,-1.04e-01,
603,-2.00e-02,
604,-9.20e-02,
605,4.00e-03,
606,-2.80e-02,
607,-9.60e-02,
608,-2.40e-02,
609,-1.00e-01,
610,-1.00e-01,
611,-1.60e-02,
612,-9.20e-02,
613,-1.20e-02,
614,-1.00e-01,
615,-2.40e-02,
616,-2.40e-02,
617,-1.16e-01,
618,-8.80e-02,
619,-2.40e-02,
620,-9.60e-02,
621,-2.40e-02,
622,-1.08e-01,
623,-2.40e-02,
624,-8.00e-03,
625,-1.00e-01,
626,-1.00e-01,
627,-2.80e-02,
628,-2.40e-02,
629,-1.00e-01,
630,-9.20e-02,
631,-2.00e-02,
632,-1.04e-01,
633,-2.40e-02,
634,-1.20e-02,
635,-9.20e-02,
636,-2.80e-02,
637,-9.20e-02,
638,-1.00e-01,
639,-2.00e-02,
640,-9.60e-02,
641,-1.60e-02,
642,-4.00e-03,
643,-9.60e-02,
644,-9.60e-02,
645,-1.60e-02,
646,-2.40e-02,
647,-9.20e-02,
648,-2.00e-02,
649,-9.60e-02,
650,-1.04e-01,
651,-2.40e-02,
652,-1.04e-01,
653,-2.80e-02,
654,-8.80e-02,
655,-2.00e-02,
656,-9.20e-02,
657,-2.40e-02,
658,-2.80e-02,
659,-1.04e-01,
660,-1.08e-01,
661,-1.60e-02,
662,-2.80e-02,
663,-1.16e-01,
664,-2.80e-02,
665,-1.00e-01,
666,-2.40e-02,
667,-1.00e-01,
668,-9.20e-02,
669,-2.80e-02,
670,-1.12e-01,
671,-2.40e-02,
672,-2.00e-02,
673,-1.00e-01,
674,-1.08e-01,
675,-2.40e-02,
676,-2.00e-02,
677,-1.00e-01,
678,-2.40e-02,
679,-1.04e-01,
680,-2.80e-02,
681,-9.20e-02,
682,-2.00e-02,
683,-9.60e-02,
684,-2.80e-02,
685,-1.00e-01,
686,-9.20e-02,
687,-2.80e-02,
688,-1.00e-01,
689,-1.60e-02,
690,-2.40e-02,
691,-1.16e-01,
692,-9.60e-02,
693,-2.40e-02,
694,-1.04e-01,
695,-2.40e-02,
696,-2.40e-02,
697,-1.12e-01,
698,-9.20e-02,
699,-2.40e-02,
700,-1.04e-01,
701,-2.40e-02,
702,-2.40e-02,
703,-1.04e-01,
704,-2.40e-02,
705,-1.04e-01,
706,-9.60e-02,
707,-2.40e-02,
708,-2.40e-02,
709,-1.00e-01,
710,-2.80e-02,
711,-1.00e-01,
712,-2.40e-02,
713,-1.00e-01,
714,-2.40e-02,
715,-1.08e-01,
716,-1.60e-02,
717,-1.08e-01,
718,-2.00e-02,
719,-1.00e-01,
720,-2.40e-02,
721,-9.60e-02,
722,-1.04e-01,
723,-2.40e-02,
724,-9.20e-02,
725,-2.00e-02,
726,-2.40e-02,
727,-1.08e-01,
728,-9.60e-02,
729,-1.60e-02,
730,-1.04e-01,
731,-1.20e-02,
732,-9.60e-02,
733,-1.60e-02,
734,-2.00e-02,
735,-1.08e-01,
736,-1.00e-01,
737,-2.00e-02,
738,-2.00e-02,
739,-1.04e-01,
740,-1.00e-01,
741,-2.80e-02,
742,-2.00e-02,
743,-9.60e-02,
744,-2.40e-02,
745,-1.00e-01,
746,-8.00e-03,
747,-9.60e-02,
748,-1.00e-01,
749,-2.40e-02,
750,-2.40e-02,
751,-1.04e-01,
752,-9.20e-02,
753,-1.20e-02,
754,-9.20e-02,
755,-2.40e-02,
756,-9.20e-02,
757,-2.00e-02,
758,-1.00e-01,
759,-2.40e-02,
760,-2.00e-02,
761,-1.00e-01,
762,-1.20e-01,
763,-2.00e-02,
764,-3.20e-02,
765,-1.00e-01,
766,-9.20e-02,
767,-1.60e-02,
768,-9.60e-02,
769,-2.00e-02,
770,-2.80e-02,
771,-9.60e-02,
772,-2.80e-02,
773,-1.00e-01,
774,-1.00e-01,
775,-2.80e-02,
776,-1.08e-01,
777,-2.80e-02,
778,-1.00e-01,
779,-2.40e-02,
780,-9.60e-02,
781,-1.20e-02,
782,-9.60e-02,
783,-2.40e-02,
784,-1.04e-01,
785,-2.80e-02,
786,-1.24e-01,
787,-2.40e-02,
788,-1.20e-02,
789,-1.00e-01,
790,-2.80e-02,
791,-1.00e-01,
792,-9.60e-02,
793,-2.80e-02,
794,-2.80e-02,
795,-9.60e-02,
796,-2.40e-02,
797,-1.00e-01,
798,-9.60e-02,
799,-1.20e-02,
800,-1.20e-02,
801,-1.04e-01,
802,-8.00e-03,
803,-1.00e-01,
804,-2.00e-02,
805,-1.08e-01,
806,-2.00e-02,
807,-1.00e-01,
808,-2.40e-02,
809,-1.00e-01,
810,-1.00e-01,
811,-2.40e-02,
812,-9.20e-02,
813,-2.40e-02,
814,-1.04e-01,
815,-2.40e-02,
816,-1.04e-01,
817,-2.80e-02,
818,-9.20e-02,
819,-1.20e-02,
820,-2.40e-02,
821,-9.20e-02,
822,-9.20e-02,
823,-2.80e-02,
824,-2.40e-02,
825,-1.08e-01,
826,-1.00e-01,
827,-1.20e-02,
828,-2.00e-02,
829,-1.04e-01,
830,-9.20e-02,
831,-8.00e-03,
832,-9.20e-02,
833,-2.80e-02,
834,-2.80e-02,
835,-9.60e-02,
836,-2.00e-02,
837,-9.60e-02,
838,-8.80e-02,
839,-1.60e-02,
840,-2.40e-02,
841,-1.12e-01,
842,-9.20e-02,
843,-2.00e-02,
844,-1.04e-01,
845,-2.80e-02,
846,-9.60e-02,
847,-2.40e-02,
848,-2.40e-02,
849,-9.20e-02,
850,-2.40e-02,
851,-1.04e-01,
852,-2.00e-02,
853,-9.60e-02,
854,-1.04e-01,
855,-8.00e-03,
856,-2.40e-02,
857,-1.04e-01,
858,-2.40e-02,
859,-1.04e-01,
860,-9.60e-02,
861,-2.40e-02,
862,-1.00e-01,
863,-2.40e-02,
864,-9.20e-02,
865,-2.80e-02,
866,-2.80e-02,
867,-9.60e-02,
868,-9.20e-02,
869,-2.00e-02,
870,-9.20e-02,
871,-2.80e-02,
872,-2.40e-02,
873,-9.20e-02,
874,-2.40e-02,
875,-9.20e-02,
876,-2.40e-02,
877,-1.00e-01,
878,-2.40e-02,
879,-9.60e-02,
880,-9.20e-02,
881,-2.40e-02,
882,-8.00e-03,
883,-1.08e-01,
884,-2.40e-02,
885,-9.60e-02,
886,-2.00e-02,
887,-1.00e-01,
888,-2.40e-02,
889,-1.04e-01,
890,-8.00e-03,
891,-9.20e-02,
892,-1.00e-01,
893,-2.40e-02,
894,-9.20e-02,
895,-2.80e-02,
896,-1.60e-02,
897,-9.20e-02,
898,-2.80e-02,
899,-9.60e-02,
900,-2.40e-02,
901,-1.00e-01,
902,-1.04e-01,
903,-2.40e-02,
904,-2.00e-02,
905,-1.00e-01,
906,-9.20e-02,
907,-2.40e-02,
908,-2.40e-02,
909,-9.60e-02,
910,-2.00e-02,
911,-1.04e-01,
912,-2.80e-02,
913,-9.60e-02,
914,-1.04e-01,
915,-2.00e-02,
916,-2.80e-02,
917,-9.60e-02,
918,-2.80e-02,
919,-1.04e-01,
920,-2.00e-02,
921,-1.08e-01,
922,-2.00e-02,
923,-9.60e-02,
924,-2.40e-02,
925,-1.00e-01,
926,-2.40e-02,
927,-1.00e-01,
928,-1.08e-01,
929,-1.20e-02,
930,-1.04e-01,
931,-1.20e-02,
932,-1.00e-01,
933,-2.80e-02,
934,-1.04e-01,
935,-1.60e-02,
936,-2.40e-02,
937,-1.00e-01,
938,-2.00e-02,
939,-9.60e-02,
940,-2.80e-02,
941,-1.04e-01,
942,-2.40e-02,
943,-1.04e-01,
944,-3.60e-02,
945,-1.04e-01,
946,-2.40e-02,
947,-1.00e-01,
948,-1.08e-01,
949,-3.60e-02,
950,-2.40e-02,
951,-9.60e-02,
952,-1.04e-01,
953,-2.80e-02,
954,-9.20e-02,
955,-2.80e-02,
956,-9.60e-02,
957,-2.00e-02,
958,-2.40e-02,
959,-1.04e-01,
960,-2.80e-02,
961,-9.60e-02,
962,-9.60e-02,
963,-2.40e-02,
964,-2.40e-02,
965,-1.12e-01,
966,-1.00e-01,
967,-2.80e-02,
968,-1.08e-01,
969,-2.40e-02,
970,-8.80e-02,
971,-2.40e-02,
972,-3.20e-02,
973,-9.60e-02,
974,-1.60e-02,
975,-1.04e-01,
976,-2.80e-02,
977,-9.60e-02,
978,-1.04e-01,
979,-2.80e-02,
980,-9.20e-02,
981,-2.40e-02,
982,-9.60e-02,
983,-2.80e-02,
984,-2.80e-02,
985,-1.00e-01,
986,-2.40e-02,
987,-1.04e-01,
988,-2.40e-02,
989,-9.20e-02,
990,-2.40e-02,
991,-1.00e-01,
992,-2.00e-02,
993,-9.20e-02,
994,-2.00e-02,
995,-1.00e-01,
996,-1.08e-01,
997,-2.40e-02,
998,-2.40e-02,
999,-1.04e-01,
1000,-9.60e-02,
1001,-2.00e-02,
1002,-1.60e-02,
1003,-1.00e-01,
1004,-2.00e-02,
1005,-1.00e-01,
1006,-2.80e-02,
1007,-9.60e-02,
1008,-1.04e-01,
1009,-2.40e-02,
1010,-3.20e-02,
1011,-9.60e-02,
1012,-2.80e-02,
1013,-1.08e-01,
1014,-2.00e-02,
1015,-9.20e-02,
1016,-2.80e-02,
1017,-9.20e-02,
1018,-2.80e-02,
1019,-1.00e-01,
1020,-2.40e-02,
1021,-1.00e-01,
1022,-2.40e-02,
1023,-1.00e-01,
1024,-2.00e-02,
1025,-1.08e-01,
1026,-1.04e-01,
1027,-2.00e-02,
1028,-9.60e-02,
1029,-2.40e-02,
1030,-2.40e-02,
1031,-9.60e-02,
1032,-2.00e-02,
1033,-9.60e-02,
1034,-9.20e-02,
1035,-2.80e-02,
1036,-2.40e-02,
1037,-1.04e-01,
1038,-9.20e-02,
1039,-2.40e-02,
1040,-8.80e-02,
1041,-1.20e-02,
1042,-2.80e-02,
1043,-1.00e-01,
1044,-1.04e-01,
1045,-1.20e-02,
1046,-9.60e-02,
1047,-2.80e-02,
1048,-9.60e-02,
1049,-2.80e-02,
1050,-1.04e-01,
1051,-1.60e-02,
1052,-2.00e-02,
1053,-1.08e-01,
1054,-2.40e-02,
1055,-1.04e-01,
1056,-1.04e-01,
1057,-2.40e-02,
1058,-2.40e-02,
1059,-9.60e-02,
1060,-9.20e-02,
1061,-1.60e-02,
1062,-1.04e-01,
1063,-2.00e-02,
1064,-2.00e-02,
1065,-9.20e-02,
1066,-1.00e-01,
1067,-2.00e-02,
1068,-9.20e-02,
1069,-2.00e-02,
1070,-1.60e-02,
1071,-1.04e-01,
1072,-2.80e-02,
1073,-1.00e-01,
1074,-2.80e-02,
1075,-1.04e-01,
1076,-9.20e-02,
1077,-2.00e-02,
1078,-2.80e-02,
1079,-9.60e-02,
1080,-1.20e-02,
1081,-1.04e-01,
1082,-2.40e-02,
1083,-1.08e-01,
1084,-1.00e-01,
1085,-2.40e-02,
1086,-2.00e-02,
1087,-1.00e-01,
1088,-2.40e-02,
1089,-9.20e-02,
1090,-1.04e-01,
1091,-2.40e-02,
1092,-1.60e-02,
1093,-1.04e-01,
1094,-2.40e-02,
1095,-9.60e-02,
1096,-1.60e-02,
1097,-1.04e-01,
1098,-1.12e-01,
1099,-2.40e-02,
1100,-9.60e-02,
1101,-8.00e-03,
1102,-2.40e-02,
1103,-9.20e-02,
1104,-1.60e-02,
1105,-1.04e-01,
1106,-2.40e-02,
1107,-8.80e-02,
1108,-9.20e-02,
1109,-1.60e-02,
1110,-2.80e-02,
1111,-1.08e-01,
1112,-1.00e-01,
1113,-2.40e-02,
1114,-1.60e-02,
1115,-9.20e-02,
1116,-2.40e-02,
1117,-9.20e-02,
1118,-1.04e-01,
1119,-1.60e-02,
1120,-1.00e-01,
1121,-2.80e-02,
1122,-2.80e-02,
1123,-1.00e-01,
1124,-1.08e-01,
1125,-2.80e-02,
1126,-1.04e-01,
1127,-2.00e-02,
1128,-9.20e-02,
1129,-2.00e-02,
1130,-2.40e-02,
1131,-9.20e-02,
1132,-2.80e-02,
1133,-1.00e-01,
1134,-1.60e-02,
1135,-1.08e-01,
1136,-2.80e-02,
1137,-9.60e-02,
1138,-1.08e-01,
1139,-2.00e-02,
1140,-9.60e-02,
1141,-2.40e-02,
1142,-9.60e-02,
1143,-2.80e-02,
1144,-9.20e-02,
1145,-1.20e-02,
1146,-1.20e-02,
1147,-1.00e-01,
1148,-1.60e-02,
1149,-1.00e-01,
1150,-2.40e-02,
1151,-1.04e-01,
1152,-2.00e-02,
1153,-9.20e-02,
1154,-2.40e-02,
1155,-1.04e-01,
1156,-1.00e-01,
1157,-2.00e-02,
1158,-1.04e-01,
1159,-2.80e-02,
1160,-8.80e-02,
1161,-1.20e-02,
1162,-2.80e-02,
1163,-9.60e-02,
1164,-1.04e-01,
1165,-8.00e-03,
1166,-2.00e-02,
1167,-9.60e-02,
1168,-9.20e-02,
1169,-3.20e-02,
1170,-1.60e-02,
1171,-1.08e-01,
1172,-1.60e-02,
1173,-1.00e-01,
1174,-1.00e-01,
1175,-2.40e-02,
1176,-1.08e-01,
1177,-2.40e-02,
1178,-2.80e-02,
1179,-1.12e-01,
1180,-1.60e-02,
1181,-1.00e-01,
1182,-2.00e-02,
1183,-1.04e-01,
1184,-2.00e-02,
1185,-1.00e-01,
1186,-1.20e-02,
1187,-1.04e-01,
1188,-3.20e-02,
1189,-9.60e-02,
1190,-2.40e-02,
1191,-1.00e-01,
1192,-1.60e-02,
1193,-1.00e-01,
1194,-4.00e-03,
1195,-1.12e-01,
1196,-2.40e-02,
1197,-1.00e-01,
1198,-9.60e-02,
1199,-2.80e-02,
