fastdiffamp/data-noise-set/bal-9to919/NewFile3.csv

X,CH1,Start,Increment,
Sequence,Volt,-5.990000e+00,1.000000e-02
0,4.00e-04,
1,8.00e-05,
2,4.00e-04,
3,0.00e+00,
4,0.00e+00,
5,4.00e-04,
6,4.80e-04,
7,-8.00e-05,
8,3.20e-04,
9,0.00e+00,
10,3.60e-04,
11,0.00e+00,
12,4.00e-04,
13,8.00e-05,
14,0.00e+00,
15,4.00e-04,
16,8.00e-05,
17,4.00e-04,
18,0.00e+00,
19,4.00e-04,
20,0.00e+00,
21,4.00e-04,
22,4.00e-04,
23,0.00e+00,
24,-8.00e-05,
25,4.00e-04,
26,4.00e-04,
27,0.00e+00,
28,0.00e+00,
29,3.20e-04,
30,-8.00e-05,
31,4.00e-04,
32,0.00e+00,
33,4.80e-04,
34,-8.00e-05,
35,4.00e-04,
36,3.20e-04,
37,0.00e+00,
38,8.00e-05,
39,4.00e-04,
40,8.00e-05,
41,4.00e-04,
42,4.80e-04,
43,0.00e+00,
44,3.20e-04,
45,0.00e+00,
46,8.00e-05,
47,4.00e-04,
48,4.80e-04,
49,0.00e+00,
50,4.00e-04,
51,0.00e+00,
52,0.00e+00,
53,3.20e-04,
54,3.20e-04,
55,0.00e+00,
56,8.00e-05,
57,4.80e-04,
58,4.00e-04,
59,0.00e+00,
60,4.00e-04,
61,0.00e+00,
62,3.20e-04,
63,0.00e+00,
64,3.20e-04,
65,4.00e-05,
66,4.00e-04,
67,0.00e+00,
68,0.00e+00,
69,4.00e-04,
70,0.00e+00,
71,4.80e-04,
72,0.00e+00,
73,4.80e-04,
74,4.00e-04,
75,0.00e+00,
76,4.80e-04,
77,0.00e+00,
78,4.00e-04,
79,0.00e+00,
80,3.20e-04,
81,0.00e+00,
82,0.00e+00,
83,4.80e-04,
84,3.20e-04,
85,0.00e+00,
86,4.00e-04,
87,0.00e+00,
88,0.00e+00,
89,4.00e-04,
90,4.80e-04,
91,0.00e+00,
92,-8.00e-05,
93,4.80e-04,
94,8.00e-05,
95,4.00e-04,
96,0.00e+00,
97,4.40e-04,
98,0.00e+00,
99,4.00e-04,
100,-8.00e-05,
101,4.80e-04,
102,3.20e-04,
103,0.00e+00,
104,0.00e+00,
105,4.00e-04,
106,4.00e-04,
107,-8.00e-05,
108,0.00e+00,
109,3.20e-04,
110,8.00e-05,
111,4.00e-04,
112,4.00e-04,
113,8.00e-05,
114,3.20e-04,
115,0.00e+00,
116,3.20e-04,
117,0.00e+00,
118,3.20e-04,
119,0.00e+00,
120,-8.00e-05,
121,4.00e-04,
122,3.20e-04,
123,0.00e+00,
124,8.00e-05,
125,4.80e-04,
126,3.20e-04,
127,-8.00e-05,
128,4.00e-04,
129,0.00e+00,
130,4.00e-04,
131,0.00e+00,
132,0.00e+00,
133,4.80e-04,
134,0.00e+00,
135,4.80e-04,
136,8.00e-05,
137,4.00e-04,
138,0.00e+00,
139,4.80e-04,
140,0.00e+00,
141,4.80e-04,
142,4.00e-04,
143,0.00e+00,
144,-8.00e-05,
145,4.00e-04,
146,-8.00e-05,
147,4.00e-04,
148,-8.00e-05,
149,3.60e-04,
150,3.20e-04,
151,-8.00e-05,
152,3.20e-04,
153,0.00e+00,
154,3.20e-04,
155,0.00e+00,
156,3.60e-04,
157,0.00e+00,
158,0.00e+00,
159,4.80e-04,
160,0.00e+00,
161,3.20e-04,
162,0.00e+00,
163,3.20e-04,
164,-8.00e-05,
165,4.00e-04,
166,3.20e-04,
167,0.00e+00,
168,0.00e+00,
169,3.60e-04,
170,0.00e+00,
171,4.00e-04,
172,0.00e+00,
173,4.00e-04,
174,4.00e-04,
175,0.00e+00,
176,0.00e+00,
177,3.20e-04,
178,0.00e+00,
179,3.20e-04,
180,4.00e-04,
181,0.00e+00,
182,4.80e-04,
183,0.00e+00,
184,0.00e+00,
185,3.20e-04,
186,0.00e+00,
187,3.20e-04,
188,0.00e+00,
189,4.00e-04,
190,0.00e+00,
191,4.00e-04,
192,0.00e+00,
193,4.00e-04,
194,3.20e-04,
195,0.00e+00,
196,0.00e+00,
197,4.00e-04,
198,0.00e+00,
199,3.20e-04,
200,0.00e+00,
201,4.00e-04,
202,3.20e-04,
203,0.00e+00,
204,3.20e-04,
205,0.00e+00,
206,0.00e+00,
207,4.00e-04,
208,8.00e-05,
209,4.00e-04,
210,4.00e-04,
211,0.00e+00,
212,0.00e+00,
213,3.20e-04,
214,-8.00e-05,
215,4.00e-04,
216,4.80e-04,
217,0.00e+00,
218,0.00e+00,
219,4.80e-04,
220,0.00e+00,
221,3.20e-04,
222,4.00e-04,
223,8.00e-05,
224,3.20e-04,
225,8.00e-05,
226,3.20e-04,
227,0.00e+00,
228,4.00e-04,
229,-8.00e-05,
230,-2.40e-04,
231,4.00e-04,
232,-2.40e-04,
233,5.60e-04,
234,0.00e+00,
235,4.00e-04,
236,0.00e+00,
237,4.00e-04,
238,0.00e+00,
239,4.00e-04,
240,0.00e+00,
241,3.20e-04,
242,0.00e+00,
243,4.00e-04,
244,0.00e+00,
245,4.00e-04,
246,0.00e+00,
247,3.20e-04,
248,3.20e-04,
249,-8.00e-05,
250,-1.60e-04,
251,4.80e-04,
252,0.00e+00,
253,4.00e-04,
254,3.20e-04,
255,0.00e+00,
256,0.00e+00,
257,3.20e-04,
258,4.00e-04,
259,-8.00e-05,
260,3.20e-04,
261,-8.00e-05,
262,0.00e+00,
263,3.20e-04,
264,4.00e-04,
265,0.00e+00,
266,-8.00e-05,
267,4.00e-04,
268,5.60e-04,
269,8.00e-05,
270,8.00e-05,
271,4.00e-04,
272,0.00e+00,
273,4.00e-04,
274,3.20e-04,
275,-8.00e-05,
276,4.00e-04,
277,-8.00e-05,
278,3.20e-04,
279,0.00e+00,
280,0.00e+00,
281,4.00e-04,
282,-8.00e-05,
283,4.00e-04,
284,3.20e-04,
285,0.00e+00,
286,3.60e-04,
287,0.00e+00,
288,3.20e-04,
289,0.00e+00,
290,0.00e+00,
291,4.80e-04,
292,0.00e+00,
293,4.00e-04,
294,2.40e-04,
295,0.00e+00,
296,0.00e+00,
297,3.20e-04,
298,0.00e+00,
299,4.00e-04,
300,4.00e-04,
301,0.00e+00,
302,0.00e+00,
303,4.00e-04,
304,3.20e-04,
305,0.00e+00,
306,0.00e+00,
307,4.00e-04,
308,4.80e-04,
309,0.00e+00,
310,4.00e-04,
311,8.00e-05,
312,4.00e-05,
313,4.80e-04,
314,4.80e-04,
315,-8.00e-05,
316,3.20e-04,
317,-8.00e-05,
318,0.00e+00,
319,4.00e-04,
320,4.00e-04,
321,8.00e-05,
322,3.20e-04,
323,8.00e-05,
324,3.20e-04,
325,0.00e+00,
326,4.00e-04,
327,-8.00e-05,
328,4.00e-04,
329,0.00e+00,
330,0.00e+00,
331,3.20e-04,
332,4.00e-04,
333,-8.00e-05,
334,3.20e-04,
335,0.00e+00,
336,0.00e+00,
337,4.00e-04,
338,3.20e-04,
339,0.00e+00,
340,0.00e+00,
341,4.80e-04,
342,0.00e+00,
343,3.60e-04,
344,4.80e-04,
345,0.00e+00,
346,0.00e+00,
347,4.80e-04,
348,0.00e+00,
349,4.80e-04,
350,8.00e-05,
351,4.00e-04,
352,4.80e-04,
353,-8.00e-05,
354,8.00e-05,
355,4.00e-04,
356,4.00e-04,
357,0.00e+00,
358,0.00e+00,
359,4.80e-04,
360,8.00e-05,
361,4.00e-04,
362,4.00e-04,
363,8.00e-05,
364,8.00e-05,
365,4.00e-04,
366,4.00e-04,
367,8.00e-05,
368,4.80e-04,
369,0.00e+00,
370,0.00e+00,
371,4.00e-04,
372,8.00e-05,
373,4.00e-04,
374,8.00e-05,
375,4.80e-04,
376,0.00e+00,
377,4.00e-04,
378,8.00e-05,
379,3.20e-04,
380,0.00e+00,
381,4.80e-04,
382,4.00e-04,
383,0.00e+00,
384,3.20e-04,
385,0.00e+00,
386,4.00e-04,
387,8.00e-05,
388,8.00e-05,
389,4.80e-04,
390,4.80e-04,
391,0.00e+00,
392,3.20e-04,
393,0.00e+00,
394,8.00e-05,
395,4.80e-04,
396,0.00e+00,
397,4.00e-04,
398,0.00e+00,
399,4.00e-04,
400,4.00e-04,
401,0.00e+00,
402,8.00e-05,
403,4.00e-04,
404,0.00e+00,
405,4.80e-04,
406,0.00e+00,
407,4.00e-04,
408,0.00e+00,
409,4.00e-04,
410,0.00e+00,
411,4.00e-04,
412,-8.00e-05,
413,4.00e-04,
414,8.00e-05,
415,4.80e-04,
416,8.00e-05,
417,4.00e-04,
418,3.20e-04,
419,8.00e-05,
420,0.00e+00,
421,4.00e-04,
422,4.80e-04,
423,-8.00e-05,
424,-8.00e-05,
425,4.00e-04,
426,8.00e-05,
427,4.00e-04,
428,0.00e+00,
429,4.00e-04,
430,0.00e+00,
431,4.80e-04,
432,0.00e+00,
433,4.00e-04,
434,3.20e-04,
435,0.00e+00,
436,4.00e-04,
437,0.00e+00,
438,0.00e+00,
439,3.20e-04,
440,0.00e+00,
441,5.60e-04,
442,-8.00e-05,
443,4.00e-04,
444,0.00e+00,
445,4.00e-04,
446,4.80e-04,
447,8.00e-05,
448,3.20e-04,
449,-8.00e-05,
450,8.00e-05,
451,4.00e-04,
452,8.00e-05,
453,4.00e-04,
454,4.80e-04,
455,8.00e-05,
456,0.00e+00,
457,3.20e-04,
458,4.80e-04,
459,0.00e+00,
460,8.00e-05,
461,4.80e-04,
462,4.00e-04,
463,0.00e+00,
464,4.00e-04,
465,8.00e-05,
466,4.80e-04,
467,0.00e+00,
468,8.00e-05,
469,4.00e-04,
470,4.80e-04,
471,-8.00e-05,
472,3.60e-04,
473,0.00e+00,
474,-8.00e-05,
475,3.20e-04,
476,4.00e-04,
477,-8.00e-05,
478,-8.00e-05,
479,4.00e-04,
480,0.00e+00,
481,4.00e-04,
482,4.00e-04,
483,0.00e+00,
484,0.00e+00,
485,4.00e-04,
486,0.00e+00,
487,4.00e-04,
488,0.00e+00,
489,4.00e-04,
490,8.00e-05,
491,4.80e-04,
492,4.00e-04,
493,0.00e+00,
494,4.00e-04,
495,0.00e+00,
496,8.00e-05,
497,5.60e-04,
498,4.80e-04,
499,0.00e+00,
500,4.00e-04,
501,0.00e+00,
502,0.00e+00,
503,3.20e-04,
504,4.80e-04,
505,-8.00e-05,
506,4.00e-04,
507,0.00e+00,
508,0.00e+00,
509,4.80e-04,
510,4.80e-04,
511,-8.00e-05,
512,-8.00e-05,
513,5.60e-04,
514,4.00e-04,
515,0.00e+00,
516,8.00e-05,
517,4.80e-04,
518,4.00e-04,
519,0.00e+00,
520,4.00e-04,
521,0.00e+00,
522,4.80e-04,
523,0.00e+00,
524,3.20e-04,
525,0.00e+00,
526,0.00e+00,
527,4.80e-04,
528,8.00e-05,
529,4.00e-04,
530,4.00e-04,
531,0.00e+00,
532,4.80e-04,
533,8.00e-05,
534,4.00e-04,
535,0.00e+00,
536,0.00e+00,
537,4.00e-04,
538,0.00e+00,
539,4.00e-04,
540,0.00e+00,
541,4.00e-04,
542,0.00e+00,
543,4.00e-04,
544,0.00e+00,
545,4.80e-04,
546,3.20e-04,
547,0.00e+00,
548,4.00e-04,
549,0.00e+00,
550,4.80e-04,
551,8.00e-05,
552,0.00e+00,
553,4.00e-04,
554,3.20e-04,
555,-8.00e-05,
556,4.80e-04,
557,-8.00e-05,
558,3.20e-04,
559,0.00e+00,
560,4.80e-04,
561,0.00e+00,
562,0.00e+00,
563,3.20e-04,
564,0.00e+00,
565,4.00e-04,
566,4.00e-04,
567,0.00e+00,
568,0.00e+00,
569,4.00e-04,
570,0.00e+00,
571,4.00e-04,
572,4.00e-04,
573,0.00e+00,
574,0.00e+00,
575,4.00e-04,
576,0.00e+00,
577,4.00e-04,
578,3.20e-04,
579,-8.00e-05,
580,4.80e-04,
581,0.00e+00,
582,0.00e+00,
583,4.00e-04,
584,4.00e-04,
585,0.00e+00,
586,4.00e-04,
587,0.00e+00,
588,4.00e-04,
589,0.00e+00,
590,0.00e+00,
591,4.00e-04,
592,4.00e-04,
593,8.00e-05,
594,4.00e-04,
595,0.00e+00,
596,4.00e-04,
597,0.00e+00,
598,8.00e-05,
599,4.00e-04,
600,8.00e-05,
601,4.00e-04,
602,4.00e-04,
603,0.00e+00,
604,0.00e+00,
605,4.00e-04,
606,0.00e+00,
607,4.00e-04,
608,3.20e-04,
609,8.00e-05,
610,8.00e-05,
611,4.80e-04,
612,0.00e+00,
613,4.00e-04,
614,4.00e-04,
615,0.00e+00,
616,4.00e-04,
617,8.00e-05,
618,4.80e-04,
619,0.00e+00,
620,0.00e+00,
621,4.00e-04,
622,0.00e+00,
623,4.00e-04,
624,3.20e-04,
625,-8.00e-05,
626,8.00e-05,
627,4.00e-04,
628,8.00e-05,
629,4.80e-04,
630,0.00e+00,
631,4.00e-04,
632,4.80e-04,
633,8.00e-05,
634,8.00e-05,
635,4.80e-04,
636,8.00e-05,
637,4.00e-04,
638,4.00e-04,
639,0.00e+00,
640,3.20e-04,
641,0.00e+00,
642,4.00e-04,
643,8.00e-05,
644,4.00e-04,
645,0.00e+00,
646,0.00e+00,
647,3.20e-04,
648,0.00e+00,
649,4.00e-04,
650,8.00e-05,
651,4.80e-04,
652,4.00e-04,
653,8.00e-05,
654,4.00e-04,
655,0.00e+00,
656,4.00e-04,
657,0.00e+00,
658,4.00e-04,
659,-8.00e-05,
660,0.00e+00,
661,4.80e-04,
662,4.80e-04,
663,8.00e-05,
664,0.00e+00,
665,4.00e-04,
666,3.20e-04,
667,0.00e+00,
668,4.00e-04,
669,0.00e+00,
670,3.20e-04,
671,0.00e+00,
672,4.00e-04,
673,0.00e+00,
674,-8.00e-05,
675,4.00e-04,
676,8.00e-05,
677,4.80e-04,
678,4.00e-04,
679,0.00e+00,
680,4.00e-04,
681,0.00e+00,
682,8.00e-05,
683,4.00e-04,
684,0.00e+00,
685,4.80e-04,
686,8.00e-05,
687,4.00e-04,
688,4.00e-04,
689,-8.00e-05,
690,8.00e-05,
691,4.00e-04,
692,4.00e-04,
693,8.00e-05,
694,8.00e-05,
695,4.00e-04,
696,4.00e-04,
697,0.00e+00,
698,4.00e-04,
699,8.00e-05,
700,4.00e-04,
701,0.00e+00,
702,4.80e-04,
703,0.00e+00,
704,0.00e+00,
705,4.00e-04,
706,8.00e-05,
707,4.00e-04,
708,0.00e+00,
709,4.80e-04,
710,4.00e-04,
711,0.00e+00,
712,8.00e-05,
713,4.00e-04,
714,8.00e-05,
715,4.80e-04,
716,8.00e-05,
717,4.00e-04,
718,8.00e-05,
719,4.80e-04,
720,4.80e-04,
721,8.00e-05,
722,4.80e-04,
723,8.00e-05,
724,4.00e-04,
725,0.00e+00,
726,4.80e-04,
727,8.00e-05,
728,4.00e-04,
729,0.00e+00,
730,1.60e-04,
731,4.00e-04,
732,4.00e-04,
733,0.00e+00,
734,4.80e-04,
735,0.00e+00,
736,4.00e-04,
737,8.00e-05,
738,4.80e-04,
739,8.00e-05,
740,4.00e-04,
741,-8.00e-05,
742,3.20e-04,
743,-8.00e-05,
744,8.00e-05,
745,4.80e-04,
746,-8.00e-05,
747,4.00e-04,
748,8.00e-05,
749,4.00e-04,
750,4.00e-04,
751,0.00e+00,
752,0.00e+00,
753,4.00e-04,
754,0.00e+00,
755,4.00e-04,
756,0.00e+00,
757,4.00e-04,
758,4.00e-04,
759,0.00e+00,
760,8.00e-05,
761,3.20e-04,
762,0.00e+00,
763,4.80e-04,
764,4.80e-04,
765,0.00e+00,
766,4.00e-04,
767,0.00e+00,
768,0.00e+00,
769,4.00e-04,
770,4.00e-04,
771,8.00e-05,
772,4.80e-04,
773,0.00e+00,
774,-8.00e-05,
775,4.80e-04,
776,4.00e-04,
777,8.00e-05,
778,3.20e-04,
779,0.00e+00,
780,8.00e-05,
781,4.00e-04,
782,4.00e-04,
783,0.00e+00,
784,8.00e-05,
785,4.80e-04,
786,0.00e+00,
787,4.00e-04,
788,-8.00e-05,
789,4.80e-04,
790,0.00e+00,
791,4.00e-04,
792,8.00e-05,
793,4.00e-04,
794,4.80e-04,
795,-8.00e-05,
796,-8.00e-05,
797,4.00e-04,
798,0.00e+00,
799,4.00e-04,
800,4.00e-04,
801,4.00e-05,
802,8.00e-05,
803,4.00e-04,
804,4.00e-04,
805,-8.00e-05,
806,4.00e-04,
807,0.00e+00,
808,0.00e+00,
809,3.20e-04,
810,4.80e-04,
811,0.00e+00,
812,0.00e+00,
813,4.80e-04,
814,0.00e+00,
815,4.00e-04,
816,1.60e-04,
817,4.00e-04,
818,4.00e-04,
819,0.00e+00,
820,4.80e-04,
821,8.00e-05,
822,3.20e-04,
823,0.00e+00,
824,0.00e+00,
825,4.00e-04,
826,4.00e-04,
827,0.00e+00,
828,0.00e+00,
829,4.00e-04,
830,3.20e-04,
831,0.00e+00,
832,-8.00e-05,
833,4.00e-04,
834,4.80e-04,
835,0.00e+00,
836,3.20e-04,
837,0.00e+00,
838,0.00e+00,
839,3.20e-04,
840,3.20e-04,
841,-8.00e-05,
842,4.00e-04,
843,0.00e+00,
844,0.00e+00,
845,4.00e-04,
846,4.00e-04,
847,0.00e+00,
848,4.00e-04,
849,0.00e+00,
850,-8.00e-05,
851,4.00e-04,
852,8.00e-05,
853,4.00e-04,
854,4.80e-04,
855,0.00e+00,
856,0.00e+00,
857,4.00e-04,
858,0.00e+00,
859,4.00e-04,
860,4.00e-04,
861,0.00e+00,
862,0.00e+00,
863,4.00e-04,
864,4.00e-04,
865,8.00e-05,
866,4.00e-04,
867,8.00e-05,
868,-8.00e-05,
869,3.60e-04,
870,4.00e-04,
871,0.00e+00,
872,3.20e-04,
873,-1.60e-04,
874,4.00e-04,
875,0.00e+00,
876,4.00e-04,
877,-8.00e-05,
878,8.00e-05,
879,4.00e-04,
880,0.00e+00,
881,4.80e-04,
882,4.00e-04,
883,8.00e-05,
884,4.00e-04,
885,0.00e+00,
886,4.00e-04,
887,0.00e+00,
888,4.00e-04,
889,0.00e+00,
890,4.00e-04,
891,0.00e+00,
892,4.80e-04,
893,0.00e+00,
894,4.00e-04,
895,0.00e+00,
896,4.00e-04,
897,-8.00e-05,
898,4.80e-04,
899,0.00e+00,
900,8.00e-05,
901,3.60e-04,
902,4.00e-04,
903,8.00e-05,
904,0.00e+00,
905,4.00e-04,
906,4.00e-04,
907,0.00e+00,
908,8.00e-05,
909,4.00e-04,
910,4.00e-04,
911,0.00e+00,
912,4.00e-04,
913,0.00e+00,
914,0.00e+00,
915,4.00e-04,
916,4.00e-04,
917,0.00e+00,
918,4.00e-04,
919,8.00e-05,
920,4.00e-04,
921,8.00e-05,
922,0.00e+00,
923,4.80e-04,
924,8.00e-05,
925,4.00e-04,
926,4.00e-04,
927,0.00e+00,
928,4.00e-04,
929,8.00e-05,
930,4.00e-04,
931,0.00e+00,
932,0.00e+00,
933,4.00e-04,
934,4.00e-04,
935,0.00e+00,
936,3.20e-04,
937,0.00e+00,
938,4.80e-04,
939,0.00e+00,
940,8.00e-05,
941,4.00e-04,
942,4.80e-04,
943,0.00e+00,
944,4.80e-04,
945,0.00e+00,
946,4.00e-04,
947,0.00e+00,
948,-8.00e-05,
949,4.80e-04,
950,4.80e-04,
951,8.00e-05,
952,4.80e-04,
953,8.00e-05,
954,8.00e-05,
955,4.00e-04,
956,4.00e-04,
957,0.00e+00,
958,0.00e+00,
959,4.80e-04,
960,4.80e-04,
961,8.00e-05,
962,4.00e-04,
963,8.00e-05,
964,4.00e-04,
965,0.00e+00,
966,3.20e-04,
967,0.00e+00,
968,0.00e+00,
969,4.00e-04,
970,4.80e-04,
971,0.00e+00,
972,8.00e-05,
973,4.00e-04,
974,4.80e-04,
975,0.00e+00,
976,8.00e-05,
977,4.00e-04,
978,4.00e-04,
979,0.00e+00,
980,0.00e+00,
981,4.80e-04,
982,4.00e-04,
983,0.00e+00,
984,4.80e-04,
985,0.00e+00,
986,4.00e-04,
987,0.00e+00,
988,8.00e-05,
989,4.00e-04,
990,4.00e-04,
991,0.00e+00,
992,0.00e+00,
993,4.00e-04,
994,3.20e-04,
995,0.00e+00,
996,4.00e-04,
997,0.00e+00,
998,-8.00e-05,
999,4.00e-04,
1000,8.00e-05,
1001,4.00e-04,
1002,0.00e+00,
1003,4.00e-04,
1004,4.00e-04,
1005,0.00e+00,
1006,4.00e-04,
1007,0.00e+00,
1008,4.00e-04,
1009,0.00e+00,
1010,8.00e-05,
1011,4.00e-04,
1012,4.00e-04,
1013,0.00e+00,
1014,4.00e-04,
1015,8.00e-05,
1016,4.00e-04,
1017,-8.00e-05,
1018,4.00e-04,
1019,0.00e+00,
1020,4.00e-04,
1021,0.00e+00,
1022,0.00e+00,
1023,4.00e-04,
1024,4.00e-04,
1025,0.00e+00,
1026,4.00e-04,
1027,-8.00e-05,
1028,3.20e-04,
1029,-8.00e-05,
1030,0.00e+00,
1031,4.80e-04,
1032,-8.00e-05,
1033,4.80e-04,
1034,4.00e-04,
1035,0.00e+00,
1036,3.20e-04,
1037,0.00e+00,
1038,4.00e-04,
1039,0.00e+00,
1040,4.00e-04,
1041,0.00e+00,
1042,-8.00e-05,
1043,4.00e-04,
1044,4.00e-04,
1045,0.00e+00,
1046,4.00e-04,
1047,8.00e-05,
1048,4.00e-04,
1049,0.00e+00,
1050,0.00e+00,
1051,4.00e-04,
1052,4.00e-04,
1053,0.00e+00,
1054,0.00e+00,
1055,4.00e-04,
1056,4.00e-04,
1057,0.00e+00,
1058,8.00e-05,
1059,4.00e-04,
1060,0.00e+00,
1061,4.80e-04,
1062,4.00e-04,
1063,0.00e+00,
1064,4.00e-04,
1065,8.00e-05,
1066,4.80e-04,
1067,0.00e+00,
1068,4.00e-04,
1069,8.00e-05,
1070,4.00e-04,
1071,-8.00e-05,
1072,3.20e-04,
1073,-8.00e-05,
1074,4.00e-04,
1075,0.00e+00,
1076,4.00e-04,
1077,0.00e+00,
1078,4.00e-04,
1079,0.00e+00,
1080,0.00e+00,
1081,4.80e-04,
1082,0.00e+00,
1083,4.00e-04,
1084,4.00e-04,
1085,0.00e+00,
1086,0.00e+00,
1087,4.00e-04,
1088,4.00e-04,
1089,0.00e+00,
1090,0.00e+00,
1091,4.00e-04,
1092,3.60e-04,
1093,8.00e-05,
1094,8.00e-05,
1095,4.00e-04,
1096,0.00e+00,
1097,4.00e-04,
1098,4.80e-04,
1099,8.00e-05,
1100,8.00e-05,
1101,4.00e-04,
1102,3.20e-04,
1103,-8.00e-05,
1104,4.00e-04,
1105,0.00e+00,
1106,0.00e+00,
1107,4.00e-04,
1108,4.00e-04,
1109,0.00e+00,
1110,0.00e+00,
1111,4.00e-04,
1112,0.00e+00,
1113,4.00e-04,
1114,4.00e-04,
1115,0.00e+00,
1116,4.00e-04,
1117,8.00e-05,
1118,3.20e-04,
1119,0.00e+00,
1120,3.60e-04,
1121,0.00e+00,
1122,4.00e-04,
1123,8.00e-05,
1124,0.00e+00,
1125,4.80e-04,
1126,0.00e+00,
1127,4.00e-04,
1128,4.00e-04,
1129,0.00e+00,
1130,4.00e-04,
1131,0.00e+00,
1132,4.00e-04,
1133,8.00e-05,
1134,3.20e-04,
1135,-8.00e-05,
1136,8.00e-05,
1137,4.00e-04,
1138,3.20e-04,
1139,-8.00e-05,
1140,0.00e+00,
1141,4.00e-04,
1142,8.00e-05,
1143,4.00e-04,
1144,-8.00e-05,
1145,4.00e-04,
1146,4.00e-04,
1147,0.00e+00,
1148,4.00e-04,
1149,-8.00e-05,
1150,0.00e+00,
1151,4.00e-04,
1152,4.00e-04,
1153,0.00e+00,
1154,0.00e+00,
1155,4.00e-04,
1156,8.00e-05,
1157,4.00e-04,
1158,0.00e+00,
1159,4.00e-04,
1160,3.20e-04,
1161,0.00e+00,
1162,8.00e-05,
1163,4.00e-04,
1164,4.80e-04,
1165,-8.00e-05,
1166,4.00e-04,
1167,0.00e+00,
1168,-8.00e-05,
1169,4.00e-04,
1170,0.00e+00,
1171,4.00e-04,
1172,4.00e-04,
1173,0.00e+00,
1174,8.00e-05,
1175,4.00e-04,
1176,4.00e-04,
1177,-8.00e-05,
1178,4.00e-04,
1179,0.00e+00,
1180,4.00e-04,
1181,0.00e+00,
1182,3.20e-04,
1183,0.00e+00,
1184,0.00e+00,
1185,4.80e-04,
1186,4.80e-04,
1187,0.00e+00,
1188,4.80e-04,
1189,0.00e+00,
1190,4.00e-04,
1191,8.00e-05,
1192,0.00e+00,
1193,4.80e-04,
1194,4.00e-04,
1195,0.00e+00,
1196,8.00e-05,
1197,4.80e-04,
1198,4.80e-04,
1199,0.00e+00,
