fastdiffamp/data-noise-set/bal-9to919/NewFile5.csv

X,CH1,Start,Increment,
Sequence,Volt,-5.990000e+00,1.000000e-02
0,8.00e-05,
1,4.80e-04,
2,4.00e-04,
3,0.00e+00,
4,3.20e-04,
5,0.00e+00,
6,4.00e-04,
7,8.00e-05,
8,4.00e-04,
9,0.00e+00,
10,3.20e-04,
11,0.00e+00,
12,8.00e-05,
13,4.80e-04,
14,8.00e-05,
15,3.20e-04,
16,4.00e-04,
17,-8.00e-05,
18,4.00e-04,
19,0.00e+00,
20,4.00e-04,
21,0.00e+00,
22,4.00e-04,
23,0.00e+00,
24,0.00e+00,
25,4.80e-04,
26,4.80e-04,
27,0.00e+00,
28,4.80e-04,
29,0.00e+00,
30,4.00e-04,
31,0.00e+00,
32,0.00e+00,
33,3.60e-04,
34,8.00e-05,
35,4.80e-04,
36,4.80e-04,
37,0.00e+00,
38,4.80e-04,
39,-8.00e-05,
40,0.00e+00,
41,4.00e-04,
42,-8.00e-05,
43,4.00e-04,
44,4.80e-04,
45,0.00e+00,
46,8.00e-05,
47,4.00e-04,
48,4.80e-04,
49,0.00e+00,
50,4.80e-04,
51,0.00e+00,
52,4.00e-04,
53,0.00e+00,
54,4.00e-04,
55,0.00e+00,
56,0.00e+00,
57,4.80e-04,
58,4.80e-04,
59,0.00e+00,
60,4.00e-04,
61,0.00e+00,
62,4.00e-04,
63,8.00e-05,
64,4.80e-04,
65,-8.00e-05,
66,8.00e-05,
67,4.00e-04,
68,0.00e+00,
69,4.00e-04,
70,8.00e-05,
71,4.80e-04,
72,8.00e-05,
73,5.60e-04,
74,4.00e-04,
75,8.00e-05,
76,4.80e-04,
77,0.00e+00,
78,-8.00e-05,
79,4.00e-04,
80,4.80e-04,
81,0.00e+00,
82,8.00e-05,
83,4.00e-04,
84,0.00e+00,
85,4.80e-04,
86,0.00e+00,
87,4.00e-04,
88,4.00e-04,
89,0.00e+00,
90,0.00e+00,
91,4.00e-04,
92,0.00e+00,
93,4.00e-04,
94,8.00e-05,
95,4.80e-04,
96,8.00e-05,
97,5.60e-04,
98,4.80e-04,
99,0.00e+00,
100,8.00e-05,
101,4.00e-04,
102,0.00e+00,
103,4.80e-04,
104,0.00e+00,
105,4.00e-04,
106,4.00e-04,
107,0.00e+00,
108,4.00e-04,
109,0.00e+00,
110,4.80e-04,
111,0.00e+00,
112,4.00e-04,
113,0.00e+00,
114,4.80e-04,
115,-8.00e-05,
116,3.20e-04,
117,0.00e+00,
118,8.00e-05,
119,4.00e-04,
120,3.20e-04,
121,0.00e+00,
122,4.00e-04,
123,0.00e+00,
124,3.20e-04,
125,-8.00e-05,
126,4.00e-04,
127,0.00e+00,
128,0.00e+00,
129,4.00e-04,
130,0.00e+00,
131,4.00e-04,
132,0.00e+00,
133,4.00e-04,
134,4.00e-04,
135,8.00e-05,
136,8.00e-05,
137,4.00e-04,
138,4.80e-04,
139,8.00e-05,
140,0.00e+00,
141,4.00e-04,
142,3.20e-04,
143,0.00e+00,
144,4.80e-04,
145,8.00e-05,
146,4.00e-04,
147,0.00e+00,
148,5.60e-04,
149,8.00e-05,
150,4.80e-04,
151,-8.00e-05,
152,-8.00e-05,
153,4.80e-04,
154,4.80e-04,
155,0.00e+00,
156,4.80e-04,
157,0.00e+00,
158,4.00e-04,
159,0.00e+00,
160,3.20e-04,
161,0.00e+00,
162,3.20e-04,
163,-8.00e-05,
164,8.00e-05,
165,4.80e-04,
166,0.00e+00,
167,4.80e-04,
168,8.00e-05,
169,4.80e-04,
170,4.80e-04,
171,0.00e+00,
172,4.80e-04,
173,8.00e-05,
174,0.00e+00,
175,4.80e-04,
176,4.80e-04,
177,0.00e+00,
178,0.00e+00,
179,4.00e-04,
180,0.00e+00,
181,4.80e-04,
182,4.00e-04,
183,0.00e+00,
184,8.00e-05,
185,5.60e-04,
186,4.80e-04,
187,0.00e+00,
188,8.00e-05,
189,4.80e-04,
190,0.00e+00,
191,4.80e-04,
192,4.80e-04,
193,8.00e-05,
194,8.00e-05,
195,4.80e-04,
196,4.00e-04,
197,0.00e+00,
198,4.00e-04,
199,0.00e+00,
200,0.00e+00,
201,4.00e-04,
202,0.00e+00,
203,4.80e-04,
204,4.00e-04,
205,0.00e+00,
206,4.80e-04,
207,0.00e+00,
208,0.00e+00,
209,4.00e-04,
210,3.20e-04,
211,0.00e+00,
212,0.00e+00,
213,4.80e-04,
214,4.00e-04,
215,8.00e-05,
216,4.00e-04,
217,0.00e+00,
218,4.80e-04,
219,0.00e+00,
220,4.00e-04,
221,0.00e+00,
222,0.00e+00,
223,4.00e-04,
224,8.00e-05,
225,4.80e-04,
226,0.00e+00,
227,4.00e-04,
228,4.00e-04,
229,8.00e-05,
230,4.80e-04,
231,0.00e+00,
232,8.00e-05,
233,4.00e-04,
234,0.00e+00,
235,4.80e-04,
236,4.00e-04,
237,0.00e+00,
238,4.00e-04,
239,8.00e-05,
240,3.20e-04,
241,0.00e+00,
242,8.00e-05,
243,4.00e-04,
244,0.00e+00,
245,3.20e-04,
246,4.00e-04,
247,8.00e-05,
248,4.80e-04,
249,0.00e+00,
250,4.00e-04,
251,0.00e+00,
252,8.00e-05,
253,4.00e-04,
254,0.00e+00,
255,4.80e-04,
256,4.00e-04,
257,8.00e-05,
258,0.00e+00,
259,4.80e-04,
260,4.00e-04,
261,8.00e-05,
262,0.00e+00,
263,4.00e-04,
264,0.00e+00,
265,4.80e-04,
266,4.00e-05,
267,4.00e-04,
268,4.00e-04,
269,8.00e-05,
270,4.00e-04,
271,0.00e+00,
272,4.80e-04,
273,0.00e+00,
274,0.00e+00,
275,3.20e-04,
276,4.00e-04,
277,0.00e+00,
278,3.20e-04,
279,0.00e+00,
280,4.00e-04,
281,-8.00e-05,
282,4.00e-04,
283,0.00e+00,
284,0.00e+00,
285,3.20e-04,
286,3.20e-04,
287,0.00e+00,
288,-8.00e-05,
289,4.00e-04,
290,4.80e-04,
291,0.00e+00,
292,8.00e-05,
293,3.20e-04,
294,0.00e+00,
295,3.20e-04,
296,4.00e-04,
297,0.00e+00,
298,0.00e+00,
299,4.80e-04,
300,0.00e+00,
301,4.80e-04,
302,0.00e+00,
303,4.80e-04,
304,4.80e-04,
305,0.00e+00,
306,8.00e-05,
307,4.00e-04,
308,0.00e+00,
309,4.00e-04,
310,4.80e-04,
311,8.00e-05,
312,4.00e-04,
313,0.00e+00,
314,4.80e-04,
315,0.00e+00,
316,3.20e-04,
317,-8.00e-05,
318,4.80e-04,
319,0.00e+00,
320,8.00e-05,
321,5.60e-04,
322,0.00e+00,
323,4.80e-04,
324,4.00e-04,
325,0.00e+00,
326,3.20e-04,
327,0.00e+00,
328,0.00e+00,
329,4.00e-04,
330,0.00e+00,
331,4.00e-04,
332,0.00e+00,
333,4.80e-04,
334,4.80e-04,
335,0.00e+00,
336,4.00e-04,
337,0.00e+00,
338,4.00e-04,
339,0.00e+00,
340,-8.00e-05,
341,4.80e-04,
342,0.00e+00,
343,4.00e-04,
344,4.80e-04,
345,0.00e+00,
346,4.00e-04,
347,0.00e+00,
348,0.00e+00,
349,4.00e-04,
350,4.80e-04,
351,-8.00e-05,
352,0.00e+00,
353,4.00e-04,
354,0.00e+00,
355,3.20e-04,
356,4.80e-04,
357,0.00e+00,
358,4.00e-04,
359,0.00e+00,
360,3.20e-04,
361,0.00e+00,
362,0.00e+00,
363,4.00e-04,
364,3.20e-04,
365,-8.00e-05,
366,8.00e-05,
367,5.60e-04,
368,8.00e-05,
369,4.00e-04,
370,4.00e-04,
371,0.00e+00,
372,4.00e-04,
373,0.00e+00,
374,0.00e+00,
375,4.00e-04,
376,4.00e-04,
377,0.00e+00,
378,0.00e+00,
379,4.80e-04,
380,4.80e-04,
381,0.00e+00,
382,4.00e-04,
383,0.00e+00,
384,0.00e+00,
385,4.00e-04,
386,0.00e+00,
387,4.00e-04,
388,0.00e+00,
389,4.00e-04,
390,-8.00e-05,
391,3.60e-04,
392,4.00e-04,
393,8.00e-05,
394,-8.00e-05,
395,5.60e-04,
396,0.00e+00,
397,4.00e-04,
398,4.80e-04,
399,8.00e-05,
400,4.00e-04,
401,-8.00e-05,
402,0.00e+00,
403,4.00e-04,
404,4.80e-04,
405,0.00e+00,
406,4.80e-04,
407,8.00e-05,
408,4.00e-04,
409,0.00e+00,
410,-8.00e-05,
411,4.00e-04,
412,3.20e-04,
413,8.00e-05,
414,0.00e+00,
415,4.00e-04,
416,4.00e-04,
417,0.00e+00,
418,8.00e-05,
419,4.00e-04,
420,4.80e-04,
421,0.00e+00,
422,0.00e+00,
423,4.00e-04,
424,0.00e+00,
425,4.00e-04,
426,0.00e+00,
427,4.80e-04,
428,4.00e-04,
429,-8.00e-05,
430,0.00e+00,
431,4.00e-04,
432,8.00e-05,
433,4.80e-04,
434,8.00e-05,
435,4.80e-04,
436,8.00e-05,
437,4.80e-04,
438,3.20e-04,
439,-8.00e-05,
440,0.00e+00,
441,3.20e-04,
442,0.00e+00,
443,3.20e-04,
444,4.00e-04,
445,0.00e+00,
446,0.00e+00,
447,4.00e-04,
448,4.00e-04,
449,0.00e+00,
450,0.00e+00,
451,4.00e-04,
452,3.20e-04,
453,0.00e+00,
454,8.00e-05,
455,4.00e-04,
456,3.20e-04,
457,0.00e+00,
458,-1.60e-04,
459,4.00e-04,
460,-8.00e-05,
461,4.00e-04,
462,0.00e+00,
463,4.00e-04,
464,0.00e+00,
465,4.00e-04,
466,4.00e-04,
467,8.00e-05,
468,8.00e-05,
469,4.00e-04,
470,4.80e-04,
471,0.00e+00,
472,4.00e-04,
473,8.00e-05,
474,4.00e-04,
475,0.00e+00,
476,0.00e+00,
477,4.00e-04,
478,4.00e-04,
479,0.00e+00,
480,4.00e-04,
481,-8.00e-05,
482,-8.00e-05,
483,4.80e-04,
484,0.00e+00,
485,4.00e-04,
486,4.00e-04,
487,8.00e-05,
488,4.80e-04,
489,0.00e+00,
490,4.00e-04,
491,-8.00e-05,
492,8.00e-05,
493,4.80e-04,
494,3.20e-04,
495,8.00e-05,
496,3.20e-04,
497,0.00e+00,
498,4.00e-04,
499,0.00e+00,
500,4.80e-04,
501,0.00e+00,
502,0.00e+00,
503,4.80e-04,
504,4.00e-04,
505,0.00e+00,
506,8.00e-05,
507,4.00e-04,
508,8.00e-05,
509,4.00e-04,
510,3.20e-04,
511,0.00e+00,
512,0.00e+00,
513,4.00e-04,
514,4.00e-04,
515,-8.00e-05,
516,8.00e-05,
517,4.00e-04,
518,0.00e+00,
519,4.00e-04,
520,-8.00e-05,
521,5.60e-04,
522,4.00e-04,
523,0.00e+00,
524,8.00e-05,
525,4.80e-04,
526,0.00e+00,
527,4.00e-04,
528,4.00e-04,
529,0.00e+00,
530,0.00e+00,
531,3.20e-04,
532,0.00e+00,
533,4.80e-04,
534,-8.00e-05,
535,4.00e-04,
536,8.00e-05,
537,3.60e-04,
538,0.00e+00,
539,4.80e-04,
540,0.00e+00,
541,4.00e-04,
542,0.00e+00,
543,4.00e-04,
544,0.00e+00,
545,4.00e-04,
546,8.00e-05,
547,4.00e-04,
548,0.00e+00,
549,4.00e-04,
550,4.00e-04,
551,0.00e+00,
552,-8.00e-05,
553,4.00e-04,
554,8.00e-05,
555,4.00e-04,
556,0.00e+00,
557,4.00e-04,
558,4.00e-04,
559,0.00e+00,
560,3.60e-04,
561,0.00e+00,
562,0.00e+00,
563,4.00e-04,
564,4.00e-04,
565,0.00e+00,
566,4.00e-04,
567,0.00e+00,
568,0.00e+00,
569,4.00e-04,
570,0.00e+00,
571,5.60e-04,
572,0.00e+00,
573,4.00e-04,
574,0.00e+00,
575,3.20e-04,
576,3.20e-04,
577,0.00e+00,
578,0.00e+00,
579,4.80e-04,
580,8.00e-05,
581,4.80e-04,
582,0.00e+00,
583,4.80e-04,
584,4.00e-04,
585,0.00e+00,
586,8.00e-05,
587,4.00e-04,
588,0.00e+00,
589,4.00e-04,
590,3.20e-04,
591,-4.00e-05,
592,0.00e+00,
593,4.00e-04,
594,4.80e-04,
595,0.00e+00,
596,-8.00e-05,
597,3.20e-04,
598,3.20e-04,
599,0.00e+00,
600,0.00e+00,
601,4.00e-04,
602,-1.60e-04,
603,3.60e-04,
604,0.00e+00,
605,4.00e-04,
606,4.00e-04,
607,0.00e+00,
608,0.00e+00,
609,4.80e-04,
610,0.00e+00,
611,4.00e-04,
612,4.00e-04,
613,0.00e+00,
614,0.00e+00,
615,4.80e-04,
616,4.00e-04,
617,8.00e-05,
618,0.00e+00,
619,4.00e-04,
620,-8.00e-05,
621,4.00e-04,
622,4.00e-04,
623,0.00e+00,
624,8.00e-05,
625,4.80e-04,
626,0.00e+00,
627,4.00e-04,
628,0.00e+00,
629,4.00e-04,
630,0.00e+00,
631,3.60e-04,
632,-8.00e-05,
633,4.00e-04,
634,3.20e-04,
635,0.00e+00,
636,4.00e-04,
637,8.00e-05,
638,0.00e+00,
639,4.00e-04,
640,0.00e+00,
641,4.80e-04,
642,0.00e+00,
643,4.80e-04,
644,0.00e+00,
645,4.80e-04,
646,0.00e+00,
647,4.00e-04,
648,0.00e+00,
649,4.00e-04,
650,0.00e+00,
651,3.20e-04,
652,3.20e-04,
653,-8.00e-05,
654,-8.00e-05,
655,3.20e-04,
656,3.20e-04,
657,0.00e+00,
658,4.00e-04,
659,0.00e+00,
660,4.80e-04,
661,0.00e+00,
662,-8.00e-05,
663,4.00e-04,
664,0.00e+00,
665,4.80e-04,
666,0.00e+00,
667,4.00e-04,
668,0.00e+00,
669,4.00e-04,
670,8.00e-05,
671,4.80e-04,
672,8.00e-05,
673,5.60e-04,
674,4.00e-04,
675,0.00e+00,
676,4.00e-04,
677,0.00e+00,
678,0.00e+00,
679,4.00e-04,
680,0.00e+00,
681,4.00e-04,
682,8.00e-05,
683,4.00e-04,
684,4.00e-04,
685,0.00e+00,
686,8.00e-05,
687,4.00e-04,
688,8.00e-05,
689,4.00e-04,
690,-8.00e-05,
691,4.80e-04,
692,8.00e-05,
693,4.80e-04,
694,8.00e-05,
695,4.00e-04,
696,4.00e-04,
697,0.00e+00,
698,0.00e+00,
699,4.80e-04,
700,0.00e+00,
701,4.00e-04,
702,0.00e+00,
703,4.00e-04,
704,0.00e+00,
705,4.00e-04,
706,3.20e-04,
707,0.00e+00,
708,0.00e+00,
709,4.80e-04,
710,4.80e-04,
711,0.00e+00,
712,4.00e-04,
713,0.00e+00,
714,4.00e-04,
715,-8.00e-05,
716,0.00e+00,
717,4.00e-04,
718,0.00e+00,
719,3.60e-04,
720,4.00e-04,
721,-8.00e-05,
722,8.00e-05,
723,4.00e-04,
724,4.00e-04,
725,0.00e+00,
726,0.00e+00,
727,4.00e-04,
728,3.20e-04,
729,0.00e+00,
730,8.00e-05,
731,4.80e-04,
732,4.00e-04,
733,8.00e-05,
734,4.00e-04,
735,0.00e+00,
736,4.80e-04,
737,0.00e+00,
738,3.20e-04,
739,4.00e-05,
740,4.00e-04,
741,-8.00e-05,
742,0.00e+00,
743,4.80e-04,
744,4.00e-04,
745,0.00e+00,
746,0.00e+00,
747,4.80e-04,
748,4.00e-04,
749,0.00e+00,
750,4.00e-04,
751,0.00e+00,
752,0.00e+00,
753,3.20e-04,
754,0.00e+00,
755,4.00e-04,
756,4.00e-04,
757,0.00e+00,
758,4.00e-04,
759,0.00e+00,
760,0.00e+00,
761,4.00e-04,
762,4.00e-04,
763,8.00e-05,
764,0.00e+00,
765,4.00e-04,
766,8.00e-05,
767,4.00e-04,
768,4.00e-04,
769,0.00e+00,
770,8.00e-05,
771,4.00e-04,
772,8.00e-05,
773,4.00e-04,
774,0.00e+00,
775,4.00e-04,
776,8.00e-05,
777,4.00e-04,
778,0.00e+00,
779,4.00e-04,
780,8.00e-05,
781,4.00e-04,
782,4.00e-04,
783,8.00e-05,
784,4.00e-04,
785,0.00e+00,
786,0.00e+00,
787,4.80e-04,
788,0.00e+00,
789,4.80e-04,
790,8.00e-05,
791,4.80e-04,
792,4.00e-04,
793,8.00e-05,
794,3.20e-04,
795,-8.00e-05,
796,0.00e+00,
797,4.00e-04,
798,0.00e+00,
799,4.00e-04,
800,-8.00e-05,
801,4.00e-04,
802,0.00e+00,
803,4.00e-04,
804,0.00e+00,
805,4.00e-04,
806,0.00e+00,
807,4.80e-04,
808,4.00e-04,
809,0.00e+00,
810,8.00e-05,
811,4.00e-04,
812,4.00e-04,
813,8.00e-05,
814,8.00e-05,
815,4.00e-04,
816,8.00e-05,
817,4.80e-04,
818,0.00e+00,
819,4.80e-04,
820,4.00e-04,
821,-8.00e-05,
822,0.00e+00,
823,4.00e-04,
824,0.00e+00,
825,4.00e-04,
826,4.00e-04,
827,0.00e+00,
828,8.00e-05,
829,4.80e-04,
830,4.00e-04,
831,0.00e+00,
832,4.00e-04,
833,-8.00e-05,
834,8.00e-05,
835,4.80e-04,
836,-8.00e-05,
837,4.00e-04,
838,0.00e+00,
839,4.00e-04,
840,4.00e-04,
841,-8.00e-05,
842,4.00e-04,
843,0.00e+00,
844,0.00e+00,
845,4.00e-04,
846,8.00e-05,
847,4.80e-04,
848,8.00e-05,
849,4.00e-04,
850,4.00e-04,
851,0.00e+00,
852,-8.00e-05,
853,4.00e-04,
854,4.00e-04,
855,0.00e+00,
856,4.00e-04,
857,0.00e+00,
858,4.80e-04,
859,-8.00e-05,
860,0.00e+00,
861,4.00e-04,
862,4.80e-04,
863,0.00e+00,
864,8.00e-05,
865,4.00e-04,
866,8.00e-05,
867,4.00e-04,
868,4.00e-04,
869,0.00e+00,
870,0.00e+00,
871,4.00e-04,
872,0.00e+00,
873,4.00e-04,
874,4.00e-04,
875,0.00e+00,
876,0.00e+00,
877,4.00e-04,
878,4.80e-04,
879,0.00e+00,
880,0.00e+00,
881,4.00e-04,
882,4.00e-04,
883,0.00e+00,
884,8.00e-05,
885,4.00e-04,
886,4.00e-04,
887,8.00e-05,
888,4.80e-04,
889,0.00e+00,
890,0.00e+00,
891,4.00e-04,
892,4.00e-04,
893,0.00e+00,
894,4.00e-04,
895,0.00e+00,
896,8.00e-05,
897,4.00e-04,
898,4.40e-04,
899,-8.00e-05,
900,-8.00e-05,
901,4.00e-04,
902,4.00e-04,
903,8.00e-05,
904,0.00e+00,
905,4.80e-04,
906,4.00e-04,
907,0.00e+00,
908,0.00e+00,
909,4.00e-04,
910,8.00e-05,
911,4.00e-04,
912,0.00e+00,
913,4.00e-04,
914,4.00e-04,
915,8.00e-05,
916,4.00e-04,
917,8.00e-05,
918,8.00e-05,
919,4.00e-04,
920,0.00e+00,
921,4.00e-04,
922,0.00e+00,
923,4.80e-04,
924,4.00e-04,
925,-8.00e-05,
926,4.00e-04,
927,8.00e-05,
928,0.00e+00,
929,4.00e-04,
930,0.00e+00,
931,4.80e-04,
932,-8.00e-05,
933,4.00e-04,
934,8.00e-05,
935,4.80e-04,
936,4.80e-04,
937,8.00e-05,
938,4.00e-04,
939,8.00e-05,
940,0.00e+00,
941,4.00e-04,
942,0.00e+00,
943,3.20e-04,
944,8.00e-05,
945,4.80e-04,
946,4.00e-04,
947,8.00e-05,
948,3.20e-04,
949,0.00e+00,
950,0.00e+00,
951,4.00e-04,
952,8.00e-05,
953,4.80e-04,
954,8.00e-05,
955,4.80e-04,
956,8.00e-05,
957,4.80e-04,
958,0.00e+00,
959,4.80e-04,
960,0.00e+00,
961,4.00e-04,
962,5.60e-04,
963,0.00e+00,
964,4.80e-04,
965,0.00e+00,
966,8.00e-05,
967,4.00e-04,
968,0.00e+00,
969,4.00e-04,
970,0.00e+00,
971,4.00e-04,
972,4.80e-04,
973,0.00e+00,
974,0.00e+00,
975,4.80e-04,
976,8.00e-05,
977,4.00e-04,
978,0.00e+00,
979,4.80e-04,
980,4.00e-04,
981,8.00e-05,
982,4.00e-04,
983,8.00e-05,
984,4.00e-04,
985,0.00e+00,
986,4.80e-04,
987,8.00e-05,
988,0.00e+00,
989,5.60e-04,
990,4.00e-04,
991,0.00e+00,
992,4.00e-04,
993,0.00e+00,
994,0.00e+00,
995,4.80e-04,
996,0.00e+00,
997,4.00e-04,
998,0.00e+00,
999,4.80e-04,
1000,-8.00e-05,
1001,4.00e-04,
1002,4.00e-04,
1003,0.00e+00,
1004,4.80e-04,
1005,0.00e+00,
1006,4.00e-04,
1007,8.00e-05,
1008,4.00e-04,
1009,8.00e-05,
1010,8.00e-05,
1011,4.80e-04,
1012,4.00e-04,
1013,0.00e+00,
1014,4.00e-04,
1015,0.00e+00,
1016,3.20e-04,
1017,0.00e+00,
1018,8.00e-05,
1019,4.00e-04,
1020,4.80e-04,
1021,0.00e+00,
1022,4.80e-04,
1023,8.00e-05,
1024,4.00e-04,
1025,4.00e-05,
1026,0.00e+00,
1027,4.00e-04,
1028,4.00e-04,
1029,8.00e-05,
1030,8.00e-05,
1031,4.00e-04,
1032,4.00e-04,
1033,8.00e-05,
1034,4.80e-04,
1035,0.00e+00,
1036,4.00e-04,
1037,0.00e+00,
1038,0.00e+00,
1039,3.20e-04,
1040,3.20e-04,
1041,0.00e+00,
1042,4.00e-04,
1043,0.00e+00,
1044,4.00e-04,
1045,0.00e+00,
1046,4.00e-04,
1047,8.00e-05,
1048,4.00e-04,
1049,8.00e-05,
1050,0.00e+00,
1051,4.00e-04,
1052,4.00e-04,
1053,0.00e+00,
1054,0.00e+00,
1055,3.20e-04,
1056,4.80e-04,
1057,0.00e+00,
1058,0.00e+00,
1059,4.00e-04,
1060,4.00e-04,
1061,-8.00e-05,
1062,4.80e-04,
1063,0.00e+00,
1064,4.00e-04,
1065,0.00e+00,
1066,0.00e+00,
1067,4.00e-04,
1068,0.00e+00,
1069,4.00e-04,
1070,0.00e+00,
1071,4.00e-04,
1072,4.80e-04,
1073,0.00e+00,
1074,4.00e-04,
1075,0.00e+00,
1076,4.00e-04,
1077,-8.00e-05,
1078,8.00e-05,
1079,4.00e-04,
1080,4.80e-04,
1081,-8.00e-05,
1082,4.00e-04,
1083,0.00e+00,
1084,8.00e-05,
1085,4.80e-04,
1086,0.00e+00,
1087,4.80e-04,
1088,4.00e-04,
1089,8.00e-05,
1090,0.00e+00,
1091,4.00e-04,
1092,4.80e-04,
1093,-8.00e-05,
1094,4.80e-04,
1095,0.00e+00,
1096,4.00e-04,
1097,-1.60e-04,
1098,4.00e-04,
1099,0.00e+00,
1100,4.00e-04,
1101,0.00e+00,
1102,4.00e-04,
1103,0.00e+00,
1104,0.00e+00,
1105,4.00e-04,
1106,4.00e-04,
1107,8.00e-05,
1108,4.00e-04,
1109,0.00e+00,
1110,0.00e+00,
1111,4.00e-04,
1112,4.00e-04,
1113,8.00e-05,
1114,4.00e-04,
1115,0.00e+00,
1116,4.00e-04,
1117,8.00e-05,
1118,4.80e-04,
1119,0.00e+00,
1120,0.00e+00,
1121,4.00e-04,
1122,4.80e-04,
1123,0.00e+00,
1124,4.00e-04,
1125,0.00e+00,
1126,4.00e-04,
1127,8.00e-05,
1128,0.00e+00,
1129,4.00e-04,
1130,4.00e-04,
1131,8.00e-05,
1132,4.80e-04,
1133,0.00e+00,
1134,0.00e+00,
1135,4.00e-04,
1136,4.00e-04,
1137,0.00e+00,
1138,4.80e-04,
1139,0.00e+00,
1140,4.00e-04,
1141,8.00e-05,
1142,8.00e-05,
1143,4.00e-04,
1144,8.00e-05,
1145,4.00e-04,
1146,4.00e-04,
1147,-8.00e-05,
1148,4.00e-04,
1149,0.00e+00,
1150,8.00e-05,
1151,4.00e-04,
1152,3.20e-04,
1153,-8.00e-05,
1154,0.00e+00,
1155,4.00e-04,
1156,0.00e+00,
1157,4.00e-04,
1158,8.00e-05,
1159,4.80e-04,
1160,4.00e-04,
1161,0.00e+00,
1162,0.00e+00,
1163,4.00e-04,
1164,4.80e-04,
1165,0.00e+00,
1166,8.00e-05,
1167,4.00e-04,
1168,4.00e-04,
1169,0.00e+00,
1170,8.00e-05,
1171,4.80e-04,
1172,0.00e+00,
1173,4.80e-04,
1174,4.80e-04,
1175,-8.00e-05,
1176,4.00e-04,
1177,0.00e+00,
1178,8.00e-05,
1179,4.80e-04,
1180,4.00e-04,
1181,0.00e+00,
1182,4.80e-04,
1183,0.00e+00,
1184,4.00e-04,
1185,0.00e+00,
1186,4.00e-04,
1187,0.00e+00,
1188,-8.00e-05,
1189,4.80e-04,
1190,4.00e-04,
1191,0.00e+00,
1192,0.00e+00,
1193,4.00e-04,
1194,3.20e-04,
1195,0.00e+00,
1196,0.00e+00,
1197,4.00e-04,
1198,4.00e-04,
1199,-4.00e-05,
