fastdiffamp/data-noise-set/bal-9to919/NewFile8.csv

X,CH1,Start,Increment,
Sequence,Volt,-5.990000e+00,1.000000e-02
0,0.00e+00,
1,4.00e-04,
2,0.00e+00,
3,4.00e-04,
4,5.60e-04,
5,0.00e+00,
6,0.00e+00,
7,4.80e-04,
8,-8.00e-05,
9,4.00e-04,
10,4.00e-04,
11,0.00e+00,
12,-8.00e-05,
13,4.80e-04,
14,4.80e-04,
15,0.00e+00,
16,4.00e-04,
17,-8.00e-05,
18,4.00e-04,
19,0.00e+00,
20,0.00e+00,
21,4.80e-04,
22,8.00e-05,
23,4.80e-04,
24,4.00e-04,
25,0.00e+00,
26,4.00e-04,
27,0.00e+00,
28,0.00e+00,
29,4.00e-04,
30,4.00e-04,
31,0.00e+00,
32,0.00e+00,
33,4.40e-04,
34,4.80e-04,
35,-4.00e-05,
36,-1.60e-04,
37,4.80e-04,
38,4.80e-04,
39,-8.00e-05,
40,4.00e-04,
41,-8.00e-05,
42,4.00e-04,
43,0.00e+00,
44,0.00e+00,
45,3.20e-04,
46,4.00e-04,
47,-8.00e-05,
48,4.80e-04,
49,0.00e+00,
50,0.00e+00,
51,4.80e-04,
52,0.00e+00,
53,4.00e-04,
54,0.00e+00,
55,4.00e-04,
56,4.00e-04,
57,-8.00e-05,
58,4.00e-04,
59,0.00e+00,
60,-8.00e-05,
61,4.80e-04,
62,4.80e-04,
63,0.00e+00,
64,8.00e-05,
65,4.80e-04,
66,0.00e+00,
67,4.00e-04,
68,4.00e-04,
69,-8.00e-05,
70,0.00e+00,
71,4.00e-04,
72,8.00e-05,
73,4.00e-04,
74,5.60e-04,
75,0.00e+00,
76,4.00e-04,
77,-8.00e-05,
78,4.80e-04,
79,-8.00e-05,
80,8.00e-05,
81,4.00e-04,
82,4.00e-04,
83,0.00e+00,
84,5.60e-04,
85,0.00e+00,
86,0.00e+00,
87,4.00e-04,
88,4.00e-04,
89,0.00e+00,
90,0.00e+00,
91,4.80e-04,
92,4.00e-04,
93,-8.00e-05,
94,8.00e-05,
95,5.60e-04,
96,4.80e-04,
97,0.00e+00,
98,4.80e-04,
99,0.00e+00,
100,-8.00e-05,
101,4.00e-04,
102,0.00e+00,
103,4.00e-04,
104,-8.00e-05,
105,4.80e-04,
106,0.00e+00,
107,4.00e-04,
108,4.00e-04,
109,-8.00e-05,
110,0.00e+00,
111,4.80e-04,
112,5.60e-04,
113,0.00e+00,
114,4.00e-04,
115,-8.00e-05,
116,4.00e-04,
117,0.00e+00,
118,4.00e-04,
119,-8.00e-05,
120,4.00e-04,
121,0.00e+00,
122,0.00e+00,
123,4.00e-04,
124,4.80e-04,
125,0.00e+00,
126,4.80e-04,
127,0.00e+00,
128,4.80e-04,
129,0.00e+00,
130,0.00e+00,
131,4.00e-04,
132,4.00e-04,
133,0.00e+00,
134,0.00e+00,
135,4.80e-04,
136,4.00e-04,
137,0.00e+00,
138,4.00e-04,
139,0.00e+00,
140,4.00e-04,
141,-8.00e-05,
142,0.00e+00,
143,4.80e-04,
144,0.00e+00,
145,4.00e-04,
146,4.00e-04,
147,-8.00e-05,
148,-8.00e-05,
149,4.00e-04,
150,4.00e-04,
151,-1.60e-04,
152,4.80e-04,
153,0.00e+00,
154,0.00e+00,
155,4.80e-04,
156,4.00e-04,
157,0.00e+00,
158,4.00e-04,
159,0.00e+00,
160,4.00e-04,
161,-8.00e-05,
162,4.00e-04,
163,0.00e+00,
164,0.00e+00,
165,4.80e-04,
166,0.00e+00,
167,4.80e-04,
168,-1.60e-04,
169,4.80e-04,
170,3.20e-04,
171,-8.00e-05,
172,-8.00e-05,
173,4.00e-04,
174,4.00e-04,
175,-8.00e-05,
176,3.20e-04,
177,0.00e+00,
178,4.80e-04,
179,0.00e+00,
180,0.00e+00,
181,4.00e-04,
182,-8.00e-05,
183,4.00e-04,
184,4.00e-04,
185,0.00e+00,
186,-8.00e-05,
187,4.00e-04,
188,4.80e-04,
189,-1.60e-04,
190,4.80e-04,
191,-8.00e-05,
192,4.80e-04,
193,-8.00e-05,
194,-8.00e-05,
195,4.00e-04,
196,4.00e-04,
197,-8.00e-05,
198,0.00e+00,
199,4.00e-04,
200,-8.00e-05,
201,4.80e-04,
202,3.20e-04,
203,0.00e+00,
204,4.00e-04,
205,-8.00e-05,
206,4.80e-04,
207,-8.00e-05,
208,4.00e-04,
209,-8.00e-05,
210,-8.00e-05,
211,4.00e-04,
212,0.00e+00,
213,4.80e-04,
214,0.00e+00,
215,4.00e-04,
216,3.20e-04,
217,0.00e+00,
218,4.00e-04,
219,0.00e+00,
220,4.80e-04,
221,0.00e+00,
222,4.00e-04,
223,0.00e+00,
224,0.00e+00,
225,4.80e-04,
226,0.00e+00,
227,4.00e-04,
228,4.00e-04,
229,-8.00e-05,
230,4.80e-04,
231,-8.00e-05,
232,8.00e-05,
233,4.80e-04,
234,3.20e-04,
235,0.00e+00,
236,0.00e+00,
237,4.00e-04,
238,0.00e+00,
239,4.80e-04,
240,5.60e-04,
241,-8.00e-05,
242,-8.00e-05,
243,4.80e-04,
244,4.80e-04,
245,-4.00e-05,
246,4.80e-04,
247,0.00e+00,
248,4.80e-04,
249,-8.00e-05,
250,4.80e-04,
251,0.00e+00,
252,-8.00e-05,
253,4.00e-04,
254,0.00e+00,
255,4.00e-04,
256,4.00e-04,
257,0.00e+00,
258,4.00e-04,
259,-8.00e-05,
260,4.80e-04,
261,-8.00e-05,
262,-8.00e-05,
263,4.80e-04,
264,4.80e-04,
265,0.00e+00,
266,0.00e+00,
267,4.00e-04,
268,0.00e+00,
269,4.00e-04,
270,-8.00e-05,
271,3.20e-04,
272,-8.00e-05,
273,4.00e-04,
274,3.20e-04,
275,0.00e+00,
276,-8.00e-05,
277,4.00e-04,
278,4.00e-04,
279,-8.00e-05,
280,4.00e-04,
281,-8.00e-05,
282,0.00e+00,
283,4.00e-04,
284,4.00e-04,
285,-8.00e-05,
286,8.00e-05,
287,4.80e-04,
288,5.60e-04,
289,0.00e+00,
290,0.00e+00,
291,4.80e-04,
292,4.00e-04,
293,0.00e+00,
294,0.00e+00,
295,4.00e-04,
296,4.00e-04,
297,0.00e+00,
298,3.20e-04,
299,-8.00e-05,
300,4.00e-04,
301,0.00e+00,
302,-8.00e-05,
303,4.80e-04,
304,-8.00e-05,
305,4.00e-04,
306,4.00e-04,
307,-1.60e-04,
308,4.00e-04,
309,0.00e+00,
310,4.00e-04,
311,0.00e+00,
312,0.00e+00,
313,4.00e-04,
314,0.00e+00,
315,4.80e-04,
316,4.00e-04,
317,0.00e+00,
318,4.00e-04,
319,0.00e+00,
320,-8.00e-05,
321,4.80e-04,
322,0.00e+00,
323,4.00e-04,
324,4.00e-04,
325,-8.00e-05,
326,4.00e-04,
327,0.00e+00,
328,4.80e-04,
329,-8.00e-05,
330,4.00e-04,
331,-8.00e-05,
332,4.00e-04,
333,-8.00e-05,
334,4.80e-04,
335,-1.60e-04,
336,-8.00e-05,
337,4.00e-04,
338,0.00e+00,
339,4.80e-04,
340,4.00e-04,
341,0.00e+00,
342,4.00e-04,
343,0.00e+00,
344,0.00e+00,
345,4.80e-04,
346,4.80e-04,
347,0.00e+00,
348,-8.00e-05,
349,4.80e-04,
350,4.80e-04,
351,0.00e+00,
352,4.00e-04,
353,0.00e+00,
354,4.00e-04,
355,-8.00e-05,
356,4.00e-04,
357,-8.00e-05,
358,4.80e-04,
359,0.00e+00,
360,0.00e+00,
361,4.00e-04,
362,0.00e+00,
363,4.80e-04,
364,0.00e+00,
365,4.80e-04,
366,-8.00e-05,
367,4.80e-04,
368,-8.00e-05,
369,4.80e-04,
370,5.60e-04,
371,-8.00e-05,
372,-8.00e-05,
373,4.00e-04,
374,4.00e-04,
375,-8.00e-05,
376,0.00e+00,
377,4.80e-04,
378,4.00e-04,
379,-8.00e-05,
380,-8.00e-05,
381,4.00e-04,
382,0.00e+00,
383,4.00e-04,
384,4.00e-04,
385,0.00e+00,
386,0.00e+00,
387,4.80e-04,
388,4.80e-04,
389,0.00e+00,
390,0.00e+00,
391,4.00e-04,
392,0.00e+00,
393,4.00e-04,
394,4.00e-04,
395,0.00e+00,
396,4.00e-04,
397,0.00e+00,
398,5.60e-04,
399,-8.00e-05,
400,4.00e-04,
401,0.00e+00,
402,4.80e-04,
403,-8.00e-05,
404,4.00e-04,
405,0.00e+00,
406,4.00e-04,
407,0.00e+00,
408,4.80e-04,
409,0.00e+00,
410,0.00e+00,
411,4.80e-04,
412,8.00e-05,
413,4.80e-04,
414,-8.00e-05,
415,4.00e-04,
416,0.00e+00,
417,4.80e-04,
418,0.00e+00,
419,4.80e-04,
420,0.00e+00,
421,4.80e-04,
422,5.60e-04,
423,-8.00e-05,
424,8.00e-05,
425,5.60e-04,
426,0.00e+00,
427,4.80e-04,
428,4.80e-04,
429,0.00e+00,
430,4.00e-04,
431,0.00e+00,
432,0.00e+00,
433,4.80e-04,
434,5.60e-04,
435,0.00e+00,
436,-8.00e-05,
437,4.00e-04,
438,0.00e+00,
439,4.00e-04,
440,0.00e+00,
441,4.00e-04,
442,4.00e-04,
443,0.00e+00,
444,0.00e+00,
445,4.00e-04,
446,4.00e-04,
447,0.00e+00,
448,4.00e-04,
449,0.00e+00,
450,0.00e+00,
451,4.00e-04,
452,4.00e-04,
453,0.00e+00,
454,4.00e-04,
455,0.00e+00,
456,4.00e-04,
457,0.00e+00,
458,0.00e+00,
459,4.00e-04,
460,4.00e-04,
461,0.00e+00,
462,4.80e-04,
463,0.00e+00,
464,-8.00e-05,
465,4.80e-04,
466,4.00e-04,
467,-8.00e-05,
468,4.00e-04,
469,0.00e+00,
470,0.00e+00,
471,4.80e-04,
472,4.00e-04,
473,0.00e+00,
474,4.00e-04,
475,-8.00e-05,
476,4.00e-04,
477,0.00e+00,
478,4.00e-04,
479,0.00e+00,
480,-8.00e-05,
481,4.80e-04,
482,3.20e-04,
483,-8.00e-05,
484,0.00e+00,
485,4.00e-04,
486,0.00e+00,
487,4.00e-04,
488,4.80e-04,
489,0.00e+00,
490,0.00e+00,
491,5.60e-04,
492,4.80e-04,
493,0.00e+00,
494,0.00e+00,
495,5.60e-04,
496,-8.00e-05,
497,4.00e-04,
498,4.00e-04,
499,0.00e+00,
500,4.00e-04,
501,-8.00e-05,
502,-8.00e-05,
503,4.80e-04,
504,0.00e+00,
505,4.00e-04,
506,0.00e+00,
507,4.00e-04,
508,4.00e-04,
509,0.00e+00,
510,4.00e-04,
511,0.00e+00,
512,0.00e+00,
513,4.80e-04,
514,-8.00e-05,
515,4.00e-04,
516,0.00e+00,
517,4.00e-04,
518,4.00e-04,
519,0.00e+00,
520,4.00e-04,
521,0.00e+00,
522,4.80e-04,
523,-8.00e-05,
524,4.00e-04,
525,0.00e+00,
526,-8.00e-05,
527,4.00e-04,
528,0.00e+00,
529,4.00e-04,
530,0.00e+00,
531,4.80e-04,
532,4.80e-04,
533,0.00e+00,
534,0.00e+00,
535,4.80e-04,
536,0.00e+00,
537,5.60e-04,
538,-8.00e-05,
539,4.00e-04,
540,4.00e-04,
541,-8.00e-05,
542,4.00e-04,
543,-8.00e-05,
544,0.00e+00,
545,4.80e-04,
546,0.00e+00,
547,4.80e-04,
548,-8.00e-05,
549,4.80e-04,
550,0.00e+00,
551,4.00e-04,
552,4.00e-04,
553,0.00e+00,
554,0.00e+00,
555,4.00e-04,
556,4.00e-04,
557,-1.60e-04,
558,0.00e+00,
559,4.00e-04,
560,0.00e+00,
561,4.80e-04,
562,4.00e-04,
563,-4.00e-05,
564,-8.00e-05,
565,4.80e-04,
566,0.00e+00,
567,4.80e-04,
568,-8.00e-05,
569,4.80e-04,
570,-8.00e-05,
571,4.00e-04,
572,4.00e-04,
573,-8.00e-05,
574,0.00e+00,
575,4.80e-04,
576,-1.60e-04,
577,4.00e-04,
578,4.00e-04,
579,0.00e+00,
580,4.00e-04,
581,-8.00e-05,
582,-8.00e-05,
583,4.80e-04,
584,-8.00e-05,
585,4.00e-04,
586,0.00e+00,
587,4.80e-04,
588,4.80e-04,
589,0.00e+00,
590,5.60e-04,
591,8.00e-05,
592,4.80e-04,
593,0.00e+00,
594,0.00e+00,
595,4.00e-04,
596,4.00e-04,
597,0.00e+00,
598,-8.00e-05,
599,4.80e-04,
600,0.00e+00,
601,4.80e-04,
602,4.00e-04,
603,0.00e+00,
604,-8.00e-05,
605,4.00e-04,
606,4.80e-04,
607,-8.00e-05,
608,4.80e-04,
609,0.00e+00,
610,4.00e-04,
611,-8.00e-05,
612,4.80e-04,
613,-8.00e-05,
614,0.00e+00,
615,4.80e-04,
616,4.00e-04,
617,-8.00e-05,
618,4.00e-04,
619,0.00e+00,
620,0.00e+00,
621,4.80e-04,
622,4.00e-04,
623,0.00e+00,
624,0.00e+00,
625,4.80e-04,
626,4.00e-04,
627,-8.00e-05,
628,4.80e-04,
629,-8.00e-05,
630,4.00e-04,
631,-8.00e-05,
632,0.00e+00,
633,4.00e-04,
634,-8.00e-05,
635,5.20e-04,
636,4.00e-04,
637,-8.00e-05,
638,5.60e-04,
639,-1.60e-04,
640,4.80e-04,
641,0.00e+00,
642,0.00e+00,
643,4.80e-04,
644,0.00e+00,
645,4.00e-04,
646,0.00e+00,
647,4.80e-04,
648,4.80e-04,
649,-8.00e-05,
650,-8.00e-05,
651,4.00e-04,
652,-8.00e-05,
653,4.80e-04,
654,0.00e+00,
655,5.60e-04,
656,4.00e-04,
657,0.00e+00,
658,0.00e+00,
659,4.80e-04,
660,-8.00e-05,
661,4.80e-04,
662,-1.60e-04,
663,4.00e-04,
664,0.00e+00,
665,4.00e-04,
666,-8.00e-05,
667,4.80e-04,
668,4.00e-04,
669,0.00e+00,
670,4.80e-04,
671,0.00e+00,
672,4.80e-04,
673,0.00e+00,
674,0.00e+00,
675,4.80e-04,
676,-8.00e-05,
677,4.80e-04,
678,-1.60e-04,
679,4.80e-04,
680,-8.00e-05,
681,4.80e-04,
682,4.80e-04,
683,-8.00e-05,
684,4.80e-04,
685,0.00e+00,
686,4.00e-04,
687,-8.00e-05,
688,0.00e+00,
689,4.80e-04,
690,-8.00e-05,
691,4.00e-04,
692,0.00e+00,
693,4.00e-04,
694,4.80e-04,
695,-8.00e-05,
696,-8.00e-05,
697,4.00e-04,
698,-8.00e-05,
699,4.00e-04,
700,-8.00e-05,
701,4.00e-04,
702,-8.00e-05,
703,4.00e-04,
704,0.00e+00,
705,3.20e-04,
706,4.00e-04,
707,0.00e+00,
708,4.00e-04,
709,-8.00e-05,
710,4.00e-04,
711,-8.00e-05,
712,0.00e+00,
713,5.60e-04,
714,0.00e+00,
715,4.80e-04,
716,-8.00e-05,
717,4.80e-04,
718,4.80e-04,
719,-8.00e-05,
720,4.80e-04,
721,-1.60e-04,
722,4.80e-04,
723,-8.00e-05,
724,0.00e+00,
725,4.00e-04,
726,0.00e+00,
727,4.80e-04,
728,0.00e+00,
729,4.80e-04,
730,3.20e-04,
731,-8.00e-05,
732,-1.60e-04,
733,4.00e-04,
734,4.80e-04,
735,0.00e+00,
736,0.00e+00,
737,4.80e-04,
738,-8.00e-05,
739,4.00e-04,
740,4.00e-04,
741,-8.00e-05,
742,-8.00e-05,
743,4.80e-04,
744,0.00e+00,
745,4.00e-04,
746,0.00e+00,
747,4.80e-04,
748,-8.00e-05,
749,4.80e-04,
750,0.00e+00,
751,4.80e-04,
752,4.80e-04,
753,-8.00e-05,
754,0.00e+00,
755,4.80e-04,
756,4.00e-04,
757,0.00e+00,
758,4.00e-04,
759,-8.00e-05,
760,-8.00e-05,
761,4.80e-04,
762,0.00e+00,
763,4.00e-04,
764,4.80e-04,
765,-8.00e-05,
766,0.00e+00,
767,4.80e-04,
768,4.80e-04,
769,-8.00e-05,
770,-8.00e-05,
771,5.60e-04,
772,3.20e-04,
773,-8.00e-05,
774,-8.00e-05,
775,4.80e-04,
776,4.00e-04,
777,-8.00e-05,
778,-1.60e-04,
779,4.00e-04,
780,4.00e-04,
781,-8.00e-05,
782,-8.00e-05,
783,4.00e-04,
784,-8.00e-05,
785,4.80e-04,
786,8.00e-05,
787,4.80e-04,
788,4.80e-04,
789,0.00e+00,
790,8.00e-05,
791,5.60e-04,
792,0.00e+00,
793,4.80e-04,
794,4.00e-04,
795,-8.00e-05,
796,0.00e+00,
797,4.80e-04,
798,0.00e+00,
799,4.80e-04,
800,-8.00e-05,
801,4.00e-04,
802,4.80e-04,
803,8.00e-05,
804,4.80e-04,
805,0.00e+00,
806,-8.00e-05,
807,4.80e-04,
808,-8.00e-05,
809,4.00e-04,
810,4.00e-04,
811,-8.00e-05,
812,0.00e+00,
813,4.00e-04,
814,-8.00e-05,
815,4.00e-04,
816,4.00e-04,
817,0.00e+00,
818,4.00e-04,
819,-8.00e-05,
820,0.00e+00,
821,4.80e-04,
822,0.00e+00,
823,4.80e-04,
824,4.80e-04,
825,0.00e+00,
826,4.00e-04,
827,0.00e+00,
828,0.00e+00,
829,4.80e-04,
830,4.00e-04,
831,0.00e+00,
832,0.00e+00,
833,4.80e-04,
834,4.80e-04,
835,0.00e+00,
836,4.80e-04,
837,-8.00e-05,
838,0.00e+00,
839,3.20e-04,
840,-1.60e-04,
841,4.80e-04,
842,5.60e-04,
843,8.00e-05,
844,4.80e-04,
845,8.00e-05,
846,0.00e+00,
847,4.80e-04,
848,-8.00e-05,
849,4.40e-04,
850,3.20e-04,
851,-8.00e-05,
852,4.40e-04,
853,-8.00e-05,
854,0.00e+00,
855,4.80e-04,
856,4.80e-04,
857,-1.60e-04,
858,0.00e+00,
859,4.00e-04,
860,-8.00e-05,
861,3.20e-04,
862,0.00e+00,
863,4.00e-04,
864,4.00e-04,
865,-8.00e-05,
866,4.80e-04,
867,0.00e+00,
868,0.00e+00,
869,4.80e-04,
870,4.00e-04,
871,-8.00e-05,
872,4.80e-04,
873,0.00e+00,
874,-8.00e-05,
875,4.00e-04,
876,0.00e+00,
877,4.00e-04,
878,-8.00e-05,
879,4.80e-04,
880,4.80e-04,
881,-8.00e-05,
882,0.00e+00,
883,4.80e-04,
884,4.80e-04,
885,0.00e+00,
886,-8.00e-05,
887,4.80e-04,
888,5.60e-04,
889,-8.00e-05,
890,-8.00e-05,
891,4.00e-04,
892,5.60e-04,
893,-8.00e-05,
894,-8.00e-05,
895,4.00e-04,
896,4.00e-04,
897,-8.00e-05,
898,-8.00e-05,
899,5.60e-04,
900,4.00e-04,
901,-8.00e-05,
902,4.80e-04,
903,0.00e+00,
904,-8.00e-05,
905,4.80e-04,
906,-8.00e-05,
907,4.80e-04,
908,-8.00e-05,
909,4.80e-04,
910,4.80e-04,
911,-8.00e-05,
912,-8.00e-05,
913,4.00e-04,
914,-8.00e-05,
915,4.00e-04,
916,0.00e+00,
917,4.80e-04,
918,4.00e-04,
919,-1.60e-04,
920,0.00e+00,
921,5.60e-04,
922,0.00e+00,
923,4.80e-04,
924,4.00e-04,
925,-8.00e-05,
926,4.00e-04,
927,0.00e+00,
928,5.60e-04,
929,0.00e+00,
930,-4.00e-05,
931,4.80e-04,
932,4.00e-04,
933,-8.00e-05,
934,0.00e+00,
935,4.80e-04,
936,4.00e-04,
937,-8.00e-05,
938,4.80e-04,
939,-8.00e-05,
940,-8.00e-05,
941,4.00e-04,
942,-8.00e-05,
943,4.00e-04,
944,4.80e-04,
945,-8.00e-05,
946,4.80e-04,
947,-8.00e-05,
948,-8.00e-05,
949,4.80e-04,
950,6.40e-04,
951,0.00e+00,
952,0.00e+00,
953,4.80e-04,
954,4.80e-04,
955,-8.00e-05,
956,4.80e-04,
957,0.00e+00,
958,-8.00e-05,
959,4.80e-04,
960,4.80e-04,
961,0.00e+00,
962,4.00e-04,
963,-8.00e-05,
964,4.00e-04,
965,0.00e+00,
966,-8.00e-05,
967,4.80e-04,
968,4.80e-04,
969,-8.00e-05,
970,4.80e-04,
971,-8.00e-05,
972,0.00e+00,
973,4.00e-04,
974,4.80e-04,
975,0.00e+00,
976,-8.00e-05,
977,4.80e-04,
978,4.80e-04,
979,0.00e+00,
980,-8.00e-05,
981,4.80e-04,
982,0.00e+00,
983,4.00e-04,
984,0.00e+00,
985,4.80e-04,
986,4.80e-04,
987,-1.60e-04,
988,4.80e-04,
989,0.00e+00,
990,0.00e+00,
991,4.00e-04,
992,0.00e+00,
993,4.80e-04,
994,5.60e-04,
995,-8.00e-05,
996,4.00e-04,
997,0.00e+00,
998,-8.00e-05,
999,4.80e-04,
1000,4.80e-04,
1001,0.00e+00,
1002,8.00e-05,
1003,4.80e-04,
1004,0.00e+00,
1005,5.60e-04,
1006,0.00e+00,
1007,4.00e-04,
1008,4.80e-04,
1009,-8.00e-05,
1010,0.00e+00,
1011,4.80e-04,
1012,8.00e-05,
1013,4.80e-04,
1014,4.00e-04,
1015,0.00e+00,
1016,8.00e-05,
1017,4.80e-04,
1018,0.00e+00,
1019,4.00e-04,
1020,4.00e-04,
1021,-8.00e-05,
1022,8.00e-05,
1023,4.80e-04,
1024,4.80e-04,
1025,0.00e+00,
1026,-8.00e-05,
1027,4.80e-04,
1028,8.00e-05,
1029,4.80e-04,
1030,8.00e-05,
1031,4.80e-04,
1032,4.80e-04,
1033,-8.00e-05,
1034,0.00e+00,
1035,4.00e-04,
1036,0.00e+00,
1037,5.60e-04,
1038,-8.00e-05,
1039,4.00e-04,
1040,-8.00e-05,
1041,4.00e-04,
1042,0.00e+00,
1043,4.80e-04,
1044,4.00e-04,
1045,0.00e+00,
1046,4.80e-04,
1047,0.00e+00,
1048,4.80e-04,
1049,8.00e-05,
1050,-8.00e-05,
1051,4.80e-04,
1052,0.00e+00,
1053,4.00e-04,
1054,0.00e+00,
1055,4.80e-04,
1056,0.00e+00,
1057,4.80e-04,
1058,0.00e+00,
1059,4.80e-04,
1060,4.00e-04,
1061,0.00e+00,
1062,0.00e+00,
1063,4.00e-04,
1064,8.00e-05,
1065,4.80e-04,
1066,4.00e-04,
1067,8.00e-05,
1068,0.00e+00,
1069,4.80e-04,
1070,4.80e-04,
1071,0.00e+00,
1072,0.00e+00,
1073,4.00e-04,
1074,0.00e+00,
1075,4.00e-04,
1076,4.80e-04,
1077,0.00e+00,
1078,0.00e+00,
1079,4.80e-04,
1080,8.00e-05,
1081,4.80e-04,
1082,0.00e+00,
1083,4.80e-04,
1084,4.80e-04,
1085,-4.00e-05,
1086,-4.00e-05,
1087,4.00e-04,
1088,8.00e-05,
1089,5.60e-04,
1090,0.00e+00,
1091,4.80e-04,
1092,0.00e+00,
1093,5.60e-04,
1094,4.80e-04,
1095,0.00e+00,
1096,0.00e+00,
1097,5.60e-04,
1098,4.80e-04,
1099,0.00e+00,
1100,4.80e-04,
1101,-8.00e-05,
1102,-8.00e-05,
1103,4.00e-04,
1104,4.80e-04,
1105,-8.00e-05,
1106,0.00e+00,
1107,4.80e-04,
1108,8.00e-05,
1109,4.80e-04,
1110,0.00e+00,
1111,5.60e-04,
1112,0.00e+00,
1113,4.80e-04,
1114,-8.00e-05,
1115,4.80e-04,
1116,4.00e-04,
1117,0.00e+00,
1118,5.60e-04,
1119,0.00e+00,
1120,0.00e+00,
1121,4.80e-04,
1122,0.00e+00,
1123,4.80e-04,
1124,-8.00e-05,
1125,4.00e-04,
1126,4.00e-04,
1127,-8.00e-05,
1128,4.80e-04,
1129,0.00e+00,
1130,0.00e+00,
1131,4.80e-04,
1132,4.00e-04,
1133,-8.00e-05,
1134,0.00e+00,
1135,4.00e-04,
1136,4.80e-04,
1137,0.00e+00,
1138,4.80e-04,
1139,0.00e+00,
1140,4.00e-04,
1141,0.00e+00,
1142,4.00e-04,
1143,-8.00e-05,
1144,0.00e+00,
1145,5.60e-04,
1146,0.00e+00,
1147,4.00e-04,
1148,-8.00e-05,
1149,4.00e-04,
1150,4.80e-04,
1151,0.00e+00,
1152,0.00e+00,
1153,5.60e-04,
1154,4.80e-04,
1155,-8.00e-05,
1156,-8.00e-05,
1157,4.80e-04,
1158,-8.00e-05,
1159,4.80e-04,
1160,-8.00e-05,
1161,4.80e-04,
1162,0.00e+00,
1163,4.00e-04,
1164,0.00e+00,
1165,5.60e-04,
1166,0.00e+00,
1167,5.60e-04,
1168,0.00e+00,
1169,4.80e-04,
1170,4.80e-04,
1171,-8.00e-05,
1172,0.00e+00,
1173,4.80e-04,
1174,0.00e+00,
1175,4.80e-04,
1176,0.00e+00,
1177,4.80e-04,
1178,0.00e+00,
1179,4.80e-04,
1180,4.80e-04,
1181,0.00e+00,
1182,4.00e-04,
1183,0.00e+00,
1184,-8.00e-05,
1185,4.80e-04,
1186,4.80e-04,
1187,0.00e+00,
1188,-8.00e-05,
1189,4.80e-04,
1190,-8.00e-05,
1191,4.00e-04,
1192,-8.00e-05,
1193,4.80e-04,
1194,4.00e-04,
1195,0.00e+00,
1196,-8.00e-05,
1197,5.60e-04,
1198,5.60e-04,
1199,-8.00e-05,
