fastdiffamp/data-noise-set/unb-left-demod-comp/NewFile17.csv

X,CH1,Start,Increment,
Sequence,Volt,-5.490000e+00,1.000000e-02
0,3.20e-04,
1,-1.20e-04,
2,4.00e-05,
3,2.80e-04,
4,-4.00e-05,
5,2.80e-04,
6,2.80e-04,
7,-1.20e-04,
8,2.40e-04,
9,-4.00e-05,
10,-4.00e-05,
11,2.80e-04,
12,4.00e-05,
13,3.60e-04,
14,3.60e-04,
15,-4.00e-05,
16,4.00e-05,
17,4.40e-04,
18,3.60e-04,
19,-4.00e-05,
20,2.80e-04,
21,-1.20e-04,
22,-1.20e-04,
23,2.80e-04,
24,-4.00e-05,
25,2.40e-04,
26,-4.00e-05,
27,2.80e-04,
28,-4.00e-05,
29,2.80e-04,
30,4.00e-05,
31,2.80e-04,
32,-4.00e-05,
33,2.80e-04,
34,4.00e-05,
35,3.60e-04,
36,-4.00e-05,
37,3.60e-04,
38,-1.20e-04,
39,2.80e-04,
40,4.00e-05,
41,3.60e-04,
42,4.00e-05,
43,2.80e-04,
44,3.60e-04,
45,-4.00e-05,
46,3.60e-04,
47,-1.20e-04,
48,-4.00e-05,
49,2.80e-04,
50,4.00e-05,
51,2.80e-04,
52,-4.00e-05,
53,2.80e-04,
54,4.00e-05,
55,3.60e-04,
56,-4.00e-05,
57,3.60e-04,
58,2.80e-04,
59,-4.00e-05,
60,-4.00e-05,
61,3.60e-04,
62,3.60e-04,
63,4.00e-05,
64,4.00e-05,
65,3.60e-04,
66,2.80e-04,
67,-4.00e-05,
68,-1.20e-04,
69,3.60e-04,
70,-4.00e-05,
71,3.60e-04,
72,2.80e-04,
73,-4.00e-05,
74,-1.20e-04,
75,2.80e-04,
76,3.20e-04,
77,-4.00e-05,
78,3.60e-04,
79,-4.00e-05,
80,4.00e-05,
81,3.60e-04,
82,2.80e-04,
83,-4.00e-05,
84,-1.20e-04,
85,2.80e-04,
86,-1.20e-04,
87,2.80e-04,
88,-4.00e-05,
89,3.60e-04,
90,2.80e-04,
91,-1.20e-04,
92,-1.20e-04,
93,2.80e-04,
94,2.80e-04,
95,-1.20e-04,
96,-1.20e-04,
97,2.80e-04,
98,4.00e-05,
99,2.80e-04,
100,2.00e-04,
101,-1.20e-04,
102,2.00e-04,
103,-1.20e-04,
104,4.00e-05,
105,3.60e-04,
106,2.80e-04,
107,-4.00e-05,
108,2.80e-04,
109,-1.20e-04,
110,-1.20e-04,
111,3.60e-04,
112,2.80e-04,
113,-4.00e-05,
114,2.40e-04,
115,-4.00e-05,
116,-4.00e-05,
117,2.80e-04,
118,-4.00e-05,
119,2.40e-04,
120,-4.00e-05,
121,2.40e-04,
122,2.80e-04,
123,4.00e-05,
124,-4.00e-05,
125,2.80e-04,
126,-4.00e-05,
127,3.60e-04,
128,-4.00e-05,
129,2.80e-04,
130,2.80e-04,
131,-4.00e-05,
132,2.40e-04,
133,-4.00e-05,
134,-1.20e-04,
135,2.80e-04,
136,-4.00e-05,
137,2.80e-04,
138,2.40e-04,
139,-4.00e-05,
140,-2.00e-04,
141,2.80e-04,
142,-4.00e-05,
143,2.80e-04,
144,-1.20e-04,
145,2.40e-04,
146,-1.20e-04,
147,2.80e-04,
148,2.80e-04,
149,-4.00e-05,
150,2.80e-04,
151,-4.00e-05,
152,2.00e-04,
153,-4.00e-05,
154,-1.20e-04,
155,2.80e-04,
156,2.80e-04,
157,-1.20e-04,
158,-1.20e-04,
159,2.80e-04,
160,4.00e-05,
161,3.60e-04,
162,2.80e-04,
163,-4.00e-05,
164,-4.00e-05,
165,2.80e-04,
166,2.40e-04,
167,-4.00e-05,
168,-1.20e-04,
169,3.60e-04,
170,2.80e-04,
171,-4.00e-05,
172,2.80e-04,
173,-4.00e-05,
174,4.00e-05,
175,3.60e-04,
176,-4.00e-05,
177,2.00e-04,
178,2.00e-04,
179,-4.00e-05,
180,-1.20e-04,
181,2.80e-04,
182,2.00e-04,
183,-1.20e-04,
184,-4.00e-05,
185,2.80e-04,
186,2.80e-04,
187,4.00e-05,
188,-4.00e-05,
189,2.80e-04,
190,2.80e-04,
191,-1.20e-04,
192,-4.00e-05,
193,2.80e-04,
194,-1.20e-04,
195,2.80e-04,
196,3.60e-04,
197,-4.00e-05,
198,-4.00e-05,
199,3.60e-04,
200,-1.20e-04,
201,2.80e-04,
202,-4.00e-05,
203,3.60e-04,
204,-4.00e-05,
205,2.80e-04,
206,2.80e-04,
207,-4.00e-05,
208,2.80e-04,
209,-8.00e-05,
210,-1.20e-04,
211,2.80e-04,
212,-4.00e-05,
213,2.80e-04,
214,-4.00e-05,
215,2.80e-04,
216,2.80e-04,
217,-4.00e-05,
218,-4.00e-05,
219,2.80e-04,
220,-1.20e-04,
221,2.40e-04,
222,-4.00e-05,
223,2.80e-04,
224,-4.00e-05,
225,2.00e-04,
226,-4.00e-05,
227,2.80e-04,
228,-4.00e-05,
229,3.60e-04,
230,3.20e-04,
231,-4.00e-05,
232,2.80e-04,
233,-4.00e-05,
234,-4.00e-05,
235,3.60e-04,
236,-4.00e-05,
237,2.40e-04,
238,2.80e-04,
239,-4.00e-05,
240,4.00e-05,
241,3.60e-04,
242,4.00e-05,
243,3.60e-04,
244,-4.00e-05,
245,3.60e-04,
246,2.80e-04,
247,-1.20e-04,
248,2.80e-04,
249,-1.20e-04,
250,2.80e-04,
251,4.00e-05,
252,2.80e-04,
253,4.00e-05,
254,3.60e-04,
255,4.00e-05,
256,-4.00e-05,
257,2.80e-04,
258,-4.00e-05,
259,2.80e-04,
260,2.80e-04,
261,-4.00e-05,
262,3.60e-04,
263,-4.00e-05,
264,2.00e-04,
265,-4.00e-05,
266,3.60e-04,
267,4.00e-05,
268,-4.00e-05,
269,2.80e-04,
270,2.00e-04,
271,-4.00e-05,
272,2.80e-04,
273,-4.00e-05,
274,2.80e-04,
275,-4.00e-05,
276,-4.00e-05,
277,2.80e-04,
278,2.80e-04,
279,4.00e-05,
280,-4.00e-05,
281,2.80e-04,
282,3.60e-04,
283,-1.20e-04,
284,-1.20e-04,
285,3.60e-04,
286,2.80e-04,
287,-4.00e-05,
288,2.80e-04,
289,-4.00e-05,
290,-4.00e-05,
291,2.80e-04,
292,-1.20e-04,
293,3.60e-04,
294,-4.00e-05,
295,2.80e-04,
296,-4.00e-05,
297,2.80e-04,
298,-4.00e-05,
299,2.80e-04,
300,-4.00e-05,
301,2.40e-04,
302,-4.00e-05,
303,3.60e-04,
304,-4.00e-05,
305,3.60e-04,
306,2.80e-04,
307,-4.00e-05,
308,2.80e-04,
309,-4.00e-05,
310,-4.00e-05,
311,2.80e-04,
312,4.00e-05,
313,3.60e-04,
314,-4.00e-05,
315,2.80e-04,
316,-1.20e-04,
317,3.60e-04,
318,2.80e-04,
319,-4.00e-05,
320,2.80e-04,
321,-4.00e-05,
322,2.80e-04,
323,4.00e-05,
324,2.80e-04,
325,-4.00e-05,
326,-4.00e-05,
327,2.80e-04,
328,2.80e-04,
329,-4.00e-05,
330,-4.00e-05,
331,3.60e-04,
332,-4.00e-05,
333,2.00e-04,
334,2.80e-04,
335,-4.00e-05,
336,-4.00e-05,
337,2.80e-04,
338,2.00e-04,
339,-4.00e-05,
340,4.00e-05,
341,3.60e-04,
342,2.80e-04,
343,4.00e-05,
344,-4.00e-05,
345,2.80e-04,
346,2.80e-04,
347,-1.20e-04,
348,-4.00e-05,
349,2.80e-04,
350,-1.20e-04,
351,3.60e-04,
352,2.80e-04,
353,-4.00e-05,
354,2.00e-04,
355,-1.20e-04,
356,-4.00e-05,
357,2.80e-04,
358,-4.00e-05,
359,2.40e-04,
360,-4.00e-05,
361,2.80e-04,
362,-4.00e-05,
363,4.40e-04,
364,2.80e-04,
365,-4.00e-05,
366,2.80e-04,
367,-4.00e-05,
368,-4.00e-05,
369,2.80e-04,
370,-4.00e-05,
371,2.80e-04,
372,2.80e-04,
373,-1.20e-04,
374,2.80e-04,
375,-4.00e-05,
376,3.60e-04,
377,-4.00e-05,
378,3.60e-04,
379,-4.00e-05,
380,2.80e-04,
381,4.00e-05,
382,2.80e-04,
383,-4.00e-05,
384,-1.20e-04,
385,3.60e-04,
386,2.80e-04,
387,-1.20e-04,
388,-1.20e-04,
389,2.00e-04,
390,2.00e-04,
391,-1.20e-04,
392,2.80e-04,
393,-1.20e-04,
394,2.80e-04,
395,-4.00e-05,
396,-4.00e-05,
397,2.80e-04,
398,-1.20e-04,
399,2.40e-04,
400,4.00e-05,
401,2.80e-04,
402,-4.00e-05,
403,3.60e-04,
404,4.00e-05,
405,3.60e-04,
406,2.80e-04,
407,-4.00e-05,
408,-4.00e-05,
409,2.80e-04,
410,-4.00e-05,
411,2.80e-04,
412,2.80e-04,
413,4.00e-05,
414,-4.00e-05,
415,2.80e-04,
416,4.00e-05,
417,3.60e-04,
418,-4.00e-05,
419,2.80e-04,
420,2.00e-04,
421,-4.00e-05,
422,-1.20e-04,
423,2.40e-04,
424,-4.00e-05,
425,2.80e-04,
426,-4.00e-05,
427,3.60e-04,
428,-4.00e-05,
429,3.60e-04,
430,-4.00e-05,
431,2.80e-04,
432,-1.20e-04,
433,2.80e-04,
434,-1.20e-04,
435,2.00e-04,
436,2.00e-04,
437,-1.20e-04,
438,2.80e-04,
439,-4.00e-05,
440,-4.00e-05,
441,2.80e-04,
442,4.00e-05,
443,2.80e-04,
444,-4.00e-05,
445,2.80e-04,
446,4.00e-05,
447,2.80e-04,
448,2.80e-04,
449,-4.00e-05,
450,3.20e-04,
451,-1.20e-04,
452,-4.00e-05,
453,2.80e-04,
454,-4.00e-05,
455,2.80e-04,
456,2.80e-04,
457,-4.00e-05,
458,2.80e-04,
459,-4.00e-05,
460,-1.20e-04,
461,2.80e-04,
462,4.00e-05,
463,3.60e-04,
464,2.80e-04,
465,-4.00e-05,
466,-1.20e-04,
467,2.80e-04,
468,2.80e-04,
469,-4.00e-05,
470,2.80e-04,
471,-1.20e-04,
472,2.80e-04,
473,-4.00e-05,
474,-1.20e-04,
475,2.80e-04,
476,-4.00e-05,
477,2.40e-04,
478,-4.00e-05,
479,2.80e-04,
480,2.80e-04,
481,-2.00e-04,
482,-4.00e-05,
483,2.40e-04,
484,2.80e-04,
485,-4.00e-05,
486,2.80e-04,
487,-4.00e-05,
488,4.00e-05,
489,3.60e-04,
490,-4.00e-05,
491,2.80e-04,
492,-4.00e-05,
493,3.60e-04,
494,2.80e-04,
495,-4.00e-05,
496,-4.00e-05,
497,2.80e-04,
498,2.80e-04,
499,-4.00e-05,
500,3.60e-04,
501,-4.00e-05,
502,2.80e-04,
503,-1.20e-04,
504,-4.00e-05,
505,2.80e-04,
506,-4.00e-05,
507,2.80e-04,
508,2.80e-04,
509,-4.00e-05,
510,-4.00e-05,
511,2.80e-04,
512,2.80e-04,
513,-4.00e-05,
514,2.80e-04,
515,-4.00e-05,
516,-1.20e-04,
517,2.80e-04,
518,-4.00e-05,
519,3.60e-04,
520,-4.00e-05,
521,2.80e-04,
522,2.80e-04,
523,-4.00e-05,
524,3.60e-04,
525,-4.00e-05,
526,4.00e-05,
527,3.60e-04,
528,3.60e-04,
529,4.00e-05,
530,2.00e-04,
531,4.00e-05,
532,-4.00e-05,
533,4.00e-04,
534,-4.00e-05,
535,3.60e-04,
536,3.60e-04,
537,4.00e-05,
538,2.80e-04,
539,-4.00e-05,
540,-4.00e-05,
541,3.60e-04,
542,4.00e-05,
543,2.80e-04,
544,4.00e-05,
545,3.60e-04,
546,2.80e-04,
547,-4.00e-05,
548,4.40e-04,
549,-4.00e-05,
550,2.80e-04,
551,-4.00e-05,
552,4.00e-05,
553,3.60e-04,
554,-4.00e-05,
555,2.80e-04,
556,3.20e-04,
557,-4.00e-05,
558,2.80e-04,
559,-4.00e-05,
560,-4.00e-05,
561,2.80e-04,
562,2.80e-04,
563,-4.00e-05,
564,2.80e-04,
565,-4.00e-05,
566,-4.00e-05,
567,2.80e-04,
568,-4.00e-05,
569,3.60e-04,
570,-4.00e-05,
571,2.80e-04,
572,2.80e-04,
573,-4.00e-05,
574,-4.00e-05,
575,3.60e-04,
576,4.00e-05,
577,4.40e-04,
578,-4.00e-05,
579,4.40e-04,
580,3.60e-04,
581,-4.00e-05,
582,4.00e-05,
583,3.60e-04,
584,-4.00e-05,
585,2.80e-04,
586,2.80e-04,
587,4.00e-05,
588,-4.00e-05,
589,4.40e-04,
590,4.00e-05,
591,3.60e-04,
592,4.00e-05,
593,3.20e-04,
594,4.00e-05,
595,2.80e-04,
596,2.00e-04,
597,-4.00e-05,
598,2.80e-04,
599,-4.00e-05,
600,4.00e-05,
601,4.40e-04,
602,2.80e-04,
603,-4.00e-05,
604,2.80e-04,
605,-4.00e-05,
606,2.80e-04,
607,-1.20e-04,
608,4.40e-04,
609,-4.00e-05,
610,-1.20e-04,
611,3.60e-04,
612,2.80e-04,
613,-4.00e-05,
614,-4.00e-05,
615,3.60e-04,
616,2.80e-04,
617,-4.00e-05,
618,4.00e-05,
619,3.60e-04,
620,-1.20e-04,
621,2.80e-04,
622,-4.00e-05,
623,4.40e-04,
624,-4.00e-05,
625,2.80e-04,
626,2.00e-04,
627,-1.20e-04,
628,-4.00e-05,
629,2.80e-04,
630,-4.00e-05,
631,3.60e-04,
632,-4.00e-05,
633,2.80e-04,
634,3.20e-04,
635,4.00e-05,
636,2.80e-04,
637,-4.00e-05,
638,-4.00e-05,
639,2.80e-04,
640,-4.00e-05,
641,3.60e-04,
642,-4.00e-05,
643,3.60e-04,
644,4.00e-05,
645,2.80e-04,
646,2.80e-04,
647,-1.20e-04,
648,-4.00e-05,
649,2.80e-04,
650,-1.20e-04,
651,2.80e-04,
652,-4.00e-05,
653,2.80e-04,
654,-4.00e-05,
655,2.80e-04,
656,2.40e-04,
657,-4.00e-05,
658,-4.00e-05,
659,3.20e-04,
660,-4.00e-05,
661,2.80e-04,
662,-4.00e-05,
663,2.00e-04,
664,-1.20e-04,
665,2.80e-04,
666,-4.00e-05,
667,2.80e-04,
668,-1.20e-04,
669,3.60e-04,
670,-4.00e-05,
671,3.60e-04,
672,-4.00e-05,
673,2.80e-04,
674,-4.00e-05,
675,2.80e-04,
676,-1.20e-04,
677,2.80e-04,
678,3.60e-04,
679,-4.00e-05,
680,-4.00e-05,
681,2.80e-04,
682,-4.00e-05,
683,3.60e-04,
684,2.80e-04,
685,4.00e-05,
686,-4.00e-05,
687,2.80e-04,
688,4.00e-05,
689,3.60e-04,
690,2.00e-04,
691,-1.20e-04,
692,-4.00e-05,
693,2.80e-04,
694,2.00e-04,
695,-4.00e-05,
696,-4.00e-05,
697,3.60e-04,
698,-4.00e-05,
699,2.80e-04,
700,-4.00e-05,
701,2.80e-04,
702,-4.00e-05,
703,3.60e-04,
704,-4.00e-05,
705,2.80e-04,
706,2.80e-04,
707,-1.20e-04,
708,2.80e-04,
709,-1.20e-04,
710,3.60e-04,
711,-4.00e-05,
712,-4.00e-05,
713,2.80e-04,
714,3.60e-04,
715,-4.00e-05,
716,-1.20e-04,
717,2.80e-04,
718,-4.00e-05,
719,3.60e-04,
720,2.80e-04,
721,-4.00e-05,
722,-4.00e-05,
723,2.40e-04,
724,2.80e-04,
725,-4.00e-05,
726,-4.00e-05,
727,2.80e-04,
728,2.80e-04,
729,-4.00e-05,
730,-4.00e-05,
731,2.80e-04,
732,-4.00e-05,
733,3.60e-04,
734,2.80e-04,
735,-4.00e-05,
736,2.80e-04,
737,-4.00e-05,
738,-4.00e-05,
739,3.60e-04,
740,2.80e-04,
741,-4.00e-05,
742,-4.00e-05,
743,2.80e-04,
744,-4.00e-05,
745,2.80e-04,
746,2.80e-04,
747,-4.00e-05,
748,2.80e-04,
749,-2.00e-04,
750,-4.00e-05,
751,3.60e-04,
752,2.80e-04,
753,-4.00e-05,
754,2.80e-04,
755,-4.00e-05,
756,4.00e-05,
757,2.80e-04,
758,3.60e-04,
759,4.00e-05,
760,2.80e-04,
761,-4.00e-05,
762,-2.00e-04,
763,2.80e-04,
764,-4.00e-05,
765,3.60e-04,
766,3.60e-04,
767,-2.00e-04,
768,-4.00e-05,
769,3.60e-04,
770,-4.00e-05,
771,3.60e-04,
772,3.60e-04,
773,-4.00e-05,
774,3.60e-04,
775,-1.20e-04,
776,3.60e-04,
777,-1.20e-04,
778,-4.00e-05,
779,4.40e-04,
780,2.80e-04,
781,4.00e-05,
782,-4.00e-05,
783,3.60e-04,
784,-4.00e-05,
785,2.80e-04,
786,-4.00e-05,
787,2.80e-04,
788,-4.00e-05,
789,2.80e-04,
790,-4.00e-05,
791,3.60e-04,
792,-4.00e-05,
793,2.80e-04,
794,-4.00e-05,
795,2.80e-04,
796,-1.20e-04,
797,4.40e-04,
798,-4.00e-05,
799,2.80e-04,
800,-4.00e-05,
801,3.60e-04,
802,-4.00e-05,
803,2.80e-04,
804,2.80e-04,
805,-4.00e-05,
806,-4.00e-05,
807,4.40e-04,
808,4.00e-05,
809,3.60e-04,
810,4.00e-05,
811,3.60e-04,
812,3.60e-04,
813,-4.00e-05,
814,-4.00e-05,
815,3.60e-04,
816,4.00e-05,
817,3.60e-04,
818,-4.00e-05,
819,3.60e-04,
820,2.80e-04,
821,-4.00e-05,
822,-4.00e-05,
823,3.60e-04,
824,-1.20e-04,
825,2.80e-04,
826,3.60e-04,
827,-4.00e-05,
828,-4.00e-05,
829,3.60e-04,
830,2.80e-04,
831,-4.00e-05,
832,3.60e-04,
833,-4.00e-05,
834,-4.00e-05,
835,3.60e-04,
836,3.60e-04,
837,-4.00e-05,
838,-4.00e-05,
839,2.80e-04,
840,2.80e-04,
841,-4.00e-05,
842,-4.00e-05,
843,3.20e-04,
844,-4.00e-05,
845,2.80e-04,
846,-4.00e-05,
847,3.60e-04,
848,3.60e-04,
849,4.00e-05,
850,4.00e-05,
851,2.80e-04,
852,2.80e-04,
853,4.00e-05,
854,-4.00e-05,
855,2.80e-04,
856,-4.00e-05,
857,3.60e-04,
858,2.80e-04,
859,-1.20e-04,
860,-4.00e-05,
861,2.80e-04,
862,3.60e-04,
863,-1.20e-04,
864,4.00e-05,
865,4.40e-04,
866,-4.00e-05,
867,2.80e-04,
868,3.60e-04,
869,-4.00e-05,
870,4.00e-05,
871,2.80e-04,
872,-4.00e-05,
873,3.60e-04,
874,4.00e-05,
875,4.40e-04,
876,-4.00e-05,
877,2.80e-04,
878,-4.00e-05,
879,2.80e-04,
880,-1.20e-04,
881,2.80e-04,
882,-4.00e-05,
883,4.40e-04,
884,3.60e-04,
885,-4.00e-05,
886,2.00e-04,
887,-4.00e-05,
888,-4.00e-05,
889,2.80e-04,
890,4.00e-05,
891,3.60e-04,
892,4.40e-04,
893,4.00e-05,
894,4.00e-05,
895,3.60e-04,
896,4.00e-05,
897,2.80e-04,
898,4.00e-05,
899,3.60e-04,
900,2.80e-04,
901,-4.00e-05,
902,2.80e-04,
903,-4.00e-05,
904,-4.00e-05,
905,3.60e-04,
906,4.00e-05,
907,3.60e-04,
908,-4.00e-05,
909,4.40e-04,
910,3.60e-04,
911,-4.00e-05,
912,-4.00e-05,
913,3.60e-04,
914,-1.20e-04,
915,3.20e-04,
916,-4.00e-05,
917,3.60e-04,
918,2.80e-04,
919,-4.00e-05,
920,-4.00e-05,
921,2.80e-04,
922,-4.00e-05,
923,2.80e-04,
924,4.00e-05,
925,2.80e-04,
926,2.80e-04,
927,-4.00e-05,
928,3.60e-04,
929,4.00e-05,
930,3.60e-04,
931,-4.00e-05,
932,-1.20e-04,
933,2.80e-04,
934,-4.00e-05,
935,3.60e-04,
936,-4.00e-05,
937,3.60e-04,
938,2.80e-04,
939,4.00e-05,
940,-4.00e-05,
941,2.80e-04,
942,4.00e-05,
943,3.60e-04,
944,2.80e-04,
945,-4.00e-05,
946,2.80e-04,
947,-1.20e-04,
948,3.60e-04,
949,-1.20e-04,
950,-4.00e-05,
951,2.40e-04,
952,3.60e-04,
953,-1.20e-04,
954,-4.00e-05,
955,2.40e-04,
956,-4.00e-05,
957,2.40e-04,
958,4.00e-05,
959,3.60e-04,
960,-4.00e-05,
961,2.80e-04,
962,3.60e-04,
963,-4.00e-05,
964,-4.00e-05,
965,2.80e-04,
966,4.40e-04,
967,-4.00e-05,
968,4.00e-05,
969,3.60e-04,
970,2.80e-04,
971,-4.00e-05,
972,3.60e-04,
973,-1.20e-04,
974,3.60e-04,
975,-4.00e-05,
976,3.20e-04,
977,-4.00e-05,
978,3.60e-04,
979,4.00e-05,
980,4.00e-05,
981,3.60e-04,
982,-4.00e-05,
983,2.80e-04,
984,4.00e-05,
985,2.80e-04,
986,-4.00e-05,
987,2.80e-04,
988,2.80e-04,
989,-4.00e-05,
990,4.00e-05,
991,2.80e-04,
992,2.80e-04,
993,-4.00e-05,
994,-4.00e-05,
995,3.60e-04,
996,-4.00e-05,
997,2.80e-04,
998,-4.00e-05,
999,3.60e-04,
1000,3.60e-04,
1001,-4.00e-05,
1002,-4.00e-05,
1003,3.60e-04,
1004,3.60e-04,
1005,4.00e-05,
1006,2.80e-04,
1007,-4.00e-05,
1008,2.80e-04,
1009,-4.00e-05,
1010,-4.00e-05,
1011,2.80e-04,
1012,2.80e-04,
1013,-1.20e-04,
1014,2.80e-04,
1015,-4.00e-05,
1016,-4.00e-05,
1017,3.20e-04,
1018,2.80e-04,
1019,-1.20e-04,
1020,-4.00e-05,
1021,3.60e-04,
1022,3.60e-04,
1023,4.00e-05,
1024,-4.00e-05,
1025,2.80e-04,
1026,2.80e-04,
1027,-1.20e-04,
1028,-4.00e-05,
1029,3.60e-04,
1030,2.80e-04,
1031,-4.00e-05,
1032,2.80e-04,
1033,-1.20e-04,
1034,3.60e-04,
1035,-4.00e-05,
1036,2.80e-04,
1037,-4.00e-05,
1038,2.80e-04,
1039,-4.00e-05,
1040,-4.00e-05,
1041,2.40e-04,
1042,-1.20e-04,
1043,2.40e-04,
1044,-4.00e-05,
1045,2.80e-04,
1046,-4.00e-05,
1047,3.60e-04,
1048,-4.00e-05,
1049,2.80e-04,
1050,2.80e-04,
1051,-4.00e-05,
1052,-1.20e-04,
1053,2.40e-04,
1054,-4.00e-05,
1055,3.60e-04,
1056,3.60e-04,
1057,-4.00e-05,
1058,2.80e-04,
1059,-4.00e-05,
1060,-1.20e-04,
1061,2.00e-04,
1062,-4.00e-05,
1063,2.80e-04,
1064,-2.00e-04,
1065,2.40e-04,
1066,2.00e-04,
1067,-4.00e-05,
1068,-1.20e-04,
1069,2.80e-04,
1070,2.80e-04,
1071,-1.20e-04,
1072,2.80e-04,
1073,-1.20e-04,
1074,-1.20e-04,
1075,2.80e-04,
1076,-4.00e-05,
1077,2.80e-04,
1078,2.80e-04,
1079,-4.00e-05,
1080,-4.00e-05,
1081,2.80e-04,
1082,2.80e-04,
1083,-4.00e-05,
1084,-4.00e-05,
1085,2.80e-04,
1086,-4.00e-05,
1087,2.40e-04,
1088,-4.00e-05,
1089,2.80e-04,
1090,-4.00e-05,
1091,3.60e-04,
1092,-4.00e-05,
1093,3.60e-04,
1094,-4.00e-05,
1095,2.80e-04,
1096,2.40e-04,
1097,-1.20e-04,
1098,-4.00e-05,
1099,3.20e-04,
1100,-4.00e-05,
1101,3.60e-04,
1102,-4.00e-05,
1103,3.60e-04,
1104,2.40e-04,
1105,-1.20e-04,
1106,-4.00e-05,
1107,2.40e-04,
1108,-4.00e-05,
1109,2.80e-04,
1110,-4.00e-05,
1111,2.00e-04,
1112,-4.00e-05,
1113,3.60e-04,
1114,3.60e-04,
1115,-1.20e-04,
1116,-4.00e-05,
1117,3.60e-04,
1118,3.60e-04,
1119,-1.20e-04,
1120,3.60e-04,
1121,-1.20e-04,
1122,2.80e-04,
1123,-4.00e-05,
1124,-1.20e-04,
1125,2.80e-04,
1126,-4.00e-05,
1127,2.80e-04,
1128,2.40e-04,
1129,-1.20e-04,
1130,-4.00e-05,
1131,2.80e-04,
1132,3.60e-04,
1133,-2.00e-04,
1134,-2.00e-04,
1135,2.80e-04,
1136,-1.20e-04,
1137,2.00e-04,
1138,-4.00e-05,
1139,2.80e-04,
1140,-4.00e-05,
1141,2.80e-04,
1142,-4.00e-05,
1143,2.80e-04,
1144,2.80e-04,
1145,-4.00e-05,
1146,-4.00e-05,
1147,2.80e-04,
1148,-4.00e-05,
1149,2.80e-04,
1150,3.60e-04,
1151,-4.00e-05,
1152,-4.00e-05,
1153,2.40e-04,
1154,-4.00e-05,
1155,2.80e-04,
1156,2.80e-04,
1157,-4.00e-05,
1158,-4.00e-05,
1159,3.60e-04,
1160,-1.20e-04,
1161,3.60e-04,
1162,-1.20e-04,
1163,3.60e-04,
1164,2.80e-04,
1165,-4.00e-05,
1166,-1.20e-04,
1167,3.60e-04,
1168,2.80e-04,
1169,-1.20e-04,
1170,-4.00e-05,
1171,3.60e-04,
1172,-1.20e-04,
1173,3.60e-04,
1174,-4.00e-05,
1175,3.60e-04,
1176,2.80e-04,
1177,-4.00e-05,
1178,3.60e-04,
1179,-4.00e-05,
1180,-4.00e-05,
1181,2.80e-04,
1182,-4.00e-05,
1183,2.80e-04,
1184,2.00e-04,
1185,-4.00e-05,
1186,3.60e-04,
1187,-4.00e-05,
1188,-4.00e-05,
1189,2.80e-04,
1190,2.80e-04,
1191,-1.20e-04,
1192,2.80e-04,
1193,-4.00e-05,
1194,-4.00e-05,
1195,2.80e-04,
1196,4.00e-05,
1197,4.40e-04,
1198,-4.00e-05,
1199,2.80e-04,
