fastdiffamp/data-noise-set/unb-left-demod-comp/NewFile9.csv

X,CH1,Start,Increment,
Sequence,Volt,-5.490000e+00,1.000000e-02
0,2.40e-04,
1,-2.40e-04,
2,-1.60e-04,
3,3.20e-04,
4,-2.40e-04,
5,3.20e-04,
6,-1.60e-04,
7,2.40e-04,
8,-2.40e-04,
9,2.00e-04,
10,2.80e-04,
11,-2.40e-04,
12,-2.40e-04,
13,2.40e-04,
14,-1.60e-04,
15,2.40e-04,
16,-2.40e-04,
17,2.40e-04,
18,2.80e-04,
19,-2.40e-04,
20,2.40e-04,
21,-2.40e-04,
22,-1.60e-04,
23,2.80e-04,
24,-1.60e-04,
25,2.40e-04,
26,-1.60e-04,
27,2.40e-04,
28,1.60e-04,
29,-1.60e-04,
30,-1.60e-04,
31,3.20e-04,
32,-1.60e-04,
33,2.00e-04,
34,-2.40e-04,
35,2.40e-04,
36,-1.60e-04,
37,2.40e-04,
38,2.40e-04,
39,-2.40e-04,
40,1.60e-04,
41,-2.40e-04,
42,2.80e-04,
43,-2.40e-04,
44,2.40e-04,
45,-1.60e-04,
46,-1.60e-04,
47,2.40e-04,
48,1.60e-04,
49,-2.40e-04,
50,3.20e-04,
51,-3.20e-04,
52,-2.80e-04,
53,2.40e-04,
54,-1.60e-04,
55,4.00e-04,
56,2.40e-04,
57,-1.60e-04,
58,-2.40e-04,
59,2.80e-04,
60,3.20e-04,
61,-2.40e-04,
62,2.40e-04,
63,-2.40e-04,
64,2.40e-04,
65,-2.40e-04,
66,-2.40e-04,
67,2.40e-04,
68,-2.40e-04,
69,2.40e-04,
70,2.40e-04,
71,-2.40e-04,
72,2.40e-04,
73,-1.60e-04,
74,2.80e-04,
75,-3.20e-04,
76,2.40e-04,
77,-2.40e-04,
78,2.40e-04,
79,-1.60e-04,
80,2.40e-04,
81,-2.40e-04,
82,-3.20e-04,
83,2.00e-04,
84,2.40e-04,
85,-1.60e-04,
86,3.20e-04,
87,-1.60e-04,
88,3.20e-04,
89,-1.20e-04,
90,-2.40e-04,
91,2.00e-04,
92,-1.60e-04,
93,2.40e-04,
94,2.40e-04,
95,-2.40e-04,
96,-1.60e-04,
97,2.40e-04,
98,2.40e-04,
99,-1.60e-04,
100,-1.60e-04,
101,2.40e-04,
102,3.20e-04,
103,-1.60e-04,
104,-2.40e-04,
105,2.40e-04,
106,-1.60e-04,
107,2.40e-04,
108,-1.60e-04,
109,2.40e-04,
110,-1.60e-04,
111,3.20e-04,
112,-1.60e-04,
113,3.20e-04,
114,-1.60e-04,
115,3.20e-04,
116,-8.00e-05,
117,2.40e-04,
118,2.40e-04,
119,-1.60e-04,
120,-2.40e-04,
121,2.40e-04,
122,-2.40e-04,
123,2.40e-04,
124,-2.40e-04,
125,3.20e-04,
126,-1.60e-04,
127,3.20e-04,
128,-1.60e-04,
129,3.20e-04,
130,-1.60e-04,
131,2.40e-04,
132,3.20e-04,
133,-1.60e-04,
134,-1.60e-04,
135,3.20e-04,
136,-2.40e-04,
137,2.40e-04,
138,2.80e-04,
139,-1.60e-04,
140,-2.40e-04,
141,2.40e-04,
142,-1.60e-04,
143,2.80e-04,
144,-1.60e-04,
145,3.20e-04,
146,-1.60e-04,
147,2.40e-04,
148,2.40e-04,
149,-1.60e-04,
150,3.20e-04,
151,-1.60e-04,
152,-1.60e-04,
153,3.20e-04,
154,1.60e-04,
155,-1.60e-04,
156,2.40e-04,
157,-1.60e-04,
158,-1.60e-04,
159,3.20e-04,
160,-2.40e-04,
161,2.40e-04,
162,-1.60e-04,
163,2.40e-04,
164,2.40e-04,
165,-1.60e-04,
166,2.00e-04,
167,-3.20e-04,
168,2.40e-04,
169,-2.40e-04,
170,-1.60e-04,
171,2.80e-04,
172,-1.60e-04,
173,3.20e-04,
174,-2.40e-04,
175,4.00e-04,
176,2.40e-04,
177,-1.60e-04,
178,-1.60e-04,
179,2.40e-04,
180,2.40e-04,
181,-1.60e-04,
182,-1.60e-04,
183,3.20e-04,
184,-1.60e-04,
185,3.20e-04,
186,2.40e-04,
187,-1.60e-04,
188,-8.00e-05,
189,2.80e-04,
190,-1.60e-04,
191,3.20e-04,
192,-1.60e-04,
193,4.00e-04,
194,2.40e-04,
195,-1.60e-04,
196,3.20e-04,
197,-1.60e-04,
198,-1.60e-04,
199,3.20e-04,
200,-1.60e-04,
201,2.40e-04,
202,-2.40e-04,
203,2.40e-04,
204,2.40e-04,
205,-1.60e-04,
206,-1.60e-04,
207,3.20e-04,
208,3.20e-04,
209,-1.60e-04,
210,-1.60e-04,
211,3.20e-04,
212,2.40e-04,
213,-1.60e-04,
214,-2.40e-04,
215,2.40e-04,
216,3.20e-04,
217,-1.60e-04,
218,3.20e-04,
219,-1.60e-04,
220,-1.60e-04,
221,2.40e-04,
222,-8.00e-05,
223,4.00e-04,
224,-1.60e-04,
225,2.40e-04,
226,2.40e-04,
227,-1.60e-04,
228,3.20e-04,
229,-1.60e-04,
230,-1.60e-04,
231,2.40e-04,
232,-1.60e-04,
233,2.80e-04,
234,-1.60e-04,
235,3.20e-04,
236,-1.60e-04,
237,2.40e-04,
238,-1.60e-04,
239,2.40e-04,
240,-2.00e-04,
241,2.40e-04,
242,-2.40e-04,
243,3.20e-04,
244,-1.60e-04,
245,4.00e-04,
246,-1.60e-04,
247,2.40e-04,
248,-1.60e-04,
249,4.00e-04,
250,3.20e-04,
251,-1.60e-04,
252,-2.40e-04,
253,2.40e-04,
254,-2.40e-04,
255,3.20e-04,
256,-1.60e-04,
257,3.20e-04,
258,-2.40e-04,
259,1.60e-04,
260,-2.40e-04,
261,2.40e-04,
262,-8.00e-05,
263,3.20e-04,
264,2.40e-04,
265,-1.20e-04,
266,2.40e-04,
267,-2.40e-04,
268,2.40e-04,
269,-2.40e-04,
270,-1.60e-04,
271,2.40e-04,
272,-1.60e-04,
273,3.20e-04,
274,3.20e-04,
275,-2.40e-04,
276,2.00e-04,
277,-2.40e-04,
278,-2.40e-04,
279,3.20e-04,
280,3.20e-04,
281,-1.60e-04,
282,-2.40e-04,
283,3.20e-04,
284,-2.40e-04,
285,2.40e-04,
286,-1.60e-04,
287,2.40e-04,
288,-4.00e-04,
289,2.40e-04,
290,-1.60e-04,
291,2.40e-04,
292,-1.60e-04,
293,2.00e-04,
294,-1.60e-04,
295,2.40e-04,
296,2.40e-04,
297,-2.40e-04,
298,2.40e-04,
299,-1.60e-04,
300,-1.60e-04,
301,2.40e-04,
302,2.40e-04,
303,-1.60e-04,
304,-1.60e-04,
305,2.40e-04,
306,3.20e-04,
307,-1.60e-04,
308,-1.60e-04,
309,2.40e-04,
310,-1.60e-04,
311,2.40e-04,
312,2.40e-04,
313,-2.40e-04,
314,-2.40e-04,
315,2.40e-04,
316,-8.00e-05,
317,3.20e-04,
318,-1.60e-04,
319,2.40e-04,
320,1.60e-04,
321,-2.40e-04,
322,-8.00e-05,
323,3.20e-04,
324,2.80e-04,
325,-1.60e-04,
326,-2.40e-04,
327,2.80e-04,
328,3.20e-04,
329,-2.40e-04,
330,-1.60e-04,
331,4.00e-04,
332,3.20e-04,
333,-1.60e-04,
334,-2.40e-04,
335,2.40e-04,
336,3.20e-04,
337,-1.60e-04,
338,2.40e-04,
339,-1.60e-04,
340,-1.60e-04,
341,3.20e-04,
342,-8.00e-05,
343,2.40e-04,
344,2.80e-04,
345,-1.60e-04,
346,-1.60e-04,
347,2.40e-04,
348,2.40e-04,
349,-1.60e-04,
350,-1.60e-04,
351,2.40e-04,
352,-1.60e-04,
353,3.20e-04,
354,-1.60e-04,
355,2.40e-04,
356,3.20e-04,
357,-3.20e-04,
358,-8.00e-05,
359,3.20e-04,
360,2.80e-04,
361,-1.60e-04,
362,-1.60e-04,
363,3.20e-04,
364,-1.60e-04,
365,3.20e-04,
366,2.40e-04,
367,-1.60e-04,
368,-2.40e-04,
369,3.20e-04,
370,-1.60e-04,
371,1.60e-04,
372,2.40e-04,
373,-1.60e-04,
374,-1.60e-04,
375,2.40e-04,
376,-1.60e-04,
377,2.40e-04,
378,-1.60e-04,
379,3.20e-04,
380,2.40e-04,
381,-2.40e-04,
382,-1.60e-04,
383,2.80e-04,
384,3.20e-04,
385,-1.60e-04,
386,3.20e-04,
387,-2.40e-04,
388,3.20e-04,
389,-1.60e-04,
390,3.20e-04,
391,-1.60e-04,
392,2.40e-04,
393,-1.60e-04,
394,-1.60e-04,
395,2.40e-04,
396,-1.60e-04,
397,3.20e-04,
398,-8.00e-05,
399,3.20e-04,
400,3.20e-04,
401,-1.60e-04,
402,2.40e-04,
403,-1.60e-04,
404,3.20e-04,
405,-2.40e-04,
406,-1.60e-04,
407,4.00e-04,
408,-1.60e-04,
409,3.20e-04,
410,-2.40e-04,
411,3.20e-04,
412,-1.60e-04,
413,2.40e-04,
414,4.00e-04,
415,-2.40e-04,
416,2.40e-04,
417,-2.40e-04,
418,-1.60e-04,
419,2.40e-04,
420,-1.60e-04,
421,3.20e-04,
422,-2.40e-04,
423,3.20e-04,
424,-1.60e-04,
425,3.20e-04,
426,-2.40e-04,
427,3.20e-04,
428,-2.40e-04,
429,3.20e-04,
430,2.40e-04,
431,-2.40e-04,
432,2.40e-04,
433,-1.60e-04,
434,2.40e-04,
435,-1.60e-04,
436,-1.60e-04,
437,2.40e-04,
438,2.40e-04,
439,-2.80e-04,
440,2.40e-04,
441,-2.40e-04,
442,-1.60e-04,
443,2.40e-04,
444,3.20e-04,
445,-1.60e-04,
446,3.20e-04,
447,-8.00e-05,
448,3.20e-04,
449,-1.60e-04,
450,3.20e-04,
451,-1.60e-04,
452,3.20e-04,
453,-1.60e-04,
454,1.60e-04,
455,-2.40e-04,
456,-1.60e-04,
457,3.20e-04,
458,-1.60e-04,
459,3.20e-04,
460,2.80e-04,
461,-2.40e-04,
462,-1.60e-04,
463,3.20e-04,
464,-1.60e-04,
465,3.20e-04,
466,-2.40e-04,
467,3.20e-04,
468,-2.40e-04,
469,3.20e-04,
470,-1.60e-04,
471,3.20e-04,
472,3.20e-04,
473,-1.60e-04,
474,-8.00e-05,
475,4.00e-04,
476,-8.00e-05,
477,3.20e-04,
478,-1.60e-04,
479,4.00e-04,
480,3.20e-04,
481,-2.40e-04,
482,-1.60e-04,
483,3.20e-04,
484,2.40e-04,
485,-2.40e-04,
486,-2.40e-04,
487,2.40e-04,
488,-1.60e-04,
489,3.20e-04,
490,2.40e-04,
491,-1.60e-04,
492,-1.60e-04,
493,3.20e-04,
494,-1.60e-04,
495,2.40e-04,
496,1.60e-04,
497,-2.40e-04,
498,-1.60e-04,
499,3.20e-04,
500,2.40e-04,
501,-2.40e-04,
502,-2.40e-04,
503,2.40e-04,
504,-1.60e-04,
505,3.20e-04,
506,1.60e-04,
507,-3.20e-04,
508,-2.40e-04,
509,2.40e-04,
510,-1.60e-04,
511,2.40e-04,
512,3.20e-04,
513,-2.40e-04,
514,-1.60e-04,
515,2.40e-04,
516,-1.20e-04,
517,2.40e-04,
518,-2.40e-04,
519,3.20e-04,
520,2.40e-04,
521,-1.60e-04,
522,2.40e-04,
523,-2.40e-04,
524,-2.40e-04,
525,2.40e-04,
526,2.40e-04,
527,-2.00e-04,
528,2.40e-04,
529,-3.20e-04,
530,-2.40e-04,
531,3.20e-04,
532,-1.60e-04,
533,3.20e-04,
534,3.20e-04,
535,-1.60e-04,
536,-1.60e-04,
537,2.40e-04,
538,3.20e-04,
539,-2.00e-04,
540,-1.60e-04,
541,2.80e-04,
542,2.40e-04,
543,-3.20e-04,
544,-1.60e-04,
545,3.20e-04,
546,-1.60e-04,
547,3.20e-04,
548,2.80e-04,
549,-2.40e-04,
550,-8.00e-05,
551,4.00e-04,
552,-1.60e-04,
553,2.40e-04,
554,-1.60e-04,
555,2.40e-04,
556,-2.40e-04,
557,2.40e-04,
558,3.20e-04,
559,-2.40e-04,
560,-1.60e-04,
561,2.40e-04,
562,-1.60e-04,
563,4.00e-04,
564,-2.40e-04,
565,3.20e-04,
566,3.20e-04,
567,-1.60e-04,
568,-1.60e-04,
569,3.20e-04,
570,2.40e-04,
571,-8.00e-05,
572,3.20e-04,
573,-1.60e-04,
574,-1.60e-04,
575,3.20e-04,
576,-1.60e-04,
577,3.20e-04,
578,-1.60e-04,
579,3.20e-04,
580,-3.20e-04,
581,4.00e-04,
582,-1.60e-04,
583,3.60e-04,
584,-2.40e-04,
585,3.20e-04,
586,-1.60e-04,
587,3.20e-04,
588,-1.60e-04,
589,3.20e-04,
590,2.40e-04,
591,-2.40e-04,
592,-1.60e-04,
593,3.20e-04,
594,-2.40e-04,
595,2.40e-04,
596,-2.40e-04,
597,3.20e-04,
598,2.40e-04,
599,-2.40e-04,
600,-1.60e-04,
601,4.00e-04,
602,-1.60e-04,
603,4.00e-04,
604,3.20e-04,
605,-2.40e-04,
606,-3.20e-04,
607,3.20e-04,
608,2.40e-04,
609,-1.60e-04,
610,4.00e-04,
611,-1.60e-04,
612,-1.60e-04,
613,2.80e-04,
614,3.20e-04,
615,-1.60e-04,
616,-8.00e-05,
617,3.20e-04,
618,-2.40e-04,
619,4.00e-04,
620,3.20e-04,
621,-1.60e-04,
622,-1.60e-04,
623,4.00e-04,
624,2.40e-04,
625,-8.00e-05,
626,-1.60e-04,
627,3.20e-04,
628,-2.40e-04,
629,2.40e-04,
630,-2.40e-04,
631,3.20e-04,
632,-1.60e-04,
633,2.40e-04,
634,-2.40e-04,
635,3.20e-04,
636,2.40e-04,
637,-1.60e-04,
638,-3.20e-04,
639,2.40e-04,
640,2.40e-04,
641,-4.00e-04,
642,-1.60e-04,
643,3.20e-04,
644,2.40e-04,
645,-1.60e-04,
646,2.40e-04,
647,-2.40e-04,
648,2.40e-04,
649,-2.40e-04,
650,2.80e-04,
651,-1.60e-04,
652,-1.60e-04,
653,2.40e-04,
654,3.20e-04,
655,-1.60e-04,
656,4.00e-04,
657,-1.60e-04,
658,-2.40e-04,
659,2.40e-04,
660,3.20e-04,
661,-2.40e-04,
662,-2.40e-04,
663,3.20e-04,
664,4.00e-04,
665,-1.60e-04,
666,2.40e-04,
667,-1.60e-04,
668,-1.60e-04,
669,3.20e-04,
670,-2.40e-04,
671,3.20e-04,
672,-1.60e-04,
673,4.00e-04,
674,-2.40e-04,
675,4.00e-04,
676,-1.60e-04,
677,3.20e-04,
678,-1.60e-04,
679,2.40e-04,
680,3.20e-04,
681,-1.60e-04,
682,3.20e-04,
683,-1.60e-04,
684,-2.40e-04,
685,3.20e-04,
686,4.00e-04,
687,-8.00e-05,
688,-3.20e-04,
689,3.20e-04,
690,-2.40e-04,
691,3.20e-04,
692,3.20e-04,
693,-1.60e-04,
694,-3.20e-04,
695,2.80e-04,
696,-2.40e-04,
697,3.20e-04,
698,7.20e-04,
699,-2.40e-04,
700,-2.40e-04,
701,3.20e-04,
702,2.40e-04,
703,-2.40e-04,
704,-2.40e-04,
705,3.20e-04,
706,3.20e-04,
707,-1.60e-04,
708,-1.60e-04,
709,4.00e-04,
710,-1.60e-04,
711,3.20e-04,
712,-1.60e-04,
713,3.20e-04,
714,3.20e-04,
715,-2.40e-04,
716,-1.60e-04,
717,3.20e-04,
718,2.40e-04,
719,-2.40e-04,
720,-1.60e-04,
721,3.20e-04,
722,-1.60e-04,
723,2.40e-04,
724,-2.40e-04,
725,3.20e-04,
726,3.20e-04,
727,-1.60e-04,
728,-2.40e-04,
729,4.80e-04,
730,-1.60e-04,
731,2.40e-04,
732,2.40e-04,
733,-3.20e-04,
734,-2.40e-04,
735,3.20e-04,
736,-2.40e-04,
737,3.20e-04,
738,4.00e-04,
739,-2.40e-04,
740,-2.40e-04,
741,2.80e-04,
742,2.40e-04,
743,-1.60e-04,
744,-3.20e-04,
745,3.20e-04,
746,4.80e-04,
747,-2.40e-04,
748,-1.60e-04,
749,3.20e-04,
750,3.20e-04,
751,-2.40e-04,
752,-3.20e-04,
753,2.40e-04,
754,-1.60e-04,
755,3.20e-04,
756,-1.60e-04,
757,3.20e-04,
758,-1.60e-04,
759,4.00e-04,
760,3.20e-04,
761,-1.60e-04,
762,4.00e-04,
763,-1.60e-04,
764,3.20e-04,
765,-1.60e-04,
766,-1.60e-04,
767,3.20e-04,
768,-1.60e-04,
769,2.40e-04,
770,-2.40e-04,
771,3.20e-04,
772,4.00e-04,
773,-2.40e-04,
774,-1.60e-04,
775,4.80e-04,
776,-1.60e-04,
777,3.20e-04,
778,-6.40e-04,
779,3.20e-04,
780,3.20e-04,
781,-1.60e-04,
782,-2.40e-04,
783,2.40e-04,
784,1.60e-04,
785,-3.20e-04,
786,2.40e-04,
787,-2.40e-04,
788,2.40e-04,
789,-2.40e-04,
790,-2.40e-04,
791,4.80e-04,
792,-1.60e-04,
793,3.20e-04,
794,-3.20e-04,
795,4.00e-04,
796,3.20e-04,
797,-2.40e-04,
798,3.20e-04,
799,-2.40e-04,
800,2.40e-04,
801,-1.60e-04,
802,2.40e-04,
803,-2.40e-04,
804,3.20e-04,
805,-1.60e-04,
806,4.00e-04,
807,-2.40e-04,
808,-1.60e-04,
809,4.80e-04,
810,2.40e-04,
811,-1.60e-04,
812,-2.40e-04,
813,4.00e-04,
814,-2.40e-04,
815,3.20e-04,
816,-2.40e-04,
817,3.20e-04,
818,-2.40e-04,
819,2.40e-04,
820,2.40e-04,
821,-2.40e-04,
822,-1.60e-04,
823,4.00e-04,
824,3.20e-04,
825,-3.20e-04,
826,-2.40e-04,
827,4.00e-04,
828,-1.60e-04,
829,4.80e-04,
830,-2.40e-04,
831,2.00e-04,
832,3.20e-04,
833,-2.40e-04,
834,4.00e-04,
835,-2.40e-04,
836,4.00e-04,
837,-2.40e-04,
838,-3.20e-04,
839,4.00e-04,
840,2.80e-04,
841,-1.60e-04,
842,4.80e-04,
843,-2.40e-04,
844,3.20e-04,
845,-2.40e-04,
846,-2.40e-04,
847,3.20e-04,
848,3.20e-04,
849,-2.40e-04,
850,2.40e-04,
851,-3.20e-04,
852,-1.60e-04,
853,3.20e-04,
854,2.40e-04,
855,-1.60e-04,
856,3.20e-04,
857,-2.40e-04,
858,4.00e-04,
859,-2.40e-04,
860,-8.00e-05,
861,3.20e-04,
862,-1.60e-04,
863,3.20e-04,
864,-1.60e-04,
865,4.00e-04,
866,3.20e-04,
867,-1.60e-04,
868,-3.60e-04,
869,2.40e-04,
870,3.20e-04,
871,-2.40e-04,
872,-2.40e-04,
873,4.00e-04,
874,-2.40e-04,
875,3.20e-04,
876,3.20e-04,
877,-8.00e-05,
878,-1.60e-04,
879,3.20e-04,
880,3.20e-04,
881,-3.20e-04,
882,-1.60e-04,
883,4.00e-04,
884,2.40e-04,
885,-1.60e-04,
886,-2.40e-04,
887,3.20e-04,
888,-2.40e-04,
889,3.20e-04,
890,4.00e-04,
891,-1.60e-04,
892,4.80e-04,
893,-2.40e-04,
894,-1.60e-04,
895,4.00e-04,
896,3.20e-04,
897,-1.60e-04,
898,-1.60e-04,
899,5.60e-04,
900,-1.60e-04,
901,3.20e-04,
902,-1.60e-04,
903,4.00e-04,
904,-1.60e-04,
905,2.00e-04,
906,-2.00e-04,
907,4.00e-04,
908,-1.60e-04,
909,4.00e-04,
910,2.40e-04,
911,-3.20e-04,
912,-2.40e-04,
913,3.20e-04,
914,-2.40e-04,
915,3.20e-04,
916,-1.60e-04,
917,3.20e-04,
918,4.00e-04,
919,-1.60e-04,
920,-2.40e-04,
921,3.20e-04,
922,3.20e-04,
923,-2.40e-04,
924,4.00e-04,
925,-3.20e-04,
926,-2.40e-04,
927,4.00e-04,
928,-2.40e-04,
929,2.40e-04,
930,3.20e-04,
931,-1.60e-04,
932,4.00e-04,
933,-2.40e-04,
934,-2.40e-04,
935,4.00e-04,
936,3.20e-04,
937,-2.40e-04,
938,-2.40e-04,
939,3.20e-04,
940,4.00e-04,
941,-2.40e-04,
942,-2.40e-04,
943,4.00e-04,
944,-1.60e-04,
945,3.20e-04,
946,4.00e-04,
947,-2.40e-04,
948,3.20e-04,
949,-3.20e-04,
950,-2.40e-04,
951,3.20e-04,
952,-3.20e-04,
953,2.40e-04,
954,4.00e-04,
955,-8.00e-05,
956,3.20e-04,
957,-3.20e-04,
958,4.00e-04,
959,-2.40e-04,
960,2.40e-04,
961,-2.40e-04,
962,-1.60e-04,
963,3.20e-04,
964,-2.40e-04,
965,3.20e-04,
966,-4.00e-04,
967,3.20e-04,
968,2.40e-04,
969,-2.40e-04,
970,3.20e-04,
971,-1.60e-04,
972,-1.60e-04,
973,2.40e-04,
974,-2.40e-04,
975,3.20e-04,
976,-2.40e-04,
977,3.20e-04,
978,-1.60e-04,
979,4.00e-04,
980,-2.40e-04,
981,3.20e-04,
982,-1.60e-04,
983,8.80e-04,
984,3.20e-04,
985,-4.00e-04,
986,-2.40e-04,
987,3.20e-04,
988,3.20e-04,
989,-1.60e-04,
990,-8.00e-05,
991,4.00e-04,
992,-1.60e-04,
993,4.00e-04,
994,2.40e-04,
995,-2.40e-04,
996,-2.40e-04,
997,2.40e-04,
998,3.20e-04,
999,-1.60e-04,
1000,-8.00e-04,
1001,3.20e-04,
1002,2.40e-04,
1003,-3.20e-04,
1004,4.00e-04,
1005,-3.20e-04,
1006,5.60e-04,
1007,-2.40e-04,
1008,-2.40e-04,
1009,3.20e-04,
1010,-1.60e-04,
1011,4.00e-04,
1012,3.20e-04,
1013,-1.60e-04,
1014,4.00e-04,
1015,-1.60e-04,
1016,-1.60e-04,
1017,4.00e-04,
1018,-1.60e-04,
1019,2.40e-04,
1020,3.20e-04,
1021,-2.40e-04,
1022,3.20e-04,
1023,-1.60e-04,
1024,3.20e-04,
1025,-2.40e-04,
1026,-2.40e-04,
1027,3.20e-04,
1028,3.20e-04,
1029,-3.20e-04,
1030,4.80e-04,
1031,-2.40e-04,
1032,-2.40e-04,
1033,3.20e-04,
1034,-2.40e-04,
1035,3.20e-04,
1036,-2.80e-04,
1037,3.20e-04,
1038,-4.00e-04,
1039,4.00e-04,
1040,2.00e-04,
1041,-3.20e-04,
1042,-2.40e-04,
1043,3.20e-04,
1044,-2.40e-04,
1045,2.80e-04,
1046,-2.40e-04,
1047,3.20e-04,
1048,-8.00e-05,
1049,3.20e-04,
1050,4.00e-04,
1051,-1.60e-04,
1052,4.00e-04,
1053,-1.60e-04,
1054,-2.40e-04,
1055,3.20e-04,
1056,4.00e-04,
1057,-2.40e-04,
1058,-3.20e-04,
1059,4.00e-04,
1060,2.40e-04,
1061,-2.40e-04,
1062,-1.60e-04,
1063,3.20e-04,
1064,-1.60e-04,
1065,3.20e-04,
1066,4.00e-04,
1067,-2.40e-04,
1068,-2.40e-04,
1069,3.20e-04,
1070,-3.20e-04,
1071,3.20e-04,
1072,-1.60e-04,
1073,4.00e-04,
1074,-2.40e-04,
1075,2.40e-04,
1076,-1.60e-04,
1077,4.00e-04,
1078,-3.20e-04,
1079,2.40e-04,
1080,-2.40e-04,
1081,2.00e-04,
1082,3.20e-04,
1083,-2.40e-04,
1084,-1.60e-04,
1085,4.00e-04,
1086,-2.40e-04,
1087,4.00e-04,
1088,-2.40e-04,
1089,3.20e-04,
1090,-1.60e-04,
1091,4.00e-04,
1092,-1.60e-04,
1093,4.00e-04,
1094,3.20e-04,
1095,-8.00e-05,
1096,-2.40e-04,
1097,4.00e-04,
1098,-2.40e-04,
1099,2.40e-04,
1100,2.40e-04,
1101,-3.20e-04,
1102,-3.20e-04,
1103,3.20e-04,
1104,4.00e-04,
1105,-2.40e-04,
1106,-1.60e-04,
1107,3.20e-04,
1108,2.40e-04,
1109,-4.00e-04,
1110,4.80e-04,
1111,-2.40e-04,
1112,2.40e-04,
1113,-2.40e-04,
1114,-1.60e-04,
1115,3.20e-04,
1116,-2.40e-04,
1117,2.40e-04,
1118,3.20e-04,
1119,-2.40e-04,
1120,2.40e-04,
1121,-2.40e-04,
1122,3.20e-04,
1123,-2.40e-04,
1124,-2.40e-04,
1125,3.20e-04,
1126,4.80e-04,
1127,-2.40e-04,
1128,-2.40e-04,
1129,2.40e-04,
1130,1.60e-04,
1131,-2.40e-04,
1132,-2.40e-04,
1133,2.80e-04,
1134,4.00e-04,
1135,-1.60e-04,
1136,2.00e-04,
1137,-2.40e-04,
1138,-1.60e-04,
1139,3.20e-04,
1140,2.80e-04,
1141,-3.20e-04,
1142,4.00e-04,
1143,-3.20e-04,
1144,-4.00e-04,
1145,3.20e-04,
1146,-4.00e-04,
1147,3.20e-04,
1148,-3.20e-04,
1149,2.40e-04,
1150,2.40e-04,
1151,-3.20e-04,
1152,-2.40e-04,
1153,2.40e-04,
1154,-2.40e-04,
1155,4.00e-04,
1156,-2.40e-04,
1157,2.40e-04,
1158,2.40e-04,
1159,-2.40e-04,
1160,-2.40e-04,
1161,4.00e-04,
1162,-4.00e-04,
1163,3.20e-04,
1164,4.00e-04,
1165,-2.80e-04,
1166,-2.40e-04,
1167,3.20e-04,
1168,-1.60e-04,
1169,4.80e-04,
1170,-1.60e-04,
1171,4.00e-04,
1172,4.00e-04,
1173,-2.40e-04,
1174,-1.60e-04,
1175,3.20e-04,
1176,3.20e-04,
1177,-2.40e-04,
1178,2.40e-04,
1179,-2.40e-04,
1180,3.20e-04,
1181,-2.40e-04,
1182,-1.60e-04,
1183,4.00e-04,
1184,-1.60e-04,
1185,4.00e-04,
1186,-2.40e-04,
1187,4.00e-04,
1188,-2.40e-04,
1189,3.20e-04,
1190,3.20e-04,
1191,-1.20e-04,
1192,4.00e-04,
1193,-1.60e-04,
1194,-2.40e-04,
1195,4.00e-04,
1196,-2.40e-04,
1197,4.00e-04,
1198,-1.60e-04,
1199,4.00e-04,
