fastdiffamp/data-noise-set/unb-left-demod-comp/NewFile18.csv

X,CH1,Start,Increment,
Sequence,Volt,-5.490000e+00,1.000000e-02
0,2.80e-04,
1,-1.20e-04,
2,2.80e-04,
3,-1.20e-04,
4,2.80e-04,
5,-1.20e-04,
6,2.80e-04,
7,-4.00e-05,
8,4.00e-05,
9,2.80e-04,
10,4.00e-05,
11,3.60e-04,
12,2.80e-04,
13,4.00e-05,
14,2.80e-04,
15,-1.20e-04,
16,2.80e-04,
17,-4.00e-05,
18,2.80e-04,
19,-4.00e-05,
20,4.00e-05,
21,2.80e-04,
22,2.80e-04,
23,-4.00e-05,
24,3.60e-04,
25,-1.20e-04,
26,2.80e-04,
27,-1.20e-04,
28,2.80e-04,
29,-4.00e-05,
30,-4.00e-05,
31,2.80e-04,
32,-4.00e-05,
33,2.80e-04,
34,2.80e-04,
35,-4.00e-05,
36,4.00e-05,
37,2.80e-04,
38,2.80e-04,
39,-1.20e-04,
40,2.80e-04,
41,-4.00e-05,
42,-4.00e-05,
43,3.60e-04,
44,3.60e-04,
45,-4.00e-05,
46,2.80e-04,
47,4.00e-05,
48,4.00e-05,
49,3.60e-04,
50,4.00e-05,
51,2.80e-04,
52,4.00e-05,
53,3.60e-04,
54,-4.00e-05,
55,2.80e-04,
56,3.60e-04,
57,4.00e-05,
58,3.60e-04,
59,-4.00e-05,
60,4.00e-05,
61,2.80e-04,
62,3.60e-04,
63,4.00e-05,
64,2.80e-04,
65,4.00e-05,
66,3.60e-04,
67,-4.00e-05,
68,3.60e-04,
69,4.00e-05,
70,2.80e-04,
71,0.00e+00,
72,2.80e-04,
73,4.00e-05,
74,2.80e-04,
75,-4.00e-05,
76,2.80e-04,
77,0.00e+00,
78,2.80e-04,
79,-4.00e-05,
80,2.80e-04,
81,4.00e-05,
82,4.00e-05,
83,4.40e-04,
84,-1.20e-04,
85,3.60e-04,
86,2.80e-04,
87,-4.00e-05,
88,-4.00e-05,
89,2.80e-04,
90,2.80e-04,
91,4.00e-05,
92,2.80e-04,
93,-4.00e-05,
94,-4.00e-05,
95,3.60e-04,
96,2.80e-04,
97,4.00e-05,
98,3.60e-04,
99,4.00e-05,
100,2.80e-04,
101,4.00e-05,
102,3.60e-04,
103,4.00e-05,
104,2.80e-04,
105,-4.00e-05,
106,2.80e-04,
107,-4.00e-05,
108,4.00e-05,
109,3.60e-04,
110,2.80e-04,
111,-4.00e-05,
112,-2.00e-04,
113,3.60e-04,
114,-4.00e-05,
115,2.80e-04,
116,-4.00e-05,
117,3.20e-04,
118,4.00e-05,
119,3.60e-04,
120,-4.00e-05,
121,2.80e-04,
122,2.80e-04,
123,-4.00e-05,
124,4.00e-05,
125,2.80e-04,
126,-4.00e-05,
127,3.20e-04,
128,3.60e-04,
129,-4.00e-05,
130,2.80e-04,
131,-4.00e-05,
132,3.60e-04,
133,-4.00e-05,
134,-4.00e-05,
135,3.60e-04,
136,2.80e-04,
137,-4.00e-05,
138,3.60e-04,
139,0.00e+00,
140,4.00e-05,
141,3.60e-04,
142,-4.00e-05,
143,3.60e-04,
144,-4.00e-05,
145,2.80e-04,
146,3.60e-04,
147,-4.00e-05,
148,2.80e-04,
149,-4.00e-05,
150,-4.00e-05,
151,2.80e-04,
152,2.80e-04,
153,4.00e-05,
154,4.00e-05,
155,3.60e-04,
156,4.00e-05,
157,2.80e-04,
158,4.00e-05,
159,3.20e-04,
160,-4.00e-05,
161,2.40e-04,
162,-4.00e-05,
163,2.80e-04,
164,2.80e-04,
165,-1.20e-04,
166,2.80e-04,
167,-4.00e-05,
168,3.20e-04,
169,4.00e-05,
170,4.00e-05,
171,2.80e-04,
172,2.80e-04,
173,-1.20e-04,
174,2.80e-04,
175,-4.00e-05,
176,2.80e-04,
177,-4.00e-05,
178,3.60e-04,
179,4.00e-05,
180,4.00e-05,
181,2.80e-04,
182,-4.00e-05,
183,2.80e-04,
184,2.80e-04,
185,-4.00e-05,
186,2.80e-04,
187,-4.00e-05,
188,-4.00e-05,
189,3.20e-04,
190,-4.00e-05,
191,2.80e-04,
192,-4.00e-05,
193,3.60e-04,
194,4.00e-05,
195,3.60e-04,
196,-4.00e-05,
197,2.80e-04,
198,4.00e-05,
199,3.60e-04,
200,-4.00e-05,
201,2.80e-04,
202,2.80e-04,
203,-4.00e-05,
204,3.60e-04,
205,-4.00e-05,
206,2.00e-04,
207,-1.20e-04,
208,-4.00e-05,
209,2.80e-04,
210,2.80e-04,
211,-4.00e-05,
212,-4.00e-05,
213,3.60e-04,
214,3.20e-04,
215,-1.20e-04,
216,3.60e-04,
217,-1.20e-04,
218,-4.00e-05,
219,2.80e-04,
220,-8.00e-05,
221,2.80e-04,
222,2.80e-04,
223,-4.00e-05,
224,-4.00e-05,
225,2.40e-04,
226,4.00e-05,
227,2.80e-04,
228,-1.20e-04,
229,3.60e-04,
230,2.80e-04,
231,-4.00e-05,
232,-4.00e-05,
233,2.80e-04,
234,2.80e-04,
235,-1.20e-04,
236,4.00e-05,
237,2.80e-04,
238,-1.20e-04,
239,3.20e-04,
240,3.60e-04,
241,-4.00e-05,
242,-4.00e-05,
243,2.80e-04,
244,-4.00e-05,
245,2.80e-04,
246,-4.00e-05,
247,3.60e-04,
248,2.80e-04,
249,-1.20e-04,
250,2.80e-04,
251,-4.00e-05,
252,2.40e-04,
253,-1.20e-04,
254,3.60e-04,
255,-4.00e-05,
256,-2.00e-04,
257,2.40e-04,
258,2.80e-04,
259,-4.00e-05,
260,-4.00e-05,
261,2.80e-04,
262,2.80e-04,
263,-1.20e-04,
264,2.80e-04,
265,-1.20e-04,
266,2.80e-04,
267,-1.20e-04,
268,-4.00e-05,
269,2.80e-04,
270,3.60e-04,
271,-1.20e-04,
272,-1.20e-04,
273,2.80e-04,
274,2.40e-04,
275,-1.20e-04,
276,-4.00e-05,
277,3.60e-04,
278,-4.00e-05,
279,2.80e-04,
280,2.80e-04,
281,-1.20e-04,
282,2.80e-04,
283,-4.00e-05,
284,-4.00e-05,
285,2.80e-04,
286,-4.00e-05,
287,2.00e-04,
288,4.00e-05,
289,2.80e-04,
290,2.80e-04,
291,-4.00e-05,
292,2.80e-04,
293,-1.20e-04,
294,2.80e-04,
295,-4.00e-05,
296,4.00e-05,
297,3.60e-04,
298,2.80e-04,
299,-4.00e-05,
300,2.80e-04,
301,-1.20e-04,
302,2.80e-04,
303,-4.00e-05,
304,2.00e-04,
305,-1.20e-04,
306,-4.00e-05,
307,3.20e-04,
308,-1.20e-04,
309,2.80e-04,
310,-4.00e-05,
311,2.80e-04,
312,2.80e-04,
313,-1.20e-04,
314,-4.00e-05,
315,3.60e-04,
316,-4.00e-05,
317,2.80e-04,
318,2.80e-04,
319,-1.20e-04,
320,-1.20e-04,
321,3.60e-04,
322,2.80e-04,
323,-4.00e-05,
324,2.80e-04,
325,-1.20e-04,
326,2.80e-04,
327,-4.00e-05,
328,2.80e-04,
329,-4.00e-05,
330,2.80e-04,
331,-1.20e-04,
332,-4.00e-05,
333,2.80e-04,
334,2.80e-04,
335,-4.00e-05,
336,4.00e-05,
337,3.60e-04,
338,2.80e-04,
339,-1.20e-04,
340,-4.00e-05,
341,2.80e-04,
342,4.00e-05,
343,2.80e-04,
344,-4.00e-05,
345,3.60e-04,
346,3.60e-04,
347,-4.00e-05,
348,-4.00e-05,
349,2.80e-04,
350,-4.00e-05,
351,2.80e-04,
352,2.80e-04,
353,4.00e-05,
354,2.80e-04,
355,-4.00e-05,
356,2.80e-04,
357,-4.00e-05,
358,-4.00e-05,
359,2.00e-04,
360,-4.00e-05,
361,2.80e-04,
362,3.20e-04,
363,-4.00e-05,
364,2.80e-04,
365,-1.20e-04,
366,2.80e-04,
367,-1.20e-04,
368,4.00e-05,
369,2.80e-04,
370,3.60e-04,
371,-4.00e-05,
372,3.60e-04,
373,-4.00e-05,
374,-1.20e-04,
375,2.80e-04,
376,-4.00e-05,
377,3.60e-04,
378,2.00e-04,
379,-1.20e-04,
380,2.40e-04,
381,-4.00e-05,
382,-4.00e-05,
383,2.40e-04,
384,2.00e-04,
385,-1.20e-04,
386,2.00e-04,
387,-4.00e-05,
388,-4.00e-05,
389,2.00e-04,
390,2.80e-04,
391,-4.00e-05,
392,2.80e-04,
393,-4.00e-05,
394,2.80e-04,
395,-4.00e-05,
396,2.00e-04,
397,-1.20e-04,
398,3.60e-04,
399,-4.00e-05,
400,2.80e-04,
401,-4.00e-05,
402,-4.00e-05,
403,2.80e-04,
404,3.60e-04,
405,-4.00e-05,
406,-4.00e-05,
407,2.80e-04,
408,2.80e-04,
409,-4.00e-05,
410,4.00e-05,
411,2.80e-04,
412,2.80e-04,
413,-1.20e-04,
414,2.80e-04,
415,-4.00e-05,
416,2.00e-04,
417,-1.20e-04,
418,-4.00e-05,
419,2.80e-04,
420,2.80e-04,
421,-4.00e-05,
422,-4.00e-05,
423,2.80e-04,
424,2.80e-04,
425,-2.00e-04,
426,4.00e-05,
427,3.60e-04,
428,2.80e-04,
429,-1.20e-04,
430,-4.00e-05,
431,2.80e-04,
432,2.80e-04,
433,-4.00e-05,
434,3.20e-04,
435,-1.20e-04,
436,2.80e-04,
437,-4.00e-05,
438,2.80e-04,
439,-4.00e-05,
440,-4.00e-05,
441,3.60e-04,
442,2.00e-04,
443,-4.00e-05,
444,3.60e-04,
445,-4.00e-05,
446,2.80e-04,
447,-4.00e-05,
448,2.80e-04,
449,-4.00e-05,
450,2.00e-04,
451,-1.20e-04,
452,3.60e-04,
453,-4.00e-05,
454,2.00e-04,
455,-1.20e-04,
456,2.80e-04,
457,-1.20e-04,
458,-4.00e-05,
459,2.80e-04,
460,-4.00e-05,
461,2.40e-04,
462,-4.00e-05,
463,3.60e-04,
464,-4.00e-05,
465,2.40e-04,
466,4.00e-05,
467,2.80e-04,
468,2.80e-04,
469,-4.00e-05,
470,2.80e-04,
471,-1.20e-04,
472,2.80e-04,
473,-4.00e-05,
474,2.80e-04,
475,-4.00e-05,
476,-4.00e-05,
477,2.80e-04,
478,-4.00e-05,
479,2.80e-04,
480,2.00e-04,
481,-4.00e-05,
482,2.80e-04,
483,-1.20e-04,
484,2.00e-04,
485,-1.20e-04,
486,2.80e-04,
487,-1.20e-04,
488,3.60e-04,
489,-4.00e-05,
490,-1.20e-04,
491,2.80e-04,
492,2.80e-04,
493,-4.00e-05,
494,2.80e-04,
495,-4.00e-05,
496,-1.20e-04,
497,3.60e-04,
498,2.80e-04,
499,-1.20e-04,
500,2.80e-04,
501,-4.00e-05,
502,4.00e-05,
503,3.60e-04,
504,-4.00e-05,
505,3.20e-04,
506,2.00e-04,
507,-4.00e-05,
508,4.00e-05,
509,2.80e-04,
510,-4.00e-05,
511,3.60e-04,
512,2.80e-04,
513,-4.00e-05,
514,2.80e-04,
515,-4.00e-05,
516,2.80e-04,
517,-4.00e-05,
518,-4.00e-05,
519,2.80e-04,
520,-4.00e-05,
521,2.80e-04,
522,-4.00e-05,
523,2.80e-04,
524,4.00e-05,
525,3.60e-04,
526,2.80e-04,
527,-1.20e-04,
528,3.60e-04,
529,-4.00e-05,
530,3.60e-04,
531,-1.20e-04,
532,-4.00e-05,
533,2.80e-04,
534,4.00e-05,
535,2.80e-04,
536,2.00e-04,
537,-4.00e-05,
538,-1.20e-04,
539,2.80e-04,
540,2.80e-04,
541,-1.20e-04,
542,3.60e-04,
543,-2.00e-04,
544,3.60e-04,
545,-4.00e-05,
546,2.80e-04,
547,-4.00e-05,
548,2.80e-04,
549,-4.00e-05,
550,2.80e-04,
551,-1.20e-04,
552,2.80e-04,
553,-4.00e-05,
554,4.00e-05,
555,3.60e-04,
556,-4.00e-05,
557,3.20e-04,
558,-4.00e-05,
559,4.40e-04,
560,4.40e-04,
561,-1.20e-04,
562,-1.20e-04,
563,3.60e-04,
564,2.80e-04,
565,-4.00e-05,
566,-4.00e-05,
567,2.00e-04,
568,-4.00e-05,
569,2.40e-04,
570,3.60e-04,
571,-4.00e-05,
572,-4.00e-05,
573,2.80e-04,
574,-4.00e-05,
575,2.80e-04,
576,2.80e-04,
577,-4.00e-05,
578,-4.00e-05,
579,2.80e-04,
580,2.00e-04,
581,-4.00e-05,
582,2.80e-04,
583,-1.20e-04,
584,3.60e-04,
585,-1.20e-04,
586,-4.00e-05,
587,2.40e-04,
588,2.80e-04,
589,-1.20e-04,
590,-4.00e-05,
591,2.80e-04,
592,4.40e-04,
593,-1.20e-04,
594,2.80e-04,
595,-1.20e-04,
596,2.80e-04,
597,-4.00e-05,
598,2.80e-04,
599,4.00e-05,
600,3.60e-04,
601,-2.00e-04,
602,-1.20e-04,
603,2.80e-04,
604,2.80e-04,
605,-4.00e-05,
606,2.40e-04,
607,-1.20e-04,
608,-4.00e-05,
609,3.20e-04,
610,2.40e-04,
611,-4.00e-05,
612,4.00e-05,
613,3.20e-04,
614,2.80e-04,
615,-4.00e-05,
616,2.80e-04,
617,-4.00e-05,
618,2.80e-04,
619,-4.00e-05,
620,2.80e-04,
621,-4.00e-05,
622,-4.00e-05,
623,2.00e-04,
624,-4.00e-05,
625,2.80e-04,
626,3.60e-04,
627,-4.00e-05,
628,3.60e-04,
629,-4.00e-05,
630,3.60e-04,
631,-1.20e-04,
632,2.00e-04,
633,-1.20e-04,
634,2.80e-04,
635,-4.00e-05,
636,-1.20e-04,
637,2.80e-04,
638,2.80e-04,
639,-4.00e-05,
640,2.80e-04,
641,-4.00e-05,
642,-4.00e-05,
643,2.80e-04,
644,-4.00e-05,
645,2.80e-04,
646,2.80e-04,
647,-4.00e-05,
648,2.80e-04,
649,-4.00e-05,
650,-4.00e-05,
651,3.60e-04,
652,2.80e-04,
653,-4.00e-05,
654,4.00e-05,
655,3.20e-04,
656,3.60e-04,
657,4.00e-05,
658,2.80e-04,
659,-4.00e-05,
660,-4.00e-05,
661,2.00e-04,
662,3.60e-04,
663,-4.00e-05,
664,-4.00e-05,
665,3.60e-04,
666,3.60e-04,
667,-4.00e-05,
668,2.80e-04,
669,-1.20e-04,
670,-4.00e-05,
671,2.80e-04,
672,2.80e-04,
673,-4.00e-05,
674,-4.00e-05,
675,2.80e-04,
676,-1.20e-04,
677,2.80e-04,
678,2.80e-04,
679,-1.20e-04,
680,2.80e-04,
681,-4.00e-05,
682,-4.00e-05,
683,2.40e-04,
684,-4.00e-05,
685,2.80e-04,
686,2.80e-04,
687,-4.00e-05,
688,4.00e-05,
689,3.60e-04,
690,3.60e-04,
691,-1.20e-04,
692,2.80e-04,
693,-4.00e-05,
694,-4.00e-05,
695,2.80e-04,
696,-1.20e-04,
697,3.60e-04,
698,3.60e-04,
699,4.00e-05,
700,3.60e-04,
701,-4.00e-05,
702,3.60e-04,
703,-4.00e-05,
704,3.60e-04,
705,-4.00e-05,
706,-4.00e-05,
707,2.80e-04,
708,2.80e-04,
709,-1.20e-04,
710,3.60e-04,
711,-4.00e-05,
712,-4.00e-05,
713,2.80e-04,
714,-4.00e-05,
715,2.40e-04,
716,-4.00e-05,
717,4.40e-04,
718,2.40e-04,
719,-4.00e-05,
720,-1.20e-04,
721,2.40e-04,
722,2.80e-04,
723,-4.00e-05,
724,3.60e-04,
725,-4.00e-05,
726,-4.00e-05,
727,4.40e-04,
728,3.60e-04,
729,-4.00e-05,
730,-4.00e-05,
731,2.80e-04,
732,4.00e-05,
733,3.60e-04,
734,2.80e-04,
735,-4.00e-05,
736,-4.00e-05,
737,2.80e-04,
738,-4.00e-05,
739,2.80e-04,
740,2.80e-04,
741,-1.20e-04,
742,2.80e-04,
743,-1.20e-04,
744,3.60e-04,
745,-4.00e-05,
746,2.80e-04,
747,-4.00e-05,
748,2.00e-04,
749,-1.20e-04,
750,-1.20e-04,
751,2.40e-04,
752,3.60e-04,
753,-4.00e-05,
754,2.80e-04,
755,-1.20e-04,
756,-4.00e-05,
757,3.20e-04,
758,2.80e-04,
759,-4.00e-05,
760,-1.20e-04,
761,2.40e-04,
762,2.80e-04,
763,-4.00e-05,
764,2.80e-04,
765,-4.00e-05,
766,4.00e-05,
767,3.20e-04,
768,-4.00e-05,
769,2.80e-04,
770,2.80e-04,
771,-4.00e-05,
772,-4.00e-05,
773,3.60e-04,
774,2.80e-04,
775,-4.00e-05,
776,2.80e-04,
777,4.00e-05,
778,-1.20e-04,
779,2.80e-04,
780,2.80e-04,
781,-4.00e-05,
782,-4.00e-05,
783,2.80e-04,
784,2.80e-04,
785,-1.20e-04,
786,2.80e-04,
787,-1.20e-04,
788,2.80e-04,
789,-4.00e-05,
790,-4.00e-05,
791,2.80e-04,
792,3.60e-04,
793,-4.00e-05,
794,3.60e-04,
795,-4.00e-05,
796,-4.00e-05,
797,2.80e-04,
798,3.60e-04,
799,-4.00e-05,
800,-4.00e-05,
801,2.40e-04,
802,3.60e-04,
803,-4.00e-05,
804,3.60e-04,
805,4.00e-05,
806,2.80e-04,
807,-1.20e-04,
808,3.60e-04,
809,-4.00e-05,
810,2.80e-04,
811,-4.00e-05,
812,4.00e-05,
813,4.40e-04,
814,2.40e-04,
815,-4.00e-05,
816,4.00e-05,
817,3.20e-04,
818,-4.00e-05,
819,2.80e-04,
820,-4.00e-05,
821,3.60e-04,
822,4.00e-05,
823,2.80e-04,
824,-4.00e-05,
825,3.60e-04,
826,2.80e-04,
827,-4.00e-05,
828,3.60e-04,
829,-4.00e-05,
830,-4.00e-05,
831,2.80e-04,
832,4.00e-05,
833,3.60e-04,
834,3.60e-04,
835,-1.20e-04,
836,4.40e-04,
837,-4.00e-05,
838,-4.00e-05,
839,3.60e-04,
840,2.80e-04,
841,-4.00e-05,
842,4.00e-05,
843,3.60e-04,
844,3.60e-04,
845,-4.00e-05,
846,3.60e-04,
847,-4.00e-05,
848,4.00e-05,
849,2.80e-04,
850,-4.00e-05,
851,2.80e-04,
852,2.80e-04,
853,-4.00e-05,
854,2.80e-04,
855,4.00e-05,
856,2.80e-04,
857,-1.20e-04,
858,-4.00e-05,
859,3.20e-04,
860,-4.00e-05,
861,3.60e-04,
862,2.80e-04,
863,-1.20e-04,
864,-1.20e-04,
865,2.80e-04,
866,2.40e-04,
867,-1.20e-04,
868,3.60e-04,
869,-4.00e-05,
870,2.80e-04,
871,-4.00e-05,
872,2.80e-04,
873,-1.20e-04,
874,4.00e-05,
875,2.80e-04,
876,5.20e-04,
877,-1.20e-04,
878,3.60e-04,
879,-1.20e-04,
880,2.80e-04,
881,-4.00e-05,
882,4.00e-05,
883,2.80e-04,
884,-1.20e-04,
885,2.80e-04,
886,2.80e-04,
887,-4.00e-05,
888,4.00e-05,
889,2.80e-04,
890,4.00e-05,
891,3.60e-04,
892,4.00e-05,
893,2.80e-04,
894,-4.00e-05,
895,3.60e-04,
896,-4.00e-05,
897,3.60e-04,
898,3.60e-04,
899,-4.00e-05,
900,4.00e-05,
901,2.80e-04,
902,-4.00e-05,
903,2.80e-04,
904,-4.00e-05,
905,2.80e-04,
906,2.80e-04,
907,-4.00e-05,
908,4.00e-05,
909,2.80e-04,
910,4.00e-05,
911,3.20e-04,
912,-4.00e-05,
913,2.80e-04,
914,-4.00e-05,
915,2.80e-04,
916,2.00e-04,
917,-1.20e-04,
918,-4.00e-05,
919,2.80e-04,
920,-4.00e-05,
921,3.20e-04,
922,3.60e-04,
923,-1.20e-04,
924,-4.00e-05,
925,2.80e-04,
926,2.80e-04,
927,-1.20e-04,
928,-4.00e-05,
929,2.80e-04,
930,3.60e-04,
931,-4.00e-05,
932,2.80e-04,
933,-1.20e-04,
934,-1.20e-04,
935,2.80e-04,
936,3.60e-04,
937,4.00e-05,
938,2.80e-04,
939,-4.00e-05,
940,2.80e-04,
941,4.00e-05,
942,-4.00e-05,
943,3.60e-04,
944,3.60e-04,
945,-4.00e-05,
946,-4.00e-05,
947,3.60e-04,
948,-4.00e-05,
949,2.80e-04,
950,2.80e-04,
951,-4.00e-05,
952,4.00e-05,
953,3.60e-04,
954,4.00e-05,
955,2.80e-04,
956,4.40e-04,
957,-4.00e-05,
958,4.00e-05,
959,2.80e-04,
960,4.00e-05,
961,2.80e-04,
962,3.60e-04,
963,-1.20e-04,
964,2.80e-04,
965,-4.00e-05,
966,4.00e-05,
967,3.60e-04,
968,2.80e-04,
969,-4.00e-05,
970,4.00e-05,
971,3.60e-04,
972,-1.20e-04,
973,3.60e-04,
974,-1.20e-04,
975,3.60e-04,
976,3.60e-04,
977,-4.00e-05,
978,2.80e-04,
979,-4.00e-05,
980,-1.20e-04,
981,3.60e-04,
982,4.00e-05,
983,3.60e-04,
984,3.60e-04,
985,-4.00e-05,
986,-4.00e-05,
987,3.60e-04,
988,4.00e-05,
989,2.80e-04,
990,-4.00e-05,
991,2.80e-04,
992,-4.00e-05,
993,2.80e-04,
994,3.60e-04,
995,-4.00e-05,
996,2.80e-04,
997,-4.00e-05,
998,-4.00e-05,
999,2.80e-04,
1000,2.80e-04,
1001,4.00e-05,
1002,-4.00e-05,
1003,3.60e-04,
1004,4.00e-05,
1005,2.80e-04,
1006,2.80e-04,
1007,4.00e-05,
1008,2.80e-04,
1009,-4.00e-05,
1010,2.80e-04,
1011,-4.00e-05,
1012,2.80e-04,
1013,4.00e-05,
1014,-4.00e-05,
1015,2.80e-04,
1016,2.80e-04,
1017,-4.00e-05,
1018,4.00e-05,
1019,2.80e-04,
1020,2.80e-04,
1021,-4.00e-05,
1022,-4.00e-05,
1023,2.80e-04,
1024,-4.00e-05,
1025,2.40e-04,
1026,2.80e-04,
1027,-4.00e-05,
1028,-4.00e-05,
1029,2.80e-04,
1030,2.80e-04,
1031,-4.00e-05,
1032,-4.00e-05,
1033,2.80e-04,
1034,2.80e-04,
1035,-1.20e-04,
1036,2.80e-04,
1037,-4.00e-05,
1038,-4.00e-05,
1039,3.60e-04,
1040,-1.20e-04,
1041,2.40e-04,
1042,-4.00e-05,
1043,2.80e-04,
1044,3.60e-04,
1045,-4.00e-05,
1046,2.80e-04,
1047,-1.20e-04,
1048,2.00e-04,
1049,-1.20e-04,
1050,-4.00e-05,
1051,2.40e-04,
1052,2.80e-04,
1053,-4.00e-05,
1054,-4.00e-05,
1055,3.60e-04,
1056,3.60e-04,
1057,-4.00e-05,
1058,4.00e-05,
1059,3.60e-04,
1060,2.80e-04,
1061,-1.20e-04,
1062,-4.00e-05,
1063,2.80e-04,
1064,2.80e-04,
1065,-1.20e-04,
1066,2.80e-04,
1067,-4.00e-05,
1068,4.00e-05,
1069,2.80e-04,
1070,4.40e-04,
1071,-1.20e-04,
1072,3.60e-04,
1073,-4.00e-05,
1074,2.80e-04,
1075,-4.00e-05,
1076,3.60e-04,
1077,4.00e-05,
1078,2.80e-04,
1079,-4.00e-05,
1080,2.80e-04,
1081,-4.00e-05,
1082,-4.00e-05,
1083,3.60e-04,
1084,-4.00e-05,
1085,3.60e-04,
1086,2.80e-04,
1087,-4.00e-05,
1088,-1.20e-04,
1089,2.80e-04,
1090,2.80e-04,
1091,-4.00e-05,
1092,4.00e-05,
1093,2.80e-04,
1094,-4.00e-05,
1095,2.80e-04,
1096,-4.00e-05,
1097,2.80e-04,
1098,3.60e-04,
1099,-4.00e-05,
1100,-4.00e-05,
1101,3.60e-04,
1102,3.60e-04,
1103,4.00e-05,
1104,4.00e-05,
1105,3.60e-04,
1106,2.80e-04,
1107,-4.00e-05,
1108,4.00e-05,
1109,2.40e-04,
1110,2.00e-04,
1111,-1.20e-04,
1112,-4.00e-05,
1113,2.80e-04,
1114,-4.00e-05,
1115,3.20e-04,
1116,2.80e-04,
1117,-4.00e-05,
1118,2.80e-04,
1119,-4.00e-05,
1120,4.00e-05,
1121,2.80e-04,
1122,2.00e-04,
1123,-4.00e-05,
1124,4.00e-05,
1125,2.80e-04,
1126,2.80e-04,
1127,-4.00e-05,
1128,2.80e-04,
1129,-4.00e-05,
1130,3.60e-04,
1131,-4.00e-05,
1132,3.60e-04,
1133,-4.00e-05,
1134,2.80e-04,
1135,-4.00e-05,
1136,-4.00e-05,
1137,2.80e-04,
1138,-4.00e-05,
1139,2.80e-04,
1140,3.20e-04,
1141,4.00e-05,
1142,3.60e-04,
1143,-1.20e-04,
1144,-1.20e-04,
1145,2.80e-04,
1146,2.80e-04,
1147,-4.00e-05,
1148,4.00e-05,
1149,3.60e-04,
1150,3.60e-04,
1151,4.00e-05,
1152,-4.00e-05,
1153,2.80e-04,
1154,4.00e-05,
1155,3.60e-04,
1156,3.60e-04,
1157,-4.00e-05,
1158,3.60e-04,
1159,-1.20e-04,
1160,-4.00e-05,
1161,2.80e-04,
1162,2.40e-04,
1163,-1.20e-04,
1164,-4.00e-05,
1165,2.80e-04,
1166,2.80e-04,
1167,4.00e-05,
1168,-4.00e-05,
1169,3.60e-04,
1170,3.60e-04,
1171,-4.00e-05,
1172,2.80e-04,
1173,-1.20e-04,
1174,2.00e-04,
1175,-4.00e-05,
1176,2.80e-04,
1177,-1.20e-04,
1178,2.80e-04,
1179,-1.20e-04,
1180,2.40e-04,
1181,-1.20e-04,
1182,-1.20e-04,
1183,3.60e-04,
1184,2.80e-04,
1185,-1.20e-04,
1186,-1.20e-04,
1187,2.80e-04,
1188,4.40e-04,
1189,-1.20e-04,
1190,2.80e-04,
1191,-1.20e-04,
1192,-4.00e-05,
1193,2.80e-04,
1194,-1.20e-04,
1195,2.80e-04,
1196,2.80e-04,
1197,-4.00e-05,
1198,2.80e-04,
1199,-4.00e-05,
