fastdiffamp/data-noise-set/unb-left-demod-comp/NewFile5.csv

X,CH1,Start,Increment,
Sequence,Volt,-5.490000e+00,1.000000e-02
0,-2.40e-04,
1,4.00e-05,
2,-2.40e-04,
3,8.00e-05,
4,8.00e-05,
5,-2.40e-04,
6,4.00e-05,
7,-2.40e-04,
8,-3.20e-04,
9,8.00e-05,
10,1.20e-04,
11,-2.40e-04,
12,-2.40e-04,
13,1.60e-04,
14,-2.40e-04,
15,1.20e-04,
16,-2.40e-04,
17,8.00e-05,
18,4.00e-05,
19,-2.40e-04,
20,-1.60e-04,
21,2.40e-04,
22,4.00e-05,
23,-2.40e-04,
24,-2.40e-04,
25,8.00e-05,
26,-1.60e-04,
27,1.20e-04,
28,-2.40e-04,
29,8.00e-05,
30,-1.60e-04,
31,1.20e-04,
32,4.00e-05,
33,-1.60e-04,
34,-2.40e-04,
35,1.60e-04,
36,1.60e-04,
37,-1.60e-04,
38,-1.60e-04,
39,4.00e-05,
40,8.00e-05,
41,-2.40e-04,
42,-2.40e-04,
43,4.00e-05,
44,8.00e-05,
45,-2.80e-04,
46,1.20e-04,
47,-2.40e-04,
48,1.20e-04,
49,-2.40e-04,
50,8.00e-05,
51,-2.40e-04,
52,-3.20e-04,
53,8.00e-05,
54,1.60e-04,
55,-1.60e-04,
56,-2.40e-04,
57,8.00e-05,
58,1.20e-04,
59,-1.60e-04,
60,1.60e-04,
61,-2.40e-04,
62,4.00e-05,
63,-3.20e-04,
64,-2.40e-04,
65,8.00e-05,
66,8.00e-05,
67,-2.40e-04,
68,-1.60e-04,
69,1.20e-04,
70,1.60e-04,
71,-2.40e-04,
72,-2.40e-04,
73,1.20e-04,
74,-2.40e-04,
75,8.00e-05,
76,1.20e-04,
77,-3.20e-04,
78,1.20e-04,
79,-2.40e-04,
80,1.60e-04,
81,-2.40e-04,
82,-2.40e-04,
83,8.00e-05,
84,0.00e+00,
85,-2.40e-04,
86,8.00e-05,
87,-2.40e-04,
88,1.20e-04,
89,-2.40e-04,
90,4.00e-05,
91,-3.20e-04,
92,8.00e-05,
93,-2.40e-04,
94,1.20e-04,
95,-2.40e-04,
96,4.00e-05,
97,-2.40e-04,
98,4.00e-05,
99,-2.40e-04,
100,-2.40e-04,
101,8.00e-05,
102,1.60e-04,
103,-1.60e-04,
104,8.00e-05,
105,-2.40e-04,
106,8.00e-05,
107,-2.40e-04,
108,8.00e-05,
109,-2.40e-04,
110,8.00e-05,
111,-2.40e-04,
112,8.00e-05,
113,-2.40e-04,
114,-2.40e-04,
115,8.00e-05,
116,8.00e-05,
117,-2.40e-04,
118,-2.40e-04,
119,8.00e-05,
120,1.20e-04,
121,-2.40e-04,
122,-1.60e-04,
123,8.00e-05,
124,8.00e-05,
125,-1.60e-04,
126,8.00e-05,
127,-2.40e-04,
128,-3.20e-04,
129,8.00e-05,
130,8.00e-05,
131,-2.40e-04,
132,1.20e-04,
133,-1.60e-04,
134,8.00e-05,
135,-2.40e-04,
136,8.00e-05,
137,-2.40e-04,
138,1.20e-04,
139,-1.60e-04,
140,-2.40e-04,
141,8.00e-05,
142,1.20e-04,
143,-2.40e-04,
144,1.60e-04,
145,-1.60e-04,
146,8.00e-05,
147,-3.20e-04,
148,4.00e-05,
149,-3.20e-04,
150,-2.40e-04,
151,1.60e-04,
152,8.00e-05,
153,-2.40e-04,
154,8.00e-05,
155,-3.20e-04,
156,-2.40e-04,
157,8.00e-05,
158,-1.60e-04,
159,2.00e-04,
160,8.00e-05,
161,-2.40e-04,
162,-2.40e-04,
163,8.00e-05,
164,-3.20e-04,
165,8.00e-05,
166,8.00e-05,
167,-2.40e-04,
168,8.00e-05,
169,-2.40e-04,
170,1.20e-04,
171,-2.40e-04,
172,-2.40e-04,
173,-4.00e-05,
174,8.00e-05,
175,-3.20e-04,
176,1.60e-04,
177,-2.00e-04,
178,-2.40e-04,
179,8.00e-05,
180,1.20e-04,
181,-2.40e-04,
182,8.00e-05,
183,-2.40e-04,
184,1.20e-04,
185,-1.60e-04,
186,8.00e-05,
187,-2.40e-04,
188,8.00e-05,
189,-3.20e-04,
190,8.00e-05,
191,-2.40e-04,
192,-2.40e-04,
193,1.20e-04,
194,1.60e-04,
195,-2.40e-04,
196,1.20e-04,
197,-3.20e-04,
198,-2.40e-04,
199,8.00e-05,
200,1.60e-04,
201,-2.40e-04,
202,-2.40e-04,
203,1.20e-04,
204,-2.40e-04,
205,8.00e-05,
206,-2.40e-04,
207,8.00e-05,
208,-1.60e-04,
209,1.60e-04,
210,1.60e-04,
211,-1.60e-04,
212,-2.40e-04,
213,1.20e-04,
214,-2.40e-04,
215,8.00e-05,
216,-2.40e-04,
217,8.00e-05,
218,-1.60e-04,
219,8.00e-05,
220,-2.40e-04,
221,1.20e-04,
222,-2.40e-04,
223,1.60e-04,
224,-2.40e-04,
225,4.00e-05,
226,-1.60e-04,
227,1.60e-04,
228,-1.60e-04,
229,1.20e-04,
230,-2.40e-04,
231,1.20e-04,
232,-1.60e-04,
233,8.00e-05,
234,2.00e-04,
235,-1.60e-04,
236,-1.60e-04,
237,4.00e-05,
238,8.00e-05,
239,-1.60e-04,
240,-1.60e-04,
241,8.00e-05,
242,-2.40e-04,
243,8.00e-05,
244,-2.40e-04,
245,4.00e-05,
246,-1.60e-04,
247,8.00e-05,
248,-1.60e-04,
249,1.60e-04,
250,-8.00e-05,
251,2.00e-04,
252,-1.60e-04,
253,1.20e-04,
254,-1.60e-04,
255,1.20e-04,
256,-2.40e-04,
257,1.60e-04,
258,-2.40e-04,
259,8.00e-05,
260,1.60e-04,
261,-2.40e-04,
262,-1.60e-04,
263,2.00e-04,
264,-1.60e-04,
265,2.00e-04,
266,8.00e-05,
267,-1.60e-04,
268,1.60e-04,
269,-1.60e-04,
270,-1.60e-04,
271,4.00e-05,
272,-1.60e-04,
273,1.60e-04,
274,1.60e-04,
275,-1.60e-04,
276,1.20e-04,
277,-1.60e-04,
278,4.00e-05,
279,-2.40e-04,
280,-1.60e-04,
281,8.00e-05,
282,-3.20e-04,
283,1.20e-04,
284,1.20e-04,
285,-2.40e-04,
286,1.60e-04,
287,-2.40e-04,
288,8.00e-05,
289,-2.40e-04,
290,-1.60e-04,
291,8.00e-05,
292,8.00e-05,
293,-2.40e-04,
294,1.20e-04,
295,-2.40e-04,
296,-1.60e-04,
297,1.20e-04,
298,1.60e-04,
299,-2.40e-04,
300,8.00e-05,
301,-2.40e-04,
302,-1.60e-04,
303,1.60e-04,
304,8.00e-05,
305,-2.40e-04,
306,1.60e-04,
307,-2.40e-04,
308,-2.40e-04,
309,1.60e-04,
310,8.00e-05,
311,-2.40e-04,
312,-1.60e-04,
313,1.20e-04,
314,-1.60e-04,
315,1.20e-04,
316,8.00e-05,
317,-2.40e-04,
318,1.20e-04,
319,-2.40e-04,
320,8.00e-05,
321,-2.40e-04,
322,1.20e-04,
323,-2.40e-04,
324,-1.60e-04,
325,8.00e-05,
326,-1.60e-04,
327,1.20e-04,
328,-1.60e-04,
329,1.60e-04,
330,8.00e-05,
331,-2.40e-04,
332,-2.40e-04,
333,1.60e-04,
334,-2.40e-04,
335,1.60e-04,
336,-2.40e-04,
337,8.00e-05,
338,0.00e+00,
339,-2.40e-04,
340,8.00e-05,
341,-1.60e-04,
342,-2.40e-04,
343,1.20e-04,
344,-2.40e-04,
345,8.00e-05,
346,-1.60e-04,
347,8.00e-05,
348,8.00e-05,
349,-2.40e-04,
350,-1.60e-04,
351,8.00e-05,
352,-2.40e-04,
353,8.00e-05,
354,1.20e-04,
355,-2.40e-04,
356,4.00e-05,
357,-3.20e-04,
358,8.00e-05,
359,-2.40e-04,
360,1.20e-04,
361,-2.40e-04,
362,-2.40e-04,
363,8.00e-05,
364,8.00e-05,
365,-2.40e-04,
366,-3.20e-04,
367,4.00e-05,
368,1.20e-04,
369,-2.40e-04,
370,1.60e-04,
371,-2.40e-04,
372,-1.60e-04,
373,8.00e-05,
374,-3.20e-04,
375,8.00e-05,
376,4.00e-05,
377,-2.40e-04,
378,4.00e-05,
379,-2.40e-04,
380,-2.40e-04,
381,8.00e-05,
382,8.00e-05,
383,-2.00e-04,
384,8.00e-05,
385,-2.40e-04,
386,-2.40e-04,
387,8.00e-05,
388,-2.40e-04,
389,1.20e-04,
390,8.00e-05,
391,-2.40e-04,
392,-2.40e-04,
393,8.00e-05,
394,4.00e-05,
395,-2.40e-04,
396,8.00e-05,
397,-2.40e-04,
398,0.00e+00,
399,-2.40e-04,
400,-2.40e-04,
401,8.00e-05,
402,-2.40e-04,
403,8.00e-05,
404,-1.60e-04,
405,1.20e-04,
406,-2.40e-04,
407,1.20e-04,
408,-1.60e-04,
409,8.00e-05,
410,-3.20e-04,
411,8.00e-05,
412,4.00e-05,
413,-2.40e-04,
414,-2.00e-04,
415,8.00e-05,
416,-2.40e-04,
417,8.00e-05,
418,-1.60e-04,
419,8.00e-05,
420,-2.40e-04,
421,4.00e-05,
422,-2.40e-04,
423,8.00e-05,
424,-2.40e-04,
425,8.00e-05,
426,8.00e-05,
427,-2.40e-04,
428,-1.60e-04,
429,8.00e-05,
430,-2.40e-04,
431,4.00e-05,
432,4.00e-05,
433,-2.40e-04,
434,8.00e-05,
435,-3.20e-04,
436,-3.20e-04,
437,8.00e-05,
438,2.00e-04,
439,-2.40e-04,
440,-2.40e-04,
441,8.00e-05,
442,-3.20e-04,
443,4.00e-05,
444,-2.40e-04,
445,4.00e-05,
446,8.00e-05,
447,-2.40e-04,
448,-3.20e-04,
449,1.60e-04,
450,1.20e-04,
451,-2.40e-04,
452,-2.40e-04,
453,1.20e-04,
454,-1.60e-04,
455,1.60e-04,
456,8.00e-05,
457,-1.60e-04,
458,-2.40e-04,
459,0.00e+00,
460,1.20e-04,
461,-2.40e-04,
462,8.00e-05,
463,-1.60e-04,
464,4.00e-05,
465,-2.40e-04,
466,-2.40e-04,
467,8.00e-05,
468,8.00e-05,
469,-2.40e-04,
470,-8.00e-05,
471,1.60e-04,
472,-2.40e-04,
473,1.20e-04,
474,8.00e-05,
475,-2.40e-04,
476,1.60e-04,
477,-2.40e-04,
478,8.00e-05,
479,-1.60e-04,
480,1.20e-04,
481,-2.40e-04,
482,-2.40e-04,
483,4.00e-05,
484,1.20e-04,
485,-2.40e-04,
486,4.00e-05,
487,-2.40e-04,
488,-2.40e-04,
489,8.00e-05,
490,-1.60e-04,
491,1.20e-04,
492,-2.40e-04,
493,8.00e-05,
494,8.00e-05,
495,-2.40e-04,
496,4.00e-05,
497,-3.20e-04,
498,8.00e-05,
499,-2.40e-04,
500,1.20e-04,
501,-2.40e-04,
502,8.00e-05,
503,-2.40e-04,
504,1.20e-04,
505,-2.40e-04,
506,8.00e-05,
507,-2.40e-04,
508,-1.60e-04,
509,8.00e-05,
510,8.00e-05,
511,-2.40e-04,
512,-2.40e-04,
513,1.20e-04,
514,-2.40e-04,
515,1.20e-04,
516,-1.60e-04,
517,1.20e-04,
518,8.00e-05,
519,-2.40e-04,
520,8.00e-05,
521,-2.40e-04,
522,0.00e+00,
523,-2.40e-04,
524,-1.60e-04,
525,1.20e-04,
526,8.00e-05,
527,-2.40e-04,
528,8.00e-05,
529,-2.40e-04,
530,-1.60e-04,
531,8.00e-05,
532,8.00e-05,
533,-3.20e-04,
534,-2.40e-04,
535,4.00e-05,
536,-2.40e-04,
537,8.00e-05,
538,8.00e-05,
539,-2.40e-04,
540,8.00e-05,
541,-2.40e-04,
542,1.20e-04,
543,-2.40e-04,
544,-2.40e-04,
545,4.00e-05,
546,-2.40e-04,
547,1.20e-04,
548,4.00e-05,
549,-2.40e-04,
550,-2.40e-04,
551,8.00e-05,
552,8.00e-05,
553,-2.40e-04,
554,8.00e-05,
555,-2.40e-04,
556,-2.40e-04,
557,1.20e-04,
558,-2.40e-04,
559,8.00e-05,
560,-2.40e-04,
561,8.00e-05,
562,-2.40e-04,
563,1.20e-04,
564,-1.60e-04,
565,4.00e-05,
566,8.00e-05,
567,-2.40e-04,
568,1.60e-04,
569,-2.40e-04,
570,0.00e+00,
571,-2.40e-04,
572,1.60e-04,
573,-2.40e-04,
574,8.00e-05,
575,-2.40e-04,
576,-1.60e-04,
577,8.00e-05,
578,4.00e-05,
579,-2.40e-04,
580,-3.20e-04,
581,8.00e-05,
582,8.00e-05,
583,-2.40e-04,
584,-2.40e-04,
585,1.20e-04,
586,1.20e-04,
587,-2.40e-04,
588,-2.40e-04,
589,8.00e-05,
590,8.00e-05,
591,-2.40e-04,
592,-2.40e-04,
593,4.00e-05,
594,-2.40e-04,
595,8.00e-05,
596,-3.20e-04,
597,8.00e-05,
598,-2.40e-04,
599,8.00e-05,
600,-2.40e-04,
601,8.00e-05,
602,-1.60e-04,
603,8.00e-05,
604,-2.40e-04,
605,1.20e-04,
606,-2.40e-04,
607,4.00e-05,
608,8.00e-05,
609,-2.40e-04,
610,-3.20e-04,
611,8.00e-05,
612,8.00e-05,
613,-2.40e-04,
614,4.00e-05,
615,-2.40e-04,
616,-2.40e-04,
617,8.00e-05,
618,1.20e-04,
619,-2.40e-04,
620,8.00e-05,
621,-3.20e-04,
622,-3.20e-04,
623,4.00e-05,
624,0.00e+00,
625,-2.40e-04,
626,-2.40e-04,
627,8.00e-05,
628,8.00e-05,
629,-2.40e-04,
630,4.00e-05,
631,-2.40e-04,
632,-2.40e-04,
633,1.60e-04,
634,4.00e-05,
635,-2.40e-04,
636,8.00e-05,
637,-2.40e-04,
638,8.00e-05,
639,-2.80e-04,
640,-1.60e-04,
641,8.00e-05,
642,1.20e-04,
643,-2.40e-04,
644,-3.20e-04,
645,1.60e-04,
646,8.00e-05,
647,-2.40e-04,
648,-2.40e-04,
649,1.20e-04,
650,-3.20e-04,
651,8.00e-05,
652,1.20e-04,
653,-2.40e-04,
654,-1.60e-04,
655,1.20e-04,
656,-2.40e-04,
657,8.00e-05,
658,-2.40e-04,
659,1.20e-04,
660,8.00e-05,
661,-2.40e-04,
662,8.00e-05,
663,-1.60e-04,
664,-1.60e-04,
665,1.20e-04,
666,-2.40e-04,
667,1.20e-04,
668,1.60e-04,
669,-1.60e-04,
670,1.60e-04,
671,-2.40e-04,
672,4.00e-05,
673,-2.40e-04,
674,-1.60e-04,
675,8.00e-05,
676,-2.40e-04,
677,8.00e-05,
678,-2.40e-04,
679,8.00e-05,
680,1.20e-04,
681,-2.40e-04,
682,-2.40e-04,
683,8.00e-05,
684,8.00e-05,
685,-2.40e-04,
686,8.00e-05,
687,-2.40e-04,
688,1.60e-04,
689,-2.40e-04,
690,1.20e-04,
691,-2.40e-04,
692,1.20e-04,
693,-2.40e-04,
694,-2.40e-04,
695,8.00e-05,
696,-2.40e-04,
697,8.00e-05,
698,-3.20e-04,
699,1.20e-04,
700,-1.60e-04,
701,1.60e-04,
702,1.60e-04,
703,-2.40e-04,
704,8.00e-05,
705,-1.60e-04,
706,4.00e-05,
707,-2.40e-04,
708,4.00e-05,
709,-2.40e-04,
710,-2.40e-04,
711,1.60e-04,
712,-2.40e-04,
713,8.00e-05,
714,1.20e-04,
715,-2.40e-04,
716,8.00e-05,
717,-1.60e-04,
718,-2.40e-04,
719,1.20e-04,
720,-2.40e-04,
721,1.20e-04,
722,8.00e-05,
723,-2.40e-04,
724,-2.40e-04,
725,8.00e-05,
726,-2.40e-04,
727,1.20e-04,
728,-2.40e-04,
729,8.00e-05,
730,-3.20e-04,
731,1.20e-04,
732,8.00e-05,
733,-2.40e-04,
734,-3.20e-04,
735,8.00e-05,
736,4.00e-05,
737,-2.40e-04,
738,-2.40e-04,
739,8.00e-05,
740,-1.60e-04,
741,1.20e-04,
742,-2.40e-04,
743,8.00e-05,
744,-2.40e-04,
745,0.00e+00,
746,2.00e-04,
747,-2.40e-04,
748,4.00e-05,
749,-2.40e-04,
750,-3.20e-04,
751,1.60e-04,
752,8.00e-05,
753,-2.40e-04,
754,8.00e-05,
755,-3.20e-04,
756,-2.40e-04,
757,8.00e-05,
758,-3.20e-04,
759,8.00e-05,
760,0.00e+00,
761,-2.40e-04,
762,-3.20e-04,
763,8.00e-05,
764,-2.40e-04,
765,4.00e-05,
766,-3.20e-04,
767,8.00e-05,
768,8.00e-05,
769,-2.40e-04,
770,-2.40e-04,
771,1.60e-04,
772,1.60e-04,
773,-2.40e-04,
774,-2.40e-04,
775,8.00e-05,
776,0.00e+00,
777,-3.20e-04,
778,-3.20e-04,
779,8.00e-05,
780,4.00e-05,
781,-2.40e-04,
782,-4.00e-04,
783,4.00e-05,
784,-3.20e-04,
785,8.00e-05,
786,0.00e+00,
787,-2.40e-04,
788,-1.60e-04,
789,0.00e+00,
790,-2.40e-04,
791,8.00e-05,
792,1.60e-04,
793,-2.40e-04,
794,1.20e-04,
795,-2.40e-04,
796,1.20e-04,
797,-2.40e-04,
798,-3.20e-04,
799,8.00e-05,
800,4.00e-05,
801,-2.40e-04,
802,8.00e-05,
803,-2.40e-04,
804,-3.20e-04,
805,8.00e-05,
806,8.00e-05,
807,-1.60e-04,
808,-2.00e-04,
809,8.00e-05,
810,4.00e-05,
811,-2.40e-04,
812,8.00e-05,
813,-3.20e-04,
814,-3.20e-04,
815,8.00e-05,
816,-2.40e-04,
817,0.00e+00,
818,-2.40e-04,
819,4.00e-05,
820,-3.20e-04,
821,0.00e+00,
822,8.00e-05,
823,-2.40e-04,
824,-2.40e-04,
825,8.00e-05,
826,-2.40e-04,
827,8.00e-05,
828,-2.40e-04,
829,8.00e-05,
830,8.00e-05,
831,-2.40e-04,
832,-1.60e-04,
833,1.20e-04,
834,-1.60e-04,
835,8.00e-05,
836,-2.40e-04,
837,8.00e-05,
838,-2.40e-04,
839,1.60e-04,
840,4.00e-05,
841,-2.40e-04,
842,1.20e-04,
843,-2.40e-04,
844,-2.40e-04,
845,1.60e-04,
846,-2.40e-04,
847,8.00e-05,
848,-2.40e-04,
849,1.60e-04,
850,1.20e-04,
851,-2.40e-04,
852,4.00e-05,
853,-2.40e-04,
854,-2.80e-04,
855,4.00e-05,
856,-2.40e-04,
857,4.00e-05,
858,8.00e-05,
859,-2.40e-04,
860,-1.60e-04,
861,4.00e-05,
862,4.00e-05,
863,-2.40e-04,
864,-3.20e-04,
865,8.00e-05,
866,8.00e-05,
867,-2.40e-04,
868,8.00e-05,
869,-2.40e-04,
870,-2.40e-04,
871,8.00e-05,
872,-3.20e-04,
873,1.60e-04,
874,8.00e-05,
875,-2.40e-04,
876,-1.60e-04,
877,8.00e-05,
878,-2.40e-04,
879,8.00e-05,
880,-2.40e-04,
881,8.00e-05,
882,-3.20e-04,
883,8.00e-05,
884,-2.40e-04,
885,8.00e-05,
886,-2.40e-04,
887,4.00e-05,
888,8.00e-05,
889,-2.40e-04,
890,4.00e-05,
891,-2.40e-04,
892,1.20e-04,
893,-2.40e-04,
894,-2.40e-04,
895,1.60e-04,
896,8.00e-05,
897,-2.40e-04,
898,-2.40e-04,
899,1.60e-04,
900,-2.40e-04,
901,8.00e-05,
902,-2.40e-04,
903,8.00e-05,
904,-1.60e-04,
905,2.80e-04,
906,0.00e+00,
907,-2.40e-04,
908,8.00e-05,
909,-2.40e-04,
910,-2.40e-04,
911,1.20e-04,
912,8.00e-05,
913,-3.20e-04,
914,8.00e-05,
915,-2.40e-04,
916,-2.40e-04,
917,1.20e-04,
918,-2.40e-04,
919,8.00e-05,
920,4.00e-05,
921,-1.60e-04,
922,-2.40e-04,
923,1.20e-04,
924,-2.40e-04,
925,8.00e-05,
926,-1.60e-04,
927,8.00e-05,
928,-3.20e-04,
929,8.00e-05,
930,-2.40e-04,
931,8.00e-05,
932,8.00e-05,
933,-2.40e-04,
934,-1.60e-04,
935,8.00e-05,
936,1.60e-04,
937,-1.60e-04,
938,1.60e-04,
939,-2.40e-04,
940,8.00e-05,
941,-2.40e-04,
942,-2.40e-04,
943,1.60e-04,
944,-1.60e-04,
945,8.00e-05,
946,1.60e-04,
947,-1.60e-04,
948,4.00e-05,
949,-2.40e-04,
950,8.00e-05,
951,-1.60e-04,
952,-2.40e-04,
953,8.00e-05,
954,-2.40e-04,
955,1.20e-04,
956,8.00e-05,
957,-2.40e-04,
958,-2.40e-04,
959,1.20e-04,
960,-2.40e-04,
961,8.00e-05,
962,-1.60e-04,
963,8.00e-05,
964,8.00e-05,
965,-2.40e-04,
966,4.00e-05,
967,-2.40e-04,
968,8.00e-05,
969,-2.40e-04,
970,1.20e-04,
971,-2.40e-04,
972,8.00e-05,
973,-2.40e-04,
974,1.20e-04,
975,-1.60e-04,
976,-1.60e-04,
977,8.00e-05,
978,-1.60e-04,
979,8.00e-05,
980,-1.60e-04,
981,1.20e-04,
982,-2.40e-04,
983,8.00e-05,
984,1.60e-04,
985,-2.40e-04,
986,1.20e-04,
987,-1.60e-04,
988,4.00e-05,
989,-2.40e-04,
990,-3.20e-04,
991,4.00e-05,
992,-3.20e-04,
993,8.00e-05,
994,1.60e-04,
995,-2.40e-04,
996,-1.60e-04,
997,8.00e-05,
998,8.00e-05,
999,-2.40e-04,
1000,-2.40e-04,
1001,8.00e-05,
1002,-2.40e-04,
1003,8.00e-05,
1004,1.20e-04,
1005,-1.60e-04,
1006,-1.60e-04,
1007,1.20e-04,
1008,-2.40e-04,
1009,8.00e-05,
1010,8.00e-05,
1011,-2.40e-04,
1012,-1.60e-04,
1013,1.20e-04,
1014,-2.40e-04,
1015,1.20e-04,
1016,-2.40e-04,
1017,8.00e-05,
1018,-2.40e-04,
1019,8.00e-05,
1020,-3.20e-04,
1021,4.00e-05,
1022,-1.60e-04,
1023,4.00e-05,
1024,-2.40e-04,
1025,4.00e-05,
1026,-2.40e-04,
1027,1.20e-04,
1028,-2.40e-04,
1029,1.20e-04,
1030,-3.20e-04,
1031,8.00e-05,
1032,4.00e-05,
1033,-2.40e-04,
1034,1.20e-04,
1035,-2.40e-04,
1036,-2.40e-04,
1037,4.00e-05,
1038,-2.40e-04,
1039,8.00e-05,
1040,4.00e-05,
1041,-3.20e-04,
1042,-1.60e-04,
1043,8.00e-05,
1044,-1.60e-04,
1045,8.00e-05,
1046,-1.60e-04,
1047,1.20e-04,
1048,8.00e-05,
1049,-2.40e-04,
1050,-2.40e-04,
1051,8.00e-05,
1052,8.00e-05,
1053,-2.40e-04,
1054,-2.40e-04,
1055,4.00e-05,
1056,-2.40e-04,
1057,8.00e-05,
1058,-2.40e-04,
1059,8.00e-05,
1060,-2.40e-04,
1061,1.60e-04,
1062,8.00e-05,
1063,-3.20e-04,
1064,8.00e-05,
1065,-2.40e-04,
1066,-2.40e-04,
1067,4.00e-05,
1068,-2.40e-04,
1069,8.00e-05,
1070,-2.40e-04,
1071,1.20e-04,
1072,-2.40e-04,
1073,1.60e-04,
1074,-2.40e-04,
1075,8.00e-05,
1076,8.00e-05,
1077,-2.40e-04,
1078,8.00e-05,
1079,-1.60e-04,
1080,-1.60e-04,
1081,1.60e-04,
1082,8.00e-05,
1083,-2.40e-04,
1084,-2.40e-04,
1085,1.20e-04,
1086,-2.40e-04,
1087,1.20e-04,
1088,-2.40e-04,
1089,1.60e-04,
1090,-2.40e-04,
1091,1.60e-04,
1092,4.00e-05,
1093,-2.40e-04,
1094,-2.40e-04,
1095,8.00e-05,
1096,-2.40e-04,
1097,4.00e-05,
1098,-3.20e-04,
1099,1.20e-04,
1100,0.00e+00,
1101,-3.20e-04,
1102,4.00e-05,
1103,-2.40e-04,
1104,1.60e-04,
1105,-3.60e-04,
1106,-2.40e-04,
1107,0.00e+00,
1108,-2.40e-04,
1109,1.20e-04,
1110,8.00e-05,
1111,-2.40e-04,
1112,1.20e-04,
1113,-2.40e-04,
1114,-2.40e-04,
1115,4.00e-05,
1116,4.00e-05,
1117,-1.60e-04,
1118,8.00e-05,
1119,-2.40e-04,
1120,-3.20e-04,
1121,8.00e-05,
1122,-2.40e-04,
1123,4.00e-05,
1124,4.00e-05,
1125,-3.20e-04,
1126,-2.40e-04,
1127,4.00e-05,
1128,-1.60e-04,
1129,8.00e-05,
1130,-2.40e-04,
1131,8.00e-05,
1132,-2.40e-04,
1133,8.00e-05,
1134,0.00e+00,
1135,-2.40e-04,
1136,8.00e-05,
1137,-2.40e-04,
1138,-1.60e-04,
1139,1.60e-04,
1140,-3.20e-04,
1141,8.00e-05,
1142,8.00e-05,
1143,-2.40e-04,
1144,-2.40e-04,
1145,1.20e-04,
1146,-2.40e-04,
1147,8.00e-05,
1148,8.00e-05,
1149,-2.40e-04,
1150,-2.40e-04,
1151,8.00e-05,
1152,4.00e-05,
1153,-2.40e-04,
1154,-2.40e-04,
1155,4.00e-05,
1156,-1.60e-04,
1157,1.20e-04,
1158,1.60e-04,
1159,-2.40e-04,
1160,-2.40e-04,
1161,8.00e-05,
1162,-1.60e-04,
1163,8.00e-05,
1164,-2.40e-04,
1165,8.00e-05,
1166,1.20e-04,
1167,-2.40e-04,
1168,-2.40e-04,
1169,2.00e-04,
1170,-3.20e-04,
1171,8.00e-05,
1172,-1.60e-04,
1173,1.20e-04,
1174,-1.60e-04,
1175,2.40e-04,
1176,-1.60e-04,
1177,8.00e-05,
1178,-2.40e-04,
1179,8.00e-05,
1180,-2.40e-04,
1181,2.00e-04,
1182,-1.60e-04,
1183,1.20e-04,
1184,-1.60e-04,
1185,8.00e-05,
1186,-2.40e-04,
1187,8.00e-05,
1188,-1.60e-04,
1189,1.20e-04,
1190,-3.20e-04,
1191,1.20e-04,
1192,8.00e-05,
1193,-1.60e-04,
1194,-1.60e-04,
1195,8.00e-05,
1196,-1.60e-04,
1197,1.20e-04,
1198,-1.60e-04,
1199,8.00e-05,
