fastdiffamp/data-noise-set/unb-right-demod/NewFile14.csv

X,CH1,Start,Increment,
Sequence,Volt,-5.490000e+00,1.000000e-02
0,-8.00e-05,
1,2.80e-04,
2,-2.40e-04,
3,3.20e-04,
4,2.40e-04,
5,-1.60e-04,
6,2.40e-04,
7,-8.00e-05,
8,-1.60e-04,
9,2.40e-04,
10,2.40e-04,
11,-1.60e-04,
12,-1.60e-04,
13,2.00e-04,
14,-8.00e-05,
15,2.80e-04,
16,-8.00e-05,
17,2.40e-04,
18,1.60e-04,
19,-8.00e-05,
20,-8.00e-05,
21,1.60e-04,
22,-1.60e-04,
23,2.40e-04,
24,-8.00e-05,
25,2.40e-04,
26,-8.00e-05,
27,3.20e-04,
28,2.40e-04,
29,-8.00e-05,
30,-1.60e-04,
31,2.00e-04,
32,3.20e-04,
33,-8.00e-05,
34,-8.00e-05,
35,2.40e-04,
36,-8.00e-05,
37,2.40e-04,
38,1.60e-04,
39,-8.00e-05,
40,-1.60e-04,
41,2.80e-04,
42,-8.00e-05,
43,2.80e-04,
44,2.40e-04,
45,-8.00e-05,
46,2.40e-04,
47,-8.00e-05,
48,-8.00e-05,
49,2.40e-04,
50,2.80e-04,
51,-1.60e-04,
52,-8.00e-05,
53,3.20e-04,
54,2.40e-04,
55,-8.00e-05,
56,2.40e-04,
57,-8.00e-05,
58,-1.60e-04,
59,2.40e-04,
60,-8.00e-05,
61,3.20e-04,
62,-8.00e-05,
63,2.40e-04,
64,2.80e-04,
65,-8.00e-05,
66,3.20e-04,
67,-8.00e-05,
68,2.80e-04,
69,-8.00e-05,
70,-8.00e-05,
71,4.00e-04,
72,2.40e-04,
73,-8.00e-05,
74,-8.00e-05,
75,2.00e-04,
76,-8.00e-05,
77,4.00e-04,
78,-8.00e-05,
79,2.40e-04,
80,-8.00e-05,
81,3.20e-04,
82,-8.00e-05,
83,2.80e-04,
84,-8.00e-05,
85,2.40e-04,
86,2.40e-04,
87,-8.00e-05,
88,-8.00e-05,
89,3.20e-04,
90,2.40e-04,
91,-1.60e-04,
92,2.40e-04,
93,-1.60e-04,
94,-8.00e-05,
95,2.40e-04,
96,2.40e-04,
97,-1.60e-04,
98,2.40e-04,
99,-1.60e-04,
100,-8.00e-05,
101,2.40e-04,
102,-8.00e-05,
103,3.20e-04,
104,-8.00e-05,
105,2.40e-04,
106,-8.00e-05,
107,2.80e-04,
108,-8.00e-05,
109,2.40e-04,
110,3.20e-04,
111,-8.00e-05,
112,2.40e-04,
113,-8.00e-05,
114,2.40e-04,
115,-8.00e-05,
116,-1.60e-04,
117,3.20e-04,
118,-8.00e-05,
119,4.00e-04,
120,-8.00e-05,
121,3.20e-04,
122,3.20e-04,
123,-8.00e-05,
124,-1.60e-04,
125,2.40e-04,
126,-8.00e-05,
127,2.40e-04,
128,2.40e-04,
129,-8.00e-05,
130,2.40e-04,
131,-8.00e-05,
132,0.00e+00,
133,2.40e-04,
134,2.40e-04,
135,-8.00e-05,
136,-1.60e-04,
137,2.40e-04,
138,-8.00e-05,
139,1.60e-04,
140,2.40e-04,
141,-8.00e-05,
142,3.20e-04,
143,-1.60e-04,
144,2.40e-04,
145,-1.60e-04,
146,-8.00e-05,
147,2.80e-04,
148,-8.00e-05,
149,2.40e-04,
150,2.80e-04,
151,-8.00e-05,
152,2.40e-04,
153,-8.00e-05,
154,2.40e-04,
155,-1.60e-04,
156,-8.00e-05,
157,2.40e-04,
158,-8.00e-05,
159,2.40e-04,
160,-1.60e-04,
161,2.00e-04,
162,2.40e-04,
163,-8.00e-05,
164,3.20e-04,
165,-8.00e-05,
166,0.00e+00,
167,3.20e-04,
168,3.20e-04,
169,-8.00e-05,
170,2.40e-04,
171,-8.00e-05,
172,-8.00e-05,
173,2.40e-04,
174,3.20e-04,
175,-8.00e-05,
176,-8.00e-05,
177,2.80e-04,
178,2.40e-04,
179,-8.00e-05,
180,0.00e+00,
181,2.40e-04,
182,0.00e+00,
183,3.20e-04,
184,2.80e-04,
185,-8.00e-05,
186,3.20e-04,
187,-8.00e-05,
188,-8.00e-05,
189,3.20e-04,
190,-8.00e-05,
191,3.20e-04,
192,2.40e-04,
193,-8.00e-05,
194,3.20e-04,
195,-8.00e-05,
196,-1.60e-04,
197,1.60e-04,
198,2.80e-04,
199,-8.00e-05,
200,-8.00e-05,
201,2.40e-04,
202,2.40e-04,
203,-8.00e-05,
204,-8.00e-05,
205,2.00e-04,
206,-1.60e-04,
207,2.00e-04,
208,-8.00e-05,
209,3.20e-04,
210,0.00e+00,
211,2.40e-04,
212,0.00e+00,
213,2.40e-04,
214,2.40e-04,
215,-8.00e-05,
216,-1.60e-04,
217,3.20e-04,
218,3.20e-04,
219,0.00e+00,
220,-8.00e-05,
221,2.40e-04,
222,2.80e-04,
223,-8.00e-05,
224,-8.00e-05,
225,2.00e-04,
226,-8.00e-05,
227,2.80e-04,
228,2.80e-04,
229,0.00e+00,
230,2.40e-04,
231,-1.20e-04,
232,2.40e-04,
233,-8.00e-05,
234,-8.00e-05,
235,2.40e-04,
236,2.40e-04,
237,-1.60e-04,
238,-8.00e-05,
239,3.20e-04,
240,3.60e-04,
241,0.00e+00,
242,-8.00e-05,
243,2.40e-04,
244,-8.00e-05,
245,2.80e-04,
246,2.40e-04,
247,-8.00e-05,
248,-8.00e-05,
249,2.00e-04,
250,-8.00e-05,
251,3.20e-04,
252,2.40e-04,
253,-8.00e-05,
254,2.40e-04,
255,0.00e+00,
256,-8.00e-05,
257,3.20e-04,
258,2.40e-04,
259,-8.00e-05,
260,-1.60e-04,
261,2.40e-04,
262,-1.60e-04,
263,2.40e-04,
264,-8.00e-05,
265,3.20e-04,
266,2.40e-04,
267,-2.40e-04,
268,2.40e-04,
269,-1.60e-04,
270,-8.00e-05,
271,2.40e-04,
272,2.00e-04,
273,-1.60e-04,
274,-8.00e-05,
275,2.40e-04,
276,-8.00e-05,
277,1.60e-04,
278,2.40e-04,
279,-8.00e-05,
280,-8.00e-05,
281,1.60e-04,
282,-8.00e-05,
283,2.40e-04,
284,0.00e+00,
285,3.20e-04,
286,2.40e-04,
287,-1.60e-04,
288,2.40e-04,
289,-8.00e-05,
290,-8.00e-05,
291,3.20e-04,
292,-1.60e-04,
293,3.20e-04,
294,3.20e-04,
295,-8.00e-05,
296,1.60e-04,
297,-1.60e-04,
298,2.40e-04,
299,-2.40e-04,
300,-8.00e-05,
301,2.80e-04,
302,-1.60e-04,
303,2.40e-04,
304,-1.60e-04,
305,2.40e-04,
306,2.80e-04,
307,-1.60e-04,
308,2.40e-04,
309,-1.60e-04,
310,3.20e-04,
311,-8.00e-05,
312,-8.00e-05,
313,3.20e-04,
314,3.20e-04,
315,0.00e+00,
316,-8.00e-05,
317,2.00e-04,
318,0.00e+00,
319,2.40e-04,
320,-8.00e-05,
321,2.40e-04,
322,-8.00e-05,
323,2.40e-04,
324,-8.00e-05,
325,2.00e-04,
326,1.60e-04,
327,-1.60e-04,
328,-8.00e-05,
329,2.40e-04,
330,-8.00e-05,
331,3.20e-04,
332,-1.60e-04,
333,3.20e-04,
334,-8.00e-05,
335,2.80e-04,
336,2.40e-04,
337,-1.60e-04,
338,2.40e-04,
339,-8.00e-05,
340,2.40e-04,
341,-8.00e-05,
342,2.80e-04,
343,-8.00e-05,
344,2.40e-04,
345,-1.60e-04,
346,2.40e-04,
347,-8.00e-05,
348,-8.00e-05,
349,2.40e-04,
350,-1.60e-04,
351,3.20e-04,
352,0.00e+00,
353,2.40e-04,
354,-8.00e-05,
355,3.20e-04,
356,2.40e-04,
357,-8.00e-05,
358,2.80e-04,
359,-8.00e-05,
360,-8.00e-05,
361,2.40e-04,
362,-8.00e-05,
363,2.40e-04,
364,0.00e+00,
365,3.20e-04,
366,-8.00e-05,
367,3.20e-04,
368,2.40e-04,
369,-8.00e-05,
370,-1.60e-04,
371,2.40e-04,
372,2.40e-04,
373,-8.00e-05,
374,3.20e-04,
375,0.00e+00,
376,2.40e-04,
377,-8.00e-05,
378,2.40e-04,
379,-1.60e-04,
380,2.80e-04,
381,0.00e+00,
382,2.80e-04,
383,-8.00e-05,
384,2.40e-04,
385,-8.00e-05,
386,2.40e-04,
387,-8.00e-05,
388,-8.00e-05,
389,2.40e-04,
390,-8.00e-05,
391,3.20e-04,
392,3.20e-04,
393,-8.00e-05,
394,-8.00e-05,
395,2.40e-04,
396,1.60e-04,
397,-8.00e-05,
398,2.40e-04,
399,-8.00e-05,
400,-8.00e-05,
401,2.40e-04,
402,-8.00e-05,
403,2.40e-04,
404,-8.00e-05,
405,2.40e-04,
406,0.00e+00,
407,3.20e-04,
408,2.40e-04,
409,-8.00e-05,
410,-8.00e-05,
411,2.40e-04,
412,0.00e+00,
413,3.20e-04,
414,-8.00e-05,
415,2.40e-04,
416,0.00e+00,
417,2.80e-04,
418,-8.00e-05,
419,2.40e-04,
420,0.00e+00,
421,3.20e-04,
422,2.40e-04,
423,-8.00e-05,
424,-8.00e-05,
425,2.40e-04,
426,2.40e-04,
427,-8.00e-05,
428,-8.00e-05,
429,2.80e-04,
430,2.40e-04,
431,-8.00e-05,
432,2.40e-04,
433,-1.60e-04,
434,-1.60e-04,
435,2.40e-04,
436,-8.00e-05,
437,2.40e-04,
438,-8.00e-05,
439,3.20e-04,
440,2.40e-04,
441,-1.60e-04,
442,-1.60e-04,
443,2.80e-04,
444,2.80e-04,
445,-1.60e-04,
446,0.00e+00,
447,2.40e-04,
448,2.40e-04,
449,-8.00e-05,
450,-1.60e-04,
451,2.00e-04,
452,-8.00e-05,
453,2.40e-04,
454,-8.00e-05,
455,3.20e-04,
456,-8.00e-05,
457,2.40e-04,
458,-1.60e-04,
459,2.40e-04,
460,2.40e-04,
461,-1.60e-04,
462,-8.00e-05,
463,2.40e-04,
464,-1.60e-04,
465,2.40e-04,
466,-8.00e-05,
467,2.40e-04,
468,3.20e-04,
469,-8.00e-05,
470,2.40e-04,
471,-8.00e-05,
472,-8.00e-05,
473,3.20e-04,
474,2.40e-04,
475,-8.00e-05,
476,-8.00e-05,
477,2.40e-04,
478,0.00e+00,
479,2.40e-04,
480,-8.00e-05,
481,2.80e-04,
482,3.20e-04,
483,-8.00e-05,
484,-8.00e-05,
485,2.40e-04,
486,2.40e-04,
487,-8.00e-05,
488,2.40e-04,
489,-1.60e-04,
490,-8.00e-05,
491,2.40e-04,
492,-8.00e-05,
493,2.40e-04,
494,-8.00e-05,
495,2.00e-04,
496,-8.00e-05,
497,2.40e-04,
498,2.40e-04,
499,-8.00e-05,
500,2.00e-04,
501,-1.60e-04,
502,2.00e-04,
503,-1.60e-04,
504,2.40e-04,
505,-8.00e-05,
506,-1.60e-04,
507,2.40e-04,
508,-8.00e-05,
509,2.40e-04,
510,-8.00e-05,
511,2.40e-04,
512,3.20e-04,
513,-8.00e-05,
514,-8.00e-05,
515,2.40e-04,
516,2.40e-04,
517,-8.00e-05,
518,0.00e+00,
519,2.40e-04,
520,-2.40e-04,
521,2.40e-04,
522,2.40e-04,
523,-8.00e-05,
524,2.40e-04,
525,-1.60e-04,
526,-8.00e-05,
527,2.40e-04,
528,2.40e-04,
529,-8.00e-05,
530,3.20e-04,
531,-8.00e-05,
532,-8.00e-05,
533,2.40e-04,
534,-8.00e-05,
535,2.40e-04,
536,1.60e-04,
537,-1.60e-04,
538,3.20e-04,
539,-8.00e-05,
540,2.40e-04,
541,-8.00e-05,
542,2.40e-04,
543,-8.00e-05,
544,3.20e-04,
545,-8.00e-05,
546,3.20e-04,
547,-1.60e-04,
548,2.40e-04,
549,-1.60e-04,
550,2.40e-04,
551,-8.00e-05,
552,2.40e-04,
553,-8.00e-05,
554,0.00e+00,
555,2.40e-04,
556,-8.00e-05,
557,2.40e-04,
558,2.40e-04,
559,-8.00e-05,
560,-8.00e-05,
561,3.20e-04,
562,2.80e-04,
563,0.00e+00,
564,0.00e+00,
565,3.20e-04,
566,-8.00e-05,
567,2.40e-04,
568,2.40e-04,
569,-4.00e-05,
570,0.00e+00,
571,3.20e-04,
572,2.00e-04,
573,-8.00e-05,
574,0.00e+00,
575,2.80e-04,
576,3.20e-04,
577,0.00e+00,
578,-1.60e-04,
579,2.80e-04,
580,-1.60e-04,
581,2.40e-04,
582,-8.00e-05,
583,3.20e-04,
584,-8.00e-05,
585,3.20e-04,
586,2.80e-04,
587,-1.60e-04,
588,2.40e-04,
589,-8.00e-05,
590,2.40e-04,
591,-1.60e-04,
592,2.40e-04,
593,-8.00e-05,
594,2.40e-04,
595,-1.60e-04,
596,-8.00e-05,
597,2.40e-04,
598,-8.00e-05,
599,2.40e-04,
600,3.20e-04,
601,-8.00e-05,
602,2.40e-04,
603,-8.00e-05,
604,2.00e-04,
605,-1.60e-04,
606,-1.60e-04,
607,2.40e-04,
608,-8.00e-05,
609,2.40e-04,
610,-8.00e-05,
611,2.00e-04,
612,1.60e-04,
613,-8.00e-05,
614,-8.00e-05,
615,2.40e-04,
616,-1.60e-04,
617,3.20e-04,
618,-8.00e-05,
619,3.20e-04,
620,3.20e-04,
621,-8.00e-05,
622,2.40e-04,
623,-8.00e-05,
624,-1.60e-04,
625,3.20e-04,
626,2.80e-04,
627,-8.00e-05,
628,0.00e+00,
629,2.40e-04,
630,3.20e-04,
631,-1.60e-04,
632,-8.00e-05,
633,2.40e-04,
634,-8.00e-05,
635,2.40e-04,
636,2.40e-04,
637,-1.60e-04,
638,-2.40e-04,
639,2.80e-04,
640,-8.00e-05,
641,2.40e-04,
642,-8.00e-05,
643,2.40e-04,
644,0.00e+00,
645,3.20e-04,
646,2.40e-04,
647,-8.00e-05,
648,-1.60e-04,
649,2.40e-04,
650,-8.00e-05,
651,3.20e-04,
652,4.00e-04,
653,-8.00e-05,
654,-8.00e-05,
655,2.40e-04,
656,3.20e-04,
657,-8.00e-05,
658,1.60e-04,
659,-1.60e-04,
660,-1.60e-04,
661,4.00e-04,
662,-1.60e-04,
663,2.00e-04,
664,-1.60e-04,
665,2.40e-04,
666,2.40e-04,
667,-1.60e-04,
668,-1.60e-04,
669,2.40e-04,
670,2.40e-04,
671,-1.60e-04,
672,3.20e-04,
673,-1.60e-04,
674,-1.60e-04,
675,3.20e-04,
676,2.40e-04,
677,-1.60e-04,
678,-8.00e-05,
679,2.40e-04,
680,-8.00e-05,
681,3.20e-04,
682,2.40e-04,
683,-8.00e-05,
684,2.40e-04,
685,-8.00e-05,
686,1.60e-04,
687,-1.60e-04,
688,3.20e-04,
689,-8.00e-05,
690,-8.00e-05,
691,2.40e-04,
692,2.40e-04,
693,-1.60e-04,
694,-1.60e-04,
695,3.20e-04,
696,-1.60e-04,
697,2.80e-04,
698,-1.60e-04,
699,2.00e-04,
700,1.60e-04,
701,-1.60e-04,
702,-8.00e-05,
703,2.40e-04,
704,-8.00e-05,
705,2.40e-04,
706,-8.00e-05,
707,2.40e-04,
708,2.80e-04,
709,-8.00e-05,
710,2.80e-04,
711,-8.00e-05,
712,2.40e-04,
713,-8.00e-05,
714,-8.00e-05,
715,2.80e-04,
716,2.40e-04,
717,-8.00e-05,
718,2.40e-04,
719,-1.60e-04,
720,-8.00e-05,
721,2.80e-04,
722,-8.00e-05,
723,2.40e-04,
724,-8.00e-05,
725,2.40e-04,
726,-8.00e-05,
727,2.40e-04,
728,2.40e-04,
729,-1.60e-04,
730,-8.00e-05,
731,2.80e-04,
732,2.40e-04,
733,-1.60e-04,
734,2.40e-04,
735,-1.60e-04,
736,2.40e-04,
737,-8.00e-05,
738,-8.00e-05,
739,2.40e-04,
740,2.40e-04,
741,-8.00e-05,
742,2.40e-04,
743,-1.60e-04,
744,2.40e-04,
745,-8.00e-05,
746,-8.00e-05,
747,2.40e-04,
748,2.40e-04,
749,-8.00e-05,
750,-8.00e-05,
751,3.20e-04,
752,-8.00e-05,
753,2.40e-04,
754,-8.00e-05,
755,3.20e-04,
756,3.20e-04,
757,-1.60e-04,
758,-8.00e-05,
759,2.40e-04,
760,-8.00e-05,
761,2.40e-04,
762,2.40e-04,
763,-8.00e-05,
764,-8.00e-05,
765,2.40e-04,
766,1.60e-04,
767,-1.60e-04,
768,-1.60e-04,
769,2.00e-04,
770,-8.00e-05,
771,2.40e-04,
772,1.60e-04,
773,-1.60e-04,
774,2.40e-04,
775,-8.00e-05,
776,3.20e-04,
777,-1.60e-04,
778,2.40e-04,
779,-8.00e-05,
780,-8.00e-05,
781,2.40e-04,
782,1.60e-04,
783,-1.60e-04,
784,-1.60e-04,
785,3.20e-04,
786,-1.60e-04,
787,2.40e-04,
788,1.60e-04,
789,-1.60e-04,
790,3.20e-04,
791,0.00e+00,
792,-8.00e-05,
793,2.80e-04,
794,-8.00e-05,
795,2.40e-04,
796,2.40e-04,
797,-1.60e-04,
798,2.40e-04,
799,-1.60e-04,
800,2.00e-04,
801,-1.60e-04,
802,1.60e-04,
803,-8.00e-05,
804,2.40e-04,
805,-8.00e-05,
806,2.40e-04,
807,-8.00e-05,
808,-8.00e-05,
809,2.40e-04,
810,0.00e+00,
811,3.20e-04,
812,2.40e-04,
813,-8.00e-05,
814,-8.00e-05,
815,2.40e-04,
816,3.20e-04,
817,-8.00e-05,
818,2.40e-04,
819,-8.00e-05,
820,-8.00e-05,
821,2.00e-04,
822,1.60e-04,
823,-2.40e-04,
824,-8.00e-05,
825,2.40e-04,
826,3.20e-04,
827,-8.00e-05,
828,-8.00e-05,
829,2.40e-04,
830,2.40e-04,
831,-8.00e-05,
832,-1.60e-04,
833,2.40e-04,
834,2.40e-04,
835,-1.60e-04,
836,-1.60e-04,
837,2.40e-04,
838,-1.60e-04,
839,2.40e-04,
840,-8.00e-05,
841,2.00e-04,
842,-8.00e-05,
843,2.00e-04,
844,1.60e-04,
845,-1.60e-04,
846,-8.00e-05,
847,2.40e-04,
848,-8.00e-05,
849,3.20e-04,
850,2.40e-04,
851,-1.60e-04,
852,-1.60e-04,
853,1.60e-04,
854,-1.60e-04,
855,2.00e-04,
856,-8.00e-05,
857,2.00e-04,
858,-8.00e-05,
859,3.20e-04,
860,-8.00e-05,
861,2.40e-04,
862,-1.60e-04,
863,2.00e-04,
864,3.20e-04,
865,-8.00e-05,
866,-8.00e-05,
867,3.20e-04,
868,0.00e+00,
869,2.80e-04,
870,-1.60e-04,
871,2.40e-04,
872,3.20e-04,
873,-1.60e-04,
874,2.40e-04,
875,-8.00e-05,
876,-8.00e-05,
877,2.00e-04,
878,1.60e-04,
879,-1.60e-04,
880,2.40e-04,
881,-1.60e-04,
882,3.20e-04,
883,-1.60e-04,
884,1.60e-04,
885,-2.40e-04,
886,-1.60e-04,
887,2.40e-04,
888,-1.60e-04,
889,2.40e-04,
890,2.40e-04,
891,-8.00e-05,
892,0.00e+00,
893,2.40e-04,
894,-8.00e-05,
895,2.80e-04,
896,-8.00e-05,
897,2.40e-04,
898,1.60e-04,
899,-8.00e-05,
900,2.40e-04,
901,-1.60e-04,
902,3.20e-04,
903,-8.00e-05,
904,2.40e-04,
905,-1.60e-04,
906,2.00e-04,
907,-8.00e-05,
908,-1.60e-04,
909,2.40e-04,
910,3.20e-04,
911,-8.00e-05,
912,2.40e-04,
913,-1.60e-04,
914,-8.00e-05,
915,2.40e-04,
916,-1.60e-04,
917,2.00e-04,
918,2.40e-04,
919,-2.40e-04,
920,2.00e-04,
921,-8.00e-05,
922,3.20e-04,
923,-8.00e-05,
924,2.40e-04,
925,-1.60e-04,
926,-1.60e-04,
927,2.40e-04,
928,2.40e-04,
929,0.00e+00,
930,-8.00e-05,
931,2.80e-04,
932,-8.00e-05,
933,2.00e-04,
934,-8.00e-05,
935,2.40e-04,
936,2.80e-04,
937,-8.00e-05,
938,-8.00e-05,
939,2.40e-04,
940,-8.00e-05,
941,2.40e-04,
942,-1.60e-04,
943,2.40e-04,
944,2.40e-04,
945,-1.60e-04,
946,-1.60e-04,
947,2.00e-04,
948,2.00e-04,
949,-1.60e-04,
950,-8.00e-05,
951,3.20e-04,
952,-8.00e-05,
953,3.20e-04,
954,2.00e-04,
955,-1.60e-04,
956,2.80e-04,
957,-1.60e-04,
958,-2.40e-04,
959,2.40e-04,
960,2.40e-04,
961,-1.60e-04,
962,2.40e-04,
963,-1.60e-04,
964,2.40e-04,
965,-1.60e-04,
966,1.60e-04,
967,-1.60e-04,
968,2.40e-04,
969,-1.60e-04,
970,-8.00e-05,
971,2.00e-04,
972,2.40e-04,
973,-8.00e-05,
974,-1.60e-04,
975,2.40e-04,
976,0.00e+00,
977,3.20e-04,
978,2.40e-04,
979,-8.00e-05,
980,2.40e-04,
981,-8.00e-05,
982,-1.60e-04,
983,2.00e-04,
984,2.40e-04,
985,-8.00e-05,
986,2.40e-04,
987,-8.00e-05,
988,0.00e+00,
989,4.00e-04,
990,-8.00e-05,
991,2.00e-04,
992,-8.00e-05,
993,3.20e-04,
994,3.20e-04,
995,-8.00e-05,
996,-8.00e-05,
997,2.40e-04,
998,-8.00e-05,
999,2.40e-04,
1000,-8.00e-05,
1001,2.40e-04,
1002,2.40e-04,
1003,-8.00e-05,
1004,-8.00e-05,
1005,2.40e-04,
1006,-8.00e-05,
1007,3.20e-04,
1008,-8.00e-05,
1009,2.40e-04,
1010,2.40e-04,
1011,-1.60e-04,
1012,1.60e-04,
1013,-1.60e-04,
1014,-8.00e-05,
1015,2.80e-04,
1016,-8.00e-05,
1017,2.00e-04,
1018,2.40e-04,
1019,-8.00e-05,
1020,-8.00e-05,
1021,2.00e-04,
1022,2.40e-04,
1023,-1.60e-04,
1024,2.00e-04,
1025,-1.60e-04,
1026,2.40e-04,
1027,-1.60e-04,
1028,-8.00e-05,
1029,2.40e-04,
1030,2.40e-04,
1031,-2.40e-04,
1032,2.40e-04,
1033,-8.00e-05,
1034,2.40e-04,
1035,-1.60e-04,
1036,1.20e-04,
1037,-2.40e-04,
1038,3.20e-04,
1039,-8.00e-05,
1040,-8.00e-05,
1041,2.00e-04,
1042,2.40e-04,
1043,-1.60e-04,
1044,-8.00e-05,
1045,2.80e-04,
1046,-2.40e-04,
1047,2.40e-04,
1048,-8.00e-05,
1049,2.40e-04,
1050,-1.60e-04,
1051,2.00e-04,
1052,1.60e-04,
1053,-1.60e-04,
1054,-1.60e-04,
1055,2.40e-04,
1056,-8.00e-05,
1057,3.20e-04,
1058,-8.00e-05,
1059,2.40e-04,
1060,2.80e-04,
1061,-1.60e-04,
1062,-1.60e-04,
1063,2.40e-04,
1064,2.00e-04,
1065,-1.60e-04,
1066,-8.00e-05,
1067,2.40e-04,
1068,-8.00e-05,
1069,2.00e-04,
1070,2.40e-04,
1071,-1.60e-04,
1072,0.00e+00,
1073,2.40e-04,
1074,-8.00e-05,
1075,3.20e-04,
1076,2.40e-04,
1077,-8.00e-05,
1078,2.40e-04,
1079,-8.00e-05,
1080,-8.00e-05,
1081,2.40e-04,
1082,2.40e-04,
1083,-8.00e-05,
1084,3.20e-04,
1085,-1.60e-04,
1086,3.20e-04,
1087,0.00e+00,
1088,-8.00e-05,
1089,3.20e-04,
1090,1.60e-04,
1091,-1.60e-04,
1092,2.40e-04,
1093,-8.00e-05,
1094,2.80e-04,
1095,-1.60e-04,
1096,2.40e-04,
1097,-8.00e-05,
1098,-1.60e-04,
1099,2.40e-04,
1100,-1.60e-04,
1101,2.00e-04,
1102,-8.00e-05,
1103,2.40e-04,
1104,2.40e-04,
1105,-8.00e-05,
1106,-8.00e-05,
1107,2.40e-04,
1108,2.00e-04,
1109,-8.00e-05,
1110,-8.00e-05,
1111,2.40e-04,
1112,2.40e-04,
1113,-8.00e-05,
1114,2.40e-04,
1115,-8.00e-05,
1116,2.40e-04,
1117,-8.00e-05,
1118,2.40e-04,
1119,-1.60e-04,
1120,-8.00e-05,
1121,3.20e-04,
1122,2.40e-04,
1123,-8.00e-05,
1124,-8.00e-05,
1125,2.00e-04,
1126,2.40e-04,
1127,-2.40e-04,
1128,2.00e-04,
1129,-1.60e-04,
1130,2.80e-04,
1131,-1.60e-04,
1132,-1.60e-04,
1133,2.00e-04,
1134,2.40e-04,
1135,-8.00e-05,
1136,2.40e-04,
1137,-8.00e-05,
1138,-8.00e-05,
1139,2.40e-04,
1140,-8.00e-05,
1141,2.00e-04,
1142,2.40e-04,
1143,-1.60e-04,
1144,2.00e-04,
1145,-1.60e-04,
1146,-1.60e-04,
1147,2.40e-04,
1148,2.40e-04,
1149,-1.60e-04,
1150,2.40e-04,
1151,-1.60e-04,
1152,2.40e-04,
1153,-8.00e-05,
1154,2.40e-04,
1155,-8.00e-05,
1156,-8.00e-05,
1157,2.40e-04,
1158,2.40e-04,
1159,-8.00e-05,
1160,2.40e-04,
1161,-8.00e-05,
1162,1.60e-04,
1163,-8.00e-05,
1164,2.40e-04,
1165,-1.60e-04,
1166,-8.00e-05,
1167,2.40e-04,
1168,-8.00e-05,
1169,2.40e-04,
1170,3.20e-04,
1171,-1.60e-04,
1172,2.40e-04,
1173,-1.60e-04,
1174,2.40e-04,
1175,-8.00e-05,
1176,3.20e-04,
1177,-8.00e-05,
1178,-8.00e-05,
1179,2.40e-04,
1180,-1.60e-04,
1181,2.40e-04,
1182,2.40e-04,
1183,-1.60e-04,
1184,-8.00e-05,
1185,2.40e-04,
1186,-8.00e-05,
1187,2.40e-04,
1188,-8.00e-05,
1189,2.40e-04,
1190,2.40e-04,
1191,-1.60e-04,
1192,3.20e-04,
1193,-8.00e-05,
1194,3.20e-04,
1195,-1.60e-04,
1196,-8.00e-05,
1197,3.20e-04,
1198,2.40e-04,
1199,-1.60e-04,
