fastdiffamp/data-noise-set/unb-right-demod/NewFile1.csv

X,CH1,Start,Increment,
Sequence,Volt,-5.490000e+00,1.000000e-02
0,-1.60e-04,
1,1.20e-04,
2,1.20e-04,
3,-1.60e-04,
4,-8.00e-05,
5,1.60e-04,
6,1.20e-04,
7,-1.60e-04,
8,1.60e-04,
9,-1.60e-04,
10,1.20e-04,
11,-1.60e-04,
12,-1.60e-04,
13,1.20e-04,
14,1.60e-04,
15,-1.60e-04,
16,2.40e-04,
17,-1.60e-04,
18,1.20e-04,
19,-2.40e-04,
20,1.20e-04,
21,-1.60e-04,
22,8.00e-05,
23,-1.60e-04,
24,-1.60e-04,
25,2.00e-04,
26,1.60e-04,
27,-1.60e-04,
28,-1.60e-04,
29,1.60e-04,
30,1.60e-04,
31,-8.00e-05,
32,1.60e-04,
33,-1.60e-04,
34,-1.60e-04,
35,1.60e-04,
36,2.00e-04,
37,-1.60e-04,
38,-1.60e-04,
39,1.60e-04,
40,-1.60e-04,
41,2.40e-04,
42,1.20e-04,
43,-1.60e-04,
44,-1.20e-04,
45,2.40e-04,
46,-1.60e-04,
47,1.60e-04,
48,1.60e-04,
49,-1.60e-04,
50,1.60e-04,
51,-2.40e-04,
52,1.20e-04,
53,-1.60e-04,
54,-1.60e-04,
55,1.20e-04,
56,-1.60e-04,
57,1.20e-04,
58,-1.60e-04,
59,1.20e-04,
60,-2.40e-04,
61,1.60e-04,
62,-2.40e-04,
63,1.60e-04,
64,8.00e-05,
65,-2.40e-04,
66,-2.40e-04,
67,1.60e-04,
68,-1.60e-04,
69,1.60e-04,
70,-1.60e-04,
71,1.20e-04,
72,-8.00e-05,
73,2.00e-04,
74,-8.00e-05,
75,1.60e-04,
76,-2.40e-04,
77,1.20e-04,
78,1.60e-04,
79,-2.40e-04,
80,-2.40e-04,
81,1.60e-04,
82,1.60e-04,
83,-1.60e-04,
84,-1.60e-04,
85,1.20e-04,
86,-1.60e-04,
87,1.60e-04,
88,1.60e-04,
89,-2.40e-04,
90,-2.40e-04,
91,2.40e-04,
92,-1.60e-04,
93,1.60e-04,
94,-2.40e-04,
95,1.60e-04,
96,-1.60e-04,
97,2.40e-04,
98,2.00e-04,
99,-1.60e-04,
100,8.00e-05,
101,-2.40e-04,
102,-1.60e-04,
103,2.40e-04,
104,1.60e-04,
105,-2.40e-04,
106,-2.40e-04,
107,1.20e-04,
108,-1.60e-04,
109,8.00e-05,
110,-1.60e-04,
111,8.00e-05,
112,-1.60e-04,
113,1.20e-04,
114,-1.60e-04,
115,1.60e-04,
116,-2.40e-04,
117,2.00e-04,
118,8.00e-05,
119,-1.60e-04,
120,-2.40e-04,
121,1.20e-04,
122,-2.40e-04,
123,1.60e-04,
124,-1.60e-04,
125,1.20e-04,
126,-1.60e-04,
127,1.60e-04,
128,1.60e-04,
129,-1.60e-04,
130,-1.60e-04,
131,1.60e-04,
132,2.00e-04,
133,-1.60e-04,
134,1.20e-04,
135,-1.60e-04,
136,-1.60e-04,
137,2.00e-04,
138,2.00e-04,
139,-1.60e-04,
140,-1.60e-04,
141,1.60e-04,
142,1.60e-04,
143,-1.60e-04,
144,8.00e-05,
145,-8.00e-05,
146,-1.60e-04,
147,1.60e-04,
148,2.00e-04,
149,-1.60e-04,
150,-1.60e-04,
151,1.60e-04,
152,1.60e-04,
153,-8.00e-05,
154,-2.40e-04,
155,1.60e-04,
156,-1.60e-04,
157,1.60e-04,
158,-1.60e-04,
159,1.60e-04,
160,-1.60e-04,
161,2.40e-04,
162,-2.40e-04,
163,1.60e-04,
164,-2.40e-04,
165,1.60e-04,
166,1.60e-04,
167,-1.60e-04,
168,2.00e-04,
169,-1.60e-04,
170,-1.60e-04,
171,1.20e-04,
172,-1.60e-04,
173,2.00e-04,
174,8.00e-05,
175,-1.60e-04,
176,1.20e-04,
177,-1.60e-04,
178,-1.60e-04,
179,1.20e-04,
180,-1.60e-04,
181,1.60e-04,
182,1.60e-04,
183,-8.00e-05,
184,-1.60e-04,
185,1.60e-04,
186,-1.60e-04,
187,2.40e-04,
188,-1.60e-04,
189,1.60e-04,
190,-1.60e-04,
191,1.60e-04,
192,-8.00e-05,
193,2.00e-04,
194,1.20e-04,
195,-1.60e-04,
196,-1.60e-04,
197,2.00e-04,
198,-1.60e-04,
199,1.60e-04,
200,1.20e-04,
201,-1.60e-04,
202,2.40e-04,
203,-1.60e-04,
204,-8.00e-05,
205,2.40e-04,
206,-1.60e-04,
207,2.40e-04,
208,2.40e-04,
209,-1.60e-04,
210,-1.60e-04,
211,1.60e-04,
212,1.60e-04,
213,-1.60e-04,
214,1.60e-04,
215,-1.60e-04,
216,-1.60e-04,
217,1.60e-04,
218,-2.40e-04,
219,1.60e-04,
220,-1.60e-04,
221,1.60e-04,
222,-1.60e-04,
223,1.60e-04,
224,1.60e-04,
225,-1.60e-04,
226,-1.60e-04,
227,1.60e-04,
228,-8.00e-05,
229,2.00e-04,
230,-8.00e-05,
231,1.60e-04,
232,2.40e-04,
233,-1.60e-04,
234,-1.60e-04,
235,1.20e-04,
236,1.60e-04,
237,-1.60e-04,
238,-1.60e-04,
239,2.00e-04,
240,-2.40e-04,
241,2.40e-04,
242,2.00e-04,
243,-1.60e-04,
244,1.60e-04,
245,-1.60e-04,
246,2.00e-04,
247,-1.60e-04,
248,-1.60e-04,
249,1.60e-04,
250,1.20e-04,
251,-1.60e-04,
252,-1.60e-04,
253,2.00e-04,
254,1.60e-04,
255,-1.60e-04,
256,8.00e-05,
257,-2.00e-04,
258,-8.00e-05,
259,2.00e-04,
260,-1.60e-04,
261,2.00e-04,
262,1.60e-04,
263,-1.60e-04,
264,1.60e-04,
265,-1.60e-04,
266,2.00e-04,
267,-2.40e-04,
268,-1.60e-04,
269,8.00e-05,
270,1.20e-04,
271,-2.40e-04,
272,-1.60e-04,
273,1.60e-04,
274,-1.60e-04,
275,1.60e-04,
276,-1.60e-04,
277,2.00e-04,
278,-1.60e-04,
279,1.60e-04,
280,-1.60e-04,
281,2.00e-04,
282,8.00e-05,
283,-2.40e-04,
284,-1.60e-04,
285,1.20e-04,
286,-1.60e-04,
287,1.60e-04,
288,-1.60e-04,
289,1.60e-04,
290,1.60e-04,
291,-1.60e-04,
292,1.60e-04,
293,-8.00e-05,
294,-1.60e-04,
295,1.60e-04,
296,-1.60e-04,
297,2.00e-04,
298,1.60e-04,
299,-1.60e-04,
300,-1.60e-04,
301,1.20e-04,
302,-2.40e-04,
303,1.60e-04,
304,-1.60e-04,
305,1.20e-04,
306,-8.00e-05,
307,2.00e-04,
308,1.60e-04,
309,-1.60e-04,
310,-1.60e-04,
311,1.60e-04,
312,-1.60e-04,
313,1.60e-04,
314,-1.60e-04,
315,1.60e-04,
316,1.60e-04,
317,-1.60e-04,
318,2.80e-04,
319,-1.60e-04,
320,-1.60e-04,
321,1.60e-04,
322,1.20e-04,
323,-1.60e-04,
324,8.00e-05,
325,-2.40e-04,
326,-1.60e-04,
327,2.40e-04,
328,-2.40e-04,
329,1.20e-04,
330,-1.60e-04,
331,1.60e-04,
332,1.20e-04,
333,-2.40e-04,
334,1.60e-04,
335,-1.60e-04,
336,-1.60e-04,
337,2.00e-04,
338,-1.60e-04,
339,1.60e-04,
340,-1.60e-04,
341,1.20e-04,
342,-2.40e-04,
343,2.00e-04,
344,1.60e-04,
345,-1.60e-04,
346,-1.60e-04,
347,2.40e-04,
348,1.60e-04,
349,-1.60e-04,
350,1.60e-04,
351,-1.60e-04,
352,-8.00e-05,
353,2.00e-04,
354,-8.00e-05,
355,1.60e-04,
356,-1.60e-04,
357,2.00e-04,
358,1.60e-04,
359,-1.60e-04,
360,2.40e-04,
361,-1.60e-04,
362,-1.60e-04,
363,1.60e-04,
364,-1.60e-04,
365,1.60e-04,
366,1.60e-04,
367,-1.60e-04,
368,1.60e-04,
369,-1.60e-04,
370,-1.60e-04,
371,1.60e-04,
372,-1.60e-04,
373,2.00e-04,
374,-8.00e-05,
375,2.40e-04,
376,-8.00e-05,
377,2.00e-04,
378,-8.00e-05,
379,1.60e-04,
380,-8.00e-05,
381,2.40e-04,
382,1.60e-04,
383,-1.60e-04,
384,1.20e-04,
385,-1.60e-04,
386,-8.00e-05,
387,2.40e-04,
388,-8.00e-05,
389,1.60e-04,
390,2.40e-04,
391,-8.00e-05,
392,1.60e-04,
393,-1.60e-04,
394,1.60e-04,
395,-1.60e-04,
396,-8.00e-05,
397,1.60e-04,
398,1.60e-04,
399,-1.60e-04,
400,-8.00e-05,
401,1.60e-04,
402,2.00e-04,
403,-1.60e-04,
404,-1.60e-04,
405,8.00e-05,
406,-2.40e-04,
407,1.60e-04,
408,1.60e-04,
409,-1.60e-04,
410,1.60e-04,
411,-1.60e-04,
412,1.60e-04,
413,-2.40e-04,
414,2.00e-04,
415,-8.00e-05,
416,8.00e-05,
417,-1.60e-04,
418,-1.60e-04,
419,1.60e-04,
420,-8.00e-05,
421,1.60e-04,
422,1.60e-04,
423,-1.60e-04,
424,-1.60e-04,
425,1.20e-04,
426,2.40e-04,
427,-1.60e-04,
428,-1.60e-04,
429,1.20e-04,
430,1.60e-04,
431,-1.60e-04,
432,-1.60e-04,
433,1.60e-04,
434,1.20e-04,
435,-1.60e-04,
436,2.00e-04,
437,-1.60e-04,
438,-2.40e-04,
439,4.00e-05,
440,-1.60e-04,
441,1.60e-04,
442,-2.40e-04,
443,1.60e-04,
444,-8.00e-05,
445,1.60e-04,
446,1.20e-04,
447,-1.60e-04,
448,-1.60e-04,
449,1.20e-04,
450,-1.60e-04,
451,1.60e-04,
452,-1.60e-04,
453,1.60e-04,
454,-1.60e-04,
455,2.00e-04,
456,-1.60e-04,
457,1.20e-04,
458,2.40e-04,
459,-1.60e-04,
460,1.60e-04,
461,-8.00e-05,
462,-8.00e-05,
463,2.00e-04,
464,-8.00e-05,
465,1.60e-04,
466,-8.00e-05,
467,1.60e-04,
468,2.40e-04,
469,-2.40e-04,
470,-1.60e-04,
471,1.60e-04,
472,-1.60e-04,
473,1.60e-04,
474,1.60e-04,
475,-1.60e-04,
476,1.60e-04,
477,-1.60e-04,
478,1.60e-04,
479,-1.60e-04,
480,-1.60e-04,
481,1.60e-04,
482,-2.40e-04,
483,2.00e-04,
484,1.60e-04,
485,-1.60e-04,
486,8.00e-05,
487,-1.60e-04,
488,-8.00e-05,
489,1.20e-04,
490,-8.00e-05,
491,1.60e-04,
492,1.60e-04,
493,-1.60e-04,
494,1.60e-04,
495,-1.60e-04,
496,1.20e-04,
497,-1.60e-04,
498,1.60e-04,
499,-2.40e-04,
500,8.00e-05,
501,-2.40e-04,
502,1.20e-04,
503,-2.40e-04,
504,-2.40e-04,
505,1.60e-04,
506,2.00e-04,
507,-1.60e-04,
508,-1.60e-04,
509,1.60e-04,
510,-1.60e-04,
511,1.60e-04,
512,-8.00e-05,
513,1.20e-04,
514,-1.60e-04,
515,1.60e-04,
516,1.20e-04,
517,-1.60e-04,
518,-2.40e-04,
519,8.00e-05,
520,2.40e-04,
521,-1.60e-04,
522,1.60e-04,
523,-1.60e-04,
524,-8.00e-05,
525,1.60e-04,
526,-1.60e-04,
527,1.60e-04,
528,-1.60e-04,
529,1.60e-04,
530,-1.60e-04,
531,1.60e-04,
532,-1.60e-04,
533,1.60e-04,
534,1.60e-04,
535,-1.60e-04,
536,1.20e-04,
537,-1.60e-04,
538,-2.40e-04,
539,2.00e-04,
540,-1.60e-04,
541,1.60e-04,
542,-1.60e-04,
543,2.00e-04,
544,1.60e-04,
545,-2.40e-04,
546,-2.40e-04,
547,1.60e-04,
548,-8.00e-05,
549,1.60e-04,
550,-1.60e-04,
551,1.20e-04,
552,-1.60e-04,
553,1.20e-04,
554,-1.60e-04,
555,1.60e-04,
556,-1.60e-04,
557,1.60e-04,
558,1.60e-04,
559,-2.40e-04,
560,-1.60e-04,
561,1.60e-04,
562,1.60e-04,
563,-8.00e-05,
564,-1.60e-04,
565,1.60e-04,
566,-1.60e-04,
567,2.40e-04,
568,1.20e-04,
569,-1.60e-04,
570,-8.00e-05,
571,1.60e-04,
572,8.00e-05,
573,-2.40e-04,
574,-1.60e-04,
575,8.00e-05,
576,-1.60e-04,
577,2.00e-04,
578,-1.60e-04,
579,2.00e-04,
580,-1.60e-04,
581,1.60e-04,
582,-2.40e-04,
583,1.60e-04,
584,-1.60e-04,
585,1.20e-04,
586,-1.60e-04,
587,1.60e-04,
588,-2.40e-04,
589,8.00e-05,
590,1.60e-04,
591,-1.60e-04,
592,1.20e-04,
593,-1.60e-04,
594,-1.60e-04,
595,1.20e-04,
596,2.00e-04,
597,-1.60e-04,
598,1.20e-04,
599,-1.60e-04,
600,-1.60e-04,
601,1.60e-04,
602,-2.40e-04,
603,1.60e-04,
604,1.60e-04,
605,-1.60e-04,
606,1.60e-04,
607,-2.40e-04,
608,2.40e-04,
609,-1.60e-04,
610,8.00e-05,
611,-1.60e-04,
612,2.40e-04,
613,-1.60e-04,
614,2.40e-04,
615,-1.60e-04,
616,-1.60e-04,
617,8.00e-05,
618,-1.60e-04,
619,1.60e-04,
620,-1.60e-04,
621,1.60e-04,
622,-1.60e-04,
623,1.60e-04,
624,-3.20e-04,
625,8.00e-05,
626,-2.40e-04,
627,8.00e-05,
628,1.20e-04,
629,-2.40e-04,
630,-1.60e-04,
631,1.60e-04,
632,-2.40e-04,
633,1.20e-04,
634,-1.60e-04,
635,8.00e-05,
636,-1.60e-04,
637,8.00e-05,
638,-1.60e-04,
639,1.60e-04,
640,1.60e-04,
641,-1.60e-04,
642,-2.40e-04,
643,8.00e-05,
644,-1.60e-04,
645,2.00e-04,
646,-1.60e-04,
647,8.00e-05,
648,-3.20e-04,
649,1.60e-04,
650,-1.60e-04,
651,1.60e-04,
652,8.00e-05,
653,-1.60e-04,
654,1.20e-04,
655,-2.40e-04,
656,-2.40e-04,
657,1.60e-04,
658,-2.40e-04,
659,1.20e-04,
660,-2.40e-04,
661,8.00e-05,
662,1.60e-04,
663,-1.60e-04,
664,1.60e-04,
665,-1.60e-04,
666,-1.60e-04,
667,1.60e-04,
668,-1.60e-04,
669,1.20e-04,
670,8.00e-05,
671,-1.60e-04,
672,-2.40e-04,
673,1.60e-04,
674,-2.40e-04,
675,2.40e-04,
676,1.60e-04,
677,-1.60e-04,
678,-1.60e-04,
679,2.40e-04,
680,-1.60e-04,
681,1.60e-04,
682,8.00e-05,
683,-1.60e-04,
684,-1.60e-04,
685,1.60e-04,
686,-1.60e-04,
687,1.60e-04,
688,8.00e-05,
689,-1.60e-04,
690,-1.60e-04,
691,1.60e-04,
692,-1.60e-04,
693,1.60e-04,
694,-1.20e-04,
695,2.00e-04,
696,-8.00e-05,
697,2.40e-04,
698,1.60e-04,
699,-1.60e-04,
700,-1.60e-04,
701,2.00e-04,
702,-1.60e-04,
703,1.60e-04,
704,-1.60e-04,
705,1.60e-04,
706,-1.60e-04,
707,2.00e-04,
708,1.60e-04,
709,-2.40e-04,
710,2.40e-04,
711,-1.60e-04,
712,-1.60e-04,
713,2.40e-04,
714,-1.60e-04,
715,1.60e-04,
716,2.00e-04,
717,-1.60e-04,
718,8.00e-05,
719,-1.60e-04,
720,-1.60e-04,
721,2.00e-04,
722,1.60e-04,
723,-2.40e-04,
724,-8.00e-05,
725,2.00e-04,
726,1.60e-04,
727,-1.60e-04,
728,-2.40e-04,
729,2.00e-04,
730,-2.40e-04,
731,1.20e-04,
732,-1.60e-04,
733,1.20e-04,
734,-2.40e-04,
735,8.00e-05,
736,1.60e-04,
737,-2.40e-04,
738,2.00e-04,
739,-1.60e-04,
740,-1.60e-04,
741,2.40e-04,
742,-1.60e-04,
743,1.20e-04,
744,-1.60e-04,
745,1.20e-04,
746,1.60e-04,
747,-1.60e-04,
748,1.60e-04,
749,-1.60e-04,
750,-1.60e-04,
751,1.60e-04,
752,-3.20e-04,
753,2.00e-04,
754,-1.60e-04,
755,1.60e-04,
756,1.20e-04,
757,-1.60e-04,
758,-1.60e-04,
759,1.60e-04,
760,-1.60e-04,
761,1.60e-04,
762,-2.40e-04,
763,1.60e-04,
764,1.60e-04,
765,-8.00e-05,
766,1.60e-04,
767,-1.60e-04,
768,-1.60e-04,
769,1.60e-04,
770,1.20e-04,
771,-1.60e-04,
772,-1.60e-04,
773,1.60e-04,
774,8.00e-05,
775,-1.60e-04,
776,-1.60e-04,
777,2.00e-04,
778,-1.60e-04,
779,8.00e-05,
780,-2.40e-04,
781,1.60e-04,
782,1.60e-04,
783,-2.40e-04,
784,8.00e-05,
785,-1.60e-04,
786,-1.60e-04,
787,1.60e-04,
788,8.00e-05,
789,-1.60e-04,
790,-1.60e-04,
791,1.60e-04,
792,1.60e-04,
793,-1.60e-04,
794,1.20e-04,
795,-1.60e-04,
796,-1.60e-04,
797,2.00e-04,
798,-1.60e-04,
799,1.60e-04,
800,-1.60e-04,
801,1.60e-04,
802,-1.60e-04,
803,1.20e-04,
804,1.60e-04,
805,-2.40e-04,
806,-1.60e-04,
807,8.00e-05,
808,-1.60e-04,
809,1.60e-04,
810,-2.40e-04,
811,2.00e-04,
812,-1.60e-04,
813,1.20e-04,
814,-2.40e-04,
815,1.60e-04,
816,-1.60e-04,
817,1.20e-04,
818,-1.60e-04,
819,1.60e-04,
820,-2.40e-04,
821,1.20e-04,
822,-1.60e-04,
823,1.20e-04,
824,-2.40e-04,
825,1.60e-04,
826,1.60e-04,
827,-1.60e-04,
828,-1.60e-04,
829,1.60e-04,
830,-2.40e-04,
831,1.60e-04,
832,-1.60e-04,
833,1.20e-04,
834,-2.40e-04,
835,1.20e-04,
836,-1.60e-04,
837,8.00e-05,
838,8.00e-05,
839,-1.60e-04,
840,1.60e-04,
841,-1.60e-04,
842,1.20e-04,
843,-2.40e-04,
844,-2.40e-04,
845,1.60e-04,
846,-1.60e-04,
847,8.00e-05,
848,1.20e-04,
849,-2.40e-04,
850,-1.60e-04,
851,1.20e-04,
852,-2.40e-04,
853,2.40e-04,
854,-1.60e-04,
855,8.00e-05,
856,-8.00e-05,
857,1.60e-04,
858,1.60e-04,
859,-1.60e-04,
860,1.60e-04,
861,-1.60e-04,
862,1.20e-04,
863,-1.60e-04,
864,8.00e-05,
865,-1.60e-04,
866,-1.60e-04,
867,1.60e-04,
868,1.60e-04,
869,-2.40e-04,
870,-2.40e-04,
871,1.60e-04,
872,1.60e-04,
873,-1.60e-04,
874,-2.40e-04,
875,2.40e-04,
876,1.60e-04,
877,-1.60e-04,
878,-2.40e-04,
879,1.60e-04,
880,-2.40e-04,
881,1.60e-04,
882,1.60e-04,
883,-2.40e-04,
884,-1.60e-04,
885,2.00e-04,
886,2.00e-04,
887,-2.40e-04,
888,-2.40e-04,
889,2.00e-04,
890,1.60e-04,
891,-2.00e-04,
892,-1.60e-04,
893,8.00e-05,
894,8.00e-05,
895,-1.60e-04,
896,1.60e-04,
897,-1.60e-04,
898,2.00e-04,
899,-2.40e-04,
900,-1.60e-04,
901,8.00e-05,
902,-1.60e-04,
903,1.60e-04,
904,-1.60e-04,
905,1.20e-04,
906,1.20e-04,
907,-1.60e-04,
908,8.00e-05,
909,-2.40e-04,
910,-1.60e-04,
911,1.60e-04,
912,1.60e-04,
913,-1.60e-04,
914,-1.60e-04,
915,2.00e-04,
916,-1.60e-04,
917,1.60e-04,
918,1.20e-04,
919,-2.40e-04,
920,-1.60e-04,
921,1.20e-04,
922,1.60e-04,
923,-1.60e-04,
924,-1.60e-04,
925,1.20e-04,
926,1.60e-04,
927,-1.60e-04,
928,1.20e-04,
929,-1.60e-04,
930,1.60e-04,
931,-2.40e-04,
932,1.60e-04,
933,-2.40e-04,
934,1.20e-04,
935,-1.60e-04,
936,-1.60e-04,
937,1.60e-04,
938,8.00e-05,
939,-2.40e-04,
940,-1.60e-04,
941,1.60e-04,
942,-2.40e-04,
943,8.00e-05,
944,1.60e-04,
945,-2.40e-04,
946,4.00e-05,
947,-2.40e-04,
948,-2.40e-04,
949,1.20e-04,
950,-1.60e-04,
951,8.00e-05,
952,-1.60e-04,
953,1.60e-04,
954,-1.60e-04,
955,8.00e-05,
956,1.60e-04,
957,-1.60e-04,
958,1.20e-04,
959,-3.20e-04,
960,1.60e-04,
961,-1.60e-04,
962,1.60e-04,
963,-2.40e-04,
964,1.60e-04,
965,-1.60e-04,
966,1.20e-04,
967,-1.60e-04,
968,-1.60e-04,
969,1.20e-04,
970,-2.40e-04,
971,8.00e-05,
972,-1.60e-04,
973,1.60e-04,
974,-1.60e-04,
975,1.20e-04,
976,-1.60e-04,
977,1.20e-04,
978,-2.40e-04,
979,1.60e-04,
980,-1.60e-04,
981,1.20e-04,
982,-2.40e-04,
983,1.20e-04,
984,-2.40e-04,
985,3.20e-04,
986,2.40e-04,
987,-2.40e-04,
988,-2.40e-04,
989,1.20e-04,
990,8.00e-05,
991,-2.40e-04,
992,-2.40e-04,
993,8.00e-05,
994,-2.40e-04,
995,1.60e-04,
996,-8.00e-05,
997,2.00e-04,
998,-2.40e-04,
999,1.60e-04,
1000,1.20e-04,
1001,-1.60e-04,
1002,2.00e-04,
1003,-1.60e-04,
1004,8.00e-05,
1005,-2.40e-04,
1006,-1.60e-04,
1007,1.60e-04,
1008,1.60e-04,
1009,-1.60e-04,
1010,-1.60e-04,
1011,2.00e-04,
1012,8.00e-05,
1013,-1.60e-04,
1014,1.20e-04,
1015,-1.60e-04,
1016,-1.60e-04,
1017,1.20e-04,
1018,1.20e-04,
1019,-1.60e-04,
1020,-1.60e-04,
1021,2.40e-04,
1022,1.60e-04,
1023,-1.60e-04,
1024,-1.60e-04,
1025,1.20e-04,
1026,1.20e-04,
1027,-1.60e-04,
1028,-1.60e-04,
1029,1.60e-04,
1030,-1.60e-04,
1031,1.20e-04,
1032,-1.60e-04,
1033,1.60e-04,
1034,-1.60e-04,
1035,1.60e-04,
1036,1.60e-04,
1037,-2.40e-04,
1038,-1.60e-04,
1039,1.20e-04,
1040,1.60e-04,
1041,-1.60e-04,
1042,1.60e-04,
1043,-1.60e-04,
1044,8.00e-05,
1045,-2.40e-04,
1046,-2.40e-04,
1047,8.00e-05,
1048,-1.60e-04,
1049,1.60e-04,
1050,-2.40e-04,
1051,1.60e-04,
1052,-1.60e-04,
1053,1.20e-04,
1054,-1.60e-04,
1055,1.60e-04,
1056,-1.60e-04,
1057,1.60e-04,
1058,1.60e-04,
1059,-1.60e-04,
1060,8.00e-05,
1061,-2.40e-04,
1062,-1.60e-04,
1063,1.20e-04,
1064,1.60e-04,
1065,-1.60e-04,
1066,2.00e-04,
1067,-8.00e-05,
1068,1.60e-04,
1069,-1.60e-04,
1070,-1.60e-04,
1071,1.60e-04,
1072,-1.60e-04,
1073,1.60e-04,
1074,-2.40e-04,
1075,1.60e-04,
1076,1.60e-04,
1077,-2.40e-04,
1078,-1.60e-04,
1079,1.20e-04,
1080,1.60e-04,
1081,-2.00e-04,
1082,-1.60e-04,
1083,1.60e-04,
1084,1.20e-04,
1085,-8.00e-05,
1086,8.00e-05,
1087,-1.60e-04,
1088,-1.60e-04,
1089,1.60e-04,
1090,-1.60e-04,
1091,2.00e-04,
1092,2.00e-04,
1093,-2.40e-04,
1094,-1.60e-04,
1095,1.60e-04,
1096,-8.00e-05,
1097,3.20e-04,
1098,3.20e-04,
1099,-8.00e-05,
1100,2.00e-04,
1101,-8.00e-05,
1102,-1.60e-04,
1103,2.00e-04,
1104,1.60e-04,
1105,-2.40e-04,
1106,-1.60e-04,
1107,2.00e-04,
1108,-1.60e-04,
1109,1.60e-04,
1110,1.60e-04,
1111,-2.40e-04,
1112,8.00e-05,
1113,-2.40e-04,
1114,-1.60e-04,
1115,1.20e-04,
1116,-1.60e-04,
1117,1.60e-04,
1118,1.60e-04,
1119,-2.40e-04,
1120,-2.40e-04,
1121,1.60e-04,
1122,-1.60e-04,
1123,1.60e-04,
1124,1.60e-04,
1125,-1.60e-04,
1126,-1.60e-04,
1127,2.00e-04,
1128,2.40e-04,
1129,-1.20e-04,
1130,-1.60e-04,
1131,2.40e-04,
1132,1.60e-04,
1133,-8.00e-05,
1134,-1.60e-04,
1135,1.60e-04,
1136,-1.60e-04,
1137,1.60e-04,
1138,-8.00e-05,
1139,2.00e-04,
1140,-2.40e-04,
1141,1.60e-04,
1142,-8.00e-05,
1143,2.40e-04,
1144,-1.60e-04,
1145,2.00e-04,
1146,1.60e-04,
1147,-1.60e-04,
1148,-1.60e-04,
1149,1.20e-04,
1150,1.60e-04,
1151,-1.60e-04,
1152,-2.40e-04,
1153,1.60e-04,
1154,-1.60e-04,
1155,1.20e-04,
1156,1.60e-04,
1157,-1.60e-04,
1158,-1.60e-04,
1159,1.60e-04,
1160,-1.60e-04,
1161,1.60e-04,
1162,-2.40e-04,
1163,2.00e-04,
1164,-1.60e-04,
1165,1.20e-04,
1166,1.20e-04,
1167,-1.60e-04,
1168,-1.60e-04,
1169,1.60e-04,
1170,-2.00e-04,
1171,1.60e-04,
1172,-1.60e-04,
1173,1.60e-04,
1174,-1.60e-04,
1175,1.60e-04,
1176,-2.40e-04,
1177,1.60e-04,
1178,-1.60e-04,
1179,1.60e-04,
1180,1.60e-04,
1181,-1.60e-04,
1182,-1.60e-04,
1183,2.40e-04,
1184,-8.00e-05,
1185,1.60e-04,
1186,2.00e-04,
1187,-1.60e-04,
1188,1.60e-04,
1189,-1.60e-04,
1190,2.40e-04,
1191,-1.60e-04,
1192,-1.60e-04,
1193,2.40e-04,
1194,-1.60e-04,
1195,1.60e-04,
1196,2.00e-04,
1197,-8.00e-05,
1198,-8.00e-05,
1199,2.00e-04,
