fastdiffamp/data-noise-set/unb-right-demod/NewFile22.csv

X,CH1,Start,Increment,
Sequence,Volt,-5.490000e+00,1.000000e-02
0,-8.00e-05,
1,2.80e-04,
2,2.40e-04,
3,-8.00e-05,
4,2.40e-04,
5,-4.00e-05,
6,2.40e-04,
7,-8.00e-05,
8,2.40e-04,
9,-8.00e-05,
10,-8.00e-05,
11,3.20e-04,
12,-1.60e-04,
13,2.40e-04,
14,0.00e+00,
15,3.20e-04,
16,3.20e-04,
17,-8.00e-05,
18,2.40e-04,
19,-8.00e-05,
20,-8.00e-05,
21,2.80e-04,
22,2.40e-04,
23,-1.60e-04,
24,2.00e-04,
25,-1.60e-04,
26,-8.00e-05,
27,2.40e-04,
28,2.40e-04,
29,-8.00e-05,
30,0.00e+00,
31,2.80e-04,
32,0.00e+00,
33,2.80e-04,
34,0.00e+00,
35,3.20e-04,
36,3.20e-04,
37,-1.60e-04,
38,-1.60e-04,
39,2.40e-04,
40,2.40e-04,
41,-8.00e-05,
42,2.40e-04,
43,-8.00e-05,
44,3.20e-04,
45,-1.60e-04,
46,-1.60e-04,
47,2.40e-04,
48,-8.00e-05,
49,2.80e-04,
50,3.20e-04,
51,-1.60e-04,
52,-8.00e-05,
53,2.40e-04,
54,2.40e-04,
55,-8.00e-05,
56,-8.00e-05,
57,2.40e-04,
58,2.40e-04,
59,-8.00e-05,
60,-8.00e-05,
61,2.40e-04,
62,4.00e-04,
63,-8.00e-05,
64,-8.00e-05,
65,2.40e-04,
66,2.40e-04,
67,-1.60e-04,
68,2.40e-04,
69,-8.00e-05,
70,2.40e-04,
71,-8.00e-05,
72,0.00e+00,
73,2.40e-04,
74,-8.00e-05,
75,1.60e-04,
76,-8.00e-05,
77,3.20e-04,
78,2.40e-04,
79,-8.00e-05,
80,0.00e+00,
81,3.20e-04,
82,3.20e-04,
83,-8.00e-05,
84,-8.00e-05,
85,2.00e-04,
86,2.80e-04,
87,-8.00e-05,
88,2.40e-04,
89,-8.00e-05,
90,-8.00e-05,
91,2.80e-04,
92,-8.00e-05,
93,2.40e-04,
94,0.00e+00,
95,2.40e-04,
96,3.20e-04,
97,-8.00e-05,
98,-8.00e-05,
99,2.40e-04,
100,-8.00e-05,
101,3.20e-04,
102,-8.00e-05,
103,2.00e-04,
104,-1.60e-04,
105,3.20e-04,
106,-8.00e-05,
107,2.00e-04,
108,-8.00e-05,
109,2.40e-04,
110,0.00e+00,
111,3.20e-04,
112,3.20e-04,
113,0.00e+00,
114,2.40e-04,
115,-8.00e-05,
116,0.00e+00,
117,2.40e-04,
118,-8.00e-05,
119,2.40e-04,
120,0.00e+00,
121,2.40e-04,
122,2.40e-04,
123,-1.60e-04,
124,2.40e-04,
125,-8.00e-05,
126,-8.00e-05,
127,3.20e-04,
128,-8.00e-05,
129,2.40e-04,
130,2.40e-04,
131,-1.60e-04,
132,-1.60e-04,
133,2.40e-04,
134,2.40e-04,
135,-1.60e-04,
136,2.40e-04,
137,-8.00e-05,
138,-8.00e-05,
139,2.00e-04,
140,2.40e-04,
141,-1.60e-04,
142,-1.60e-04,
143,2.00e-04,
144,-1.60e-04,
145,2.00e-04,
146,2.00e-04,
147,-1.60e-04,
148,-1.60e-04,
149,2.40e-04,
150,2.80e-04,
151,-8.00e-05,
152,-8.00e-05,
153,2.40e-04,
154,1.60e-04,
155,-8.00e-05,
156,2.40e-04,
157,-1.60e-04,
158,3.20e-04,
159,-1.60e-04,
160,-8.00e-05,
161,2.40e-04,
162,-8.00e-05,
163,2.40e-04,
164,-8.00e-05,
165,2.40e-04,
166,-8.00e-05,
167,2.40e-04,
168,-8.00e-05,
169,2.40e-04,
170,2.40e-04,
171,-1.20e-04,
172,-8.00e-05,
173,3.20e-04,
174,2.40e-04,
175,-8.00e-05,
176,2.40e-04,
177,-1.60e-04,
178,-1.60e-04,
179,2.40e-04,
180,2.40e-04,
181,-8.00e-05,
182,-8.00e-05,
183,2.40e-04,
184,-8.00e-05,
185,2.40e-04,
186,-8.00e-05,
187,2.80e-04,
188,-8.00e-05,
189,2.40e-04,
190,-8.00e-05,
191,2.80e-04,
192,0.00e+00,
193,2.40e-04,
194,-8.00e-05,
195,3.20e-04,
196,2.40e-04,
197,-1.60e-04,
198,-1.60e-04,
199,1.60e-04,
200,-1.60e-04,
201,3.20e-04,
202,2.40e-04,
203,-8.00e-05,
204,2.80e-04,
205,-1.60e-04,
206,2.00e-04,
207,-8.00e-05,
208,1.60e-04,
209,-8.00e-05,
210,-1.60e-04,
211,2.40e-04,
212,-8.00e-05,
213,2.40e-04,
214,2.40e-04,
215,-8.00e-05,
216,-1.60e-04,
217,2.00e-04,
218,-8.00e-05,
219,2.40e-04,
220,1.60e-04,
221,-1.60e-04,
222,-8.00e-05,
223,1.60e-04,
224,2.40e-04,
225,-8.00e-05,
226,-8.00e-05,
227,2.40e-04,
228,2.40e-04,
229,-8.00e-05,
230,1.60e-04,
231,-1.60e-04,
232,-8.00e-05,
233,2.40e-04,
234,2.40e-04,
235,-1.60e-04,
236,2.40e-04,
237,-8.00e-05,
238,-8.00e-05,
239,3.20e-04,
240,2.40e-04,
241,-8.00e-05,
242,2.80e-04,
243,-1.60e-04,
244,2.40e-04,
245,-1.60e-04,
246,3.20e-04,
247,-8.00e-05,
248,0.00e+00,
249,2.40e-04,
250,2.40e-04,
251,-8.00e-05,
252,-8.00e-05,
253,2.40e-04,
254,3.20e-04,
255,-8.00e-05,
256,-8.00e-05,
257,2.00e-04,
258,2.40e-04,
259,-8.00e-05,
260,-1.60e-04,
261,2.40e-04,
262,0.00e+00,
263,2.80e-04,
264,2.40e-04,
265,-8.00e-05,
266,-1.60e-04,
267,2.40e-04,
268,-8.00e-05,
269,2.40e-04,
270,0.00e+00,
271,2.80e-04,
272,3.20e-04,
273,-8.00e-05,
274,2.40e-04,
275,-8.00e-05,
276,2.40e-04,
277,-8.00e-05,
278,-8.00e-05,
279,2.80e-04,
280,2.40e-04,
281,-1.60e-04,
282,3.20e-04,
283,0.00e+00,
284,2.40e-04,
285,-8.00e-05,
286,2.40e-04,
287,-8.00e-05,
288,2.40e-04,
289,-1.60e-04,
290,-8.00e-05,
291,2.00e-04,
292,-8.00e-05,
293,2.00e-04,
294,-8.00e-05,
295,3.20e-04,
296,-8.00e-05,
297,2.80e-04,
298,-8.00e-05,
299,2.40e-04,
300,2.40e-04,
301,-1.60e-04,
302,-8.00e-05,
303,2.40e-04,
304,2.40e-04,
305,-8.00e-05,
306,1.60e-04,
307,-1.60e-04,
308,-1.60e-04,
309,3.20e-04,
310,3.20e-04,
311,-8.00e-05,
312,2.40e-04,
313,-8.00e-05,
314,-1.60e-04,
315,2.40e-04,
316,2.40e-04,
317,-1.60e-04,
318,2.40e-04,
319,-8.00e-05,
320,-8.00e-05,
321,2.80e-04,
322,3.20e-04,
323,-8.00e-05,
324,2.40e-04,
325,-8.00e-05,
326,-8.00e-05,
327,3.20e-04,
328,2.40e-04,
329,-1.60e-04,
330,2.40e-04,
331,-8.00e-05,
332,2.40e-04,
333,-8.00e-05,
334,2.40e-04,
335,-8.00e-05,
336,-1.60e-04,
337,2.40e-04,
338,-8.00e-05,
339,3.20e-04,
340,0.00e+00,
341,2.40e-04,
342,-8.00e-05,
343,2.00e-04,
344,-1.60e-04,
345,2.40e-04,
346,-8.00e-05,
347,2.00e-04,
348,3.20e-04,
349,-1.60e-04,
350,-1.60e-04,
351,2.40e-04,
352,2.00e-04,
353,-8.00e-05,
354,2.80e-04,
355,-1.60e-04,
356,2.40e-04,
357,-8.00e-05,
358,2.40e-04,
359,-8.00e-05,
360,2.40e-04,
361,-1.60e-04,
362,3.20e-04,
363,-8.00e-05,
364,-8.00e-05,
365,2.40e-04,
366,-8.00e-05,
367,2.40e-04,
368,-8.00e-05,
369,3.20e-04,
370,-8.00e-05,
371,2.40e-04,
372,3.20e-04,
373,-8.00e-05,
374,2.40e-04,
375,-8.00e-05,
376,-8.00e-05,
377,3.20e-04,
378,-8.00e-05,
379,2.80e-04,
380,0.00e+00,
381,3.20e-04,
382,2.40e-04,
383,-8.00e-05,
384,3.20e-04,
385,-8.00e-05,
386,-8.00e-05,
387,2.40e-04,
388,2.40e-04,
389,-8.00e-05,
390,-8.00e-05,
391,3.20e-04,
392,-8.00e-05,
393,2.40e-04,
394,3.20e-04,
395,-8.00e-05,
396,-8.00e-05,
397,2.40e-04,
398,3.20e-04,
399,-1.60e-04,
400,-8.00e-05,
401,2.00e-04,
402,0.00e+00,
403,2.40e-04,
404,-8.00e-05,
405,3.20e-04,
406,3.20e-04,
407,-8.00e-05,
408,2.40e-04,
409,-1.60e-04,
410,0.00e+00,
411,2.00e-04,
412,2.40e-04,
413,-8.00e-05,
414,-1.60e-04,
415,2.40e-04,
416,-8.00e-05,
417,2.00e-04,
418,-8.00e-05,
419,2.40e-04,
420,2.80e-04,
421,-8.00e-05,
422,-8.00e-05,
423,2.40e-04,
424,2.80e-04,
425,-8.00e-05,
426,2.40e-04,
427,-8.00e-05,
428,2.40e-04,
429,-8.00e-05,
430,1.60e-04,
431,-8.00e-05,
432,-8.00e-05,
433,3.20e-04,
434,3.20e-04,
435,0.00e+00,
436,0.00e+00,
437,2.40e-04,
438,2.40e-04,
439,-8.00e-05,
440,3.20e-04,
441,-8.00e-05,
442,3.20e-04,
443,-8.00e-05,
444,2.40e-04,
445,-8.00e-05,
446,0.00e+00,
447,2.40e-04,
448,0.00e+00,
449,2.80e-04,
450,2.40e-04,
451,-8.00e-05,
452,-8.00e-05,
453,2.00e-04,
454,2.40e-04,
455,-1.60e-04,
456,2.40e-04,
457,-8.00e-05,
458,-8.00e-05,
459,1.60e-04,
460,2.40e-04,
461,0.00e+00,
462,-1.60e-04,
463,2.40e-04,
464,-8.00e-05,
465,2.40e-04,
466,-1.60e-04,
467,2.40e-04,
468,2.00e-04,
469,-1.60e-04,
470,2.80e-04,
471,-1.60e-04,
472,2.40e-04,
473,-8.00e-05,
474,-8.00e-05,
475,2.40e-04,
476,2.40e-04,
477,-8.00e-05,
478,3.20e-04,
479,-8.00e-05,
480,2.80e-04,
481,-8.00e-05,
482,2.40e-04,
483,-8.00e-05,
484,2.40e-04,
485,-8.00e-05,
486,-8.00e-05,
487,4.00e-04,
488,4.00e-04,
489,-1.60e-04,
490,-8.00e-05,
491,2.40e-04,
492,-8.00e-05,
493,2.40e-04,
494,2.00e-04,
495,-8.00e-05,
496,-1.60e-04,
497,1.60e-04,
498,-8.00e-05,
499,2.00e-04,
500,-8.00e-05,
501,3.20e-04,
502,0.00e+00,
503,2.40e-04,
504,1.60e-04,
505,-8.00e-05,
506,-8.00e-05,
507,2.40e-04,
508,1.60e-04,
509,-8.00e-05,
510,-8.00e-05,
511,3.20e-04,
512,-8.00e-05,
513,3.20e-04,
514,-8.00e-05,
515,3.20e-04,
516,2.80e-04,
517,-1.60e-04,
518,2.40e-04,
519,-8.00e-05,
520,2.40e-04,
521,-8.00e-05,
522,1.60e-04,
523,-8.00e-05,
524,-8.00e-05,
525,2.80e-04,
526,-8.00e-05,
527,3.20e-04,
528,3.20e-04,
529,-8.00e-05,
530,0.00e+00,
531,2.40e-04,
532,2.40e-04,
533,-1.60e-04,
534,-1.60e-04,
535,3.20e-04,
536,2.40e-04,
537,-8.00e-05,
538,2.40e-04,
539,-1.60e-04,
540,-8.00e-05,
541,2.40e-04,
542,-8.00e-05,
543,2.40e-04,
544,-8.00e-05,
545,3.20e-04,
546,1.60e-04,
547,-8.00e-05,
548,2.40e-04,
549,-1.60e-04,
550,-8.00e-05,
551,2.80e-04,
552,-8.00e-05,
553,2.40e-04,
554,-8.00e-05,
555,2.40e-04,
556,2.40e-04,
557,-8.00e-05,
558,-8.00e-05,
559,2.40e-04,
560,2.40e-04,
561,-1.60e-04,
562,-8.00e-05,
563,2.00e-04,
564,-8.00e-05,
565,2.40e-04,
566,-8.00e-05,
567,2.00e-04,
568,2.00e-04,
569,-8.00e-05,
570,0.00e+00,
571,2.40e-04,
572,2.40e-04,
573,-8.00e-05,
574,-8.00e-05,
575,2.80e-04,
576,2.40e-04,
577,-8.00e-05,
578,2.40e-04,
579,-8.00e-05,
580,2.40e-04,
581,-8.00e-05,
582,2.80e-04,
583,-8.00e-05,
584,2.40e-04,
585,-8.00e-05,
586,-8.00e-05,
587,2.80e-04,
588,1.60e-04,
589,-1.60e-04,
590,0.00e+00,
591,2.40e-04,
592,2.00e-04,
593,-8.00e-05,
594,2.40e-04,
595,-8.00e-05,
596,-8.00e-05,
597,2.00e-04,
598,-8.00e-05,
599,2.40e-04,
600,2.40e-04,
601,-8.00e-05,
602,2.80e-04,
603,-1.60e-04,
604,2.00e-04,
605,-1.60e-04,
606,2.00e-04,
607,-1.60e-04,
608,-1.60e-04,
609,3.20e-04,
610,2.40e-04,
611,-8.00e-05,
612,1.60e-04,
613,-1.20e-04,
614,4.00e-04,
615,-2.40e-04,
616,-2.40e-04,
617,2.80e-04,
618,2.80e-04,
619,-8.00e-05,
620,-8.00e-05,
621,2.40e-04,
622,2.40e-04,
623,0.00e+00,
624,-8.00e-05,
625,2.40e-04,
626,2.00e-04,
627,-8.00e-05,
628,2.40e-04,
629,-2.40e-04,
630,2.40e-04,
631,-1.60e-04,
632,2.40e-04,
633,-8.00e-05,
634,3.20e-04,
635,0.00e+00,
636,2.40e-04,
637,-8.00e-05,
638,-8.00e-05,
639,2.40e-04,
640,3.20e-04,
641,-1.60e-04,
642,-8.00e-05,
643,2.40e-04,
644,0.00e+00,
645,2.40e-04,
646,-8.00e-05,
647,2.40e-04,
648,-8.00e-05,
649,2.80e-04,
650,2.40e-04,
651,-8.00e-05,
652,2.40e-04,
653,-8.00e-05,
654,-1.60e-04,
655,3.20e-04,
656,2.40e-04,
657,-8.00e-05,
658,2.00e-04,
659,-1.60e-04,
660,-8.00e-05,
661,4.00e-04,
662,-8.00e-05,
663,2.80e-04,
664,-8.00e-05,
665,3.20e-04,
666,-8.00e-05,
667,2.40e-04,
668,-8.00e-05,
669,2.80e-04,
670,2.80e-04,
671,-8.00e-05,
672,-8.00e-05,
673,2.00e-04,
674,3.20e-04,
675,-8.00e-05,
676,2.40e-04,
677,-1.60e-04,
678,-1.60e-04,
679,3.20e-04,
680,3.20e-04,
681,0.00e+00,
682,-8.00e-05,
683,3.20e-04,
684,2.40e-04,
685,-8.00e-05,
686,2.80e-04,
687,-1.60e-04,
688,-8.00e-05,
689,2.40e-04,
690,-8.00e-05,
691,2.40e-04,
692,0.00e+00,
693,3.20e-04,
694,-8.00e-05,
695,2.80e-04,
696,3.20e-04,
697,-8.00e-05,
698,2.80e-04,
699,-1.60e-04,
700,2.80e-04,
701,-1.60e-04,
702,2.40e-04,
703,-1.60e-04,
704,3.20e-04,
705,-1.60e-04,
706,3.20e-04,
707,-8.00e-05,
708,-1.60e-04,
709,3.20e-04,
710,3.20e-04,
711,-1.60e-04,
712,-8.00e-05,
713,2.40e-04,
714,2.40e-04,
715,-8.00e-05,
716,3.20e-04,
717,-1.60e-04,
718,-8.00e-05,
719,2.40e-04,
720,-8.00e-05,
721,3.20e-04,
722,-8.00e-05,
723,2.80e-04,
724,2.80e-04,
725,-8.00e-05,
726,-8.00e-05,
727,3.20e-04,
728,2.40e-04,
729,-8.00e-05,
730,2.40e-04,
731,-2.40e-04,
732,2.40e-04,
733,-8.00e-05,
734,2.40e-04,
735,-8.00e-05,
736,2.40e-04,
737,-8.00e-05,
738,2.40e-04,
739,-8.00e-05,
740,-1.60e-04,
741,2.80e-04,
742,-8.00e-05,
743,2.40e-04,
744,2.00e-04,
745,-1.60e-04,
746,2.80e-04,
747,-8.00e-05,
748,2.80e-04,
749,-8.00e-05,
750,3.20e-04,
751,-8.00e-05,
752,-8.00e-05,
753,2.80e-04,
754,3.20e-04,
755,-1.60e-04,
756,3.20e-04,
757,-8.00e-05,
758,-8.00e-05,
759,3.20e-04,
760,2.40e-04,
761,-1.60e-04,
762,-8.00e-05,
763,2.80e-04,
764,-8.00e-05,
765,2.40e-04,
766,-8.00e-05,
767,2.80e-04,
768,-8.00e-05,
769,2.40e-04,
770,-8.00e-05,
771,2.40e-04,
772,2.00e-04,
773,-1.60e-04,
774,-8.00e-05,
775,1.60e-04,
776,-8.00e-05,
777,2.40e-04,
778,2.80e-04,
779,-8.00e-05,
780,1.60e-04,
781,-1.60e-04,
782,2.80e-04,
783,-8.00e-05,
784,2.80e-04,
785,-8.00e-05,
786,2.40e-04,
787,-8.00e-05,
788,3.20e-04,
789,-8.00e-05,
790,-8.00e-05,
791,2.40e-04,
792,2.40e-04,
793,-8.00e-05,
794,-1.60e-04,
795,2.40e-04,
796,-1.60e-04,
797,2.40e-04,
798,2.40e-04,
799,-8.00e-05,
800,-8.00e-05,
801,3.20e-04,
802,-1.60e-04,
803,2.80e-04,
804,-8.00e-05,
805,2.00e-04,
806,2.40e-04,
807,-8.00e-05,
808,0.00e+00,
809,3.20e-04,
810,1.60e-04,
811,-1.60e-04,
812,-8.00e-05,
813,2.80e-04,
814,2.40e-04,
815,-1.60e-04,
816,-8.00e-05,
817,4.00e-04,
818,0.00e+00,
819,3.20e-04,
820,2.40e-04,
821,-8.00e-05,
822,2.40e-04,
823,-1.60e-04,
824,-8.00e-05,
825,3.20e-04,
826,2.40e-04,
827,-8.00e-05,
828,0.00e+00,
829,2.40e-04,
830,3.20e-04,
831,-8.00e-05,
832,2.40e-04,
833,-8.00e-05,
834,-8.00e-05,
835,2.40e-04,
836,-8.00e-05,
837,2.40e-04,
838,2.40e-04,
839,-8.00e-05,
840,2.40e-04,
841,-1.60e-04,
842,-8.00e-05,
843,2.40e-04,
844,2.40e-04,
845,-1.20e-04,
846,2.40e-04,
847,-8.00e-05,
848,2.40e-04,
849,-8.00e-05,
850,2.00e-04,
851,-8.00e-05,
852,-1.60e-04,
853,2.40e-04,
854,2.80e-04,
855,-8.00e-05,
856,-8.00e-05,
857,2.40e-04,
858,1.60e-04,
859,-1.60e-04,
860,2.40e-04,
861,-1.60e-04,
862,2.80e-04,
863,-8.00e-05,
864,-8.00e-05,
865,1.60e-04,
866,-8.00e-05,
867,2.40e-04,
868,2.40e-04,
869,-8.00e-05,
870,-8.00e-05,
871,2.40e-04,
872,2.80e-04,
873,-8.00e-05,
874,3.20e-04,
875,-8.00e-05,
876,0.00e+00,
877,2.40e-04,
878,-1.60e-04,
879,2.40e-04,
880,2.40e-04,
881,-8.00e-05,
882,-8.00e-05,
883,2.40e-04,
884,-8.00e-05,
885,2.00e-04,
886,-8.00e-05,
887,2.40e-04,
888,2.40e-04,
889,-8.00e-05,
890,3.20e-04,
891,-8.00e-05,
892,2.40e-04,
893,-1.60e-04,
894,2.40e-04,
895,-8.00e-05,
896,-8.00e-05,
897,2.40e-04,
898,2.40e-04,
899,-8.00e-05,
900,3.20e-04,
901,-8.00e-05,
902,2.40e-04,
903,-2.40e-04,
904,1.60e-04,
905,-8.00e-05,
906,2.80e-04,
907,-2.40e-04,
908,-2.40e-04,
909,2.00e-04,
910,-1.60e-04,
911,2.40e-04,
912,-1.60e-04,
913,2.00e-04,
914,-1.60e-04,
915,3.20e-04,
916,2.40e-04,
917,-1.60e-04,
918,-1.60e-04,
919,2.40e-04,
920,-1.60e-04,
921,2.40e-04,
922,0.00e+00,
923,3.20e-04,
924,2.40e-04,
925,-8.00e-05,
926,-1.60e-04,
927,2.00e-04,
928,-1.60e-04,
929,2.40e-04,
930,0.00e+00,
931,2.40e-04,
932,-8.00e-05,
933,2.40e-04,
934,-1.60e-04,
935,2.40e-04,
936,-8.00e-05,
937,2.40e-04,
938,-8.00e-05,
939,2.40e-04,
940,-8.00e-05,
941,3.20e-04,
942,-1.60e-04,
943,3.20e-04,
944,3.20e-04,
945,-1.60e-04,
946,-8.00e-05,
947,2.40e-04,
948,3.20e-04,
949,-8.00e-05,
950,3.20e-04,
951,-1.60e-04,
952,-8.00e-05,
953,2.40e-04,
954,-1.60e-04,
955,2.40e-04,
956,2.40e-04,
957,-8.00e-05,
958,-8.00e-05,
959,2.40e-04,
960,-8.00e-05,
961,1.60e-04,
962,-8.00e-05,
963,2.00e-04,
964,-8.00e-05,
965,2.40e-04,
966,-8.00e-05,
967,1.60e-04,
968,-8.00e-05,
969,2.40e-04,
970,2.00e-04,
971,-8.00e-05,
972,-8.00e-05,
973,2.00e-04,
974,2.80e-04,
975,-8.00e-05,
976,-8.00e-05,
977,2.40e-04,
978,2.40e-04,
979,-1.60e-04,
980,1.60e-04,
981,-1.60e-04,
982,-8.00e-05,
983,2.40e-04,
984,2.00e-04,
985,-8.00e-05,
986,0.00e+00,
987,2.80e-04,
988,-8.00e-05,
989,3.20e-04,
990,-8.00e-05,
991,2.40e-04,
992,-8.00e-05,
993,2.00e-04,
994,2.40e-04,
995,-1.60e-04,
996,2.40e-04,
997,-1.60e-04,
998,-8.00e-05,
999,2.00e-04,
1000,-8.00e-05,
1001,2.40e-04,
1002,2.40e-04,
1003,-8.00e-05,
1004,3.20e-04,
1005,-8.00e-05,
1006,-8.00e-05,
1007,2.00e-04,
1008,2.40e-04,
1009,-8.00e-05,
1010,2.40e-04,
1011,-8.00e-05,
1012,2.40e-04,
1013,-1.60e-04,
1014,-1.60e-04,
1015,1.60e-04,
1016,-8.00e-05,
1017,2.00e-04,
1018,-1.60e-04,
1019,3.20e-04,
1020,-1.60e-04,
1021,1.60e-04,
1022,-8.00e-05,
1023,2.80e-04,
1024,1.60e-04,
1025,-8.00e-05,
1026,-8.00e-05,
1027,2.40e-04,
1028,2.00e-04,
1029,-8.00e-05,
1030,-8.00e-05,
1031,2.00e-04,
1032,2.40e-04,
1033,-8.00e-05,
1034,-8.00e-05,
1035,2.40e-04,
1036,2.40e-04,
1037,-8.00e-05,
1038,2.40e-04,
1039,-8.00e-05,
1040,-1.60e-04,
1041,3.20e-04,
1042,2.40e-04,
1043,-8.00e-05,
1044,2.40e-04,
1045,-8.00e-05,
1046,3.20e-04,
1047,-1.60e-04,
1048,2.40e-04,
1049,-1.60e-04,
1050,0.00e+00,
1051,3.20e-04,
1052,-8.00e-05,
1053,3.20e-04,
1054,2.40e-04,
1055,-1.60e-04,
1056,-8.00e-05,
1057,2.00e-04,
1058,3.20e-04,
1059,-2.40e-04,
1060,-1.60e-04,
1061,2.40e-04,
1062,1.60e-04,
1063,-8.00e-05,
1064,-8.00e-05,
1065,3.20e-04,
1066,-1.60e-04,
1067,2.40e-04,
1068,2.40e-04,
1069,-8.00e-05,
1070,1.60e-04,
1071,-1.60e-04,
1072,2.40e-04,
1073,-8.00e-05,
1074,2.00e-04,
1075,-1.60e-04,
1076,1.60e-04,
1077,-1.60e-04,
1078,-1.60e-04,
1079,2.00e-04,
1080,2.40e-04,
1081,-8.00e-05,
1082,2.40e-04,
1083,-1.60e-04,
1084,-8.00e-05,
1085,2.40e-04,
1086,2.40e-04,
1087,-4.00e-05,
1088,2.40e-04,
1089,-8.00e-05,
1090,2.40e-04,
1091,-8.00e-05,
1092,2.40e-04,
1093,-1.60e-04,
1094,-8.00e-05,
1095,2.40e-04,
1096,2.80e-04,
1097,-1.60e-04,
1098,-1.60e-04,
1099,2.00e-04,
1100,-8.00e-05,
1101,2.40e-04,
1102,2.40e-04,
1103,-8.00e-05,
1104,-8.00e-05,
1105,3.20e-04,
1106,-1.60e-04,
1107,2.80e-04,
1108,-8.00e-05,
1109,2.00e-04,
1110,2.40e-04,
1111,-8.00e-05,
1112,2.40e-04,
1113,-1.60e-04,
1114,2.00e-04,
1115,-8.00e-05,
1116,2.40e-04,
1117,-8.00e-05,
1118,-8.00e-05,
1119,2.40e-04,
1120,2.00e-04,
1121,-8.00e-05,
1122,2.40e-04,
1123,-8.00e-05,
1124,-8.00e-05,
1125,2.40e-04,
1126,-8.00e-05,
1127,2.80e-04,
1128,2.40e-04,
1129,-8.00e-05,
1130,4.00e-04,
1131,-1.60e-04,
1132,-8.00e-05,
1133,2.40e-04,
1134,0.00e+00,
1135,2.40e-04,
1136,2.80e-04,
1137,-1.60e-04,
1138,-8.00e-05,
1139,3.20e-04,
1140,2.40e-04,
1141,-1.60e-04,
1142,-8.00e-05,
1143,2.80e-04,
1144,2.40e-04,
1145,-1.60e-04,
1146,2.80e-04,
1147,-1.60e-04,
1148,-1.60e-04,
1149,2.40e-04,
1150,2.40e-04,
1151,-8.00e-05,
1152,2.40e-04,
1153,-8.00e-05,
1154,-8.00e-05,
1155,2.00e-04,
1156,0.00e+00,
1157,3.20e-04,
1158,2.40e-04,
1159,-8.00e-05,
1160,2.40e-04,
1161,-8.00e-05,
1162,-8.00e-05,
1163,2.40e-04,
1164,3.20e-04,
1165,-8.00e-05,
1166,2.40e-04,
1167,-8.00e-05,
1168,3.20e-04,
1169,0.00e+00,
1170,2.40e-04,
1171,0.00e+00,
1172,2.40e-04,
1173,-8.00e-05,
1174,0.00e+00,
1175,3.20e-04,
1176,3.60e-04,
1177,-8.00e-05,
1178,-8.00e-05,
1179,2.40e-04,
1180,0.00e+00,
1181,2.40e-04,
1182,-8.00e-05,
1183,2.40e-04,
1184,0.00e+00,
1185,2.40e-04,
1186,2.00e-04,
1187,-8.00e-05,
1188,0.00e+00,
1189,3.20e-04,
1190,2.40e-04,
1191,-1.20e-04,
1192,-1.60e-04,
1193,2.40e-04,
1194,3.20e-04,
1195,-1.60e-04,
1196,2.40e-04,
1197,-8.00e-05,
1198,2.40e-04,
1199,-8.00e-05,
