fastdiffamp/data-noise-set/unb-right-demod/NewFile3.csv

X,CH1,Start,Increment,
Sequence,Volt,-5.490000e+00,1.000000e-02
0,-8.00e-05,
1,3.20e-04,
2,2.00e-04,
3,-8.00e-05,
4,-1.60e-04,
5,2.40e-04,
6,2.00e-04,
7,-1.60e-04,
8,-8.00e-05,
9,2.40e-04,
10,-8.00e-05,
11,2.00e-04,
12,1.20e-04,
13,-1.60e-04,
14,1.60e-04,
15,-8.00e-05,
16,2.00e-04,
17,-8.00e-05,
18,-8.00e-05,
19,2.00e-04,
20,-8.00e-05,
21,2.40e-04,
22,2.40e-04,
23,-1.60e-04,
24,-8.00e-05,
25,2.40e-04,
26,-1.60e-04,
27,1.60e-04,
28,2.00e-04,
29,-1.60e-04,
30,1.60e-04,
31,-8.00e-05,
32,-8.00e-05,
33,2.00e-04,
34,-1.60e-04,
35,2.00e-04,
36,-8.00e-05,
37,2.40e-04,
38,-8.00e-05,
39,1.60e-04,
40,2.00e-04,
41,-1.60e-04,
42,2.40e-04,
43,-8.00e-05,
44,-2.00e-04,
45,2.00e-04,
46,-8.00e-05,
47,2.40e-04,
48,2.00e-04,
49,-1.60e-04,
50,1.60e-04,
51,-1.60e-04,
52,-8.00e-05,
53,2.00e-04,
54,1.60e-04,
55,-1.60e-04,
56,-8.00e-05,
57,2.00e-04,
58,-8.00e-05,
59,1.60e-04,
60,-1.60e-04,
61,2.00e-04,
62,-1.60e-04,
63,1.60e-04,
64,-1.60e-04,
65,1.60e-04,
66,1.60e-04,
67,-8.00e-05,
68,2.40e-04,
69,-1.60e-04,
70,-1.60e-04,
71,1.60e-04,
72,3.20e-04,
73,-1.60e-04,
74,-8.00e-05,
75,2.40e-04,
76,2.40e-04,
77,-8.00e-05,
78,2.00e-04,
79,-8.00e-05,
80,-1.60e-04,
81,2.40e-04,
82,2.40e-04,
83,-1.60e-04,
84,-1.60e-04,
85,2.00e-04,
86,-8.00e-05,
87,1.60e-04,
88,1.60e-04,
89,-1.60e-04,
90,1.60e-04,
91,-1.60e-04,
92,1.60e-04,
93,-1.60e-04,
94,1.60e-04,
95,-8.00e-05,
96,-8.00e-05,
97,2.40e-04,
98,-8.00e-05,
99,2.40e-04,
100,-1.60e-04,
101,2.00e-04,
102,1.60e-04,
103,-8.00e-05,
104,2.40e-04,
105,-1.60e-04,
106,2.40e-04,
107,-1.60e-04,
108,-8.00e-05,
109,2.00e-04,
110,-1.60e-04,
111,1.60e-04,
112,-8.00e-05,
113,3.20e-04,
114,2.40e-04,
115,-8.00e-05,
116,-1.60e-04,
117,1.60e-04,
118,-1.60e-04,
119,2.00e-04,
120,1.60e-04,
121,-8.00e-05,
122,-8.00e-05,
123,2.40e-04,
124,8.00e-05,
125,-1.60e-04,
126,1.60e-04,
127,-1.60e-04,
128,2.40e-04,
129,-1.60e-04,
130,-1.60e-04,
131,1.60e-04,
132,2.00e-04,
133,-1.60e-04,
134,-8.00e-05,
135,2.40e-04,
136,1.60e-04,
137,-1.60e-04,
138,-1.60e-04,
139,2.40e-04,
140,1.60e-04,
141,-2.40e-04,
142,2.40e-04,
143,-8.00e-05,
144,2.00e-04,
145,-8.00e-05,
146,-1.60e-04,
147,1.60e-04,
148,-1.60e-04,
149,1.20e-04,
150,2.00e-04,
151,-1.60e-04,
152,2.40e-04,
153,-1.60e-04,
154,1.60e-04,
155,-8.00e-05,
156,2.00e-04,
157,-1.60e-04,
158,-1.60e-04,
159,1.60e-04,
160,-8.00e-05,
161,1.60e-04,
162,-8.00e-05,
163,1.60e-04,
164,-1.60e-04,
165,1.60e-04,
166,-1.60e-04,
167,1.60e-04,
168,-1.60e-04,
169,1.60e-04,
170,1.60e-04,
171,-1.60e-04,
172,1.20e-04,
173,-1.60e-04,
174,1.20e-04,
175,-1.60e-04,
176,1.20e-04,
177,-1.60e-04,
178,2.00e-04,
179,-1.60e-04,
180,1.60e-04,
181,-1.60e-04,
182,1.60e-04,
183,-1.60e-04,
184,2.40e-04,
185,-8.00e-05,
186,8.00e-05,
187,-1.60e-04,
188,1.60e-04,
189,-1.60e-04,
190,-1.60e-04,
191,1.60e-04,
192,1.60e-04,
193,-1.60e-04,
194,-1.60e-04,
195,1.20e-04,
196,1.60e-04,
197,-1.60e-04,
198,-1.60e-04,
199,2.00e-04,
200,1.60e-04,
201,-1.60e-04,
202,1.60e-04,
203,-1.60e-04,
204,-8.00e-05,
205,1.60e-04,
206,8.00e-05,
207,-1.60e-04,
208,8.00e-05,
209,-1.60e-04,
210,-1.60e-04,
211,1.60e-04,
212,-1.60e-04,
213,2.00e-04,
214,-1.60e-04,
215,2.40e-04,
216,2.00e-04,
217,-1.60e-04,
218,-1.60e-04,
219,2.40e-04,
220,1.60e-04,
221,-1.60e-04,
222,1.60e-04,
223,-8.00e-05,
224,-1.60e-04,
225,2.80e-04,
226,1.60e-04,
227,-1.60e-04,
228,-8.00e-05,
229,2.00e-04,
230,-8.00e-05,
231,1.60e-04,
232,-8.00e-05,
233,2.40e-04,
234,-8.00e-05,
235,2.40e-04,
236,-1.60e-04,
237,2.40e-04,
238,-1.60e-04,
239,2.40e-04,
240,-1.60e-04,
241,2.00e-04,
242,-1.60e-04,
243,2.00e-04,
244,-1.20e-04,
245,2.00e-04,
246,-8.00e-05,
247,1.60e-04,
248,1.60e-04,
249,-1.60e-04,
250,1.20e-04,
251,-2.40e-04,
252,-2.40e-04,
253,2.40e-04,
254,-1.60e-04,
255,2.00e-04,
256,1.60e-04,
257,-1.60e-04,
258,-1.60e-04,
259,1.60e-04,
260,1.60e-04,
261,-1.60e-04,
262,1.60e-04,
263,-1.60e-04,
264,2.40e-04,
265,-1.60e-04,
266,2.40e-04,
267,-1.60e-04,
268,1.20e-04,
269,-1.60e-04,
270,-1.60e-04,
271,1.60e-04,
272,1.20e-04,
273,-1.60e-04,
274,1.60e-04,
275,-1.60e-04,
276,1.60e-04,
277,-1.60e-04,
278,1.20e-04,
279,-1.60e-04,
280,1.60e-04,
281,-8.00e-05,
282,2.40e-04,
283,-1.60e-04,
284,-8.00e-05,
285,1.60e-04,
286,1.60e-04,
287,-1.60e-04,
288,-1.60e-04,
289,1.60e-04,
290,-1.60e-04,
291,2.00e-04,
292,2.00e-04,
293,-1.60e-04,
294,2.40e-04,
295,-1.20e-04,
296,-2.40e-04,
297,2.40e-04,
298,-1.60e-04,
299,2.40e-04,
300,1.60e-04,
301,-1.60e-04,
302,-1.60e-04,
303,2.00e-04,
304,1.60e-04,
305,-1.60e-04,
306,-2.40e-04,
307,2.00e-04,
308,-2.40e-04,
309,2.00e-04,
310,2.00e-04,
311,-1.60e-04,
312,-8.00e-05,
313,2.40e-04,
314,1.20e-04,
315,-8.00e-05,
316,2.00e-04,
317,-1.60e-04,
318,-1.60e-04,
319,1.60e-04,
320,-1.60e-04,
321,1.60e-04,
322,-1.60e-04,
323,2.00e-04,
324,-1.60e-04,
325,2.00e-04,
326,1.60e-04,
327,-1.60e-04,
328,-1.60e-04,
329,1.60e-04,
330,1.60e-04,
331,-1.60e-04,
332,-8.00e-05,
333,2.40e-04,
334,2.40e-04,
335,-1.60e-04,
336,-1.60e-04,
337,1.60e-04,
338,1.60e-04,
339,-1.60e-04,
340,-1.60e-04,
341,1.60e-04,
342,1.20e-04,
343,-1.60e-04,
344,-1.60e-04,
345,1.60e-04,
346,1.60e-04,
347,-1.60e-04,
348,-1.60e-04,
349,1.60e-04,
350,1.60e-04,
351,-8.00e-05,
352,-8.00e-05,
353,1.60e-04,
354,2.40e-04,
355,-1.60e-04,
356,2.40e-04,
357,-1.60e-04,
358,-1.60e-04,
359,1.60e-04,
360,-1.60e-04,
361,1.20e-04,
362,-8.00e-05,
363,1.60e-04,
364,-1.60e-04,
365,2.40e-04,
366,1.60e-04,
367,-8.00e-05,
368,2.00e-04,
369,-8.00e-05,
370,1.60e-04,
371,-1.60e-04,
372,1.60e-04,
373,-1.60e-04,
374,-1.60e-04,
375,2.00e-04,
376,1.60e-04,
377,-1.60e-04,
378,1.60e-04,
379,-8.00e-05,
380,2.00e-04,
381,-8.00e-05,
382,1.60e-04,
383,-1.60e-04,
384,1.60e-04,
385,-1.60e-04,
386,1.60e-04,
387,-1.60e-04,
388,1.60e-04,
389,-1.60e-04,
390,2.00e-04,
391,-1.60e-04,
392,2.40e-04,
393,-1.60e-04,
394,-1.60e-04,
395,2.00e-04,
396,1.60e-04,
397,-1.60e-04,
398,-1.60e-04,
399,2.40e-04,
400,-8.00e-05,
401,2.40e-04,
402,2.40e-04,
403,-1.60e-04,
404,2.40e-04,
405,-8.00e-05,
406,1.60e-04,
407,-1.60e-04,
408,-8.00e-05,
409,1.60e-04,
410,2.80e-04,
411,-8.00e-05,
412,-1.60e-04,
413,2.80e-04,
414,2.40e-04,
415,-8.00e-05,
416,-8.00e-05,
417,2.00e-04,
418,2.40e-04,
419,-8.00e-05,
420,1.60e-04,
421,-1.60e-04,
422,1.60e-04,
423,-8.00e-05,
424,-1.60e-04,
425,1.60e-04,
426,1.20e-04,
427,-1.60e-04,
428,-8.00e-05,
429,1.60e-04,
430,1.20e-04,
431,-1.60e-04,
432,1.20e-04,
433,-1.20e-04,
434,2.40e-04,
435,-8.00e-05,
436,-1.60e-04,
437,1.60e-04,
438,-8.00e-05,
439,1.60e-04,
440,1.60e-04,
441,-1.60e-04,
442,-8.00e-05,
443,2.00e-04,
444,1.60e-04,
445,-2.40e-04,
446,1.60e-04,
447,-8.00e-05,
448,1.60e-04,
449,-8.00e-05,
450,2.40e-04,
451,-1.60e-04,
452,-8.00e-05,
453,2.00e-04,
454,-1.60e-04,
455,1.60e-04,
456,2.40e-04,
457,-8.00e-05,
458,2.00e-04,
459,-1.60e-04,
460,1.60e-04,
461,-1.60e-04,
462,2.40e-04,
463,-1.60e-04,
464,-1.60e-04,
465,1.60e-04,
466,1.20e-04,
467,-1.20e-04,
468,1.60e-04,
469,-2.40e-04,
470,-2.40e-04,
471,1.60e-04,
472,8.00e-05,
473,-1.60e-04,
474,2.40e-04,
475,-8.00e-05,
476,1.60e-04,
477,-1.60e-04,
478,1.60e-04,
479,-8.00e-05,
480,-1.60e-04,
481,2.00e-04,
482,-8.00e-05,
483,2.40e-04,
484,-1.60e-04,
485,1.60e-04,
486,-1.60e-04,
487,2.40e-04,
488,2.00e-04,
489,-8.00e-05,
490,-1.60e-04,
491,1.60e-04,
492,-8.00e-05,
493,2.00e-04,
494,2.40e-04,
495,-1.60e-04,
496,1.60e-04,
497,-8.00e-05,
498,2.40e-04,
499,-1.60e-04,
500,-2.40e-04,
501,1.60e-04,
502,-1.60e-04,
503,1.60e-04,
504,1.60e-04,
505,-1.60e-04,
506,2.40e-04,
507,-1.60e-04,
508,-8.00e-05,
509,1.60e-04,
510,-1.60e-04,
511,1.60e-04,
512,1.60e-04,
513,-2.40e-04,
514,1.60e-04,
515,-1.60e-04,
516,1.60e-04,
517,-2.40e-04,
518,-2.40e-04,
519,1.20e-04,
520,-1.60e-04,
521,1.60e-04,
522,8.00e-05,
523,-1.60e-04,
524,1.20e-04,
525,-1.60e-04,
526,1.20e-04,
527,-1.60e-04,
528,-1.60e-04,
529,8.00e-05,
530,-2.40e-04,
531,2.00e-04,
532,-1.60e-04,
533,1.60e-04,
534,1.60e-04,
535,-2.40e-04,
536,-1.60e-04,
537,1.60e-04,
538,1.20e-04,
539,-1.60e-04,
540,-1.60e-04,
541,1.20e-04,
542,-2.40e-04,
543,1.60e-04,
544,1.20e-04,
545,-1.60e-04,
546,-1.60e-04,
547,1.60e-04,
548,1.20e-04,
549,-1.60e-04,
550,1.20e-04,
551,-1.60e-04,
552,-8.00e-05,
553,2.00e-04,
554,-8.00e-05,
555,2.40e-04,
556,1.60e-04,
557,-1.60e-04,
558,-1.60e-04,
559,2.40e-04,
560,-8.00e-05,
561,2.00e-04,
562,2.40e-04,
563,-1.60e-04,
564,1.60e-04,
565,-1.60e-04,
566,-8.00e-05,
567,1.60e-04,
568,-8.00e-05,
569,2.40e-04,
570,1.60e-04,
571,-2.40e-04,
572,2.80e-04,
573,-1.60e-04,
574,-8.00e-05,
575,1.60e-04,
576,-8.00e-05,
577,1.60e-04,
578,-1.60e-04,
579,2.00e-04,
580,2.00e-04,
581,-2.40e-04,
582,8.00e-05,
583,-2.40e-04,
584,-1.60e-04,
585,1.60e-04,
586,8.00e-05,
587,-2.40e-04,
588,1.20e-04,
589,-1.60e-04,
590,-2.40e-04,
591,1.60e-04,
592,2.40e-04,
593,-2.40e-04,
594,1.60e-04,
595,-1.60e-04,
596,-1.20e-04,
597,1.60e-04,
598,2.00e-04,
599,-1.60e-04,
600,8.00e-05,
601,-2.00e-04,
602,-1.60e-04,
603,1.60e-04,
604,-2.40e-04,
605,2.00e-04,
606,1.20e-04,
607,-1.60e-04,
608,1.60e-04,
609,-2.40e-04,
610,1.60e-04,
611,-1.60e-04,
612,-1.60e-04,
613,1.60e-04,
614,-8.00e-05,
615,1.60e-04,
616,1.60e-04,
617,-1.60e-04,
618,-2.40e-04,
619,1.60e-04,
620,1.60e-04,
621,-8.00e-05,
622,-1.60e-04,
623,1.60e-04,
624,-8.00e-05,
625,2.00e-04,
626,1.60e-04,
627,-8.00e-05,
628,-2.40e-04,
629,1.60e-04,
630,2.40e-04,
631,-1.60e-04,
632,1.60e-04,
633,-1.60e-04,
634,-1.60e-04,
635,1.60e-04,
636,1.60e-04,
637,-1.60e-04,
638,1.60e-04,
639,-1.60e-04,
640,-1.60e-04,
641,1.60e-04,
642,2.00e-04,
643,-1.60e-04,
644,2.00e-04,
645,-8.00e-05,
646,1.20e-04,
647,-2.40e-04,
648,-8.00e-05,
649,1.60e-04,
650,-8.00e-05,
651,1.60e-04,
652,-1.60e-04,
653,2.40e-04,
654,1.60e-04,
655,-1.60e-04,
656,-1.60e-04,
657,8.00e-05,
658,-8.00e-05,
659,1.60e-04,
660,-8.00e-05,
661,2.40e-04,
662,2.00e-04,
663,-1.60e-04,
664,-1.60e-04,
665,2.40e-04,
666,2.00e-04,
667,-8.00e-05,
668,-1.60e-04,
669,2.40e-04,
670,1.60e-04,
671,-1.60e-04,
672,1.60e-04,
673,-1.60e-04,
674,2.00e-04,
675,-1.60e-04,
676,-8.00e-05,
677,2.00e-04,
678,1.60e-04,
679,-8.00e-05,
680,-1.60e-04,
681,1.20e-04,
682,-1.60e-04,
683,1.60e-04,
684,8.00e-05,
685,-1.60e-04,
686,1.20e-04,
687,-1.60e-04,
688,2.00e-04,
689,-1.60e-04,
690,-1.60e-04,
691,2.40e-04,
692,-2.40e-04,
693,2.00e-04,
694,-3.20e-04,
695,1.60e-04,
696,1.60e-04,
697,-1.60e-04,
698,-1.60e-04,
699,2.00e-04,
700,1.60e-04,
701,-2.40e-04,
702,-1.60e-04,
703,1.20e-04,
704,1.60e-04,
705,-1.60e-04,
706,-8.00e-05,
707,1.60e-04,
708,1.60e-04,
709,-1.60e-04,
710,1.60e-04,
711,-2.40e-04,
712,1.60e-04,
713,-1.60e-04,
714,1.60e-04,
715,-1.60e-04,
716,-8.00e-05,
717,2.40e-04,
718,1.60e-04,
719,-8.00e-05,
720,1.60e-04,
721,-1.60e-04,
722,-8.00e-05,
723,2.40e-04,
724,-1.60e-04,
725,2.00e-04,
726,-2.40e-04,
727,1.60e-04,
728,2.40e-04,
729,-1.60e-04,
730,-2.40e-04,
731,1.60e-04,
732,-1.60e-04,
733,1.60e-04,
734,8.00e-05,
735,-1.60e-04,
736,-2.40e-04,
737,1.20e-04,
738,8.00e-05,
739,-1.60e-04,
740,-8.00e-05,
741,1.60e-04,
742,1.60e-04,
743,-1.60e-04,
744,-1.60e-04,
745,3.20e-04,
746,2.40e-04,
747,-8.00e-05,
748,-1.60e-04,
749,1.60e-04,
750,1.60e-04,
751,-8.00e-05,
752,-1.60e-04,
753,2.00e-04,
754,2.00e-04,
755,-1.60e-04,
756,-1.60e-04,
757,2.40e-04,
758,2.40e-04,
759,-2.40e-04,
760,-1.60e-04,
761,2.40e-04,
762,2.00e-04,
763,-8.00e-05,
764,1.60e-04,
765,-1.60e-04,
766,-8.00e-05,
767,1.60e-04,
768,2.00e-04,
769,-1.60e-04,
770,2.00e-04,
771,-1.60e-04,
772,-1.60e-04,
773,3.20e-04,
774,3.20e-04,
775,-8.00e-05,
776,1.60e-04,
777,-2.40e-04,
778,2.00e-04,
779,-1.60e-04,
780,2.00e-04,
781,-1.60e-04,
782,2.40e-04,
783,-2.40e-04,
784,-8.00e-05,
785,1.60e-04,
786,-1.60e-04,
787,2.00e-04,
788,1.60e-04,
789,-1.60e-04,
790,-8.00e-05,
791,2.00e-04,
792,1.20e-04,
793,-1.60e-04,
794,-1.60e-04,
795,1.20e-04,
796,1.60e-04,
797,-1.60e-04,
798,-8.00e-05,
799,1.60e-04,
800,-1.60e-04,
801,2.00e-04,
802,-8.00e-05,
803,2.40e-04,
804,1.60e-04,
805,-1.60e-04,
806,1.60e-04,
807,-1.60e-04,
808,-1.60e-04,
809,2.40e-04,
810,1.60e-04,
811,-1.60e-04,
812,-1.60e-04,
813,2.40e-04,
814,-8.00e-05,
815,1.60e-04,
816,-8.00e-05,
817,1.60e-04,
818,-1.60e-04,
819,1.20e-04,
820,-1.60e-04,
821,2.00e-04,
822,-8.00e-05,
823,2.40e-04,
824,-8.00e-05,
825,2.40e-04,
826,-8.00e-05,
827,1.60e-04,
828,2.00e-04,
829,-8.00e-05,
830,1.60e-04,
831,-1.60e-04,
832,1.60e-04,
833,-8.00e-05,
834,-8.00e-05,
835,2.40e-04,
836,1.60e-04,
837,-2.40e-04,
838,1.60e-04,
839,-2.40e-04,
840,-1.60e-04,
841,1.60e-04,
842,2.40e-04,
843,-8.00e-05,
844,-8.00e-05,
845,1.60e-04,
846,-1.60e-04,
847,1.60e-04,
848,2.40e-04,
849,-8.00e-05,
850,2.00e-04,
851,-1.60e-04,
852,2.40e-04,
853,-1.60e-04,
854,2.40e-04,
855,-1.60e-04,
856,2.40e-04,
857,-8.00e-05,
858,-8.00e-05,
859,1.60e-04,
860,2.00e-04,
861,-1.60e-04,
862,-1.60e-04,
863,1.60e-04,
864,1.20e-04,
865,-1.60e-04,
866,1.60e-04,
867,-1.60e-04,
868,-1.60e-04,
869,1.60e-04,
870,-1.60e-04,
871,2.00e-04,
872,1.60e-04,
873,-8.00e-05,
874,-1.60e-04,
875,1.60e-04,
876,-1.60e-04,
877,2.00e-04,
878,-1.60e-04,
879,1.60e-04,
880,1.60e-04,
881,-1.60e-04,
882,2.40e-04,
883,-1.60e-04,
884,2.40e-04,
885,-1.60e-04,
886,-1.60e-04,
887,2.40e-04,
888,-1.60e-04,
889,2.00e-04,
890,-1.60e-04,
891,1.60e-04,
892,-1.60e-04,
893,2.00e-04,
894,0.00e+00,
895,2.40e-04,
896,1.60e-04,
897,-1.60e-04,
898,-1.60e-04,
899,2.00e-04,
900,2.40e-04,
901,-1.60e-04,
902,-1.60e-04,
903,2.40e-04,
904,3.20e-04,
905,-8.00e-05,
906,-8.00e-05,
907,2.00e-04,
908,1.60e-04,
909,-1.60e-04,
910,-8.00e-05,
911,2.00e-04,
912,1.60e-04,
913,-1.60e-04,
914,-8.00e-05,
915,2.40e-04,
916,2.40e-04,
917,-1.60e-04,
918,2.40e-04,
919,-1.60e-04,
920,-8.00e-05,
921,2.40e-04,
922,-1.60e-04,
923,1.20e-04,
924,2.40e-04,
925,-1.60e-04,
926,-1.60e-04,
927,1.60e-04,
928,-8.00e-05,
929,2.40e-04,
930,2.40e-04,
931,-8.00e-05,
932,2.00e-04,
933,-1.60e-04,
934,1.60e-04,
935,-1.60e-04,
936,1.60e-04,
937,-2.00e-04,
938,1.60e-04,
939,-1.60e-04,
940,-1.60e-04,
941,2.00e-04,
942,1.60e-04,
943,-3.20e-04,
944,1.20e-04,
945,-1.60e-04,
946,1.20e-04,
947,-2.40e-04,
948,1.60e-04,
949,-1.60e-04,
950,1.20e-04,
951,-1.60e-04,
952,-2.40e-04,
953,1.60e-04,
954,-8.00e-05,
955,2.40e-04,
956,2.40e-04,
957,-8.00e-05,
958,2.40e-04,
959,-1.60e-04,
960,-1.60e-04,
961,2.40e-04,
962,1.60e-04,
963,-1.60e-04,
964,1.60e-04,
965,-8.00e-05,
966,1.20e-04,
967,-1.60e-04,
968,1.60e-04,
969,-8.00e-05,
970,-1.60e-04,
971,1.60e-04,
972,-3.20e-04,
973,2.40e-04,
974,2.00e-04,
975,-1.60e-04,
976,-8.00e-05,
977,1.20e-04,
978,8.00e-05,
979,-1.60e-04,
980,1.60e-04,
981,-1.60e-04,
982,-2.40e-04,
983,2.00e-04,
984,1.60e-04,
985,-1.60e-04,
986,1.60e-04,
987,-1.60e-04,
988,-8.00e-05,
989,1.60e-04,
990,-8.00e-05,
991,1.60e-04,
992,-8.00e-05,
993,2.40e-04,
994,-8.00e-05,
995,2.00e-04,
996,-1.60e-04,
997,2.40e-04,
998,2.40e-04,
999,-1.60e-04,
1000,-8.00e-05,
1001,2.40e-04,
1002,1.60e-04,
1003,-2.40e-04,
1004,-8.00e-05,
1005,2.80e-04,
1006,-8.00e-05,
1007,2.40e-04,
1008,1.20e-04,
1009,-1.60e-04,
1010,-1.60e-04,
1011,1.20e-04,
1012,2.00e-04,
1013,-1.60e-04,
1014,-1.60e-04,
1015,1.60e-04,
1016,-1.60e-04,
1017,2.00e-04,
1018,1.60e-04,
1019,-1.60e-04,
1020,1.60e-04,
1021,-1.60e-04,
1022,2.00e-04,
1023,-8.00e-05,
1024,1.60e-04,
1025,-1.60e-04,
1026,-8.00e-05,
1027,2.40e-04,
1028,-8.00e-05,
1029,2.40e-04,
1030,1.60e-04,
1031,-1.60e-04,
1032,1.60e-04,
1033,-1.60e-04,
1034,1.60e-04,
1035,-1.60e-04,
1036,-1.60e-04,
1037,2.00e-04,
1038,-8.00e-05,
1039,2.00e-04,
1040,2.40e-04,
1041,-1.60e-04,
1042,2.40e-04,
1043,-8.00e-05,
1044,-1.60e-04,
1045,1.60e-04,
1046,-1.60e-04,
1047,1.60e-04,
1048,-2.40e-04,
1049,1.60e-04,
1050,1.60e-04,
1051,-1.60e-04,
1052,-1.60e-04,
1053,1.20e-04,
1054,2.40e-04,
1055,-1.60e-04,
1056,1.60e-04,
1057,-1.60e-04,
1058,1.20e-04,
1059,-1.60e-04,
1060,-2.40e-04,
1061,1.60e-04,
1062,-1.60e-04,
1063,1.60e-04,
1064,-1.60e-04,
1065,2.40e-04,
1066,1.20e-04,
1067,-1.60e-04,
1068,-1.60e-04,
1069,1.60e-04,
1070,-1.60e-04,
1071,2.00e-04,
1072,-8.00e-05,
1073,2.00e-04,
1074,-1.60e-04,
1075,2.00e-04,
1076,-1.60e-04,
1077,2.00e-04,
1078,1.60e-04,
1079,-1.60e-04,
1080,1.60e-04,
1081,-1.60e-04,
1082,-8.00e-05,
1083,2.00e-04,
1084,-1.60e-04,
1085,2.00e-04,
1086,-1.60e-04,
1087,2.40e-04,
1088,1.60e-04,
1089,-1.60e-04,
1090,-8.00e-05,
1091,1.60e-04,
1092,1.60e-04,
1093,-1.60e-04,
1094,-1.60e-04,
1095,2.00e-04,
1096,1.60e-04,
1097,-2.40e-04,
1098,1.60e-04,
1099,-1.60e-04,
1100,-1.60e-04,
1101,1.20e-04,
1102,1.60e-04,
1103,-1.60e-04,
1104,8.00e-05,
1105,-1.60e-04,
1106,-1.60e-04,
1107,1.60e-04,
1108,2.00e-04,
1109,-1.60e-04,
1110,2.40e-04,
1111,-1.60e-04,
1112,-2.40e-04,
1113,1.60e-04,
1114,1.20e-04,
1115,-1.60e-04,
1116,2.40e-04,
1117,-1.60e-04,
1118,1.60e-04,
1119,-1.60e-04,
1120,2.00e-04,
1121,-1.60e-04,
1122,-1.60e-04,
1123,1.20e-04,
1124,1.60e-04,
1125,-8.00e-05,
1126,-8.00e-05,
1127,1.60e-04,
1128,8.00e-05,
1129,-1.60e-04,
1130,3.20e-04,
1131,-1.60e-04,
1132,-1.60e-04,
1133,1.60e-04,
1134,1.60e-04,
1135,-1.60e-04,
1136,1.60e-04,
1137,-1.60e-04,
1138,-1.60e-04,
1139,2.40e-04,
1140,-2.40e-04,
1141,1.60e-04,
1142,-8.00e-05,
1143,1.60e-04,
1144,2.00e-04,
1145,-1.60e-04,
1146,1.60e-04,
1147,-1.60e-04,
1148,-1.60e-04,
1149,1.60e-04,
1150,-2.40e-04,
1151,1.20e-04,
1152,-1.60e-04,
1153,1.60e-04,
1154,2.00e-04,
1155,-2.40e-04,
1156,-1.60e-04,
1157,2.40e-04,
1158,-1.60e-04,
1159,1.20e-04,
1160,-1.60e-04,
1161,1.60e-04,
1162,-1.60e-04,
1163,2.00e-04,
1164,-8.00e-05,
1165,2.00e-04,
1166,1.60e-04,
1167,-1.60e-04,
1168,8.00e-05,
1169,-1.60e-04,
1170,-1.60e-04,
1171,2.40e-04,
1172,2.80e-04,
1173,-8.00e-05,
1174,-1.60e-04,
1175,1.60e-04,
1176,-1.60e-04,
1177,2.40e-04,
1178,1.60e-04,
1179,-8.00e-05,
1180,2.40e-04,
1181,-1.60e-04,
1182,-8.00e-05,
1183,1.60e-04,
1184,-8.00e-05,
1185,1.20e-04,
1186,-8.00e-05,
1187,1.60e-04,
1188,-1.60e-04,
1189,1.60e-04,
1190,2.40e-04,
1191,-2.40e-04,
1192,-8.00e-05,
1193,1.20e-04,
1194,-1.60e-04,
1195,1.20e-04,
1196,-1.60e-04,
1197,1.60e-04,
1198,8.00e-05,
1199,-2.40e-04,
