fastdiffamp/data-noise-set/unb-right-demod/NewFile23.csv

X,CH1,Start,Increment,
Sequence,Volt,-5.490000e+00,1.000000e-02
0,2.00e-04,
1,-8.00e-05,
2,1.60e-04,
3,-8.00e-05,
4,2.80e-04,
5,-8.00e-05,
6,2.40e-04,
7,-1.60e-04,
8,2.40e-04,
9,-4.00e-05,
10,2.40e-04,
11,-1.60e-04,
12,2.40e-04,
13,-8.00e-05,
14,2.40e-04,
15,-8.00e-05,
16,2.40e-04,
17,-8.00e-05,
18,-8.00e-05,
19,2.00e-04,
20,2.40e-04,
21,-8.00e-05,
22,1.60e-04,
23,-1.60e-04,
24,-8.00e-05,
25,2.80e-04,
26,-8.00e-05,
27,2.40e-04,
28,1.60e-04,
29,-8.00e-05,
30,-8.00e-05,
31,2.40e-04,
32,-8.00e-05,
33,2.00e-04,
34,-1.60e-04,
35,2.00e-04,
36,-8.00e-05,
37,2.40e-04,
38,2.40e-04,
39,-8.00e-05,
40,2.40e-04,
41,-8.00e-05,
42,2.40e-04,
43,0.00e+00,
44,-1.60e-04,
45,2.80e-04,
46,0.00e+00,
47,2.40e-04,
48,2.00e-04,
49,-8.00e-05,
50,2.80e-04,
51,-8.00e-05,
52,-8.00e-05,
53,2.40e-04,
54,2.40e-04,
55,-8.00e-05,
56,2.00e-04,
57,-1.60e-04,
58,2.40e-04,
59,-4.00e-05,
60,-8.00e-05,
61,2.80e-04,
62,-8.00e-05,
63,2.40e-04,
64,-1.60e-04,
65,2.00e-04,
66,-8.00e-05,
67,2.40e-04,
68,2.40e-04,
69,-1.60e-04,
70,-8.00e-05,
71,2.40e-04,
72,2.40e-04,
73,-1.60e-04,
74,2.40e-04,
75,-8.00e-05,
76,2.00e-04,
77,-8.00e-05,
78,-1.60e-04,
79,1.60e-04,
80,-8.00e-05,
81,2.80e-04,
82,2.40e-04,
83,0.00e+00,
84,0.00e+00,
85,3.20e-04,
86,0.00e+00,
87,3.20e-04,
88,2.80e-04,
89,-8.00e-05,
90,-8.00e-05,
91,3.20e-04,
92,2.80e-04,
93,0.00e+00,
94,3.20e-04,
95,0.00e+00,
96,-8.00e-05,
97,2.40e-04,
98,-8.00e-05,
99,2.40e-04,
100,2.80e-04,
101,0.00e+00,
102,2.40e-04,
103,-8.00e-05,
104,-8.00e-05,
105,2.40e-04,
106,2.40e-04,
107,-8.00e-05,
108,0.00e+00,
109,2.80e-04,
110,3.20e-04,
111,0.00e+00,
112,2.40e-04,
113,-8.00e-05,
114,2.40e-04,
115,0.00e+00,
116,2.40e-04,
117,-8.00e-05,
118,2.40e-04,
119,0.00e+00,
120,-8.00e-05,
121,3.20e-04,
122,-8.00e-05,
123,3.20e-04,
124,0.00e+00,
125,2.80e-04,
126,2.00e-04,
127,-8.00e-05,
128,2.40e-04,
129,-1.60e-04,
130,0.00e+00,
131,3.20e-04,
132,2.40e-04,
133,-8.00e-05,
134,2.40e-04,
135,-8.00e-05,
136,2.00e-04,
137,-8.00e-05,
138,2.80e-04,
139,-1.60e-04,
140,0.00e+00,
141,2.40e-04,
142,2.00e-04,
143,-8.00e-05,
144,-1.60e-04,
145,2.40e-04,
146,-8.00e-05,
147,2.40e-04,
148,2.40e-04,
149,-1.60e-04,
150,2.40e-04,
151,-8.00e-05,
152,-8.00e-05,
153,3.20e-04,
154,4.00e-04,
155,-8.00e-05,
156,2.40e-04,
157,-8.00e-05,
158,2.40e-04,
159,-8.00e-05,
160,-8.00e-05,
161,2.40e-04,
162,2.40e-04,
163,-8.00e-05,
164,3.20e-04,
165,0.00e+00,
166,1.60e-04,
167,-1.60e-04,
168,-8.00e-05,
169,2.40e-04,
170,-8.00e-05,
171,2.40e-04,
172,3.20e-04,
173,-8.00e-05,
174,2.40e-04,
175,-8.00e-05,
176,2.40e-04,
177,-1.60e-04,
178,0.00e+00,
179,3.20e-04,
180,2.40e-04,
181,-8.00e-05,
182,-8.00e-05,
183,2.40e-04,
184,0.00e+00,
185,2.40e-04,
186,2.40e-04,
187,-8.00e-05,
188,2.40e-04,
189,-8.00e-05,
190,3.20e-04,
191,-8.00e-05,
192,3.20e-04,
193,-8.00e-05,
194,-8.00e-05,
195,2.80e-04,
196,2.40e-04,
197,-8.00e-05,
198,-8.00e-05,
199,3.60e-04,
200,2.40e-04,
201,-8.00e-05,
202,-8.00e-05,
203,3.20e-04,
204,-8.00e-05,
205,2.40e-04,
206,-8.00e-05,
207,2.00e-04,
208,2.40e-04,
209,-8.00e-05,
210,2.40e-04,
211,-1.60e-04,
212,2.40e-04,
213,-8.00e-05,
214,-8.00e-05,
215,2.40e-04,
216,2.80e-04,
217,-1.60e-04,
218,1.60e-04,
219,-1.60e-04,
220,-8.00e-05,
221,2.80e-04,
222,-8.00e-05,
223,2.40e-04,
224,-1.60e-04,
225,2.40e-04,
226,-8.00e-05,
227,2.40e-04,
228,-1.60e-04,
229,2.40e-04,
230,-8.00e-05,
231,3.20e-04,
232,2.40e-04,
233,-8.00e-05,
234,2.40e-04,
235,-8.00e-05,
236,-8.00e-05,
237,2.40e-04,
238,0.00e+00,
239,2.80e-04,
240,2.40e-04,
241,-8.00e-05,
242,2.40e-04,
243,-8.00e-05,
244,2.40e-04,
245,-8.00e-05,
246,2.40e-04,
247,-1.60e-04,
248,2.40e-04,
249,-8.00e-05,
250,2.80e-04,
251,-8.00e-05,
252,2.40e-04,
253,-8.00e-05,
254,-8.00e-05,
255,2.40e-04,
256,-8.00e-05,
257,2.80e-04,
258,-8.00e-05,
259,2.40e-04,
260,0.00e+00,
261,3.20e-04,
262,3.20e-04,
263,-8.00e-05,
264,2.40e-04,
265,-8.00e-05,
266,-8.00e-05,
267,4.00e-04,
268,3.20e-04,
269,0.00e+00,
270,2.40e-04,
271,-8.00e-05,
272,2.40e-04,
273,-8.00e-05,
274,0.00e+00,
275,2.40e-04,
276,3.20e-04,
277,-1.60e-04,
278,0.00e+00,
279,2.40e-04,
280,-1.60e-04,
281,2.40e-04,
282,-8.00e-05,
283,2.40e-04,
284,-8.00e-05,
285,3.20e-04,
286,0.00e+00,
287,2.40e-04,
288,2.40e-04,
289,-8.00e-05,
290,-4.00e-05,
291,3.20e-04,
292,3.20e-04,
293,0.00e+00,
294,2.40e-04,
295,-8.00e-05,
296,2.40e-04,
297,-1.60e-04,
298,3.20e-04,
299,-8.00e-05,
300,-8.00e-05,
301,2.80e-04,
302,2.40e-04,
303,-1.60e-04,
304,-8.00e-05,
305,3.20e-04,
306,2.40e-04,
307,-8.00e-05,
308,-1.60e-04,
309,2.40e-04,
310,2.40e-04,
311,-2.40e-04,
312,2.40e-04,
313,-8.00e-05,
314,1.60e-04,
315,-1.60e-04,
316,-8.00e-05,
317,2.80e-04,
318,-8.00e-05,
319,4.00e-04,
320,2.40e-04,
321,-1.60e-04,
322,-8.00e-05,
323,3.20e-04,
324,-8.00e-05,
325,3.20e-04,
326,2.40e-04,
327,0.00e+00,
328,-1.60e-04,
329,2.40e-04,
330,2.40e-04,
331,-8.00e-05,
332,0.00e+00,
333,2.80e-04,
334,-8.00e-05,
335,2.40e-04,
336,0.00e+00,
337,2.40e-04,
338,2.40e-04,
339,-8.00e-05,
340,1.60e-04,
341,-1.60e-04,
342,-8.00e-05,
343,2.40e-04,
344,2.40e-04,
345,0.00e+00,
346,2.40e-04,
347,-8.00e-05,
348,-1.60e-04,
349,2.80e-04,
350,2.40e-04,
351,-8.00e-05,
352,2.40e-04,
353,-8.00e-05,
354,-1.60e-04,
355,2.40e-04,
356,2.40e-04,
357,-1.60e-04,
358,2.40e-04,
359,-1.60e-04,
360,-8.00e-05,
361,2.80e-04,
362,2.40e-04,
363,-8.00e-05,
364,2.40e-04,
365,-8.00e-05,
366,-8.00e-05,
367,2.00e-04,
368,-8.00e-05,
369,2.40e-04,
370,-8.00e-05,
371,2.40e-04,
372,2.40e-04,
373,-8.00e-05,
374,-8.00e-05,
375,2.00e-04,
376,0.00e+00,
377,2.80e-04,
378,0.00e+00,
379,3.20e-04,
380,-8.00e-05,
381,2.40e-04,
382,-8.00e-05,
383,4.00e-04,
384,3.20e-04,
385,0.00e+00,
386,2.40e-04,
387,-8.00e-05,
388,-8.00e-05,
389,2.40e-04,
390,-8.00e-05,
391,2.40e-04,
392,0.00e+00,
393,3.20e-04,
394,0.00e+00,
395,3.20e-04,
396,2.40e-04,
397,-8.00e-05,
398,2.40e-04,
399,0.00e+00,
400,-8.00e-05,
401,2.00e-04,
402,-8.00e-05,
403,2.40e-04,
404,2.40e-04,
405,-8.00e-05,
406,2.80e-04,
407,-8.00e-05,
408,0.00e+00,
409,3.20e-04,
410,2.40e-04,
411,-8.00e-05,
412,3.20e-04,
413,-8.00e-05,
414,2.40e-04,
415,-8.00e-05,
416,2.40e-04,
417,-8.00e-05,
418,2.40e-04,
419,-8.00e-05,
420,-8.00e-05,
421,2.40e-04,
422,2.40e-04,
423,-1.60e-04,
424,-8.00e-05,
425,2.80e-04,
426,2.40e-04,
427,-8.00e-05,
428,2.40e-04,
429,-8.00e-05,
430,0.00e+00,
431,2.40e-04,
432,-8.00e-05,
433,2.40e-04,
434,-8.00e-05,
435,2.80e-04,
436,0.00e+00,
437,2.80e-04,
438,-8.00e-05,
439,2.40e-04,
440,-8.00e-05,
441,2.80e-04,
442,-8.00e-05,
443,2.00e-04,
444,2.80e-04,
445,-8.00e-05,
446,3.20e-04,
447,0.00e+00,
448,2.40e-04,
449,-8.00e-05,
450,2.40e-04,
451,-8.00e-05,
452,2.80e-04,
453,0.00e+00,
454,3.20e-04,
455,0.00e+00,
456,-8.00e-05,
457,4.00e-04,
458,3.20e-04,
459,0.00e+00,
460,3.20e-04,
461,0.00e+00,
462,3.20e-04,
463,0.00e+00,
464,-8.00e-05,
465,2.80e-04,
466,-8.00e-05,
467,2.40e-04,
468,2.80e-04,
469,0.00e+00,
470,3.20e-04,
471,-8.00e-05,
472,-8.00e-05,
473,2.40e-04,
474,-8.00e-05,
475,2.40e-04,
476,0.00e+00,
477,2.40e-04,
478,2.40e-04,
479,-1.60e-04,
480,2.40e-04,
481,-8.00e-05,
482,2.40e-04,
483,-8.00e-05,
484,-8.00e-05,
485,2.40e-04,
486,-8.00e-05,
487,2.40e-04,
488,2.80e-04,
489,0.00e+00,
490,-8.00e-05,
491,3.20e-04,
492,-8.00e-05,
493,2.40e-04,
494,2.40e-04,
495,-1.60e-04,
496,-8.00e-05,
497,2.40e-04,
498,-8.00e-05,
499,2.40e-04,
500,2.40e-04,
501,-8.00e-05,
502,2.40e-04,
503,-2.40e-04,
504,-8.00e-05,
505,2.40e-04,
506,3.20e-04,
507,-8.00e-05,
508,-8.00e-05,
509,4.00e-04,
510,2.40e-04,
511,0.00e+00,
512,-8.00e-05,
513,3.20e-04,
514,-8.00e-05,
515,2.40e-04,
516,-8.00e-05,
517,3.20e-04,
518,2.80e-04,
519,-8.00e-05,
520,2.40e-04,
521,-1.60e-04,
522,2.40e-04,
523,-8.00e-05,
524,-8.00e-05,
525,2.40e-04,
526,2.40e-04,
527,-1.60e-04,
528,2.40e-04,
529,-1.60e-04,
530,-8.00e-05,
531,2.40e-04,
532,0.00e+00,
533,2.40e-04,
534,3.20e-04,
535,-1.60e-04,
536,-1.20e-04,
537,3.20e-04,
538,-1.60e-04,
539,2.80e-04,
540,2.80e-04,
541,-8.00e-05,
542,2.40e-04,
543,-1.60e-04,
544,-8.00e-05,
545,2.00e-04,
546,-8.00e-05,
547,2.40e-04,
548,2.40e-04,
549,0.00e+00,
550,-8.00e-05,
551,2.00e-04,
552,3.20e-04,
553,-8.00e-05,
554,2.40e-04,
555,0.00e+00,
556,2.40e-04,
557,0.00e+00,
558,-8.00e-05,
559,2.40e-04,
560,3.20e-04,
561,0.00e+00,
562,-8.00e-05,
563,2.40e-04,
564,3.20e-04,
565,-8.00e-05,
566,0.00e+00,
567,2.80e-04,
568,-8.00e-05,
569,2.40e-04,
570,2.40e-04,
571,-8.00e-05,
572,-8.00e-05,
573,2.40e-04,
574,2.00e-04,
575,-1.60e-04,
576,2.00e-04,
577,-1.60e-04,
578,-8.00e-05,
579,2.40e-04,
580,-8.00e-05,
581,4.00e-04,
582,2.40e-04,
583,-8.00e-05,
584,-8.00e-05,
585,2.40e-04,
586,1.60e-04,
587,-8.00e-05,
588,2.40e-04,
589,0.00e+00,
590,-1.60e-04,
591,2.00e-04,
592,-8.00e-05,
593,2.40e-04,
594,2.40e-04,
595,-1.60e-04,
596,-8.00e-05,
597,2.00e-04,
598,-1.60e-04,
599,2.00e-04,
600,-1.60e-04,
601,2.40e-04,
602,3.20e-04,
603,-1.60e-04,
604,2.40e-04,
605,-1.60e-04,
606,-8.00e-05,
607,2.40e-04,
608,3.20e-04,
609,-8.00e-05,
610,-8.00e-05,
611,1.60e-04,
612,-8.00e-05,
613,2.40e-04,
614,2.40e-04,
615,-1.60e-04,
616,-8.00e-05,
617,2.40e-04,
618,3.20e-04,
619,0.00e+00,
620,0.00e+00,
621,2.40e-04,
622,2.40e-04,
623,-8.00e-05,
624,1.60e-04,
625,-1.20e-04,
626,-8.00e-05,
627,2.40e-04,
628,-8.00e-05,
629,2.40e-04,
630,2.40e-04,
631,-8.00e-05,
632,-8.00e-05,
633,2.40e-04,
634,2.80e-04,
635,-8.00e-05,
636,-8.00e-05,
637,2.40e-04,
638,-1.60e-04,
639,2.40e-04,
640,-8.00e-05,
641,3.20e-04,
642,-8.00e-05,
643,3.20e-04,
644,4.00e-04,
645,-8.00e-05,
646,-8.00e-05,
647,3.20e-04,
648,4.00e-04,
649,-8.00e-05,
650,-8.00e-05,
651,3.20e-04,
652,3.20e-04,
653,-8.00e-05,
654,-8.00e-05,
655,2.40e-04,
656,2.80e-04,
657,-8.00e-05,
658,3.20e-04,
659,-1.60e-04,
660,3.20e-04,
661,-1.60e-04,
662,2.40e-04,
663,-8.00e-05,
664,2.40e-04,
665,-8.00e-05,
666,1.60e-04,
667,-8.00e-05,
668,3.20e-04,
669,0.00e+00,
670,-8.00e-05,
671,2.40e-04,
672,2.40e-04,
673,-1.20e-04,
674,2.40e-04,
675,-8.00e-05,
676,0.00e+00,
677,2.40e-04,
678,3.20e-04,
679,-8.00e-05,
680,2.00e-04,
681,-8.00e-05,
682,-1.60e-04,
683,2.80e-04,
684,-8.00e-05,
685,2.40e-04,
686,-8.00e-05,
687,2.40e-04,
688,1.60e-04,
689,-8.00e-05,
690,2.80e-04,
691,-1.60e-04,
692,-8.00e-05,
693,2.80e-04,
694,2.40e-04,
695,-8.00e-05,
696,-8.00e-05,
697,2.40e-04,
698,-8.00e-05,
699,3.20e-04,
700,2.40e-04,
701,-1.60e-04,
702,2.40e-04,
703,-1.60e-04,
704,2.00e-04,
705,-8.00e-05,
706,-8.00e-05,
707,2.40e-04,
708,2.40e-04,
709,-8.00e-05,
710,2.80e-04,
711,-8.00e-05,
712,2.40e-04,
713,-1.60e-04,
714,-8.00e-05,
715,1.60e-04,
716,-8.00e-05,
717,2.40e-04,
718,3.20e-04,
719,-8.00e-05,
720,1.60e-04,
721,-8.00e-05,
722,2.00e-04,
723,-8.00e-05,
724,-8.00e-05,
725,3.20e-04,
726,-1.60e-04,
727,3.20e-04,
728,3.20e-04,
729,-8.00e-05,
730,0.00e+00,
731,3.20e-04,
732,3.20e-04,
733,-8.00e-05,
734,2.40e-04,
735,-1.60e-04,
736,2.40e-04,
737,-8.00e-05,
738,2.40e-04,
739,-1.60e-04,
740,-8.00e-05,
741,2.80e-04,
742,-8.00e-05,
743,2.40e-04,
744,-8.00e-05,
745,4.00e-04,
746,3.20e-04,
747,-8.00e-05,
748,0.00e+00,
749,2.80e-04,
750,2.40e-04,
751,-8.00e-05,
752,4.00e-04,
753,-8.00e-05,
754,2.40e-04,
755,-8.00e-05,
756,3.20e-04,
757,-1.60e-04,
758,0.00e+00,
759,3.20e-04,
760,2.00e-04,
761,-8.00e-05,
762,-8.00e-05,
763,2.40e-04,
764,-8.00e-05,
765,3.20e-04,
766,-8.00e-05,
767,2.40e-04,
768,3.20e-04,
769,-2.40e-04,
770,2.80e-04,
771,-1.60e-04,
772,3.20e-04,
773,-8.00e-05,
774,-8.00e-05,
775,2.40e-04,
776,2.40e-04,
777,-8.00e-05,
778,3.20e-04,
779,-1.60e-04,
780,-8.00e-05,
781,3.20e-04,
782,3.20e-04,
783,-1.60e-04,
784,-8.00e-05,
785,3.20e-04,
786,-8.00e-05,
787,2.80e-04,
788,1.60e-04,
789,-1.60e-04,
790,2.40e-04,
791,-8.00e-05,
792,-1.60e-04,
793,2.40e-04,
794,-8.00e-05,
795,2.40e-04,
796,0.00e+00,
797,3.20e-04,
798,2.40e-04,
799,-1.60e-04,
800,3.20e-04,
801,-8.00e-05,
802,2.40e-04,
803,-1.60e-04,
804,-8.00e-05,
805,3.20e-04,
806,2.80e-04,
807,-1.60e-04,
808,-8.00e-05,
809,2.40e-04,
810,2.40e-04,
811,-8.00e-05,
812,-8.00e-05,
813,2.40e-04,
814,3.20e-04,
815,-1.60e-04,
816,1.60e-04,
817,-1.60e-04,
818,-8.00e-05,
819,2.40e-04,
820,-1.60e-04,
821,3.20e-04,
822,-8.00e-05,
823,2.00e-04,
824,1.60e-04,
825,-8.00e-05,
826,-8.00e-05,
827,3.20e-04,
828,0.00e+00,
829,2.40e-04,
830,2.80e-04,
831,-8.00e-05,
832,0.00e+00,
833,2.40e-04,
834,-1.60e-04,
835,1.60e-04,
836,2.40e-04,
837,-8.00e-05,
838,-8.00e-05,
839,3.20e-04,
840,3.20e-04,
841,-8.00e-05,
842,2.40e-04,
843,-8.00e-05,
844,2.40e-04,
845,-8.00e-05,
846,2.40e-04,
847,-8.00e-05,
848,-8.00e-05,
849,2.40e-04,
850,3.20e-04,
851,-8.00e-05,
852,-1.60e-04,
853,2.40e-04,
854,-8.00e-05,
855,2.40e-04,
856,2.40e-04,
857,-1.60e-04,
858,-1.60e-04,
859,3.20e-04,
860,-8.00e-05,
861,2.40e-04,
862,3.20e-04,
863,-8.00e-05,
864,-8.00e-05,
865,2.40e-04,
866,-8.00e-05,
867,2.80e-04,
868,-8.00e-05,
869,2.40e-04,
870,1.60e-04,
871,-8.00e-05,
872,3.20e-04,
873,-8.00e-05,
874,2.40e-04,
875,-2.40e-04,
876,2.00e-04,
877,-8.00e-05,
878,3.20e-04,
879,-8.00e-05,
880,-8.00e-05,
881,3.20e-04,
882,2.80e-04,
883,-8.00e-05,
884,-8.00e-05,
885,3.20e-04,
886,3.20e-04,
887,-8.00e-05,
888,-8.00e-05,
889,3.20e-04,
890,-8.00e-05,
891,2.40e-04,
892,-8.00e-05,
893,3.20e-04,
894,3.20e-04,
895,-1.60e-04,
896,-8.00e-05,
897,3.20e-04,
898,2.40e-04,
899,-8.00e-05,
900,3.60e-04,
901,-1.60e-04,
902,-1.60e-04,
903,2.40e-04,
904,4.00e-04,
905,-8.00e-05,
906,3.20e-04,
907,-1.60e-04,
908,0.00e+00,
909,3.20e-04,
910,-8.00e-05,
911,3.20e-04,
912,2.40e-04,
913,-8.00e-05,
914,-8.00e-05,
915,2.40e-04,
916,2.40e-04,
917,-8.00e-05,
918,2.40e-04,
919,-8.00e-05,
920,0.00e+00,
921,3.20e-04,
922,-8.00e-05,
923,2.40e-04,
924,-1.60e-04,
925,2.00e-04,
926,2.40e-04,
927,-1.60e-04,
928,-8.00e-05,
929,2.40e-04,
930,2.80e-04,
931,-8.00e-05,
932,3.20e-04,
933,-8.00e-05,
934,-8.00e-05,
935,2.80e-04,
936,2.40e-04,
937,-8.00e-05,
938,2.40e-04,
939,-8.00e-05,
940,-8.00e-05,
941,3.20e-04,
942,2.40e-04,
943,-8.00e-05,
944,2.40e-04,
945,-8.00e-05,
946,2.80e-04,
947,-8.00e-05,
948,0.00e+00,
949,3.20e-04,
950,3.20e-04,
951,-8.00e-05,
952,2.40e-04,
953,0.00e+00,
954,3.20e-04,
955,-1.60e-04,
956,2.40e-04,
957,-8.00e-05,
958,3.20e-04,
959,-1.60e-04,
960,-8.00e-05,
961,2.80e-04,
962,-8.00e-05,
963,3.20e-04,
964,-8.00e-05,
965,3.20e-04,
966,-8.00e-05,
967,2.80e-04,
968,3.20e-04,
969,-8.00e-05,
970,2.40e-04,
971,-8.00e-05,
972,0.00e+00,
973,2.40e-04,
974,2.40e-04,
975,-8.00e-05,
976,3.20e-04,
977,-8.00e-05,
978,3.20e-04,
979,-8.00e-05,
980,3.20e-04,
981,-8.00e-05,
982,-8.00e-05,
983,3.20e-04,
984,2.80e-04,
985,-8.00e-05,
986,0.00e+00,
987,2.80e-04,
988,0.00e+00,
989,2.80e-04,
990,2.40e-04,
991,0.00e+00,
992,2.00e-04,
993,-8.00e-05,
994,-1.60e-04,
995,2.40e-04,
996,0.00e+00,
997,2.40e-04,
998,3.20e-04,
999,-1.60e-04,
1000,-1.60e-04,
1001,2.80e-04,
1002,0.00e+00,
1003,3.20e-04,
1004,3.20e-04,
1005,-1.60e-04,
1006,3.20e-04,
1007,-2.40e-04,
1008,-8.00e-05,
1009,2.40e-04,
1010,3.20e-04,
1011,-1.60e-04,
1012,2.40e-04,
1013,-8.00e-05,
1014,-8.00e-05,
1015,2.00e-04,
1016,0.00e+00,
1017,2.80e-04,
1018,2.40e-04,
1019,-8.00e-05,
1020,-8.00e-05,
1021,3.20e-04,
1022,2.40e-04,
1023,-8.00e-05,
1024,2.40e-04,
1025,-8.00e-05,
1026,-8.00e-05,
1027,2.40e-04,
1028,3.20e-04,
1029,-1.60e-04,
1030,2.40e-04,
1031,-1.60e-04,
1032,2.40e-04,
1033,-8.00e-05,
1034,2.40e-04,
1035,-1.60e-04,
1036,2.80e-04,
1037,-8.00e-05,
1038,-8.00e-05,
1039,3.20e-04,
1040,1.60e-04,
1041,-8.00e-05,
1042,2.40e-04,
1043,-8.00e-05,
1044,-8.00e-05,
1045,2.40e-04,
1046,3.20e-04,
1047,-1.60e-04,
1048,-8.00e-05,
1049,2.40e-04,
1050,2.40e-04,
1051,-8.00e-05,
1052,-8.00e-05,
1053,2.40e-04,
1054,-8.00e-05,
1055,2.40e-04,
1056,0.00e+00,
1057,2.40e-04,
1058,-8.00e-05,
1059,3.20e-04,
1060,2.80e-04,
1061,-8.00e-05,
1062,3.20e-04,
1063,-8.00e-05,
1064,-8.00e-05,
1065,4.00e-04,
1066,2.40e-04,
1067,-1.60e-04,
1068,2.80e-04,
1069,-8.00e-05,
1070,-8.00e-05,
1071,3.20e-04,
1072,2.00e-04,
1073,-8.00e-05,
1074,2.80e-04,
1075,-1.60e-04,
1076,2.40e-04,
1077,-1.60e-04,
1078,3.20e-04,
1079,-8.00e-05,
1080,-8.00e-05,
1081,2.40e-04,
1082,2.40e-04,
1083,-1.60e-04,
1084,-2.40e-04,
1085,2.00e-04,
1086,3.20e-04,
1087,-1.60e-04,
1088,-8.00e-05,
1089,2.00e-04,
1090,2.40e-04,
1091,-1.60e-04,
1092,4.00e-04,
1093,-8.00e-05,
1094,2.40e-04,
1095,-8.00e-05,
1096,-8.00e-05,
1097,2.40e-04,
1098,3.20e-04,
1099,-1.60e-04,
1100,-8.00e-05,
1101,3.20e-04,
1102,3.20e-04,
1103,0.00e+00,
1104,2.40e-04,
1105,-8.00e-05,
1106,2.40e-04,
1107,-8.00e-05,
1108,-8.00e-05,
1109,2.80e-04,
1110,2.40e-04,
1111,-2.00e-04,
1112,2.40e-04,
1113,-1.60e-04,
1114,3.20e-04,
1115,-8.00e-05,
1116,-1.60e-04,
1117,2.40e-04,
1118,2.40e-04,
1119,-8.00e-05,
1120,-8.00e-05,
1121,2.80e-04,
1122,2.40e-04,
1123,-8.00e-05,
1124,1.60e-04,
1125,-1.60e-04,
1126,2.40e-04,
1127,-8.00e-05,
1128,2.00e-04,
1129,-8.00e-05,
1130,-8.00e-05,
1131,2.00e-04,
1132,-8.00e-05,
1133,2.40e-04,
1134,-8.00e-05,
1135,2.40e-04,
1136,-8.00e-05,
1137,2.40e-04,
1138,2.40e-04,
1139,-1.60e-04,
1140,2.00e-04,
1141,-8.00e-05,
1142,3.20e-04,
1143,-8.00e-05,
1144,-8.00e-05,
1145,2.40e-04,
1146,-8.00e-05,
1147,2.40e-04,
1148,0.00e+00,
1149,3.20e-04,
1150,3.20e-04,
1151,-1.60e-04,
1152,-8.00e-05,
1153,2.80e-04,
1154,3.20e-04,
1155,-8.00e-05,
1156,2.40e-04,
1157,-8.00e-05,
1158,2.40e-04,
1159,-8.00e-05,
1160,-8.00e-05,
1161,2.40e-04,
1162,2.00e-04,
1163,-1.60e-04,
1164,3.20e-04,
1165,-1.60e-04,
1166,-8.00e-05,
1167,2.00e-04,
1168,-1.60e-04,
1169,2.40e-04,
1170,2.80e-04,
1171,-8.00e-05,
1172,2.40e-04,
1173,-1.60e-04,
1174,2.40e-04,
1175,-1.60e-04,
1176,2.00e-04,
1177,-8.00e-05,
1178,-8.00e-05,
1179,2.40e-04,
1180,0.00e+00,
1181,2.80e-04,
1182,-8.00e-05,
1183,2.40e-04,
1184,-8.00e-05,
1185,2.40e-04,
1186,2.80e-04,
1187,-8.00e-05,
1188,-8.00e-05,
1189,3.20e-04,
1190,3.20e-04,
1191,0.00e+00,
1192,2.40e-04,
1193,-1.60e-04,
1194,-8.00e-05,
1195,2.80e-04,
1196,2.40e-04,
1197,-1.60e-04,
1198,2.00e-04,
1199,-8.00e-05,
