fastdiffamp/data-noise-set/strong-unb/NewFile10.csv

X,CH1,Start,Increment,
Sequence,Volt,-1.198000e+01,2.000000e-02
0,-2.40e-03,
1,2.00e-03,
2,2.40e-03,
3,-1.60e-03,
4,-1.60e-03,
5,2.00e-03,
6,2.00e-03,
7,-1.60e-03,
8,-1.60e-03,
9,1.60e-03,
10,2.40e-03,
11,-1.60e-03,
12,-1.60e-03,
13,2.40e-03,
14,-2.40e-03,
15,2.00e-03,
16,2.80e-03,
17,-1.60e-03,
18,-8.00e-04,
19,2.40e-03,
20,-8.00e-04,
21,2.80e-03,
22,-1.60e-03,
23,2.40e-03,
24,2.40e-03,
25,-1.60e-03,
26,2.40e-03,
27,-1.60e-03,
28,-8.00e-04,
29,2.40e-03,
30,2.40e-03,
31,-1.60e-03,
32,3.20e-03,
33,-1.60e-03,
34,1.60e-03,
35,-2.40e-03,
36,2.40e-03,
37,-2.80e-03,
38,-8.00e-04,
39,1.60e-03,
40,1.60e-03,
41,-1.60e-03,
42,2.40e-03,
43,-8.00e-04,
44,-1.60e-03,
45,2.40e-03,
46,1.60e-03,
47,-1.60e-03,
48,-8.00e-04,
49,2.40e-03,
50,-1.60e-03,
51,2.40e-03,
52,-1.60e-03,
53,2.40e-03,
54,-1.60e-03,
55,2.40e-03,
56,-1.60e-03,
57,2.40e-03,
58,-1.60e-03,
59,2.80e-03,
60,-8.00e-04,
61,2.40e-03,
62,-1.60e-03,
63,2.40e-03,
64,2.40e-03,
65,-1.60e-03,
66,-1.60e-03,
67,2.40e-03,
68,2.40e-03,
69,-2.40e-03,
70,-1.60e-03,
71,2.00e-03,
72,2.00e-03,
73,-2.40e-03,
74,-1.60e-03,
75,1.60e-03,
76,-1.60e-03,
77,2.40e-03,
78,-1.60e-03,
79,2.40e-03,
80,-1.60e-03,
81,2.80e-03,
82,2.40e-03,
83,-1.60e-03,
84,1.60e-03,
85,-1.60e-03,
86,-1.60e-03,
87,2.00e-03,
88,-1.60e-03,
89,2.00e-03,
90,-1.60e-03,
91,2.00e-03,
92,2.80e-03,
93,-1.60e-03,
94,-1.60e-03,
95,2.00e-03,
96,-1.60e-03,
97,1.60e-03,
98,-1.60e-03,
99,1.60e-03,
100,2.40e-03,
101,-1.60e-03,
102,-1.60e-03,
103,2.80e-03,
104,2.40e-03,
105,-1.60e-03,
106,-1.60e-03,
107,2.40e-03,
108,2.40e-03,
109,-1.60e-03,
110,2.00e-03,
111,-1.60e-03,
112,1.60e-03,
113,-1.60e-03,
114,-2.40e-03,
115,1.60e-03,
116,-1.60e-03,
117,1.60e-03,
118,-1.60e-03,
119,2.00e-03,
120,1.60e-03,
121,-1.20e-03,
122,-1.60e-03,
123,1.60e-03,
124,-1.60e-03,
125,1.60e-03,
126,-1.60e-03,
127,2.40e-03,
128,-1.60e-03,
129,2.00e-03,
130,1.60e-03,
131,-3.20e-03,
132,-1.60e-03,
133,1.60e-03,
134,2.40e-03,
135,-1.60e-03,
136,-2.40e-03,
137,2.40e-03,
138,2.00e-03,
139,-2.40e-03,
140,-1.60e-03,
141,1.60e-03,
142,2.40e-03,
143,-1.60e-03,
144,-1.60e-03,
145,2.40e-03,
146,-1.60e-03,
147,2.40e-03,
148,-1.60e-03,
149,1.60e-03,
150,-1.60e-03,
151,2.00e-03,
152,1.60e-03,
153,-1.60e-03,
154,-1.60e-03,
155,2.40e-03,
156,-1.60e-03,
157,2.00e-03,
158,2.40e-03,
159,-1.60e-03,
160,1.60e-03,
161,-1.60e-03,
162,-8.00e-04,
163,2.40e-03,
164,-1.60e-03,
165,2.40e-03,
166,1.60e-03,
167,-1.60e-03,
168,-1.60e-03,
169,3.20e-03,
170,-1.60e-03,
171,2.00e-03,
172,-1.60e-03,
173,2.40e-03,
174,2.80e-03,
175,-1.60e-03,
176,-1.60e-03,
177,1.60e-03,
178,2.40e-03,
179,-1.60e-03,
180,-1.60e-03,
181,2.00e-03,
182,-8.00e-04,
183,2.40e-03,
184,-1.60e-03,
185,2.80e-03,
186,-8.00e-04,
187,2.40e-03,
188,2.40e-03,
189,-1.60e-03,
190,2.40e-03,
191,-1.60e-03,
192,2.40e-03,
193,-1.60e-03,
194,2.40e-03,
195,-2.40e-03,
196,-1.60e-03,
197,1.60e-03,
198,2.40e-03,
199,-1.60e-03,
200,2.00e-03,
201,-1.60e-03,
202,2.80e-03,
203,-1.60e-03,
204,-8.00e-04,
205,2.40e-03,
206,-1.60e-03,
207,1.60e-03,
208,-1.60e-03,
209,2.40e-03,
210,-1.60e-03,
211,2.40e-03,
212,-1.60e-03,
213,2.40e-03,
214,-8.00e-04,
215,2.40e-03,
216,2.40e-03,
217,-1.60e-03,
218,-1.60e-03,
219,2.40e-03,
220,-1.60e-03,
221,2.40e-03,
222,-1.60e-03,
223,2.40e-03,
224,2.40e-03,
225,-1.60e-03,
226,-8.00e-04,
227,2.00e-03,
228,-1.60e-03,
229,1.60e-03,
230,-8.00e-04,
231,2.40e-03,
232,-1.60e-03,
233,1.60e-03,
234,1.60e-03,
235,-2.40e-03,
236,-1.60e-03,
237,2.00e-03,
238,-1.60e-03,
239,1.60e-03,
240,-1.60e-03,
241,2.40e-03,
242,1.60e-03,
243,-1.60e-03,
244,2.40e-03,
245,-2.40e-03,
246,-2.00e-03,
247,1.60e-03,
248,2.00e-03,
249,-8.00e-04,
250,1.60e-03,
251,-2.40e-03,
252,1.60e-03,
253,-1.60e-03,
254,-1.60e-03,
255,2.40e-03,
256,2.40e-03,
257,-1.60e-03,
258,-1.60e-03,
259,2.40e-03,
260,-8.00e-04,
261,2.40e-03,
262,2.00e-03,
263,-1.60e-03,
264,2.00e-03,
265,-1.60e-03,
266,-1.60e-03,
267,3.20e-03,
268,-8.00e-04,
269,2.40e-03,
270,-1.60e-03,
271,2.00e-03,
272,-1.60e-03,
273,2.40e-03,
274,-1.60e-03,
275,2.40e-03,
276,2.40e-03,
277,-1.60e-03,
278,2.40e-03,
279,-2.40e-03,
280,-2.40e-03,
281,2.00e-03,
282,-1.60e-03,
283,2.00e-03,
284,2.40e-03,
285,-1.60e-03,
286,-8.00e-04,
287,2.00e-03,
288,-8.00e-04,
289,3.20e-03,
290,-1.60e-03,
291,2.40e-03,
292,2.40e-03,
293,-1.60e-03,
294,2.40e-03,
295,-1.60e-03,
296,-2.40e-03,
297,3.20e-03,
298,-1.60e-03,
299,2.40e-03,
300,-1.60e-03,
301,1.60e-03,
302,-1.60e-03,
303,2.40e-03,
304,-2.40e-03,
305,1.60e-03,
306,2.00e-03,
307,-1.60e-03,
308,2.00e-03,
309,-1.60e-03,
310,-1.60e-03,
311,2.40e-03,
312,2.40e-03,
313,-1.60e-03,
314,-2.40e-03,
315,2.40e-03,
316,-1.60e-03,
317,2.40e-03,
318,-1.60e-03,
319,2.40e-03,
320,-1.60e-03,
321,2.00e-03,
322,-1.60e-03,
323,2.80e-03,
324,-1.60e-03,
325,2.40e-03,
326,-1.60e-03,
327,2.80e-03,
328,-1.60e-03,
329,2.00e-03,
330,-1.60e-03,
331,1.60e-03,
332,-1.60e-03,
333,2.40e-03,
334,-1.60e-03,
335,2.40e-03,
336,-2.40e-03,
337,2.00e-03,
338,-1.60e-03,
339,1.60e-03,
340,2.00e-03,
341,-1.60e-03,
342,-1.60e-03,
343,1.60e-03,
344,-1.60e-03,
345,2.40e-03,
346,1.60e-03,
347,-2.40e-03,
348,2.40e-03,
349,-1.60e-03,
350,-1.60e-03,
351,2.40e-03,
352,2.40e-03,
353,-1.60e-03,
354,-1.60e-03,
355,2.40e-03,
356,2.40e-03,
357,-1.60e-03,
358,-1.60e-03,
359,2.40e-03,
360,-1.60e-03,
361,1.60e-03,
362,-1.60e-03,
363,2.40e-03,
364,2.40e-03,
365,-1.60e-03,
366,-1.60e-03,
367,2.40e-03,
368,2.00e-03,
369,-1.60e-03,
370,2.40e-03,
371,-1.60e-03,
372,2.00e-03,
373,-1.60e-03,
374,-8.00e-04,
375,2.40e-03,
376,-1.60e-03,
377,2.40e-03,
378,1.60e-03,
379,-1.60e-03,
380,-1.60e-03,
381,2.00e-03,
382,2.40e-03,
383,-1.60e-03,
384,-8.00e-04,
385,2.40e-03,
386,3.20e-03,
387,-1.60e-03,
388,-1.60e-03,
389,2.40e-03,
390,-8.00e-04,
391,2.40e-03,
392,2.40e-03,
393,-1.60e-03,
394,-1.60e-03,
395,2.80e-03,
396,-1.60e-03,
397,2.40e-03,
398,2.40e-03,
399,-1.60e-03,
400,-1.60e-03,
401,2.40e-03,
402,2.40e-03,
403,-1.60e-03,
404,-1.60e-03,
405,2.40e-03,
406,-1.60e-03,
407,1.60e-03,
408,2.00e-03,
409,-3.20e-03,
410,-2.40e-03,
411,2.40e-03,
412,-1.60e-03,
413,2.40e-03,
414,-1.60e-03,
415,2.40e-03,
416,2.80e-03,
417,-1.60e-03,
418,2.40e-03,
419,-1.60e-03,
420,-1.60e-03,
421,2.40e-03,
422,2.40e-03,
423,-1.60e-03,
424,1.60e-03,
425,-1.60e-03,
426,-1.60e-03,
427,2.40e-03,
428,-1.60e-03,
429,3.20e-03,
430,2.00e-03,
431,-1.60e-03,
432,-1.60e-03,
433,1.60e-03,
434,-1.60e-03,
435,2.00e-03,
436,1.60e-03,
437,-2.40e-03,
438,-1.60e-03,
439,2.00e-03,
440,1.60e-03,
441,-3.20e-03,
442,-1.60e-03,
443,1.60e-03,
444,2.40e-03,
445,-1.60e-03,
446,-1.60e-03,
447,2.00e-03,
448,1.60e-03,
449,-1.60e-03,
450,-1.60e-03,
451,2.40e-03,
452,-1.60e-03,
453,1.60e-03,
454,-1.60e-03,
455,2.40e-03,
456,2.40e-03,
457,-1.60e-03,
458,-1.60e-03,
459,1.60e-03,
460,-1.60e-03,
461,1.60e-03,
462,1.60e-03,
463,-1.60e-03,
464,2.00e-03,
465,-1.60e-03,
466,-1.60e-03,
467,2.40e-03,
468,-1.60e-03,
469,1.60e-03,
470,-1.60e-03,
471,2.00e-03,
472,-1.60e-03,
473,2.40e-03,
474,-8.00e-04,
475,2.00e-03,
476,-2.40e-03,
477,1.60e-03,
478,2.40e-03,
479,-1.60e-03,
480,2.40e-03,
481,-1.60e-03,
482,-8.00e-04,
483,2.80e-03,
484,-2.40e-03,
485,2.40e-03,
486,-8.00e-04,
487,2.00e-03,
488,-1.60e-03,
489,2.00e-03,
490,2.00e-03,
491,-8.00e-04,
492,-8.00e-04,
493,2.80e-03,
494,1.60e-03,
495,-1.60e-03,
496,-1.60e-03,
497,2.00e-03,
498,2.40e-03,
499,-1.60e-03,
500,-1.60e-03,
501,2.40e-03,
502,-1.60e-03,
503,2.40e-03,
504,-1.60e-03,
505,2.00e-03,
506,-1.60e-03,
507,2.40e-03,
508,2.40e-03,
509,-1.60e-03,
510,2.40e-03,
511,-1.60e-03,
512,2.40e-03,
513,-1.60e-03,
514,-2.40e-03,
515,2.40e-03,
516,-8.00e-04,
517,2.40e-03,
518,2.40e-03,
519,-1.60e-03,
520,-8.00e-04,
521,2.40e-03,
522,2.40e-03,
523,-2.40e-03,
524,2.40e-03,
525,-1.60e-03,
526,2.40e-03,
527,-1.60e-03,
528,-8.00e-04,
529,2.40e-03,
530,-8.00e-04,
531,2.40e-03,
532,2.40e-03,
533,-1.60e-03,
534,2.40e-03,
535,-8.00e-04,
536,-8.00e-04,
537,2.40e-03,
538,-1.60e-03,
539,2.00e-03,
540,-1.60e-03,
541,2.00e-03,
542,-1.60e-03,
543,2.40e-03,
544,2.40e-03,
545,-1.60e-03,
546,-1.60e-03,
547,2.80e-03,
548,2.40e-03,
549,-1.60e-03,
550,1.60e-03,
551,-1.60e-03,
552,-1.60e-03,
553,2.40e-03,
554,2.40e-03,
555,-1.60e-03,
556,2.40e-03,
557,-1.60e-03,
558,-2.40e-03,
559,2.40e-03,
560,-1.60e-03,
561,2.00e-03,
562,-8.00e-04,
563,2.40e-03,
564,-8.00e-04,
565,2.40e-03,
566,2.40e-03,
567,-1.60e-03,
568,-1.60e-03,
569,2.00e-03,
570,2.40e-03,
571,-2.40e-03,
572,2.00e-03,
573,-1.60e-03,
574,-1.60e-03,
575,3.20e-03,
576,-1.60e-03,
577,2.00e-03,
578,-1.60e-03,
579,2.40e-03,
580,1.60e-03,
581,-1.60e-03,
582,-1.60e-03,
583,1.60e-03,
584,2.40e-03,
585,-1.60e-03,
586,-8.00e-04,
587,2.40e-03,
588,-8.00e-04,
589,2.80e-03,
590,2.40e-03,
591,-1.60e-03,
592,2.00e-03,
593,-8.00e-04,
594,-1.60e-03,
595,2.00e-03,
596,2.40e-03,
597,-1.60e-03,
598,2.40e-03,
599,-1.60e-03,
600,-1.60e-03,
601,2.40e-03,
602,-1.60e-03,
603,3.20e-03,
604,-1.60e-03,
605,2.40e-03,
606,-8.00e-04,
607,2.00e-03,
608,2.40e-03,
609,-1.60e-03,
610,-1.60e-03,
611,2.40e-03,
612,2.40e-03,
613,-1.60e-03,
614,-1.60e-03,
615,2.80e-03,
616,-8.00e-04,
617,3.20e-03,
618,1.60e-03,
619,-1.60e-03,
620,-1.60e-03,
621,2.40e-03,
622,-1.60e-03,
623,2.00e-03,
624,2.40e-03,
625,-1.60e-03,
626,-1.60e-03,
627,2.40e-03,
628,-8.00e-04,
629,3.20e-03,
630,-1.60e-03,
631,2.40e-03,
632,2.40e-03,
633,-1.60e-03,
634,1.60e-03,
635,-1.60e-03,
636,2.00e-03,
637,-1.60e-03,
638,-8.00e-04,
639,2.80e-03,
640,2.40e-03,
641,-1.20e-03,
642,2.40e-03,
643,-1.60e-03,
644,1.60e-03,
645,-2.00e-03,
646,-2.40e-03,
647,1.60e-03,
648,2.80e-03,
649,-1.60e-03,
650,2.40e-03,
651,-2.40e-03,
652,-1.60e-03,
653,2.40e-03,
654,-1.60e-03,
655,3.20e-03,
656,-1.60e-03,
657,2.40e-03,
658,-1.60e-03,
659,1.60e-03,
660,2.40e-03,
661,-1.60e-03,
662,-1.60e-03,
663,2.00e-03,
664,2.40e-03,
665,-1.60e-03,
666,1.60e-03,
667,-2.40e-03,
668,1.60e-03,
669,-1.60e-03,
670,-1.60e-03,
671,2.00e-03,
672,2.40e-03,
673,-1.60e-03,
674,1.60e-03,
675,-1.60e-03,
676,-1.60e-03,
677,1.60e-03,
678,2.40e-03,
679,-1.60e-03,
680,-1.60e-03,
681,1.60e-03,
682,-1.60e-03,
683,1.60e-03,
684,-1.60e-03,
685,2.00e-03,
686,2.40e-03,
687,-2.40e-03,
688,-2.40e-03,
689,2.00e-03,
690,2.40e-03,
691,-1.60e-03,
692,-1.60e-03,
693,1.20e-03,
694,-1.20e-03,
695,2.40e-03,
696,1.60e-03,
697,-1.60e-03,
698,-1.60e-03,
699,1.60e-03,
700,-2.40e-03,
701,2.00e-03,
702,2.00e-03,
703,-1.60e-03,
704,-1.60e-03,
705,2.00e-03,
706,-1.60e-03,
707,2.40e-03,
708,-2.40e-03,
709,2.40e-03,
710,2.40e-03,
711,-1.60e-03,
712,2.40e-03,
713,-1.60e-03,
714,-1.60e-03,
715,2.40e-03,
716,-1.60e-03,
717,1.60e-03,
718,-2.40e-03,
719,2.00e-03,
720,2.80e-03,
721,-1.60e-03,
722,2.40e-03,
723,-1.60e-03,
724,-1.60e-03,
725,2.00e-03,
726,-1.60e-03,
727,2.40e-03,
728,-1.60e-03,
729,1.60e-03,
730,2.40e-03,
731,-2.40e-03,
732,1.60e-03,
733,-1.60e-03,
734,-1.60e-03,
735,2.40e-03,
736,2.00e-03,
737,-1.60e-03,
738,2.80e-03,
739,-8.00e-04,
740,-1.60e-03,
741,2.00e-03,
742,2.40e-03,
743,-2.40e-03,
744,-1.60e-03,
745,1.60e-03,
746,2.40e-03,
747,-2.40e-03,
748,1.60e-03,
749,-1.60e-03,
750,2.00e-03,
751,-2.40e-03,
752,1.60e-03,
753,-1.60e-03,
754,-2.40e-03,
755,2.40e-03,
756,-2.40e-03,
757,2.40e-03,
758,2.40e-03,
759,-1.60e-03,
760,-1.60e-03,
761,2.00e-03,
762,-1.60e-03,
763,2.40e-03,
764,1.60e-03,
765,-2.40e-03,
766,2.00e-03,
767,-1.60e-03,
768,1.60e-03,
769,-1.60e-03,
770,-2.40e-03,
771,2.00e-03,
772,-8.00e-04,
773,2.40e-03,
774,2.40e-03,
775,-1.60e-03,
776,-2.40e-03,
777,1.60e-03,
778,1.60e-03,
779,-2.40e-03,
780,-1.60e-03,
781,1.60e-03,
782,-1.60e-03,
783,1.60e-03,
784,-1.60e-03,
785,2.00e-03,
786,-1.60e-03,
787,2.40e-03,
788,-1.60e-03,
789,1.60e-03,
790,-2.40e-03,
791,2.00e-03,
792,-1.60e-03,
793,2.40e-03,
794,-1.60e-03,
795,2.00e-03,
796,-1.60e-03,
797,2.40e-03,
798,1.60e-03,
799,-1.60e-03,
800,-1.60e-03,
801,2.40e-03,
802,-1.60e-03,
803,2.40e-03,
804,-1.60e-03,
805,2.80e-03,
806,-1.60e-03,
807,2.00e-03,
808,-1.60e-03,
809,2.40e-03,
810,-1.60e-03,
811,2.00e-03,
812,-2.40e-03,
813,2.40e-03,
814,-2.40e-03,
815,2.40e-03,
816,-1.60e-03,
817,1.60e-03,
818,1.60e-03,
819,-2.40e-03,
820,-1.60e-03,
821,2.00e-03,
822,1.60e-03,
823,-1.60e-03,
824,-2.40e-03,
825,2.00e-03,
826,1.60e-03,
827,-1.60e-03,
828,-1.60e-03,
829,2.00e-03,
830,1.60e-03,
831,-1.60e-03,
832,1.60e-03,
833,-1.60e-03,
834,1.60e-03,
835,-1.60e-03,
836,2.00e-03,
837,-1.60e-03,
838,1.60e-03,
839,-1.60e-03,
840,2.40e-03,
841,-1.60e-03,
842,-1.60e-03,
843,2.00e-03,
844,-1.60e-03,
845,2.40e-03,
846,-2.40e-03,
847,2.00e-03,
848,1.60e-03,
849,-2.40e-03,
850,-1.60e-03,
851,2.00e-03,
852,1.60e-03,
853,-1.60e-03,
854,-1.60e-03,
855,3.20e-03,
856,-2.40e-03,
857,2.40e-03,
858,2.00e-03,
859,-2.40e-03,
860,-1.60e-03,
861,2.40e-03,
862,-1.60e-03,
863,1.60e-03,
864,2.40e-03,
865,-2.00e-03,
866,-1.60e-03,
867,2.00e-03,
868,-1.60e-03,
869,2.40e-03,
870,1.60e-03,
871,-2.40e-03,
872,2.40e-03,
873,-1.60e-03,
874,1.60e-03,
875,-1.60e-03,
876,-1.60e-03,
877,1.60e-03,
878,1.20e-03,
879,-2.40e-03,
880,2.00e-03,
881,-2.40e-03,
882,-1.60e-03,
883,2.80e-03,
884,-1.60e-03,
885,1.60e-03,
886,-1.60e-03,
887,2.80e-03,
888,-2.40e-03,
889,1.60e-03,
890,-2.40e-03,
891,2.40e-03,
892,-1.60e-03,
893,2.40e-03,
894,-1.60e-03,
895,1.60e-03,
896,-1.60e-03,
897,3.20e-03,
898,-1.60e-03,
899,2.40e-03,
900,2.40e-03,
901,-1.60e-03,
902,1.60e-03,
903,-1.60e-03,
904,-1.60e-03,
905,2.00e-03,
906,2.00e-03,
907,-1.60e-03,
908,-1.60e-03,
909,1.60e-03,
910,-1.60e-03,
911,2.00e-03,
912,1.60e-03,
913,-1.60e-03,
914,2.00e-03,
915,-2.40e-03,
916,-1.60e-03,
917,2.00e-03,
918,1.60e-03,
919,-1.60e-03,
920,-2.40e-03,
921,2.40e-03,
922,-1.60e-03,
923,2.00e-03,
924,-2.40e-03,
925,2.40e-03,
926,-1.60e-03,
927,2.00e-03,
928,-1.60e-03,
929,2.40e-03,
930,-2.40e-03,
931,2.40e-03,
932,1.60e-03,
933,-1.60e-03,
934,2.80e-03,
935,-1.60e-03,
936,-1.60e-03,
937,2.00e-03,
938,-2.40e-03,
939,2.00e-03,
940,1.60e-03,
941,-2.40e-03,
942,-1.60e-03,
943,1.60e-03,
944,2.40e-03,
945,-1.60e-03,
946,1.60e-03,
947,-1.60e-03,
948,1.60e-03,
949,-1.60e-03,
950,-1.60e-03,
951,2.80e-03,
952,-1.60e-03,
953,2.40e-03,
954,2.40e-03,
955,-1.60e-03,
956,2.40e-03,
957,-1.60e-03,
958,-2.40e-03,
959,1.60e-03,
960,1.60e-03,
961,-1.60e-03,
962,-1.60e-03,
963,1.60e-03,
964,-1.60e-03,
965,2.40e-03,
966,2.00e-03,
967,-1.60e-03,
968,-2.40e-03,
969,2.40e-03,
970,3.20e-03,
971,-2.40e-03,
972,-1.60e-03,
973,1.60e-03,
974,-1.60e-03,
975,2.00e-03,
976,-1.60e-03,
977,1.60e-03,
978,-1.60e-03,
979,1.60e-03,
980,1.60e-03,
981,-1.60e-03,
982,-1.60e-03,
983,1.60e-03,
984,-1.60e-03,
985,1.60e-03,
986,-1.60e-03,
987,1.60e-03,
988,-1.60e-03,
989,2.40e-03,
990,-1.60e-03,
991,2.40e-03,
992,-1.60e-03,
993,2.40e-03,
994,2.40e-03,
995,-1.60e-03,
996,2.40e-03,
997,-1.60e-03,
998,2.00e-03,
999,-1.60e-03,
1000,-1.60e-03,
1001,1.60e-03,
1002,2.00e-03,
1003,-2.40e-03,
1004,-1.60e-03,
1005,2.00e-03,
1006,-1.60e-03,
1007,1.60e-03,
1008,-1.60e-03,
1009,2.00e-03,
1010,-1.60e-03,
1011,2.40e-03,
1012,-1.60e-03,
1013,1.60e-03,
1014,2.40e-03,
1015,-2.40e-03,
1016,-1.60e-03,
1017,2.40e-03,
1018,2.40e-03,
1019,-2.40e-03,
1020,-2.40e-03,
1021,2.40e-03,
1022,2.40e-03,
1023,-1.60e-03,
1024,1.60e-03,
1025,-1.60e-03,
1026,-1.60e-03,
1027,2.40e-03,
1028,-1.60e-03,
1029,2.40e-03,
1030,-1.60e-03,
1031,2.40e-03,
1032,-1.60e-03,
1033,2.40e-03,
1034,-1.60e-03,
1035,2.40e-03,
1036,2.40e-03,
1037,-1.60e-03,
1038,3.20e-03,
1039,-1.60e-03,
1040,2.40e-03,
1041,-1.60e-03,
1042,2.40e-03,
1043,-1.60e-03,
1044,-1.60e-03,
1045,2.40e-03,
1046,-8.00e-04,
1047,4.00e-03,
1048,2.80e-03,
1049,-8.00e-04,
1050,1.60e-03,
1051,-2.40e-03,
1052,-1.60e-03,
1053,3.20e-03,
1054,-1.60e-03,
1055,2.40e-03,
1056,1.60e-03,
1057,-1.60e-03,
1058,-1.60e-03,
1059,2.40e-03,
1060,1.60e-03,
1061,-1.60e-03,
1062,-1.60e-03,
1063,2.40e-03,
1064,1.60e-03,
1065,-1.60e-03,
1066,2.40e-03,
1067,-2.00e-03,
1068,1.60e-03,
1069,-1.60e-03,
1070,2.40e-03,
1071,-1.60e-03,
1072,2.40e-03,
1073,-2.40e-03,
1074,-2.40e-03,
1075,2.40e-03,
1076,-2.40e-03,
1077,2.40e-03,
1078,2.00e-03,
1079,-2.40e-03,
1080,-1.60e-03,
1081,1.60e-03,
1082,-2.40e-03,
1083,2.40e-03,
1084,-1.60e-03,
1085,1.60e-03,
1086,1.60e-03,
1087,-1.60e-03,
1088,-1.60e-03,
1089,2.00e-03,
1090,-1.60e-03,
1091,2.00e-03,
1092,2.40e-03,
1093,-2.40e-03,
1094,-1.60e-03,
1095,2.40e-03,
1096,2.40e-03,
1097,-2.40e-03,
1098,1.60e-03,
1099,-2.40e-03,
1100,-8.00e-04,
1101,2.00e-03,
1102,-1.60e-03,
1103,1.60e-03,
1104,-1.60e-03,
1105,1.60e-03,
1106,-2.40e-03,
1107,1.60e-03,
1108,3.20e-03,
1109,-1.60e-03,
1110,2.40e-03,
1111,-8.00e-04,
1112,-1.60e-03,
1113,2.40e-03,
1114,-1.60e-03,
1115,2.80e-03,
1116,1.60e-03,
1117,-2.40e-03,
1118,-1.60e-03,
1119,2.00e-03,
1120,-1.60e-03,
1121,1.60e-03,
1122,1.60e-03,
1123,-2.40e-03,
1124,2.00e-03,
1125,-1.60e-03,
1126,-1.60e-03,
1127,2.00e-03,
1128,-1.60e-03,
1129,1.60e-03,
1130,-1.60e-03,
1131,1.60e-03,
1132,1.60e-03,
1133,-2.40e-03,
1134,2.40e-03,
1135,-2.40e-03,
1136,2.80e-03,
1137,-2.40e-03,
1138,-1.60e-03,
1139,2.00e-03,
1140,1.60e-03,
1141,-2.40e-03,
1142,-1.60e-03,
1143,1.60e-03,
1144,-2.40e-03,
1145,2.40e-03,
1146,1.60e-03,
1147,-1.60e-03,
1148,-2.40e-03,
1149,2.00e-03,
1150,-1.60e-03,
1151,3.20e-03,
1152,2.00e-03,
1153,-2.40e-03,
1154,-1.60e-03,
1155,2.00e-03,
1156,2.40e-03,
1157,-2.00e-03,
1158,-1.60e-03,
1159,1.60e-03,
1160,-1.60e-03,
1161,2.80e-03,
1162,-1.60e-03,
1163,2.00e-03,
1164,-1.60e-03,
1165,2.00e-03,
1166,1.60e-03,
1167,-1.60e-03,
1168,-1.60e-03,
1169,2.40e-03,
1170,-2.40e-03,
1171,2.40e-03,
1172,-2.40e-03,
1173,1.60e-03,
1174,-2.00e-03,
1175,2.40e-03,
1176,2.40e-03,
1177,-1.60e-03,
1178,2.40e-03,
1179,-2.40e-03,
1180,-1.60e-03,
1181,2.40e-03,
1182,-1.60e-03,
1183,1.60e-03,
1184,-1.60e-03,
1185,2.40e-03,
1186,-1.60e-03,
1187,2.40e-03,
1188,-1.60e-03,
1189,2.00e-03,
1190,-1.60e-03,
1191,3.20e-03,
1192,-1.60e-03,
1193,2.40e-03,
1194,-1.60e-03,
1195,2.40e-03,
1196,-1.60e-03,
1197,2.00e-03,
1198,2.40e-03,
1199,-2.40e-03,
