fastdiffamp/data-noise-set/strong-unb/NewFile4.csv

X,CH1,Start,Increment,
Sequence,Volt,-1.148000e+01,2.000000e-02
0,1.60e-03,
1,-1.60e-03,
2,1.20e-03,
3,-1.60e-03,
4,-2.40e-03,
5,1.20e-03,
6,-2.00e-03,
7,1.60e-03,
8,1.20e-03,
9,-2.40e-03,
10,-2.40e-03,
11,1.20e-03,
12,-1.60e-03,
13,1.60e-03,
14,1.60e-03,
15,-1.60e-03,
16,1.60e-03,
17,-2.40e-03,
18,-2.00e-03,
19,1.60e-03,
20,-2.40e-03,
21,2.40e-03,
22,2.00e-03,
23,-2.40e-03,
24,-1.60e-03,
25,2.00e-03,
26,2.00e-03,
27,-2.40e-03,
28,-2.40e-03,
29,1.60e-03,
30,-2.40e-03,
31,1.60e-03,
32,-2.40e-03,
33,2.00e-03,
34,-1.60e-03,
35,2.40e-03,
36,-1.60e-03,
37,2.00e-03,
38,-2.40e-03,
39,1.60e-03,
40,1.60e-03,
41,-2.40e-03,
42,-1.60e-03,
43,2.40e-03,
44,1.60e-03,
45,-2.40e-03,
46,-1.60e-03,
47,1.60e-03,
48,1.60e-03,
49,-2.40e-03,
50,2.00e-03,
51,-2.40e-03,
52,-1.60e-03,
53,1.60e-03,
54,-1.60e-03,
55,2.40e-03,
56,-2.40e-03,
57,1.60e-03,
58,1.20e-03,
59,-2.40e-03,
60,-2.40e-03,
61,2.40e-03,
62,-2.40e-03,
63,2.00e-03,
64,-1.60e-03,
65,1.60e-03,
66,1.60e-03,
67,-1.60e-03,
68,2.00e-03,
69,-1.60e-03,
70,1.60e-03,
71,-1.60e-03,
72,1.60e-03,
73,-2.40e-03,
74,2.40e-03,
75,-1.60e-03,
76,-1.60e-03,
77,2.00e-03,
78,-1.60e-03,
79,1.60e-03,
80,-2.40e-03,
81,1.60e-03,
82,-2.40e-03,
83,1.60e-03,
84,1.60e-03,
85,-2.40e-03,
86,-1.60e-03,
87,1.20e-03,
88,-1.60e-03,
89,1.60e-03,
90,-2.40e-03,
91,2.00e-03,
92,-2.40e-03,
93,1.60e-03,
94,-1.60e-03,
95,2.00e-03,
96,1.60e-03,
97,-2.40e-03,
98,-1.60e-03,
99,1.60e-03,
100,-1.60e-03,
101,1.60e-03,
102,-1.60e-03,
103,2.00e-03,
104,-2.40e-03,
105,2.40e-03,
106,-1.60e-03,
107,1.60e-03,
108,2.00e-03,
109,-1.60e-03,
110,-1.60e-03,
111,2.00e-03,
112,2.40e-03,
113,-2.40e-03,
114,-1.60e-03,
115,1.60e-03,
116,1.60e-03,
117,-1.60e-03,
118,-1.60e-03,
119,1.60e-03,
120,-1.60e-03,
121,2.00e-03,
122,-1.60e-03,
123,2.00e-03,
124,-1.60e-03,
125,1.60e-03,
126,2.00e-03,
127,-2.40e-03,
128,-2.40e-03,
129,2.40e-03,
130,-2.40e-03,
131,1.60e-03,
132,-1.60e-03,
133,1.60e-03,
134,-2.40e-03,
135,8.00e-04,
136,-2.40e-03,
137,1.60e-03,
138,-1.60e-03,
139,1.60e-03,
140,-2.40e-03,
141,8.00e-04,
142,-2.40e-03,
143,2.00e-03,
144,-2.40e-03,
145,1.60e-03,
146,2.00e-03,
147,-2.40e-03,
148,-1.60e-03,
149,2.40e-03,
150,1.60e-03,
151,-2.40e-03,
152,1.60e-03,
153,-1.60e-03,
154,-2.40e-03,
155,1.60e-03,
156,1.60e-03,
157,-2.40e-03,
158,-2.40e-03,
159,1.60e-03,
160,-2.40e-03,
161,1.60e-03,
162,-1.60e-03,
163,1.60e-03,
164,-1.60e-03,
165,2.00e-03,
166,-2.40e-03,
167,1.20e-03,
168,-2.40e-03,
169,2.40e-03,
170,-1.60e-03,
171,1.60e-03,
172,1.60e-03,
173,-3.20e-03,
174,-2.40e-03,
175,1.60e-03,
176,-1.60e-03,
177,1.20e-03,
178,1.20e-03,
179,-2.40e-03,
180,1.20e-03,
181,-2.40e-03,
182,-1.60e-03,
183,2.00e-03,
184,-1.60e-03,
185,1.60e-03,
186,1.60e-03,
187,-2.40e-03,
188,-1.60e-03,
189,1.60e-03,
190,-1.60e-03,
191,1.60e-03,
192,-2.40e-03,
193,2.40e-03,
194,8.00e-04,
195,-1.60e-03,
196,1.60e-03,
197,-2.40e-03,
198,1.60e-03,
199,-1.60e-03,
200,1.20e-03,
201,-2.40e-03,
202,1.60e-03,
203,-2.00e-03,
204,1.60e-03,
205,-2.40e-03,
206,-1.60e-03,
207,1.60e-03,
208,-2.40e-03,
209,2.40e-03,
210,-2.40e-03,
211,1.20e-03,
212,1.60e-03,
213,-1.60e-03,
214,-1.60e-03,
215,1.60e-03,
216,1.60e-03,
217,-1.60e-03,
218,1.60e-03,
219,-1.60e-03,
220,8.00e-04,
221,-2.40e-03,
222,-2.40e-03,
223,2.00e-03,
224,-1.60e-03,
225,1.60e-03,
226,-2.40e-03,
227,2.40e-03,
228,-2.40e-03,
229,1.60e-03,
230,-2.40e-03,
231,2.40e-03,
232,1.60e-03,
233,-1.60e-03,
234,-1.60e-03,
235,2.40e-03,
236,-2.40e-03,
237,1.60e-03,
238,-1.60e-03,
239,2.00e-03,
240,1.60e-03,
241,-2.40e-03,
242,1.20e-03,
243,-1.60e-03,
244,-1.60e-03,
245,1.60e-03,
246,2.00e-03,
247,-2.40e-03,
248,1.60e-03,
249,-2.40e-03,
250,-1.60e-03,
251,2.00e-03,
252,1.20e-03,
253,-2.40e-03,
254,1.60e-03,
255,-2.40e-03,
256,1.60e-03,
257,-2.40e-03,
258,1.60e-03,
259,-1.60e-03,
260,-1.60e-03,
261,1.60e-03,
262,-3.20e-03,
263,2.00e-03,
264,2.00e-03,
265,-3.20e-03,
266,1.60e-03,
267,-2.40e-03,
268,-1.60e-03,
269,1.60e-03,
270,-1.60e-03,
271,1.60e-03,
272,1.20e-03,
273,-2.40e-03,
274,1.60e-03,
275,-2.40e-03,
276,-2.40e-03,
277,1.60e-03,
278,1.60e-03,
279,-1.60e-03,
280,1.60e-03,
281,-1.60e-03,
282,1.60e-03,
283,-1.60e-03,
284,1.20e-03,
285,-3.20e-03,
286,1.60e-03,
287,-2.40e-03,
288,1.60e-03,
289,-2.40e-03,
290,-1.60e-03,
291,1.60e-03,
292,1.60e-03,
293,-2.40e-03,
294,1.60e-03,
295,-1.60e-03,
296,1.60e-03,
297,-1.60e-03,
298,1.60e-03,
299,-2.40e-03,
300,-1.60e-03,
301,2.40e-03,
302,-1.60e-03,
303,2.00e-03,
304,1.20e-03,
305,-2.40e-03,
306,-1.60e-03,
307,1.20e-03,
308,2.00e-03,
309,-2.40e-03,
310,-2.40e-03,
311,1.60e-03,
312,-1.60e-03,
313,1.60e-03,
314,2.00e-03,
315,-2.40e-03,
316,-1.60e-03,
317,2.40e-03,
318,-1.60e-03,
319,1.60e-03,
320,-1.60e-03,
321,1.60e-03,
322,1.20e-03,
323,-2.40e-03,
324,1.60e-03,
325,-2.40e-03,
326,1.60e-03,
327,-2.40e-03,
328,-8.00e-04,
329,1.60e-03,
330,-1.60e-03,
331,1.60e-03,
332,2.00e-03,
333,-2.40e-03,
334,1.60e-03,
335,-1.60e-03,
336,-1.60e-03,
337,1.60e-03,
338,-1.60e-03,
339,1.60e-03,
340,1.20e-03,
341,-2.40e-03,
342,-1.60e-03,
343,1.20e-03,
344,-2.40e-03,
345,1.60e-03,
346,-2.40e-03,
347,1.60e-03,
348,1.60e-03,
349,-2.40e-03,
350,-1.60e-03,
351,1.60e-03,
352,-1.60e-03,
353,1.60e-03,
354,2.00e-03,
355,-1.60e-03,
356,1.60e-03,
357,-2.40e-03,
358,2.40e-03,
359,-2.40e-03,
360,-1.60e-03,
361,2.00e-03,
362,1.20e-03,
363,-3.20e-03,
364,-1.60e-03,
365,1.60e-03,
366,1.60e-03,
367,-2.40e-03,
368,-2.40e-03,
369,1.60e-03,
370,-1.60e-03,
371,1.60e-03,
372,1.60e-03,
373,-2.40e-03,
374,8.00e-04,
375,-2.40e-03,
376,1.20e-03,
377,-2.40e-03,
378,-1.60e-03,
379,1.60e-03,
380,2.00e-03,
381,-2.40e-03,
382,-2.40e-03,
383,1.60e-03,
384,2.00e-03,
385,-2.40e-03,
386,-1.60e-03,
387,1.60e-03,
388,-8.00e-04,
389,2.00e-03,
390,-1.60e-03,
391,2.00e-03,
392,-1.60e-03,
393,1.60e-03,
394,-1.60e-03,
395,2.00e-03,
396,1.60e-03,
397,-2.40e-03,
398,1.60e-03,
399,-2.40e-03,
400,8.00e-04,
401,-2.40e-03,
402,1.20e-03,
403,-2.40e-03,
404,-2.40e-03,
405,1.60e-03,
406,1.60e-03,
407,-1.60e-03,
408,-1.60e-03,
409,1.60e-03,
410,-2.40e-03,
411,1.20e-03,
412,-2.40e-03,
413,1.60e-03,
414,1.60e-03,
415,-2.40e-03,
416,-1.60e-03,
417,2.40e-03,
418,-2.40e-03,
419,1.60e-03,
420,-2.40e-03,
421,1.60e-03,
422,1.20e-03,
423,-2.40e-03,
424,-2.40e-03,
425,1.60e-03,
426,1.60e-03,
427,-2.40e-03,
428,8.00e-04,
429,-1.60e-03,
430,8.00e-04,
431,-3.20e-03,
432,-1.60e-03,
433,1.20e-03,
434,1.20e-03,
435,-2.40e-03,
436,-2.40e-03,
437,2.40e-03,
438,1.60e-03,
439,-1.60e-03,
440,-1.60e-03,
441,1.20e-03,
442,-2.40e-03,
443,1.60e-03,
444,1.60e-03,
445,-1.60e-03,
446,-2.40e-03,
447,1.20e-03,
448,-1.60e-03,
449,1.60e-03,
450,1.60e-03,
451,-2.40e-03,
452,-1.60e-03,
453,1.60e-03,
454,-2.40e-03,
455,1.20e-03,
456,1.20e-03,
457,-2.40e-03,
458,-2.40e-03,
459,1.60e-03,
460,1.60e-03,
461,-2.40e-03,
462,-1.60e-03,
463,8.00e-04,
464,1.60e-03,
465,-2.40e-03,
466,-1.60e-03,
467,1.60e-03,
468,1.60e-03,
469,-2.40e-03,
470,8.00e-04,
471,-2.40e-03,
472,1.20e-03,
473,-2.40e-03,
474,-1.60e-03,
475,1.20e-03,
476,1.60e-03,
477,-2.40e-03,
478,-2.40e-03,
479,1.60e-03,
480,1.60e-03,
481,-2.40e-03,
482,2.00e-03,
483,-1.60e-03,
484,1.60e-03,
485,-2.40e-03,
486,-2.40e-03,
487,1.60e-03,
488,-1.60e-03,
489,1.60e-03,
490,1.60e-03,
491,-2.40e-03,
492,-2.40e-03,
493,2.40e-03,
494,2.40e-03,
495,-2.00e-03,
496,1.60e-03,
497,-2.40e-03,
498,2.00e-03,
499,-1.60e-03,
500,-8.00e-04,
501,1.60e-03,
502,1.60e-03,
503,-1.60e-03,
504,1.20e-03,
505,-2.40e-03,
506,1.60e-03,
507,-2.40e-03,
508,1.60e-03,
509,-1.60e-03,
510,1.20e-03,
511,-1.60e-03,
512,1.60e-03,
513,-2.40e-03,
514,1.60e-03,
515,-2.40e-03,
516,-2.40e-03,
517,2.00e-03,
518,1.60e-03,
519,-1.60e-03,
520,-2.40e-03,
521,1.60e-03,
522,1.20e-03,
523,-1.60e-03,
524,-1.60e-03,
525,1.60e-03,
526,2.00e-03,
527,-2.40e-03,
528,2.00e-03,
529,-2.40e-03,
530,-2.40e-03,
531,2.00e-03,
532,-2.40e-03,
533,2.00e-03,
534,-1.60e-03,
535,1.60e-03,
536,-1.60e-03,
537,2.40e-03,
538,-1.60e-03,
539,1.60e-03,
540,-2.40e-03,
541,1.60e-03,
542,1.20e-03,
543,-2.40e-03,
544,-2.40e-03,
545,1.20e-03,
546,-2.40e-03,
547,1.60e-03,
548,1.60e-03,
549,-2.40e-03,
550,-1.60e-03,
551,1.60e-03,
552,-2.40e-03,
553,1.60e-03,
554,2.00e-03,
555,-2.40e-03,
556,-1.60e-03,
557,8.00e-04,
558,-1.60e-03,
559,1.60e-03,
560,-2.40e-03,
561,1.60e-03,
562,-2.40e-03,
563,1.60e-03,
564,2.00e-03,
565,-2.40e-03,
566,8.00e-04,
567,-2.40e-03,
568,-2.40e-03,
569,1.20e-03,
570,1.60e-03,
571,-2.40e-03,
572,-1.60e-03,
573,2.40e-03,
574,1.60e-03,
575,-1.60e-03,
576,-1.60e-03,
577,1.20e-03,
578,-2.40e-03,
579,1.60e-03,
580,-2.40e-03,
581,1.60e-03,
582,-3.20e-03,
583,1.60e-03,
584,1.60e-03,
585,-1.60e-03,
586,1.60e-03,
587,-1.60e-03,
588,-1.60e-03,
589,1.60e-03,
590,-2.40e-03,
591,1.20e-03,
592,-3.20e-03,
593,1.20e-03,
594,1.60e-03,
595,-2.40e-03,
596,1.20e-03,
597,-2.40e-03,
598,8.00e-04,
599,-2.40e-03,
600,-1.60e-03,
601,1.60e-03,
602,2.00e-03,
603,-2.40e-03,
604,-2.40e-03,
605,1.60e-03,
606,-1.60e-03,
607,2.00e-03,
608,1.20e-03,
609,-1.60e-03,
610,8.00e-04,
611,-2.40e-03,
612,-2.40e-03,
613,1.60e-03,
614,-2.40e-03,
615,1.20e-03,
616,-1.60e-03,
617,1.60e-03,
618,-1.60e-03,
619,1.60e-03,
620,-1.60e-03,
621,2.00e-03,
622,1.60e-03,
623,-2.40e-03,
624,-1.60e-03,
625,1.60e-03,
626,2.00e-03,
627,-1.60e-03,
628,-2.40e-03,
629,2.00e-03,
630,2.00e-03,
631,-1.60e-03,
632,-1.60e-03,
633,1.60e-03,
634,1.60e-03,
635,-1.60e-03,
636,-1.60e-03,
637,2.00e-03,
638,1.60e-03,
639,-2.40e-03,
640,1.60e-03,
641,-1.60e-03,
642,1.60e-03,
643,-1.60e-03,
644,-1.60e-03,
645,2.40e-03,
646,1.60e-03,
647,-2.40e-03,
648,-1.60e-03,
649,1.60e-03,
650,-1.60e-03,
651,2.40e-03,
652,2.00e-03,
653,-1.60e-03,
654,1.60e-03,
655,-2.40e-03,
656,-2.40e-03,
657,1.60e-03,
658,1.60e-03,
659,-1.60e-03,
660,1.60e-03,
661,-2.40e-03,
662,-1.60e-03,
663,2.40e-03,
664,-1.60e-03,
665,1.60e-03,
666,2.40e-03,
667,-1.60e-03,
668,-1.60e-03,
669,1.60e-03,
670,-1.60e-03,
671,2.00e-03,
672,-1.60e-03,
673,1.60e-03,
674,-1.60e-03,
675,2.00e-03,
676,-1.60e-03,
677,2.00e-03,
678,-1.60e-03,
679,2.00e-03,
680,1.60e-03,
681,-2.40e-03,
682,-1.60e-03,
683,2.40e-03,
684,-1.60e-03,
685,2.40e-03,
686,-1.60e-03,
687,2.40e-03,
688,-2.40e-03,
689,1.60e-03,
690,-1.60e-03,
691,1.60e-03,
692,-1.60e-03,
693,1.60e-03,
694,-1.60e-03,
695,1.60e-03,
696,-2.40e-03,
697,2.00e-03,
698,-1.60e-03,
699,2.40e-03,
700,-2.40e-03,
701,2.40e-03,
702,1.60e-03,
703,-2.40e-03,
704,-2.00e-03,
705,1.60e-03,
706,2.40e-03,
707,-2.40e-03,
708,-2.40e-03,
709,2.00e-03,
710,-2.40e-03,
711,1.60e-03,
712,-1.60e-03,
713,2.40e-03,
714,-2.40e-03,
715,1.60e-03,
716,-1.60e-03,
717,2.00e-03,
718,1.60e-03,
719,-2.40e-03,
720,2.00e-03,
721,-1.60e-03,
722,1.60e-03,
723,-2.40e-03,
724,-1.60e-03,
725,1.20e-03,
726,1.20e-03,
727,-2.40e-03,
728,-1.60e-03,
729,1.60e-03,
730,-2.40e-03,
731,1.60e-03,
732,1.60e-03,
733,-1.60e-03,
734,-1.60e-03,
735,2.00e-03,
736,1.60e-03,
737,-1.60e-03,
738,-2.40e-03,
739,2.00e-03,
740,1.60e-03,
741,-2.00e-03,
742,-1.60e-03,
743,2.00e-03,
744,-1.60e-03,
745,2.40e-03,
746,-1.60e-03,
747,1.60e-03,
748,-2.40e-03,
749,1.60e-03,
750,-2.40e-03,
751,1.60e-03,
752,2.40e-03,
753,-2.40e-03,
754,-1.60e-03,
755,1.60e-03,
756,-1.60e-03,
757,1.20e-03,
758,-2.40e-03,
759,1.20e-03,
760,1.60e-03,
761,-2.40e-03,
762,-2.40e-03,
763,2.00e-03,
764,-1.60e-03,
765,1.60e-03,
766,1.60e-03,
767,-2.40e-03,
768,-1.60e-03,
769,1.20e-03,
770,-2.40e-03,
771,1.60e-03,
772,-2.40e-03,
773,1.20e-03,
774,-2.40e-03,
775,1.60e-03,
776,-1.60e-03,
777,1.60e-03,
778,1.60e-03,
779,-2.40e-03,
780,-1.60e-03,
781,1.60e-03,
782,-2.40e-03,
783,1.20e-03,
784,-1.60e-03,
785,1.60e-03,
786,-2.40e-03,
787,1.60e-03,
788,-1.60e-03,
789,2.00e-03,
790,1.60e-03,
791,-2.40e-03,
792,1.60e-03,
793,-2.40e-03,
794,-2.40e-03,
795,2.40e-03,
796,-1.60e-03,
797,2.00e-03,
798,1.60e-03,
799,-1.60e-03,
800,-2.40e-03,
801,1.60e-03,
802,1.60e-03,
803,-1.60e-03,
804,-2.40e-03,
805,1.60e-03,
806,2.00e-03,
807,-2.40e-03,
808,1.20e-03,
809,-2.40e-03,
810,2.40e-03,
811,-2.40e-03,
812,1.60e-03,
813,-2.40e-03,
814,-2.40e-03,
815,1.20e-03,
816,-2.40e-03,
817,1.20e-03,
818,-1.60e-03,
819,1.60e-03,
820,1.60e-03,
821,-3.20e-03,
822,1.60e-03,
823,-1.60e-03,
824,-1.60e-03,
825,1.60e-03,
826,-1.60e-03,
827,2.40e-03,
828,1.60e-03,
829,-2.40e-03,
830,2.40e-03,
831,-2.40e-03,
832,-1.60e-03,
833,2.00e-03,
834,-1.60e-03,
835,2.40e-03,
836,-1.60e-03,
837,2.00e-03,
838,-1.60e-03,
839,2.40e-03,
840,2.00e-03,
841,-1.60e-03,
842,1.60e-03,
843,-2.40e-03,
844,1.60e-03,
845,-2.40e-03,
846,-2.40e-03,
847,2.80e-03,
848,-2.40e-03,
849,1.60e-03,
850,-1.60e-03,
851,2.40e-03,
852,1.60e-03,
853,-2.40e-03,
854,-1.60e-03,
855,1.20e-03,
856,-2.40e-03,
857,1.60e-03,
858,-1.60e-03,
859,1.60e-03,
860,-1.60e-03,
861,2.40e-03,
862,-1.60e-03,
863,2.00e-03,
864,-1.60e-03,
865,1.60e-03,
866,1.60e-03,
867,-1.60e-03,
868,2.00e-03,
869,-1.60e-03,
870,-1.60e-03,
871,1.60e-03,
872,1.60e-03,
873,-1.60e-03,
874,-2.40e-03,
875,2.40e-03,
876,1.60e-03,
877,-2.00e-03,
878,-1.60e-03,
879,1.60e-03,
880,1.20e-03,
881,-1.60e-03,
882,2.00e-03,
883,-2.40e-03,
884,-2.40e-03,
885,1.60e-03,
886,-2.40e-03,
887,2.40e-03,
888,1.60e-03,
889,-2.40e-03,
890,2.00e-03,
891,-2.40e-03,
892,-2.40e-03,
893,1.20e-03,
894,1.60e-03,
895,-2.40e-03,
896,-1.60e-03,
897,1.60e-03,
898,-2.40e-03,
899,1.20e-03,
900,-3.20e-03,
901,2.00e-03,
902,-2.40e-03,
903,1.60e-03,
904,1.60e-03,
905,-2.40e-03,
906,1.60e-03,
907,-2.40e-03,
908,-2.40e-03,
909,2.00e-03,
910,1.60e-03,
911,-2.40e-03,
912,-3.20e-03,
913,1.60e-03,
914,-1.60e-03,
915,1.20e-03,
916,8.00e-04,
917,-2.40e-03,
918,-2.40e-03,
919,1.20e-03,
920,-2.40e-03,
921,2.40e-03,
922,1.60e-03,
923,-2.00e-03,
924,-2.40e-03,
925,1.60e-03,
926,1.20e-03,
927,-1.60e-03,
928,-1.60e-03,
929,2.00e-03,
930,1.60e-03,
931,-2.40e-03,
932,-2.40e-03,
933,1.20e-03,
934,-2.40e-03,
935,2.40e-03,
936,1.60e-03,
937,-1.60e-03,
938,-2.40e-03,
939,1.20e-03,
940,2.00e-03,
941,-2.40e-03,
942,1.60e-03,
943,-2.40e-03,
944,-2.40e-03,
945,2.00e-03,
946,-2.40e-03,
947,1.20e-03,
948,8.00e-04,
949,-2.40e-03,
950,-3.20e-03,
951,8.00e-04,
952,-2.40e-03,
953,2.80e-03,
954,-2.40e-03,
955,1.60e-03,
956,-3.20e-03,
957,1.60e-03,
958,-2.40e-03,
959,1.60e-03,
960,8.00e-04,
961,-2.40e-03,
962,8.00e-04,
963,-2.40e-03,
964,-2.40e-03,
965,1.60e-03,
966,1.60e-03,
967,-3.20e-03,
968,1.20e-03,
969,-2.40e-03,
970,-2.40e-03,
971,1.20e-03,
972,1.60e-03,
973,-2.40e-03,
974,1.20e-03,
975,-2.40e-03,
976,-2.40e-03,
977,1.60e-03,
978,-3.20e-03,
979,1.60e-03,
980,-2.40e-03,
981,1.60e-03,
982,1.60e-03,
983,-2.40e-03,
984,-2.40e-03,
985,2.40e-03,
986,8.00e-04,
987,-2.40e-03,
988,-2.40e-03,
989,1.60e-03,
990,-1.60e-03,
991,1.20e-03,
992,-2.40e-03,
993,1.20e-03,
994,-2.40e-03,
995,2.40e-03,
996,-2.40e-03,
997,1.60e-03,
998,1.60e-03,
999,-2.40e-03,
1000,-2.40e-03,
1001,8.00e-04,
1002,-1.60e-03,
1003,1.60e-03,
1004,1.60e-03,
1005,-2.40e-03,
1006,8.00e-04,
1007,-2.40e-03,
1008,1.60e-03,
1009,-2.40e-03,
1010,-1.60e-03,
1011,1.60e-03,
1012,1.60e-03,
1013,-3.20e-03,
1014,1.20e-03,
1015,-3.20e-03,
1016,-2.40e-03,
1017,1.60e-03,
1018,-2.40e-03,
1019,1.20e-03,
1020,-2.40e-03,
1021,1.20e-03,
1022,1.60e-03,
1023,-2.40e-03,
1024,-2.40e-03,
1025,1.20e-03,
1026,-2.40e-03,
1027,1.60e-03,
1028,-2.40e-03,
1029,1.60e-03,
1030,1.20e-03,
1031,-3.20e-03,
1032,1.60e-03,
1033,-2.40e-03,
1034,1.20e-03,
1035,-2.40e-03,
1036,-2.40e-03,
1037,1.60e-03,
1038,1.60e-03,
1039,-2.40e-03,
1040,1.60e-03,
1041,-2.40e-03,
1042,-1.60e-03,
1043,1.60e-03,
1044,-2.40e-03,
1045,1.20e-03,
1046,2.00e-03,
1047,-2.40e-03,
1048,1.20e-03,
1049,-2.40e-03,
1050,1.20e-03,
1051,-1.60e-03,
1052,1.60e-03,
1053,-3.20e-03,
1054,-2.40e-03,
1055,1.20e-03,
1056,1.60e-03,
1057,-2.40e-03,
1058,-2.40e-03,
1059,1.20e-03,
1060,-1.60e-03,
1061,1.20e-03,
1062,-2.40e-03,
1063,2.40e-03,
1064,1.60e-03,
1065,-2.40e-03,
1066,-1.60e-03,
1067,1.60e-03,
1068,-2.40e-03,
1069,1.60e-03,
1070,1.60e-03,
1071,-2.40e-03,
1072,-2.40e-03,
1073,1.60e-03,
1074,-3.20e-03,
1075,1.20e-03,
1076,-2.40e-03,
1077,8.00e-04,
1078,-2.40e-03,
1079,1.20e-03,
1080,-2.40e-03,
1081,1.60e-03,
1082,-2.40e-03,
1083,1.60e-03,
1084,2.00e-03,
1085,-2.40e-03,
1086,1.20e-03,
1087,-2.40e-03,
1088,1.20e-03,
1089,-2.40e-03,
1090,-2.40e-03,
1091,2.00e-03,
1092,8.00e-04,
1093,-2.40e-03,
1094,-2.40e-03,
1095,1.60e-03,
1096,1.60e-03,
1097,-2.40e-03,
1098,8.00e-04,
1099,-3.20e-03,
1100,-2.40e-03,
1101,1.20e-03,
1102,1.60e-03,
1103,-2.40e-03,
1104,8.00e-04,
1105,-1.60e-03,
1106,-2.40e-03,
1107,8.00e-04,
1108,-2.40e-03,
1109,8.00e-04,
1110,-2.40e-03,
1111,1.20e-03,
1112,-2.40e-03,
1113,1.20e-03,
1114,8.00e-04,
1115,-3.20e-03,
1116,8.00e-04,
1117,-2.40e-03,
1118,-2.40e-03,
1119,1.20e-03,
1120,-2.40e-03,
1121,1.20e-03,
1122,1.60e-03,
1123,-2.40e-03,
1124,-2.40e-03,
1125,8.00e-04,
1126,1.20e-03,
1127,-2.40e-03,
1128,1.60e-03,
1129,-2.40e-03,
1130,-1.60e-03,
1131,2.00e-03,
1132,2.00e-03,
1133,-2.40e-03,
1134,-2.40e-03,
1135,1.60e-03,
1136,1.60e-03,
1137,-2.40e-03,
1138,-2.40e-03,
1139,1.60e-03,
1140,1.20e-03,
1141,-2.40e-03,
1142,-2.40e-03,
1143,1.60e-03,
1144,-2.40e-03,
1145,1.20e-03,
1146,-2.40e-03,
1147,1.60e-03,
1148,-2.40e-03,
1149,1.60e-03,
1150,8.00e-04,
1151,-2.40e-03,
1152,8.00e-04,
1153,-2.40e-03,
1154,-2.40e-03,
1155,1.60e-03,
1156,1.60e-03,
1157,-3.20e-03,
1158,-1.60e-03,
1159,1.60e-03,
1160,1.60e-03,
1161,-2.40e-03,
1162,1.60e-03,
1163,-1.60e-03,
1164,1.60e-03,
1165,-2.40e-03,
1166,-2.40e-03,
1167,2.00e-03,
1168,8.00e-04,
1169,-2.40e-03,
1170,-2.40e-03,
1171,1.60e-03,
1172,-2.40e-03,
1173,1.60e-03,
1174,-2.40e-03,
1175,1.20e-03,
1176,-2.40e-03,
1177,1.60e-03,
1178,1.60e-03,
1179,-2.40e-03,
1180,8.00e-04,
1181,-1.60e-03,
1182,1.20e-03,
1183,-2.40e-03,
1184,1.60e-03,
1185,-2.40e-03,
1186,-1.60e-03,
1187,1.60e-03,
1188,-1.60e-03,
1189,2.00e-03,
1190,-2.40e-03,
1191,1.60e-03,
1192,1.60e-03,
1193,-1.60e-03,
1194,-2.40e-03,
1195,2.00e-03,
1196,-1.60e-03,
1197,1.60e-03,
1198,-2.40e-03,
1199,1.20e-03,
