fastdiffamp/data-noise-set/strong-unb/NewFile3.csv

X,CH1,Start,Increment,
Sequence,Volt,-1.148000e+01,2.000000e-02
0,-8.00e-04,
1,2.00e-03,
2,-1.60e-03,
3,2.40e-03,
4,1.60e-03,
5,-1.60e-03,
6,-1.60e-03,
7,1.20e-03,
8,1.60e-03,
9,-1.60e-03,
10,-1.60e-03,
11,2.40e-03,
12,-1.60e-03,
13,2.40e-03,
14,2.40e-03,
15,-8.00e-04,
16,-1.60e-03,
17,2.40e-03,
18,-1.60e-03,
19,1.60e-03,
20,1.60e-03,
21,-2.40e-03,
22,-1.60e-03,
23,1.60e-03,
24,-1.60e-03,
25,1.60e-03,
26,2.00e-03,
27,-2.40e-03,
28,-1.60e-03,
29,1.60e-03,
30,-2.40e-03,
31,2.00e-03,
32,-2.40e-03,
33,2.00e-03,
34,-1.60e-03,
35,2.40e-03,
36,-1.60e-03,
37,1.60e-03,
38,-2.40e-03,
39,1.60e-03,
40,2.80e-03,
41,-2.40e-03,
42,-8.00e-04,
43,2.40e-03,
44,-1.60e-03,
45,1.60e-03,
46,2.00e-03,
47,-1.60e-03,
48,-1.60e-03,
49,2.40e-03,
50,2.40e-03,
51,-1.60e-03,
52,-1.60e-03,
53,2.40e-03,
54,-1.60e-03,
55,2.40e-03,
56,2.00e-03,
57,-1.60e-03,
58,-1.60e-03,
59,2.40e-03,
60,-1.60e-03,
61,1.60e-03,
62,-1.60e-03,
63,2.40e-03,
64,-1.60e-03,
65,1.60e-03,
66,2.40e-03,
67,-1.60e-03,
68,1.60e-03,
69,-1.60e-03,
70,-1.60e-03,
71,2.40e-03,
72,-1.60e-03,
73,1.60e-03,
74,-1.60e-03,
75,1.60e-03,
76,-1.60e-03,
77,2.00e-03,
78,2.40e-03,
79,-2.40e-03,
80,-8.00e-04,
81,2.40e-03,
82,2.00e-03,
83,-2.40e-03,
84,-1.60e-03,
85,1.60e-03,
86,-1.60e-03,
87,2.40e-03,
88,-1.60e-03,
89,2.80e-03,
90,-1.60e-03,
91,1.60e-03,
92,1.60e-03,
93,-2.40e-03,
94,-2.40e-03,
95,1.60e-03,
96,-1.60e-03,
97,2.00e-03,
98,-1.60e-03,
99,2.00e-03,
100,-8.00e-04,
101,2.00e-03,
102,-1.60e-03,
103,2.00e-03,
104,-1.60e-03,
105,1.20e-03,
106,-1.60e-03,
107,1.60e-03,
108,1.60e-03,
109,-1.60e-03,
110,-1.60e-03,
111,1.60e-03,
112,-2.40e-03,
113,2.40e-03,
114,2.00e-03,
115,-1.60e-03,
116,-1.60e-03,
117,2.40e-03,
118,1.60e-03,
119,-1.60e-03,
120,-1.60e-03,
121,2.40e-03,
122,-1.20e-03,
123,2.40e-03,
124,1.60e-03,
125,-1.60e-03,
126,-1.60e-03,
127,1.60e-03,
128,1.60e-03,
129,-1.60e-03,
130,-8.00e-04,
131,2.80e-03,
132,2.00e-03,
133,-2.40e-03,
134,-1.60e-03,
135,2.40e-03,
136,2.00e-03,
137,-1.60e-03,
138,-1.60e-03,
139,2.40e-03,
140,1.60e-03,
141,-1.60e-03,
142,-1.60e-03,
143,1.60e-03,
144,2.40e-03,
145,-2.40e-03,
146,2.40e-03,
147,-2.40e-03,
148,1.60e-03,
149,-2.40e-03,
150,1.60e-03,
151,-1.60e-03,
152,2.00e-03,
153,-2.40e-03,
154,-1.60e-03,
155,2.40e-03,
156,2.00e-03,
157,-1.60e-03,
158,2.40e-03,
159,-1.60e-03,
160,-1.60e-03,
161,2.40e-03,
162,-1.60e-03,
163,2.40e-03,
164,2.40e-03,
165,-1.60e-03,
166,-1.60e-03,
167,2.40e-03,
168,1.60e-03,
169,-1.60e-03,
170,-1.60e-03,
171,2.00e-03,
172,1.60e-03,
173,-2.40e-03,
174,-1.60e-03,
175,2.00e-03,
176,-8.00e-04,
177,2.40e-03,
178,-1.60e-03,
179,1.60e-03,
180,2.00e-03,
181,-2.00e-03,
182,-1.60e-03,
183,1.60e-03,
184,-1.60e-03,
185,2.40e-03,
186,3.20e-03,
187,-1.60e-03,
188,1.60e-03,
189,-1.60e-03,
190,1.60e-03,
191,-1.60e-03,
192,-1.60e-03,
193,1.60e-03,
194,2.40e-03,
195,-1.60e-03,
196,-1.60e-03,
197,1.60e-03,
198,2.00e-03,
199,-1.60e-03,
200,2.00e-03,
201,-1.60e-03,
202,2.40e-03,
203,-2.40e-03,
204,1.60e-03,
205,-1.60e-03,
206,-1.60e-03,
207,1.60e-03,
208,1.60e-03,
209,-1.60e-03,
210,-1.60e-03,
211,1.60e-03,
212,1.60e-03,
213,-1.60e-03,
214,2.00e-03,
215,-1.60e-03,
216,-1.60e-03,
217,2.80e-03,
218,-1.60e-03,
219,2.00e-03,
220,2.00e-03,
221,-1.60e-03,
222,2.40e-03,
223,-1.60e-03,
224,1.60e-03,
225,-2.40e-03,
226,-1.60e-03,
227,1.60e-03,
228,2.40e-03,
229,-1.60e-03,
230,1.20e-03,
231,-2.40e-03,
232,-8.00e-04,
233,2.40e-03,
234,-1.60e-03,
235,2.00e-03,
236,2.40e-03,
237,-1.60e-03,
238,-8.00e-04,
239,2.00e-03,
240,-1.60e-03,
241,2.40e-03,
242,-2.40e-03,
243,2.40e-03,
244,-1.60e-03,
245,1.20e-03,
246,2.40e-03,
247,-1.60e-03,
248,-2.40e-03,
249,1.60e-03,
250,-1.60e-03,
251,2.00e-03,
252,-1.60e-03,
253,1.60e-03,
254,2.00e-03,
255,-2.40e-03,
256,-1.60e-03,
257,2.00e-03,
258,-2.40e-03,
259,1.60e-03,
260,-1.60e-03,
261,2.40e-03,
262,1.60e-03,
263,-2.40e-03,
264,-1.60e-03,
265,1.60e-03,
266,1.60e-03,
267,-1.60e-03,
268,-1.60e-03,
269,1.60e-03,
270,1.20e-03,
271,-1.60e-03,
272,-1.60e-03,
273,2.00e-03,
274,1.60e-03,
275,-2.40e-03,
276,-1.60e-03,
277,2.40e-03,
278,1.60e-03,
279,-1.60e-03,
280,1.60e-03,
281,-1.60e-03,
282,-1.60e-03,
283,2.40e-03,
284,-1.60e-03,
285,1.60e-03,
286,-1.60e-03,
287,2.40e-03,
288,-1.60e-03,
289,2.80e-03,
290,1.60e-03,
291,-1.60e-03,
292,-1.60e-03,
293,1.60e-03,
294,-2.40e-03,
295,2.00e-03,
296,-1.60e-03,
297,2.40e-03,
298,2.40e-03,
299,-1.60e-03,
300,1.60e-03,
301,-1.60e-03,
302,2.40e-03,
303,-2.40e-03,
304,2.40e-03,
305,-1.60e-03,
306,1.60e-03,
307,-1.60e-03,
308,-1.60e-03,
309,1.60e-03,
310,2.40e-03,
311,-2.40e-03,
312,-2.40e-03,
313,1.60e-03,
314,-2.40e-03,
315,1.60e-03,
316,-1.60e-03,
317,1.60e-03,
318,2.00e-03,
319,-2.40e-03,
320,-2.40e-03,
321,1.60e-03,
322,-2.40e-03,
323,2.00e-03,
324,-1.60e-03,
325,1.60e-03,
326,-1.60e-03,
327,2.00e-03,
328,1.60e-03,
329,-2.40e-03,
330,-1.60e-03,
331,3.20e-03,
332,1.60e-03,
333,-2.40e-03,
334,-1.60e-03,
335,1.60e-03,
336,-1.60e-03,
337,1.60e-03,
338,-2.40e-03,
339,1.60e-03,
340,-1.60e-03,
341,1.60e-03,
342,-2.40e-03,
343,1.60e-03,
344,2.00e-03,
345,-2.40e-03,
346,1.60e-03,
347,-2.40e-03,
348,-1.60e-03,
349,1.60e-03,
350,-2.40e-03,
351,1.60e-03,
352,1.60e-03,
353,-1.60e-03,
354,1.60e-03,
355,-1.60e-03,
356,-1.60e-03,
357,1.60e-03,
358,1.60e-03,
359,-1.60e-03,
360,-1.60e-03,
361,2.00e-03,
362,-1.60e-03,
363,2.40e-03,
364,1.60e-03,
365,-1.60e-03,
366,1.20e-03,
367,-1.60e-03,
368,-1.60e-03,
369,1.60e-03,
370,2.00e-03,
371,-1.60e-03,
372,2.00e-03,
373,-1.60e-03,
374,-1.60e-03,
375,2.40e-03,
376,-2.40e-03,
377,1.60e-03,
378,-8.00e-04,
379,1.60e-03,
380,3.20e-03,
381,-2.40e-03,
382,1.60e-03,
383,-1.60e-03,
384,2.40e-03,
385,-1.60e-03,
386,-1.60e-03,
387,2.40e-03,
388,-8.00e-04,
389,2.40e-03,
390,-8.00e-04,
391,1.60e-03,
392,-1.60e-03,
393,1.20e-03,
394,-1.60e-03,
395,1.20e-03,
396,-2.40e-03,
397,1.60e-03,
398,-1.60e-03,
399,2.00e-03,
400,-1.60e-03,
401,1.60e-03,
402,-2.40e-03,
403,2.00e-03,
404,-2.40e-03,
405,1.60e-03,
406,-1.60e-03,
407,1.20e-03,
408,-1.60e-03,
409,2.00e-03,
410,1.60e-03,
411,-2.40e-03,
412,2.40e-03,
413,-1.60e-03,
414,-1.60e-03,
415,2.00e-03,
416,-1.60e-03,
417,2.40e-03,
418,-8.00e-04,
419,2.00e-03,
420,-1.60e-03,
421,2.80e-03,
422,2.40e-03,
423,-1.60e-03,
424,-1.60e-03,
425,2.40e-03,
426,2.00e-03,
427,-1.60e-03,
428,-2.40e-03,
429,1.20e-03,
430,1.60e-03,
431,-1.60e-03,
432,-1.60e-03,
433,1.60e-03,
434,-1.60e-03,
435,1.60e-03,
436,-1.60e-03,
437,2.40e-03,
438,-1.60e-03,
439,1.60e-03,
440,2.40e-03,
441,-1.60e-03,
442,1.20e-03,
443,-1.60e-03,
444,-8.00e-04,
445,2.40e-03,
446,-1.60e-03,
447,1.60e-03,
448,-2.40e-03,
449,1.60e-03,
450,-1.60e-03,
451,2.00e-03,
452,-1.60e-03,
453,2.40e-03,
454,-1.60e-03,
455,2.40e-03,
456,-1.60e-03,
457,2.40e-03,
458,-1.60e-03,
459,1.60e-03,
460,1.60e-03,
461,-8.00e-04,
462,2.40e-03,
463,-2.40e-03,
464,1.60e-03,
465,-1.60e-03,
466,1.60e-03,
467,-1.60e-03,
468,-1.60e-03,
469,1.60e-03,
470,-8.00e-04,
471,2.40e-03,
472,2.40e-03,
473,-1.60e-03,
474,-2.40e-03,
475,1.60e-03,
476,-1.60e-03,
477,2.40e-03,
478,-1.60e-03,
479,2.40e-03,
480,-8.00e-04,
481,1.60e-03,
482,2.40e-03,
483,-1.60e-03,
484,-1.60e-03,
485,2.00e-03,
486,1.60e-03,
487,-1.60e-03,
488,1.60e-03,
489,-2.40e-03,
490,-1.60e-03,
491,1.60e-03,
492,1.60e-03,
493,-1.60e-03,
494,2.00e-03,
495,-2.40e-03,
496,-1.60e-03,
497,2.00e-03,
498,2.40e-03,
499,-2.40e-03,
500,1.60e-03,
501,-1.60e-03,
502,-2.40e-03,
503,1.60e-03,
504,2.00e-03,
505,-1.60e-03,
506,-1.60e-03,
507,1.60e-03,
508,-1.60e-03,
509,2.00e-03,
510,-8.00e-04,
511,1.60e-03,
512,2.40e-03,
513,-1.60e-03,
514,-1.60e-03,
515,2.40e-03,
516,-8.00e-04,
517,1.60e-03,
518,2.00e-03,
519,-3.20e-03,
520,1.60e-03,
521,-1.60e-03,
522,1.60e-03,
523,-1.60e-03,
524,-1.60e-03,
525,2.00e-03,
526,2.40e-03,
527,-1.60e-03,
528,2.40e-03,
529,-1.60e-03,
530,2.40e-03,
531,-1.60e-03,
532,-1.60e-03,
533,2.00e-03,
534,-1.60e-03,
535,1.20e-03,
536,1.60e-03,
537,-2.40e-03,
538,1.60e-03,
539,-1.60e-03,
540,-1.60e-03,
541,2.40e-03,
542,2.00e-03,
543,-1.60e-03,
544,-1.60e-03,
545,1.60e-03,
546,1.60e-03,
547,-1.60e-03,
548,2.40e-03,
549,-1.60e-03,
550,-1.60e-03,
551,1.60e-03,
552,2.40e-03,
553,-1.60e-03,
554,2.00e-03,
555,-1.60e-03,
556,-1.60e-03,
557,2.40e-03,
558,1.60e-03,
559,-2.40e-03,
560,-2.40e-03,
561,2.00e-03,
562,-1.60e-03,
563,2.40e-03,
564,-2.40e-03,
565,2.40e-03,
566,2.00e-03,
567,-2.40e-03,
568,2.40e-03,
569,-1.60e-03,
570,2.00e-03,
571,-1.60e-03,
572,1.60e-03,
573,-1.60e-03,
574,-1.60e-03,
575,2.40e-03,
576,-1.60e-03,
577,1.60e-03,
578,1.60e-03,
579,-1.60e-03,
580,2.40e-03,
581,-1.60e-03,
582,-1.60e-03,
583,1.60e-03,
584,-1.60e-03,
585,2.40e-03,
586,1.60e-03,
587,-1.60e-03,
588,-1.60e-03,
589,2.40e-03,
590,1.60e-03,
591,-8.00e-04,
592,-1.60e-03,
593,2.80e-03,
594,-1.60e-03,
595,1.60e-03,
596,2.00e-03,
597,-2.40e-03,
598,-1.60e-03,
599,2.00e-03,
600,2.40e-03,
601,-1.60e-03,
602,2.00e-03,
603,-1.60e-03,
604,2.40e-03,
605,-1.60e-03,
606,2.00e-03,
607,-2.40e-03,
608,-1.60e-03,
609,1.60e-03,
610,-1.60e-03,
611,1.60e-03,
612,-1.60e-03,
613,1.60e-03,
614,2.00e-03,
615,-1.60e-03,
616,-1.60e-03,
617,2.40e-03,
618,1.60e-03,
619,-1.60e-03,
620,-1.60e-03,
621,2.40e-03,
622,2.40e-03,
623,-1.60e-03,
624,-1.60e-03,
625,2.00e-03,
626,2.40e-03,
627,-2.40e-03,
628,2.00e-03,
629,-1.60e-03,
630,-1.60e-03,
631,1.60e-03,
632,-1.60e-03,
633,1.20e-03,
634,-1.60e-03,
635,1.60e-03,
636,-2.40e-03,
637,1.60e-03,
638,-1.60e-03,
639,1.60e-03,
640,-1.60e-03,
641,2.40e-03,
642,-1.60e-03,
643,1.60e-03,
644,-1.60e-03,
645,2.40e-03,
646,1.60e-03,
647,-1.60e-03,
648,-2.40e-03,
649,2.00e-03,
650,-1.60e-03,
651,2.80e-03,
652,1.60e-03,
653,-2.40e-03,
654,-2.40e-03,
655,1.20e-03,
656,2.40e-03,
657,-1.60e-03,
658,-8.00e-04,
659,2.00e-03,
660,-1.60e-03,
661,2.00e-03,
662,-1.60e-03,
663,2.40e-03,
664,2.40e-03,
665,-1.60e-03,
666,-1.60e-03,
667,1.60e-03,
668,2.40e-03,
669,-1.60e-03,
670,1.60e-03,
671,-1.60e-03,
672,-1.60e-03,
673,1.60e-03,
674,-1.60e-03,
675,1.60e-03,
676,1.60e-03,
677,-1.60e-03,
678,-1.60e-03,
679,2.00e-03,
680,2.40e-03,
681,-1.60e-03,
682,-8.00e-04,
683,2.00e-03,
684,1.60e-03,
685,-8.00e-04,
686,-1.60e-03,
687,2.40e-03,
688,-1.60e-03,
689,2.00e-03,
690,2.80e-03,
691,-1.60e-03,
692,2.00e-03,
693,-2.40e-03,
694,-2.40e-03,
695,2.40e-03,
696,-1.60e-03,
697,2.00e-03,
698,-1.60e-03,
699,1.60e-03,
700,-1.60e-03,
701,2.00e-03,
702,2.40e-03,
703,-1.60e-03,
704,-1.60e-03,
705,1.60e-03,
706,-2.40e-03,
707,2.00e-03,
708,1.60e-03,
709,-1.60e-03,
710,-2.40e-03,
711,2.00e-03,
712,-1.60e-03,
713,2.40e-03,
714,2.40e-03,
715,-1.60e-03,
716,1.60e-03,
717,-1.60e-03,
718,1.60e-03,
719,-1.60e-03,
720,-1.60e-03,
721,2.40e-03,
722,-1.60e-03,
723,2.40e-03,
724,-8.00e-04,
725,2.40e-03,
726,1.60e-03,
727,-1.20e-03,
728,-1.60e-03,
729,2.40e-03,
730,-1.60e-03,
731,2.00e-03,
732,1.60e-03,
733,-1.60e-03,
734,-8.00e-04,
735,2.40e-03,
736,-8.00e-04,
737,2.00e-03,
738,1.60e-03,
739,-1.60e-03,
740,2.80e-03,
741,-1.60e-03,
742,-1.60e-03,
743,2.40e-03,
744,2.40e-03,
745,-1.60e-03,
746,2.40e-03,
747,-1.60e-03,
748,1.60e-03,
749,-1.60e-03,
750,1.60e-03,
751,-8.00e-04,
752,-1.60e-03,
753,2.00e-03,
754,-8.00e-04,
755,2.40e-03,
756,-1.60e-03,
757,2.40e-03,
758,2.00e-03,
759,-1.60e-03,
760,-1.60e-03,
761,2.40e-03,
762,-1.60e-03,
763,2.00e-03,
764,-1.60e-03,
765,2.40e-03,
766,2.40e-03,
767,-1.60e-03,
768,-1.60e-03,
769,2.00e-03,
770,2.40e-03,
771,-1.60e-03,
772,-1.60e-03,
773,2.00e-03,
774,-8.00e-04,
775,2.40e-03,
776,2.40e-03,
777,-1.60e-03,
778,-8.00e-04,
779,2.40e-03,
780,-8.00e-04,
781,2.40e-03,
782,3.20e-03,
783,-1.60e-03,
784,-8.00e-04,
785,2.80e-03,
786,3.20e-03,
787,-2.00e-03,
788,-8.00e-04,
789,2.40e-03,
790,-8.00e-04,
791,3.20e-03,
792,1.60e-03,
793,-1.60e-03,
794,2.40e-03,
795,-1.60e-03,
796,-1.60e-03,
797,2.80e-03,
798,-1.60e-03,
799,2.40e-03,
800,2.40e-03,
801,-1.60e-03,
802,-1.60e-03,
803,2.40e-03,
804,-8.00e-04,
805,1.60e-03,
806,-8.00e-04,
807,2.40e-03,
808,1.60e-03,
809,-1.60e-03,
810,-1.60e-03,
811,2.40e-03,
812,2.80e-03,
813,-8.00e-04,
814,-1.60e-03,
815,2.40e-03,
816,-8.00e-04,
817,2.00e-03,
818,-1.60e-03,
819,2.40e-03,
820,1.60e-03,
821,-8.00e-04,
822,-1.60e-03,
823,2.40e-03,
824,2.40e-03,
825,-1.60e-03,
826,-1.60e-03,
827,1.60e-03,
828,2.80e-03,
829,-1.60e-03,
830,-8.00e-04,
831,2.00e-03,
832,-1.60e-03,
833,2.40e-03,
834,1.60e-03,
835,-1.60e-03,
836,1.60e-03,
837,-1.60e-03,
838,1.60e-03,
839,-1.60e-03,
840,2.40e-03,
841,-1.60e-03,
842,2.40e-03,
843,-1.60e-03,
844,2.40e-03,
845,-1.60e-03,
846,1.60e-03,
847,-1.60e-03,
848,-1.60e-03,
849,2.40e-03,
850,-1.60e-03,
851,1.60e-03,
852,2.00e-03,
853,-2.40e-03,
854,-2.40e-03,
855,1.60e-03,
856,2.00e-03,
857,-1.60e-03,
858,-1.60e-03,
859,2.40e-03,
860,2.40e-03,
861,-1.60e-03,
862,-1.60e-03,
863,2.40e-03,
864,-1.60e-03,
865,2.40e-03,
866,-1.60e-03,
867,3.20e-03,
868,-8.00e-04,
869,2.40e-03,
870,-8.00e-04,
871,2.00e-03,
872,-1.60e-03,
873,2.40e-03,
874,2.00e-03,
875,-2.40e-03,
876,-8.00e-04,
877,2.40e-03,
878,-1.60e-03,
879,2.40e-03,
880,-1.60e-03,
881,2.00e-03,
882,2.00e-03,
883,-1.60e-03,
884,-1.60e-03,
885,2.00e-03,
886,1.60e-03,
887,-2.40e-03,
888,-8.00e-04,
889,2.40e-03,
890,2.40e-03,
891,-1.60e-03,
892,-2.40e-03,
893,1.60e-03,
894,-1.60e-03,
895,2.00e-03,
896,2.00e-03,
897,-2.40e-03,
898,1.60e-03,
899,-2.40e-03,
900,1.60e-03,
901,-1.60e-03,
902,2.40e-03,
903,-1.60e-03,
904,-1.60e-03,
905,1.60e-03,
906,1.60e-03,
907,-1.60e-03,
908,-1.60e-03,
909,2.40e-03,
910,2.40e-03,
911,-2.00e-03,
912,2.40e-03,
913,-2.40e-03,
914,-1.60e-03,
915,2.40e-03,
916,-1.60e-03,
917,2.40e-03,
918,2.40e-03,
919,-8.00e-04,
920,-8.00e-04,
921,2.40e-03,
922,1.60e-03,
923,-8.00e-04,
924,1.60e-03,
925,-2.40e-03,
926,2.00e-03,
927,-1.60e-03,
928,-1.60e-03,
929,2.40e-03,
930,-1.60e-03,
931,2.80e-03,
932,3.20e-03,
933,-1.60e-03,
934,-1.60e-03,
935,2.00e-03,
936,2.40e-03,
937,-1.60e-03,
938,2.00e-03,
939,-1.60e-03,
940,-1.60e-03,
941,2.00e-03,
942,-8.00e-04,
943,2.00e-03,
944,-1.60e-03,
945,1.60e-03,
946,1.60e-03,
947,-1.60e-03,
948,1.60e-03,
949,-1.60e-03,
950,2.00e-03,
951,-2.40e-03,
952,1.60e-03,
953,-1.60e-03,
954,-1.60e-03,
955,1.60e-03,
956,2.00e-03,
957,-1.60e-03,
958,1.60e-03,
959,-1.60e-03,
960,2.00e-03,
961,-1.60e-03,
962,-1.60e-03,
963,2.40e-03,
964,-1.60e-03,
965,2.40e-03,
966,2.40e-03,
967,-1.60e-03,
968,2.40e-03,
969,-1.60e-03,
970,1.60e-03,
971,-1.60e-03,
972,-1.60e-03,
973,2.00e-03,
974,-2.40e-03,
975,1.20e-03,
976,1.60e-03,
977,-1.60e-03,
978,-1.60e-03,
979,2.00e-03,
980,1.60e-03,
981,-1.60e-03,
982,1.60e-03,
983,-2.00e-03,
984,-2.40e-03,
985,1.60e-03,
986,1.60e-03,
987,-2.40e-03,
988,-1.60e-03,
989,1.60e-03,
990,-1.60e-03,
991,2.00e-03,
992,-1.60e-03,
993,3.20e-03,
994,1.60e-03,
995,-1.60e-03,
996,-2.40e-03,
997,2.00e-03,
998,1.60e-03,
999,-1.60e-03,
1000,-1.60e-03,
1001,2.00e-03,
1002,1.60e-03,
1003,-2.40e-03,
1004,1.60e-03,
1005,-1.60e-03,
1006,-1.60e-03,
1007,2.80e-03,
1008,-1.60e-03,
1009,1.60e-03,
1010,-2.40e-03,
1011,2.40e-03,
1012,-1.60e-03,
1013,2.00e-03,
1014,1.60e-03,
1015,-1.60e-03,
1016,1.60e-03,
1017,-2.40e-03,
1018,1.60e-03,
1019,-2.40e-03,
1020,1.60e-03,
1021,-3.20e-03,
1022,-1.60e-03,
1023,1.60e-03,
1024,2.40e-03,
1025,-2.40e-03,
1026,-1.60e-03,
1027,1.60e-03,
1028,-1.60e-03,
1029,2.40e-03,
1030,-1.60e-03,
1031,1.20e-03,
1032,-1.60e-03,
1033,1.60e-03,
1034,1.60e-03,
1035,-1.60e-03,
1036,-1.60e-03,
1037,1.60e-03,
1038,-1.60e-03,
1039,2.00e-03,
1040,-1.60e-03,
1041,1.60e-03,
1042,-1.60e-03,
1043,1.60e-03,
1044,-8.00e-04,
1045,2.40e-03,
1046,2.00e-03,
1047,-1.60e-03,
1048,1.60e-03,
1049,-1.60e-03,
1050,-1.60e-03,
1051,1.60e-03,
1052,-1.60e-03,
1053,1.60e-03,
1054,2.40e-03,
1055,-1.60e-03,
1056,-1.60e-03,
1057,2.40e-03,
1058,-1.60e-03,
1059,2.40e-03,
1060,2.80e-03,
1061,-1.60e-03,
1062,-1.60e-03,
1063,2.40e-03,
1064,2.00e-03,
1065,-1.60e-03,
1066,-8.00e-04,
1067,2.40e-03,
1068,2.00e-03,
1069,-1.60e-03,
1070,2.00e-03,
1071,-1.60e-03,
1072,-1.60e-03,
1073,1.60e-03,
1074,-1.60e-03,
1075,2.00e-03,
1076,1.60e-03,
1077,-1.60e-03,
1078,2.40e-03,
1079,-1.60e-03,
1080,1.60e-03,
1081,-2.40e-03,
1082,2.00e-03,
1083,-2.40e-03,
1084,-1.60e-03,
1085,1.60e-03,
1086,1.60e-03,
1087,-2.40e-03,
1088,-1.60e-03,
1089,1.20e-03,
1090,-1.60e-03,
1091,2.00e-03,
1092,2.00e-03,
1093,-2.40e-03,
1094,2.00e-03,
1095,-2.40e-03,
1096,1.60e-03,
1097,-1.60e-03,
1098,1.60e-03,
1099,-8.00e-04,
1100,-8.00e-04,
1101,2.40e-03,
1102,2.00e-03,
1103,-1.60e-03,
1104,1.60e-03,
1105,-1.60e-03,
1106,2.40e-03,
1107,-1.60e-03,
1108,-2.40e-03,
1109,1.60e-03,
1110,2.40e-03,
1111,-1.60e-03,
1112,-1.20e-03,
1113,2.40e-03,
1114,-1.60e-03,
1115,2.40e-03,
1116,2.40e-03,
1117,-1.60e-03,
1118,2.40e-03,
1119,-1.60e-03,
1120,2.40e-03,
1121,-2.40e-03,
1122,2.00e-03,
1123,-1.60e-03,
1124,-1.60e-03,
1125,1.60e-03,
1126,-1.60e-03,
1127,2.40e-03,
1128,-1.60e-03,
1129,2.00e-03,
1130,-1.60e-03,
1131,1.60e-03,
1132,-1.60e-03,
1133,1.60e-03,
1134,2.40e-03,
1135,-1.60e-03,
1136,-1.60e-03,
1137,1.60e-03,
1138,-1.60e-03,
1139,2.00e-03,
1140,1.60e-03,
1141,-1.60e-03,
1142,-1.60e-03,
1143,2.40e-03,
1144,1.60e-03,
1145,-1.60e-03,
1146,-2.40e-03,
1147,1.60e-03,
1148,2.00e-03,
1149,-1.60e-03,
1150,2.00e-03,
1151,-1.60e-03,
1152,-1.60e-03,
1153,2.40e-03,
1154,2.00e-03,
1155,-1.60e-03,
1156,-1.60e-03,
1157,2.00e-03,
1158,1.60e-03,
1159,-2.40e-03,
1160,-1.60e-03,
1161,2.40e-03,
1162,1.60e-03,
1163,-1.60e-03,
1164,-2.40e-03,
1165,1.60e-03,
1166,-2.40e-03,
1167,2.00e-03,
1168,1.60e-03,
1169,-2.40e-03,
1170,-1.60e-03,
1171,2.00e-03,
1172,-1.60e-03,
1173,2.80e-03,
1174,-1.60e-03,
1175,2.40e-03,
1176,-1.60e-03,
1177,2.00e-03,
1178,-1.60e-03,
1179,2.00e-03,
1180,1.60e-03,
1181,-2.40e-03,
1182,-1.60e-03,
1183,2.40e-03,
1184,-1.60e-03,
1185,2.40e-03,
1186,-8.00e-04,
1187,2.40e-03,
1188,2.00e-03,
1189,-1.60e-03,
1190,2.40e-03,
1191,-2.00e-03,
1192,-8.00e-04,
1193,2.40e-03,
1194,-1.60e-03,
1195,2.40e-03,
1196,-2.40e-03,
1197,2.00e-03,
1198,1.20e-03,
1199,-2.40e-03,
