fastdiffamp/data-noise-set/strong-unb/NewFile7.csv

X,CH1,Start,Increment,
Sequence,Volt,-1.148000e+01,2.000000e-02
0,2.40e-03,
1,-2.40e-03,
2,-1.60e-03,
3,1.60e-03,
4,1.20e-03,
5,-2.40e-03,
6,-1.60e-03,
7,1.60e-03,
8,-1.60e-03,
9,1.60e-03,
10,-1.60e-03,
11,1.60e-03,
12,-2.00e-03,
13,1.60e-03,
14,-1.60e-03,
15,2.00e-03,
16,-2.40e-03,
17,2.00e-03,
18,2.00e-03,
19,-1.60e-03,
20,-1.60e-03,
21,2.40e-03,
22,-2.40e-03,
23,2.40e-03,
24,-2.40e-03,
25,2.00e-03,
26,-1.60e-03,
27,2.40e-03,
28,-2.40e-03,
29,2.40e-03,
30,1.60e-03,
31,-2.40e-03,
32,-1.60e-03,
33,2.00e-03,
34,-1.60e-03,
35,2.00e-03,
36,2.40e-03,
37,-1.60e-03,
38,1.20e-03,
39,-2.40e-03,
40,2.40e-03,
41,-3.20e-03,
42,-2.40e-03,
43,1.60e-03,
44,2.00e-03,
45,-3.20e-03,
46,2.00e-03,
47,-2.40e-03,
48,2.00e-03,
49,-2.40e-03,
50,-2.40e-03,
51,1.60e-03,
52,-1.60e-03,
53,2.40e-03,
54,1.60e-03,
55,-1.60e-03,
56,-1.60e-03,
57,2.00e-03,
58,1.60e-03,
59,-2.40e-03,
60,-2.40e-03,
61,1.60e-03,
62,2.00e-03,
63,-2.40e-03,
64,-2.40e-03,
65,2.00e-03,
66,1.60e-03,
67,-2.40e-03,
68,-1.60e-03,
69,1.60e-03,
70,-2.40e-03,
71,2.00e-03,
72,2.00e-03,
73,-1.60e-03,
74,-2.40e-03,
75,1.60e-03,
76,-1.60e-03,
77,2.00e-03,
78,1.60e-03,
79,-2.40e-03,
80,-1.60e-03,
81,2.40e-03,
82,-1.60e-03,
83,2.40e-03,
84,-2.40e-03,
85,2.40e-03,
86,-1.60e-03,
87,2.00e-03,
88,2.00e-03,
89,-2.40e-03,
90,-2.40e-03,
91,2.00e-03,
92,-1.60e-03,
93,1.60e-03,
94,-2.40e-03,
95,2.00e-03,
96,-2.40e-03,
97,2.00e-03,
98,1.60e-03,
99,-2.40e-03,
100,1.60e-03,
101,-2.40e-03,
102,-1.60e-03,
103,1.60e-03,
104,-1.60e-03,
105,2.80e-03,
106,-1.60e-03,
107,2.40e-03,
108,1.60e-03,
109,-2.40e-03,
110,2.40e-03,
111,-2.40e-03,
112,2.40e-03,
113,-2.40e-03,
114,-1.60e-03,
115,2.00e-03,
116,2.40e-03,
117,-2.40e-03,
118,2.00e-03,
119,-2.40e-03,
120,2.40e-03,
121,-2.40e-03,
122,1.60e-03,
123,-2.40e-03,
124,1.60e-03,
125,-2.00e-03,
126,1.60e-03,
127,-2.40e-03,
128,-2.40e-03,
129,2.40e-03,
130,-1.60e-03,
131,2.00e-03,
132,1.60e-03,
133,-1.60e-03,
134,-2.40e-03,
135,2.00e-03,
136,2.40e-03,
137,-2.40e-03,
138,-1.60e-03,
139,1.60e-03,
140,-2.40e-03,
141,2.80e-03,
142,2.00e-03,
143,-2.40e-03,
144,-1.60e-03,
145,2.00e-03,
146,-1.60e-03,
147,1.60e-03,
148,2.00e-03,
149,-2.40e-03,
150,-1.60e-03,
151,2.40e-03,
152,-3.20e-03,
153,2.40e-03,
154,-1.60e-03,
155,2.40e-03,
156,-1.60e-03,
157,2.00e-03,
158,-2.40e-03,
159,2.40e-03,
160,-1.60e-03,
161,3.20e-03,
162,-1.60e-03,
163,2.40e-03,
164,-1.60e-03,
165,2.40e-03,
166,2.00e-03,
167,-1.60e-03,
168,-1.60e-03,
169,3.20e-03,
170,-1.60e-03,
171,2.40e-03,
172,1.60e-03,
173,-1.60e-03,
174,1.60e-03,
175,-2.40e-03,
176,2.40e-03,
177,-1.60e-03,
178,-1.60e-03,
179,2.40e-03,
180,1.60e-03,
181,-1.60e-03,
182,-1.60e-03,
183,2.40e-03,
184,-1.60e-03,
185,2.00e-03,
186,2.40e-03,
187,-1.60e-03,
188,1.60e-03,
189,-2.40e-03,
190,2.40e-03,
191,-2.40e-03,
192,-2.40e-03,
193,2.40e-03,
194,-2.40e-03,
195,1.60e-03,
196,1.60e-03,
197,-1.60e-03,
198,2.00e-03,
199,-2.40e-03,
200,-1.60e-03,
201,2.40e-03,
202,-2.40e-03,
203,2.40e-03,
204,-1.60e-03,
205,3.20e-03,
206,2.40e-03,
207,-1.60e-03,
208,2.40e-03,
209,-8.00e-04,
210,-1.60e-03,
211,2.80e-03,
212,-1.60e-03,
213,2.80e-03,
214,-8.00e-04,
215,2.40e-03,
216,2.00e-03,
217,-1.60e-03,
218,2.00e-03,
219,-1.60e-03,
220,-1.60e-03,
221,2.40e-03,
222,-1.60e-03,
223,2.40e-03,
224,2.40e-03,
225,-1.60e-03,
226,-1.60e-03,
227,2.40e-03,
228,2.40e-03,
229,-1.60e-03,
230,-1.60e-03,
231,2.40e-03,
232,2.40e-03,
233,-1.60e-03,
234,3.20e-03,
235,-1.60e-03,
236,-1.60e-03,
237,2.40e-03,
238,2.40e-03,
239,-1.60e-03,
240,-2.40e-03,
241,3.20e-03,
242,-2.40e-03,
243,2.40e-03,
244,-2.40e-03,
245,2.00e-03,
246,1.60e-03,
247,-2.40e-03,
248,-2.40e-03,
249,2.00e-03,
250,1.60e-03,
251,-1.60e-03,
252,2.00e-03,
253,-2.40e-03,
254,2.00e-03,
255,-2.40e-03,
256,-1.60e-03,
257,2.40e-03,
258,-1.60e-03,
259,2.40e-03,
260,2.40e-03,
261,-2.40e-03,
262,-1.60e-03,
263,2.00e-03,
264,-1.60e-03,
265,2.40e-03,
266,-1.60e-03,
267,2.40e-03,
268,1.60e-03,
269,-2.40e-03,
270,2.80e-03,
271,-2.40e-03,
272,-1.60e-03,
273,2.00e-03,
274,2.40e-03,
275,-1.60e-03,
276,-1.60e-03,
277,2.40e-03,
278,-2.40e-03,
279,2.40e-03,
280,-1.60e-03,
281,1.60e-03,
282,-1.60e-03,
283,2.00e-03,
284,-1.60e-03,
285,2.40e-03,
286,-1.60e-03,
287,2.40e-03,
288,-1.60e-03,
289,2.40e-03,
290,-1.60e-03,
291,2.40e-03,
292,2.40e-03,
293,-1.60e-03,
294,-1.60e-03,
295,2.40e-03,
296,2.40e-03,
297,-2.40e-03,
298,-1.60e-03,
299,2.40e-03,
300,2.40e-03,
301,-1.60e-03,
302,-1.60e-03,
303,2.40e-03,
304,-1.60e-03,
305,2.40e-03,
306,-1.60e-03,
307,1.60e-03,
308,3.20e-03,
309,-1.60e-03,
310,2.40e-03,
311,-1.60e-03,
312,1.60e-03,
313,-1.60e-03,
314,-2.40e-03,
315,2.40e-03,
316,2.00e-03,
317,-1.60e-03,
318,-1.60e-03,
319,2.40e-03,
320,-1.60e-03,
321,2.40e-03,
322,2.00e-03,
323,-1.60e-03,
324,-1.60e-03,
325,2.40e-03,
326,-1.60e-03,
327,2.40e-03,
328,-1.60e-03,
329,2.40e-03,
330,-1.60e-03,
331,2.40e-03,
332,-1.60e-03,
333,2.40e-03,
334,-2.40e-03,
335,2.40e-03,
336,2.00e-03,
337,-1.60e-03,
338,-1.60e-03,
339,3.20e-03,
340,-1.60e-03,
341,2.80e-03,
342,-8.00e-04,
343,2.40e-03,
344,2.00e-03,
345,-1.60e-03,
346,-1.60e-03,
347,2.40e-03,
348,-8.00e-04,
349,2.40e-03,
350,2.40e-03,
351,-2.40e-03,
352,-1.60e-03,
353,2.40e-03,
354,1.60e-03,
355,-2.40e-03,
356,-1.60e-03,
357,2.40e-03,
358,-1.60e-03,
359,2.40e-03,
360,-1.60e-03,
361,2.40e-03,
362,-1.60e-03,
363,2.80e-03,
364,-1.60e-03,
365,2.40e-03,
366,-1.60e-03,
367,2.40e-03,
368,-1.60e-03,
369,2.40e-03,
370,-1.60e-03,
371,2.40e-03,
372,2.00e-03,
373,-1.60e-03,
374,-2.40e-03,
375,2.40e-03,
376,3.20e-03,
377,-2.40e-03,
378,2.40e-03,
379,-2.40e-03,
380,2.40e-03,
381,-2.40e-03,
382,-8.00e-04,
383,2.40e-03,
384,2.40e-03,
385,-2.40e-03,
386,-2.40e-03,
387,2.00e-03,
388,2.00e-03,
389,-1.60e-03,
390,-1.60e-03,
391,1.60e-03,
392,2.80e-03,
393,-2.40e-03,
394,-2.40e-03,
395,2.40e-03,
396,2.40e-03,
397,-2.40e-03,
398,2.40e-03,
399,-1.20e-03,
400,-1.60e-03,
401,2.40e-03,
402,2.00e-03,
403,-1.60e-03,
404,3.20e-03,
405,-2.00e-03,
406,-1.60e-03,
407,2.40e-03,
408,-1.60e-03,
409,2.00e-03,
410,3.20e-03,
411,-1.60e-03,
412,-1.60e-03,
413,2.00e-03,
414,-8.00e-04,
415,2.40e-03,
416,-1.60e-03,
417,2.40e-03,
418,-8.00e-04,
419,2.00e-03,
420,-1.60e-03,
421,2.00e-03,
422,-1.60e-03,
423,2.40e-03,
424,-2.40e-03,
425,2.00e-03,
426,-1.60e-03,
427,2.40e-03,
428,2.00e-03,
429,-1.60e-03,
430,2.00e-03,
431,-1.60e-03,
432,-2.40e-03,
433,2.00e-03,
434,-2.40e-03,
435,2.00e-03,
436,-2.40e-03,
437,2.40e-03,
438,-8.00e-04,
439,3.20e-03,
440,-1.60e-03,
441,2.40e-03,
442,2.40e-03,
443,-1.60e-03,
444,-1.60e-03,
445,2.00e-03,
446,-1.60e-03,
447,2.40e-03,
448,2.40e-03,
449,-1.60e-03,
450,2.40e-03,
451,-2.40e-03,
452,-1.60e-03,
453,3.20e-03,
454,2.80e-03,
455,-1.60e-03,
456,-1.60e-03,
457,2.40e-03,
458,2.40e-03,
459,-2.40e-03,
460,-1.60e-03,
461,2.40e-03,
462,-1.60e-03,
463,2.40e-03,
464,-1.60e-03,
465,2.40e-03,
466,3.20e-03,
467,-1.60e-03,
468,-1.60e-03,
469,2.40e-03,
470,-1.60e-03,
471,2.40e-03,
472,-2.40e-03,
473,2.40e-03,
474,-1.60e-03,
475,2.40e-03,
476,-1.60e-03,
477,2.00e-03,
478,2.00e-03,
479,-1.60e-03,
480,-1.60e-03,
481,2.40e-03,
482,-1.60e-03,
483,2.80e-03,
484,-1.60e-03,
485,2.40e-03,
486,2.40e-03,
487,-2.40e-03,
488,-1.60e-03,
489,2.00e-03,
490,-2.40e-03,
491,2.40e-03,
492,2.40e-03,
493,-2.40e-03,
494,-8.00e-04,
495,2.40e-03,
496,2.40e-03,
497,-1.60e-03,
498,1.60e-03,
499,-1.60e-03,
500,2.40e-03,
501,-1.60e-03,
502,2.40e-03,
503,-1.60e-03,
504,-1.60e-03,
505,2.40e-03,
506,-1.60e-03,
507,2.40e-03,
508,-1.60e-03,
509,2.40e-03,
510,-1.60e-03,
511,3.20e-03,
512,2.40e-03,
513,-1.60e-03,
514,-2.40e-03,
515,2.80e-03,
516,2.40e-03,
517,-1.60e-03,
518,2.00e-03,
519,-3.20e-03,
520,2.00e-03,
521,-1.60e-03,
522,-2.40e-03,
523,2.40e-03,
524,3.20e-03,
525,-1.60e-03,
526,2.00e-03,
527,-1.60e-03,
528,-1.60e-03,
529,2.40e-03,
530,-1.60e-03,
531,2.40e-03,
532,2.40e-03,
533,-8.00e-04,
534,3.20e-03,
535,-1.60e-03,
536,-1.60e-03,
537,2.40e-03,
538,2.40e-03,
539,-1.60e-03,
540,-1.60e-03,
541,2.40e-03,
542,-8.00e-04,
543,2.40e-03,
544,2.40e-03,
545,-1.60e-03,
546,2.40e-03,
547,-1.60e-03,
548,1.60e-03,
549,-1.60e-03,
550,2.40e-03,
551,-1.60e-03,
552,2.40e-03,
553,-1.60e-03,
554,2.40e-03,
555,-1.60e-03,
556,2.00e-03,
557,-1.60e-03,
558,-1.60e-03,
559,2.40e-03,
560,3.20e-03,
561,-1.60e-03,
562,1.60e-03,
563,-1.60e-03,
564,1.60e-03,
565,-8.00e-04,
566,2.40e-03,
567,-1.60e-03,
568,2.40e-03,
569,-1.60e-03,
570,-1.60e-03,
571,2.40e-03,
572,1.60e-03,
573,-8.00e-04,
574,3.20e-03,
575,-1.60e-03,
576,3.20e-03,
577,-1.60e-03,
578,2.40e-03,
579,-2.40e-03,
580,2.40e-03,
581,-1.60e-03,
582,2.40e-03,
583,-2.40e-03,
584,-1.60e-03,
585,3.20e-03,
586,2.40e-03,
587,-2.40e-03,
588,-2.40e-03,
589,2.40e-03,
590,-1.60e-03,
591,1.60e-03,
592,-2.40e-03,
593,2.40e-03,
594,-2.40e-03,
595,2.00e-03,
596,-2.40e-03,
597,2.00e-03,
598,-1.60e-03,
599,3.20e-03,
600,-1.60e-03,
601,2.40e-03,
602,2.00e-03,
603,-2.40e-03,
604,-1.60e-03,
605,2.40e-03,
606,2.00e-03,
607,-2.40e-03,
608,2.40e-03,
609,-2.40e-03,
610,-8.00e-04,
611,2.40e-03,
612,1.60e-03,
613,-1.60e-03,
614,-1.60e-03,
615,2.40e-03,
616,-1.60e-03,
617,2.00e-03,
618,-1.60e-03,
619,2.40e-03,
620,-1.60e-03,
621,2.40e-03,
622,2.40e-03,
623,-1.60e-03,
624,2.40e-03,
625,-2.00e-03,
626,-1.60e-03,
627,2.40e-03,
628,2.40e-03,
629,-2.40e-03,
630,-1.60e-03,
631,2.00e-03,
632,1.60e-03,
633,-1.60e-03,
634,-2.40e-03,
635,2.40e-03,
636,1.60e-03,
637,-2.40e-03,
638,1.60e-03,
639,-2.40e-03,
640,-1.60e-03,
641,2.40e-03,
642,-1.60e-03,
643,1.60e-03,
644,-1.60e-03,
645,1.60e-03,
646,-1.60e-03,
647,2.00e-03,
648,-1.60e-03,
649,2.40e-03,
650,-2.40e-03,
651,2.40e-03,
652,-1.60e-03,
653,2.00e-03,
654,2.40e-03,
655,-1.60e-03,
656,-1.60e-03,
657,2.40e-03,
658,-2.40e-03,
659,1.60e-03,
660,2.40e-03,
661,-1.60e-03,
662,2.80e-03,
663,-1.60e-03,
664,-1.60e-03,
665,2.40e-03,
666,-1.60e-03,
667,2.40e-03,
668,1.60e-03,
669,-1.60e-03,
670,2.80e-03,
671,-1.60e-03,
672,2.40e-03,
673,-1.60e-03,
674,-1.60e-03,
675,2.40e-03,
676,-1.60e-03,
677,2.40e-03,
678,2.00e-03,
679,-1.60e-03,
680,2.00e-03,
681,-2.40e-03,
682,-1.60e-03,
683,2.00e-03,
684,-2.40e-03,
685,3.20e-03,
686,-1.60e-03,
687,2.80e-03,
688,-2.40e-03,
689,1.60e-03,
690,1.60e-03,
691,-1.60e-03,
692,2.00e-03,
693,-1.60e-03,
694,1.60e-03,
695,-1.60e-03,
696,-1.60e-03,
697,2.80e-03,
698,-1.60e-03,
699,2.40e-03,
700,-1.60e-03,
701,2.40e-03,
702,2.40e-03,
703,-1.60e-03,
704,-2.40e-03,
705,2.40e-03,
706,1.60e-03,
707,-1.60e-03,
708,-1.60e-03,
709,2.40e-03,
710,2.00e-03,
711,-1.60e-03,
712,-1.60e-03,
713,1.60e-03,
714,2.00e-03,
715,-1.60e-03,
716,-2.40e-03,
717,1.60e-03,
718,2.80e-03,
719,-2.40e-03,
720,2.40e-03,
721,-2.40e-03,
722,2.40e-03,
723,-2.40e-03,
724,-1.60e-03,
725,2.00e-03,
726,-1.60e-03,
727,3.20e-03,
728,-1.60e-03,
729,2.40e-03,
730,-1.60e-03,
731,2.40e-03,
732,-8.00e-04,
733,2.40e-03,
734,2.40e-03,
735,-2.40e-03,
736,-8.00e-04,
737,2.80e-03,
738,-1.60e-03,
739,2.40e-03,
740,2.80e-03,
741,-2.40e-03,
742,-1.60e-03,
743,2.00e-03,
744,-1.60e-03,
745,2.40e-03,
746,3.20e-03,
747,-1.60e-03,
748,-1.60e-03,
749,3.20e-03,
750,-1.20e-03,
751,2.40e-03,
752,-1.60e-03,
753,2.00e-03,
754,-1.60e-03,
755,3.20e-03,
756,2.40e-03,
757,-1.60e-03,
758,-1.60e-03,
759,2.40e-03,
760,-1.60e-03,
761,2.40e-03,
762,-1.60e-03,
763,2.80e-03,
764,2.40e-03,
765,-1.60e-03,
766,-1.60e-03,
767,3.20e-03,
768,-1.60e-03,
769,2.00e-03,
770,-1.60e-03,
771,2.00e-03,
772,-1.60e-03,
773,2.40e-03,
774,2.40e-03,
775,-8.00e-04,
776,-2.40e-03,
777,2.40e-03,
778,-1.60e-03,
779,2.40e-03,
780,-1.60e-03,
781,2.40e-03,
782,2.80e-03,
783,-2.40e-03,
784,-1.60e-03,
785,3.20e-03,
786,2.80e-03,
787,-1.60e-03,
788,-1.60e-03,
789,2.40e-03,
790,3.20e-03,
791,-1.60e-03,
792,2.40e-03,
793,-2.40e-03,
794,-8.00e-04,
795,3.20e-03,
796,-1.60e-03,
797,1.60e-03,
798,2.40e-03,
799,-1.60e-03,
800,2.40e-03,
801,-1.60e-03,
802,-1.60e-03,
803,3.20e-03,
804,-1.60e-03,
805,2.80e-03,
806,-8.00e-04,
807,2.80e-03,
808,2.40e-03,
809,-8.00e-04,
810,-8.00e-04,
811,2.40e-03,
812,3.20e-03,
813,-1.60e-03,
814,-8.00e-04,
815,3.20e-03,
816,2.40e-03,
817,-2.40e-03,
818,2.40e-03,
819,-8.00e-04,
820,3.20e-03,
821,-1.60e-03,
822,3.20e-03,
823,-1.60e-03,
824,2.80e-03,
825,-2.40e-03,
826,1.60e-03,
827,-1.60e-03,
828,2.40e-03,
829,-2.40e-03,
830,-8.00e-04,
831,2.80e-03,
832,2.80e-03,
833,-1.60e-03,
834,-1.60e-03,
835,2.40e-03,
836,2.40e-03,
837,-2.40e-03,
838,-8.00e-04,
839,3.20e-03,
840,-8.00e-04,
841,2.40e-03,
842,-1.60e-03,
843,2.00e-03,
844,-8.00e-04,
845,2.40e-03,
846,-1.60e-03,
847,2.40e-03,
848,-1.60e-03,
849,2.40e-03,
850,-8.00e-04,
851,3.20e-03,
852,-1.60e-03,
853,3.20e-03,
854,2.40e-03,
855,-8.00e-04,
856,2.40e-03,
857,-1.60e-03,
858,-2.40e-03,
859,2.40e-03,
860,2.80e-03,
861,-2.40e-03,
862,2.40e-03,
863,-2.40e-03,
864,-1.60e-03,
865,2.00e-03,
866,2.40e-03,
867,-1.60e-03,
868,-1.60e-03,
869,2.40e-03,
870,-1.60e-03,
871,2.80e-03,
872,2.40e-03,
873,-1.60e-03,
874,-1.60e-03,
875,2.40e-03,
876,-1.60e-03,
877,2.00e-03,
878,2.40e-03,
879,-1.60e-03,
880,3.20e-03,
881,-8.00e-04,
882,-1.60e-03,
883,2.40e-03,
884,-1.60e-03,
885,2.40e-03,
886,-1.60e-03,
887,2.40e-03,
888,-1.60e-03,
889,2.00e-03,
890,-1.60e-03,
891,2.40e-03,
892,-1.60e-03,
893,2.40e-03,
894,-1.60e-03,
895,2.40e-03,
896,2.40e-03,
897,-1.60e-03,
898,3.20e-03,
899,-2.40e-03,
900,-1.60e-03,
901,2.80e-03,
902,-2.40e-03,
903,2.40e-03,
904,2.40e-03,
905,-1.60e-03,
906,-8.00e-04,
907,2.40e-03,
908,1.60e-03,
909,-1.60e-03,
910,2.40e-03,
911,-1.60e-03,
912,2.40e-03,
913,-1.60e-03,
914,2.00e-03,
915,-2.40e-03,
916,-1.60e-03,
917,2.40e-03,
918,3.20e-03,
919,-8.00e-04,
920,2.40e-03,
921,-2.40e-03,
922,-1.60e-03,
923,2.40e-03,
924,1.60e-03,
925,-1.60e-03,
926,2.40e-03,
927,-1.60e-03,
928,3.20e-03,
929,-1.60e-03,
930,2.40e-03,
931,-1.60e-03,
932,3.20e-03,
933,-1.60e-03,
934,-2.40e-03,
935,2.80e-03,
936,2.40e-03,
937,-1.60e-03,
938,2.40e-03,
939,-1.60e-03,
940,-1.20e-03,
941,3.20e-03,
942,-1.60e-03,
943,2.40e-03,
944,-1.60e-03,
945,2.00e-03,
946,2.40e-03,
947,-1.60e-03,
948,2.40e-03,
949,-2.40e-03,
950,2.00e-03,
951,-8.00e-04,
952,-1.60e-03,
953,3.20e-03,
954,2.40e-03,
955,-1.60e-03,
956,-1.60e-03,
957,2.40e-03,
958,2.00e-03,
959,-2.40e-03,
960,-1.60e-03,
961,2.40e-03,
962,-1.60e-03,
963,2.40e-03,
964,-8.00e-04,
965,2.40e-03,
966,-1.60e-03,
967,2.40e-03,
968,2.40e-03,
969,-1.60e-03,
970,2.40e-03,
971,-1.60e-03,
972,2.40e-03,
973,-1.60e-03,
974,3.20e-03,
975,-1.60e-03,
976,-1.60e-03,
977,2.40e-03,
978,-1.60e-03,
979,2.40e-03,
980,2.40e-03,
981,-1.60e-03,
982,-2.40e-03,
983,2.40e-03,
984,2.40e-03,
985,-8.00e-04,
986,2.40e-03,
987,-8.00e-04,
988,2.40e-03,
989,-1.60e-03,
990,-1.60e-03,
991,2.80e-03,
992,-8.00e-04,
993,4.00e-03,
994,-1.60e-03,
995,3.20e-03,
996,3.20e-03,
997,-8.00e-04,
998,-8.00e-04,
999,2.40e-03,
1000,-1.60e-03,
1001,2.80e-03,
1002,4.00e-03,
1003,-2.40e-03,
1004,-1.60e-03,
1005,2.40e-03,
1006,2.40e-03,
1007,-2.40e-03,
1008,-1.60e-03,
1009,2.40e-03,
1010,3.20e-03,
1011,-1.60e-03,
1012,2.40e-03,
1013,-8.00e-04,
1014,-1.60e-03,
1015,2.40e-03,
1016,2.40e-03,
1017,-1.60e-03,
1018,1.60e-03,
1019,-1.60e-03,
1020,-8.00e-04,
1021,2.80e-03,
1022,2.40e-03,
1023,-1.60e-03,
1024,2.00e-03,
1025,-1.60e-03,
1026,2.80e-03,
1027,-1.60e-03,
1028,-1.60e-03,
1029,3.20e-03,
1030,1.60e-03,
1031,-1.60e-03,
1032,-2.40e-03,
1033,2.40e-03,
1034,-1.60e-03,
1035,3.20e-03,
1036,2.40e-03,
1037,-1.60e-03,
1038,2.00e-03,
1039,-1.60e-03,
1040,2.40e-03,
1041,-1.60e-03,
1042,-1.60e-03,
1043,3.20e-03,
1044,3.20e-03,
1045,-1.60e-03,
1046,-1.60e-03,
1047,2.40e-03,
1048,2.40e-03,
1049,-2.40e-03,
1050,-1.60e-03,
1051,2.40e-03,
1052,-1.60e-03,
1053,2.40e-03,
1054,2.80e-03,
1055,-1.60e-03,
1056,-1.60e-03,
1057,2.40e-03,
1058,-8.00e-04,
1059,2.40e-03,
1060,2.40e-03,
1061,-1.60e-03,
1062,2.40e-03,
1063,-1.60e-03,
1064,-1.60e-03,
1065,2.40e-03,
1066,-1.60e-03,
1067,2.40e-03,
1068,2.40e-03,
1069,-1.60e-03,
1070,2.40e-03,
1071,-1.60e-03,
1072,-8.00e-04,
1073,2.40e-03,
1074,-1.60e-03,
1075,2.40e-03,
1076,-1.60e-03,
1077,3.20e-03,
1078,4.00e-03,
1079,-1.60e-03,
1080,-1.60e-03,
1081,2.40e-03,
1082,-1.60e-03,
1083,2.40e-03,
1084,2.40e-03,
1085,-1.60e-03,
1086,-1.60e-03,
1087,2.40e-03,
1088,2.40e-03,
1089,-2.40e-03,
1090,-2.40e-03,
1091,2.40e-03,
1092,-1.60e-03,
1093,3.20e-03,
1094,2.00e-03,
1095,-1.60e-03,
1096,-1.60e-03,
1097,2.40e-03,
1098,-1.60e-03,
1099,2.40e-03,
1100,2.40e-03,
1101,-8.00e-04,
1102,4.00e-03,
1103,-1.60e-03,
1104,-8.00e-04,
1105,3.20e-03,
1106,2.40e-03,
1107,-8.00e-04,
1108,-1.60e-03,
1109,3.20e-03,
1110,2.40e-03,
1111,-1.60e-03,
1112,-1.60e-03,
1113,2.80e-03,
1114,3.20e-03,
1115,-1.60e-03,
1116,-1.60e-03,
1117,2.80e-03,
1118,2.40e-03,
1119,-1.60e-03,
1120,3.20e-03,
1121,-2.40e-03,
1122,2.40e-03,
1123,-1.60e-03,
1124,2.40e-03,
1125,-2.40e-03,
1126,2.40e-03,
1127,-1.60e-03,
1128,-1.60e-03,
1129,2.80e-03,
1130,3.20e-03,
1131,-1.60e-03,
1132,-1.60e-03,
1133,2.40e-03,
1134,2.40e-03,
1135,-8.00e-04,
1136,-1.60e-03,
1137,2.80e-03,
1138,-1.60e-03,
1139,1.60e-03,
1140,1.60e-03,
1141,-1.60e-03,
1142,2.40e-03,
1143,-1.60e-03,
1144,2.40e-03,
1145,-1.60e-03,
1146,-1.60e-03,
1147,2.80e-03,
1148,3.20e-03,
1149,-1.60e-03,
1150,2.40e-03,
1151,-1.60e-03,
1152,2.40e-03,
1153,-1.60e-03,
1154,-1.60e-03,
1155,2.80e-03,
1156,2.40e-03,
1157,-1.20e-03,
1158,-1.60e-03,
1159,3.20e-03,
1160,2.40e-03,
1161,-1.60e-03,
1162,-8.00e-04,
1163,3.20e-03,
1164,3.20e-03,
1165,-1.60e-03,
1166,-1.60e-03,
1167,2.80e-03,
1168,2.40e-03,
1169,-8.00e-04,
1170,-3.20e-03,
1171,2.40e-03,
1172,2.40e-03,
1173,-2.40e-03,
1174,-1.60e-03,
1175,2.40e-03,
1176,-1.60e-03,
1177,2.40e-03,
1178,-1.60e-03,
1179,2.40e-03,
1180,-1.60e-03,
1181,2.40e-03,
1182,-1.60e-03,
1183,2.40e-03,
1184,3.20e-03,
1185,-1.20e-03,
1186,4.00e-03,
1187,-2.40e-03,
1188,1.60e-03,
1189,-1.60e-03,
1190,-1.60e-03,
1191,2.40e-03,
1192,2.40e-03,
1193,-1.60e-03,
1194,-8.00e-04,
1195,2.40e-03,
1196,-1.60e-03,
1197,2.40e-03,
1198,-8.00e-04,
1199,2.40e-03,
