fastdiffamp/data-noise-set/unb-right-9to915/NewFile3.csv

X,CH1,Start,Increment,
Sequence,Volt,-5.990000e+00,1.000000e-02
0,-8.00e-05,
1,3.20e-04,
2,0.00e+00,
3,3.20e-04,
4,0.00e+00,
5,4.00e-04,
6,3.20e-04,
7,-8.00e-05,
8,4.00e-04,
9,-8.00e-05,
10,-8.00e-05,
11,4.00e-04,
12,0.00e+00,
13,4.80e-04,
14,0.00e+00,
15,3.20e-04,
16,0.00e+00,
17,4.00e-04,
18,3.20e-04,
19,0.00e+00,
20,3.20e-04,
21,0.00e+00,
22,3.20e-04,
23,-8.00e-05,
24,3.20e-04,
25,-8.00e-05,
26,0.00e+00,
27,4.00e-04,
28,0.00e+00,
29,4.00e-04,
30,4.80e-04,
31,-8.00e-05,
32,3.20e-04,
33,0.00e+00,
34,0.00e+00,
35,4.00e-04,
36,0.00e+00,
37,5.60e-04,
38,4.00e-04,
39,8.00e-05,
40,3.20e-04,
41,-8.00e-05,
42,-1.60e-04,
43,3.20e-04,
44,0.00e+00,
45,4.00e-04,
46,4.00e-04,
47,0.00e+00,
48,0.00e+00,
49,4.00e-04,
50,-8.00e-05,
51,3.20e-04,
52,0.00e+00,
53,4.00e-04,
54,0.00e+00,
55,3.20e-04,
56,3.20e-04,
57,0.00e+00,
58,0.00e+00,
59,3.20e-04,
60,3.20e-04,
61,-8.00e-05,
62,0.00e+00,
63,3.20e-04,
64,4.00e-04,
65,0.00e+00,
66,4.80e-04,
67,0.00e+00,
68,3.20e-04,
69,0.00e+00,
70,-8.00e-05,
71,4.00e-04,
72,0.00e+00,
73,4.00e-04,
74,4.00e-04,
75,-8.00e-05,
76,-8.00e-05,
77,3.20e-04,
78,3.20e-04,
79,-8.00e-05,
80,3.20e-04,
81,-1.60e-04,
82,-8.00e-05,
83,3.20e-04,
84,0.00e+00,
85,4.00e-04,
86,3.20e-04,
87,0.00e+00,
88,0.00e+00,
89,4.00e-04,
90,0.00e+00,
91,4.00e-04,
92,3.20e-04,
93,0.00e+00,
94,0.00e+00,
95,5.60e-04,
96,-8.00e-05,
97,3.60e-04,
98,0.00e+00,
99,4.80e-04,
100,3.20e-04,
101,0.00e+00,
102,0.00e+00,
103,4.00e-04,
104,0.00e+00,
105,3.20e-04,
106,4.00e-04,
107,-8.00e-05,
108,-8.00e-05,
109,3.20e-04,
110,-8.00e-05,
111,3.20e-04,
112,4.00e-04,
113,0.00e+00,
114,0.00e+00,
115,3.20e-04,
116,0.00e+00,
117,3.20e-04,
118,3.20e-04,
119,0.00e+00,
120,4.00e-04,
121,0.00e+00,
122,0.00e+00,
123,4.00e-04,
124,0.00e+00,
125,4.00e-04,
126,0.00e+00,
127,4.80e-04,
128,3.20e-04,
129,0.00e+00,
130,4.80e-04,
131,8.00e-05,
132,4.00e-04,
133,0.00e+00,
134,0.00e+00,
135,4.00e-04,
136,4.00e-04,
137,0.00e+00,
138,4.00e-04,
139,0.00e+00,
140,4.00e-04,
141,0.00e+00,
142,8.00e-05,
143,4.80e-04,
144,-8.00e-05,
145,3.20e-04,
146,3.20e-04,
147,-8.00e-05,
148,3.20e-04,
149,0.00e+00,
150,3.20e-04,
151,0.00e+00,
152,4.00e-04,
153,0.00e+00,
154,0.00e+00,
155,4.00e-04,
156,0.00e+00,
157,4.80e-04,
158,-8.00e-05,
159,4.00e-04,
160,0.00e+00,
161,3.20e-04,
162,-8.00e-05,
163,4.00e-04,
164,-8.00e-05,
165,4.00e-04,
166,3.20e-04,
167,-8.00e-05,
168,0.00e+00,
169,3.20e-04,
170,0.00e+00,
171,4.00e-04,
172,4.80e-04,
173,-8.00e-05,
174,-8.00e-05,
175,4.00e-04,
176,4.00e-04,
177,0.00e+00,
178,0.00e+00,
179,4.80e-04,
180,3.20e-04,
181,-8.00e-05,
182,0.00e+00,
183,4.00e-04,
184,-8.00e-05,
185,4.00e-04,
186,0.00e+00,
187,3.20e-04,
188,0.00e+00,
189,4.00e-04,
190,0.00e+00,
191,3.20e-04,
192,0.00e+00,
193,4.00e-04,
194,3.20e-04,
195,-8.00e-05,
196,3.20e-04,
197,-8.00e-05,
198,3.20e-04,
199,0.00e+00,
200,3.20e-04,
201,-8.00e-05,
202,0.00e+00,
203,3.20e-04,
204,4.00e-04,
205,0.00e+00,
206,0.00e+00,
207,4.00e-04,
208,4.00e-04,
209,0.00e+00,
210,-8.00e-05,
211,3.20e-04,
212,0.00e+00,
213,3.20e-04,
214,0.00e+00,
215,4.00e-04,
216,0.00e+00,
217,3.20e-04,
218,3.20e-04,
219,0.00e+00,
220,4.00e-04,
221,-8.00e-05,
222,3.20e-04,
223,-8.00e-05,
224,0.00e+00,
225,2.80e-04,
226,2.40e-04,
227,0.00e+00,
228,4.00e-04,
229,-8.00e-05,
230,3.20e-04,
231,0.00e+00,
232,-8.00e-05,
233,3.20e-04,
234,3.20e-04,
235,-8.00e-05,
236,-8.00e-05,
237,4.00e-04,
238,3.20e-04,
239,-8.00e-05,
240,-8.00e-05,
241,2.40e-04,
242,-8.00e-05,
243,3.20e-04,
244,2.40e-04,
245,-8.00e-05,
246,-8.00e-05,
247,3.20e-04,
248,2.40e-04,
249,-8.00e-05,
250,0.00e+00,
251,3.20e-04,
252,0.00e+00,
253,3.20e-04,
254,0.00e+00,
255,4.00e-04,
256,-8.00e-05,
257,2.40e-04,
258,3.20e-04,
259,-8.00e-05,
260,0.00e+00,
261,4.00e-04,
262,-4.00e-05,
263,4.00e-04,
264,3.20e-04,
265,0.00e+00,
266,-8.00e-05,
267,3.20e-04,
268,3.20e-04,
269,-8.00e-05,
270,3.20e-04,
271,-8.00e-05,
272,-8.00e-05,
273,3.20e-04,
274,0.00e+00,
275,3.20e-04,
276,3.20e-04,
277,-1.60e-04,
278,0.00e+00,
279,3.20e-04,
280,0.00e+00,
281,3.20e-04,
282,0.00e+00,
283,3.20e-04,
284,4.00e-04,
285,0.00e+00,
286,4.00e-04,
287,-8.00e-05,
288,4.00e-04,
289,0.00e+00,
290,4.00e-04,
291,0.00e+00,
292,4.00e-04,
293,0.00e+00,
294,3.20e-04,
295,0.00e+00,
296,3.20e-04,
297,-8.00e-05,
298,3.20e-04,
299,0.00e+00,
300,0.00e+00,
301,3.20e-04,
302,-8.00e-05,
303,3.20e-04,
304,0.00e+00,
305,3.20e-04,
306,3.20e-04,
307,0.00e+00,
308,0.00e+00,
309,4.00e-04,
310,0.00e+00,
311,4.00e-04,
312,3.20e-04,
313,0.00e+00,
314,4.00e-04,
315,-8.00e-05,
316,8.00e-05,
317,4.00e-04,
318,3.20e-04,
319,-8.00e-05,
320,3.20e-04,
321,-8.00e-05,
322,-8.00e-05,
323,4.00e-04,
324,3.20e-04,
325,0.00e+00,
326,4.00e-04,
327,-8.00e-05,
328,4.80e-04,
329,-8.00e-05,
330,3.20e-04,
331,-8.00e-05,
332,0.00e+00,
333,4.00e-04,
334,-8.00e-05,
335,4.00e-04,
336,4.00e-04,
337,0.00e+00,
338,0.00e+00,
339,3.20e-04,
340,-1.60e-04,
341,3.20e-04,
342,0.00e+00,
343,3.20e-04,
344,0.00e+00,
345,4.00e-04,
346,3.20e-04,
347,-8.00e-05,
348,0.00e+00,
349,4.80e-04,
350,4.00e-04,
351,0.00e+00,
352,0.00e+00,
353,3.20e-04,
354,-8.00e-05,
355,3.20e-04,
356,-8.00e-05,
357,3.20e-04,
358,0.00e+00,
359,4.00e-04,
360,-8.00e-05,
361,4.00e-04,
362,4.00e-04,
363,-1.60e-04,
364,3.20e-04,
365,-8.00e-05,
366,0.00e+00,
367,4.00e-04,
368,0.00e+00,
369,4.00e-04,
370,-1.60e-04,
371,4.00e-04,
372,-8.00e-05,
373,3.20e-04,
374,-8.00e-05,
375,3.20e-04,
376,0.00e+00,
377,4.00e-04,
378,3.20e-04,
379,-8.00e-05,
380,-8.00e-05,
381,3.20e-04,
382,3.20e-04,
383,0.00e+00,
384,3.20e-04,
385,0.00e+00,
386,3.20e-04,
387,0.00e+00,
388,0.00e+00,
389,4.00e-04,
390,3.20e-04,
391,0.00e+00,
392,4.80e-04,
393,0.00e+00,
394,4.00e-04,
395,-8.00e-05,
396,3.20e-04,
397,0.00e+00,
398,0.00e+00,
399,3.20e-04,
400,0.00e+00,
401,3.60e-04,
402,3.20e-04,
403,0.00e+00,
404,-8.00e-05,
405,4.80e-04,
406,0.00e+00,
407,3.20e-04,
408,8.00e-05,
409,4.00e-04,
410,3.20e-04,
411,-4.00e-05,
412,8.00e-05,
413,4.00e-04,
414,4.00e-04,
415,0.00e+00,
416,-8.00e-05,
417,4.00e-04,
418,4.80e-04,
419,0.00e+00,
420,4.00e-04,
421,-8.00e-05,
422,0.00e+00,
423,3.20e-04,
424,0.00e+00,
425,4.00e-04,
426,-8.00e-05,
427,3.20e-04,
428,2.40e-04,
429,-8.00e-05,
430,3.20e-04,
431,-8.00e-05,
432,0.00e+00,
433,4.00e-04,
434,4.00e-04,
435,0.00e+00,
436,-8.00e-05,
437,4.00e-04,
438,0.00e+00,
439,4.00e-04,
440,3.20e-04,
441,0.00e+00,
442,0.00e+00,
443,3.20e-04,
444,0.00e+00,
445,4.80e-04,
446,3.20e-04,
447,0.00e+00,
448,0.00e+00,
449,4.00e-04,
450,4.00e-04,
451,8.00e-05,
452,4.00e-04,
453,8.00e-05,
454,-8.00e-05,
455,4.00e-04,
456,3.20e-04,
457,0.00e+00,
458,0.00e+00,
459,4.00e-04,
460,0.00e+00,
461,3.20e-04,
462,0.00e+00,
463,3.20e-04,
464,-8.00e-05,
465,4.00e-04,
466,4.00e-04,
467,0.00e+00,
468,3.20e-04,
469,0.00e+00,
470,0.00e+00,
471,4.00e-04,
472,4.00e-04,
473,-8.00e-05,
474,0.00e+00,
475,4.00e-04,
476,4.00e-04,
477,0.00e+00,
478,0.00e+00,
479,3.20e-04,
480,4.00e-04,
481,0.00e+00,
482,0.00e+00,
483,4.80e-04,
484,4.00e-04,
485,0.00e+00,
486,0.00e+00,
487,4.00e-04,
488,3.60e-04,
489,0.00e+00,
490,3.20e-04,
491,0.00e+00,
492,3.20e-04,
493,0.00e+00,
494,3.20e-04,
495,-8.00e-05,
496,4.00e-04,
497,-8.00e-05,
498,0.00e+00,
499,3.20e-04,
500,4.00e-04,
501,-8.00e-05,
502,0.00e+00,
503,3.20e-04,
504,0.00e+00,
505,4.00e-04,
506,3.20e-04,
507,0.00e+00,
508,4.00e-04,
509,-8.00e-05,
510,0.00e+00,
511,4.00e-04,
512,-8.00e-05,
513,3.20e-04,
514,0.00e+00,
515,4.00e-04,
516,4.00e-04,
517,0.00e+00,
518,4.00e-04,
519,-8.00e-05,
520,0.00e+00,
521,3.20e-04,
522,0.00e+00,
523,3.20e-04,
524,4.00e-04,
525,-8.00e-05,
526,0.00e+00,
527,4.00e-04,
528,0.00e+00,
529,4.00e-04,
530,4.00e-04,
531,-8.00e-05,
532,-8.00e-05,
533,3.20e-04,
534,3.20e-04,
535,-8.00e-05,
536,0.00e+00,
537,3.20e-04,
538,0.00e+00,
539,3.20e-04,
540,3.20e-04,
541,0.00e+00,
542,0.00e+00,
543,3.20e-04,
544,-8.00e-05,
545,4.80e-04,
546,3.20e-04,
547,-4.00e-05,
548,4.00e-04,
549,0.00e+00,
550,0.00e+00,
551,4.00e-04,
552,0.00e+00,
553,4.80e-04,
554,8.00e-05,
555,4.80e-04,
556,4.00e-04,
557,0.00e+00,
558,3.20e-04,
559,-8.00e-05,
560,-8.00e-05,
561,3.20e-04,
562,-8.00e-05,
563,3.20e-04,
564,3.20e-04,
565,0.00e+00,
566,0.00e+00,
567,4.80e-04,
568,-8.00e-05,
569,3.20e-04,
570,-8.00e-05,
571,3.20e-04,
572,0.00e+00,
573,4.00e-04,
574,4.00e-04,
575,0.00e+00,
576,4.00e-04,
577,0.00e+00,
578,4.00e-04,
579,-8.00e-05,
580,3.20e-04,
581,-1.60e-04,
582,-8.00e-05,
583,2.80e-04,
584,4.00e-04,
585,-8.00e-05,
586,4.80e-04,
587,-8.00e-05,
588,0.00e+00,
589,4.00e-04,
590,0.00e+00,
591,4.00e-04,
592,0.00e+00,
593,4.80e-04,
594,0.00e+00,
595,3.20e-04,
596,0.00e+00,
597,3.20e-04,
598,0.00e+00,
599,4.00e-04,
600,4.80e-04,
601,0.00e+00,
602,-8.00e-05,
603,4.80e-04,
604,-8.00e-05,
605,3.20e-04,
606,8.00e-05,
607,4.00e-04,
608,0.00e+00,
609,4.00e-04,
610,4.00e-04,
611,-1.60e-04,
612,-8.00e-05,
613,4.00e-04,
614,-8.00e-05,
615,4.00e-04,
616,-8.00e-05,
617,2.40e-04,
618,2.40e-04,
619,-8.00e-05,
620,-8.00e-05,
621,3.20e-04,
622,0.00e+00,
623,4.00e-04,
624,8.00e-05,
625,4.00e-04,
626,3.20e-04,
627,0.00e+00,
628,4.00e-04,
629,0.00e+00,
630,0.00e+00,
631,4.00e-04,
632,0.00e+00,
633,4.00e-04,
634,3.20e-04,
635,-8.00e-05,
636,-8.00e-05,
637,4.00e-04,
638,-1.60e-04,
639,4.00e-04,
640,-8.00e-05,
641,3.20e-04,
642,-8.00e-05,
643,3.20e-04,
644,0.00e+00,
645,3.20e-04,
646,4.00e-04,
647,-8.00e-05,
648,3.20e-04,
649,-8.00e-05,
650,3.20e-04,
651,0.00e+00,
652,0.00e+00,
653,4.00e-04,
654,0.00e+00,
655,5.60e-04,
656,0.00e+00,
657,4.00e-04,
658,4.00e-04,
659,0.00e+00,
660,3.20e-04,
661,-8.00e-05,
662,4.00e-04,
663,0.00e+00,
664,0.00e+00,
665,4.00e-04,
666,-8.00e-05,
667,4.00e-04,
668,4.00e-04,
669,-8.00e-05,
670,3.20e-04,
671,0.00e+00,
672,0.00e+00,
673,3.20e-04,
674,0.00e+00,
675,4.00e-04,
676,3.20e-04,
677,-8.00e-05,
678,0.00e+00,
679,4.00e-04,
680,0.00e+00,
681,4.00e-04,
682,0.00e+00,
683,4.80e-04,
684,4.00e-04,
685,0.00e+00,
686,0.00e+00,
687,3.20e-04,
688,-8.00e-05,
689,4.00e-04,
690,0.00e+00,
691,3.20e-04,
692,-8.00e-05,
693,4.00e-04,
694,3.20e-04,
695,-8.00e-05,
696,4.00e-04,
697,-8.00e-05,
698,0.00e+00,
699,4.00e-04,
700,-8.00e-05,
701,3.20e-04,
702,4.00e-04,
703,0.00e+00,
704,4.00e-04,
705,0.00e+00,
706,0.00e+00,
707,4.00e-04,
708,8.00e-05,
709,4.00e-04,
710,3.20e-04,
711,0.00e+00,
712,0.00e+00,
713,4.00e-04,
714,8.00e-05,
715,4.00e-04,
716,0.00e+00,
717,3.20e-04,
718,0.00e+00,
719,4.00e-04,
720,4.00e-04,
721,0.00e+00,
722,8.00e-05,
723,4.00e-04,
724,-8.00e-05,
725,4.00e-04,
726,0.00e+00,
727,3.20e-04,
728,0.00e+00,
729,4.00e-04,
730,0.00e+00,
731,4.00e-04,
732,0.00e+00,
733,4.80e-04,
734,0.00e+00,
735,3.20e-04,
736,-8.00e-05,
737,3.20e-04,
738,0.00e+00,
739,3.20e-04,
740,3.20e-04,
741,-8.00e-05,
742,4.00e-04,
743,0.00e+00,
744,-8.00e-05,
745,4.00e-04,
746,0.00e+00,
747,4.00e-04,
748,-8.00e-05,
749,4.00e-04,
750,0.00e+00,
751,3.20e-04,
752,0.00e+00,
753,4.00e-04,
754,3.20e-04,
755,0.00e+00,
756,0.00e+00,
757,3.20e-04,
758,0.00e+00,
759,4.00e-04,
760,3.20e-04,
761,0.00e+00,
762,0.00e+00,
763,4.00e-04,
764,4.00e-04,
765,0.00e+00,
766,4.00e-04,
767,-8.00e-05,
768,0.00e+00,
769,4.00e-04,
770,4.00e-04,
771,0.00e+00,
772,0.00e+00,
773,4.00e-04,
774,3.20e-04,
775,-8.00e-05,
776,-8.00e-05,
777,3.20e-04,
778,3.20e-04,
779,-8.00e-05,
780,-8.00e-05,
781,4.80e-04,
782,4.00e-04,
783,-8.00e-05,
784,4.00e-04,
785,8.00e-05,
786,4.00e-04,
787,0.00e+00,
788,0.00e+00,
789,4.00e-04,
790,3.20e-04,
791,-8.00e-05,
792,0.00e+00,
793,3.20e-04,
794,-8.00e-05,
795,2.80e-04,
796,0.00e+00,
797,4.00e-04,
798,3.20e-04,
799,-8.00e-05,
800,0.00e+00,
801,4.00e-04,
802,3.20e-04,
803,0.00e+00,
804,3.20e-04,
805,-8.00e-05,
806,0.00e+00,
807,4.00e-04,
808,0.00e+00,
809,4.00e-04,
810,0.00e+00,
811,3.20e-04,
812,3.20e-04,
813,-8.00e-05,
814,3.20e-04,
815,0.00e+00,
816,3.20e-04,
817,-8.00e-05,
818,0.00e+00,
819,3.20e-04,
820,-8.00e-05,
821,4.00e-04,
822,3.20e-04,
823,-8.00e-05,
824,0.00e+00,
825,2.40e-04,
826,0.00e+00,
827,4.00e-04,
828,4.00e-04,
829,-1.60e-04,
830,0.00e+00,
831,3.20e-04,
832,0.00e+00,
833,3.20e-04,
834,4.00e-04,
835,0.00e+00,
836,0.00e+00,
837,2.40e-04,
838,0.00e+00,
839,4.00e-04,
840,0.00e+00,
841,3.20e-04,
842,-8.00e-05,
843,3.20e-04,
844,3.20e-04,
845,0.00e+00,
846,4.00e-04,
847,-8.00e-05,
848,0.00e+00,
849,3.20e-04,
850,2.40e-04,
851,0.00e+00,
852,-8.00e-05,
853,4.00e-04,
854,-8.00e-05,
855,3.20e-04,
856,3.20e-04,
857,0.00e+00,
858,0.00e+00,
859,3.60e-04,
860,-8.00e-05,
861,3.20e-04,
862,4.00e-04,
863,-8.00e-05,
864,-8.00e-05,
865,3.20e-04,
866,4.00e-04,
867,-8.00e-05,
868,0.00e+00,
869,3.20e-04,
870,3.20e-04,
871,0.00e+00,
872,3.20e-04,
873,-8.00e-05,
874,3.20e-04,
875,-8.00e-05,
876,3.20e-04,
877,0.00e+00,
878,3.20e-04,
879,0.00e+00,
880,0.00e+00,
881,3.20e-04,
882,3.20e-04,
883,0.00e+00,
884,-8.00e-05,
885,3.20e-04,
886,3.20e-04,
887,-8.00e-05,
888,0.00e+00,
889,3.20e-04,
890,-8.00e-05,
891,3.20e-04,
892,0.00e+00,
893,4.00e-04,
894,-1.60e-04,
895,3.20e-04,
896,0.00e+00,
897,4.00e-04,
898,0.00e+00,
899,4.00e-04,
900,0.00e+00,
901,3.20e-04,
902,-8.00e-05,
903,4.00e-04,
904,0.00e+00,
905,4.00e-04,
906,0.00e+00,
907,4.00e-04,
908,-8.00e-05,
909,4.80e-04,
910,3.20e-04,
911,0.00e+00,
912,3.20e-04,
913,-8.00e-05,
914,-8.00e-05,
915,3.20e-04,
916,3.20e-04,
917,0.00e+00,
918,-8.00e-05,
919,3.20e-04,
920,-8.00e-05,
921,4.80e-04,
922,3.20e-04,
923,0.00e+00,
924,3.20e-04,
925,-8.00e-05,
926,0.00e+00,
927,4.00e-04,
928,0.00e+00,
929,4.00e-04,
930,3.20e-04,
931,0.00e+00,
932,4.00e-04,
933,0.00e+00,
934,3.20e-04,
935,0.00e+00,
936,0.00e+00,
937,4.00e-04,
938,0.00e+00,
939,4.00e-04,
940,0.00e+00,
941,3.20e-04,
942,0.00e+00,
943,4.00e-04,
944,3.60e-04,
945,-8.00e-05,
946,8.00e-05,
947,4.00e-04,
948,3.20e-04,
949,0.00e+00,
950,0.00e+00,
951,4.00e-04,
952,0.00e+00,
953,3.20e-04,
954,0.00e+00,
955,4.00e-04,
956,3.20e-04,
957,-4.00e-05,
958,-8.00e-05,
959,3.20e-04,
960,-8.00e-05,
961,2.80e-04,
962,-8.00e-05,
963,4.00e-04,
964,0.00e+00,
965,4.00e-04,
966,0.00e+00,
967,4.00e-04,
968,0.00e+00,
969,3.20e-04,
970,0.00e+00,
971,3.20e-04,
972,4.00e-04,
973,-8.00e-05,
974,0.00e+00,
975,3.20e-04,
976,3.20e-04,
977,-8.00e-05,
978,-8.00e-05,
979,4.00e-04,
980,8.00e-05,
981,4.00e-04,
982,8.00e-05,
983,4.00e-04,
984,8.00e-05,
985,4.00e-04,
986,8.00e-05,
987,4.00e-04,
988,0.00e+00,
989,3.20e-04,
990,0.00e+00,
991,4.00e-04,
992,4.00e-04,
993,8.00e-05,
994,0.00e+00,
995,4.00e-04,
996,-8.00e-05,
997,4.00e-04,
998,0.00e+00,
999,3.20e-04,
1000,0.00e+00,
1001,4.00e-04,
1002,0.00e+00,
1003,3.20e-04,
1004,4.00e-04,
1005,-8.00e-05,
1006,0.00e+00,
1007,3.20e-04,
1008,4.00e-04,
1009,0.00e+00,
1010,8.00e-05,
1011,4.00e-04,
1012,3.20e-04,
1013,0.00e+00,
1014,-8.00e-05,
1015,3.60e-04,
1016,4.00e-04,
1017,-8.00e-05,
1018,-8.00e-05,
1019,4.00e-04,
1020,3.20e-04,
1021,8.00e-05,
1022,-8.00e-05,
1023,3.20e-04,
1024,-8.00e-05,
1025,4.80e-04,
1026,8.00e-05,
1027,4.00e-04,
1028,4.00e-04,
1029,0.00e+00,
1030,3.20e-04,
1031,0.00e+00,
1032,-8.00e-05,
1033,4.00e-04,
1034,4.00e-04,
1035,0.00e+00,
1036,3.20e-04,
1037,0.00e+00,
1038,4.00e-04,
1039,0.00e+00,
1040,4.00e-04,
1041,-8.00e-05,
1042,0.00e+00,
1043,4.00e-04,
1044,4.00e-04,
1045,-8.00e-05,
1046,3.20e-04,
1047,0.00e+00,
1048,0.00e+00,
1049,4.80e-04,
1050,-8.00e-05,
1051,3.20e-04,
1052,0.00e+00,
1053,3.20e-04,
1054,0.00e+00,
1055,3.20e-04,
1056,0.00e+00,
1057,3.20e-04,
1058,-8.00e-05,
1059,3.20e-04,
1060,3.20e-04,
1061,0.00e+00,
1062,3.20e-04,
1063,0.00e+00,
1064,4.00e-04,
1065,0.00e+00,
1066,4.00e-04,
1067,0.00e+00,
1068,4.80e-04,
1069,0.00e+00,
1070,0.00e+00,
1071,3.20e-04,
1072,0.00e+00,
1073,3.20e-04,
1074,-8.00e-05,
1075,4.00e-04,
1076,0.00e+00,
1077,4.80e-04,
1078,8.00e-05,
1079,4.00e-04,
1080,0.00e+00,
1081,4.80e-04,
1082,4.00e-04,
1083,0.00e+00,
1084,8.00e-05,
1085,3.20e-04,
1086,0.00e+00,
1087,4.80e-04,
1088,0.00e+00,
1089,4.00e-04,
1090,4.00e-04,
1091,-8.00e-05,
1092,0.00e+00,
1093,4.00e-04,
1094,8.00e-05,
1095,4.00e-04,
1096,0.00e+00,
1097,4.00e-04,
1098,3.20e-04,
1099,-8.00e-05,
1100,3.20e-04,
1101,0.00e+00,
1102,-8.00e-05,
1103,4.80e-04,
1104,0.00e+00,
1105,4.00e-04,
1106,0.00e+00,
1107,4.00e-04,
1108,0.00e+00,
1109,3.20e-04,
1110,3.20e-04,
1111,-8.00e-05,
1112,3.20e-04,
1113,0.00e+00,
1114,4.80e-04,
1115,-8.00e-05,
1116,0.00e+00,
1117,3.20e-04,
1118,-8.00e-05,
1119,4.00e-04,
1120,-8.00e-05,
1121,4.00e-04,
1122,4.00e-04,
1123,8.00e-05,
1124,0.00e+00,
1125,4.00e-04,
1126,4.00e-04,
1127,0.00e+00,
1128,4.00e-04,
1129,8.00e-05,
1130,3.60e-04,
1131,0.00e+00,
1132,0.00e+00,
1133,4.00e-04,
1134,4.00e-04,
1135,8.00e-05,
1136,8.00e-05,
1137,4.00e-04,
1138,0.00e+00,
1139,4.00e-04,
1140,8.00e-05,
1141,4.00e-04,
1142,0.00e+00,
1143,4.00e-04,
1144,-8.00e-05,
1145,4.00e-04,
1146,4.00e-04,
1147,0.00e+00,
1148,3.20e-04,
1149,0.00e+00,
1150,-8.00e-05,
1151,4.00e-04,
1152,8.00e-05,
1153,4.00e-04,
1154,0.00e+00,
1155,3.20e-04,
1156,3.20e-04,
1157,0.00e+00,
1158,4.00e-04,
1159,0.00e+00,
1160,4.00e-04,
1161,-8.00e-05,
1162,0.00e+00,
1163,3.20e-04,
1164,3.20e-04,
1165,0.00e+00,
1166,0.00e+00,
1167,4.00e-04,
1168,0.00e+00,
1169,3.20e-04,
1170,8.00e-05,
1171,4.00e-04,
1172,0.00e+00,
1173,4.00e-04,
1174,0.00e+00,
1175,4.00e-04,
1176,0.00e+00,
1177,4.00e-04,
1178,4.00e-04,
1179,0.00e+00,
1180,-8.00e-05,
1181,4.00e-04,
1182,8.00e-05,
1183,4.00e-04,
1184,4.00e-04,
1185,8.00e-05,
1186,4.00e-04,
1187,8.00e-05,
1188,4.00e-04,
1189,0.00e+00,
1190,3.20e-04,
1191,0.00e+00,
1192,0.00e+00,
1193,4.00e-04,
1194,4.00e-04,
1195,0.00e+00,
1196,3.20e-04,
1197,8.00e-05,
1198,4.00e-04,
1199,0.00e+00,
